frame,NOSE.x,NOSE.y,NOSE.z,NOSE.v,LEFT_EYE_INNER.x,LEFT_EYE_INNER.y,LEFT_EYE_INNER.z,LEFT_EYE_INNER.v,LEFT_EYE.x,LEFT_EYE.y,LEFT_EYE.z,LEFT_EYE.v,LEFT_EYE_OUTER.x,LEFT_EYE_OUTER.y,LEFT_EYE_OUTER.z,LEFT_EYE_OUTER.v,RIGHT_EYE_INNER.x,RIGHT_EYE_INNER.y,RIGHT_EYE_INNER.z,RIGHT_EYE_INNER.v,RIGHT_EYE.x,RIGHT_EYE.y,RIGHT_EYE.z,RIGHT_EYE.v,RIGHT_EYE_OUTER.x,RIGHT_EYE_OUTER.y,RIGHT_EYE_OUTER.z,RIGHT_EYE_OUTER.v,LEFT_EAR.x,LEFT_EAR.y,LEFT_EAR.z,LEFT_EAR.v,RIGHT_EAR.x,RIGHT_EAR.y,RIGHT_EAR.z,RIGHT_EAR.v,MOUTH_LEFT.x,MOUTH_LEFT.y,MOUTH_LEFT.z,MOUTH_LEFT.v,MOUTH_RIGHT.x,MOUTH_RIGHT.y,MOUTH_RIGHT.z,MOUTH_RIGHT.v,LEFT_SHOULDER.x,LEFT_SHOULDER.y,LEFT_SHOULDER.z,LEFT_SHOULDER.v,RIGHT_SHOULDER.x,RIGHT_SHOULDER.y,RIGHT_SHOULDER.z,RIGHT_SHOULDER.v,LEFT_ELBOW.x,LEFT_ELBOW.y,LEFT_ELBOW.z,LEFT_ELBOW.v,RIGHT_ELBOW.x,RIGHT_ELBOW.y,RIGHT_ELBOW.z,RIGHT_ELBOW.v,LEFT_WRIST.x,LEFT_WRIST.y,LEFT_WRIST.z,LEFT_WRIST.v,RIGHT_WRIST.x,RIGHT_WRIST.y,RIGHT_WRIST.z,RIGHT_WRIST.v,LEFT_PINKY.x,LEFT_PINKY.y,LEFT_PINKY.z,LEFT_PINKY.v,RIGHT_PINKY.x,RIGHT_PINKY.y,RIGHT_PINKY.z,RIGHT_PINKY.v,LEFT_INDEX.x,LEFT_INDEX.y,LEFT_INDEX.z,LEFT_INDEX.v,RIGHT_INDEX.x,RIGHT_INDEX.y,RIGHT_INDEX.z,RIGHT_INDEX.v,LEFT_THUMB.x,LEFT_THUMB.y,LEFT_THUMB.z,LEFT_THUMB.v,RIGHT_THUMB.x,RIGHT_THUMB.y,RIGHT_THUMB.z,RIGHT_THUMB.v,LEFT_HIP.x,LEFT_HIP.y,LEFT_HIP.z,LEFT_HIP.v,RIGHT_HIP.x,RIGHT_HIP.y,RIGHT_HIP.z,RIGHT_HIP.v,LEFT_KNEE.x,LEFT_KNEE.y,LEFT_KNEE.z,LEFT_KNEE.v,RIGHT_KNEE.x,RIGHT_KNEE.y,RIGHT_KNEE.z,RIGHT_KNEE.v,LEFT_ANKLE.x,LEFT_ANKLE.y,LEFT_ANKLE.z,LEFT_ANKLE.v,RIGHT_ANKLE.x,RIGHT_ANKLE.y,RIGHT_ANKLE.z,RIGHT_ANKLE.v,LEFT_HEEL.x,LEFT_HEEL.y,LEFT_HEEL.z,LEFT_HEEL.v,RIGHT_HEEL.x,RIGHT_HEEL.y,RIGHT_HEEL.z,RIGHT_HEEL.v,LEFT_FOOT_INDEX.x,LEFT_FOOT_INDEX.y,LEFT_FOOT_INDEX.z,LEFT_FOOT_INDEX.v,RIGHT_FOOT_INDEX.x,RIGHT_FOOT_INDEX.y,RIGHT_FOOT_INDEX.z,RIGHT_FOOT_INDEX.v
0
1
2
3
4
5,0.07777033746242523,0.7164136171340942,0.09138894081115723,0.9983131885528564,0.08146506547927856,0.7213308811187744,0.10010524094104767,0.998353123664856,0.08156277239322662,0.7209201455116272,0.10005684196949005,0.9981484413146973,0.08165794610977173,0.7204784154891968,0.10004093497991562,0.9986310601234436,0.08297404646873474,0.7221279144287109,0.0870550125837326,0.9980965256690979,0.08417688310146332,0.7222746014595032,0.08703496307134628,0.9977554678916931,0.08531592786312103,0.7224366664886475,0.08691631257534027,0.9980869293212891,0.08336946368217468,0.7168909311294556,0.13503532111644745,0.9983434677124023,0.0864204466342926,0.7189098000526428,0.07454688102006912,0.9970636963844299,0.07759693264961243,0.7078536748886108,0.10581175982952118,0.995932400226593,0.07971802353858948,0.7086098194122314,0.0880306214094162,0.9944812059402466,0.08864887058734894,0.6677657961845398,0.14484921097755432,0.999152421951294,0.08873248100280762,0.6950763463973999,0.03229121118783951,0.9992875456809998,0.09128369390964508,0.6036152243614197,0.14311906695365906,0.3034610450267792,0.09943585097789764,0.6885204315185547,-0.06727293133735657,0.8482758402824402,0.09897580742835999,0.5556185245513916,0.11518453061580658,0.3382400572299957,0.10442940890789032,0.7050304412841797,-0.13964079320430756,0.8368338346481323,0.1089315190911293,0.5433393120765686,0.11654575914144516,0.3497583866119385,0.1054254025220871,0.7085524797439575,-0.15619006752967834,0.800207257270813,0.10120721161365509,0.5428406000137329,0.10469647496938705,0.3523714244365692,0.10673791170120239,0.7096844911575317,-0.14503437280654907,0.798448920249939,0.09982351958751678,0.5486612915992737,0.11040352284908295,0.3221893608570099,0.10629762709140778,0.7070507407188416,-0.1368870586156845,0.7635782957077026,0.06866612285375595,0.550938606262207,0.036125026643276215,0.9993606209754944,0.07319766283035278,0.5580867528915405,-0.03637416288256645,0.9992812275886536,0.04609730839729309,0.48402735590934753,0.00827652495354414,0.6734089851379395,0.06332539021968842,0.4808993637561798,-0.06119119003415108,0.8349111080169678,0.07434552907943726,0.45015671849250793,-0.021546870470046997,0.5051736831665039,0.07412055879831314,0.42709630727767944,-0.11098812520503998,0.8369258046150208,0.079973004758358,0.44993165135383606,-0.027359191328287125,0.5686970353126526,0.07871869951486588,0.4244285821914673,-0.11614990234375,0.8395143747329712,0.08169505000114441,0.423258513212204,-0.057483844459056854,0.5805404782295227,0.07079945504665375,0.39406493306159973,-0.15362469851970673,0.8580598831176758
6,0.08656948059797287,0.7079787850379944,0.07519813627004623,0.9984292387962341,0.08479689061641693,0.7122980952262878,0.08050425350666046,0.9984450936317444,0.08393801748752594,0.7115835547447205,0.08048182725906372,0.9982449412345886,0.08315669000148773,0.7108360528945923,0.08043394982814789,0.9986969828605652,0.0874023288488388,0.7142857909202576,0.08149538934230804,0.9981953501701355,0.0884900838136673,0.7148924469947815,0.0814926028251648,0.9978829622268677,0.08955122530460358,0.7154917120933533,0.08134344965219498,0.9982087016105652,0.08336365222930908,0.7064474821090698,0.09875958412885666,0.9983905553817749,0.09067133814096451,0.7128404378890991,0.09698546677827835,0.9971973896026611,0.08496761322021484,0.7000340819358826,0.08209126442670822,0.9961254596710205,0.0889994353055954,0.7021005153656006,0.08245321363210678,0.9947593808174133,0.07543593645095825,0.6677853465080261,0.06896024197340012,0.9989778995513916,0.10349394381046295,0.6845084428787231,0.07965712994337082,0.9991911053657532,0.07224519550800323,0.6070104241371155,0.06341446936130524,0.3079436421394348,0.10708081722259521,0.6736399531364441,0.004983542021363974,0.8392922878265381,0.07179495692253113,0.5762002468109131,0.0701502338051796,0.31662261486053467,0.10058595985174179,0.7071236371994019,-0.0653967335820198,0.8225377202033997,0.06888554245233536,0.5655222535133362,0.06995292007923126,0.32591506838798523,0.09792931377887726,0.7143104076385498,-0.07841292768716812,0.7827034592628479,0.06975101679563522,0.5665438771247864,0.06694106757640839,0.32835853099823,0.0985194593667984,0.716292679309845,-0.07600695639848709,0.780541718006134,0.07213132083415985,0.5700454115867615,0.06964058429002762,0.3024666905403137,0.09776218235492706,0.7129473090171814,-0.06706731021404266,0.7469915151596069,0.06686629354953766,0.5548086762428284,-0.009249808266758919,0.9993879199028015,0.08762608468532562,0.5584403872489929,0.009198535233736038,0.9993271827697754,0.06325462460517883,0.48609426617622375,-0.0902012288570404,0.6982911825180054,0.10657590627670288,0.504609227180481,-0.05984494090080261,0.8409298062324524,0.07157112658023834,0.45775359869003296,0.0659753829240799,0.4948470890522003,0.08923099935054779,0.44350573420524597,0.00019317277474328876,0.8292022347450256,0.07351286709308624,0.4600840210914612,0.08306276798248291,0.5564099550247192,0.08558947592973709,0.438524454832077,0.007799187209457159,0.8204847574234009,0.06607313454151154,0.4233374297618866,0.07469180226325989,0.5617988705635071,0.08386719226837158,0.4044828414916992,-0.020616691559553146,0.8450818061828613
7,0.08535472303628922,0.7035568952560425,0.07688181847333908,0.9983398914337158,0.08454162627458572,0.7099746465682983,0.080971859395504,0.9983426332473755,0.08399881422519684,0.7094496488571167,0.08093589544296265,0.9981456995010376,0.08359411358833313,0.7088701128959656,0.08089713752269745,0.9986075758934021,0.08725627511739731,0.7118765711784363,0.07580401748418808,0.998142659664154,0.08824130147695541,0.7126354575157166,0.07577507197856903,0.9978296756744385,0.08894823491573334,0.713403046131134,0.07565537840127945,0.9981404542922974,0.08636458218097687,0.706200361251831,0.09131713211536407,0.998359203338623,0.09040140360593796,0.7120876908302307,0.06405358761548996,0.9971941113471985,0.08371506631374359,0.6964452862739563,0.08266095817089081,0.9959834218025208,0.08799032866954803,0.6983621120452881,0.07526814937591553,0.9948238730430603,0.0884186252951622,0.6677741408348083,0.07487897574901581,0.9990137815475464,0.09033745527267456,0.691075325012207,0.058173976838588715,0.9992392659187317,0.09066129475831985,0.6068626046180725,0.073478564620018,0.30326133966445923,0.10491782426834106,0.6738064289093018,-0.030688917264342308,0.8233979344367981,0.0809619203209877,0.5745584964752197,0.07453004270792007,0.30376091599464417,0.09818276017904282,0.7073190808296204,-0.08344946801662445,0.7935110926628113,0.08311399072408676,0.5635471940040588,0.0754624456167221,0.31448179483413696,0.09512874484062195,0.7144342660903931,-0.08855541050434113,0.7531765103340149,0.08142442256212234,0.5630477070808411,0.07357801496982574,0.31548377871513367,0.09655071794986725,0.715786874294281,-0.08073270320892334,0.7488875389099121,0.08209015429019928,0.5691784024238586,0.07410217076539993,0.2909962832927704,0.09719110280275345,0.7124434113502502,-0.08104842156171799,0.7149112820625305,0.07659731060266495,0.5548723936080933,0.0089867589995265,0.9994415640830994,0.07760509103536606,0.5660755634307861,-0.009291873313486576,0.9993863105773926,0.06762930750846863,0.48739224672317505,0.021164538338780403,0.6967917680740356,0.07027579843997955,0.5173700451850891,0.019191913306713104,0.8368911743164062,0.10543934255838394,0.48311102390289307,0.04678848013281822,0.5025564432144165,0.07414734363555908,0.4676189422607422,-0.017134256660938263,0.8318175077438354,0.1110365241765976,0.48631981015205383,0.049163948744535446,0.567128598690033,0.07450619339942932,0.4633249342441559,-0.01895052008330822,0.8270595073699951,0.114505335688591,0.46941888332366943,0.04713951423764229,0.5665184855461121,0.06766434758901596,0.43927255272865295,-0.034716375172138214,0.8447155356407166
8,0.0756600946187973,0.7181968688964844,0.12484137713909149,0.9973429441452026,0.07659023255109787,0.724374532699585,0.1257343292236328,0.9972529411315918,0.07671225816011429,0.724166989326477,0.12570741772651672,0.9968318343162537,0.07685670256614685,0.7239068746566772,0.1257152259349823,0.997517466545105,0.07697393000125885,0.7253252863883972,0.1225404143333435,0.9972749352455139,0.07735750079154968,0.7257481217384338,0.12249919027090073,0.9967938661575317,0.07764432579278946,0.7261802554130554,0.12235976755619049,0.9974486231803894,0.08040871471166611,0.7215955257415771,0.12741877138614655,0.9969601631164551,0.08074092864990234,0.7245153188705444,0.11401255428791046,0.9961443543434143,0.07629480957984924,0.7119770050048828,0.1277933418750763,0.9933674335479736,0.0771578997373581,0.7129958271980286,0.1230260506272316,0.9923569560050964,0.084233358502388,0.6980119943618774,0.0980854257941246,0.9988201856613159,0.07772089540958405,0.7036862969398499,0.0948634073138237,0.9989981651306152,0.08700935542583466,0.685099184513092,0.04393528401851654,0.31778550148010254,0.091489277780056,0.6843572854995728,-0.01674356870353222,0.7803662419319153,0.08040200173854828,0.6863900423049927,0.00763176241889596,0.31868061423301697,0.08976441621780396,0.7067890167236328,-0.0920298621058464,0.7541454434394836,0.07991671562194824,0.6873289942741394,0.0023971786722540855,0.3268377184867859,0.08800716698169708,0.7128662467002869,-0.1120852380990982,0.7164801955223083,0.07905513048171997,0.6886300444602966,0.008856574073433876,0.3259606659412384,0.08867866545915604,0.7134842276573181,-0.09918011724948883,0.7106330990791321,0.0790218859910965,0.6870231032371521,0.009429773315787315,0.300497442483902,0.08875007927417755,0.710551381111145,-0.08204619586467743,0.6795760989189148,0.07633005827665329,0.5851078629493713,-0.0016530975699424744,0.9993942379951477,0.06872981041669846,0.5883156061172485,0.0014509024331346154,0.99930340051651,0.08243125677108765,0.5112088322639465,-0.013632038608193398,0.7163652777671814,0.08340493589639664,0.5170691013336182,-0.019240858033299446,0.8356291055679321,0.09940952807664871,0.4660302400588989,-0.10213911533355713,0.5345914959907532,0.10222842544317245,0.455556720495224,-0.10052331537008286,0.8275620937347412,0.0996483713388443,0.44542038440704346,-0.114407479763031,0.5946069359779358,0.09969395399093628,0.4512195885181427,-0.10985229164361954,0.8262761831283569,0.10660143196582794,0.455499529838562,-0.14963087439537048,0.5904482007026672,0.10712219774723053,0.43058648705482483,-0.14189079403877258,0.8402245044708252
9,0.06746795028448105,0.7177754044532776,-0.018063107505440712,0.9974130392074585,0.06875342130661011,0.7241208553314209,-0.010658674873411655,0.9972978830337524,0.06861840188503265,0.7235336303710938,-0.01066315732896328,0.9968650341033936,0.0685223862528801,0.7232746481895447,-0.01069700252264738,0.9975273013114929,0.07041116058826447,0.7252077460289001,-0.02520165964961052,0.9972144365310669,0.07224513590335846,0.7255547046661377,-0.02521999552845955,0.9967432618141174,0.07334046065807343,0.72611403465271,-0.025253942236304283,0.9973334670066833,0.07396279275417328,0.7208167314529419,0.0314190611243248,0.9969474077224731,0.07934996485710144,0.7235466837882996,-0.03712988272309303,0.9960623979568481,0.0676482692360878,0.7111695408821106,-0.0007671822095289826,0.9937110543251038,0.06960874795913696,0.7123128175735474,-0.020662086084485054,0.9925382733345032,0.07171501219272614,0.6836997866630554,0.06415937840938568,0.9975974559783936,0.08426272869110107,0.7009797692298889,-0.07418505847454071,0.9987435340881348,0.0756053775548935,0.6281576752662659,0.07858888804912567,0.29694080352783203,0.09169544279575348,0.7034240365028381,-0.18517617881298065,0.7933191657066345,0.06873302906751633,0.5554659962654114,0.08009819686412811,0.2911537289619446,0.08531485497951508,0.7227948904037476,-0.25782182812690735,0.7576755881309509,0.06699730455875397,0.5335770845413208,0.0872999057173729,0.2984008193016052,0.08545608073472977,0.724163293838501,-0.27751511335372925,0.7202159762382507,0.06652940809726715,0.5293211936950684,0.07195833325386047,0.29784268140792847,0.0832897275686264,0.7231467366218567,-0.26857641339302063,0.7145534753799438,0.0684116929769516,0.5369921326637268,0.07256872206926346,0.27576854825019836,0.08295272290706635,0.72211092710495,-0.25639912486076355,0.6840081214904785,0.06401174515485764,0.5830345153808594,0.03356025367975235,0.9992493987083435,0.07342041283845901,0.5795291662216187,-0.03356056660413742,0.9992243051528931,0.06126747652888298,0.4988793730735779,0.017169145867228508,0.7160443067550659,0.09342267364263535,0.5036336779594421,-0.02951430156826973,0.8367712497711182,0.07997100800275803,0.43898963928222656,0.0949636697769165,0.5424271821975708,0.0936179906129837,0.43804630637168884,0.02967393957078457,0.8223798871040344,0.08612233400344849,0.43176427483558655,0.10107086598873138,0.5954665541648865,0.093672975897789,0.4342746138572693,0.035236164927482605,0.8020378351211548,0.072428859770298,0.41107892990112305,0.06492775678634644,0.5932971239089966,0.10450662672519684,0.4058752954006195,-0.012396545149385929,0.8313407301902771
10,0.07633726298809052,0.7170244455337524,-0.02856384590268135,0.9974202513694763,0.07430370151996613,0.723739504814148,-0.022761467844247818,0.9972695112228394,0.0706075131893158,0.7231816053390503,-0.022804664447903633,0.9968035817146301,0.07126902043819427,0.7229018807411194,-0.02285555936396122,0.9974963665008545,0.07885648310184479,0.7247951030731201,-0.026454711332917213,0.9971609711647034,0.07975013554096222,0.72513747215271,-0.026473185047507286,0.9966976046562195,0.08049833029508591,0.725691020488739,-0.026531944051384926,0.997320294380188,0.07536615431308746,0.7197214961051941,0.014114193618297577,0.9968855977058411,0.08415216207504272,0.7233917117118835,-0.006647387985140085,0.9959343075752258,0.07043232023715973,0.7105775475502014,-0.013456083834171295,0.9938189387321472,0.07975537329912186,0.7122411727905273,-0.01940307579934597,0.9925004243850708,0.07219783216714859,0.6813750863075256,0.019330818206071854,0.9972395896911621,0.09275172650814056,0.6916055083274841,-0.004920014180243015,0.9979497194290161,0.06631581485271454,0.6269066333770752,0.021173100918531418,0.2974313795566559,0.09462320059537888,0.6842019557952881,-0.06149803474545479,0.755901038646698,0.06296543776988983,0.5619803667068481,0.009927929379045963,0.2717525362968445,0.08868032693862915,0.7086969017982483,-0.1290978193283081,0.7163415551185608,0.06039634346961975,0.5376635789871216,0.00994034018367529,0.2788645923137665,0.08781690895557404,0.71125328540802,-0.14006994664669037,0.6831331253051758,0.06195341423153877,0.5326899290084839,0.002217232948169112,0.27842241525650024,0.08740799129009247,0.7148674726486206,-0.13972850143909454,0.6776473522186279,0.06353063881397247,0.5376160740852356,0.007180965039879084,0.25972801446914673,0.08738105744123459,0.7136306762695312,-0.1311933547258377,0.6488654017448425,0.06602190434932709,0.5758516192436218,0.001699535408988595,0.9991472959518433,0.0842692032456398,0.5767480731010437,-0.0017205763142555952,0.9990540742874146,0.07316635549068451,0.4971204698085785,-0.022813139483332634,0.7089020013809204,0.0958348959684372,0.503454327583313,-0.014956371858716011,0.8051518201828003,0.08735928684473038,0.4339649975299835,0.03833121061325073,0.5385448336601257,0.09694404900074005,0.43807607889175415,0.03230953589081764,0.7940927147865295,0.09027067571878433,0.4274953603744507,0.041550807654857635,0.5835131406784058,0.09564696252346039,0.4337901771068573,0.03634075075387955,0.7672231793403625,0.08764722943305969,0.40641719102859497,0.008098039776086807,0.5882380604743958,0.0999443531036377,0.40605518221855164,0.0017036928329616785,0.80751633644104
11,0.08214099705219269,0.7031669020652771,0.0251625869423151,0.9974654316902161,0.07711499184370041,0.7075964212417603,0.028200503438711166,0.9972027540206909,0.07343283295631409,0.7070029377937317,0.02812839113175869,0.9967115521430969,0.07169166952371597,0.7065422534942627,0.02812259830534458,0.9973970651626587,0.08284761756658554,0.70941162109375,-0.007138233631849289,0.9972067475318909,0.08417236059904099,0.7100881934165955,-0.006635692901909351,0.9968148469924927,0.08518073707818985,0.7108289003372192,-0.006572600454092026,0.9974551796913147,0.07602779567241669,0.7006483674049377,0.07890456914901733,0.9967612028121948,0.08777426183223724,0.7090591192245483,0.08008765429258347,0.996172308921814,0.07798515260219574,0.6949809193611145,0.03502578288316727,0.9936863780021667,0.08475559204816818,0.6960771679878235,-0.0028453953564167023,0.9925405383110046,0.06745493412017822,0.6702772974967957,0.09204244613647461,0.9960579872131348,0.1033211499452591,0.6717010140419006,0.06889950484037399,0.9979695081710815,0.057312291115522385,0.6264867186546326,0.09788493812084198,0.2957223951816559,0.10332020372152328,0.64723801612854,-0.013669873587787151,0.7676235437393188,0.060176827013492584,0.5777113437652588,0.10720394551753998,0.2549394965171814,0.09083858877420425,0.6654940843582153,-0.10309626162052155,0.728926420211792,0.05932307243347168,0.561447024345398,0.10719841718673706,0.2611447274684906,0.0884646624326706,0.6671571135520935,-0.11803547292947769,0.6950099468231201,0.060317374765872955,0.5606527924537659,0.10504225641489029,0.26068028807640076,0.08877508342266083,0.6713704466819763,-0.11493464559316635,0.6899123787879944,0.06189098209142685,0.5639840364456177,0.10630427300930023,0.24494895339012146,0.08913326263427734,0.669772207736969,-0.10424058139324188,0.663108766078949,0.06630346924066544,0.5750322937965393,0.0038733743131160736,0.9991448521614075,0.10056143999099731,0.576012909412384,-0.0038711552042514086,0.999078094959259,0.0714632123708725,0.4836297333240509,-0.060312073677778244,0.7340438961982727,0.10598868131637573,0.48519235849380493,-0.021765245124697685,0.8133291006088257,0.08308632671833038,0.41069692373275757,0.03761473298072815,0.5607290863990784,0.09831066429615021,0.4235571026802063,0.08239654451608658,0.7681169509887695,0.09002632647752762,0.40253689885139465,0.023918364197015762,0.580734372138977,0.09522577375173569,0.41848939657211304,0.09225840121507645,0.7154234051704407,0.07723827660083771,0.3741287887096405,-0.02829904481768608,0.5969316363334656,0.09950044751167297,0.38985303044319153,0.04744827002286911,0.7704965472221375
12
13,0.13467758893966675,0.3540555238723755,0.02362770214676857,0.9976896643638611,0.1351853907108307,0.3457404375076294,0.03864703327417374,0.9974600076675415,0.13615202903747559,0.3459135890007019,0.0385994128882885,0.9970160126686096,0.13742850720882416,0.34548118710517883,0.03852282464504242,0.997639000415802,0.12995827198028564,0.3450128436088562,0.03142191097140312,0.9974570274353027,0.12709464132785797,0.3444397747516632,0.03141801804304123,0.9970952868461609,0.12454205751419067,0.34383419156074524,0.031381331384181976,0.9976790547370911,0.13349634408950806,0.34763720631599426,0.11278088390827179,0.9970592260360718,0.11677489429712296,0.34405434131622314,0.08262032270431519,0.9965303540229797,0.1353304088115692,0.3629557192325592,0.05248032882809639,0.9942675232887268,0.12856322526931763,0.3618112802505493,0.04343586042523384,0.9932333827018738,0.1477719247341156,0.3949355483055115,0.14997687935829163,0.9964383244514465,0.09230009466409683,0.37713557481765747,0.0653608962893486,0.9981345534324646,0.15424206852912903,0.44216686487197876,0.054481275379657745,0.34478142857551575,0.07094436138868332,0.4172157049179077,-0.034669600427150726,0.7827464938163757,0.15420612692832947,0.39866819977760315,-0.06454383581876755,0.3198370933532715,0.0996539294719696,0.3961387872695923,-0.119656041264534,0.7481095194816589,0.15485957264900208,0.3856859505176544,-0.08537432551383972,0.3185694217681885,0.10636091232299805,0.3932402729988098,-0.13750264048576355,0.7123541831970215,0.15729987621307373,0.38459786772727966,-0.06842153519392014,0.31649258732795715,0.10830855369567871,0.38435354828834534,-0.1305936872959137,0.706807017326355,0.1542923003435135,0.3883478045463562,-0.06145337224006653,0.2988412380218506,0.10609104484319687,0.38677889108657837,-0.11869294941425323,0.6800649762153625,0.1149439588189125,0.49067625403404236,0.03672833368182182,0.9991744160652161,0.07770612835884094,0.4915347695350647,-0.03674236312508583,0.9991049766540527,0.11597366631031036,0.6055877804756165,-0.0374046266078949,0.746558427810669,0.0834244042634964,0.6013845205307007,-0.07239614427089691,0.8221907615661621,0.10467007011175156,0.6955417990684509,0.016588525846600533,0.5898832678794861,0.07355363667011261,0.7015887498855591,-0.023741692304611206,0.7834289073944092,0.09778694063425064,0.7082118988037109,0.019067801535129547,0.5903062224388123,0.06961918622255325,0.7101571559906006,-0.021846972405910492,0.7150442004203796,0.11985380947589874,0.7311319708824158,-0.0467023067176342,0.6237993836402893,0.08553192019462585,0.7385526299476624,-0.09736160933971405,0.7838171720504761
14,0.13414084911346436,0.34587472677230835,-0.11295048147439957,0.9977784752845764,0.13515299558639526,0.337109237909317,-0.09880627691745758,0.9975194931030273,0.13615381717681885,0.3371596336364746,-0.09884914755821228,0.9970920085906982,0.13743802905082703,0.3370298445224762,-0.09889891743659973,0.9976685047149658,0.12986472249031067,0.3360508680343628,-0.10532374680042267,0.9974842071533203,0.12708780169487,0.3353003263473511,-0.10532687604427338,0.9971185326576233,0.12454203516244888,0.33442071080207825,-0.10535603761672974,0.9976622462272644,0.13411007821559906,0.3390043079853058,-0.013298441655933857,0.9970525503158569,0.11715773493051529,0.33385446667671204,-0.04153086990118027,0.9966620802879333,0.1347997635602951,0.35435301065444946,-0.07976166903972626,0.9946960210800171,0.12837257981300354,0.3535045385360718,-0.08809919655323029,0.9938076734542847,0.1476454734802246,0.3870979845523834,0.034706961363554,0.9967420697212219,0.09002643078565598,0.37709376215934753,-0.025184903293848038,0.9982181787490845,0.15582354366779327,0.43227139115333557,-0.05847496539354324,0.4008154273033142,0.07014293968677521,0.4168967008590698,-0.13474220037460327,0.8031578660011292,0.15813659131526947,0.3910384476184845,-0.20131322741508484,0.38082143664360046,0.10250178724527359,0.3813527822494507,-0.25650089979171753,0.7712167501449585,0.15804624557495117,0.3797769844532013,-0.23230698704719543,0.3727564811706543,0.1121583953499794,0.3766833543777466,-0.2849354147911072,0.7359941005706787,0.15729279816150665,0.37507709860801697,-0.2232997864484787,0.3695458769798279,0.11487118899822235,0.36914557218551636,-0.27714845538139343,0.7303788661956787,0.15431484580039978,0.3788932263851166,-0.202040433883667,0.35025590658187866,0.112659752368927,0.373292475938797,-0.2558319866657257,0.7038215398788452,0.12237261235713959,0.5070545673370361,0.025052571669220924,0.9990306496620178,0.08858094364404678,0.5052221417427063,-0.02500440552830696,0.9988958835601807,0.12546855211257935,0.6048837900161743,-0.032684288918972015,0.7635998725891113,0.0887543112039566,0.6018579602241516,-0.055282555520534515,0.8276792764663696,0.10938570648431778,0.6947059035301208,0.06683105230331421,0.6157573461532593,0.07933789491653442,0.696426510810852,0.03636681288480759,0.7884343862533569,0.10210206359624863,0.7059975266456604,0.07268480956554413,0.5983663201332092,0.07490931451320648,0.7060040831565857,0.04138060659170151,0.6934230327606201,0.12013925611972809,0.7230510711669922,-0.00950684305280447,0.6452667117118835,0.08561022579669952,0.7359499335289001,-0.0496511310338974,0.7853627800941467
15,0.13422128558158875,0.3356238901615143,-0.12420441210269928,0.997938334941864,0.1353878229856491,0.3257499039173126,-0.11011985689401627,0.9976961612701416,0.13639675080776215,0.3257307708263397,-0.11016286909580231,0.9972940683364868,0.13758768141269684,0.32567068934440613,-0.11021395027637482,0.9978192448616028,0.13014563918113708,0.32422083616256714,-0.11804960668087006,0.9976467490196228,0.1274731159210205,0.32324373722076416,-0.11805061250925064,0.9972956776618958,0.12488897889852524,0.3222319185733795,-0.11808538436889648,0.9977942705154419,0.1344631165266037,0.3271237313747406,-0.022517431527376175,0.9972683191299438,0.11744481325149536,0.32277461886405945,-0.05738542601466179,0.9969285130500793,0.13480335474014282,0.34436291456222534,-0.08988670259714127,0.9951939582824707,0.12812311947345734,0.34313616156578064,-0.10015568882226944,0.9944005012512207,0.14801040291786194,0.37532559037208557,0.026151906698942184,0.997046947479248,0.08927004039287567,0.3675644099712372,-0.043331678956747055,0.9983507990837097,0.16673551499843597,0.4192592203617096,-0.08062223345041275,0.4542134702205658,0.07021601498126984,0.40301477909088135,-0.1658131182193756,0.8221537470817566,0.1643187701702118,0.39064309000968933,-0.24555671215057373,0.4375893771648407,0.10750178247690201,0.3638920783996582,-0.28964391350746155,0.7929978370666504,0.1698758900165558,0.3758072853088379,-0.27932995557785034,0.42516911029815674,0.11729470640420914,0.3601709306240082,-0.3196655511856079,0.7594797611236572,0.1612081676721573,0.3726184070110321,-0.2715389132499695,0.42140069603919983,0.12122802436351776,0.3439570367336273,-0.3105199635028839,0.7540686130523682,0.1603105068206787,0.3777737617492676,-0.24758143723011017,0.40219002962112427,0.11787710338830948,0.35701456665992737,-0.2884786128997803,0.7285352945327759,0.1290326565504074,0.5031659603118896,0.019090186804533005,0.9990017414093018,0.09601297974586487,0.5026192665100098,-0.018977224826812744,0.9988374710083008,0.12832173705101013,0.5985931754112244,-0.04873407632112503,0.7798408269882202,0.09326861053705215,0.5985583066940308,-0.055337656289339066,0.8333629369735718,0.11736589670181274,0.6763057112693787,0.08225704729557037,0.6312533617019653,0.08813771605491638,0.6892536282539368,0.046290963888168335,0.7922966480255127,0.1130579262971878,0.6884211897850037,0.09206648170948029,0.5970366597175598,0.08551469445228577,0.6997292637825012,0.0525534525513649,0.6706092953681946,0.1256377398967743,0.7157695889472961,0.01324053667485714,0.6578543782234192,0.08915618807077408,0.7312470078468323,-0.0400145947933197,0.7852070331573486
16,0.13529111444950104,0.30688944458961487,-0.09705902636051178,0.9981012344360352,0.13736046850681305,0.29996034502983093,-0.08183109760284424,0.9978719353675842,0.13879655301570892,0.3005315363407135,-0.08185911923646927,0.9974988698959351,0.14025187492370605,0.301193505525589,-0.08190098404884338,0.9979760050773621,0.13157685101032257,0.2984851002693176,-0.08622277528047562,0.9978110790252686,0.1287652850151062,0.2980940043926239,-0.08621339499950409,0.9974806308746338,0.12594866752624512,0.2977014482021332,-0.08623245358467102,0.9979364275932312,0.13869759440422058,0.3075820505619049,0.003719477681443095,0.9974601864814758,0.11792518943548203,0.3023061752319336,-0.015808185562491417,0.9971659779548645,0.13669195771217346,0.3179897964000702,-0.06452863663434982,0.9956375956535339,0.12915220856666565,0.31582126021385193,-0.07023172080516815,0.9949252605438232,0.15280349552631378,0.35830625891685486,0.0435665138065815,0.9973164200782776,0.08966396003961563,0.3535209596157074,-0.003228542860597372,0.9984371066093445,0.16798937320709229,0.4111636281013489,-0.06308553367853165,0.5031288862228394,0.07205785065889359,0.3966897428035736,-0.11493951082229614,0.8367332220077515,0.16263137757778168,0.36712968349456787,-0.21645303070545197,0.4887329041957855,0.11180038750171661,0.3566743731498718,-0.24168531596660614,0.8098318576812744,0.16775235533714294,0.35505566000938416,-0.24801155924797058,0.47194230556488037,0.12076643854379654,0.3446464240550995,-0.2702752947807312,0.7750054001808167,0.1601601541042328,0.3465183973312378,-0.23666243255138397,0.4677787125110626,0.12171045690774918,0.33642926812171936,-0.2623164653778076,0.7694003582000732,0.15952380001544952,0.3536720871925354,-0.21632957458496094,0.4475376307964325,0.1195022240281105,0.3418096601963043,-0.24125471711158752,0.7433992028236389,0.1360640823841095,0.48927196860313416,0.013655103743076324,0.999025821685791,0.10314395278692245,0.4892074763774872,-0.013582015410065651,0.9988046884536743,0.13253678381443024,0.5877999663352966,-0.04922836646437645,0.7950812578201294,0.10562477260828018,0.5850493311882019,-0.029283151030540466,0.8310877084732056,0.12418098747730255,0.6735984086990356,0.07505151629447937,0.6533706784248352,0.10783293098211288,0.66794753074646,0.1073996052145958,0.790566623210907,0.12061573565006256,0.6854102611541748,0.08282730728387833,0.5890277624130249,0.10603173822164536,0.6779733300209045,0.11674588918685913,0.6426214575767517,0.12622857093811035,0.7053000330924988,-0.006848836783319712,0.6735315918922424,0.10481570661067963,0.7086169719696045,0.027500774711370468,0.7825496196746826
17,0.14144226908683777,0.3033953309059143,-0.13433167338371277,0.9982067942619324,0.1429891288280487,0.2940722405910492,-0.11502345651388168,0.9979903101921082,0.14444419741630554,0.29432567954063416,-0.11505558341741562,0.9976240992546082,0.14578911662101746,0.2944313585758209,-0.11507425457239151,0.9980547428131104,0.13719286024570465,0.2927819788455963,-0.12433239072561264,0.9979391098022461,0.1345505267381668,0.2923007309436798,-0.1243608221411705,0.9976397156715393,0.13188563287258148,0.2916613519191742,-0.12439747899770737,0.9980543851852417,0.1441413164138794,0.29980430006980896,-0.009640464559197426,0.9975347518920898,0.1243075504899025,0.29638996720314026,-0.05058063194155693,0.9974053502082825,0.1425289362668991,0.31313344836235046,-0.09443318843841553,0.9960163831710815,0.13613252341747284,0.31288430094718933,-0.10636039078235626,0.995395302772522,0.15790240466594696,0.34801986813545227,0.055638156831264496,0.9975310564041138,0.09834948182106018,0.3455134928226471,-0.05523432418704033,0.9985446929931641,0.19623515009880066,0.37682798504829407,-0.047856613993644714,0.5457128882408142,0.08606334030628204,0.38044384121894836,-0.18895864486694336,0.8525993227958679,0.18553666770458221,0.3614116609096527,-0.22311171889305115,0.530092716217041,0.12269648164510727,0.34531036019325256,-0.3108031749725342,0.827946662902832,0.18507425487041473,0.3600125312805176,-0.25928735733032227,0.506426215171814,0.13226187229156494,0.33913910388946533,-0.3445000946521759,0.7950393557548523,0.16695865988731384,0.3508318364620209,-0.25345057249069214,0.5018200278282166,0.13346725702285767,0.330220490694046,-0.3381946086883545,0.7897295951843262,0.17596806585788727,0.35561811923980713,-0.2266915738582611,0.48186615109443665,0.1304669976234436,0.33416566252708435,-0.3103483319282532,0.7647470235824585,0.1405818611383438,0.48102009296417236,0.03539619222283363,0.9990420937538147,0.11170637607574463,0.4778861403465271,-0.03532678633928299,0.9988046884536743,0.137305349111557,0.5813255906105042,-0.020507797598838806,0.8052142262458801,0.11830116808414459,0.58014315366745,-0.0705145001411438,0.8428535461425781,0.12923367321491241,0.6732644438743591,0.08536074310541153,0.6771804690361023,0.11398407071828842,0.6746547222137451,0.055439043790102005,0.8049903512001038,0.12269862741231918,0.6837602257728577,0.09070486575365067,0.6148516535758972,0.10774950683116913,0.6868351101875305,0.06057412549853325,0.6439825296401978,0.14704665541648865,0.7021357417106628,0.004023579880595207,0.6950461268424988,0.11715543270111084,0.7092283368110657,-0.07415052503347397,0.7948427796363831
18,0.17415198683738708,0.2544904053211212,-0.0843028724193573,0.9983156323432922,0.1745997965335846,0.24463145434856415,-0.0680045560002327,0.9981083273887634,0.17477869987487793,0.24402859807014465,-0.06806177645921707,0.9977557063102722,0.17477135360240936,0.24329467117786407,-0.06809362769126892,0.9981510043144226,0.17174933850765228,0.24405115842819214,-0.08577259629964828,0.9980580806732178,0.16998741030693054,0.24295541644096375,-0.08579163253307343,0.9977812767028809,0.16784043610095978,0.2415858954191208,-0.08583381026983261,0.9981629252433777,0.1683475226163864,0.24332000315189362,0.018998436629772186,0.9975845813751221,0.16028961539268494,0.24103687703609467,-0.06996535509824753,0.9976235032081604,0.171090230345726,0.26155179738998413,-0.050436340272426605,0.996346116065979,0.1684596836566925,0.2602238059043884,-0.07415180653333664,0.9958148002624512,0.16327860951423645,0.30534324049949646,0.08359727263450623,0.9977170825004578,0.12286834418773651,0.2926316261291504,-0.09585157781839371,0.9986730813980103,0.15884438157081604,0.36588335037231445,0.1197996512055397,0.5029674768447876,0.09696321189403534,0.35146504640579224,-0.13755175471305847,0.8638704419136047,0.14041851460933685,0.40619316697120667,0.053047288209199905,0.4907013773918152,0.11676980555057526,0.35674116015434265,-0.18486951291561127,0.8318366408348083,0.13523827493190765,0.4295111298561096,0.038908205926418304,0.4694577753543854,0.12684258818626404,0.38184553384780884,-0.21268586814403534,0.7967274785041809,0.13376113772392273,0.4247148931026459,0.021826058626174927,0.46571633219718933,0.12777487933635712,0.37587153911590576,-0.2237866371870041,0.7916314601898193,0.13555872440338135,0.41678526997566223,0.042895566672086716,0.44801977276802063,0.12452032417058945,0.3690773844718933,-0.1869366317987442,0.7639247179031372,0.14467275142669678,0.4433193802833557,0.06439751386642456,0.9990149736404419,0.1179150715470314,0.4365556538105011,-0.06436649709939957,0.9987651705741882,0.13843874633312225,0.5550439357757568,0.0491361990571022,0.778891921043396,0.12723204493522644,0.5571030378341675,-0.07411519438028336,0.839175820350647,0.1282065212726593,0.6619342565536499,0.14319100975990295,0.6736489534378052,0.11607404798269272,0.6565849184989929,0.03775344416499138,0.8107175827026367,0.11990766227245331,0.6702958345413208,0.14750435948371887,0.6203246712684631,0.10742709785699844,0.668173611164093,0.040696196258068085,0.644913375377655,0.1501939594745636,0.6923506855964661,0.07923203706741333,0.6989884972572327,0.1357959806919098,0.7000288367271423,-0.06777257472276688,0.8025453090667725
19,0.16043207049369812,0.2915765941143036,-0.0701579600572586,0.9979886412620544,0.1651616394519806,0.28242227435112,-0.05557546019554138,0.9976596236228943,0.17126742005348206,0.28231605887413025,-0.055664170533418655,0.9970058798789978,0.17387808859348297,0.2818056344985962,-0.05576944351196289,0.9975070953369141,0.15910197794437408,0.28156644105911255,-0.0659179538488388,0.9978067278862,0.15643055737018585,0.28070488572120667,-0.06593535840511322,0.9975610971450806,0.1536620557308197,0.2796541154384613,-0.06599617749452591,0.9979812502861023,0.1545187532901764,0.2821881175041199,0.03091224655508995,0.9964961409568787,0.15302279591560364,0.2754509150981903,-0.04605471342802048,0.9975022673606873,0.16326496005058289,0.29989320039749146,-0.036858536303043365,0.9959537386894226,0.1547495722770691,0.29854997992515564,-0.05474833771586418,0.9956497550010681,0.15910980105400085,0.33781418204307556,0.09008270502090454,0.9972535371780396,0.11556077003479004,0.324237197637558,-0.09403376281261444,0.9987161159515381,0.15890324115753174,0.38863375782966614,0.13736380636692047,0.4715578556060791,0.10516931861639023,0.3309342563152313,-0.24591824412345886,0.877190113067627,0.152584969997406,0.40593382716178894,0.123405322432518,0.4696536362171173,0.13695649802684784,0.27845218777656555,-0.32380765676498413,0.848345160484314,0.15113604068756104,0.4166608452796936,0.12137587368488312,0.4454183280467987,0.1440148800611496,0.2678302824497223,-0.35184091329574585,0.8162221312522888,0.14918634295463562,0.4099472463130951,0.1114364042878151,0.44311782717704773,0.14535711705684662,0.2642357051372528,-0.340838760137558,0.8114610314369202,0.149073526263237,0.4063566327095032,0.11770281940698624,0.4273475706577301,0.14372773468494415,0.2690231502056122,-0.3209698498249054,0.7857753038406372,0.14487673342227936,0.4592019319534302,0.05619753152132034,0.9989223480224609,0.11759971082210541,0.4573657810688019,-0.05617014318704605,0.9988054037094116,0.13924182951450348,0.5682536363601685,0.02236163802444935,0.7600605487823486,0.12485567480325699,0.5693769454956055,-0.0769694596529007,0.8409616947174072,0.13083010911941528,0.6652551293373108,0.11340383440256119,0.6768819093704224,0.12739750742912292,0.6659819483757019,-0.02054624632000923,0.8184142112731934,0.12214785814285278,0.6783103942871094,0.094772569835186,0.6334762573242188,0.11827369779348373,0.6775193810462952,-0.019973985850811005,0.6528698801994324,0.15597252547740936,0.6970409154891968,0.04269392043352127,0.7086821794509888,0.13660763204097748,0.7050001621246338,-0.10808511078357697,0.8120142221450806
20,0.1489732563495636,0.3095347285270691,0.10374484956264496,0.9981818795204163,0.14623185992240906,0.2998143434524536,0.1180001050233841,0.997886061668396,0.14473703503608704,0.30316856503486633,0.1179850697517395,0.9972939491271973,0.14537757635116577,0.3029390573501587,0.11793370544910431,0.997749388217926,0.1446961611509323,0.30115288496017456,0.09769822657108307,0.9980207681655884,0.14336273074150085,0.3010600805282593,0.09769102931022644,0.9977995157241821,0.14202681183815002,0.3009963631629944,0.09759216010570526,0.99817955493927,0.1367565393447876,0.30266818404197693,0.17732012271881104,0.9968381524085999,0.13430991768836975,0.2987096607685089,0.08430485427379608,0.9977494478225708,0.14203664660453796,0.31838247179985046,0.12763342261314392,0.9963365793228149,0.14513278007507324,0.31593477725982666,0.10046384483575821,0.9960660934448242,0.14145788550376892,0.34775570034980774,0.21246318519115448,0.9974586367607117,0.11431816965341568,0.33441075682640076,0.013862374238669872,0.9988340139389038,0.15313474833965302,0.328709214925766,0.2384212464094162,0.49106454849243164,0.12161888182163239,0.33136817812919617,-0.11399851739406586,0.8885514736175537,0.1534150093793869,0.2660391628742218,0.24457159638404846,0.5038807392120361,0.14062830805778503,0.2702746093273163,-0.1492617428302765,0.8628579378128052,0.15137341618537903,0.2534000277519226,0.23850497603416443,0.4704086184501648,0.14439162611961365,0.2561367452144623,-0.16775721311569214,0.8327407836914062,0.14939133822917938,0.2518262565135956,0.2484218329191208,0.4666861295700073,0.14250536262989044,0.26038986444473267,-0.16419777274131775,0.8280974626541138,0.14969433844089508,0.2547542452812195,0.2455243617296219,0.4516628086566925,0.14183244109153748,0.2641965448856354,-0.1486080437898636,0.8037336468696594,0.14148390293121338,0.46711650490760803,0.05592581629753113,0.999014675617218,0.11676187813282013,0.4651614725589752,-0.05591103434562683,0.998913586139679,0.14403724670410156,0.5701221227645874,0.00330664636567235,0.7573263645172119,0.1299361139535904,0.5693515539169312,-0.1032678484916687,0.8337373733520508,0.13672715425491333,0.6654767394065857,0.02320479042828083,0.677936851978302,0.13641944527626038,0.6675567030906677,-0.0849006175994873,0.8165627717971802,0.129266619682312,0.6807870864868164,0.01961960643529892,0.6431070566177368,0.12897524237632751,0.6811188459396362,-0.0862467810511589,0.6585593819618225,0.16140314936637878,0.6966303586959839,-0.04217912256717682,0.713990330696106,0.15155428647994995,0.7027525305747986,-0.16220791637897491,0.8130394220352173
21,0.13690656423568726,0.32606232166290283,0.10868985950946808,0.9983566999435425,0.12867966294288635,0.3237656056880951,0.12630343437194824,0.9980921745300293,0.1290028989315033,0.3244551420211792,0.1262965053319931,0.9975557923316956,0.1325560063123703,0.31860587000846863,0.12627463042736053,0.997969388961792,0.1271953582763672,0.3235621750354767,0.1066785603761673,0.998214840888977,0.12535271048545837,0.32369205355644226,0.10665439069271088,0.998015284538269,0.12474557012319565,0.3230477571487427,0.10656943172216415,0.9983592629432678,0.12490031868219376,0.3258516490459442,0.1922605186700821,0.9971479177474976,0.1170269101858139,0.3285638093948364,0.10386227071285248,0.9979727864265442,0.12957948446273804,0.33797702193260193,0.13380369544029236,0.996681272983551,0.13346894085407257,0.3347059488296509,0.10783864557743073,0.9964423775672913,0.13614636659622192,0.35578852891921997,0.22593459486961365,0.9976021647453308,0.10472531616687775,0.3546895682811737,0.027498196810483932,0.9989407062530518,0.15458500385284424,0.33603420853614807,0.24095003306865692,0.5072005987167358,0.11947216093540192,0.35005664825439453,-0.07573892176151276,0.8991746306419373,0.15094928443431854,0.266652911901474,0.24855060875415802,0.5283811688423157,0.14130626618862152,0.30512362718582153,-0.08197403699159622,0.8755951523780823,0.1512748897075653,0.25035369396209717,0.2443053275346756,0.4853668808937073,0.1464574635028839,0.2969473600387573,-0.09488363564014435,0.8467096090316772,0.14875231683254242,0.24856680631637573,0.2539293169975281,0.4805392622947693,0.13893461227416992,0.29332467913627625,-0.09397067129611969,0.8420558571815491,0.1487330198287964,0.2525375485420227,0.24936330318450928,0.46759656071662903,0.1430058628320694,0.2984240651130676,-0.08092086017131805,0.8186039328575134,0.1414688676595688,0.4794810116291046,0.05910886079072952,0.9990984201431274,0.11794497817754745,0.47509947419166565,-0.05903411656618118,0.9990122318267822,0.14789672195911407,0.5737050175666809,-0.00021058954007457942,0.754392147064209,0.13199064135551453,0.5726630687713623,-0.1054021567106247,0.8440860509872437,0.14453847706317902,0.6683208346366882,0.01922760345041752,0.6866136789321899,0.1420697569847107,0.6704439520835876,-0.09720253199338913,0.8291221857070923,0.13775064051151276,0.6822143793106079,0.017010651528835297,0.6595354080200195,0.1356527954339981,0.6843384504318237,-0.09963274747133255,0.6780479550361633,0.176498144865036,0.6943090558052063,-0.04587138444185257,0.7246466279029846,0.16510352492332458,0.7029540538787842,-0.17418763041496277,0.8252646923065186
22,0.1324300318956375,0.3218840956687927,0.039924219250679016,0.9984396696090698,0.13152574002742767,0.31466788053512573,0.057013966143131256,0.998188316822052,0.13207529485225677,0.31514835357666016,0.0569969043135643,0.9976621866226196,0.13412269949913025,0.31317612528800964,0.05696554854512215,0.9980823397636414,0.12797576189041138,0.3149828314781189,0.0391196683049202,0.9983298182487488,0.12611597776412964,0.3152523934841156,0.039096105843782425,0.9981388449668884,0.12458495050668716,0.31534814834594727,0.03901216387748718,0.9984678626060486,0.12514935433864594,0.31466415524482727,0.13367488980293274,0.9971825480461121,0.11398078501224518,0.3246188759803772,0.060538459569215775,0.9981532096862793,0.13050171732902527,0.3290573060512543,0.06949479877948761,0.9968599677085876,0.12911424040794373,0.33068686723709106,0.04614294320344925,0.9966796636581421,0.13852719962596893,0.3525491952896118,0.1770002841949463,0.997749924659729,0.10028405487537384,0.3641153872013092,-0.012885719537734985,0.9989944696426392,0.16475114226341248,0.33963635563850403,0.15437616407871246,0.5381767749786377,0.11724068224430084,0.3595849871635437,-0.1358087658882141,0.9085577130317688,0.151197150349617,0.2635846734046936,0.04284144937992096,0.5634257793426514,0.1395930051803589,0.3198263943195343,-0.10219746828079224,0.8868578672409058,0.151569202542305,0.2482622265815735,0.02354913018643856,0.5145106911659241,0.1522083580493927,0.30814221501350403,-0.12923744320869446,0.858963668346405,0.14959390461444855,0.24733009934425354,0.04892818257212639,0.508979320526123,0.14741438627243042,0.3039870262145996,-0.14203521609306335,0.8542935252189636,0.14927759766578674,0.253985196352005,0.04549438878893852,0.4969698488712311,0.14641477167606354,0.3087244927883148,-0.09894739091396332,0.8314930200576782,0.14627890288829803,0.47674623131752014,0.05687720328569412,0.9991812705993652,0.11960486322641373,0.47551918029785156,-0.05680552124977112,0.9990836381912231,0.1500028371810913,0.5722659826278687,-0.010189225897192955,0.7744712829589844,0.13310228288173676,0.5737488865852356,-0.10062400251626968,0.8518420457839966,0.15105244517326355,0.668904185295105,0.018800120800733566,0.7125052213668823,0.11713904142379761,0.578143298625946,0.07922153919935226,0.798751175403595,0.14247001707553864,0.6865147948265076,0.01875213347375393,0.681269645690918,0.11369381844997406,0.5902444124221802,0.09715171158313751,0.6494513154029846,0.1674826592206955,0.6996564865112305,-0.044343285262584686,0.7453122735023499,0.12117528915405273,0.6322872042655945,0.07030002027750015,0.8035484552383423
23,0.14088816940784454,0.31354328989982605,-0.00607883557677269,0.9983575344085693,0.1389453113079071,0.3043833076953888,0.010335315018892288,0.9981362223625183,0.13985919952392578,0.30428725481033325,0.010351919569075108,0.9975578188896179,0.14083178341388702,0.30372488498687744,0.010344683192670345,0.9979742169380188,0.13492493331432343,0.3045826852321625,-0.010321584530174732,0.9983490705490112,0.132752925157547,0.30453431606292725,-0.010349065996706486,0.9981789588928223,0.13065439462661743,0.3044951856136322,-0.01043722778558731,0.998511791229248,0.1317814290523529,0.30389511585235596,0.09921081364154816,0.9971551895141602,0.11851479113101959,0.3080255091190338,0.005328151863068342,0.9982939958572388,0.13948801159858704,0.3211555778980255,0.0296319629997015,0.9968207478523254,0.13526439666748047,0.32192495465278625,0.0017252234974876046,0.9968351721763611,0.14381472766399384,0.3383932113647461,0.1656612902879715,0.9978532791137695,0.10014618933200836,0.3519742786884308,-0.031898148357868195,0.9990524649620056,0.16990219056606293,0.33279746770858765,0.12646520137786865,0.5620116591453552,0.11199191957712173,0.3750407099723816,-0.17544470727443695,0.9170518517494202,0.15403875708580017,0.26318880915641785,0.06716488301753998,0.5935329794883728,0.14158138632774353,0.3227190673351288,-0.24440646171569824,0.897520124912262,0.15239471197128296,0.24491837620735168,0.05650375038385391,0.5377223491668701,0.15118031203746796,0.31501567363739014,-0.2660885453224182,0.8711132407188416,0.15278714895248413,0.2450680136680603,0.07081464678049088,0.5307636260986328,0.14782164990901947,0.31083449721336365,-0.255332887172699,0.8665925860404968,0.152726948261261,0.25047338008880615,0.06904728710651398,0.5183930397033691,0.14612534642219543,0.31505078077316284,-0.23980922996997833,0.844454288482666,0.1510341763496399,0.4728250801563263,0.0549483597278595,0.9991909861564636,0.12084954977035522,0.47549915313720703,-0.05482346937060356,0.9990777969360352,0.15558092296123505,0.5741366147994995,-0.011958761140704155,0.7884750962257385,0.13289645314216614,0.5743798017501831,-0.09412811696529388,0.8524032831192017,0.16323086619377136,0.6712769865989685,0.021737830713391304,0.7292571663856506,0.14746621251106262,0.6498605012893677,0.048848532140254974,0.806610643863678,0.1563715934753418,0.6887291073799133,0.025300895795226097,0.6895416378974915,0.14381620287895203,0.6641452312469482,0.04786783084273338,0.6479998230934143,0.18038533627986908,0.7086643576622009,-0.040015868842601776,0.7579361200332642,0.15526464581489563,0.6925281882286072,-0.07291510701179504,0.810312032699585
24,0.13053947687149048,0.3529294729232788,-0.03996771574020386,0.9981376528739929,0.1291925311088562,0.34774741530418396,-0.026380309835076332,0.9979349970817566,0.1300356090068817,0.34720614552497864,-0.02638201415538788,0.9972524046897888,0.13097228109836578,0.3464241921901703,-0.02639564871788025,0.997738778591156,0.12681610882282257,0.3491918444633484,-0.03834404796361923,0.9981873631477356,0.12557992339134216,0.34966346621513367,-0.03836367651820183,0.9979974031448364,0.12443914264440536,0.3499636948108673,-0.03845353052020073,0.9983498454093933,0.12909559905529022,0.3486688435077667,0.04256349429488182,0.9970492720603943,0.11728633940219879,0.35486945509910583,-0.009990457445383072,0.9982936382293701,0.13343706727027893,0.35935676097869873,-0.012214912101626396,0.9968355298042297,0.12978486716747284,0.3613312542438507,-0.02762536145746708,0.996799886226654,0.14534491300582886,0.3786240518093109,0.080357626080513,0.9977933764457703,0.10321943461894989,0.3937801420688629,-0.06052341312170029,0.9990546107292175,0.16636328399181366,0.34203338623046875,0.03599078953266144,0.600399911403656,0.12991823256015778,0.3750070035457611,-0.17107589542865753,0.9251492023468018,0.15408287942409515,0.2820502519607544,-0.005060598719865084,0.6304373145103455,0.16136068105697632,0.32573339343070984,-0.2010047733783722,0.90730220079422,0.15283039212226868,0.26548418402671814,-0.02255943790078163,0.5741391777992249,0.15930575132369995,0.31680727005004883,-0.2249947041273117,0.8821983933448792,0.1522051841020584,0.26426762342453003,-0.014904742129147053,0.5673297047615051,0.1664276123046875,0.31330201029777527,-0.21628832817077637,0.8777900338172913,0.1522853821516037,0.2705157995223999,-0.00605067377910018,0.5550969839096069,0.1640630066394806,0.31786662340164185,-0.1989719271659851,0.8568233251571655,0.15523001551628113,0.5100806951522827,0.04186036437749863,0.9992232918739319,0.12521220743656158,0.5151007175445557,-0.041795678436756134,0.9991219639778137,0.16303092241287231,0.5975778698921204,-0.0011369837448000908,0.802487850189209,0.13807949423789978,0.6018174886703491,-0.04984823241829872,0.8619102835655212,0.1657002866268158,0.6864663362503052,0.09527819603681564,0.7417196035385132,0.1516330987215042,0.6838971972465515,0.051931142807006836,0.8185400366783142,0.16117817163467407,0.7020909786224365,0.10169702768325806,0.7010075449943542,0.1501823365688324,0.70184326171875,0.05659458786249161,0.6585887670516968,0.18279989063739777,0.714258074760437,0.030609402805566788,0.766592800617218,0.1598813533782959,0.7102196216583252,-0.03421981632709503,0.8202611804008484
25,0.12450253963470459,0.37458038330078125,-0.08986922353506088,0.9977858066558838,0.12304987013339996,0.37004339694976807,-0.07765768468379974,0.997592031955719,0.1242276057600975,0.36954814195632935,-0.0776689350605011,0.9967835545539856,0.1256302297115326,0.368826687335968,-0.0777035504579544,0.9973284006118774,0.12011774629354477,0.3716457188129425,-0.08407295495271683,0.9979177713394165,0.11894474923610687,0.37236443161964417,-0.08407902717590332,0.9976637363433838,0.11809013783931732,0.37274810671806335,-0.08416594564914703,0.9980089068412781,0.125347301363945,0.37300190329551697,-0.011736882850527763,0.9967482089996338,0.11447343975305557,0.37942034006118774,-0.04101685807108879,0.9980793595314026,0.12894202768802643,0.38078558444976807,-0.06377801299095154,0.9967538714408875,0.12467696517705917,0.3828337788581848,-0.07234636694192886,0.9966722130775452,0.14545948803424835,0.39560481905937195,0.016793813556432724,0.9977576732635498,0.1030246764421463,0.4138461649417877,-0.07946617156267166,0.9988389015197754,0.16302408277988434,0.3435797691345215,-0.03101859614253044,0.6366110444068909,0.11987040191888809,0.392923504114151,-0.23133881390094757,0.9310701489448547,0.15528281033039093,0.28364691138267517,-0.07392134517431259,0.6649819016456604,0.14885738492012024,0.34800586104393005,-0.3259783089160919,0.913182258605957,0.15595129132270813,0.2690805494785309,-0.093867227435112,0.6109090447425842,0.15119734406471252,0.3388001620769501,-0.3593410849571228,0.8851242661476135,0.15521857142448425,0.2666318118572235,-0.09690989553928375,0.6047458648681641,0.15512962639331818,0.33695608377456665,-0.3480704426765442,0.8799755573272705,0.15484891831874847,0.2724628448486328,-0.0794353187084198,0.5931822657585144,0.15324363112449646,0.3411988914012909,-0.3262180685997009,0.8584995269775391,0.156513050198555,0.5246320366859436,0.026399562135338783,0.9992544651031494,0.1258857399225235,0.5312108397483826,-0.02635897323489189,0.9991586804389954,0.16697046160697937,0.6067260503768921,-0.00888625718653202,0.8198778033256531,0.13998952507972717,0.6151675581932068,-0.0417410209774971,0.8719742298126221,0.16717815399169922,0.6913788318634033,0.11432274430990219,0.7614509463310242,0.15323859453201294,0.6910368800163269,0.08009415119886398,0.8331376314163208,0.16291716694831848,0.7026152014732361,0.1234695315361023,0.7178218960762024,0.1520199477672577,0.703292727470398,0.08727084845304489,0.6735507845878601,0.18143025040626526,0.7189699411392212,0.04691275954246521,0.781973659992218,0.16143792867660522,0.7171863913536072,-0.003592346329241991,0.8330005407333374
26,0.1249442845582962,0.3953631520271301,-0.2689611315727234,0.9978228807449341,0.12360483407974243,0.38543394207954407,-0.25863075256347656,0.9976657629013062,0.12575770914554596,0.3845655024051666,-0.2586398720741272,0.9968407154083252,0.12757092714309692,0.3830616772174835,-0.25871339440345764,0.997383177280426,0.1196022778749466,0.39094284176826477,-0.26528072357177734,0.9979778528213501,0.11753294616937637,0.39251473546028137,-0.26531121134757996,0.9976996183395386,0.11644823849201202,0.39286360144615173,-0.2653835117816925,0.9980551600456238,0.12690140306949615,0.3805288076400757,-0.17104969918727875,0.9968595504760742,0.11256702244281769,0.39383170008659363,-0.19956739246845245,0.9981590509414673,0.13006290793418884,0.3966243863105774,-0.23158474266529083,0.996903121471405,0.12494947761297226,0.4022079110145569,-0.24018530547618866,0.9968403577804565,0.1484735906124115,0.39830541610717773,-0.1053551584482193,0.997838020324707,0.10259056091308594,0.42029523849487305,-0.19853606820106506,0.9988206028938293,0.16705605387687683,0.35552215576171875,-0.17789004743099213,0.6674902439117432,0.1167774423956871,0.40411320328712463,-0.35129156708717346,0.937497079372406,0.15921299159526825,0.2950938045978546,-0.2590104639530182,0.6914710402488708,0.14544691145420074,0.34619224071502686,-0.44073906540870667,0.9207003116607666,0.15778321027755737,0.27968481183052063,-0.28394731879234314,0.635014533996582,0.15132029354572296,0.33091065287590027,-0.4764653742313385,0.8923526406288147,0.1563650220632553,0.27275654673576355,-0.28331857919692993,0.6284140348434448,0.15108272433280945,0.33100083470344543,-0.4597305655479431,0.8868927359580994,0.15555258095264435,0.28368762135505676,-0.26339393854141235,0.6166412234306335,0.1498931497335434,0.3397730588912964,-0.43805041909217834,0.8650867342948914,0.15523502230644226,0.5235684514045715,0.01598932035267353,0.9992337822914124,0.12708555161952972,0.5384708046913147,-0.015980971977114677,0.999099850654602,0.16804420948028564,0.6148273348808289,-0.04539928585290909,0.8336921334266663,0.14495918154716492,0.6275796890258789,-0.03864425793290138,0.8738895654678345,0.175907701253891,0.7092558145523071,0.08856073766946793,0.7704173922538757,0.16269491612911224,0.7097823023796082,0.07411233335733414,0.8364238739013672,0.17271475493907928,0.7224445939064026,0.09549122303724289,0.7150777578353882,0.16232457756996155,0.7227800488471985,0.08070842921733856,0.6663997769355774,0.1816629022359848,0.7395442724227905,0.02988988533616066,0.7851532697677612,0.1670367419719696,0.7380393147468567,-0.015418320894241333,0.8328794240951538
27,0.12551894783973694,0.4062899649143219,-0.14010514318943024,0.997682511806488,0.1244984120130539,0.39955663681030273,-0.1314355731010437,0.9974988102912903,0.1259145885705948,0.3988114595413208,-0.13144609332084656,0.9965957403182983,0.1284799575805664,0.39605647325515747,-0.13155384361743927,0.9971707463264465,0.12078120559453964,0.40232327580451965,-0.16735902428627014,0.9977362751960754,0.11874421685934067,0.4037092626094818,-0.1675971895456314,0.9973886609077454,0.11757280677556992,0.404060423374176,-0.16768191754817963,0.9978198409080505,0.12777692079544067,0.3980683386325836,-0.06520791351795197,0.9964553713798523,0.1128157526254654,0.40987586975097656,-0.06406155228614807,0.9979552626609802,0.13001009821891785,0.41264551877975464,-0.10820676386356354,0.9968922138214111,0.1237187385559082,0.4160264730453491,-0.1552501916885376,0.9968361854553223,0.14985550940036774,0.4264868199825287,0.01558895967900753,0.9979411959648132,0.10250657796859741,0.447605162858963,-0.08376754820346832,0.9987499117851257,0.1700485348701477,0.4145428240299225,-0.06409727036952972,0.6918718218803406,0.1155252605676651,0.4491231143474579,-0.2513584494590759,0.943065345287323,0.15831229090690613,0.3534601032733917,-0.16641153395175934,0.7168184518814087,0.14399085938930511,0.3952415883541107,-0.36302196979522705,0.9277092218399048,0.15572020411491394,0.3415170907974243,-0.1914917379617691,0.6602374315261841,0.15032605826854706,0.38242587447166443,-0.43593302369117737,0.9000318050384521,0.15353235602378845,0.34225064516067505,-0.18174676597118378,0.6535176038742065,0.1495209038257599,0.37913280725479126,-0.3603361248970032,0.8946912884712219,0.1537770926952362,0.3482108414173126,-0.1676325649023056,0.6417660713195801,0.14822420477867126,0.385296493768692,-0.34720438718795776,0.8737112879753113,0.16349002718925476,0.556042492389679,0.01906616985797882,0.9992859959602356,0.1302039623260498,0.5662639141082764,-0.01905144937336445,0.9991360306739807,0.1741754114627838,0.6311272978782654,-0.04555429890751839,0.8485106229782104,0.15107999742031097,0.6468684077262878,-0.04253141209483147,0.8808447122573853,0.18038558959960938,0.7163823843002319,0.09552771598100662,0.7872158885002136,0.16227877140045166,0.7157971262931824,0.13132530450820923,0.8389289379119873,0.1761496216058731,0.728094756603241,0.10665953159332275,0.7180032134056091,0.16033709049224854,0.725060760974884,0.14624929428100586,0.6521832942962646,0.1869070678949356,0.754231870174408,0.031384363770484924,0.7994629144668579,0.16712883114814758,0.7518278360366821,0.07428042590618134,0.8361145257949829
28,0.12513944506645203,0.4343494176864624,-0.03538491576910019,0.9978729486465454,0.12505121529102325,0.42506757378578186,-0.021164780482649803,0.997714102268219,0.1266801953315735,0.4244796633720398,-0.021180130541324615,0.9968838095664978,0.12925520539283752,0.42382192611694336,-0.02121204324066639,0.9974132776260376,0.12133616209030151,0.42810773849487305,-0.028421681374311447,0.9979199767112732,0.11977174133062363,0.42816630005836487,-0.02844037488102913,0.9975973963737488,0.1185985580086708,0.4279552102088928,-0.02852298878133297,0.998005211353302,0.13179261982440948,0.42555952072143555,0.0532173328101635,0.9967589974403381,0.1131834164261818,0.4286651015281677,0.030461540445685387,0.9981285333633423,0.13030458986759186,0.4398357570171356,-0.006104368716478348,0.9971385598182678,0.12245609611272812,0.43979331851005554,-0.01588367484509945,0.9970993995666504,0.15076753497123718,0.4542624354362488,0.09356962144374847,0.998072624206543,0.10304176807403564,0.46479928493499756,0.0063465675339102745,0.9988362789154053,0.16887293756008148,0.45781299471855164,0.01729792170226574,0.7038973569869995,0.11375925689935684,0.4724339246749878,-0.10954149812459946,0.9477852582931519,0.1538945734500885,0.40178975462913513,-0.06261485069990158,0.7332609295845032,0.13872799277305603,0.42919811606407166,-0.1627861112356186,0.9334681630134583,0.1523832529783249,0.39662966132164,-0.07778584212064743,0.6737771034240723,0.1443561315536499,0.4195207357406616,-0.18297609686851501,0.9056269526481628,0.14745362102985382,0.38867661356925964,-0.06676237285137177,0.6661310791969299,0.14427779614925385,0.41604721546173096,-0.17127707600593567,0.9003019332885742,0.15000908076763153,0.40205177664756775,-0.061448413878679276,0.6530952453613281,0.14344200491905212,0.42166581749916077,-0.15974615514278412,0.8797869682312012,0.16139481961727142,0.5716330409049988,0.022231947630643845,0.9993407726287842,0.12823885679244995,0.58382248878479,-0.02216680720448494,0.9991913437843323,0.18764926493167877,0.6265963912010193,-0.1603507697582245,0.8622915744781494,0.1499614119529724,0.643570065498352,-0.15989260375499725,0.8904759883880615,0.1807614117860794,0.7119415998458862,-0.11386917531490326,0.8049314022064209,0.16144846379756927,0.7275493144989014,-0.11012616008520126,0.8506759405136108,0.1762773096561432,0.7257733941078186,-0.11217242479324341,0.7380165457725525,0.16167446970939636,0.7349175810813904,-0.10735751688480377,0.6706938743591309,0.19160190224647522,0.7530555129051208,-0.19237402081489563,0.8157384395599365,0.16938231885433197,0.7678344249725342,-0.18608351051807404,0.8483155965805054
29,0.1313651204109192,0.41357019543647766,-0.06263922154903412,0.9950093626976013,0.13190050423145294,0.4054190218448639,-0.05292608216404915,0.9948399662971497,0.13388541340827942,0.40476933121681213,-0.052971821278333664,0.9930893778800964,0.1359468698501587,0.4040946364402771,-0.05299464613199234,0.9942848682403564,0.1264059990644455,0.4072074890136719,-0.0559098906815052,0.9952394366264343,0.12428145110607147,0.40761134028434753,-0.055905647575855255,0.9941734075546265,0.12219031155109406,0.4079377353191376,-0.05600960925221443,0.9953651428222656,0.13777416944503784,0.40499627590179443,0.024688413366675377,0.9912897348403931,0.11722354590892792,0.4102388918399811,0.0048066070303320885,0.9957866072654724,0.13531622290611267,0.4195270836353302,-0.030453989282250404,0.992759644985199,0.1281171441078186,0.4211105704307556,-0.030367735773324966,0.9948152303695679,0.15483291447162628,0.43269217014312744,0.06733633577823639,0.9979131817817688,0.10346871614456177,0.4442768096923828,-0.008262475952506065,0.998772919178009,0.1682094931602478,0.45720186829566956,-0.01094809640198946,0.6980966329574585,0.10102491080760956,0.48096323013305664,-0.11722694337368011,0.9478837847709656,0.14814546704292297,0.43374472856521606,-0.12097616493701935,0.7361549735069275,0.1297939419746399,0.45452624559402466,-0.20836946368217468,0.9321661591529846,0.14434807002544403,0.4298790991306305,-0.14301756024360657,0.6729611754417419,0.13728755712509155,0.45073774456977844,-0.23107068240642548,0.8998855948448181,0.14160017669200897,0.4263622462749481,-0.1352538764476776,0.6642829179763794,0.1382765918970108,0.44418865442276,-0.22239771485328674,0.8938916325569153,0.14218126237392426,0.4296753704547882,-0.12111325562000275,0.6476235389709473,0.13638608157634735,0.44705361127853394,-0.20636096596717834,0.8701976537704468,0.16114340722560883,0.5511248111724854,0.02275036834180355,0.9991692900657654,0.1288125067949295,0.5605108737945557,-0.022669587284326553,0.9989944100379944,0.1801491677761078,0.6251248121261597,-0.07038608193397522,0.8598912358283997,0.1516522914171219,0.6389307379722595,-0.14678220450878143,0.8887941241264343,0.1813468039035797,0.7120980024337769,-0.007428462151437998,0.807639479637146,0.16529302299022675,0.7234299778938293,-0.03572530299425125,0.8539528846740723,0.176398366689682,0.7269031405448914,-0.004646320827305317,0.7433875799179077,0.16311170160770416,0.7346254587173462,-0.033044762909412384,0.6645155549049377,0.19529111683368683,0.7455520629882812,-0.07892270386219025,0.8188544511795044,0.17219284176826477,0.7565256357192993,-0.1128898411989212,0.8513535261154175
30,0.13728447258472443,0.4198246896266937,-0.1104297786951065,0.9937024116516113,0.13553348183631897,0.4105145335197449,-0.09845294058322906,0.992936909198761,0.1370447725057602,0.409599632024765,-0.09851659834384918,0.990973711013794,0.13851766288280487,0.4087359607219696,-0.0985628217458725,0.9923756122589111,0.13041870296001434,0.4126787483692169,-0.11071527004241943,0.9935386776924133,0.12808549404144287,0.4133426249027252,-0.11073318868875504,0.9924389123916626,0.1256936937570572,0.41399651765823364,-0.110826775431633,0.9937631487846375,0.13742494583129883,0.40878722071647644,-0.015292568132281303,0.9876161813735962,0.11929693073034286,0.4153335690498352,-0.0703372210264206,0.994911253452301,0.13938874006271362,0.42577308416366577,-0.07628795504570007,0.9916409850120544,0.1333804875612259,0.4283914566040039,-0.09180252254009247,0.9944738745689392,0.15374019742012024,0.43472525477409363,0.05275313928723335,0.9979982972145081,0.10379403829574585,0.45634958148002625,-0.06330052763223648,0.9988062977790833,0.16821739077568054,0.4676748812198639,0.003939892165362835,0.6885805130004883,0.10308480262756348,0.5074769854545593,-0.1383139193058014,0.9512484669685364,0.149601548910141,0.4598706066608429,-0.11162936687469482,0.7327518463134766,0.13096699118614197,0.496086061000824,-0.2112821340560913,0.9351378679275513,0.1468392163515091,0.46133387088775635,-0.13700786232948303,0.6706396341323853,0.13802705705165863,0.4972061216831207,-0.23484492301940918,0.9032793641090393,0.1432572454214096,0.4564368426799774,-0.1361878216266632,0.66239333152771,0.1386570781469345,0.4872063100337982,-0.23468497395515442,0.8976936936378479,0.143229141831398,0.4571351110935211,-0.115220807492733,0.6440118551254272,0.13701966404914856,0.4873356223106384,-0.2119329273700714,0.8730449676513672,0.15975061058998108,0.5527265667915344,0.04068317636847496,0.99897301197052,0.12845471501350403,0.5631347298622131,-0.040545761585235596,0.9985345602035522,0.1800304353237152,0.6273811459541321,-0.04097757488489151,0.8532123565673828,0.15882858633995056,0.6383081078529358,-0.12130308151245117,0.8924443125724792,0.18022236227989197,0.7138293385505676,0.011157416738569736,0.8078808784484863,0.16235598921775818,0.7214500904083252,-0.05632970854640007,0.8577027916908264,0.17318841814994812,0.7269665598869324,0.016335682943463326,0.7495664954185486,0.15888573229312897,0.7338029146194458,-0.05297963693737984,0.6652421355247498,0.19629979133605957,0.7450923323631287,-0.05196193978190422,0.8199082016944885,0.18030288815498352,0.759464681148529,-0.12825550138950348,0.8548216819763184
31,0.14145134389400482,0.4114847779273987,-0.06505177170038223,0.9934085011482239,0.13920100033283234,0.4038821756839752,-0.053941089659929276,0.9920337796211243,0.13941015303134918,0.40368029475212097,-0.05399533361196518,0.9896805882453918,0.13970860838890076,0.4032515585422516,-0.05401492863893509,0.9912465214729309,0.13716264069080353,0.40411362051963806,-0.07966432720422745,0.9933468699455261,0.13551539182662964,0.4041982591152191,-0.07969042658805847,0.9923701882362366,0.13401062786579132,0.40409737825393677,-0.07978948950767517,0.9937900900840759,0.13705667853355408,0.4050370454788208,-8.777559560257941e-05,0.9828320741653442,0.12643924355506897,0.40681618452072144,-0.0754290446639061,0.9948723316192627,0.14047442376613617,0.41885340213775635,-0.040736615657806396,0.9903525710105896,0.13769134879112244,0.41911840438842773,-0.08759637922048569,0.9944920539855957,0.14260134100914001,0.44476380944252014,0.08091424405574799,0.9973162412643433,0.10583331435918808,0.4545905292034149,-0.1010105237364769,0.9988764524459839,0.1568511426448822,0.4814765155315399,0.11705684661865234,0.6318355798721313,0.10414011776447296,0.5158770680427551,-0.14891962707042694,0.9554548263549805,0.15019920468330383,0.47922757267951965,0.054910242557525635,0.687978982925415,0.1323588788509369,0.5173010230064392,-0.19963867962360382,0.9407299757003784,0.1506159007549286,0.4829075038433075,0.043745603412389755,0.6334622502326965,0.14065825939178467,0.5205477476119995,-0.22254469990730286,0.9112849831581116,0.148170605301857,0.4749319851398468,0.03251421079039574,0.6270262598991394,0.14248870313167572,0.5118620991706848,-0.22254852950572968,0.9061469435691833,0.14730238914489746,0.47378742694854736,0.047211725264787674,0.6084505915641785,0.14012017846107483,0.5075613260269165,-0.19895288348197937,0.8823800086975098,0.15275205671787262,0.5602843165397644,0.05676288530230522,0.9982686042785645,0.12894277274608612,0.5684929490089417,-0.05670662969350815,0.9978362321853638,0.17679376900196075,0.6331387758255005,0.01922457478940487,0.8378075361251831,0.16086509823799133,0.6431834697723389,-0.11528488248586655,0.8954780697822571,0.1780773103237152,0.7247160077095032,0.06272813677787781,0.8032851219177246,0.16120311617851257,0.7250915169715881,-0.03876189887523651,0.8646348714828491,0.17114374041557312,0.7411661148071289,0.06296607851982117,0.751402735710144,0.15689092874526978,0.7398352026939392,-0.03676540032029152,0.6768179535865784,0.19811785221099854,0.7463935017585754,0.011391650885343552,0.8215389847755432,0.184321328997612,0.7565076351165771,-0.10782933235168457,0.8620187044143677
32,0.13696642220020294,0.4096420109272003,-0.043896812945604324,0.9937716722488403,0.13255055248737335,0.4035964012145996,-0.031764790415763855,0.9923813343048096,0.13265150785446167,0.4035583436489105,-0.03180672973394394,0.9901662468910217,0.1327516734600067,0.40349432826042175,-0.03181728348135948,0.991596519947052,0.1308225393295288,0.40406444668769836,-0.04972993582487106,0.993731677532196,0.12784837186336517,0.4034280478954315,-0.04975195601582527,0.9928709864616394,0.12692144513130188,0.4034608006477356,-0.049857765436172485,0.9942023158073425,0.12744814157485962,0.40928784012794495,0.029718067497015,0.9833436012268066,0.12250964343547821,0.40922191739082336,-0.06660009920597076,0.9952765107154846,0.13588929176330566,0.4184519946575165,-0.01891045644879341,0.9908207058906555,0.13372698426246643,0.41916462779045105,-0.04479960352182388,0.9949212670326233,0.13910003006458282,0.44509178400039673,0.08701664209365845,0.9972913861274719,0.10203136503696442,0.45565474033355713,-0.09700397402048111,0.998970627784729,0.15650419890880585,0.4741464853286743,0.061374567449092865,0.6033098101615906,0.10236118733882904,0.5144283771514893,-0.1170421838760376,0.9587317109107971,0.15046806633472443,0.4493277370929718,0.003970135934650898,0.6753074526786804,0.12703225016593933,0.5289421677589417,-0.16012607514858246,0.94453364610672,0.15051482617855072,0.44594886898994446,0.008585542440414429,0.6244462132453918,0.13403013348579407,0.5380647778511047,-0.1782873123884201,0.9164478182792664,0.14760664105415344,0.4394092857837677,-0.017621096223592758,0.6182188391685486,0.13740672171115875,0.5289441347122192,-0.18254044651985168,0.911555826663971,0.14669305086135864,0.4415654242038727,0.036324385553598404,0.5982202887535095,0.13542267680168152,0.526171863079071,-0.16104374825954437,0.8877533078193665,0.1489797681570053,0.5583635568618774,0.0513225719332695,0.9982602000236511,0.1281977742910385,0.5651988983154297,-0.05126004293560982,0.9978118538856506,0.17580951750278473,0.6295661926269531,0.005739494226872921,0.833155632019043,0.15783336758613586,0.6380702257156372,-0.13021869957447052,0.9019935131072998,0.17709264159202576,0.7233911752700806,-0.022268660366535187,0.8055700063705444,0.16037453711032867,0.723748505115509,-0.1085069328546524,0.869504451751709,0.17043346166610718,0.7372547388076782,-0.025936309248209,0.7601490616798401,0.15526126325130463,0.7436231374740601,-0.10975408554077148,0.687801718711853,0.19800756871700287,0.7459195852279663,-0.08574492484331131,0.8250218629837036,0.18223229050636292,0.7568233609199524,-0.18304328620433807,0.8667343258857727
33,0.11065015941858292,0.40546196699142456,-0.08070594072341919,0.9912256598472595,0.11283667385578156,0.3985152840614319,-0.07262605428695679,0.9887629151344299,0.1129845529794693,0.39838069677352905,-0.0727056935429573,0.9864256381988525,0.11579225957393646,0.3979434669017792,-0.07274831086397171,0.9883207082748413,0.11034755408763885,0.3994775116443634,-0.07194538414478302,0.9893748164176941,0.10996744781732559,0.3991982638835907,-0.0719611719250679,0.987653374671936,0.10742320120334625,0.39920568466186523,-0.07203466445207596,0.9891939163208008,0.11772672832012177,0.40174582600593567,-0.01477598212659359,0.9779614806175232,0.10781407356262207,0.4037937819957733,-0.028656894341111183,0.9869956374168396,0.11427155882120132,0.4133997857570648,-0.05888755992054939,0.9876944422721863,0.11048544943332672,0.4147171676158905,-0.05946105718612671,0.9915415048599243,0.13577115535736084,0.4369291067123413,0.010163366794586182,0.9967807531356812,0.09306240826845169,0.4490909278392792,-0.004141726531088352,0.9981951117515564,0.1427600085735321,0.46686846017837524,-0.04309079796075821,0.5977219939231873,0.09738527238368988,0.4978243112564087,-0.04549315199255943,0.9133774638175964,0.12996110320091248,0.4657669961452484,-0.15053701400756836,0.6544346809387207,0.10796283185482025,0.4991576075553894,-0.14268656075000763,0.9010698795318604,0.12835022807121277,0.4701211154460907,-0.17755822837352753,0.6066802740097046,0.1106354221701622,0.5037218332290649,-0.16498884558677673,0.877328097820282,0.1262126863002777,0.4646569788455963,-0.18326471745967865,0.6016424298286438,0.10953916609287262,0.49699145555496216,-0.17539633810520172,0.8740748763084412,0.12652406096458435,0.463463693857193,-0.15456804633140564,0.5795528292655945,0.10890517383813858,0.4954336881637573,-0.14943821728229523,0.8474290370941162,0.14002303779125214,0.554631769657135,0.0191385205835104,0.9978605508804321,0.12525026500225067,0.5617343187332153,-0.01911674439907074,0.997349739074707,0.1660774052143097,0.6313422322273254,-0.014973217621445656,0.8225022554397583,0.15193268656730652,0.6390607953071594,-0.05982685089111328,0.8954328298568726,0.17623457312583923,0.7191171646118164,0.03277066349983215,0.8007339835166931,0.15989091992378235,0.7211629152297974,0.01335300225764513,0.8681076765060425,0.16943176090717316,0.7328532338142395,0.03491472080349922,0.7530344128608704,0.15839150547981262,0.7365608215332031,0.016808412969112396,0.680742084980011,0.19471123814582825,0.7445508241653442,-0.036930639296770096,0.818013072013855,0.17777958512306213,0.7534120082855225,-0.060076333582401276,0.8634098768234253
34
35,0.11452996730804443,0.4173945188522339,-0.19645440578460693,0.9920186400413513,0.1204773560166359,0.41580650210380554,-0.19842134416103363,0.9896823167800903,0.12212686240673065,0.41734641790390015,-0.19841435551643372,0.9874714016914368,0.12375833094120026,0.4188917875289917,-0.19848281145095825,0.9891870021820068,0.1164897233247757,0.41104453802108765,-0.20021839439868927,0.9903073310852051,0.11527035385370255,0.40899741649627686,-0.2002667933702469,0.9887319207191467,0.11405062675476074,0.4069807231426239,-0.20033392310142517,0.9901705980300903,0.12683145701885223,0.4178873598575592,-0.17161844670772552,0.9797085523605347,0.1129111647605896,0.4007721543312073,-0.17916461825370789,0.9882243275642395,0.11478324234485626,0.4208299517631531,-0.1818917691707611,0.9888325333595276,0.11029739677906036,0.4148906469345093,-0.18443724513053894,0.9923524856567383,0.1277448534965515,0.42504072189331055,-0.11054088175296783,0.9969602823257446,0.0924345999956131,0.39940914511680603,-0.15673114359378815,0.9983695149421692,0.12560833990573883,0.4628860056400299,-0.06430938839912415,0.5948757529258728,0.07585743814706802,0.4441734254360199,-0.15903472900390625,0.920415997505188,0.12323175370693207,0.49282604455947876,-0.046720705926418304,0.649013876914978,0.08390335738658905,0.5028780102729797,-0.14840900897979736,0.9086182713508606,0.12347586452960968,0.5027734637260437,-0.045656558126211166,0.6000184416770935,0.08259864151477814,0.5185777544975281,-0.1564931571483612,0.8842241764068604,0.12259286642074585,0.5025496482849121,-0.05552130192518234,0.5986292362213135,0.0887671411037445,0.5213999152183533,-0.1581943929195404,0.8814893364906311,0.1204957589507103,0.49834510684013367,-0.04970415681600571,0.5807113647460938,0.08982708305120468,0.5162646770477295,-0.14783626794815063,0.8570534586906433,0.09977011382579803,0.45479246973991394,0.012815644033253193,0.9980343580245972,0.07781914621591568,0.44881680607795715,-0.012870067730545998,0.9975981116294861,0.12871338427066803,0.4919789135456085,-0.03149423003196716,0.8028538227081299,0.09544926136732101,0.49122416973114014,-0.05350624397397041,0.8790845274925232,0.13265004754066467,0.5540112257003784,-0.016900604590773582,0.7717037200927734,0.09667545557022095,0.5619379281997681,-0.003996198996901512,0.8399292230606079,0.1286550909280777,0.5629716515541077,-0.016524173319339752,0.7331336140632629,0.0946592390537262,0.5703604817390442,0.0009582303464412689,0.6647095680236816,0.14520840346813202,0.5755484104156494,-0.0469839908182621,0.7893679141998291,0.10345287621021271,0.5851693749427795,-0.030386125668883324,0.8393336534500122
36
37
38
39
40
41,0.11252918094396591,0.7064371705055237,-0.04645905643701553,0.9927513003349304,0.1075359359383583,0.7154027223587036,-0.04697270318865776,0.9905796051025391,0.10551033914089203,0.7146884202957153,-0.046997129917144775,0.9886091351509094,0.10329415649175644,0.7139924764633179,-0.0470610074698925,0.9901559948921204,0.11188238859176636,0.716162383556366,-0.03270798921585083,0.9911732077598572,0.11277832835912704,0.7160671353340149,-0.03264033421874046,0.9897505044937134,0.1137235164642334,0.7160200476646423,-0.03275603428483009,0.9910538792610168,0.09748603403568268,0.7067886590957642,-0.02838403545320034,0.9815919399261475,0.10982120037078857,0.7103572487831116,0.03355307877063751,0.989319384098053,0.10780511796474457,0.6949475407600403,-0.038390520960092545,0.9898146390914917,0.11401605606079102,0.6963304877281189,-0.02060581184923649,0.9929512143135071,0.08753316104412079,0.656865656375885,-0.08327128738164902,0.9972113370895386,0.11243059486150742,0.6511729955673218,0.1081170067191124,0.9984323978424072,0.07696913927793503,0.6015802025794983,-0.15398423373699188,0.6260675191879272,0.10158721357584,0.5795502066612244,0.1672167330980301,0.8364135026931763,0.07389170676469803,0.5451149344444275,-0.21244116127490997,0.6341609358787537,0.10044024139642715,0.527137041091919,0.17134764790534973,0.8281667232513428,0.0681600272655487,0.531314492225647,-0.23260550200939178,0.5875319838523865,0.09902160614728928,0.5094799995422363,0.1807224303483963,0.808435320854187,0.0724436417222023,0.5290422439575195,-0.2338467538356781,0.5849539637565613,0.10147486627101898,0.5100749135017395,0.1616159826517105,0.806254506111145,0.07468703389167786,0.5326534509658813,-0.2143140584230423,0.5692023038864136,0.09987162798643112,0.5159605145454407,0.16377684473991394,0.7840914130210876,0.07498020678758621,0.5066540241241455,-0.06735238432884216,0.9980136752128601,0.08906727284193039,0.5028901100158691,0.06735420972108841,0.9975041151046753,0.08250071853399277,0.378440797328949,-0.10261617600917816,0.8116726279258728,0.0943969190120697,0.39604634046554565,0.07689306885004044,0.8120695948600769,0.06644123792648315,0.2630988657474518,-0.11210121214389801,0.7507148385047913,0.06979040801525116,0.29212749004364014,0.13495324552059174,0.7711782455444336,0.054728299379348755,0.24624711275100708,-0.1158258318901062,0.7262598872184753,0.05836424231529236,0.2767274081707001,0.13743308186531067,0.6343148350715637,0.09102510660886765,0.22754979133605957,-0.18589924275875092,0.757777988910675,0.09709341078996658,0.2551589906215668,0.09505245089530945,0.7768754363059998
42,0.10901959985494614,0.7059873938560486,-0.018700335174798965,0.9933480024337769,0.10446220636367798,0.7150179743766785,-0.024727750569581985,0.9913277626037598,0.10303904861211777,0.7144901156425476,-0.024751121178269386,0.9895058870315552,0.10155399888753891,0.7139238715171814,-0.024826228618621826,0.9909833669662476,0.10773871839046478,0.714914858341217,-0.008030819706618786,0.9918628931045532,0.10822969675064087,0.7144562005996704,-0.008000431582331657,0.9904835820198059,0.10881350189447403,0.7141283750534058,-0.008045883849263191,0.9917729496955872,0.09690748900175095,0.7066008448600769,-0.027630697935819626,0.9832525849342346,0.10691630840301514,0.7087491154670715,0.04412596672773361,0.9901886582374573,0.10468579828739166,0.6946887373924255,-0.01962987892329693,0.9904451370239258,0.10966316610574722,0.6949509978294373,0.0014860864030197263,0.9930993914604187,0.0838727205991745,0.6601581573486328,-0.0729583352804184,0.9972802996635437,0.11144168674945831,0.6491121053695679,0.10795992612838745,0.9979362487792969,0.07341473549604416,0.6714726090431213,-0.11384040117263794,0.657287061214447,0.11413727700710297,0.6103453040122986,0.1659446358680725,0.7668483257293701,0.08722568303346634,0.7058399319648743,-0.03719193488359451,0.616830050945282,0.11438194662332535,0.6315154433250427,0.19396868348121643,0.7561026811599731,0.0915365219116211,0.7153971195220947,-0.03750043734908104,0.5598461031913757,0.11421774327754974,0.634473979473114,0.2039923220872879,0.7386486530303955,0.09060893952846527,0.714816689491272,-0.026342907920479774,0.5550014972686768,0.11499164253473282,0.636982798576355,0.199070543050766,0.7366514205932617,0.08889531344175339,0.7093051671981812,-0.031201759353280067,0.5442303419113159,0.11396409571170807,0.6356338262557983,0.190894216299057,0.7176865339279175,0.0748656690120697,0.5055378675460815,-0.06399312615394592,0.9979726076126099,0.09014846384525299,0.5017642974853516,0.06405842304229736,0.9974047541618347,0.09428060799837112,0.3831474184989929,-0.09592057019472122,0.7984078526496887,0.09844569116830826,0.3965079188346863,0.04967041686177254,0.7524282932281494,0.0742865800857544,0.29055747389793396,-0.05615120008587837,0.729425847530365,0.07688583433628082,0.2973279654979706,0.09136006981134415,0.716205894947052,0.06399644911289215,0.2805822193622589,-0.05271172523498535,0.7180831432342529,0.06720402836799622,0.28463709354400635,0.0941041111946106,0.6068322658538818,0.0914086252450943,0.2497575730085373,-0.09228688478469849,0.7343824505805969,0.09707048535346985,0.2566675841808319,0.06407316029071808,0.7255592346191406
43
44
45
46
47
48
49
50
51
52
53
54
55
56
57
58
59
60
61
62
63
64
65
66
67
68
69
70
71
72
73
74
75
76
77
78
79
80
81
82
83
84
85
86
