frame,NOSE.x,NOSE.y,NOSE.z,NOSE.v,LEFT_EYE_INNER.x,LEFT_EYE_INNER.y,LEFT_EYE_INNER.z,LEFT_EYE_INNER.v,LEFT_EYE.x,LEFT_EYE.y,LEFT_EYE.z,LEFT_EYE.v,LEFT_EYE_OUTER.x,LEFT_EYE_OUTER.y,LEFT_EYE_OUTER.z,LEFT_EYE_OUTER.v,RIGHT_EYE_INNER.x,RIGHT_EYE_INNER.y,RIGHT_EYE_INNER.z,RIGHT_EYE_INNER.v,RIGHT_EYE.x,RIGHT_EYE.y,RIGHT_EYE.z,RIGHT_EYE.v,RIGHT_EYE_OUTER.x,RIGHT_EYE_OUTER.y,RIGHT_EYE_OUTER.z,RIGHT_EYE_OUTER.v,LEFT_EAR.x,LEFT_EAR.y,LEFT_EAR.z,LEFT_EAR.v,RIGHT_EAR.x,RIGHT_EAR.y,RIGHT_EAR.z,RIGHT_EAR.v,MOUTH_LEFT.x,MOUTH_LEFT.y,MOUTH_LEFT.z,MOUTH_LEFT.v,MOUTH_RIGHT.x,MOUTH_RIGHT.y,MOUTH_RIGHT.z,MOUTH_RIGHT.v,LEFT_SHOULDER.x,LEFT_SHOULDER.y,LEFT_SHOULDER.z,LEFT_SHOULDER.v,RIGHT_SHOULDER.x,RIGHT_SHOULDER.y,RIGHT_SHOULDER.z,RIGHT_SHOULDER.v,LEFT_ELBOW.x,LEFT_ELBOW.y,LEFT_ELBOW.z,LEFT_ELBOW.v,RIGHT_ELBOW.x,RIGHT_ELBOW.y,RIGHT_ELBOW.z,RIGHT_ELBOW.v,LEFT_WRIST.x,LEFT_WRIST.y,LEFT_WRIST.z,LEFT_WRIST.v,RIGHT_WRIST.x,RIGHT_WRIST.y,RIGHT_WRIST.z,RIGHT_WRIST.v,LEFT_PINKY.x,LEFT_PINKY.y,LEFT_PINKY.z,LEFT_PINKY.v,RIGHT_PINKY.x,RIGHT_PINKY.y,RIGHT_PINKY.z,RIGHT_PINKY.v,LEFT_INDEX.x,LEFT_INDEX.y,LEFT_INDEX.z,LEFT_INDEX.v,RIGHT_INDEX.x,RIGHT_INDEX.y,RIGHT_INDEX.z,RIGHT_INDEX.v,LEFT_THUMB.x,LEFT_THUMB.y,LEFT_THUMB.z,LEFT_THUMB.v,RIGHT_THUMB.x,RIGHT_THUMB.y,RIGHT_THUMB.z,RIGHT_THUMB.v,LEFT_HIP.x,LEFT_HIP.y,LEFT_HIP.z,LEFT_HIP.v,RIGHT_HIP.x,RIGHT_HIP.y,RIGHT_HIP.z,RIGHT_HIP.v,LEFT_KNEE.x,LEFT_KNEE.y,LEFT_KNEE.z,LEFT_KNEE.v,RIGHT_KNEE.x,RIGHT_KNEE.y,RIGHT_KNEE.z,RIGHT_KNEE.v,LEFT_ANKLE.x,LEFT_ANKLE.y,LEFT_ANKLE.z,LEFT_ANKLE.v,RIGHT_ANKLE.x,RIGHT_ANKLE.y,RIGHT_ANKLE.z,RIGHT_ANKLE.v,LEFT_HEEL.x,LEFT_HEEL.y,LEFT_HEEL.z,LEFT_HEEL.v,RIGHT_HEEL.x,RIGHT_HEEL.y,RIGHT_HEEL.z,RIGHT_HEEL.v,LEFT_FOOT_INDEX.x,LEFT_FOOT_INDEX.y,LEFT_FOOT_INDEX.z,LEFT_FOOT_INDEX.v,RIGHT_FOOT_INDEX.x,RIGHT_FOOT_INDEX.y,RIGHT_FOOT_INDEX.z,RIGHT_FOOT_INDEX.v
0,0.3950675129890442,0.3041163384914398,-0.22889229655265808,0.9996458292007446,0.3989574909210205,0.29410600662231445,-0.19737018644809723,0.9994997978210449,0.4003825783729553,0.2952474057674408,-0.19745810329914093,0.9993894100189209,0.4018688201904297,0.29639407992362976,-0.19753223657608032,0.9994557499885559,0.3927992880344391,0.2895439565181732,-0.22134587168693542,0.9995071887969971,0.38961902260780334,0.28750094771385193,-0.22137010097503662,0.9995260238647461,0.38606739044189453,0.28532859683036804,-0.22142302989959717,0.9994854927062988,0.3951524496078491,0.30011746287345886,-0.045510560274124146,0.9988822340965271,0.36935335397720337,0.28644949197769165,-0.15245817601680756,0.9994309544563293,0.391904354095459,0.3179599344730377,-0.1724427044391632,0.9992061257362366,0.3834717571735382,0.31332939863204956,-0.20346912741661072,0.9991554021835327,0.39123642444610596,0.3752850890159607,0.08167704194784164,0.9991112351417542,0.324237197637558,0.3560110926628113,-0.18367323279380798,0.997774064540863,0.38216835260391235,0.46165043115615845,0.11302167177200317,0.38510662317276,0.3244209289550781,0.42936453223228455,-0.34287115931510925,0.9640501141548157,0.3843049108982086,0.5128758549690247,0.01118810661137104,0.3435482382774353,0.37221747636795044,0.3950815796852112,-0.5073035955429077,0.9504824280738831,0.38625192642211914,0.5325413942337036,-0.008942026644945145,0.294268935918808,0.3829285502433777,0.3878127634525299,-0.5586229562759399,0.9248664379119873,0.38360458612442017,0.5250885486602783,-0.031170833855867386,0.3064112365245819,0.3836732506752014,0.3755972683429718,-0.5545428395271301,0.9197686314582825,0.38118892908096313,0.5171800255775452,-0.0025329305790364742,0.2990529537200928,0.3802662193775177,0.37989380955696106,-0.5093281269073486,0.8694972991943359,0.3447917103767395,0.5274769067764282,0.08225751668214798,0.9989336133003235,0.30089280009269714,0.5175104737281799,-0.08212003111839294,0.9979169964790344,0.34422412514686584,0.6527149677276611,-0.01606122776865959,0.7385079860687256,0.2970579266548157,0.6392120718955994,-0.25312507152557373,0.9157274961471558,0.27205103635787964,0.7458663582801819,0.1590011566877365,0.7039704918861389,0.23844262957572937,0.7195227742195129,-0.05381043627858162,0.8028984665870667,0.2536545991897583,0.7598258852958679,0.16948409378528595,0.6518723964691162,0.22416159510612488,0.7217881083488464,-0.03768347576260567,0.567734956741333,0.2801908254623413,0.7955625057220459,0.076666459441185,0.7094966173171997,0.2437383234500885,0.7770531177520752,-0.14530840516090393,0.8250144720077515
1,0.3963764011859894,0.3058810234069824,-0.25649315118789673,0.9996507167816162,0.3993935286998749,0.2945469319820404,-0.2253192961215973,0.9995130896568298,0.40070825815200806,0.29553183913230896,-0.22536242008209229,0.9994047284126282,0.4020485281944275,0.2965642511844635,-0.22540995478630066,0.9994681477546692,0.39312201738357544,0.2906734347343445,-0.24993029236793518,0.9995164275169373,0.3897829055786133,0.28894633054733276,-0.24999161064624786,0.9995341897010803,0.38612931966781616,0.2871249318122864,-0.2500702738761902,0.9994877576828003,0.3951483368873596,0.30102768540382385,-0.07574577629566193,0.9989343881607056,0.369565486907959,0.2890016734600067,-0.18533267080783844,0.999446451663971,0.39303404092788696,0.31988316774368286,-0.2007565051317215,0.9992531538009644,0.38459715247154236,0.3167757987976074,-0.23273436725139618,0.9991967082023621,0.39116549491882324,0.38082990050315857,0.04439343139529228,0.9991506934165955,0.32303205132484436,0.356851190328598,-0.2188829928636551,0.9978122711181641,0.38071468472480774,0.470817893743515,0.08537687361240387,0.39354798197746277,0.3244256377220154,0.4292432367801666,-0.3861941695213318,0.9663206338882446,0.38441261649131775,0.5443032383918762,0.011518497951328754,0.3540976345539093,0.3818691372871399,0.395145982503891,-0.5113518238067627,0.9526227712631226,0.38642072677612305,0.567724347114563,-0.004046335816383362,0.30286312103271484,0.39723166823387146,0.38813015818595886,-0.5589404106140137,0.9264362454414368,0.3835930824279785,0.5634125471115112,-0.027482494711875916,0.315254807472229,0.39704328775405884,0.37683773040771484,-0.5538604855537415,0.9210959672927856,0.3811047375202179,0.5534639954566956,-0.0018264999380335212,0.30878037214279175,0.392132043838501,0.38124725222587585,-0.5113233923912048,0.8704772591590881,0.3453642725944519,0.529758095741272,0.07993388175964355,0.9990310072898865,0.30030158162117004,0.51999431848526,-0.07988613098859787,0.9980955123901367,0.3411635160446167,0.6531975865364075,-0.057916514575481415,0.7607440948486328,0.29653316736221313,0.6555444002151489,-0.14606474339962006,0.9204703569412231,0.27227097749710083,0.7479508519172668,0.15624776482582092,0.7292977571487427,0.2383117973804474,0.7221717834472656,0.10840578377246857,0.8160954713821411,0.2556573450565338,0.7601479291915894,0.16948144137859344,0.6775021553039551,0.22627763450145721,0.7247962355613708,0.12885965406894684,0.5808868408203125,0.27992162108421326,0.7960309982299805,0.07100051641464233,0.7340934872627258,0.2352430522441864,0.7767308354377747,0.024562742561101913,0.8360260128974915
2,0.40425905585289,0.3042634129524231,-0.3501189351081848,0.9996142387390137,0.40788787603378296,0.292937308549881,-0.3238410949707031,0.9994290471076965,0.4096280634403229,0.2940746247768402,-0.3238987326622009,0.9992925524711609,0.41123446822166443,0.295194536447525,-0.32394662499427795,0.9993473887443542,0.4009706377983093,0.2891724705696106,-0.3471218943595886,0.9994465112686157,0.397514283657074,0.28755617141723633,-0.34717845916748047,0.999459981918335,0.39368927478790283,0.28610897064208984,-0.34730780124664307,0.9994111061096191,0.40527820587158203,0.300403892993927,-0.18163499236106873,0.9984455704689026,0.37953224778175354,0.28893205523490906,-0.2865303158760071,0.9993809461593628,0.40164685249328613,0.319243848323822,-0.29565325379371643,0.9992496967315674,0.3925948739051819,0.31606099009513855,-0.3259229362010956,0.9992424249649048,0.400308758020401,0.38078734278678894,-0.04189382493495941,0.9991204142570496,0.33574777841567993,0.3403276801109314,-0.2883368134498596,0.9979913830757141,0.3851637542247772,0.4702931046485901,-0.05082501098513603,0.3952355682849884,0.31747373938560486,0.4316944181919098,-0.3462638556957245,0.9663809537887573,0.3895202577114105,0.5397056937217712,-0.22632145881652832,0.36862072348594666,0.3452339172363281,0.5059666037559509,-0.39269542694091797,0.9480405449867249,0.3916953504085541,0.5619027018547058,-0.2648780941963196,0.32257285714149475,0.34758907556533813,0.5322780013084412,-0.4358304440975189,0.9197351336479187,0.3907369375228882,0.5599872469902039,-0.292534738779068,0.33549368381500244,0.3573226034641266,0.5287177562713623,-0.4474572539329529,0.9143543243408203,0.38783684372901917,0.5513728260993958,-0.24447083473205566,0.32602718472480774,0.3566209375858307,0.5198115110397339,-0.3971709907054901,0.8614556193351746,0.3474591374397278,0.5255985856056213,0.08145150542259216,0.9989560842514038,0.3058287799358368,0.5105823874473572,-0.08141761273145676,0.9980950355529785,0.3412156105041504,0.640508770942688,0.01734589971601963,0.7432653307914734,0.31278514862060547,0.6421014070510864,-0.16888853907585144,0.9166081547737122,0.2758049964904785,0.7387372851371765,0.21675841510295868,0.7257887721061707,0.2617080807685852,0.7389455437660217,0.02200300432741642,0.8273717761039734,0.2591478228569031,0.7462472319602966,0.22933582961559296,0.6844990253448486,0.24647769331932068,0.7506227493286133,0.03652116283774376,0.5997312068939209,0.287539005279541,0.7927112579345703,0.13154400885105133,0.7353236079216003,0.2731519341468811,0.793880045413971,-0.04628119617700577,0.8452498912811279
3,0.41340216994285583,0.30524080991744995,-0.14780095219612122,0.9995899200439453,0.4190689027309418,0.2939692735671997,-0.12346071004867554,0.9994183778762817,0.420991986989975,0.2955608367919922,-0.1235831007361412,0.999261736869812,0.42352667450904846,0.2977365255355835,-0.12368327379226685,0.9993361234664917,0.4113863408565521,0.29004403948783875,-0.143687441945076,0.9994449615478516,0.4079206585884094,0.2891031503677368,-0.1437363475561142,0.9994486570358276,0.403597354888916,0.28739896416664124,-0.14382824301719666,0.9994238615036011,0.41841253638267517,0.3029738962650299,0.0024938909336924553,0.9984409213066101,0.39083221554756165,0.29209116101264954,-0.08935832977294922,0.9994091391563416,0.41117343306541443,0.32025912404060364,-0.09907159954309464,0.9992841482162476,0.4023818373680115,0.31659427285194397,-0.12579813599586487,0.9993011355400085,0.41089075803756714,0.3802047669887543,0.11281932890415192,0.9991355538368225,0.3434661328792572,0.340860515832901,-0.09076345711946487,0.9981638789176941,0.4251915514469147,0.4487968683242798,0.07967273145914078,0.3959317207336426,0.30859023332595825,0.4040353000164032,-0.16969379782676697,0.9568026661872864,0.43870750069618225,0.4465080797672272,-0.08405206352472305,0.3716281056404114,0.3159220516681671,0.47247418761253357,-0.30580416321754456,0.9273403882980347,0.44284993410110474,0.4510778784751892,-0.10627181828022003,0.33085307478904724,0.31301912665367126,0.4594044089317322,-0.3452611565589905,0.9015239477157593,0.4425525665283203,0.43843281269073486,-0.13713742792606354,0.34389838576316833,0.32184070348739624,0.4492553770542145,-0.35913076996803284,0.8978714346885681,0.4388066232204437,0.43683305382728577,-0.10176070779561996,0.3332291543483734,0.3232446312904358,0.4511168599128723,-0.3136594593524933,0.8467260599136353,0.3473440706729889,0.5253997445106506,0.0811067670583725,0.9989449977874756,0.3126048147678375,0.5067638754844666,-0.08098503947257996,0.998203456401825,0.32260504364967346,0.6424394249916077,0.0046144877560436726,0.7559394240379333,0.3701333701610565,0.5971242785453796,-0.2840704023838043,0.9227774739265442,0.2511994242668152,0.743568480014801,0.12881238758563995,0.7473114728927612,0.34693092107772827,0.7348640561103821,-0.2093455046415329,0.8432714343070984,0.23125143349170685,0.748557984828949,0.13483095169067383,0.7102367281913757,0.331788033246994,0.7461507320404053,-0.2054303139448166,0.6368510127067566,0.26070916652679443,0.7928212881088257,0.04643690586090088,0.7533990144729614,0.371517151594162,0.7931074500083923,-0.3168909251689911,0.8589615821838379
4,0.4214707016944885,0.3074142038822174,-0.15406320989131927,0.9995852112770081,0.4250393807888031,0.2949005663394928,-0.1278170645236969,0.9993941187858582,0.4263971447944641,0.2963132858276367,-0.12794335186481476,0.9992120265960693,0.4278024733066559,0.2981804311275482,-0.12803737819194794,0.9993093013763428,0.41836681962013245,0.29124343395233154,-0.14760974049568176,0.9994497299194336,0.4145638048648834,0.2903002202510834,-0.14764678478240967,0.9994539618492126,0.4104617238044739,0.2892991006374359,-0.14773550629615784,0.9994481801986694,0.42107993364334106,0.3031364679336548,-0.0024329714942723513,0.9983364343643188,0.39639443159103394,0.2928594946861267,-0.09120570123195648,0.9994373917579651,0.41753286123275757,0.3219471871852875,-0.10666698217391968,0.9993058443069458,0.4090089797973633,0.31836092472076416,-0.1324201226234436,0.9993557929992676,0.4215313792228699,0.3798401951789856,0.10648046433925629,0.9991248250007629,0.3449055850505829,0.34071528911590576,-0.10689719021320343,0.998324990272522,0.45616859197616577,0.4331810772418976,0.09348616003990173,0.42373496294021606,0.31160587072372437,0.4095465838909149,-0.20210707187652588,0.9550415873527527,0.4935150146484375,0.4646657109260559,-0.057611238211393356,0.3907213509082794,0.337628036737442,0.47247904539108276,-0.33391159772872925,0.9208301901817322,0.507236123085022,0.4758678078651428,-0.08325071632862091,0.35123246908187866,0.3418595790863037,0.4899974465370178,-0.3737700581550598,0.894904375076294,0.5053770542144775,0.4676060378551483,-0.10689832270145416,0.36597591638565063,0.3467748761177063,0.4807773530483246,-0.38692742586135864,0.8920473456382751,0.4969788193702698,0.4643794894218445,-0.07320026308298111,0.3560994863510132,0.3452172875404358,0.4757029116153717,-0.3401767611503601,0.8412079215049744,0.3487090766429901,0.524273157119751,0.08100836724042892,0.9989445805549622,0.3150453269481659,0.5031417012214661,-0.0808798149228096,0.998312771320343,0.31822890043258667,0.6408810019493103,0.0030842781998217106,0.7548408508300781,0.37477707862854004,0.5905536413192749,-0.3119128346443176,0.9289786219596863,0.24939373135566711,0.7450823187828064,0.11028347909450531,0.7608229517936707,0.34631648659706116,0.7326719760894775,-0.24746759235858917,0.8575818538665771,0.2301216572523117,0.749816358089447,0.11485929787158966,0.7284289002418518,0.3281668424606323,0.7466033697128296,-0.24450907111167908,0.6700817346572876,0.2603963017463684,0.7924874424934387,0.02894832193851471,0.762593686580658,0.37392836809158325,0.7883498072624207,-0.35403287410736084,0.8712112307548523
5,0.4388318955898285,0.2863064408302307,-0.11548548936843872,0.999603271484375,0.4432447552680969,0.27960795164108276,-0.0875135138630867,0.9994396567344666,0.44500845670700073,0.28164151310920715,-0.08759728819131851,0.9992636442184448,0.44688424468040466,0.28405898809432983,-0.087673619389534,0.9993615746498108,0.43606656789779663,0.2747785151004791,-0.10324838012456894,0.9994908571243286,0.4324326515197754,0.27338916063308716,-0.10329493135213852,0.9994909763336182,0.4287480413913727,0.2723257839679718,-0.1033494845032692,0.9994930028915405,0.4428557753562927,0.29150620102882385,0.04057031124830246,0.9984675645828247,0.41594070196151733,0.27661460638046265,-0.030417269095778465,0.9994832873344421,0.43686503171920776,0.30268195271492004,-0.06895066797733307,0.9993579983711243,0.4275687336921692,0.295176237821579,-0.08964600414037704,0.999411404132843,0.44188451766967773,0.3673659861087799,0.11220653355121613,0.9990037083625793,0.36871397495269775,0.32047492265701294,-0.05045383423566818,0.9984184503555298,0.48441219329833984,0.4157866835594177,0.008532180450856686,0.4530145525932312,0.3240182101726532,0.3432200253009796,-0.20542092621326447,0.9536980986595154,0.48192471265792847,0.3985697329044342,-0.1621595323085785,0.408606618642807,0.3436705768108368,0.34054794907569885,-0.34982284903526306,0.9106214046478271,0.4838801324367523,0.3988264799118042,-0.1940980702638626,0.36338821053504944,0.35093554854393005,0.34225034713745117,-0.3863298296928406,0.8771383762359619,0.4756500720977783,0.3884979784488678,-0.18617145717144012,0.37494757771492004,0.35498884320259094,0.3387566804885864,-0.38676917552948,0.8738659024238586,0.4721970558166504,0.38969194889068604,-0.16513629257678986,0.3646537661552429,0.3527860641479492,0.34137794375419617,-0.3528199791908264,0.8265830874443054,0.37167587876319885,0.5183117389678955,0.07069127261638641,0.9988237023353577,0.334536075592041,0.4960668683052063,-0.07056470215320587,0.9983801245689392,0.3224465847015381,0.6339359283447266,0.0035918192006647587,0.7280377149581909,0.373401015996933,0.6034746170043945,-0.29870301485061646,0.9222554564476013,0.2547876238822937,0.7221734523773193,0.11792396008968353,0.7448312044143677,0.34647706151008606,0.7508432865142822,-0.20186325907707214,0.8645740747451782,0.23604491353034973,0.7269932627677917,0.12369523197412491,0.718198835849762,0.33694571256637573,0.7694152593612671,-0.20145785808563232,0.6907164454460144,0.26347771286964417,0.7789226174354553,0.0311734676361084,0.7466840147972107,0.3701607882976532,0.8064394593238831,-0.32741492986679077,0.874506413936615
6,0.44251179695129395,0.27934589982032776,-0.1275252252817154,0.9996317028999329,0.4471052289009094,0.27465522289276123,-0.09752721339464188,0.9994813799858093,0.4488033354282379,0.2769850790500641,-0.09763026237487793,0.9993139505386353,0.4503679871559143,0.27944183349609375,-0.09772379696369171,0.9994085431098938,0.4398840367794037,0.26782098412513733,-0.1115010604262352,0.9995319843292236,0.43649300932884216,0.26556792855262756,-0.11155178397893906,0.9995314478874207,0.43296051025390625,0.26362600922584534,-0.11159560829401016,0.9995366930961609,0.44522824883461,0.2887342870235443,0.03286588191986084,0.9985857009887695,0.42123275995254517,0.2693260610103607,-0.029115352779626846,0.999526858329773,0.43930286169052124,0.29751989245414734,-0.08080051094293594,0.999409019947052,0.4293243885040283,0.286672443151474,-0.09904074668884277,0.9994643926620483,0.44690990447998047,0.3668907582759857,0.11681489646434784,0.9989423155784607,0.36897313594818115,0.3186434209346771,-0.06956883519887924,0.9985407590866089,0.5083131194114685,0.4102570712566376,0.04508986324071884,0.48308753967285156,0.3382851481437683,0.3568103015422821,-0.25150835514068604,0.9536699056625366,0.5453208684921265,0.4297090470790863,-0.09507030248641968,0.42317256331443787,0.3971020579338074,0.3548935055732727,-0.4529048800468445,0.9006350636482239,0.5599594116210938,0.43943455815315247,-0.12039657682180405,0.3741356432437897,0.4115048944950104,0.3587695062160492,-0.49934864044189453,0.8599141240119934,0.5530741810798645,0.43290573358535767,-0.13140809535980225,0.38537973165512085,0.4254816472530365,0.3493732213973999,-0.48474830389022827,0.8547422289848328,0.5449952483177185,0.431115984916687,-0.10517887771129608,0.3772609233856201,0.4235779643058777,0.35153865814208984,-0.45189690589904785,0.8073006868362427,0.371115505695343,0.5160379409790039,0.07124629616737366,0.9988369941711426,0.3375783860683441,0.49614518880844116,-0.07107939571142197,0.998517632484436,0.32496652007102966,0.6403641104698181,0.0412571094930172,0.7099677324295044,0.38125255703926086,0.6057651042938232,-0.33479195833206177,0.9280470013618469,0.24937939643859863,0.7267749905586243,0.19054856896400452,0.7384428381919861,0.3492434620857239,0.7587378025054932,-0.30711299180984497,0.8767873644828796,0.23205943405628204,0.7274007797241211,0.1991514265537262,0.716780960559845,0.3345062732696533,0.7728216648101807,-0.30911514163017273,0.718066394329071,0.259238064289093,0.7817555665969849,0.11339616775512695,0.7370080351829529,0.37515610456466675,0.8188278675079346,-0.4416181147098541,0.8849133253097534
7,0.45423373579978943,0.2850189507007599,-0.20110170543193817,0.9996607303619385,0.4577990174293518,0.27788546681404114,-0.16428102552890778,0.99952232837677,0.45908254384994507,0.2798437476158142,-0.16432598233222961,0.9993643164634705,0.4602855145931244,0.28201255202293396,-0.16438719630241394,0.9994522929191589,0.4523593485355377,0.2719671428203583,-0.189079150557518,0.9995712041854858,0.449741929769516,0.26995742321014404,-0.18906636536121368,0.9995700120925903,0.4468821585178375,0.2681390345096588,-0.18911829590797424,0.999573826789856,0.45528918504714966,0.29007598757743835,0.024922549724578857,0.9987102150917053,0.4349357485771179,0.27285078167915344,-0.10814328491687775,0.9995666742324829,0.4513140618801117,0.3010789453983307,-0.14090536534786224,0.9994398951530457,0.4434428811073303,0.2927003502845764,-0.17312903702259064,0.9994975328445435,0.4572103023529053,0.3614533841609955,0.10298013687133789,0.998943030834198,0.3886200785636902,0.3228141963481903,-0.16586706042289734,0.9982674717903137,0.507304310798645,0.37265294790267944,0.1146576851606369,0.5159980654716492,0.3847395181655884,0.3373345732688904,-0.38313236832618713,0.954444408416748,0.5669320821762085,0.364565908908844,0.04371422156691551,0.4711604416370392,0.4165774881839752,0.3225492835044861,-0.5424458384513855,0.8998807668685913,0.5858721137046814,0.36255359649658203,0.03216565400362015,0.4218645393848419,0.42271924018859863,0.3206762373447418,-0.5881955027580261,0.856496274471283,0.5853904485702515,0.35922589898109436,0.010658030398190022,0.43308916687965393,0.4252471327781677,0.3191970884799957,-0.5856310725212097,0.850368082523346,0.5786353945732117,0.3607993721961975,0.029745617881417274,0.42589542269706726,0.42258015275001526,0.32314333319664,-0.5461070537567139,0.8028045296669006,0.38539034128189087,0.5226150751113892,0.08960533142089844,0.998863935470581,0.3482145667076111,0.5033317804336548,-0.0896911472082138,0.9985021948814392,0.3795943558216095,0.6624239683151245,0.03430045396089554,0.6907498240470886,0.3752601146697998,0.6464930772781372,-0.21187599003314972,0.9279434680938721,0.2939543128013611,0.7342467904090881,0.16032791137695312,0.7130548357963562,0.3268664479255676,0.7594762444496155,-0.10106676816940308,0.8841593265533447,0.27491289377212524,0.7288491129875183,0.16873972117900848,0.6978133320808411,0.3125629425048828,0.7657867670059204,-0.09386564791202545,0.7346345782279968,0.29586130380630493,0.7950526475906372,0.10464739799499512,0.7213783860206604,0.3642367720603943,0.8243510723114014,-0.19165045022964478,0.8905208706855774
8,0.46956127882003784,0.3002853989601135,-0.2269258201122284,0.9996383190155029,0.47351589798927307,0.29237258434295654,-0.1964341104030609,0.999504804611206,0.4745001196861267,0.2937445342540741,-0.1964612901210785,0.9993058443069458,0.4754054546356201,0.29516687989234924,-0.1965339183807373,0.999402642250061,0.46858543157577515,0.28645220398902893,-0.22686946392059326,0.9995743632316589,0.46604108810424805,0.2837354242801666,-0.22687284648418427,0.9995669722557068,0.46316608786582947,0.2808505594730377,-0.22695188224315643,0.999575674533844,0.467948853969574,0.2977657914161682,-0.04361749067902565,0.9987253546714783,0.45166921615600586,0.2773011326789856,-0.18467213213443756,0.9995661377906799,0.4648941457271576,0.31303414702415466,-0.16964603960514069,0.9993643164634705,0.4585074484348297,0.30510780215263367,-0.20947647094726562,0.9994702339172363,0.4533861577510834,0.35989370942115784,0.07584069669246674,0.9977919459342957,0.41273730993270874,0.32675275206565857,-0.2425447404384613,0.9980406761169434,0.48468485474586487,0.3995574712753296,0.11732815206050873,0.4853704273700714,0.4583292007446289,0.3192599415779114,-0.4460151791572571,0.9577176570892334,0.5193546414375305,0.4168439507484436,0.04303649812936783,0.4575844407081604,0.5071052312850952,0.31007450819015503,-0.5495569705963135,0.9077086448669434,0.5304888486862183,0.424379825592041,0.03198713809251785,0.41208314895629883,0.5170056223869324,0.3071814477443695,-0.5975149273872375,0.8660856485366821,0.5289061069488525,0.41738781332969666,0.00435594329610467,0.42284685373306274,0.5158202052116394,0.3085026741027832,-0.5861779451370239,0.8599217534065247,0.523901104927063,0.4152117967605591,0.02689445950090885,0.4178815484046936,0.5114012956619263,0.31268611550331116,-0.548646092414856,0.8132867217063904,0.4015234112739563,0.5238455533981323,0.08968321979045868,0.9988036155700684,0.3591679632663727,0.5050092935562134,-0.08978501707315445,0.9984694123268127,0.42795276641845703,0.6614507436752319,-0.0856412798166275,0.7175077795982361,0.36382752656936646,0.6499683856964111,-0.2074621617794037,0.9315100908279419,0.32595017552375793,0.7105494737625122,0.1053704023361206,0.7242199182510376,0.32435327768325806,0.7629363536834717,-0.08583410829305649,0.8931180834770203,0.3062466084957123,0.7026714086532593,0.12048329412937164,0.7087987661361694,0.2993568778038025,0.7719930410385132,-0.07947028428316116,0.7493739128112793,0.313321590423584,0.7715923190116882,0.04469584673643112,0.7332165837287903,0.31228506565093994,0.8233694434165955,-0.20292682945728302,0.8972827792167664
9
10
11
12
13,0.47375497221946716,0.3989148736000061,0.2349531203508377,0.9993183016777039,0.47153130173683167,0.3887447118759155,0.2528853714466095,0.9993970990180969,0.4701845049858093,0.3874802589416504,0.25283581018447876,0.9992350339889526,0.468842089176178,0.38627052307128906,0.25278377532958984,0.9993322491645813,0.4727402329444885,0.3896762430667877,0.22333136200904846,0.9994575381278992,0.472308874130249,0.38893482089042664,0.22326917946338654,0.999464213848114,0.47191673517227173,0.38826054334640503,0.2231602966785431,0.9994821548461914,0.45837530493736267,0.3810059428215027,0.30275407433509827,0.998773455619812,0.4626307487487793,0.3844450116157532,0.16842536628246307,0.9994973540306091,0.4663354754447937,0.4038943946361542,0.25279924273490906,0.9991130828857422,0.46739211678504944,0.4047176241874695,0.21352538466453552,0.9992532134056091,0.42867666482925415,0.4168352484703064,0.3280758559703827,0.9978362917900085,0.4462828040122986,0.4118528664112091,0.04912314936518669,0.9982302784919739,0.4236105978488922,0.48293060064315796,0.30168211460113525,0.43838077783584595,0.44241467118263245,0.4471103549003601,-0.13461291790008545,0.9432252049446106,0.41979795694351196,0.516631007194519,0.2197308987379074,0.4140361547470093,0.45473137497901917,0.4716469943523407,-0.2472093552350998,0.8700951337814331,0.41304129362106323,0.5257331728935242,0.21633224189281464,0.37447845935821533,0.4564618170261383,0.4809606671333313,-0.27658993005752563,0.833703875541687,0.41670575737953186,0.522423505783081,0.20800885558128357,0.3846533000469208,0.46000203490257263,0.48055461049079895,-0.25586506724357605,0.827072262763977,0.4209786057472229,0.5191241502761841,0.21235951781272888,0.37998026609420776,0.4582585394382477,0.4750789999961853,-0.24110329151153564,0.7779942154884338,0.3707704544067383,0.5201420187950134,0.08858221024274826,0.9988245964050293,0.3768077790737152,0.5143851637840271,-0.08854348957538605,0.9985780119895935,0.4072813093662262,0.627188503742218,0.039915621280670166,0.7308038473129272,0.4193560481071472,0.6160491704940796,-0.1488000899553299,0.9374639391899109,0.4402555823326111,0.7467676401138306,-0.020956620573997498,0.7396391034126282,0.43522754311561584,0.7459949254989624,-0.21897168457508087,0.9033514857292175,0.43657541275024414,0.7636947631835938,-0.033121392130851746,0.7268909215927124,0.4284287989139557,0.770638108253479,-0.23105566203594208,0.7736340761184692,0.4681624472141266,0.7765038013458252,-0.0868615135550499,0.7486125826835632,0.467761367559433,0.772486686706543,-0.3063981533050537,0.9065348505973816
14,0.4909203052520752,0.38637998700141907,0.05980096012353897,0.9988797307014465,0.4902373254299164,0.37721773982048035,0.07740648090839386,0.9990891814231873,0.4895961880683899,0.3771526515483856,0.07729027420282364,0.998960018157959,0.48888906836509705,0.3768834173679352,0.07718703150749207,0.9991216659545898,0.4891744554042816,0.37645068764686584,0.04600774124264717,0.9991584420204163,0.4878331124782562,0.3758828938007355,0.045962754637002945,0.9991117119789124,0.4865102767944336,0.37512126564979553,0.04586120322346687,0.9992250800132751,0.47751864790916443,0.37711837887763977,0.14410200715065002,0.9985163807868958,0.4736558794975281,0.3750918209552765,0.0019062971696257591,0.9992425441741943,0.4833759367465973,0.39565131068229675,0.08573150634765625,0.9986042976379395,0.48241549730300903,0.3936755359172821,0.04413176700472832,0.9988005757331848,0.4484257102012634,0.4132592976093292,0.2136872261762619,0.9977875351905823,0.4426689147949219,0.39550068974494934,-0.08453132957220078,0.9984010457992554,0.43764081597328186,0.4786663055419922,0.22837278246879578,0.3965814709663391,0.4332062304019928,0.4421427547931671,-0.20230133831501007,0.9211462140083313,0.4269661009311676,0.5174255967140198,0.1715659350156784,0.37472978234291077,0.44482311606407166,0.4710496664047241,-0.2613573372364044,0.8321587443351746,0.42111149430274963,0.5304423570632935,0.1723218560218811,0.33984559774398804,0.44527149200439453,0.4809470474720001,-0.2901698648929596,0.8011831045150757,0.4240042567253113,0.5261896252632141,0.15888193249702454,0.3490344285964966,0.4511800706386566,0.47850659489631653,-0.27915292978286743,0.7925308346748352,0.4265078902244568,0.5210703015327454,0.16285622119903564,0.3448675274848938,0.4494639039039612,0.4733999967575073,-0.25813186168670654,0.7381390929222107,0.39208856225013733,0.5151561498641968,0.0916004553437233,0.9987561106681824,0.36753198504447937,0.5106194019317627,-0.09149599820375443,0.9987013936042786,0.4429872930049896,0.5988156795501709,0.07775913178920746,0.7492683529853821,0.3859480917453766,0.6244677901268005,-0.19795119762420654,0.9435173273086548,0.49316495656967163,0.7121258974075317,0.11471284925937653,0.7599998116493225,0.35733461380004883,0.7649096846580505,-0.211207315325737,0.9129413962364197,0.49216365814208984,0.7344843745231628,0.11341734975576401,0.7451134920120239,0.34702005982398987,0.7862908244132996,-0.2175867259502411,0.7956460118293762,0.5360636115074158,0.7123158574104309,0.05811589956283569,0.7684749960899353,0.38507601618766785,0.7960375547409058,-0.3217933475971222,0.9156639575958252
15,0.4933328628540039,0.4088301360607147,0.3449759781360626,0.9983539581298828,0.49110275506973267,0.39893457293510437,0.35771647095680237,0.9983401298522949,0.4895806312561035,0.39821749925613403,0.3577210605144501,0.998306930065155,0.4880334734916687,0.39748111367225647,0.3577153980731964,0.9986003041267395,0.4930790364742279,0.39849552512168884,0.32934847474098206,0.9985849857330322,0.4929909110069275,0.39747610688209534,0.32926705479621887,0.9985266923904419,0.49296632409095764,0.396477073431015,0.3291110396385193,0.9987431764602661,0.4767736792564392,0.39393165707588196,0.3732236623764038,0.9979575872421265,0.4835580885410309,0.39397507905960083,0.24515609443187714,0.9986941814422607,0.4859880805015564,0.41475731134414673,0.3505304157733917,0.9981570839881897,0.48760199546813965,0.41338151693344116,0.31302157044410706,0.9984248876571655,0.4416414797306061,0.42171329259872437,0.38536378741264343,0.9978017807006836,0.4764767587184906,0.4193022549152374,0.09267614781856537,0.9985589981079102,0.4298030436038971,0.503095805644989,0.37222370505332947,0.3583753705024719,0.47809872031211853,0.4936034083366394,-0.008704571053385735,0.9218904972076416,0.4167860150337219,0.5846379399299622,0.32562753558158875,0.3410661518573761,0.47384151816368103,0.5578008890151978,-0.0037707053124904633,0.8194921612739563,0.4098358154296875,0.6035241484642029,0.32793211936950684,0.31100913882255554,0.47149568796157837,0.5783942937850952,-0.016678545624017715,0.794793963432312,0.4137241840362549,0.6074631810188293,0.32354435324668884,0.31899315118789673,0.4733419418334961,0.5778890252113342,0.0018217682372778654,0.7820152044296265,0.4165557026863098,0.6004458069801331,0.31928253173828125,0.31554991006851196,0.47177833318710327,0.5692042708396912,0.004275299608707428,0.7266764044761658,0.3907615840435028,0.5343778729438782,0.09711150825023651,0.9988598823547363,0.39300939440727234,0.5295756459236145,-0.0971997082233429,0.9988230466842651,0.4205055236816406,0.6431093215942383,0.0907135009765625,0.7685021758079529,0.42566853761672974,0.6541497707366943,-0.1013864278793335,0.9490329623222351,0.4368913769721985,0.7654082179069519,0.09448318928480148,0.7813416123390198,0.4129752218723297,0.7929220795631409,-0.10825769603252411,0.9215433597564697,0.43055588006973267,0.7849682569503784,0.0875801369547844,0.7673597931861877,0.3993166387081146,0.8171828985214233,-0.11579479277133942,0.8157299160957336,0.4682091772556305,0.7938365340232849,0.031245063990354538,0.7875454425811768,0.44628602266311646,0.8285800218582153,-0.2044946700334549,0.9237082004547119
16,0.5028477907180786,0.41643571853637695,0.3241773843765259,0.9963380098342896,0.5006539821624756,0.4061432480812073,0.33569464087486267,0.9959539771080017,0.4989491403102875,0.4050777554512024,0.3356785178184509,0.9964026808738708,0.49721819162368774,0.4040391743183136,0.3356534242630005,0.9967368841171265,0.5032299757003784,0.4061322510242462,0.30716368556022644,0.9965147972106934,0.5033856630325317,0.4049963355064392,0.30707839131355286,0.996619462966919,0.5035989284515381,0.403926819562912,0.3069115877151489,0.9969351291656494,0.4863266050815582,0.39794450998306274,0.34989219903945923,0.9961093068122864,0.4951413571834564,0.39926111698150635,0.2212413102388382,0.9971495270729065,0.49528059363365173,0.42077329754829407,0.3296034336090088,0.9963114857673645,0.49742788076400757,0.4199945330619812,0.2920796573162079,0.9969601631164551,0.4421670436859131,0.42366015911102295,0.36751776933670044,0.997852087020874,0.48652219772338867,0.42379435896873474,0.07405099272727966,0.9986995458602905,0.42954593896865845,0.5074395537376404,0.35586491227149963,0.3236134648323059,0.4836805462837219,0.502391517162323,0.00446641631424427,0.9219497442245483,0.4177798628807068,0.5872835516929626,0.29772189259529114,0.3094884157180786,0.48491519689559937,0.56195068359375,0.06314145028591156,0.7948978543281555,0.4108487665653229,0.6086402535438538,0.29544007778167725,0.28345319628715515,0.48346924781799316,0.5833738446235657,0.05595611408352852,0.7754809260368347,0.41426172852516174,0.610824704170227,0.2904234528541565,0.290624737739563,0.4863370954990387,0.582952082157135,0.0691472738981247,0.7596869468688965,0.416638046503067,0.6021074056625366,0.2904593348503113,0.287578821182251,0.48432397842407227,0.5729392766952515,0.0703987330198288,0.7040109634399414,0.38524913787841797,0.5408961176872253,0.10157431662082672,0.9989520907402039,0.3972959816455841,0.5323728322982788,-0.10167267173528671,0.9989253878593445,0.3953057527542114,0.6560691595077515,0.10269449651241302,0.7839641571044922,0.4362100660800934,0.6451818943023682,-0.0728984922170639,0.9537612199783325,0.41475191712379456,0.7808321714401245,0.15005291998386383,0.8004111647605896,0.438861608505249,0.7799353003501892,-0.02624385617673397,0.9291039109230042,0.40702956914901733,0.7991257309913635,0.14934054017066956,0.7873077988624573,0.4285799562931061,0.8045983910560608,-0.027086079120635986,0.8332085609436035,0.44352346658706665,0.8158391714096069,0.09267064183950424,0.8048070669174194,0.47395744919776917,0.8130581974983215,-0.10660318285226822,0.9304786324501038
17
18
19
20
21
22
23
24
25
26
27
28
29
30
31
32
33
34
35
36
37
38
39
40
41
42
43
44
45
46
47
48
49
50
51
52
53
54
55
56
57
58
59
60
61
62
63
64
65
66
67
68
69
70
71
72
73
74
