frame,NOSE.x,NOSE.y,NOSE.z,NOSE.v,LEFT_EYE_INNER.x,LEFT_EYE_INNER.y,LEFT_EYE_INNER.z,LEFT_EYE_INNER.v,LEFT_EYE.x,LEFT_EYE.y,LEFT_EYE.z,LEFT_EYE.v,LEFT_EYE_OUTER.x,LEFT_EYE_OUTER.y,LEFT_EYE_OUTER.z,LEFT_EYE_OUTER.v,RIGHT_EYE_INNER.x,RIGHT_EYE_INNER.y,RIGHT_EYE_INNER.z,RIGHT_EYE_INNER.v,RIGHT_EYE.x,RIGHT_EYE.y,RIGHT_EYE.z,RIGHT_EYE.v,RIGHT_EYE_OUTER.x,RIGHT_EYE_OUTER.y,RIGHT_EYE_OUTER.z,RIGHT_EYE_OUTER.v,LEFT_EAR.x,LEFT_EAR.y,LEFT_EAR.z,LEFT_EAR.v,RIGHT_EAR.x,RIGHT_EAR.y,RIGHT_EAR.z,RIGHT_EAR.v,MOUTH_LEFT.x,MOUTH_LEFT.y,MOUTH_LEFT.z,MOUTH_LEFT.v,MOUTH_RIGHT.x,MOUTH_RIGHT.y,MOUTH_RIGHT.z,MOUTH_RIGHT.v,LEFT_SHOULDER.x,LEFT_SHOULDER.y,LEFT_SHOULDER.z,LEFT_SHOULDER.v,RIGHT_SHOULDER.x,RIGHT_SHOULDER.y,RIGHT_SHOULDER.z,RIGHT_SHOULDER.v,LEFT_ELBOW.x,LEFT_ELBOW.y,LEFT_ELBOW.z,LEFT_ELBOW.v,RIGHT_ELBOW.x,RIGHT_ELBOW.y,RIGHT_ELBOW.z,RIGHT_ELBOW.v,LEFT_WRIST.x,LEFT_WRIST.y,LEFT_WRIST.z,LEFT_WRIST.v,RIGHT_WRIST.x,RIGHT_WRIST.y,RIGHT_WRIST.z,RIGHT_WRIST.v,LEFT_PINKY.x,LEFT_PINKY.y,LEFT_PINKY.z,LEFT_PINKY.v,RIGHT_PINKY.x,RIGHT_PINKY.y,RIGHT_PINKY.z,RIGHT_PINKY.v,LEFT_INDEX.x,LEFT_INDEX.y,LEFT_INDEX.z,LEFT_INDEX.v,RIGHT_INDEX.x,RIGHT_INDEX.y,RIGHT_INDEX.z,RIGHT_INDEX.v,LEFT_THUMB.x,LEFT_THUMB.y,LEFT_THUMB.z,LEFT_THUMB.v,RIGHT_THUMB.x,RIGHT_THUMB.y,RIGHT_THUMB.z,RIGHT_THUMB.v,LEFT_HIP.x,LEFT_HIP.y,LEFT_HIP.z,LEFT_HIP.v,RIGHT_HIP.x,RIGHT_HIP.y,RIGHT_HIP.z,RIGHT_HIP.v,LEFT_KNEE.x,LEFT_KNEE.y,LEFT_KNEE.z,LEFT_KNEE.v,RIGHT_KNEE.x,RIGHT_KNEE.y,RIGHT_KNEE.z,RIGHT_KNEE.v,LEFT_ANKLE.x,LEFT_ANKLE.y,LEFT_ANKLE.z,LEFT_ANKLE.v,RIGHT_ANKLE.x,RIGHT_ANKLE.y,RIGHT_ANKLE.z,RIGHT_ANKLE.v,LEFT_HEEL.x,LEFT_HEEL.y,LEFT_HEEL.z,LEFT_HEEL.v,RIGHT_HEEL.x,RIGHT_HEEL.y,RIGHT_HEEL.z,RIGHT_HEEL.v,LEFT_FOOT_INDEX.x,LEFT_FOOT_INDEX.y,LEFT_FOOT_INDEX.z,LEFT_FOOT_INDEX.v,RIGHT_FOOT_INDEX.x,RIGHT_FOOT_INDEX.y,RIGHT_FOOT_INDEX.z,RIGHT_FOOT_INDEX.v
0
1
2
3
4
5
6
7
8
9
10
11
12
13
14
15
16
17
18
19
20
21
22
23
24
25
26
27
28
29
30
31
32
33
34
35
36
37
38
39
40
41
42
43
44
45
46
47
48
49
50
51
52
53
54
55
56,0.6135004758834839,0.3220890462398529,-0.3461303114891052,0.9078069925308228,0.6230483651161194,0.3229884207248688,-0.35084718465805054,0.9210949540138245,0.6240823864936829,0.3258931338787079,-0.35092830657958984,0.8674390316009521,0.6250837445259094,0.3287925720214844,-0.3511456549167633,0.9234390258789062,0.621278703212738,0.3168485760688782,-0.33964043855667114,0.8835016489028931,0.6209040284156799,0.3150840401649475,-0.3396592438220978,0.8284074664115906,0.6204915046691895,0.31327497959136963,-0.3397144377231598,0.8545358180999756,0.6280810236930847,0.33913344144821167,-0.31460142135620117,0.9537999033927917,0.6215289831161499,0.31742972135543823,-0.2589264214038849,0.7806999087333679,0.6094735860824585,0.3321721851825714,-0.3276304304599762,0.9800100922584534,0.6071947813034058,0.32514822483062744,-0.3114725649356842,0.9713418483734131,0.6129806041717529,0.39206644892692566,-0.2604890763759613,0.9998399019241333,0.5867321491241455,0.31313079595565796,-0.16557039320468903,0.9964170455932617,0.5951093435287476,0.45642325282096863,-0.25646889209747314,0.9238988757133484,0.5329843163490295,0.33178603649139404,-0.14301148056983948,0.23838597536087036,0.5786145329475403,0.5120713710784912,-0.29183998703956604,0.6253266334533691,0.49079030752182007,0.3717348873615265,-0.21183183789253235,0.14839650690555573,0.5779800415039062,0.5268886089324951,-0.3160601258277893,0.5921447277069092,0.478141725063324,0.3801749348640442,-0.2229219377040863,0.17212212085723877,0.5782673358917236,0.5264157652854919,-0.3384944200515747,0.6193284392356873,0.4818664491176605,0.38386642932891846,-0.2540414333343506,0.17554792761802673,0.5752716064453125,0.519412100315094,-0.3015836775302887,0.5817083120346069,0.486666202545166,0.38427284359931946,-0.22486858069896698,0.1880520135164261,0.5182749629020691,0.41393905878067017,-0.04171990230679512,0.9999047517776489,0.5167196989059448,0.36338600516319275,0.04168437421321869,0.9994945526123047,0.4879514276981354,0.4368836581707001,-0.2502225935459137,0.9909007549285889,0.5217405557632446,0.2720077633857727,-0.043254975229501724,0.8060896992683411,0.4548169672489166,0.4499870836734772,-0.09604667127132416,0.9323635101318359,0.46572571992874146,0.2593666613101959,0.03502173349261284,0.8476546406745911,0.45502132177352905,0.4492373466491699,-0.08168503642082214,0.8543459177017212,0.4537162184715271,0.26715022325515747,0.04143253713846207,0.8231879472732544,0.4325924813747406,0.45728805661201477,-0.13204075396060944,0.7863664627075195,0.4502236843109131,0.22161777317523956,-0.0004116256604902446,0.747919499874115
57
58
59
60
61
62
63
64
65,0.6215434670448303,0.5208024978637695,0.22372646629810333,0.9168830513954163,0.6238281726837158,0.5285549759864807,0.2047262191772461,0.9289328455924988,0.6312987208366394,0.5231013894081116,0.2047082483768463,0.880643904209137,0.6345881223678589,0.5217872858047485,0.20468755066394806,0.9310358762741089,0.6160126328468323,0.5271146893501282,0.19856448471546173,0.8950746655464172,0.6141583919525146,0.526543140411377,0.1985362470149994,0.8454875349998474,0.6119978427886963,0.5262280702590942,0.19847191870212555,0.8689801692962646,0.638213574886322,0.5104361772537231,0.13112692534923553,0.9583932161331177,0.6117146015167236,0.521714448928833,0.10084772109985352,0.8025811314582825,0.6248978972434998,0.5145615339279175,0.20070239901542664,0.9819215536117554,0.617504894733429,0.5129930973052979,0.19176116585731506,0.9740732312202454,0.6504599452018738,0.4504576325416565,0.093206025660038,0.9998113512992859,0.5738493204116821,0.4745568335056305,0.018928809091448784,0.9966568350791931,0.6453586220741272,0.3781292736530304,0.08657471835613251,0.8946540951728821,0.5409824252128601,0.43029993772506714,-0.05701785534620285,0.28637537360191345,0.6113340258598328,0.3636804521083832,0.09237142652273178,0.5987871885299683,0.5379818677902222,0.4439701735973358,-0.10251208394765854,0.18248619139194489,0.6062564849853516,0.3584708869457245,0.08814901113510132,0.5628634691238403,0.5352430939674377,0.44566234946250916,-0.11735810339450836,0.20058710873126984,0.6005252003669739,0.3641241490840912,0.08030626177787781,0.5868244171142578,0.5409234762191772,0.4510703682899475,-0.10737065970897675,0.20393554866313934,0.6003235578536987,0.366459459066391,0.0890718623995781,0.5527597069740295,0.5435373783111572,0.4501357972621918,-0.10042556375265121,0.21267476677894592,0.6191255450248718,0.3214893043041229,0.02733381651341915,0.9998853802680969,0.5738748908042908,0.3372487425804138,-0.027436289936304092,0.9994605183601379,0.6060774326324463,0.2247481495141983,0.05153363198041916,0.9906265735626221,0.5392847657203674,0.28987348079681396,0.016823187470436096,0.8170388340950012,0.5786219835281372,0.13174648582935333,0.03566236048936844,0.9365994930267334,0.5267212986946106,0.22830261290073395,0.011885599233210087,0.8572628498077393,0.5716787576675415,0.11946377158164978,0.032218754291534424,0.8677577972412109,0.5267983675003052,0.22109350562095642,0.011294483207166195,0.8370823264122009,0.575721025466919,0.10808710753917694,0.001092433580197394,0.7750367522239685,0.5222760438919067,0.2135261595249176,-0.010449790395796299,0.7394583821296692
66
67
68
69
70
71
72
73
74,-0.07377159595489502,0.7714879512786865,-0.5596781373023987,0.9062045216560364,-0.05324273183941841,0.7510969638824463,-0.5853818655014038,0.924332857131958,-0.04919980466365814,0.7539275288581848,-0.5852370262145996,0.8800284266471863,-0.04516279697418213,0.7567234039306641,-0.5852547287940979,0.9271268844604492,-0.06498689949512482,0.7464858889579773,-0.5592203140258789,0.8933851718902588,-0.06939765810966492,0.7456974387168884,-0.5588412880897522,0.8473396897315979,-0.07369376718997955,0.744824230670929,-0.5586458444595337,0.8689659237861633,-0.05498586967587471,0.7858568429946899,-0.5744160413742065,0.9524550437927246,-0.09212195873260498,0.7717745900154114,-0.4565560221672058,0.8074522018432617,-0.0856054425239563,0.8103147149085999,-0.534005880355835,0.9650912880897522,-0.10080371052026749,0.8029618859291077,-0.5013605952262878,0.953214704990387,-0.10675989091396332,0.9130297899246216,-0.6577631235122681,0.9727364778518677,-0.16480885446071625,0.9612546563148499,-0.24114470183849335,0.9308762550354004,-0.024110466241836548,0.9359402060508728,-0.7355402708053589,0.8646276593208313,-0.08791226148605347,1.0022234916687012,-0.1388140767812729,0.26046881079673767,-0.10112986713647842,0.7999756932258606,-0.6345574259757996,0.5579628944396973,-0.001954704523086548,0.9681946039199829,-0.07154488563537598,0.16584327816963196,-0.1329554170370102,0.762865424156189,-0.6756110787391663,0.5249556303024292,0.026531904935836792,0.9770796298980713,-0.09950762242078781,0.18261750042438507,-0.12381784617900848,0.7452212572097778,-0.6605445146560669,0.5472173690795898,0.01588502526283264,0.9377604126930237,-0.12509667873382568,0.18572546541690826,-0.10945913940668106,0.7703284621238708,-0.6233865022659302,0.515487015247345,0.0027797818183898926,0.9300781488418579,-0.0877632424235344,0.19366183876991272,-0.3485689163208008,1.4251949787139893,-0.13661213219165802,0.9048780202865601,-0.379251092672348,1.4452309608459473,0.1372368186712265,0.9024768471717834,-0.2334161102771759,1.2387439012527466,0.23959872126579285,0.9103637933731079,-0.3036499321460724,1.231027603149414,0.5239307284355164,0.7453910708427429,-0.22894926369190216,1.2520501613616943,0.9212149381637573,0.8568407297134399,-0.26716479659080505,1.1395518779754639,1.075251579284668,0.7938662767410278,-0.2377927601337433,1.268144130706787,0.9792717695236206,0.7931212782859802,-0.27210164070129395,1.147101879119873,1.1275326013565063,0.7812298536300659,-0.21939852833747864,1.1899373531341553,0.8347736597061157,0.7124905586242676,-0.26073741912841797,1.010695457458496,1.0519938468933105,0.6898786425590515
75
76
77
78
79
80
81
82
83
84
85
86
87
88
89
90
91
92
93
94
95
96
97
98
99
100
101
102
103
104
105
106
107
108
109
110
111
112
113
114
115
116
117
118
119,0.3918780982494354,0.2306850254535675,-0.1484529823064804,0.9101899266242981,0.38779428601264954,0.2185712456703186,-0.13425472378730774,0.9255110025405884,0.388283371925354,0.21866020560264587,-0.1343444138765335,0.8849121332168579,0.3888022005558014,0.21880164742469788,-0.13441549241542816,0.9274572134017944,0.38144177198410034,0.1917504370212555,-0.16067920625209808,0.8977227807044983,0.3813535273075104,0.2182648479938507,-0.16072548925876617,0.8555752635002136,0.3788082003593445,0.21820864081382751,-0.1608535349369049,0.8753237128257751,0.3792177140712738,0.22415074706077576,-0.04427650570869446,0.9496248364448547,0.36621981859207153,0.22446221113204956,-0.16195692121982574,0.8170973062515259,0.39074283838272095,0.24450674653053284,-0.11027733981609344,0.9566660523414612,0.3856872022151947,0.24430756270885468,-0.14451472461223602,0.9472420811653137,0.3699166774749756,0.28949296474456787,0.06686493754386902,0.9734683632850647,0.35456204414367676,0.2820093035697937,-0.1874707192182541,0.9368792176246643,0.3402712047100067,0.3648030459880829,0.1574859470129013,0.7881532311439514,0.34536921977996826,0.3407784104347229,-0.23755204677581787,0.3135409355163574,0.329971045255661,0.37191978096961975,0.13627026975154877,0.5155578851699829,0.3666544556617737,0.33356040716171265,-0.26607635617256165,0.21417269110679626,0.32545554637908936,0.3817061185836792,0.1296098381280899,0.48888054490089417,0.3709559142589569,0.3381970226764679,-0.29267412424087524,0.2264654040336609,0.3276432156562805,0.3697328269481659,0.11348774284124374,0.5097880363464355,0.37240004539489746,0.32737934589385986,-0.2913106679916382,0.228713259100914,0.3298180401325226,0.36546599864959717,0.12827523052692413,0.47938108444213867,0.3697488605976105,0.3261883556842804,-0.26467132568359375,0.22727598249912262,0.3691245913505554,0.47095999121665955,0.07676177471876144,0.9138036370277405,0.3497084379196167,0.4768216013908386,-0.07669029384851456,0.9113571047782898,0.45174112915992737,0.5043081045150757,-0.02390735223889351,0.9020419120788574,0.35174620151519775,0.5714449286460876,-0.061568550765514374,0.7570298910140991,0.41264238953590393,0.6038329005241394,0.158967524766922,0.843410313129425,0.3160817623138428,0.6648715734481812,0.14056414365768433,0.8010507822036743,0.3991008996963501,0.6140286326408386,0.17492379248142242,0.7869912981987,0.305692195892334,0.6770890951156616,0.1591309905052185,0.7742744088172913,0.4340220093727112,0.6341482400894165,0.13347595930099487,0.7177824378013611,0.33366620540618896,0.702845573425293,0.09921752661466599,0.7033392786979675
120,0.40696579217910767,0.2072097361087799,-0.09721563011407852,0.9188172817230225,0.3941064178943634,0.18326285481452942,-0.08200746774673462,0.9324301481246948,0.39336517453193665,0.1833638995885849,-0.08209411799907684,0.8958572745323181,0.39217662811279297,0.18362101912498474,-0.08213014900684357,0.9342337846755981,0.3927133083343506,0.18155494332313538,-0.12164094299077988,0.9074336886405945,0.39089053869247437,0.1828390657901764,-0.12166541814804077,0.8694494366645813,0.38925090432167053,0.18287219107151031,-0.12175862491130829,0.8872374892234802,0.3815036714076996,0.18905507028102875,-0.001187206944450736,0.9540712237358093,0.3791140615940094,0.1892457902431488,-0.17052286863327026,0.8348302245140076,0.40038543939590454,0.22154156863689423,-0.062424056231975555,0.960174024105072,0.39912599325180054,0.22109447419643402,-0.11385448276996613,0.9519546031951904,0.36649590730667114,0.2698758840560913,0.11348827183246613,0.9758690595626831,0.35704678297042847,0.26432234048843384,-0.2359953224658966,0.9430289268493652,0.3492473065853119,0.34589844942092896,0.19690990447998047,0.7127087712287903,0.34543174505233765,0.3271523416042328,-0.27648842334747314,0.36763492226600647,0.35794857144355774,0.383893758058548,0.14285467565059662,0.46763938665390015,0.36504632234573364,0.3342064619064331,-0.22496549785137177,0.24330370128154755,0.36120152473449707,0.4026217758655548,0.1348009556531906,0.4450451731681824,0.3695710003376007,0.3428685963153839,-0.25276169180870056,0.2500069737434387,0.36042922735214233,0.39602968096733093,0.11409878730773926,0.46413370966911316,0.37139901518821716,0.33348530530929565,-0.2506168484687805,0.25119221210479736,0.3593203127384186,0.38846632838249207,0.13041721284389496,0.4367254972457886,0.36724331974983215,0.3311224579811096,-0.2218397855758667,0.24083013832569122,0.3660331666469574,0.46545732021331787,0.10142294317483902,0.92226642370224,0.3509621024131775,0.47000840306282043,-0.10133013874292374,0.9198557138442993,0.44289955496788025,0.51785808801651,0.12622931599617004,0.8851891756057739,0.3717395067214966,0.5609177947044373,-0.022247934713959694,0.7764469981193542,0.4110689163208008,0.6051918268203735,0.3067750334739685,0.8294587135314941,0.3052663207054138,0.6671050190925598,0.2348165065050125,0.8121002316474915,0.39607176184654236,0.6184642314910889,0.3227279484272003,0.7793025374412537,0.30267006158828735,0.6777196526527405,0.25978466868400574,0.7739923596382141,0.4369639456272125,0.6320587396621704,0.2899990677833557,0.7262102365493774,0.3410292863845825,0.7041999101638794,0.21521499752998352,0.7218983173370361
121,0.4044768810272217,0.2793000340461731,-0.13219211995601654,0.918091893196106,0.39346209168434143,0.26609960198402405,-0.12673991918563843,0.9312993884086609,0.3929445147514343,0.26508763432502747,-0.12678468227386475,0.8972370028495789,0.39200359582901,0.2641298174858093,-0.12691247463226318,0.9324501156806946,0.39124202728271484,0.2693053185939789,-0.15762904286384583,0.9095087051391602,0.3895944654941559,0.2671721577644348,-0.15771237015724182,0.8743389248847961,0.38772550225257874,0.26699191331863403,-0.15788251161575317,0.8911243081092834,0.3816744387149811,0.2599997818470001,-0.05784738063812256,0.952874481678009,0.37676018476486206,0.2647170126438141,-0.19266897439956665,0.8423065543174744,0.3976006805896759,0.28575167059898376,-0.10145784914493561,0.9510050415992737,0.3982340395450592,0.2870907187461853,-0.14291733503341675,0.9428577423095703,0.3697240650653839,0.29665327072143555,0.05257747322320938,0.9726746082305908,0.35267192125320435,0.29488441348075867,-0.22990164160728455,0.9479159712791443,0.3584901690483093,0.35571423172950745,0.18345245718955994,0.6424444317817688,0.34525400400161743,0.3232360780239105,-0.33500993251800537,0.4117337465286255,0.36184757947921753,0.39839112758636475,0.2085607349872589,0.4212956428527832,0.3596482276916504,0.31697237491607666,-0.4166007936000824,0.28070083260536194,0.36202874779701233,0.41479867696762085,0.21746094524860382,0.4012056291103363,0.3606579899787903,0.32042932510375977,-0.4482647776603699,0.28643205761909485,0.36215680837631226,0.40838927030563354,0.19468769431114197,0.418415904045105,0.3639022707939148,0.3140776455402374,-0.4395216107368469,0.28672435879707336,0.36249351501464844,0.40141257643699646,0.1995953619480133,0.3938417136669159,0.36277836561203003,0.3129943311214447,-0.41399550437927246,0.26639920473098755,0.37661832571029663,0.46646252274513245,0.0798913985490799,0.9297304749488831,0.35031890869140625,0.473630428314209,-0.07977285236120224,0.9276298880577087,0.4731380343437195,0.500620424747467,-0.01955317333340645,0.8894793391227722,0.3244667053222656,0.5813971161842346,-0.03363282233476639,0.7874805331230164,0.4116477072238922,0.5840016007423401,0.16487637162208557,0.8182157874107361,0.30537137389183044,0.6815149188041687,0.1947120577096939,0.8178030848503113,0.39621442556381226,0.5907837152481079,0.18155620992183685,0.7784974575042725,0.3025290071964264,0.6906077265739441,0.21596670150756836,0.766838550567627,0.4296213984489441,0.6234531998634338,0.12735989689826965,0.7305731773376465,0.31725022196769714,0.727633535861969,0.16652272641658783,0.7327874302864075
122
123
124,0.48431387543678284,0.4391164779663086,-0.3693322241306305,0.9219796061515808,0.48450469970703125,0.4342714846134186,-0.38554757833480835,0.9348297119140625,0.4839340150356293,0.43264883756637573,-0.38558652997016907,0.9031336903572083,0.48333874344825745,0.4310765862464905,-0.3855740427970886,0.9355633854866028,0.4862709045410156,0.43951061367988586,-0.3815091848373413,0.9164201617240906,0.48686498403549194,0.44131115078926086,-0.3816406726837158,0.884299099445343,0.4874975085258484,0.4431397318840027,-0.3817899525165558,0.8996279835700989,0.480768620967865,0.4325914978981018,-0.38130462169647217,0.9516071081161499,0.4872050881385803,0.45039841532707214,-0.36120906472206116,0.855074942111969,0.48054489493370056,0.4415215253829956,-0.3584255576133728,0.9527931809425354,0.4829373359680176,0.44731003046035767,-0.3527992367744446,0.9461084604263306,0.4609587788581848,0.446149080991745,-0.3287470042705536,0.9747248888015747,0.4811948835849762,0.48762452602386475,-0.24582700431346893,0.9521225094795227,0.4149017930030823,0.3879517912864685,-0.3156379461288452,0.6699203848838806,0.45852556824684143,0.5044927000999451,-0.16766561567783356,0.3895576596260071,0.39112240076065063,0.30175894498825073,-0.3512434959411621,0.47099581360816956,0.4575764238834381,0.4728720784187317,-0.14645685255527496,0.2660973072052002,0.38177967071533203,0.27579596638679504,-0.39565107226371765,0.45200443267822266,0.4608219265937805,0.47201812267303467,-0.16006840765476227,0.2726824879646301,0.39049699902534485,0.2731936275959015,-0.39572471380233765,0.4684307873249054,0.4594864249229431,0.45832982659339905,-0.18580558896064758,0.27320554852485657,0.3955163061618805,0.28278428316116333,-0.3540733754634857,0.4399033486843109,0.45873552560806274,0.4569775462150574,-0.1561727672815323,0.25483033061027527,0.4096237123012543,0.5325336456298828,-0.027264486998319626,0.9365009069442749,0.4223233759403229,0.5406034588813782,0.02726678177714348,0.934593915939331,0.43636375665664673,0.45259857177734375,0.018138162791728973,0.8298951387405396,0.44460955262184143,0.45226070284843445,0.09459102898836136,0.7449691891670227,0.4218996465206146,0.38705143332481384,0.2306228131055832,0.7694513201713562,0.40951865911483765,0.402462363243103,0.2687343657016754,0.7664681077003479,0.4174731373786926,0.37993109226226807,0.25064823031425476,0.7226267457008362,0.4014359414577484,0.3983185589313507,0.2866281270980835,0.7191658020019531,0.43146657943725586,0.3534872829914093,0.20355570316314697,0.6950680017471313,0.40772947669029236,0.37310436367988586,0.25125905871391296,0.6956644654273987
125
126
127
128
129
130
131
132
133
134
135
136
137
138
139
140
141,0.45985323190689087,0.6996142864227295,0.03514228016138077,0.9295395016670227,0.4632251262664795,0.7096343636512756,0.013849399983882904,0.9411975741386414,0.4669724404811859,0.710455596446991,0.013826606795191765,0.9126347303390503,0.47030678391456604,0.7109315395355225,0.01384146511554718,0.9418411254882812,0.4536828398704529,0.7064525485038757,0.005467657931149006,0.9246452450752258,0.45027559995651245,0.7048763632774353,0.005464734975248575,0.8956966996192932,0.44735485315322876,0.7034555077552795,0.00541246822103858,0.909509539604187,0.47335147857666016,0.7052301168441772,-0.046298474073410034,0.9563207626342773,0.4457816183567047,0.6949909925460815,-0.08421410620212555,0.8694374561309814,0.4668455719947815,0.6921716928482056,0.020965758711099625,0.9572058320045471,0.4581126570701599,0.6885051727294922,0.009692021645605564,0.9511653184890747,0.5076478719711304,0.6567890644073486,-0.016610873863101006,0.9769926071166992,0.44489893317222595,0.6316457390785217,-0.12829357385635376,0.9566795825958252,0.5059108734130859,0.7130922079086304,0.04278984293341637,0.6853437423706055,0.4126778244972229,0.6497413516044617,-0.08095863461494446,0.37648314237594604,0.5046244859695435,0.7831394672393799,0.055106692016124725,0.50571209192276,0.4033610224723816,0.695932149887085,0.03484630584716797,0.2580932676792145,0.5110554695129395,0.7992280721664429,0.046517837792634964,0.4883171021938324,0.3977842330932617,0.7016756534576416,0.02593201771378517,0.2658323347568512,0.507468044757843,0.8001620769500732,0.03536761552095413,0.503490686416626,0.4044061303138733,0.7047889232635498,0.017607396468520164,0.26695501804351807,0.5033537149429321,0.792428731918335,0.05003083869814873,0.4732423722743988,0.40861374139785767,0.702530026435852,0.0329686664044857,0.2501434087753296,0.5272268652915955,0.4941314458847046,0.05908297374844551,0.9428146481513977,0.4840807318687439,0.47237062454223633,-0.059631310403347015,0.9410921931266785,0.4547038972377777,0.5086598992347717,0.22850224375724792,0.7562484741210938,0.3962189257144928,0.4822729229927063,0.05561452358961105,0.7141090631484985,0.4480835497379303,0.4246840476989746,0.3201337158679962,0.7074311971664429,0.4244564473628998,0.3982110619544983,0.20000334084033966,0.7263944149017334,0.4506780207157135,0.40783098340034485,0.3299940228462219,0.6716648936271667,0.43796196579933167,0.38764843344688416,0.21777212619781494,0.6915382146835327,0.4325041174888611,0.41410836577415466,0.33536845445632935,0.6438577771186829,0.41253143548965454,0.3748599588871002,0.24557527899742126,0.6628983020782471
142
143
144
145
146
147
148
149
150
151
152
153
154
155
156
157
158
159
160
161
162
163
164
165
166
167
168
169
170
171
172
173
174
175
176
177
178
179
180
181
