frame,NOSE.x,NOSE.y,NOSE.z,NOSE.v,LEFT_EYE_INNER.x,LEFT_EYE_INNER.y,LEFT_EYE_INNER.z,LEFT_EYE_INNER.v,LEFT_EYE.x,LEFT_EYE.y,LEFT_EYE.z,LEFT_EYE.v,LEFT_EYE_OUTER.x,LEFT_EYE_OUTER.y,LEFT_EYE_OUTER.z,LEFT_EYE_OUTER.v,RIGHT_EYE_INNER.x,RIGHT_EYE_INNER.y,RIGHT_EYE_INNER.z,RIGHT_EYE_INNER.v,RIGHT_EYE.x,RIGHT_EYE.y,RIGHT_EYE.z,RIGHT_EYE.v,RIGHT_EYE_OUTER.x,RIGHT_EYE_OUTER.y,RIGHT_EYE_OUTER.z,RIGHT_EYE_OUTER.v,LEFT_EAR.x,LEFT_EAR.y,LEFT_EAR.z,LEFT_EAR.v,RIGHT_EAR.x,RIGHT_EAR.y,RIGHT_EAR.z,RIGHT_EAR.v,MOUTH_LEFT.x,MOUTH_LEFT.y,MOUTH_LEFT.z,MOUTH_LEFT.v,MOUTH_RIGHT.x,MOUTH_RIGHT.y,MOUTH_RIGHT.z,MOUTH_RIGHT.v,LEFT_SHOULDER.x,LEFT_SHOULDER.y,LEFT_SHOULDER.z,LEFT_SHOULDER.v,RIGHT_SHOULDER.x,RIGHT_SHOULDER.y,RIGHT_SHOULDER.z,RIGHT_SHOULDER.v,LEFT_ELBOW.x,LEFT_ELBOW.y,LEFT_ELBOW.z,LEFT_ELBOW.v,RIGHT_ELBOW.x,RIGHT_ELBOW.y,RIGHT_ELBOW.z,RIGHT_ELBOW.v,LEFT_WRIST.x,LEFT_WRIST.y,LEFT_WRIST.z,LEFT_WRIST.v,RIGHT_WRIST.x,RIGHT_WRIST.y,RIGHT_WRIST.z,RIGHT_WRIST.v,LEFT_PINKY.x,LEFT_PINKY.y,LEFT_PINKY.z,LEFT_PINKY.v,RIGHT_PINKY.x,RIGHT_PINKY.y,RIGHT_PINKY.z,RIGHT_PINKY.v,LEFT_INDEX.x,LEFT_INDEX.y,LEFT_INDEX.z,LEFT_INDEX.v,RIGHT_INDEX.x,RIGHT_INDEX.y,RIGHT_INDEX.z,RIGHT_INDEX.v,LEFT_THUMB.x,LEFT_THUMB.y,LEFT_THUMB.z,LEFT_THUMB.v,RIGHT_THUMB.x,RIGHT_THUMB.y,RIGHT_THUMB.z,RIGHT_THUMB.v,LEFT_HIP.x,LEFT_HIP.y,LEFT_HIP.z,LEFT_HIP.v,RIGHT_HIP.x,RIGHT_HIP.y,RIGHT_HIP.z,RIGHT_HIP.v,LEFT_KNEE.x,LEFT_KNEE.y,LEFT_KNEE.z,LEFT_KNEE.v,RIGHT_KNEE.x,RIGHT_KNEE.y,RIGHT_KNEE.z,RIGHT_KNEE.v,LEFT_ANKLE.x,LEFT_ANKLE.y,LEFT_ANKLE.z,LEFT_ANKLE.v,RIGHT_ANKLE.x,RIGHT_ANKLE.y,RIGHT_ANKLE.z,RIGHT_ANKLE.v,LEFT_HEEL.x,LEFT_HEEL.y,LEFT_HEEL.z,LEFT_HEEL.v,RIGHT_HEEL.x,RIGHT_HEEL.y,RIGHT_HEEL.z,RIGHT_HEEL.v,LEFT_FOOT_INDEX.x,LEFT_FOOT_INDEX.y,LEFT_FOOT_INDEX.z,LEFT_FOOT_INDEX.v,RIGHT_FOOT_INDEX.x,RIGHT_FOOT_INDEX.y,RIGHT_FOOT_INDEX.z,RIGHT_FOOT_INDEX.v
0
1
2
3
4
5
6
7
8
9
10
11
12
13
14
15
16
17
18
19
20
21
22
23
24
25
26
27
28
29
30
31
32
33
34
35
36
37
38
39
40
41
42
43
44
45
46
47
48
49
50
51
52
53
54
55
56
57
58
59
60
61,0.8062059283256531,0.6489723324775696,-0.048627741634845734,0.9887036681175232,0.8067358136177063,0.6355438232421875,-0.059222884476184845,0.9922717809677124,0.8082264065742493,0.6347410678863525,-0.05924773961305618,0.9922048449516296,0.8096152544021606,0.6342858076095581,-0.05930740386247635,0.9944297671318054,0.8026317358016968,0.6367672681808472,-0.045080479234457016,0.9895842671394348,0.8019634485244751,0.6370547413825989,-0.04508906602859497,0.9861398935317993,0.8012388348579407,0.6376161575317383,-0.045146115124225616,0.990171492099762,0.8153012990951538,0.6355311870574951,-0.07862555980682373,0.9907478094100952,0.8075454831123352,0.641290009021759,-0.015102503821253777,0.9912775754928589,0.8135727047920227,0.654521107673645,-0.0531456358730793,0.9887703657150269,0.8101909756660461,0.6556975245475769,-0.03474541753530502,0.9856292605400085,0.8416916728019714,0.673880934715271,-0.10637658834457397,0.9944314360618591,0.8326116800308228,0.6600379943847656,0.03439144790172577,0.9812114238739014,0.828391432762146,0.705863893032074,-0.13955889642238617,0.8123894333839417,0.8224583864212036,0.6789875030517578,0.12411986291408539,0.05972551554441452,0.8145502209663391,0.6840785145759583,-0.11852122843265533,0.6019524335861206,0.815780520439148,0.6629667282104492,0.20003660023212433,0.08771638572216034,0.8125585317611694,0.6775598526000977,-0.1282951682806015,0.615558922290802,0.815325140953064,0.6601079106330872,0.21210961043834686,0.1234145313501358,0.8131967782974243,0.6723068952560425,-0.12979009747505188,0.6184725761413574,0.8171044588088989,0.6563764810562134,0.2064635306596756,0.1255713254213333,0.8144811391830444,0.6756677627563477,-0.1186303123831749,0.590766191482544,0.8175399899482727,0.6584150791168213,0.19958901405334473,0.13146328926086426,0.8886953592300415,0.7743851542472839,-0.04632696136832237,0.9984297156333923,0.8780372738838196,0.7652010321617126,0.04648471251130104,0.9969930648803711,0.8505860567092896,0.8464975357055664,-0.07530156522989273,0.8515853881835938,0.8440925478935242,0.816173791885376,0.057788949459791183,0.41435906291007996,0.8746082186698914,0.8753198385238647,0.037382014095783234,0.5082575678825378,0.8677486181259155,0.8678718209266663,0.11787519603967667,0.2686392068862915,0.8855277299880981,0.8780741095542908,0.05090823024511337,0.5222091674804688,0.8756586313247681,0.8738040328025818,0.12481652200222015,0.35400232672691345,0.8640472292900085,0.907157838344574,0.06564038246870041,0.43516838550567627,0.8606578707695007,0.8918619155883789,0.133736252784729,0.29774683713912964
62,0.8152936100959778,0.649627685546875,-0.01145162247121334,0.9895798563957214,0.8154222369194031,0.6377154588699341,-0.023558076471090317,0.9928920865058899,0.8162158131599426,0.6378763318061829,-0.023550912737846375,0.9928029775619507,0.8169495463371277,0.6381875276565552,-0.023569229990243912,0.994848370552063,0.8141056299209595,0.6372238993644714,-0.011488743126392365,0.9904118180274963,0.8141295313835144,0.6372773051261902,-0.011520536616444588,0.9872369766235352,0.8142318725585938,0.6376806497573853,-0.011562937870621681,0.99094557762146,0.8209766149520874,0.6418725252151489,-0.05628393962979317,0.9914264678955078,0.8197348713874817,0.6413975358009338,-0.0019727363251149654,0.9920045733451843,0.8169040679931641,0.6547731161117554,-0.021329611539840698,0.9896076321601868,0.8185874819755554,0.6562070250511169,-0.005584799684584141,0.9867372512817383,0.8362547159194946,0.6806275248527527,-0.09990435838699341,0.9948450922966003,0.84172123670578,0.6681491732597351,0.03655580058693886,0.9826304912567139,0.8268468976020813,0.7065333127975464,-0.1682659536600113,0.815460205078125,0.8307297825813293,0.6821937561035156,0.12557478249073029,0.06337498873472214,0.8139466047286987,0.6891704797744751,-0.20225104689598083,0.6240273714065552,0.8145505785942078,0.6782066822052002,0.2162691354751587,0.10171118378639221,0.8111511468887329,0.6881670355796814,-0.218736931681633,0.6369321346282959,0.8107839822769165,0.6771358847618103,0.23355507850646973,0.1388373076915741,0.8108299970626831,0.6839568018913269,-0.2147076576948166,0.6397805213928223,0.8116955757141113,0.6754787564277649,0.22553178668022156,0.1412033587694168,0.8132890462875366,0.6862185001373291,-0.20188942551612854,0.6109653115272522,0.8128730058670044,0.6775991320610046,0.2155546247959137,0.14705519378185272,0.8789986371994019,0.7816143035888672,-0.047097161412239075,0.9985544681549072,0.8787857890129089,0.7674224376678467,0.047175951302051544,0.9972177743911743,0.8492207527160645,0.8406441807746887,-0.046652622520923615,0.8512369394302368,0.8441292643547058,0.8214488625526428,0.07745321094989777,0.40956559777259827,0.8740059733390808,0.8789546489715576,0.0426359660923481,0.5264374613761902,0.8682877421379089,0.8721452951431274,0.13261640071868896,0.27850252389907837,0.8827147483825684,0.8790065050125122,0.05454563349485397,0.54612797498703,0.8758813738822937,0.8770999908447266,0.13935786485671997,0.3671284019947052,0.8658837080001831,0.9060453176498413,0.07147719711065292,0.4525431990623474,0.8615859150886536,0.8966150879859924,0.14728108048439026,0.30436766147613525
63,0.8215686678886414,0.6434912085533142,-0.1266409456729889,0.9905884861946106,0.8241682052612305,0.6351357102394104,-0.12407787889242172,0.9935785531997681,0.8261299133300781,0.6354892253875732,-0.12410472333431244,0.9934912919998169,0.8282188177108765,0.6358758211135864,-0.12417371571063995,0.9953382015228271,0.8201457262039185,0.6346828937530518,-0.1161685585975647,0.9913351535797119,0.8191120028495789,0.6346046924591064,-0.11615478992462158,0.9884492754936218,0.8182133436203003,0.6347275376319885,-0.1161378026008606,0.9917917847633362,0.8321931958198547,0.6414921283721924,-0.0873001292347908,0.9922434687614441,0.8194915056228638,0.6390582323074341,-0.053613703697919846,0.9927501082420349,0.8250604867935181,0.6514942049980164,-0.11155204474925995,0.9905335307121277,0.8211804628372192,0.6516495943069458,-0.10148309171199799,0.98792964220047,0.8364598155021667,0.678827702999115,-0.10958095639944077,0.9953001141548157,0.8354218602180481,0.6669086813926697,0.028912579640746117,0.9838224053382874,0.8273402452468872,0.702898383140564,-0.1810607761144638,0.8228034377098083,0.8291711807250977,0.6828511953353882,0.10341240465641022,0.062357932329177856,0.8254386782646179,0.6901789903640747,-0.2456159144639969,0.6471952199935913,0.8217282295227051,0.6806159615516663,0.14959955215454102,0.09947603195905685,0.827639102935791,0.6877430081367493,-0.27008262276649475,0.6590395569801331,0.8225156664848328,0.6817322373390198,0.16406527161598206,0.1360325962305069,0.8258528709411621,0.6846898198127747,-0.26564472913742065,0.6620644927024841,0.8225471377372742,0.6802003383636475,0.15108077228069305,0.13848796486854553,0.825942873954773,0.6873512268066406,-0.24566039443016052,0.6318253874778748,0.8223896026611328,0.6816493272781372,0.14656585454940796,0.1447397768497467,0.8771341443061829,0.7762383818626404,-0.04879027605056763,0.9986696839332581,0.8720141649246216,0.7670899033546448,0.04887418821454048,0.9974101781845093,0.8483063578605652,0.8496705889701843,-0.08062926679849625,0.8496364951133728,0.8410446047782898,0.8229276537895203,0.05723673850297928,0.4066866338253021,0.8740125894546509,0.8766601085662842,0.0366346500813961,0.5287058353424072,0.8666475415229797,0.8662914633750916,0.1401045173406601,0.27060121297836304,0.8823946714401245,0.8728048205375671,0.05054105073213577,0.5621964931488037,0.873356819152832,0.867971658706665,0.14997105300426483,0.36544713377952576,0.8719515800476074,0.898075520992279,0.06757689267396927,0.45784837007522583,0.8618103265762329,0.8927906155586243,0.15819105505943298,0.29315587878227234
64,0.8246384859085083,0.6462780237197876,-0.014034898951649666,0.9911636710166931,0.827008843421936,0.6407576203346252,-0.02344617247581482,0.9939818382263184,0.828011691570282,0.6408654451370239,-0.02342962473630905,0.9938671588897705,0.8293868899345398,0.6417425274848938,-0.023458734154701233,0.9955615997314453,0.8251020312309265,0.6394864916801453,-0.0148276686668396,0.991831362247467,0.8247102499008179,0.6388794779777527,-0.014827181585133076,0.9891013503074646,0.8243246078491211,0.6382493376731873,-0.014868172816932201,0.9922393560409546,0.8331025242805481,0.6470238566398621,-0.04463685303926468,0.9926486015319824,0.8254545331001282,0.6429665684700012,-0.006922389380633831,0.9932816624641418,0.8274901509284973,0.6536348462104797,-0.019784726202487946,0.991040050983429,0.8254162073135376,0.6523790955543518,-0.00866851769387722,0.9886916875839233,0.8358364105224609,0.6826435923576355,-0.0848752036690712,0.9956492185592651,0.8403636813163757,0.6661849617958069,0.029888350516557693,0.9850401878356934,0.8249070048332214,0.7031540274620056,-0.17728887498378754,0.8218327760696411,0.8281141519546509,0.6744845509529114,0.10162641108036041,0.07479444891214371,0.8237727880477905,0.6896483898162842,-0.2066507786512375,0.6562187671661377,0.8206863403320312,0.672517716884613,0.16709409654140472,0.12489490211009979,0.825415313243866,0.6864182353019714,-0.22551310062408447,0.6688220500946045,0.820920467376709,0.6728280186653137,0.18109825253486633,0.1622900813817978,0.8251217603683472,0.6827371120452881,-0.220820814371109,0.6719253659248352,0.8214213252067566,0.6736376285552979,0.172169491648674,0.1656550019979477,0.8250479698181152,0.6856209635734558,-0.20665016770362854,0.641620397567749,0.8215802311897278,0.6760025024414062,0.1657838374376297,0.17100079357624054,0.8755977749824524,0.7802450060844421,-0.047620248049497604,0.9987849593162537,0.8711846470832825,0.7699174284934998,0.047666437923908234,0.9976245164871216,0.8483914136886597,0.8533674478530884,-0.07970225811004639,0.8523944616317749,0.8411797285079956,0.8279852271080017,0.05688372999429703,0.40179431438446045,0.8774242401123047,0.8766793608665466,0.0366089828312397,0.5292494893074036,0.866692841053009,0.8666614890098572,0.13419534265995026,0.2646477222442627,0.8824421167373657,0.8733899593353271,0.05057559162378311,0.5712284445762634,0.8735460042953491,0.8689024448394775,0.14338989555835724,0.3639964759349823,0.8778416514396667,0.8994104862213135,0.07590983062982559,0.44951769709587097,0.8646486401557922,0.8930725455284119,0.15756408870220184,0.28150203824043274
65,0.824069619178772,0.6840349435806274,0.005441499873995781,0.9918416738510132,0.8253539800643921,0.6779400110244751,-0.0037720638792961836,0.9944207668304443,0.8261125683784485,0.6776100993156433,-0.0037732168566435575,0.9942952394485474,0.8269107937812805,0.6773633360862732,-0.003817310556769371,0.9958745837211609,0.8245663642883301,0.6774606704711914,0.006399775855243206,0.9924268126487732,0.8248559832572937,0.6766684055328369,0.00639941543340683,0.9898744225502014,0.8250664472579956,0.6758418679237366,0.006378457881510258,0.9928189516067505,0.832196831703186,0.6758535504341125,-0.032737988978624344,0.9932116270065308,0.8295555114746094,0.6729786396026611,0.013026414439082146,0.9937959909439087,0.8280361294746399,0.687781035900116,-0.0036254567094147205,0.9916664361953735,0.8273135423660278,0.6875878572463989,0.009573115967214108,0.9893417954444885,0.8361862897872925,0.6993476152420044,-0.05936172604560852,0.9959178566932678,0.8461707830429077,0.6845106482505798,0.03049875795841217,0.986043393611908,0.8223417401313782,0.6900156736373901,-0.0479496531188488,0.8328744173049927,0.8320701718330383,0.6534612774848938,0.07383498549461365,0.13108623027801514,0.8249996304512024,0.6732710003852844,0.009581205435097218,0.6550654768943787,0.8396121859550476,0.6285449266433716,0.08376836776733398,0.1850222498178482,0.8266250491142273,0.6708953380584717,0.008939096704125404,0.6599677801132202,0.8415228128433228,0.6222200989723206,0.08188877999782562,0.21736833453178406,0.8277695775032043,0.6707185506820679,0.007746007293462753,0.6632398962974548,0.8408553004264832,0.6201604008674622,0.07946385443210602,0.2206231653690338,0.8279910087585449,0.6721469163894653,0.011150442995131016,0.6374326944351196,0.8412734866142273,0.6217408776283264,0.08293993026018143,0.22325673699378967,0.8754581212997437,0.7930690050125122,-0.04340672120451927,0.9988783597946167,0.8720914125442505,0.7817010879516602,0.04328233003616333,0.9978252649307251,0.8470074534416199,0.8528796434402466,-0.04939156025648117,0.860511839389801,0.8360099792480469,0.8296852707862854,0.04307077080011368,0.4051516056060791,0.8777933120727539,0.8782947659492493,0.031533438712358475,0.5563197731971741,0.8597387075424194,0.8667777180671692,0.10466848313808441,0.27049264311790466,0.8831465840339661,0.8752841353416443,0.04150772467255592,0.5935726165771484,0.8683212399482727,0.8692672252655029,0.11134453117847443,0.373633474111557,0.8748211860656738,0.9002284407615662,0.05715230852365494,0.47254517674446106,0.8544281721115112,0.8928441405296326,0.12978212535381317,0.28406575322151184
66,0.8247624635696411,0.6894024610519409,0.006928142160177231,0.9924724698066711,0.8262855410575867,0.6819169521331787,-0.0012259141076356173,0.9948423504829407,0.8270689249038696,0.6815415024757385,-0.001213311799801886,0.9947225451469421,0.827838122844696,0.6810477375984192,-0.0012392817297950387,0.9961791634559631,0.8256739377975464,0.6814404129981995,0.009518483653664589,0.9930113554000854,0.8261057138442993,0.6805885434150696,0.009531913325190544,0.9906566739082336,0.8264932632446289,0.6795504689216614,0.009542533196508884,0.9934020638465881,0.8338707685470581,0.6803227663040161,-0.024236556142568588,0.9937208294868469,0.8314815759658813,0.6782864332199097,0.024719681590795517,0.9943056702613831,0.828998863697052,0.6931546330451965,-0.0002759708440862596,0.9920493364334106,0.828250527381897,0.6932983994483948,0.013745954260230064,0.9897947311401367,0.840123176574707,0.7033265233039856,-0.04741940647363663,0.9960444569587708,0.8477123975753784,0.6925115585327148,0.049807511270046234,0.9867426156997681,0.8235642313957214,0.6903760433197021,-0.03946324810385704,0.8413851261138916,0.83387690782547,0.6504726409912109,0.08639102429151535,0.1592622548341751,0.8392834663391113,0.6728091835975647,0.02746938169002533,0.6425647735595703,0.8437145352363586,0.6236414313316345,0.09387781471014023,0.20464862883090973,0.8431609272956848,0.6695939302444458,0.028699761256575584,0.6403567790985107,0.8484998941421509,0.6230064630508423,0.09190860390663147,0.2338428646326065,0.8454602956771851,0.6701357364654541,0.026816407218575478,0.6432151198387146,0.8500933647155762,0.6211397647857666,0.09135577827692032,0.23793667554855347,0.8447116613388062,0.6718966960906982,0.028753867372870445,0.6229113340377808,0.8478661775588989,0.6251698136329651,0.09277844429016113,0.24000070989131927,0.8730334043502808,0.803813099861145,-0.04371669515967369,0.9989557862281799,0.8710321187973022,0.7924469113349915,0.04336705803871155,0.9980044364929199,0.8259280920028687,0.8483016490936279,-0.039786599576473236,0.870162844657898,0.8283110857009888,0.8297597765922546,0.048544492572546005,0.41594910621643066,0.8699564933776855,0.8783355355262756,-0.015758559107780457,0.5889601707458496,0.8634786605834961,0.8657617568969727,0.04003142565488815,0.2950592041015625,0.8806841969490051,0.875426173210144,-0.011229299008846283,0.623035192489624,0.8748431205749512,0.866624653339386,0.038422465324401855,0.392520546913147,0.8637701272964478,0.9005631804466248,0.009492279961705208,0.5129547715187073,0.8555254936218262,0.8917086720466614,0.05444391816854477,0.3144282102584839
67,0.8345406651496887,0.6789159774780273,0.0012369867181405425,0.9930844902992249,0.8344720005989075,0.6780514121055603,-0.005573713220655918,0.9952192306518555,0.8371512293815613,0.6723138689994812,-0.005564926657825708,0.995100736618042,0.8378444910049438,0.6723134517669678,-0.0055718994699418545,0.9964354634284973,0.8309158086776733,0.6796753406524658,0.003512714756652713,0.9935601949691772,0.8307316899299622,0.679293692111969,0.0035089508164674044,0.9913883209228516,0.8307024240493774,0.6785756349563599,0.00350576383061707,0.9939426779747009,0.8418132066726685,0.6751773357391357,-0.021342528983950615,0.9941891431808472,0.8350860476493835,0.6761690974235535,0.019804280251264572,0.9947851896286011,0.8366090655326843,0.6844000220298767,-0.002913015428930521,0.9924275279045105,0.8335309028625488,0.6877847909927368,0.008990882895886898,0.9904727339744568,0.8401511907577515,0.7040449380874634,-0.04871569946408272,0.9963087439537048,0.8502402305603027,0.6898361444473267,0.05081993341445923,0.9878085255622864,0.8249033689498901,0.7052041888237,-0.05235850065946579,0.8520691394805908,0.8377550840377808,0.6582391262054443,0.08367867767810822,0.19925270974636078,0.8406268954277039,0.6927878856658936,-0.009445099160075188,0.6234400868415833,0.8465296626091003,0.6369836926460266,0.10188359022140503,0.2263616919517517,0.8451927304267883,0.6901416182518005,-0.009136920794844627,0.6153991222381592,0.8499873876571655,0.6326644420623779,0.1057688370347023,0.24982069432735443,0.8470646142959595,0.690074622631073,-0.009080964140594006,0.6165571808815002,0.8522371053695679,0.6329401135444641,0.10604409873485565,0.25383859872817993,0.8459494709968567,0.691797137260437,-0.0074987588450312614,0.6001341342926025,0.8509572744369507,0.6356785297393799,0.1020754799246788,0.2552976608276367,0.8695416450500488,0.8044922351837158,-0.04295928403735161,0.999038577079773,0.8715180158615112,0.7952007055282593,0.04266627877950668,0.9981776475906372,0.8331368565559387,0.853283166885376,-0.013517504557967186,0.8780605792999268,0.8301813006401062,0.8335886001586914,0.059347279369831085,0.4231695830821991,0.8694594502449036,0.8808289766311646,-0.059246648102998734,0.6236816644668579,0.8726093173027039,0.8701163530349731,0.00056625617435202,0.32876360416412354,0.8795161247253418,0.8792917728424072,-0.06237717345356941,0.6565091013908386,0.8829209208488464,0.8708341121673584,-0.005495328456163406,0.430768758058548,0.8673934936523438,0.9026066064834595,-0.051324617117643356,0.5559656023979187,0.8717414140701294,0.8989279270172119,0.006172223016619682,0.3572227358818054
68,0.8421714901924133,0.674557089805603,-0.039358317852020264,0.9933642148971558,0.8455196619033813,0.6689406037330627,-0.03971591219305992,0.9952953457832336,0.847000002861023,0.6657057404518127,-0.03970571979880333,0.9950781464576721,0.8482685089111328,0.6657418608665466,-0.03971056640148163,0.9964163303375244,0.842494010925293,0.6701756119728088,-0.03285472095012665,0.9937344193458557,0.8417301177978516,0.6697356700897217,-0.03284810483455658,0.9915503263473511,0.8410040140151978,0.6691914200782776,-0.032885707914829254,0.9942054748535156,0.8514811396598816,0.6691513657569885,-0.03414753079414368,0.9942769408226013,0.8423477411270142,0.6691039204597473,0.011183277703821659,0.9949612021446228,0.843880295753479,0.6794705986976624,-0.03312165290117264,0.9920535087585449,0.8400442004203796,0.6839027404785156,-0.024722974747419357,0.9906080961227417,0.8448258638381958,0.6992289423942566,-0.05799000337719917,0.9964465498924255,0.8482649922370911,0.6908860802650452,0.04602021723985672,0.9885246157646179,0.8251803517341614,0.6867616176605225,-0.0702604353427887,0.8628687858581543,0.8359096646308899,0.6665767431259155,0.023916982114315033,0.23514144122600555,0.8394922018051147,0.6645524501800537,-0.030001256614923477,0.6304801106452942,0.8511141538619995,0.6422106027603149,-0.004001269116997719,0.2438928335905075,0.8439491987228394,0.6577920913696289,-0.034222982823848724,0.6148474216461182,0.8568660616874695,0.6373557448387146,-0.009995302185416222,0.25616005063056946,0.84620600938797,0.6605191826820374,-0.03262299671769142,0.614436686038971,0.8602051734924316,0.6376755833625793,-0.003544618608430028,0.2593306303024292,0.8447272181510925,0.6641077399253845,-0.02852639928460121,0.599590003490448,0.8590819239616394,0.6402377486228943,-0.0036810841411352158,0.26119279861450195,0.8702197074890137,0.8027772307395935,-0.04033961519598961,0.999087393283844,0.8643074035644531,0.7984334230422974,0.04016362875699997,0.9983075857162476,0.8398395776748657,0.8582499027252197,-0.018024282529950142,0.885069727897644,0.8246766328811646,0.8518000245094299,0.016648126766085625,0.442935973405838,0.8714972734451294,0.881076455116272,-0.013821867294609547,0.6427087187767029,0.8717082738876343,0.8713551163673401,0.05131779983639717,0.33908337354660034,0.8800570368766785,0.8783503770828247,-0.007738118525594473,0.6666701436042786,0.8818521499633789,0.870806872844696,0.05525413900613785,0.4436318576335907,0.87580806016922,0.9042163491249084,-0.0038015663158148527,0.5828567147254944,0.8773717880249023,0.8980205655097961,0.062435321509838104,0.3751164376735687
69,0.8441511988639832,0.6674845218658447,-0.06366677582263947,0.9938517808914185,0.8486431837081909,0.6673556566238403,-0.06154549866914749,0.9956202507019043,0.8501478433609009,0.6636420488357544,-0.061557602137327194,0.9954103827476501,0.8516321182250977,0.6632004976272583,-0.06158992648124695,0.9966529607772827,0.8451257944107056,0.6655014753341675,-0.053112536668777466,0.9941845536231995,0.8441461324691772,0.6651174426078796,-0.05311494320631027,0.9921295046806335,0.8431991338729858,0.6646591424942017,-0.053154654800891876,0.9946278929710388,0.8547830581665039,0.6661506295204163,-0.039611369371414185,0.994723379611969,0.8438188433647156,0.6673817038536072,0.0028887693770229816,0.9952948689460754,0.845650851726532,0.6753661632537842,-0.05562654882669449,0.9923698306083679,0.8412626385688782,0.6746857166290283,-0.044969554990530014,0.9911385178565979,0.850506603717804,0.6963401436805725,-0.06505715847015381,0.9966603517532349,0.8418660163879395,0.6878578066825867,0.04495042562484741,0.9892284870147705,0.8300842046737671,0.6902771592140198,-0.09590940177440643,0.8751075267791748,0.8357211351394653,0.6793626546859741,0.030708570033311844,0.2583663761615753,0.833012580871582,0.6612511873245239,-0.05671257525682449,0.6573014855384827,0.8474310636520386,0.6424559950828552,0.004698530305176973,0.26236096024513245,0.8396857976913452,0.6492096781730652,-0.06734985113143921,0.6364397406578064,0.8518072366714478,0.6364101767539978,-0.0006440785364247859,0.26326194405555725,0.8444690704345703,0.6498510837554932,-0.03736582398414612,0.6348317861557007,0.8521240949630737,0.6353488564491272,0.005269759334623814,0.2646822929382324,0.8433219790458679,0.654728889465332,-0.04534078389406204,0.6188029646873474,0.8529160618782043,0.640923798084259,0.0043697175569832325,0.26600754261016846,0.8683172464370728,0.7991153001785278,-0.04042782261967659,0.9991319179534912,0.858349621295929,0.7975793480873108,0.04037383571267128,0.9984248280525208,0.8450545072555542,0.8567079901695251,-0.07861803472042084,0.8931216597557068,0.8275889158248901,0.852977454662323,0.002650043461471796,0.4778195023536682,0.8719978332519531,0.8826494216918945,-0.023241952061653137,0.6666789054870605,0.8719898462295532,0.8738091588020325,0.06158994510769844,0.3633729815483093,0.8802753686904907,0.8801414370536804,-0.016481859609484673,0.6813194155693054,0.8813230395317078,0.8710669875144958,0.06730256974697113,0.4623081386089325,0.8751747012138367,0.9064042568206787,-0.02946355566382408,0.6118228435516357,0.8785864114761353,0.8993253707885742,0.06625671684741974,0.3982759416103363
70,0.8377458453178406,0.682805061340332,-0.08186507970094681,0.9925469756126404,0.8407734632492065,0.6790393590927124,-0.08268270641565323,0.9943546652793884,0.842287540435791,0.6781915426254272,-0.08269283175468445,0.9940906763076782,0.8436985015869141,0.677367091178894,-0.08273504674434662,0.9957226514816284,0.8374406695365906,0.6788095235824585,-0.07310540974140167,0.9923890233039856,0.8367468118667603,0.6780410408973694,-0.07310035824775696,0.9890956878662109,0.8360825777053833,0.6770352125167847,-0.0731469914317131,0.9926286339759827,0.8474010229110718,0.6799588799476624,-0.06730487197637558,0.9934243559837341,0.83843994140625,0.6777355074882507,-0.022967323660850525,0.9937441349029541,0.840628445148468,0.6876304149627686,-0.0750841349363327,0.9894911050796509,0.8369153141975403,0.6880184412002563,-0.06262070685625076,0.9885079860687256,0.8518211245536804,0.6949970126152039,-0.08611695468425751,0.9965904951095581,0.8383682370185852,0.6926096081733704,0.017434068024158478,0.9893251061439514,0.8382929563522339,0.6730630993843079,-0.14952857792377472,0.8865253925323486,0.8246048092842102,0.6644285917282104,0.012242848053574562,0.30651628971099854,0.8395353555679321,0.6376287937164307,-0.15545441210269928,0.6828640699386597,0.847416877746582,0.6339036822319031,-0.011576290242373943,0.2984006702899933,0.8423981666564941,0.6296653151512146,-0.17236420512199402,0.6577797532081604,0.8521059155464172,0.628284752368927,-0.02221091464161873,0.28688034415245056,0.8467283248901367,0.6283034682273865,-0.16354475915431976,0.6550266146659851,0.8522788286209106,0.6281656622886658,-0.018900280818343163,0.28616487979888916,0.8428950309753418,0.6335399150848389,-0.15342214703559875,0.6385258436203003,0.8516795039176941,0.6304193139076233,-0.013232494704425335,0.2866704761981964,0.865981936454773,0.7977295517921448,-0.04063715785741806,0.9991254806518555,0.8550575375556946,0.7954462170600891,0.04059018939733505,0.9984195232391357,0.8450838327407837,0.8540734052658081,-0.09067706018686295,0.8994008302688599,0.8225024342536926,0.8470451235771179,-0.00606868090108037,0.5053578615188599,0.8727174997329712,0.8824888467788696,-0.013895763084292412,0.6873074173927307,0.8698159456253052,0.8757023215293884,0.06556214392185211,0.3853139281272888,0.882025420665741,0.8834454417228699,-0.005886619910597801,0.69001704454422,0.8788397908210754,0.8732939958572388,0.07203814387321472,0.47902747988700867,0.8743777275085449,0.9128605723381042,-0.024046529084444046,0.6358581781387329,0.8751465678215027,0.903308093547821,0.05987800285220146,0.41966089606285095
71,0.8352511525154114,0.6832197308540344,-0.03101753257215023,0.991965651512146,0.8377739191055298,0.6780328750610352,-0.036543890833854675,0.9936243891716003,0.8392946124076843,0.67740797996521,-0.036533989012241364,0.9931186437606812,0.8406174778938293,0.6765407919883728,-0.03655295446515083,0.9951327443122864,0.8345577120780945,0.6773759126663208,-0.022332746535539627,0.9915577173233032,0.8339887857437134,0.6763591170310974,-0.022330423817038536,0.9876990914344788,0.8334741592407227,0.6752427816390991,-0.022376976907253265,0.9921507239341736,0.8445514440536499,0.6759592890739441,-0.04319697618484497,0.9926521182060242,0.8361163139343262,0.6746742129325867,0.021169612184166908,0.9932190179824829,0.8383579254150391,0.6865023374557495,-0.03271033614873886,0.9865971803665161,0.8350045084953308,0.6855711340904236,-0.014044384472072124,0.9859246611595154,0.8513652682304382,0.6944188475608826,-0.07343041896820068,0.9965729117393494,0.8382903337478638,0.6918101906776428,0.05940570309758186,0.9898184537887573,0.8375219106674194,0.6569134593009949,-0.12671105563640594,0.8965045809745789,0.8267002105712891,0.6579957604408264,0.086991086602211,0.3307358920574188,0.8374492526054382,0.6257874965667725,-0.119395412504673,0.7014393210411072,0.8448261022567749,0.6251469850540161,0.06784412264823914,0.32584136724472046,0.839989185333252,0.6219128966331482,-0.12609219551086426,0.6732550859451294,0.849143385887146,0.6194162368774414,0.037589989602565765,0.30900266766548157,0.8420109748840332,0.6244648694992065,-0.12672409415245056,0.669087827205658,0.8502726554870605,0.6182612180709839,0.04602944105863571,0.307518869638443,0.8398419618606567,0.6234757900238037,-0.11923518031835556,0.6519213914871216,0.8485471606254578,0.6213146448135376,0.062339119613170624,0.30826088786125183,0.8656325340270996,0.7910453081130981,-0.048285599797964096,0.9991488456726074,0.8536561727523804,0.7931123971939087,0.0482456274330616,0.9984799027442932,0.844883143901825,0.8538118600845337,-0.09667066484689713,0.9058148264884949,0.8195348978042603,0.8461286425590515,0.0114519614726305,0.5333460569381714,0.876013457775116,0.882982611656189,-0.05664024502038956,0.7126425504684448,0.8704527616500854,0.8763564229011536,0.05851545184850693,0.4157269597053528,0.8864898681640625,0.8844109773635864,-0.05266997963190079,0.7050443887710571,0.8787396550178528,0.8737500905990601,0.06247851252555847,0.5063515305519104,0.8766153454780579,0.9187424182891846,-0.07604466378688812,0.6646684408187866,0.8746210932731628,0.9067420959472656,0.055172793567180634,0.44847384095191956
72,0.8362272381782532,0.6367023587226868,-0.011870129033923149,0.9926985502243042,0.8389140367507935,0.6316878795623779,-0.019370609894394875,0.9942022562026978,0.839674174785614,0.6319209933280945,-0.019352789968252182,0.9937439560890198,0.8404234051704407,0.6320872902870178,-0.019329113885760307,0.995557963848114,0.8380416631698608,0.6314060091972351,-0.0076745180413126945,0.9923298358917236,0.8381791114807129,0.631393551826477,-0.007681078277528286,0.9888392090797424,0.8383566737174988,0.6313701272010803,-0.007719626184552908,0.9928795099258423,0.8439429998397827,0.6368953585624695,-0.033495645970106125,0.9933264255523682,0.8381285667419434,0.6324816942214966,0.01916385442018509,0.9938589930534363,0.8377164006233215,0.6435120701789856,-0.01586052030324936,0.9877281188964844,0.836054801940918,0.6430806517601013,-0.000925737782381475,0.9871766567230225,0.8450891375541687,0.666001558303833,-0.07049371302127838,0.9967395663261414,0.8427566289901733,0.6672876477241516,0.05384253337979317,0.9905897378921509,0.822148323059082,0.6510467529296875,-0.12150517851114273,0.9042040109634399,0.8268774747848511,0.6465659737586975,0.05055074766278267,0.3649823069572449,0.8369892835617065,0.6204135417938232,-0.12284843623638153,0.7108747959136963,0.8443208932876587,0.6151870489120483,0.029620850458741188,0.34987807273864746,0.8399538993835449,0.6124871969223022,-0.13320966064929962,0.6786186099052429,0.8471189737319946,0.6094716191291809,0.023099571466445923,0.3251314163208008,0.8431791067123413,0.6145957112312317,-0.13271811604499817,0.6732856631278992,0.8492021560668945,0.6066157221794128,0.026958534494042397,0.32353508472442627,0.8418726921081543,0.6182985305786133,-0.12271355092525482,0.6569715738296509,0.8481709361076355,0.6111238598823547,0.028582071885466576,0.32361671328544617,0.8563919067382812,0.7744160890579224,-0.04808880388736725,0.9992012977600098,0.8553202748298645,0.7755194306373596,0.04804690182209015,0.9985945820808411,0.840943455696106,0.8510385751724243,-0.08316094428300858,0.9123454689979553,0.8240474462509155,0.8453214168548584,0.018719080835580826,0.5511990785598755,0.8738774061203003,0.8846867084503174,-0.060335755348205566,0.7375894784927368,0.8722319602966309,0.8831843137741089,0.04162503406405449,0.4474141299724579,0.8826563954353333,0.8864162564277649,-0.05887046456336975,0.7300037741661072,0.8813047409057617,0.8835592865943909,0.04128748178482056,0.5367756485939026,0.8763014674186707,0.9155215620994568,-0.07827766984701157,0.694047749042511,0.8740351796150208,0.9104821085929871,0.02737102285027504,0.47877445816993713
73,0.8371901512145996,0.6269509196281433,-0.017531786113977432,0.9933262467384338,0.8388816118240356,0.6208094954490662,-0.021896829828619957,0.9947026371955872,0.8395489454269409,0.6208642721176147,-0.021896885707974434,0.9942646026611328,0.8402179479598999,0.6209363341331482,-0.02189309149980545,0.995911180973053,0.8377542495727539,0.6207837462425232,-0.01439319271594286,0.9930084347724915,0.8376038670539856,0.6208237409591675,-0.01439602393656969,0.9898256063461304,0.8374848365783691,0.6208620667457581,-0.014430927112698555,0.9935097098350525,0.8431904911994934,0.625076949596405,-0.021960396319627762,0.9939327836036682,0.8383538126945496,0.6243465542793274,0.012084564194083214,0.994397759437561,0.8385472297668457,0.6338136792182922,-0.016089951619505882,0.9887214303016663,0.8368726968765259,0.6338004469871521,-0.006878261920064688,0.9883055090904236,0.8427473902702332,0.6568554043769836,-0.05593413859605789,0.996818482875824,0.844484806060791,0.6551042795181274,0.03647465258836746,0.9913195967674255,0.8238722085952759,0.6513124108314514,-0.10781046003103256,0.9112485647201538,0.8242375254631042,0.6326233148574829,-0.02694770321249962,0.4177135229110718,0.8324459791183472,0.6181288361549377,-0.12007810175418854,0.7184528708457947,0.8355520367622375,0.6064756512641907,-0.08665841072797775,0.396199494600296,0.8325475454330444,0.609726071357727,-0.12517592310905457,0.6801394820213318,0.8414043188095093,0.5897248983383179,-0.0982651486992836,0.36286401748657227,0.8358749151229858,0.6102975010871887,-0.12282711267471313,0.6731210350990295,0.8426188230514526,0.5896443724632263,-0.09135419130325317,0.3595178723335266,0.8363213539123535,0.6148291230201721,-0.12130149453878403,0.6590005159378052,0.8422018885612488,0.5940527319908142,-0.08678322285413742,0.35742759704589844,0.852867603302002,0.7655247449874878,-0.04011749476194382,0.9991992115974426,0.8567449450492859,0.7657570242881775,0.040093496441841125,0.9986459612846375,0.8417881727218628,0.8407617807388306,-0.04150274395942688,0.903702974319458,0.8554965853691101,0.8415745496749878,0.03881274163722992,0.5393643379211426,0.8713431358337402,0.891603410243988,-0.047666244208812714,0.7354072332382202,0.8768018484115601,0.8999035358428955,0.05002542585134506,0.44925934076309204,0.8794070482254028,0.8972695469856262,-0.035700585693120956,0.7382025122642517,0.884250283241272,0.9093450903892517,0.04952133446931839,0.5440525412559509,0.867414116859436,0.915322482585907,-0.039645127952098846,0.6954360604286194,0.8720220327377319,0.9194271564483643,0.03019222989678383,0.475505530834198
74,0.8448224067687988,0.6176417469978333,-0.05373306944966316,0.9934684038162231,0.8450668454170227,0.6128662824630737,-0.04543130099773407,0.9946873784065247,0.8432114720344543,0.6129981875419617,-0.04543384909629822,0.9940580129623413,0.845507025718689,0.6129389405250549,-0.04541000723838806,0.9955708384513855,0.8422242403030396,0.6127610802650452,-0.051328420639038086,0.9932475090026855,0.8410857319831848,0.6128252744674683,-0.05134757608175278,0.9903355240821838,0.8400014042854309,0.6128904819488525,-0.05142797902226448,0.9938026666641235,0.8440448045730591,0.6177327632904053,-0.00872765015810728,0.9938195943832397,0.8376852869987488,0.6179133653640747,-0.025731822475790977,0.9943950176239014,0.8441975712776184,0.6248219013214111,-0.034134794026613235,0.9887449741363525,0.8421609997749329,0.6247087717056274,-0.043320078402757645,0.9886738061904907,0.8498138189315796,0.6483360528945923,-0.00923158135265112,0.9941633939743042,0.832840621471405,0.6432374119758606,-0.02766735479235649,0.9914643168449402,0.8403393626213074,0.6371241211891174,-0.06060546636581421,0.8933249711990356,0.8127757906913757,0.6307770013809204,-0.14587947726249695,0.4720413088798523,0.8323615789413452,0.606676459312439,-0.09564517438411713,0.7186688184738159,0.8241548538208008,0.602230966091156,-0.24202290177345276,0.4541061520576477,0.829534649848938,0.5992743372917175,-0.10360433906316757,0.675574004650116,0.8261895179748535,0.5944859981536865,-0.2635880708694458,0.42161476612091064,0.8319969177246094,0.6002159714698792,-0.10080306231975555,0.6668978333473206,0.8285374641418457,0.5947498083114624,-0.2531401216983795,0.4179651141166687,0.8332274556159973,0.6043627262115479,-0.0975077673792839,0.6531617641448975,0.8284780383110046,0.5987614393234253,-0.2406083047389984,0.41434964537620544,0.852225661277771,0.7507060170173645,-0.015596588142216206,0.9991236329078674,0.8515831828117371,0.7522249221801758,0.015531371347606182,0.9986279010772705,0.8587282299995422,0.8267492055892944,-0.026960302144289017,0.9052481651306152,0.855212390422821,0.8311603665351868,0.012500330805778503,0.5631851553916931,0.8730915784835815,0.8908765912055969,0.01395384967327118,0.7488973140716553,0.8743057250976562,0.8956641554832458,0.04451693594455719,0.48722249269485474,0.8795502781867981,0.8968183994293213,0.016057908535003662,0.7419354915618896,0.8786629438400269,0.9051929712295532,0.04527902975678444,0.5638044476509094,0.8687549829483032,0.9147771000862122,-0.03048674389719963,0.7104098200798035,0.8658502697944641,0.9161484241485596,-0.0038255758117884398,0.5082772374153137
75,0.8411663770675659,0.6027404069900513,-0.04607454314827919,0.9939164519309998,0.8462478518486023,0.6033422946929932,-0.04440847784280777,0.9950540065765381,0.8466461896896362,0.6059678792953491,-0.044422175735235214,0.9944603443145752,0.8474952578544617,0.6059370636940002,-0.04441703483462334,0.9958212375640869,0.8431304693222046,0.6034519076347351,-0.04957978427410126,0.9937220215797424,0.8427656888961792,0.6035369038581848,-0.04957285895943642,0.9910182356834412,0.8421134948730469,0.6033217906951904,-0.049600545316934586,0.9942190647125244,0.8490244746208191,0.6098107695579529,-0.026329126209020615,0.9941983222961426,0.8402000665664673,0.6029087901115417,0.008508586324751377,0.9947617650032043,0.8432941436767578,0.6129715442657471,-0.03777192533016205,0.9890959858894348,0.8399248123168945,0.6134388446807861,-0.04214898496866226,0.9893732070922852,0.8489758372306824,0.6370329260826111,-0.07433219254016876,0.9943428039550781,0.8343984484672546,0.6362895965576172,0.04778679460287094,0.9918889999389648,0.8268322944641113,0.6315554976463318,-0.14815792441368103,0.9026351571083069,0.8145108222961426,0.6260996460914612,0.03655167669057846,0.49705207347869873,0.8090330362319946,0.5923306941986084,-0.17104151844978333,0.7430827021598816,0.8136249780654907,0.5865252614021301,-0.015761343762278557,0.49472716450691223,0.8064299821853638,0.5803171396255493,-0.1915086954832077,0.7021689414978027,0.8137607574462891,0.5761885046958923,-0.02433406561613083,0.45987772941589355,0.8096238970756531,0.5780208706855774,-0.18682357668876648,0.6938758492469788,0.814628005027771,0.574064314365387,-0.03772450610995293,0.45622751116752625,0.811032772064209,0.5827738046646118,-0.17048542201519012,0.6792533993721008,0.8149622678756714,0.5780343413352966,-0.024509117007255554,0.4519810080528259,0.8488076329231262,0.7420444488525391,-0.040838971734046936,0.999008297920227,0.8477898836135864,0.7432472705841064,0.040866874158382416,0.998546838760376,0.8566538095474243,0.8207509517669678,-0.033789560198783875,0.8997563123703003,0.855782687664032,0.8221161961555481,0.055229175835847855,0.5461700558662415,0.8717077970504761,0.8898540139198303,0.004213880281895399,0.7597822546958923,0.8739803433418274,0.8910732269287109,0.0917358547449112,0.4885749816894531,0.8779218792915344,0.8945389986038208,0.006872410420328379,0.759574830532074,0.8793880343437195,0.8989664316177368,0.09315552562475204,0.5702235102653503,0.8605915904045105,0.9144512414932251,-0.03318340331315994,0.7252035737037659,0.8606711626052856,0.9111922383308411,0.047272808849811554,0.5129302740097046
76
77
78
79
80
81
82
83
84
85
86
87
88
89
90
91
92
93
94
95
96
97
98
99
100
101
102
103
104
105
106
107
108
109
110
111
112
113
114
115
116
117
118
119
120
121
122
123
124
125
126
127
128
129
130
131
132
133
134
135
136
137
138
139
140
141
142
143
144
145
146
147
148
149
150
