frame,NOSE.x,NOSE.y,NOSE.z,NOSE.v,LEFT_EYE_INNER.x,LEFT_EYE_INNER.y,LEFT_EYE_INNER.z,LEFT_EYE_INNER.v,LEFT_EYE.x,LEFT_EYE.y,LEFT_EYE.z,LEFT_EYE.v,LEFT_EYE_OUTER.x,LEFT_EYE_OUTER.y,LEFT_EYE_OUTER.z,LEFT_EYE_OUTER.v,RIGHT_EYE_INNER.x,RIGHT_EYE_INNER.y,RIGHT_EYE_INNER.z,RIGHT_EYE_INNER.v,RIGHT_EYE.x,RIGHT_EYE.y,RIGHT_EYE.z,RIGHT_EYE.v,RIGHT_EYE_OUTER.x,RIGHT_EYE_OUTER.y,RIGHT_EYE_OUTER.z,RIGHT_EYE_OUTER.v,LEFT_EAR.x,LEFT_EAR.y,LEFT_EAR.z,LEFT_EAR.v,RIGHT_EAR.x,RIGHT_EAR.y,RIGHT_EAR.z,RIGHT_EAR.v,MOUTH_LEFT.x,MOUTH_LEFT.y,MOUTH_LEFT.z,MOUTH_LEFT.v,MOUTH_RIGHT.x,MOUTH_RIGHT.y,MOUTH_RIGHT.z,MOUTH_RIGHT.v,LEFT_SHOULDER.x,LEFT_SHOULDER.y,LEFT_SHOULDER.z,LEFT_SHOULDER.v,RIGHT_SHOULDER.x,RIGHT_SHOULDER.y,RIGHT_SHOULDER.z,RIGHT_SHOULDER.v,LEFT_ELBOW.x,LEFT_ELBOW.y,LEFT_ELBOW.z,LEFT_ELBOW.v,RIGHT_ELBOW.x,RIGHT_ELBOW.y,RIGHT_ELBOW.z,RIGHT_ELBOW.v,LEFT_WRIST.x,LEFT_WRIST.y,LEFT_WRIST.z,LEFT_WRIST.v,RIGHT_WRIST.x,RIGHT_WRIST.y,RIGHT_WRIST.z,RIGHT_WRIST.v,LEFT_PINKY.x,LEFT_PINKY.y,LEFT_PINKY.z,LEFT_PINKY.v,RIGHT_PINKY.x,RIGHT_PINKY.y,RIGHT_PINKY.z,RIGHT_PINKY.v,LEFT_INDEX.x,LEFT_INDEX.y,LEFT_INDEX.z,LEFT_INDEX.v,RIGHT_INDEX.x,RIGHT_INDEX.y,RIGHT_INDEX.z,RIGHT_INDEX.v,LEFT_THUMB.x,LEFT_THUMB.y,LEFT_THUMB.z,LEFT_THUMB.v,RIGHT_THUMB.x,RIGHT_THUMB.y,RIGHT_THUMB.z,RIGHT_THUMB.v,LEFT_HIP.x,LEFT_HIP.y,LEFT_HIP.z,LEFT_HIP.v,RIGHT_HIP.x,RIGHT_HIP.y,RIGHT_HIP.z,RIGHT_HIP.v,LEFT_KNEE.x,LEFT_KNEE.y,LEFT_KNEE.z,LEFT_KNEE.v,RIGHT_KNEE.x,RIGHT_KNEE.y,RIGHT_KNEE.z,RIGHT_KNEE.v,LEFT_ANKLE.x,LEFT_ANKLE.y,LEFT_ANKLE.z,LEFT_ANKLE.v,RIGHT_ANKLE.x,RIGHT_ANKLE.y,RIGHT_ANKLE.z,RIGHT_ANKLE.v,LEFT_HEEL.x,LEFT_HEEL.y,LEFT_HEEL.z,LEFT_HEEL.v,RIGHT_HEEL.x,RIGHT_HEEL.y,RIGHT_HEEL.z,RIGHT_HEEL.v,LEFT_FOOT_INDEX.x,LEFT_FOOT_INDEX.y,LEFT_FOOT_INDEX.z,LEFT_FOOT_INDEX.v,RIGHT_FOOT_INDEX.x,RIGHT_FOOT_INDEX.y,RIGHT_FOOT_INDEX.z,RIGHT_FOOT_INDEX.v
0
1
2
3
4
5
6
7
8
9
10
11
12
13
14
15
16
17
18
19
20
21
22
23
24
25
26
27
28
29
30
31
32
33
34
35
36
37,0.8201137781143188,0.3939228653907776,0.12145118415355682,0.9998189806938171,0.8186198472976685,0.38711583614349365,0.10422692447900772,0.9996906518936157,0.8172274827957153,0.38690024614334106,0.10423054546117783,0.9996652603149414,0.8157803416252136,0.3868442177772522,0.10421165078878403,0.9996519088745117,0.8228484988212585,0.3872652053833008,0.10207165777683258,0.9996541738510132,0.824447512626648,0.3870103061199188,0.10204978287220001,0.9996600151062012,0.8260148763656616,0.3868182599544525,0.10197149217128754,0.9996160268783569,0.8140508532524109,0.39018961787223816,0.040774423629045486,0.9996627569198608,0.8276022672653198,0.39032167196273804,0.031208569183945656,0.9996511936187744,0.8176881670951843,0.3999265730381012,0.10240910202264786,0.9998502731323242,0.822374165058136,0.40027567744255066,0.09956660866737366,0.9998376369476318,0.7971234917640686,0.42914554476737976,0.019752880558371544,0.9999262094497681,0.8482686877250671,0.43196728825569153,-0.028936108574271202,0.9999700784683228,0.7878250479698181,0.4878203570842743,-0.01948465406894684,0.9310544729232788,0.8570345044136047,0.49342742562294006,-0.06968770176172256,0.9951636791229248,0.7883599996566772,0.5433314442634583,-0.05263397842645645,0.7165834903717041,0.8667497634887695,0.5520187616348267,-0.08700011670589447,0.9471999406814575,0.7854307293891907,0.5600926280021667,-0.06123156473040581,0.6218289136886597,0.8678328394889832,0.5681120753288269,-0.09540191292762756,0.8922841548919678,0.788974404335022,0.5602725744247437,-0.06249652057886124,0.6008250117301941,0.8683743476867676,0.5675391554832458,-0.09130409359931946,0.8790423274040222,0.7919467091560364,0.5536440014839172,-0.054902516305446625,0.5281184911727905,0.8662967681884766,0.5616694092750549,-0.08640781790018082,0.817790687084198,0.8096603155136108,0.557933509349823,0.024079233407974243,0.9997307658195496,0.8399549722671509,0.5590966939926147,-0.024386947974562645,0.9996591806411743,0.8052259683609009,0.6394280195236206,0.040549375116825104,0.9634965062141418,0.8425514101982117,0.6492501497268677,-0.012118851765990257,0.9834657907485962,0.7890931367874146,0.7130557298660278,0.0356200709939003,0.9649653434753418,0.8363699913024902,0.7358608245849609,-0.010884209536015987,0.9863816499710083,0.7846758365631104,0.7199594974517822,0.03372268006205559,0.9760206937789917,0.8290098905563354,0.7477899789810181,-0.011007498018443584,0.9823470115661621,0.7900165319442749,0.7463120818138123,-0.005804444197565317,0.7976272702217102,0.8501651883125305,0.7484740018844604,-0.05104377120733261,0.9038789868354797
38,0.8183879852294922,0.3924171030521393,0.13162510097026825,0.9998182058334351,0.8162097930908203,0.38564470410346985,0.11687035858631134,0.9996933937072754,0.814582347869873,0.3855282664299011,0.11686716973781586,0.9996678829193115,0.8128968477249146,0.3854902982711792,0.11687995493412018,0.9996597766876221,0.8208348155021667,0.3852629065513611,0.11023055016994476,0.9996618032455444,0.8223904371261597,0.38489362597465515,0.11021880805492401,0.9996650815010071,0.8238788843154907,0.38463374972343445,0.11012400686740875,0.9996247291564941,0.8112589120864868,0.38896340131759644,0.058331869542598724,0.9996641874313354,0.8260968923568726,0.38815805315971375,0.030888721346855164,0.9996466040611267,0.8161708116531372,0.39867961406707764,0.11365969479084015,0.9998460412025452,0.8207865953445435,0.39869850873947144,0.10484471172094345,0.9998319745063782,0.7926875352859497,0.4292527437210083,0.03954588249325752,0.9999219179153442,0.8421119451522827,0.4285486042499542,-0.03399905562400818,0.9999635815620422,0.7814021110534668,0.4879237413406372,0.02772006019949913,0.9359808564186096,0.857559859752655,0.4863985478878021,-0.06882495433092117,0.9954244494438171,0.78139728307724,0.5433453917503357,0.022025059908628464,0.7281667590141296,0.8659979104995728,0.5421603918075562,-0.0724511593580246,0.9467232823371887,0.7777617573738098,0.5599538683891296,0.019918888807296753,0.6285361051559448,0.8678730726242065,0.5597129464149475,-0.07989760488271713,0.8893610835075378,0.7829760313034058,0.5597184300422668,0.01632235199213028,0.6072772145271301,0.867777943611145,0.5606018900871277,-0.0769093856215477,0.8763992786407471,0.7859668135643005,0.5535157918930054,0.01963021606206894,0.5345432758331299,0.865435779094696,0.5542581081390381,-0.07129734009504318,0.8137067556381226,0.8077887296676636,0.5567823052406311,0.030949914827942848,0.9997156858444214,0.8387223482131958,0.5566556453704834,-0.03116832673549652,0.9996321201324463,0.8037598729133606,0.639176607131958,0.004318637307733297,0.96416836977005,0.8415248990058899,0.6490834355354309,-0.049426835030317307,0.9841631650924683,0.7857159972190857,0.7144371867179871,-0.011297404766082764,0.9644278883934021,0.8363703489303589,0.7358859777450562,-0.06428492069244385,0.9864577651023865,0.7796143889427185,0.7225521206855774,-0.014440566301345825,0.975856602191925,0.8288061022758484,0.7492254376411438,-0.06703715026378632,0.9828570485115051,0.7844072580337524,0.7465771436691284,-0.05864563584327698,0.8000757694244385,0.8504737615585327,0.7478284239768982,-0.11630004644393921,0.9055036306381226
39,0.8181309700012207,0.3926016390323639,0.12155641615390778,0.9998021125793457,0.816045880317688,0.38569003343582153,0.10678835958242416,0.9996705055236816,0.8144873380661011,0.3855434060096741,0.1067778617143631,0.9996420741081238,0.8129155039787292,0.38551580905914307,0.10679342597723007,0.9996452331542969,0.8203571438789368,0.3853249251842499,0.10007099062204361,0.9996334910392761,0.8216968774795532,0.38493889570236206,0.10007591545581818,0.999630868434906,0.8229674100875854,0.384701132774353,0.10000058263540268,0.999593198299408,0.8114264607429504,0.38869479298591614,0.05342022702097893,0.9996309280395508,0.8245317339897156,0.3882092237472534,0.02162637934088707,0.9995988011360168,0.8161121606826782,0.39869412779808044,0.10424729436635971,0.9998358488082886,0.8203530311584473,0.3987196087837219,0.09543655067682266,0.9998170733451843,0.7926532626152039,0.4302458167076111,0.03369850292801857,0.9999203681945801,0.8370038270950317,0.42818108201026917,-0.039006125181913376,0.9999561309814453,0.7796740531921387,0.4882764518260956,0.024282868951559067,0.9403389096260071,0.8531333208084106,0.48140010237693787,-0.06648950278759003,0.9954767823219299,0.7805269360542297,0.5435627698898315,0.025326037779450417,0.7430128455162048,0.8640758395195007,0.5405128598213196,-0.06110871583223343,0.9454067945480347,0.7768224477767944,0.5599140524864197,0.022930819541215897,0.6417662501335144,0.866724967956543,0.5579051375389099,-0.06865929067134857,0.8855220079421997,0.7810630202293396,0.5594858527183533,0.018390117213129997,0.6210525631904602,0.8662750124931335,0.5587961077690125,-0.06698022037744522,0.8727089166641235,0.7838464975357056,0.5535154342651367,0.022762613371014595,0.5480842590332031,0.863854706287384,0.5525206327438354,-0.06044704467058182,0.8090639710426331,0.8078566789627075,0.5550071001052856,0.031187355518341064,0.9997187256813049,0.8359860181808472,0.5541545152664185,-0.031338516622781754,0.9996222853660583,0.8041951060295105,0.6384636759757996,-0.0005228976951912045,0.9620794057846069,0.8345139622688293,0.6382664442062378,-0.042099423706531525,0.9844732284545898,0.7831513285636902,0.715246856212616,0.0022811000235378742,0.9646276831626892,0.8365186452865601,0.735214352607727,-0.040600840002298355,0.9864416718482971,0.7780978679656982,0.7246226668357849,0.000535674684215337,0.9751121997833252,0.8289955258369446,0.7491790652275085,-0.04181944951415062,0.9824467301368713,0.7839881777763367,0.7471225261688232,-0.04342084005475044,0.8104034662246704,0.8528587222099304,0.7450099587440491,-0.08595982193946838,0.9093696475028992
40,0.817778468132019,0.38916751742362976,0.126239612698555,0.9998050928115845,0.8157676458358765,0.38300877809524536,0.11129765212535858,0.9996768236160278,0.8141063451766968,0.38300076127052307,0.11128793656826019,0.9996505379676819,0.8123512268066406,0.3830631673336029,0.11131326109170914,0.9996565580368042,0.8201310038566589,0.3824526369571686,0.10425540059804916,0.9996435642242432,0.8214333653450012,0.3821629285812378,0.10426542907953262,0.9996403455734253,0.8227134943008423,0.3820614814758301,0.10417966544628143,0.9996035099029541,0.8105077743530273,0.38634586334228516,0.053621597588062286,0.9996368288993835,0.8245078325271606,0.3858129680156708,0.023705938830971718,0.9996019005775452,0.8156477808952332,0.395167738199234,0.10838530957698822,0.9998372793197632,0.8200346231460571,0.3950134515762329,0.09868673980236053,0.9998173713684082,0.7910882830619812,0.42932063341140747,0.0387621745467186,0.9999210834503174,0.8383722305297852,0.42488715052604675,-0.04006689414381981,0.999953031539917,0.7789368033409119,0.4889316260814667,0.03195279464125633,0.9446666240692139,0.8535944819450378,0.4795769453048706,-0.06521014869213104,0.9957067370414734,0.7800706028938293,0.5432196855545044,0.026658346876502037,0.7583434581756592,0.864214301109314,0.5406776666641235,-0.05903606489300728,0.9458884000778198,0.7770054340362549,0.5597890615463257,0.024753663688898087,0.6577774882316589,0.8670101165771484,0.5576483607292175,-0.06588885188102722,0.885133683681488,0.7813846468925476,0.5588882565498352,0.020060794427990913,0.637360155582428,0.8662611246109009,0.5583500266075134,-0.0651857778429985,0.8724971413612366,0.7839844822883606,0.5530513525009155,0.02405235543847084,0.564538300037384,0.8638767004013062,0.5522781610488892,-0.05849181488156319,0.8085082173347473,0.8067429661750793,0.5538222193717957,0.036761827766895294,0.9997179508209229,0.8358522653579712,0.5529857277870178,-0.03694838285446167,0.99961256980896,0.803259551525116,0.6383164525032043,0.00804583914577961,0.9631543159484863,0.8359788656234741,0.6404209136962891,-0.0530054084956646,0.9854822158813477,0.7815532684326172,0.7182273268699646,0.007790853269398212,0.9650976657867432,0.83598792552948,0.7354471683502197,-0.061265576630830765,0.9869756102561951,0.7764052152633667,0.728751003742218,0.00601707398891449,0.9754763245582581,0.8274316787719727,0.7506582140922546,-0.06361033022403717,0.983372688293457,0.7844263315200806,0.7471280694007874,-0.034967225044965744,0.8153486847877502,0.8546088933944702,0.744721531867981,-0.11022289842367172,0.9128143191337585
41,0.8137170076370239,0.38910967111587524,0.1311805546283722,0.9998117685317993,0.811080276966095,0.3820555508136749,0.11727404594421387,0.9996910095214844,0.8094305992126465,0.38192760944366455,0.11727587133646011,0.9996669888496399,0.8077402114868164,0.3818626403808594,0.11729737371206284,0.9996740818023682,0.8154239654541016,0.3817022740840912,0.10818104445934296,0.9996622204780579,0.8166346549987793,0.3813733756542206,0.10819201171398163,0.9996593594551086,0.8178087472915649,0.38119998574256897,0.10809694230556488,0.9996253252029419,0.804767906665802,0.38475367426872253,0.06402740627527237,0.9996512532234192,0.818432629108429,0.38440418243408203,0.024710791185498238,0.9996230602264404,0.8109933137893677,0.39506977796554565,0.11557191610336304,0.99984210729599,0.8150288462638855,0.395062118768692,0.10313145816326141,0.9998237490653992,0.7830908894538879,0.42921003699302673,0.05512566119432449,0.9999197125434875,0.8305066227912903,0.42420849204063416,-0.04502447322010994,0.9999538064002991,0.7740108966827393,0.49047285318374634,0.05854319781064987,0.9474084973335266,0.8410253524780273,0.4788804352283478,-0.05521782115101814,0.9958768486976624,0.7766707539558411,0.5429871082305908,0.05713914707303047,0.754267692565918,0.8520716428756714,0.5348293781280518,-0.02071935310959816,0.9436648488044739,0.7752304673194885,0.5598236918449402,0.05729253217577934,0.6473236680030823,0.8550773859024048,0.5525201559066772,-0.02285967953503132,0.8782535195350647,0.781879723072052,0.5588917136192322,0.052802570164203644,0.6265790462493896,0.8537940979003906,0.5525492429733276,-0.021661508828401566,0.8658032417297363,0.7839294672012329,0.5529987812042236,0.054700978100299835,0.5547130703926086,0.8515125513076782,0.5463173389434814,-0.01863236352801323,0.8004892468452454,0.7945066094398499,0.5526191592216492,0.04183392971754074,0.9997166991233826,0.8254039883613586,0.5507869124412537,-0.042031921446323395,0.9996183514595032,0.7944638133049011,0.6397220492362976,0.009847598150372505,0.9649090766906738,0.8353821635246277,0.6425200700759888,-0.04275272414088249,0.9863719940185547,0.7795074582099915,0.7283369302749634,0.009956510737538338,0.9663387537002563,0.834906280040741,0.7354211807250977,-0.04817404970526695,0.9874642491340637,0.7749146819114685,0.7418473362922668,0.009598622098565102,0.9763234853744507,0.8274828195571899,0.7507869601249695,-0.049576833844184875,0.9840484261512756,0.7814989686012268,0.7460835576057434,-0.016854727640748024,0.8191351294517517,0.8544895052909851,0.7419968843460083,-0.09133318066596985,0.9151303172111511
42,0.8149434924125671,0.3890601098537445,0.09341908991336823,0.9997431635856628,0.8111296892166138,0.38158783316612244,0.0793190449476242,0.999597430229187,0.8097979426383972,0.3814229369163513,0.07929874956607819,0.9995602369308472,0.8081284761428833,0.38137999176979065,0.07932049036026001,0.9995835423469543,0.8157906532287598,0.381658673286438,0.0732489824295044,0.9995823502540588,0.817371666431427,0.3814924359321594,0.07326477766036987,0.9995715022087097,0.8184472918510437,0.38141927123069763,0.07316432148218155,0.9995461106300354,0.805456280708313,0.38436099886894226,0.029200997203588486,0.999535858631134,0.8196520805358887,0.3847719728946686,0.0013178482186049223,0.999525785446167,0.8117886781692505,0.3950231969356537,0.07941219955682755,0.999782383441925,0.8159597516059875,0.3952658474445343,0.07114483416080475,0.9997618794441223,0.7805896401405334,0.4282517731189728,0.014752879738807678,0.999904990196228,0.8267359733581543,0.4247150123119354,-0.04885166510939598,0.9999457597732544,0.7675690650939941,0.48980268836021423,0.0524282269179821,0.9486632347106934,0.8398061990737915,0.4789847731590271,-0.05803040415048599,0.9956141710281372,0.7692602276802063,0.5429734587669373,0.024665456265211105,0.7499609589576721,0.8521111607551575,0.5360224843025208,-0.044247135519981384,0.9424824118614197,0.7686047554016113,0.5590226054191589,0.02325538359582424,0.6359585523605347,0.8540607690811157,0.5528694987297058,-0.049612659960985184,0.8741005063056946,0.7738476395606995,0.5576798319816589,0.01935546286404133,0.6150684952735901,0.851913332939148,0.552872896194458,-0.04865312948822975,0.8619064688682556,0.7753546237945557,0.5510228872299194,0.022703954949975014,0.5452834963798523,0.8497363924980164,0.5471593141555786,-0.04333901405334473,0.7961920499801636,0.7867928147315979,0.5528070330619812,0.026645392179489136,0.9996526837348938,0.8202013969421387,0.5512219071388245,-0.02680356800556183,0.9995418787002563,0.7904831171035767,0.6398888230323792,-0.00432058097794652,0.9631432890892029,0.8279577493667603,0.6429932117462158,-0.029693331569433212,0.983262300491333,0.7788380980491638,0.7312138676643372,0.0069284080527722836,0.9649254679679871,0.8342000842094421,0.7333520650863647,-0.015319262631237507,0.985237717628479,0.771531343460083,0.7485261559486389,0.006393715739250183,0.9735033512115479,0.8274617195129395,0.7491297125816345,-0.015920870006084442,0.9804243445396423,0.7769501209259033,0.7461419701576233,-0.02937922812998295,0.82451993227005,0.8464391827583313,0.741126298904419,-0.05666203051805496,0.9156059622764587
43,0.8152804374694824,0.3876930773258209,0.0864727571606636,0.9996772408485413,0.8123019933700562,0.38026177883148193,0.07774348556995392,0.9995238780975342,0.8105996251106262,0.3801378905773163,0.07772449404001236,0.9994497299194336,0.8095077276229858,0.3801756799221039,0.07772538810968399,0.9995083808898926,0.8161953091621399,0.3797434866428375,0.06673090904951096,0.9995310306549072,0.8180145025253296,0.37988677620887756,0.0667421743273735,0.9994989037513733,0.8191359639167786,0.3800216615200043,0.06662267446517944,0.9994956851005554,0.8060870170593262,0.3837164640426636,0.034606292843818665,0.9994009733200073,0.8200559616088867,0.38473787903785706,-0.00397626543417573,0.9994409084320068,0.8121480941772461,0.39470502734184265,0.07857994735240936,0.9997054934501648,0.8164621591567993,0.3951622247695923,0.06415234506130219,0.9996910095214844,0.781664252281189,0.4251120686531067,0.04142477735877037,0.9998742938041687,0.8231627345085144,0.42228445410728455,-0.061943549662828445,0.9999427795410156,0.7698280811309814,0.4890231192111969,0.06467192620038986,0.9359459280967712,0.8388192057609558,0.4787098169326782,-0.07203033566474915,0.9952395558357239,0.7729513645172119,0.5427132248878479,0.07271186262369156,0.7221967577934265,0.8508094549179077,0.535858690738678,-0.047399722039699554,0.9426894187927246,0.7703455686569214,0.5571284890174866,0.07552135735750198,0.6072275042533875,0.8505491018295288,0.5527523756027222,-0.0516694113612175,0.8741474151611328,0.7804244756698608,0.5556543469429016,0.06940712034702301,0.5864834785461426,0.8493119478225708,0.5528897643089294,-0.050652217119932175,0.8622245192527771,0.7794631719589233,0.5494977831840515,0.06992707401514053,0.5209181904792786,0.8486254811286926,0.5468446612358093,-0.045878615230321884,0.7965400218963623,0.7863966226577759,0.5519147515296936,0.030358875170350075,0.9995903968811035,0.8178364038467407,0.5503430962562561,-0.030558547005057335,0.9994744658470154,0.7904845476150513,0.6412866115570068,0.006481771357357502,0.9558786749839783,0.8234562873840332,0.6430760025978088,-0.02310621738433838,0.976442277431488,0.780040442943573,0.7335559725761414,0.022214559838175774,0.9598749876022339,0.8329231142997742,0.7330092191696167,-0.003936685621738434,0.9791148900985718,0.77272629737854,0.7509480714797974,0.022394156083464622,0.9665859937667847,0.8269055485725403,0.7479585409164429,-0.0035016704350709915,0.9694329500198364,0.7777810096740723,0.7465888261795044,-0.011662254109978676,0.8259928822517395,0.843812108039856,0.7407158613204956,-0.04051784425973892,0.911107063293457
44,0.8124949336051941,0.4028340280056,0.04154977202415466,0.9996045231819153,0.8065286874771118,0.3997552990913391,0.028883909806609154,0.9994362592697144,0.8049276471138,0.39996635913848877,0.02884703502058983,0.9993550777435303,0.8034666776657104,0.4002060294151306,0.028828147798776627,0.9994162917137146,0.810768723487854,0.3991008698940277,0.024039696902036667,0.9993990063667297,0.812231183052063,0.3989967405796051,0.02404944598674774,0.999351978302002,0.8134940266609192,0.39889755845069885,0.023975688964128494,0.9993380308151245,0.8045032620429993,0.39833754301071167,-0.0076803043484687805,0.9993260502815247,0.8146006464958191,0.4031062126159668,-0.02942369505763054,0.9993189573287964,0.8080762028694153,0.4092452824115753,0.0331418439745903,0.9996540546417236,0.8129483461380005,0.411476194858551,0.026691094040870667,0.9996184706687927,0.7808845639228821,0.4496577978134155,-0.0058735753409564495,0.9998756051063538,0.8256868124008179,0.44317659735679626,-0.06848536431789398,0.9999315142631531,0.7691863775253296,0.5158348679542542,0.0010269174817949533,0.9391418099403381,0.8414505124092102,0.5039284229278564,-0.08791301399469376,0.9949616193771362,0.7669893503189087,0.5602565407752991,0.0017566696042194963,0.7345581650733948,0.846882700920105,0.5576782822608948,-0.08698035776615143,0.9431199431419373,0.7656350135803223,0.5747592449188232,-0.0026562593411654234,0.6189601421356201,0.8483386039733887,0.5727968811988831,-0.09666941314935684,0.8743517398834229,0.7684437036514282,0.5717929005622864,-0.009074883535504341,0.599011242389679,0.8460734486579895,0.5721589922904968,-0.09946878999471664,0.8626441955566406,0.7695538997650146,0.5659108757972717,-0.0011060538236051798,0.5349342226982117,0.8432086110115051,0.5656607747077942,-0.08820022642612457,0.7986395359039307,0.7864300012588501,0.5598360300064087,0.02580299600958824,0.9995348453521729,0.8140571713447571,0.5578470230102539,-0.02586483396589756,0.999310314655304,0.7884436845779419,0.6528827548027039,0.002230206737294793,0.9533916711807251,0.8177596926689148,0.6501345038414001,-0.022740676999092102,0.9733822345733643,0.7823196649551392,0.7382922768592834,0.026380697265267372,0.9576446413993835,0.827730655670166,0.7333419322967529,0.0020288736559450626,0.9766051173210144,0.7777143716812134,0.7590352296829224,0.026233231648802757,0.9639374613761902,0.8241021037101746,0.7477038502693176,0.00222372030839324,0.9663547873497009,0.7869978547096252,0.759038507938385,-0.012602281756699085,0.8288130760192871,0.8435899615287781,0.7422565221786499,-0.039707500487565994,0.9090580940246582
45,0.8128865957260132,0.40420466661453247,0.039940956979990005,0.9995201230049133,0.8080956339836121,0.39839261770248413,0.03391430526971817,0.9993707537651062,0.8062901496887207,0.39861592650413513,0.03389858081936836,0.9992639422416687,0.804559051990509,0.39886781573295593,0.0338834747672081,0.9993351697921753,0.8127400279045105,0.3977917432785034,0.024348830804228783,0.9993478655815125,0.8141341209411621,0.39767375588417053,0.024355057626962662,0.999286949634552,0.8153640627861023,0.3975783884525299,0.02426537126302719,0.9992777109146118,0.8053844571113586,0.3989036977291107,0.014246106147766113,0.9992247223854065,0.8152497410774231,0.4023784101009369,-0.025885945186018944,0.9992469549179077,0.8088765144348145,0.40956300497055054,0.03787746652960777,0.9995285272598267,0.8139413595199585,0.41113710403442383,0.025528892874717712,0.9994893074035645,0.7822529673576355,0.4526020288467407,0.01934952475130558,0.9998465776443481,0.8267406225204468,0.44577518105506897,-0.07434245198965073,0.9999108910560608,0.7709470987319946,0.5205402970314026,0.05247555300593376,0.9375817775726318,0.8423183560371399,0.5123096704483032,-0.08291995525360107,0.9943253397941589,0.7702387571334839,0.5641310811042786,0.06788567453622818,0.7238221168518066,0.845077633857727,0.5620931386947632,-0.05905035883188248,0.9412286877632141,0.768538236618042,0.5787707567214966,0.06877540051937103,0.6038962602615356,0.8460071682929993,0.5778874754905701,-0.0652042105793953,0.8708232045173645,0.772304892539978,0.5755146741867065,0.06423704326152802,0.5840652585029602,0.8445560336112976,0.5773221254348755,-0.06816530227661133,0.8590110540390015,0.7736265659332275,0.5695620775222778,0.0658646672964096,0.5231943130493164,0.8425882458686829,0.5704116821289062,-0.05885005742311478,0.7938169836997986,0.7855841517448425,0.5627908706665039,0.031828608363866806,0.999430775642395,0.81440269947052,0.5609768629074097,-0.031932540237903595,0.9990881085395813,0.7852557897567749,0.6586949229240417,0.030100267380475998,0.9432119131088257,0.8180291056632996,0.6543787717819214,0.00351765938103199,0.9619758725166321,0.7821329832077026,0.743803083896637,0.0803062841296196,0.9495782256126404,0.8287883996963501,0.7340821027755737,0.05001167580485344,0.9679387807846069,0.7776182889938354,0.7589997053146362,0.08349739015102386,0.9554457068443298,0.8225094079971313,0.7501609921455383,0.052912693470716476,0.9543935656547546,0.7875990867614746,0.7576589584350586,0.05574547126889229,0.8234870433807373,0.8504332304000854,0.7423558831214905,0.02237715944647789,0.8990549445152283
46,0.8101547956466675,0.38690245151519775,0.06681569665670395,0.9995530247688293,0.8066118359565735,0.3775733709335327,0.05669919773936272,0.9994177222251892,0.805077850818634,0.3781093657016754,0.056686002761125565,0.9993171691894531,0.803583025932312,0.37876448035240173,0.0566680021584034,0.9993831515312195,0.8106563687324524,0.3771977722644806,0.048845816403627396,0.9993995428085327,0.8113522529602051,0.3774331212043762,0.04885995015501976,0.9993429183959961,0.8119298815727234,0.37772950530052185,0.048789795488119125,0.9993342757225037,0.8006353378295898,0.3844735026359558,0.02257375419139862,0.9992842674255371,0.8108561635017395,0.38331639766693115,-0.012570272199809551,0.9993036389350891,0.8060376048088074,0.3966987729072571,0.0586547777056694,0.9995570778846741,0.8106959462165833,0.3963072597980499,0.048284489661455154,0.9995214343070984,0.7764437794685364,0.45015326142311096,0.021058816462755203,0.9998505711555481,0.8201617002487183,0.4418969452381134,-0.06759507954120636,0.9999087452888489,0.7730799913406372,0.5111441016197205,0.04047154635190964,0.9337618350982666,0.8375263214111328,0.5044400095939636,-0.06776206195354462,0.9936639666557312,0.7812651991844177,0.5553175806999207,0.051706939935684204,0.7093427181243896,0.84412682056427,0.5613962411880493,-0.05275790020823479,0.9434087872505188,0.7824419140815735,0.5661572217941284,0.05177883431315422,0.5856242775917053,0.8458350896835327,0.5774372220039368,-0.05892186611890793,0.8755371570587158,0.7840723395347595,0.561809778213501,0.04644481837749481,0.5658268928527832,0.8448745012283325,0.576736569404602,-0.06121010333299637,0.8640521168708801,0.7846087217330933,0.5574277639389038,0.049257513135671616,0.5079142451286316,0.8420758247375488,0.5702685713768005,-0.053105615079402924,0.8004845976829529,0.7851049900054932,0.5615928173065186,0.016860289499163628,0.999431312084198,0.8146991729736328,0.5604962110519409,-0.016960786655545235,0.9990416765213013,0.78317791223526,0.6563482284545898,0.006185703910887241,0.9470155239105225,0.8167891502380371,0.6541137099266052,0.009777679108083248,0.9577558636665344,0.7824539542198181,0.7452735900878906,0.07788102328777313,0.9505857229232788,0.8227540850639343,0.7363690137863159,0.04466709494590759,0.9661162495613098,0.7790561318397522,0.7632806301116943,0.06597556173801422,0.9566807746887207,0.8167802095413208,0.7529746890068054,0.046618685126304626,0.9518830180168152,0.7806345820426941,0.7581697106361389,0.021496888250112534,0.8227528929710388,0.8359742164611816,0.7439550161361694,0.01278340257704258,0.8930749297142029
47,0.8152591586112976,0.38242703676223755,0.016936223953962326,0.9995598196983337,0.8118072748184204,0.3724909722805023,0.012320267967879772,0.9994354248046875,0.8103207349777222,0.37906986474990845,0.012301938608288765,0.9993294477462769,0.8091986775398254,0.37948957085609436,0.012281462550163269,0.9993911385536194,0.8159472346305847,0.37221983075141907,0.0027693775482475758,0.9994306564331055,0.8158205151557922,0.37230461835861206,0.002789158374071121,0.9993749260902405,0.8150727152824402,0.3724459707736969,0.002710718894377351,0.999367356300354,0.8022850751876831,0.3804028630256653,0.0005490448675118387,0.9992919564247131,0.812164306640625,0.37832558155059814,-0.04186634346842766,0.9993314146995544,0.8124312162399292,0.39644721150398254,0.01681140810251236,0.9995253086090088,0.8145350217819214,0.3922809064388275,0.004418924916535616,0.9994983077049255,0.7784460186958313,0.4459066689014435,0.01673921011388302,0.9998040199279785,0.8222392797470093,0.43991807103157043,-0.08488926291465759,0.9998929500579834,0.7735013961791992,0.507859468460083,0.04747521132230759,0.9261541962623596,0.8367250561714172,0.5028718709945679,-0.09393557906150818,0.9924156069755554,0.7803837060928345,0.5532179474830627,0.07354430854320526,0.6934956312179565,0.8455362319946289,0.5624269843101501,-0.07557035982608795,0.9425316452980042,0.7813434600830078,0.5631223917007446,0.07740987837314606,0.5685640573501587,0.8467958569526672,0.5778571367263794,-0.08168251812458038,0.874894380569458,0.7813254594802856,0.5586830973625183,0.07204799354076385,0.5492778420448303,0.8462713956832886,0.5762712359428406,-0.08288411051034927,0.8632475137710571,0.7821928858757019,0.5546309351921082,0.0715942233800888,0.49301350116729736,0.8441941142082214,0.5712054967880249,-0.07516124099493027,0.7987679839134216,0.7854034900665283,0.5610429644584656,0.018821921199560165,0.9993363618850708,0.8152068257331848,0.5599280595779419,-0.018880529329180717,0.9988417029380798,0.7828080654144287,0.6550347805023193,0.02541523613035679,0.9460270404815674,0.8185455203056335,0.6545495390892029,0.016549093648791313,0.9482297897338867,0.7825762033462524,0.7452117800712585,0.07574735581874847,0.946388304233551,0.8234226107597351,0.7372542023658752,0.061461202800273895,0.959209680557251,0.7791085243225098,0.7623912692070007,0.07756002247333527,0.9522485733032227,0.8165314793586731,0.7533189058303833,0.0646844431757927,0.9432626962661743,0.7801823616027832,0.7580899596214294,0.04785997420549393,0.8167215585708618,0.8377612233161926,0.7446820735931396,0.03370452672243118,0.8824058771133423
48,0.8007424473762512,0.39040765166282654,-0.0008823696407489479,0.9995736479759216,0.798164963722229,0.38311567902565,-0.0022673201747238636,0.999460756778717,0.7976171970367432,0.38493460416793823,-0.002304515102878213,0.9993579387664795,0.7971324324607849,0.38519755005836487,-0.0023370985873043537,0.9994135499000549,0.7994462251663208,0.38350918889045715,-0.009896872565150261,0.9994490742683411,0.7995051145553589,0.38398945331573486,-0.00986120942980051,0.999382734298706,0.7994856238365173,0.3844808340072632,-0.009894479997456074,0.999365508556366,0.7937790155410767,0.39252832531929016,0.001864618039689958,0.9993294477462769,0.8012576103210449,0.38611501455307007,-0.032311223447322845,0.9993403553962708,0.8008882403373718,0.40183326601982117,0.004228584002703428,0.9995260238647461,0.8015400767326355,0.39808952808380127,-0.005489880684763193,0.9994733333587646,0.77704256772995,0.4478641748428345,0.026512030512094498,0.9997795224189758,0.8117009401321411,0.4453660845756531,-0.07275191694498062,0.9997966289520264,0.7556511163711548,0.5076935887336731,0.0419507697224617,0.9303719401359558,0.8277894854545593,0.5041208267211914,-0.10857929289340973,0.9910910725593567,0.7541381120681763,0.5532587766647339,0.04957457259297371,0.7140421271324158,0.8431710004806519,0.5685048699378967,-0.13772836327552795,0.9433326721191406,0.7531995177268982,0.5644014477729797,0.04098522290587425,0.5914704203605652,0.844802737236023,0.5808687806129456,-0.15571416914463043,0.8782639503479004,0.752090334892273,0.5608654618263245,0.02980802021920681,0.5740625858306885,0.8441756367683411,0.5788482427597046,-0.15732257068157196,0.8669435977935791,0.7530651688575745,0.5567015409469604,0.04201648384332657,0.5205485224723816,0.8428762555122375,0.5746124982833862,-0.13939231634140015,0.8039056062698364,0.7740118503570557,0.5606423020362854,0.02742019295692444,0.9992995262145996,0.8052847981452942,0.5598335862159729,-0.027245035395026207,0.9987351298332214,0.7803292870521545,0.6575551629066467,0.010905331932008266,0.9449033141136169,0.8030033111572266,0.6506611704826355,-0.018869547173380852,0.950534999370575,0.7843073606491089,0.7443462610244751,0.08180122077465057,0.9468340873718262,0.8157517313957214,0.7372186183929443,0.03768355771899223,0.9608359336853027,0.7781208753585815,0.7588881254196167,0.08515271544456482,0.9510530233383179,0.8147041201591492,0.746863603591919,0.039906151592731476,0.9437246322631836,0.7867617607116699,0.762451171875,0.03637082129716873,0.8273128271102905,0.8366352915763855,0.7493159174919128,0.028144095093011856,0.8891124129295349
49,0.791086733341217,0.39520642161369324,0.036535732448101044,0.9995781779289246,0.787097156047821,0.38304391503334045,0.04665609449148178,0.9994791746139526,0.7866376638412476,0.3839069902896881,0.046636439859867096,0.9993723034858704,0.7866422533988953,0.3900560438632965,0.04657687991857529,0.9994131922721863,0.7909210324287415,0.3889155387878418,0.04123758152127266,0.9994781017303467,0.7916879057884216,0.3891089856624603,0.0412808433175087,0.9994163513183594,0.7924472689628601,0.38931530714035034,0.041206568479537964,0.9994006156921387,0.7854160070419312,0.3921860158443451,0.046230249106884,0.9993466138839722,0.7938255071640015,0.3942549526691437,0.019513309001922607,0.9993759989738464,0.7888523936271667,0.40132632851600647,0.05086178705096245,0.9994092583656311,0.7934123277664185,0.40320879220962524,0.043948717415332794,0.9993495941162109,0.7645604610443115,0.44409623742103577,0.06629620492458344,0.9996818900108337,0.8142409324645996,0.44237831234931946,-0.04059113189578056,0.9997898936271667,0.7568213939666748,0.509424090385437,0.10911548137664795,0.9190276265144348,0.8283130526542664,0.5023097395896912,-0.08422907441854477,0.9915282726287842,0.7586766481399536,0.5470225811004639,0.14726319909095764,0.6839439272880554,0.8414860963821411,0.5642330646514893,-0.11246850341558456,0.9463146924972534,0.7572894096374512,0.5565616488456726,0.1572921872138977,0.5633636116981506,0.842975914478302,0.578113853931427,-0.1339212954044342,0.8841875195503235,0.759658932685852,0.5519422292709351,0.15172740817070007,0.5463883876800537,0.8421863317489624,0.5770520567893982,-0.11573048681020737,0.8731914162635803,0.7615383267402649,0.5483513474464417,0.14613406360149384,0.49625712633132935,0.8404954075813293,0.572253942489624,-0.13740959763526917,0.8123096823692322,0.7700485587120056,0.5599305033683777,0.02870640717446804,0.9991627931594849,0.8065029978752136,0.5596667528152466,-0.02873258665204048,0.9985191226005554,0.7758392691612244,0.6558101773262024,0.01781359873712063,0.9471021294593811,0.8087860345840454,0.655236005783081,-0.01812111958861351,0.9524911046028137,0.7834351658821106,0.7440564632415771,0.043393053114414215,0.9440996050834656,0.8126538991928101,0.7386677861213684,-0.007999368011951447,0.9623607993125916,0.7782630324363708,0.7579306960105896,0.041180964559316635,0.9498347640037537,0.8135784864425659,0.7502619624137878,-0.008402145467698574,0.9464387893676758,0.7859808206558228,0.7622565031051636,0.010883298702538013,0.8171638250350952,0.8342491984367371,0.7523036599159241,-0.03825399652123451,0.8915663361549377
50,0.792568027973175,0.4007153809070587,0.12798453867435455,0.9995452761650085,0.7880053520202637,0.38593199849128723,0.1152212843298912,0.9994821548461914,0.787143349647522,0.38549771904945374,0.11519330739974976,0.9993775486946106,0.7864192128181458,0.3895978331565857,0.11516480147838593,0.9994004368782043,0.7942891716957092,0.39388608932495117,0.11478219926357269,0.9994758367538452,0.7958711385726929,0.3940885365009308,0.114795982837677,0.9994214177131653,0.7974247336387634,0.3943086564540863,0.11474291235208511,0.9994016885757446,0.784926176071167,0.3915979266166687,0.06641844660043716,0.9993774890899658,0.8006579279899597,0.3964071273803711,0.06444653123617172,0.9994077086448669,0.7899967432022095,0.4022345244884491,0.11465563625097275,0.9994015693664551,0.7941705584526062,0.4039720892906189,0.11410339921712875,0.9993329644203186,0.7653362154960632,0.44248172640800476,0.060895971953868866,0.9996823072433472,0.817416787147522,0.4440692365169525,0.007116483058780432,0.9997864365577698,0.7518713474273682,0.507994532585144,0.07457730174064636,0.9242518544197083,0.8316053152084351,0.5057912468910217,-0.04556114226579666,0.9908091425895691,0.7431725263595581,0.5366086363792419,0.09908181428909302,0.6969459056854248,0.841968834400177,0.5659454464912415,-0.11002390086650848,0.9407937526702881,0.7377936840057373,0.5454707741737366,0.10322699695825577,0.5762698650360107,0.8445537686347961,0.5781164169311523,-0.11969093233346939,0.876549243927002,0.7416943311691284,0.5406395196914673,0.10281851142644882,0.5596115589141846,0.8435970544815063,0.5771230459213257,-0.09992445260286331,0.8639368414878845,0.7453888058662415,0.5374308824539185,0.09975851327180862,0.5065512657165527,0.8408467173576355,0.5722771286964417,-0.1256924271583557,0.8021087646484375,0.7680188417434692,0.5597829818725586,0.024584362283349037,0.9991826415061951,0.8054451942443848,0.5607355833053589,-0.024725232273340225,0.9985312223434448,0.7724851965904236,0.6572856307029724,0.01755623146891594,0.9474822878837585,0.8095459938049316,0.6587942838668823,-0.016891051083803177,0.9547188878059387,0.7811235189437866,0.7459906339645386,-0.011717474088072777,0.9435026049613953,0.810819149017334,0.7397951483726501,-0.045684151351451874,0.9636792540550232,0.7778387069702148,0.7603538632392883,-0.018717141821980476,0.9506672024726868,0.8087092638015747,0.7514823079109192,-0.051294662058353424,0.9496629238128662,0.785932183265686,0.7663542628288269,-0.06324634701013565,0.8171643018722534,0.828630268573761,0.7596051692962646,-0.09683869779109955,0.8938670754432678
51,0.7910153269767761,0.4054099917411804,0.09910440444946289,0.9994326233863831,0.7875645160675049,0.39735186100006104,0.11273013055324554,0.9994093775749207,0.7859798669815063,0.3973209261894226,0.11251000314950943,0.9992940425872803,0.784417986869812,0.39831119775772095,0.11224959790706635,0.9992841482162476,0.7931462526321411,0.39863675832748413,0.08651548624038696,0.9994105100631714,0.7950199246406555,0.398736834526062,0.08651158958673477,0.9993621706962585,0.7968786954879761,0.39885643124580383,0.08645825833082199,0.9993295669555664,0.7843114137649536,0.3960905969142914,0.026716182008385658,0.9993428587913513,0.8005253076553345,0.4031476378440857,0.03446337580680847,0.9993897676467896,0.7879523634910583,0.4088396430015564,0.10723725706338882,0.9993209838867188,0.7947648167610168,0.4114798903465271,0.08305427432060242,0.9992526769638062,0.7654911875724792,0.4417818784713745,0.02169671840965748,0.9996720552444458,0.819246768951416,0.4453287422657013,-0.02262203022837639,0.9997868537902832,0.7537699341773987,0.5084385275840759,0.021701907739043236,0.92562335729599,0.8320834040641785,0.5050780177116394,-0.06579761952161789,0.9905048608779907,0.7433800101280212,0.5315853357315063,0.021443350240588188,0.7049439549446106,0.8417166471481323,0.5657691955566406,-0.1250474452972412,0.9426329135894775,0.7377504706382751,0.5390554070472717,0.019229045137763023,0.5847651362419128,0.8446024060249329,0.578522801399231,-0.13846781849861145,0.8807178735733032,0.7413243055343628,0.5337058305740356,0.018809255212545395,0.5684221982955933,0.8433923721313477,0.5779312252998352,-0.13474386930465698,0.8680943250656128,0.7450620532035828,0.5310449600219727,0.02162220887839794,0.5123946070671082,0.8400756120681763,0.5727689266204834,-0.12621933221817017,0.8075045943260193,0.7679822444915771,0.5580795407295227,0.02116156741976738,0.9990746974945068,0.8053658604621887,0.5605782866477966,-0.02132558822631836,0.9984114170074463,0.7712600231170654,0.6581122279167175,0.013044064864516258,0.9494777321815491,0.8108342885971069,0.6578235626220703,-0.020452361553907394,0.9567005634307861,0.7807952165603638,0.746432900428772,0.02544797584414482,0.9432563781738281,0.809794545173645,0.739963948726654,-0.018125617876648903,0.9649737477302551,0.7790319323539734,0.760533332824707,0.02438792958855629,0.950193464756012,0.8092001676559448,0.7531227469444275,-0.017817990854382515,0.9515467286109924,0.782141387462616,0.7661119699478149,-0.02780790999531746,0.8111691474914551,0.8286740183830261,0.7591874599456787,-0.08166220039129257,0.8940019011497498
52,0.789037823677063,0.4015115201473236,0.11964188516139984,0.9978358745574951,0.7851859331130981,0.396786630153656,0.11206096410751343,0.9983394742012024,0.7834275960922241,0.3959793150424957,0.1120225191116333,0.997972309589386,0.7843108177185059,0.39100706577301025,0.11198047548532486,0.997733473777771,0.789831280708313,0.39521774649620056,0.10209033638238907,0.9985312223434448,0.7912819981575012,0.3953785002231598,0.10205449163913727,0.9985970854759216,0.7927525043487549,0.39555150270462036,0.10193276405334473,0.9986379146575928,0.7808948755264282,0.39541709423065186,0.07604732364416122,0.9980921745300293,0.7934249639511108,0.4027051031589508,0.040843673050403595,0.9989312887191772,0.7866820096969604,0.40390321612358093,0.11329176276922226,0.9981871843338013,0.7920364141464233,0.40579357743263245,0.10080418735742569,0.9985373020172119,0.7621095180511475,0.43119847774505615,0.0755390152335167,0.999347984790802,0.8076159358024597,0.4364069998264313,-0.014010729268193245,0.9997462034225464,0.7733460068702698,0.49789220094680786,0.03256426006555557,0.8356227874755859,0.8095053434371948,0.49897947907447815,-0.07419625669717789,0.9541255235671997,0.7869812846183777,0.5066643357276917,-0.039877764880657196,0.6453726887702942,0.8152223825454712,0.5261076092720032,-0.14338845014572144,0.9162392020225525,0.7866278290748596,0.5108548998832703,-0.0527162030339241,0.5444812178611755,0.8186367750167847,0.5356864333152771,-0.1592719852924347,0.8628411889076233,0.7918621301651001,0.5032585859298706,-0.05546688288450241,0.5296980142593384,0.8182154893875122,0.5282509326934814,-0.15696442127227783,0.8500099778175354,0.7936095595359802,0.5021698474884033,-0.04402599111199379,0.47571781277656555,0.8151583671569824,0.5244404077529907,-0.14401555061340332,0.7858834862709045,0.766566276550293,0.5579938888549805,0.022342579439282417,0.9990537762641907,0.7993640303611755,0.5598070025444031,-0.022578295320272446,0.9984135031700134,0.770275354385376,0.657348096370697,0.027717262506484985,0.951355516910553,0.8025193214416504,0.6479954123497009,-0.011907840147614479,0.9561117887496948,0.7797462940216064,0.7458221912384033,0.017656901851296425,0.9441617131233215,0.7999472618103027,0.7359082102775574,-0.014293670654296875,0.9658555388450623,0.7787691354751587,0.7601439356803894,0.013305015861988068,0.9526385068893433,0.7968320250511169,0.7486881017684937,-0.015913739800453186,0.9532008171081543,0.7822672128677368,0.7646778225898743,-0.03353358432650566,0.8084164261817932,0.8096116185188293,0.7574431896209717,-0.06694775074720383,0.89350426197052
53,0.7866913080215454,0.39328864216804504,0.12920576333999634,0.9926342964172363,0.7831544280052185,0.39656132459640503,0.11551570892333984,0.9946386218070984,0.7812999486923218,0.3946146070957184,0.11548153311014175,0.9942699670791626,0.7800999879837036,0.3853238821029663,0.11544454097747803,0.993128776550293,0.7881401181221008,0.39265206456184387,0.10949822515249252,0.9945018291473389,0.7897483110427856,0.39277592301368713,0.10946039855480194,0.9953491687774658,0.7913740277290344,0.392900288105011,0.1093478798866272,0.9952344298362732,0.7785965800285339,0.39167043566703796,0.07070215046405792,0.9957029819488525,0.7922989726066589,0.4004421830177307,0.043493885546922684,0.9971181154251099,0.7826296091079712,0.39893776178359985,0.11774126440286636,0.9954680800437927,0.7881030440330505,0.4000130593776703,0.10953816026449203,0.9963851571083069,0.7610694169998169,0.42338794469833374,0.06344958394765854,0.9990853071212769,0.8039790987968445,0.43300560116767883,-0.001144598936662078,0.9995871782302856,0.7749025225639343,0.4888448715209961,0.022852500900626183,0.7544745206832886,0.8018032908439636,0.48896998167037964,-0.07729829847812653,0.8958268165588379,0.7940815091133118,0.5033037066459656,-0.055914800614118576,0.5882091522216797,0.8005397915840149,0.5094742178916931,-0.1790495365858078,0.8724335432052612,0.7963204979896545,0.5081680417060852,-0.07058240473270416,0.5030249953269958,0.8024542927742004,0.517891526222229,-0.19845953583717346,0.8317229151725769,0.8020394444465637,0.5018126964569092,-0.07522633671760559,0.48981285095214844,0.8008307218551636,0.5103792548179626,-0.19705697894096375,0.8191360235214233,0.8027308583259583,0.49999555945396423,-0.06111012026667595,0.4392032325267792,0.7984369993209839,0.50678551197052,-0.1813504993915558,0.7528597712516785,0.7628432512283325,0.554304838180542,0.017895938828587532,0.9990563988685608,0.7972407341003418,0.5533638596534729,-0.018030863255262375,0.9983904361724854,0.7674542665481567,0.6507695317268372,0.019997557625174522,0.9548308253288269,0.7983853220939636,0.6367365717887878,-0.0008206695201806724,0.9568909406661987,0.7793018221855164,0.7404252886772156,0.02123202383518219,0.9472957849502563,0.7958716154098511,0.7223201990127563,0.01576938107609749,0.9668886065483093,0.7793315052986145,0.7521158456802368,0.01870814710855484,0.9560232758522034,0.7932807803153992,0.7329065203666687,0.016462035477161407,0.9550957679748535,0.7797499299049377,0.7650681734085083,-0.02871052920818329,0.8066000938415527,0.8006740808486938,0.7471381425857544,-0.03376459330320358,0.8900386095046997
54,0.7864535450935364,0.38995009660720825,0.16693279147148132,0.9929739236831665,0.783115029335022,0.38876262307167053,0.15250636637210846,0.9949488639831543,0.7810986638069153,0.3875828683376312,0.15248532593250275,0.9945981502532959,0.7791977524757385,0.3834199905395508,0.15246520936489105,0.9935125708580017,0.7884620428085327,0.386351078748703,0.1502467393875122,0.9947606325149536,0.7901777625083923,0.3867489993572235,0.15023180842399597,0.9955553412437439,0.791925311088562,0.387154221534729,0.15017177164554596,0.9954382181167603,0.7766150236129761,0.3878307640552521,0.10111375898122787,0.9959614872932434,0.7925910949707031,0.3961730897426605,0.0904037207365036,0.9972023367881775,0.7822795510292053,0.39539873600006104,0.15216217935085297,0.9957143664360046,0.7881236672401428,0.3978632986545563,0.14868447184562683,0.996542751789093,0.758668839931488,0.42220932245254517,0.05787696689367294,0.9990938305854797,0.8045099377632141,0.43212780356407166,0.06275005638599396,0.9995177984237671,0.7693268060684204,0.48786619305610657,-0.039531491696834564,0.6957773566246033,0.8035661578178406,0.4840853810310364,-0.013534115627408028,0.8444992899894714,0.7847718000411987,0.49365994334220886,-0.16414447128772736,0.5513565540313721,0.7980983853340149,0.49798575043678284,-0.13455212116241455,0.8283029794692993,0.7846326231956482,0.49615854024887085,-0.19119331240653992,0.48246848583221436,0.799100935459137,0.5043067932128906,-0.16425421833992004,0.7993854880332947,0.7893224954605103,0.48873981833457947,-0.18605749309062958,0.4706628620624542,0.7966395616531372,0.4966960549354553,-0.19503536820411682,0.7864537239074707,0.7906926870346069,0.4882151782512665,-0.16664840281009674,0.4218211770057678,0.7940333485603333,0.4940744638442993,-0.1491921842098236,0.7181280255317688,0.7622700929641724,0.552410900592804,-0.015737248584628105,0.9991083741188049,0.7965789437294006,0.5509431958198547,0.015625176951289177,0.9983959197998047,0.767501950263977,0.6480751037597656,-0.022607702761888504,0.9587092399597168,0.7945987582206726,0.6340466737747192,0.05660450458526611,0.9510543942451477,0.7795137166976929,0.7409557700157166,-0.0634930357336998,0.9513997435569763,0.7969769835472107,0.7175261378288269,0.03931594640016556,0.9624916315078735,0.7831276655197144,0.7526472210884094,-0.0696205347776413,0.959825873374939,0.7968416213989258,0.7299619913101196,0.03542213886976242,0.9527865052223206,0.777042806148529,0.7662683129310608,-0.1147330179810524,0.8175139427185059,0.7968119382858276,0.737143874168396,-0.00706519465893507,0.8790720105171204
55
56
57
58
59
60,0.762648344039917,0.385400652885437,0.20152506232261658,0.993148922920227,0.7609143853187561,0.3771508038043976,0.18030713498592377,0.9950281381607056,0.7588893175125122,0.3772713840007782,0.18029339611530304,0.994713306427002,0.7567342519760132,0.3774237036705017,0.18026892840862274,0.9937341213226318,0.7665658593177795,0.37707072496414185,0.17890214920043945,0.9946220517158508,0.7685442566871643,0.3771718144416809,0.17884288728237152,0.9953269958496094,0.7706834077835083,0.37721240520477295,0.17875351011753082,0.9951164722442627,0.7543728351593018,0.38217926025390625,0.1000574380159378,0.9959225058555603,0.7753441333770752,0.3814169764518738,0.09271645545959473,0.996825635433197,0.75895094871521,0.39247581362724304,0.17624478042125702,0.9958174228668213,0.7650083303451538,0.39280933141708374,0.1738542914390564,0.9964927434921265,0.7290260791778564,0.43090569972991943,0.05954396724700928,0.9990850687026978,0.7950561046600342,0.4361525774002075,0.025202075019478798,0.9993658065795898,0.7206835746765137,0.4927625358104706,0.015620345249772072,0.7108446955680847,0.7847996354103088,0.48902788758277893,-0.048016417771577835,0.8076279163360596,0.7349000573158264,0.5157110691070557,-0.00029636637191288173,0.516725480556488,0.7654370069503784,0.49405637383461,-0.12662523984909058,0.752780556678772,0.7346962690353394,0.522559642791748,-0.005948360078036785,0.4523191452026367,0.7617428302764893,0.4983876049518585,-0.13753361999988556,0.7282372713088989,0.7401641607284546,0.5160136818885803,-0.004971795249730349,0.4422723650932312,0.757962703704834,0.4920589327812195,-0.13532105088233948,0.7163882255554199,0.7421977519989014,0.51238614320755,-0.0010142173850908875,0.3968636095523834,0.7576749324798584,0.489458829164505,-0.1283973604440689,0.6543170213699341,0.7393041253089905,0.5616249442100525,0.03040159121155739,0.9991474747657776,0.7765104174613953,0.5684742331504822,-0.030446207150816917,0.9984477162361145,0.753690779209137,0.6496224999427795,0.036065246909856796,0.9517802000045776,0.7638354897499084,0.6599708199501038,-0.005994303151965141,0.9529247879981995,0.7769796848297119,0.7447845935821533,-0.020719096064567566,0.9495877027511597,0.7541598677635193,0.743678092956543,-0.04798688367009163,0.963291585445404,0.7750841379165649,0.7525117993354797,-0.028506571426987648,0.9604128003120422,0.7471985220909119,0.7539257407188416,-0.05412207916378975,0.9551703929901123,0.7856032848358154,0.7615980505943298,-0.0648774653673172,0.8146383762359619,0.7714798450469971,0.7748094201087952,-0.0988033339381218,0.877208948135376
61,0.7624040842056274,0.38591867685317993,0.18081817030906677,0.9933577179908752,0.760349452495575,0.377434104681015,0.15964850783348083,0.9951964616775513,0.7583209276199341,0.3774177134037018,0.1596224308013916,0.9949054718017578,0.7562584280967712,0.37748003005981445,0.15961387753486633,0.9940333366394043,0.7661430239677429,0.37782377004623413,0.15822890400886536,0.9946505427360535,0.7681640386581421,0.37804365158081055,0.1581725776195526,0.9952561259269714,0.7703346014022827,0.37823042273521423,0.15809620916843414,0.9949779510498047,0.7538044452667236,0.38224169611930847,0.083931103348732,0.9960549473762512,0.7750707864761353,0.3830844759941101,0.07629206776618958,0.9965800642967224,0.7588180303573608,0.3930405378341675,0.15739120543003082,0.9960320591926575,0.7647937536239624,0.39401406049728394,0.15488475561141968,0.9965505599975586,0.728742241859436,0.4309125542640686,0.047308579087257385,0.9990789294242859,0.7908159494400024,0.43610572814941406,0.021503768861293793,0.999157190322876,0.7374767065048218,0.49166029691696167,-0.02779063954949379,0.7018688321113586,0.7839821577072144,0.48375117778778076,-0.07696355134248734,0.7405922412872314,0.7418936491012573,0.493782639503479,-0.09641389548778534,0.5067337155342102,0.7648369669914246,0.4785931408405304,-0.18456357717514038,0.6836304664611816,0.7402974963188171,0.49794700741767883,-0.11179684102535248,0.45043063163757324,0.7616915106773376,0.4798349440097809,-0.20212264358997345,0.6646507978439331,0.7440342307090759,0.48988476395606995,-0.10952862352132797,0.44272923469543457,0.7579251527786255,0.47405290603637695,-0.20077255368232727,0.6537548303604126,0.7470312714576721,0.48879095911979675,-0.09757474064826965,0.3962576389312744,0.7573262453079224,0.4733797013759613,-0.18750759959220886,0.5965622663497925,0.7378255724906921,0.5616061091423035,0.029896516352891922,0.99915611743927,0.7760538458824158,0.568920910358429,-0.029972460120916367,0.9984749555587769,0.7527620196342468,0.6487722992897034,0.04098419100046158,0.9417296648025513,0.7638106346130371,0.6599494218826294,-0.019670765846967697,0.9525884389877319,0.7723660469055176,0.740683913230896,-0.03794749453663826,0.9466030597686768,0.758185625076294,0.7499005198478699,-0.09579499810934067,0.9641436338424683,0.7703421711921692,0.7487135529518127,-0.04924699291586876,0.9610593318939209,0.7471984624862671,0.7594519257545471,-0.10689432919025421,0.9571906924247742,0.7814000844955444,0.7538315057754517,-0.09867626428604126,0.8138582706451416,0.7709344625473022,0.7773195505142212,-0.16972143948078156,0.878179669380188
62,0.7578425407409668,0.3853163421154022,0.18547680974006653,0.9939306378364563,0.7549899816513062,0.37590843439102173,0.17422176897525787,0.9955978393554688,0.7530184984207153,0.375749796628952,0.1742165982723236,0.9953354001045227,0.7510694265365601,0.3756403625011444,0.17423176765441895,0.9945375919342041,0.760634183883667,0.37653103470802307,0.16370469331741333,0.99510258436203,0.7625986337661743,0.3768182098865509,0.16367311775684357,0.9956488013267517,0.7646111845970154,0.37710946798324585,0.1635686755180359,0.9953822493553162,0.7484540343284607,0.38017937541007996,0.1143149733543396,0.9963280558586121,0.7681845426559448,0.38246095180511475,0.07899773120880127,0.9968398809432983,0.7550891637802124,0.39251479506492615,0.17143560945987701,0.9963615536689758,0.760589063167572,0.393848717212677,0.15666775405406952,0.9968416690826416,0.7250325083732605,0.42961055040359497,0.09197787195444107,0.9991074800491333,0.7814562320709229,0.43269652128219604,0.01216051634401083,0.9992214441299438,0.7368642091751099,0.4938054084777832,0.015192434191703796,0.6877816915512085,0.7690215706825256,0.48955535888671875,-0.0837133452296257,0.7189831733703613,0.7314048409461975,0.513600766658783,-0.06039341166615486,0.4917259216308594,0.7601163387298584,0.5159479379653931,-0.1872992366552353,0.630976676940918,0.7276344299316406,0.5270470976829529,-0.07103759050369263,0.4440859854221344,0.7587682008743286,0.5290623903274536,-0.2101306915283203,0.6157335042953491,0.7334996461868286,0.5200889706611633,-0.07520323991775513,0.43685173988342285,0.75715571641922,0.5226570963859558,-0.20309443771839142,0.6048159003257751,0.7374094724655151,0.5153049826622009,-0.06419491767883301,0.3892342150211334,0.7558053731918335,0.5166518092155457,-0.18747368454933167,0.5489784479141235,0.7306838035583496,0.5607322454452515,0.04961539804935455,0.9991728067398071,0.7696763873100281,0.5660139918327332,-0.049761392176151276,0.9986112117767334,0.7481109499931335,0.6424872875213623,0.17147238552570343,0.9361240863800049,0.7634510397911072,0.6599682569503784,-0.06921277195215225,0.956993043422699,0.7514835596084595,0.7172781825065613,0.16992461681365967,0.9452916383743286,0.7577858567237854,0.755422830581665,-0.1502249389886856,0.9674060344696045,0.7502872943878174,0.7312986850738525,0.16628511250019073,0.9618432521820068,0.7497825026512146,0.771117091178894,-0.16156280040740967,0.9610218405723572,0.7676231861114502,0.73401939868927,0.12967905402183533,0.8061354160308838,0.7689613699913025,0.7771678566932678,-0.2290058434009552,0.886914074420929
63,0.7561363577842712,0.38515663146972656,0.15996505320072174,0.9944674968719482,0.7532781362533569,0.3749595582485199,0.142151340842247,0.995975911617279,0.7514835596084595,0.3746609687805176,0.14213845133781433,0.9957373738288879,0.7495375871658325,0.37438592314720154,0.14214013516902924,0.995006799697876,0.7585870623588562,0.3757795989513397,0.13833752274513245,0.9955247640609741,0.7604242563247681,0.376085102558136,0.13828274607658386,0.9960148930549622,0.7624053359031677,0.3764168918132782,0.13819153606891632,0.995762050151825,0.7469654083251953,0.37869584560394287,0.07662193477153778,0.9966176748275757,0.7655719518661499,0.3820261061191559,0.05876535922288895,0.9970840811729431,0.7533862590789795,0.3921555280685425,0.14063064754009247,0.9966806769371033,0.7585763931274414,0.39363643527030945,0.13478529453277588,0.9971207976341248,0.7235639691352844,0.4263988137245178,0.043703656643629074,0.9991573691368103,0.7799950838088989,0.43229153752326965,0.0040552373975515366,0.999252438545227,0.723746120929718,0.49357864260673523,-0.01684439182281494,0.7108943462371826,0.772931694984436,0.4941197633743286,-0.07224488258361816,0.7096003890037537,0.723570704460144,0.5240930318832397,-0.07061288505792618,0.49737194180488586,0.7602898478507996,0.5190685987472534,-0.1776784360408783,0.5761616230010986,0.7194716334342957,0.5382488965988159,-0.08194052428007126,0.4476087689399719,0.7595769762992859,0.5315285921096802,-0.20004010200500488,0.5629183053970337,0.724733293056488,0.5309708714485168,-0.08355448395013809,0.4405030906200409,0.7583410739898682,0.5240786671638489,-0.18761466443538666,0.5526893734931946,0.728760838508606,0.5254042744636536,-0.07281595468521118,0.3907492458820343,0.756722092628479,0.5179640650749207,-0.17948457598686218,0.5006565451622009,0.7293862700462341,0.5607316493988037,0.042606137692928314,0.9991879463195801,0.7687561511993408,0.5660275220870972,-0.04284621775150299,0.9987235069274902,0.7461172342300415,0.6417196989059448,0.14515912532806396,0.937309205532074,0.763220489025116,0.6599520444869995,-0.0411510169506073,0.9608334898948669,0.7493774890899658,0.7176617980003357,0.14127428829669952,0.9469708800315857,0.7584787607192993,0.7556957006454468,-0.10138706862926483,0.9702041149139404,0.7490109205245972,0.7313092350959778,0.1385461986064911,0.9640787243843079,0.7529056072235107,0.7715118527412415,-0.11006750911474228,0.9644760489463806,0.7622817158699036,0.7345491647720337,0.098390594124794,0.8046469688415527,0.7675204873085022,0.776762068271637,-0.17014671862125397,0.8923950791358948
64,0.744280219078064,0.3841947913169861,0.23572036623954773,0.9949390292167664,0.7401000261306763,0.37444621324539185,0.2190137654542923,0.9963135123252869,0.7384684085845947,0.37437599897384644,0.21900205314159393,0.9961035847663879,0.7366810441017151,0.37434783577919006,0.2189812958240509,0.9954327344894409,0.7452360391616821,0.3749373257160187,0.21829131245613098,0.9958880543708801,0.7475436925888062,0.3753621280193329,0.21827316284179688,0.9963398575782776,0.7493512034416199,0.3757782280445099,0.21822647750377655,0.9961015582084656,0.7339462041854858,0.37882548570632935,0.1441034972667694,0.996903657913208,0.7544137239456177,0.3820219337940216,0.1407158225774765,0.997319221496582,0.7433764338493347,0.39192643761634827,0.2116234004497528,0.9969511032104492,0.7486499547958374,0.39350923895835876,0.2103753536939621,0.9973485469818115,0.7181606292724609,0.4272942841053009,0.08487887680530548,0.9992128610610962,0.7764115929603577,0.434648722410202,0.0695643275976181,0.9993045926094055,0.7133976221084595,0.5056793093681335,0.004387598484754562,0.7145161032676697,0.7746856212615967,0.5067664980888367,-0.02872377075254917,0.7167037725448608,0.7182864546775818,0.5401390194892883,-0.05535479262471199,0.4918072521686554,0.7753190994262695,0.5500847101211548,-0.13157862424850464,0.5639350414276123,0.7163280248641968,0.5505305528640747,-0.06967484951019287,0.44709447026252747,0.7784914374351501,0.562835693359375,-0.1521548628807068,0.5485571622848511,0.7216845750808716,0.5452322363853455,-0.06903748959302902,0.4403548240661621,0.7766715288162231,0.5580725073814392,-0.14245717227458954,0.5369611978530884,0.7244812250137329,0.5417467951774597,-0.05731893703341484,0.3891608715057373,0.7735913991928101,0.5527719855308533,-0.13139957189559937,0.48293164372444153,0.7263659238815308,0.5636503100395203,0.008077352307736874,0.9992551207542419,0.7656325697898865,0.5663696527481079,-0.008320084773004055,0.9988230466842651,0.736875593662262,0.6609974503517151,0.05718958377838135,0.9412924647331238,0.7579769492149353,0.6618562936782837,0.02946021594107151,0.9622194766998291,0.7413824796676636,0.7452404499053955,-0.05346683785319328,0.9504042267799377,0.7585040926933289,0.7546557784080505,-0.09202339500188828,0.971779465675354,0.740188479423523,0.7618095278739929,-0.06835859268903732,0.9671635031700134,0.7568972706794739,0.769611656665802,-0.09808148443698883,0.9672917127609253,0.7452276349067688,0.7683623433113098,-0.12217818200588226,0.8125641942024231,0.762275755405426,0.7752373218536377,-0.15416012704372406,0.8949849009513855
65,0.7420965433120728,0.3836158215999603,0.2447022944688797,0.995279848575592,0.7389065027236938,0.3745090365409851,0.22752144932746887,0.9965345859527588,0.7368471026420593,0.3744485676288605,0.2275208681821823,0.9963507652282715,0.7351678609848022,0.37442201375961304,0.22749829292297363,0.9957331418991089,0.7440732717514038,0.3748985826969147,0.22683826088905334,0.9961357712745667,0.7457681894302368,0.37523868680000305,0.22679288685321808,0.9965571165084839,0.7483163475990295,0.3755943477153778,0.22672989964485168,0.996331512928009,0.7333576083183289,0.3789312243461609,0.1521102488040924,0.9970861077308655,0.7538353800773621,0.3820105195045471,0.14882540702819824,0.99746173620224,0.7410398721694946,0.39108532667160034,0.22036421298980713,0.9971255660057068,0.7463546395301819,0.39237532019615173,0.2191273272037506,0.9974837303161621,0.7177404165267944,0.42566144466400146,0.09904508292675018,0.9992218613624573,0.776334822177887,0.4314343333244324,0.07654985785484314,0.9993278384208679,0.7143973112106323,0.49857252836227417,0.038932472467422485,0.7119171619415283,0.779019832611084,0.5028898119926453,-0.012695242650806904,0.728351891040802,0.721572995185852,0.5354983806610107,0.005371336825191975,0.46649134159088135,0.7803322076797485,0.532950222492218,-0.10348661988973618,0.5294538736343384,0.719717800617218,0.547195553779602,-0.0022822513710707426,0.42623016238212585,0.7828341722488403,0.5438528656959534,-0.11868427693843842,0.5146648287773132,0.7253519296646118,0.5420675277709961,-0.0008486324222758412,0.41941338777542114,0.7794886231422424,0.5371645092964172,-0.1126742735505104,0.503048300743103,0.7281652092933655,0.5374203324317932,0.0045258719474077225,0.3696124255657196,0.7767813801765442,0.5320818424224854,-0.10413321107625961,0.45053091645240784,0.7255100607872009,0.5628277063369751,0.012068938463926315,0.9992973208427429,0.7656574845314026,0.5647611021995544,-0.012278875336050987,0.9988917708396912,0.7353648543357849,0.6588035225868225,0.043468546122312546,0.9438077807426453,0.7577043771743774,0.6606131196022034,0.009101448580622673,0.9649015665054321,0.7424562573432922,0.7470003366470337,-0.06944143772125244,0.9533517360687256,0.7581679821014404,0.7542515993118286,-0.1080116406083107,0.973709225654602,0.7405583262443542,0.7609525918960571,-0.08487587422132492,0.9699143171310425,0.7557538151741028,0.7681392431259155,-0.12178417295217514,0.9700120687484741,0.7459257245063782,0.7705464959144592,-0.14262939989566803,0.8178746104240417,0.7575733661651611,0.7752838134765625,-0.18103592097759247,0.8980947732925415
66,0.7298019528388977,0.3615269660949707,0.1896408051252365,0.9952517151832581,0.7254341244697571,0.3535974323749542,0.16815385222434998,0.9965895414352417,0.7231152057647705,0.3538600504398346,0.16811645030975342,0.9964402914047241,0.7208766937255859,0.35411500930786133,0.16808971762657166,0.9958338737487793,0.7322015166282654,0.3536163866519928,0.1688021719455719,0.9962340593338013,0.7345438003540039,0.35388830304145813,0.1688127964735031,0.9966458082199097,0.7370021939277649,0.3542088568210602,0.1687169224023819,0.9963996410369873,0.7185379266738892,0.3617193102836609,0.09654901176691055,0.9971969127655029,0.7415995597839355,0.3621644377708435,0.10093649476766586,0.9975576400756836,0.7278674840927124,0.371463418006897,0.16904860734939575,0.9971321821212769,0.7353833913803101,0.3731728196144104,0.1698732078075409,0.9974938631057739,0.7078192234039307,0.41560354828834534,0.04656071960926056,0.9992635846138,0.7685229778289795,0.41688796877861023,0.0683201476931572,0.9993538856506348,0.6893249750137329,0.47816723585128784,-0.008310861885547638,0.7326368689537048,0.7810327410697937,0.4794827699661255,-0.024589622393250465,0.736480176448822,0.69883131980896,0.4800671935081482,-0.0481194406747818,0.47378137707710266,0.7821608781814575,0.5232964754104614,-0.08357791602611542,0.5226751565933228,0.6978539824485779,0.48300740122795105,-0.06507308781147003,0.43214595317840576,0.7837105989456177,0.5406859517097473,-0.0953742042183876,0.5023272633552551,0.7034772038459778,0.4747292399406433,-0.06032758951187134,0.42594584822654724,0.7819876074790955,0.5311852097511292,-0.0915495827794075,0.4894503057003021,0.7055565714836121,0.47422075271606445,-0.0476837232708931,0.3735910952091217,0.7792006134986877,0.5277482867240906,-0.08336272090673447,0.43951931595802307,0.7210923433303833,0.5557721853256226,0.0003800877893809229,0.9992848038673401,0.7585786581039429,0.5581942200660706,-0.0005650133243761957,0.9988184571266174,0.7240604162216187,0.6584855914115906,0.03820236772298813,0.9466502666473389,0.7519302368164062,0.65690678358078,0.037662819027900696,0.9584726095199585,0.7215802669525146,0.7517114877700806,0.022573459893465042,0.9533219337463379,0.7533299326896667,0.7538159489631653,0.048350635915994644,0.9680707454681396,0.7195762991905212,0.7691771984100342,0.019319472834467888,0.9691237807273865,0.7528650760650635,0.7706820964813232,0.047063373029232025,0.9657565951347351,0.7203593850135803,0.7675295472145081,-0.023413991555571556,0.8133700489997864,0.7511202096939087,0.7718213796615601,0.002914874581620097,0.8838953971862793
67,0.7290679812431335,0.36257204413414,0.15396900475025177,0.9955714344978333,0.726313054561615,0.3548509478569031,0.12699565291404724,0.9967814683914185,0.7245551943778992,0.3549817204475403,0.12696047127246857,0.9966446757316589,0.7225258946418762,0.3552107810974121,0.12695391476154327,0.9961093068122864,0.7308253049850464,0.35502392053604126,0.13908642530441284,0.9964928030967712,0.7321409583091736,0.35527288913726807,0.13910192251205444,0.9968557953834534,0.7335280776023865,0.35560861229896545,0.13903109729290009,0.996630072593689,0.7190385460853577,0.3606968820095062,0.03324578329920769,0.9973558187484741,0.7352762818336487,0.36122414469718933,0.08918710052967072,0.9976035952568054,0.7271034717559814,0.3711529076099396,0.1246141642332077,0.9971910119056702,0.7316609621047974,0.3720325529575348,0.14027391374111176,0.9975454211235046,0.7085720300674438,0.4086166322231293,-0.055500708520412445,0.9992754459381104,0.7601089477539062,0.41318976879119873,0.08442036807537079,0.9992665648460388,0.67754065990448,0.44765812158584595,-0.09872961044311523,0.7578532695770264,0.7684340476989746,0.4646223187446594,0.125279039144516,0.6908549666404724,0.6740887761116028,0.4517640769481659,-0.07343112677335739,0.5100926160812378,0.744318425655365,0.48852142691612244,0.15668007731437683,0.4817870557308197,0.6732555627822876,0.45589593052864075,-0.08594350516796112,0.4657442271709442,0.7380074262619019,0.49703994393348694,0.1681472212076187,0.46442654728889465,0.6751576662063599,0.45229753851890564,-0.07887951284646988,0.4593747854232788,0.7355853319168091,0.4961223602294922,0.15543708205223083,0.4526189863681793,0.6768009662628174,0.4521293640136719,-0.06988624483346939,0.40440401434898376,0.7364816069602966,0.4933713972568512,0.15246732532978058,0.40861332416534424,0.7158225774765015,0.5514751076698303,-0.037862300872802734,0.9992260932922363,0.7516108155250549,0.5532225966453552,0.03768600523471832,0.9987815022468567,0.7130752801895142,0.6566997170448303,-0.035115331411361694,0.9464992880821228,0.7500845193862915,0.6521470546722412,0.04318246990442276,0.9566947817802429,0.7082427144050598,0.7528560161590576,-0.02610495686531067,0.9540958404541016,0.7534583806991577,0.7581131458282471,0.027576718479394913,0.9655677676200867,0.7096048593521118,0.7710421085357666,-0.025008106604218483,0.9689217805862427,0.7527040243148804,0.7744137644767761,0.025378962978720665,0.9634307622909546,0.6923278570175171,0.7673934698104858,-0.055308401584625244,0.8164488077163696,0.7533639669418335,0.7703717350959778,-0.0058724828995764256,0.8738800287246704
68,0.7276878952980042,0.36414486169815063,0.16034260392189026,0.9951018691062927,0.7248131036758423,0.3557148873806,0.1465732604265213,0.9965373277664185,0.7236236929893494,0.3557901382446289,0.14656421542167664,0.9964051842689514,0.7221022248268127,0.35604754090309143,0.1465555876493454,0.9959795475006104,0.7282429933547974,0.3562927842140198,0.16519667208194733,0.9962607026100159,0.7289648056030273,0.35671859979629517,0.16525541245937347,0.9965086579322815,0.7300534844398499,0.3572324812412262,0.16520771384239197,0.9963427186012268,0.7190821170806885,0.3620200455188751,0.06707198917865753,0.9971618056297302,0.7311699390411377,0.3630428910255432,0.1289910525083542,0.9971268177032471,0.7253563404083252,0.37296926975250244,0.1464177668094635,0.9968255758285522,0.7286494374275208,0.37413570284843445,0.1663929969072342,0.9971503615379333,0.7062109708786011,0.4084916114807129,-0.023925885558128357,0.9992786049842834,0.7566574811935425,0.4114382863044739,0.12271402776241302,0.9990081191062927,0.6889541745185852,0.4456014037132263,-0.154635488986969,0.7746260762214661,0.7607995271682739,0.46184685826301575,0.13620340824127197,0.6395014524459839,0.6832315325737,0.45346421003341675,-0.2560212016105652,0.5390996932983398,0.743431806564331,0.4837190508842468,0.1225573867559433,0.4407169818878174,0.6818627119064331,0.4584301710128784,-0.28779667615890503,0.49772247672080994,0.7404755353927612,0.4904813766479492,0.12587104737758636,0.42653751373291016,0.6829432249069214,0.4527251422405243,-0.2761639654636383,0.4911901354789734,0.7377486228942871,0.48902225494384766,0.11513310670852661,0.41550347208976746,0.6845359802246094,0.4523899257183075,-0.2544475495815277,0.43085211515426636,0.7371158599853516,0.4863939881324768,0.1177804097533226,0.3764687776565552,0.7130352258682251,0.5483683347702026,-0.044304195791482925,0.9991791248321533,0.7488023042678833,0.548521101474762,0.04419020935893059,0.998540461063385,0.7116204500198364,0.6518056392669678,-0.05505220964550972,0.9427780508995056,0.7463060617446899,0.6454746127128601,0.03464817255735397,0.9403378367424011,0.706949770450592,0.7507354617118835,-0.10298480838537216,0.9520779848098755,0.7519553303718567,0.7489678859710693,-0.007478748913854361,0.9499903917312622,0.7140089869499207,0.7705447673797607,-0.10983463376760483,0.9682444334030151,0.7526720762252808,0.7699113488197327,-0.013480953872203827,0.9516851305961609,0.6956387758255005,0.7672618627548218,-0.16262976825237274,0.8147450089454651,0.74726402759552,0.7591924667358398,-0.06018560007214546,0.851841390132904
69,0.7253957390785217,0.3634454309940338,0.1682744324207306,0.99542236328125,0.7236239314079285,0.35559648275375366,0.15564055740833282,0.9967895150184631,0.7210688591003418,0.3561331033706665,0.1556197702884674,0.9966660141944885,0.71964031457901,0.3564932644367218,0.15560057759284973,0.9962897896766663,0.726812481880188,0.35600852966308594,0.1682957112789154,0.9965370297431946,0.7272723913192749,0.35681918263435364,0.1683529019355774,0.9967430830001831,0.7276160717010498,0.35747388005256653,0.16829799115657806,0.9965918064117432,0.7170845866203308,0.3622085750102997,0.07605406641960144,0.9973559379577637,0.7352392077445984,0.3651363253593445,0.1248549371957779,0.997298002243042,0.7240825891494751,0.37267735600471497,0.1511078178882599,0.9970449805259705,0.7273547649383545,0.3736512064933777,0.17174386978149414,0.9973388910293579,0.7067103385925293,0.4113578498363495,0.0051753767766058445,0.9992889761924744,0.7555509805679321,0.41160014271736145,0.10468550771474838,0.9989645481109619,0.6883279085159302,0.44753873348236084,-0.12905697524547577,0.7926923632621765,0.7564430832862854,0.46034345030784607,0.08336665481328964,0.5941039323806763,0.6806429028511047,0.44645407795906067,-0.24715013802051544,0.5716207027435303,0.7393016219139099,0.4791128933429718,0.02982424758374691,0.40449321269989014,0.6781928539276123,0.449654221534729,-0.2818993926048279,0.5335050225257874,0.7360378503799438,0.48648104071617126,0.023719074204564095,0.39428627490997314,0.6794924736022949,0.4440543055534363,-0.27250200510025024,0.5271403789520264,0.7336272597312927,0.48410874605178833,0.014640268869698048,0.38386663794517517,0.6817312836647034,0.4442814886569977,-0.24725289642810822,0.46474960446357727,0.7330222725868225,0.4809843897819519,0.024932103231549263,0.3487147092819214,0.714068591594696,0.549765408039093,-0.020374026149511337,0.9991100430488586,0.7494614720344543,0.5507019758224487,0.02025703713297844,0.9984716773033142,0.7133843302726746,0.6528061032295227,-0.009705700911581516,0.9445557594299316,0.7473880052566528,0.6484448313713074,0.01741797663271427,0.9436980485916138,0.7079211473464966,0.7511444091796875,-0.023061607033014297,0.9533240795135498,0.7518777251243591,0.758056640625,-0.012375022284686565,0.9514307379722595,0.7097882032394409,0.7694902420043945,-0.02149103209376335,0.9688990712165833,0.7523149251937866,0.7819627523422241,-0.017165634781122208,0.9528135657310486,0.6983779072761536,0.7653074264526367,-0.08549897372722626,0.813467800617218,0.7505075335502625,0.768246054649353,-0.07113070785999298,0.8471501469612122
70,0.7217634320259094,0.3643798828125,0.30300667881965637,0.9957789778709412,0.7188276052474976,0.3567597568035126,0.28110966086387634,0.9970195293426514,0.7166773080825806,0.35716238617897034,0.28109508752822876,0.9969197511672974,0.7145900726318359,0.357328861951828,0.2810794711112976,0.9965730309486389,0.7242661714553833,0.3577320873737335,0.28815126419067383,0.996782124042511,0.7259981036186218,0.3585140109062195,0.2881348133087158,0.9969844222068787,0.7277071475982666,0.359065443277359,0.2880762815475464,0.9968409538269043,0.712100088596344,0.3629990816116333,0.19115065038204193,0.9975643754005432,0.7330937385559082,0.36576542258262634,0.22089140117168427,0.9974632263183594,0.7192000150680542,0.37321653962135315,0.27395421266555786,0.9972314238548279,0.724970281124115,0.3751835227012634,0.28235381841659546,0.9974904656410217,0.6938376426696777,0.41294777393341064,0.09001391381025314,0.9993178248405457,0.7548943161964417,0.41425806283950806,0.1790519654750824,0.9989566802978516,0.6873711943626404,0.4735519289970398,0.0005027669249102473,0.8048329949378967,0.7505526542663574,0.47410303354263306,0.09863723814487457,0.5556784868240356,0.6757261753082275,0.4960256814956665,-0.029255826026201248,0.5692143440246582,0.722278892993927,0.5005099177360535,4.13574198319111e-05,0.3678722381591797,0.6721141934394836,0.5040785074234009,-0.05151662975549698,0.5298640131950378,0.7158408164978027,0.5098298788070679,-0.010733122006058693,0.35919952392578125,0.6773927211761475,0.49805203080177307,-0.04191087931394577,0.523511528968811,0.7124396562576294,0.5058895945549011,-0.014793835580348969,0.3495806157588959,0.6806682348251343,0.4954681992530823,-0.02764267660677433,0.46105673909187317,0.712503969669342,0.501289963722229,-0.004432062152773142,0.3183383047580719,0.7035406827926636,0.5500672459602356,-0.03164966031908989,0.9991379380226135,0.7436934113502502,0.552270770072937,0.031671248376369476,0.9984949231147766,0.6872403621673584,0.6469907164573669,-0.04430583864450455,0.94970703125,0.7455635666847229,0.649103581905365,0.04311804473400116,0.948143720626831,0.6770192980766296,0.7534266114234924,-0.12062536180019379,0.9568977952003479,0.7552708983421326,0.7611021399497986,-0.019328929483890533,0.9539659023284912,0.6835767030715942,0.7746941447257996,-0.1310395896434784,0.9714983701705933,0.7552940845489502,0.7798616886138916,-0.02052491158246994,0.9565529823303223,0.656729519367218,0.7657354474067688,-0.17389528453350067,0.8090453743934631,0.7506915926933289,0.765336811542511,-0.07624983042478561,0.8340106010437012
71,0.714154064655304,0.36550188064575195,0.2534012198448181,0.9961845278739929,0.7108109593391418,0.3570536673069,0.23035745322704315,0.9973000288009644,0.7084393501281738,0.35718414187431335,0.230330228805542,0.9972127079963684,0.7059297561645508,0.35723140835762024,0.2303016483783722,0.9969003796577454,0.71706622838974,0.3575912117958069,0.23879046738147736,0.9970860481262207,0.7192279100418091,0.35799598693847656,0.2387980967760086,0.9972679615020752,0.7212885618209839,0.35828283429145813,0.23875495791435242,0.9971351623535156,0.7029982209205627,0.36279770731925964,0.13969506323337555,0.9977992177009583,0.7258234024047852,0.36442986130714417,0.17426326870918274,0.9976842999458313,0.7113361954689026,0.37433651089668274,0.22396257519721985,0.9974880814552307,0.7181607484817505,0.3758673071861267,0.23369920253753662,0.9977184534072876,0.6871743202209473,0.4128498435020447,0.029217204079031944,0.9993806481361389,0.7446177005767822,0.4138979911804199,0.15871655941009521,0.9989979863166809,0.6811120510101318,0.4848836064338684,-0.06490769237279892,0.8230248093605042,0.7470354437828064,0.4791129231452942,0.08693307638168335,0.527373731136322,0.6661997437477112,0.52460777759552,-0.05802164226770401,0.6007499098777771,0.7292439341545105,0.51529860496521,-0.009390120394527912,0.3368927836418152,0.6616576910018921,0.5384922027587891,-0.055325984954833984,0.5599832534790039,0.7252898216247559,0.5284030437469482,-0.014023026451468468,0.33021700382232666,0.6633957028388977,0.5326074957847595,-0.07202903926372528,0.5531746745109558,0.7232509255409241,0.5246208310127258,-0.01833677850663662,0.32096803188323975,0.6666480302810669,0.527729868888855,-0.06432090699672699,0.48884034156799316,0.7230749726295471,0.5184135437011719,-0.00687964353710413,0.29255160689353943,0.6968708634376526,0.5507089495658875,-0.049209196120500565,0.9992049336433411,0.7358214855194092,0.5528813004493713,0.04919661581516266,0.9986010789871216,0.6787782311439514,0.6447568535804749,-0.04506652057170868,0.9543982148170471,0.7409194707870483,0.6493552923202515,0.06288645416498184,0.9520260691642761,0.6658284664154053,0.7523908019065857,-0.09066744148731232,0.9606422185897827,0.7552325129508972,0.7601550817489624,0.003973693586885929,0.9574503898620605,0.6711711883544922,0.7718352675437927,-0.09658107906579971,0.973970353603363,0.7564706802368164,0.7778531312942505,-0.003406309988349676,0.9600796103477478,0.6416364908218384,0.7650911211967468,-0.13974206149578094,0.819929301738739,0.7463822364807129,0.7660940885543823,-0.04615689069032669,0.8374888896942139
72,0.7169891595840454,0.366449236869812,0.23933187127113342,0.9965373277664185,0.7142907977104187,0.35800567269325256,0.22472532093524933,0.9975382089614868,0.7119410634040833,0.3580856919288635,0.2246403992176056,0.9974594116210938,0.7095540761947632,0.35810354351997375,0.22459182143211365,0.9971808195114136,0.7207304835319519,0.3584374487400055,0.21817557513713837,0.9973465204238892,0.7227917909622192,0.35879844427108765,0.21815431118011475,0.9975056648254395,0.7248420119285583,0.3590659201145172,0.2180815041065216,0.9973871111869812,0.7066587209701538,0.3635256886482239,0.10982699692249298,0.9979966282844543,0.7291648983955383,0.36499640345573425,0.15116319060325623,0.9978535771369934,0.7131837606430054,0.375218003988266,0.2119574099779129,0.9976934194564819,0.7200720310211182,0.3765213191509247,0.21617832779884338,0.9978997111320496,0.6861942410469055,0.412997841835022,-0.009514006786048412,0.9994307160377502,0.7468697428703308,0.41428935527801514,0.1419759839773178,0.9989616274833679,0.6769884824752808,0.48741239309310913,-0.07638005912303925,0.8395565748214722,0.7453692555427551,0.4861547648906708,0.10466653108596802,0.4935092628002167,0.6600428819656372,0.533978283405304,-0.06635935604572296,0.627842903137207,0.7229079604148865,0.5195614695549011,0.038750048726797104,0.30869147181510925,0.6526325345039368,0.5503643751144409,-0.08185625821352005,0.5824928879737854,0.7172895669937134,0.5314352512359619,0.033315885812044144,0.30368950963020325,0.6526533365249634,0.5428743958473206,-0.07702729851007462,0.5747429728507996,0.714545488357544,0.5276767015457153,0.0274874959141016,0.2950681447982788,0.6572689414024353,0.5401223301887512,-0.06486530601978302,0.5088150501251221,0.7153987288475037,0.521905779838562,0.0335848368704319,0.26917529106140137,0.6973678469657898,0.5538443326950073,-0.05166710540652275,0.999226987361908,0.7360500693321228,0.5589093565940857,0.05167604610323906,0.998664915561676,0.6764341592788696,0.6450657248497009,-0.04979615658521652,0.9580920934677124,0.7421103119850159,0.6584232449531555,0.06599213182926178,0.9535272717475891,0.6646583676338196,0.7515929341316223,-0.03417251259088516,0.9630029201507568,0.7570661306381226,0.7643820643424988,0.06932444125413895,0.958683431148529,0.6712459325790405,0.770994246006012,-0.02742289938032627,0.9753300547599792,0.7650114297866821,0.7822639346122742,0.0686829537153244,0.9617721438407898,0.6361474990844727,0.7608306407928467,-0.05704861879348755,0.8219178318977356,0.747566282749176,0.7730808258056641,0.03745487332344055,0.8267152309417725
73,0.6999053955078125,0.3670848608016968,0.20953059196472168,0.9968595504760742,0.6965471506118774,0.3584597706794739,0.1827053278684616,0.9977495670318604,0.6943095922470093,0.35859063267707825,0.18268010020256042,0.9976807832717896,0.6918557286262512,0.3586939871311188,0.1826474666595459,0.9974299669265747,0.7032052874565125,0.3586742579936981,0.19359304010868073,0.9975834488868713,0.705391526222229,0.35896795988082886,0.19361048936843872,0.9977266788482666,0.7074559926986694,0.35921710729599,0.19355803728103638,0.997619092464447,0.6915150880813599,0.36412522196769714,0.07466854155063629,0.9981688261032104,0.712617039680481,0.36522576212882996,0.13265223801136017,0.9980204701423645,0.6980541944503784,0.3756849467754364,0.1760474145412445,0.9978731274604797,0.7043099403381348,0.37700238823890686,0.1920819729566574,0.998062014579773,0.6763957142829895,0.4133390188217163,-0.024492613971233368,0.9994754791259766,0.7371376752853394,0.4178946614265442,0.1266631931066513,0.9990038275718689,0.6693286895751953,0.48616543412208557,-0.07167131453752518,0.8522230386734009,0.7448574900627136,0.4907214045524597,0.1587938368320465,0.48695722222328186,0.6596390604972839,0.5267345905303955,-0.009674434550106525,0.6278319954872131,0.724615752696991,0.5240729451179504,0.19460523128509521,0.2851965129375458,0.6563019156455994,0.5397682189941406,-0.017606263980269432,0.5784724950790405,0.719920814037323,0.5361588597297668,0.20620687305927277,0.28121674060821533,0.658676028251648,0.5350965261459351,-0.01172618754208088,0.5695746541023254,0.7169108986854553,0.5330220460891724,0.19964241981506348,0.27308183908462524,0.6614247560501099,0.5309861302375793,-0.006018453277647495,0.5019460320472717,0.7172974348068237,0.5273632407188416,0.19215932488441467,0.2501565217971802,0.6858054995536804,0.5614197850227356,-0.05191371962428093,0.9992697834968567,0.7226617932319641,0.5650984048843384,0.051818497478961945,0.9987441897392273,0.6655923128128052,0.6527342200279236,-0.03417790308594704,0.9620621204376221,0.7385655641555786,0.6607821583747864,0.10596821457147598,0.9568636417388916,0.6526809334754944,0.7535228133201599,-0.0341518372297287,0.9664371013641357,0.7556152939796448,0.7632358074188232,0.09598654508590698,0.9618057012557983,0.6579473614692688,0.7727493047714233,-0.03057352639734745,0.977434515953064,0.7621887922286987,0.7807605862617493,0.09469141066074371,0.964415431022644,0.6208807229995728,0.7652885317802429,-0.06058644503355026,0.8347250819206238,0.7439207434654236,0.7748082876205444,0.07577434182167053,0.831638514995575
74,0.684330403804779,0.3672603666782379,0.2757681906223297,0.9971523880958557,0.6827449202537537,0.358661025762558,0.2521698772907257,0.9979485273361206,0.6809097528457642,0.3587474226951599,0.25213971734046936,0.99788898229599,0.6790225505828857,0.35878852009773254,0.25209423899650574,0.9976659417152405,0.6886508464813232,0.3590225279331207,0.2642727494239807,0.9977996349334717,0.6909407377243042,0.3593141436576843,0.2643159329891205,0.9979268908500671,0.6930602788925171,0.3595420718193054,0.2642723619937897,0.9978281855583191,0.6787126064300537,0.3641696274280548,0.15404653549194336,0.9983348250389099,0.6986202597618103,0.3654526174068451,0.2092295140028,0.9981629848480225,0.6833606958389282,0.37643250823020935,0.24391524493694305,0.9980512857437134,0.6893371939659119,0.3771446645259857,0.2595158815383911,0.9982104301452637,0.6703513860702515,0.41370803117752075,0.041671693325042725,0.9995229244232178,0.7277995347976685,0.4178676903247833,0.18457721173763275,0.9990761280059814,0.6645606756210327,0.482014536857605,-0.0573640875518322,0.8609468340873718,0.7414180636405945,0.48148253560066223,0.15186400711536407,0.49537166953086853,0.6587504148483276,0.5191351771354675,-0.06316034495830536,0.6349197030067444,0.7285664081573486,0.5284825563430786,0.09829045832157135,0.26908233761787415,0.6550244092941284,0.5316902995109558,-0.08504117280244827,0.5876404047012329,0.7253520488739014,0.5419018864631653,0.09482152760028839,0.26482954621315,0.6573949456214905,0.5264447927474976,-0.07499988377094269,0.5777758955955505,0.7220373153686523,0.539747416973114,0.09098555892705917,0.25641778111457825,0.6600466966629028,0.5224094986915588,-0.05907633155584335,0.5057998299598694,0.7218058705329895,0.533502459526062,0.0942925363779068,0.23571036756038666,0.677844762802124,0.5608240365982056,-0.04760593920946121,0.9993249773979187,0.7168151140213013,0.5644153952598572,0.04746222496032715,0.9988278746604919,0.6620357632637024,0.6455623507499695,-0.03651592507958412,0.9654761552810669,0.7304829955101013,0.6605489253997803,0.07885764539241791,0.9603298306465149,0.6450701355934143,0.7522816061973572,-0.08202038705348969,0.9693769812583923,0.7547322511672974,0.7658805847167969,0.04045665264129639,0.9649322628974915,0.6487752795219421,0.7712322473526001,-0.0880032330751419,0.9792487025260925,0.7607225179672241,0.7799103260040283,0.02295047417283058,0.9674827456474304,0.6174734830856323,0.7601209878921509,-0.1282726228237152,0.844762921333313,0.744063675403595,0.7770748138427734,0.02565968967974186,0.8396432399749756
75,0.6906014680862427,0.3673219680786133,0.30465567111968994,0.9974014163017273,0.6873911023139954,0.3589331805706024,0.28065377473831177,0.998106062412262,0.6853293180465698,0.3590373694896698,0.2806432843208313,0.9980553984642029,0.6831540465354919,0.3590976595878601,0.2805926203727722,0.9978600740432739,0.6933349370956421,0.35926708579063416,0.2900097072124481,0.9979740977287292,0.6955143809318542,0.359551340341568,0.29002487659454346,0.9980897307395935,0.6976720094680786,0.3597705066204071,0.2899869680404663,0.9980033040046692,0.6815003156661987,0.3642619550228119,0.18295881152153015,0.9984715580940247,0.7030182480812073,0.36564919352531433,0.22375769913196564,0.9982662796974182,0.6883181929588318,0.37666556239128113,0.27303817868232727,0.9981842637062073,0.6944403052330017,0.37723350524902344,0.2845037579536438,0.998317539691925,0.6660372614860535,0.41399431228637695,0.0812932625412941,0.9995543956756592,0.7283660769462585,0.41997531056404114,0.19072715938091278,0.9991138577461243,0.6604787111282349,0.48585188388824463,0.05250432342290878,0.8652858138084412,0.7397679090499878,0.4949425458908081,0.1583038866519928,0.4850608706474304,0.6582260131835938,0.5182906985282898,0.10824289172887802,0.6024294495582581,0.7189714908599854,0.530108630657196,0.11895228922367096,0.24589960277080536,0.655019998550415,0.5296096205711365,0.10182927548885345,0.5555830001831055,0.7144702076911926,0.542174756526947,0.11638718843460083,0.24212634563446045,0.6597656011581421,0.5239049196243286,0.10803622007369995,0.5456072688102722,0.7095217108726501,0.5385446548461914,0.11289886385202408,0.2342926561832428,0.662803590297699,0.5197226405143738,0.11154972016811371,0.47801437973976135,0.7094756960868835,0.5325342416763306,0.1151421070098877,0.21603059768676758,0.6767361760139465,0.5605133771896362,-0.0414387583732605,0.999370813369751,0.7159768342971802,0.5643424391746521,0.041403718292713165,0.9988968968391418,0.660647988319397,0.6457849740982056,-0.03744833543896675,0.9686644673347473,0.7272945046424866,0.6588330864906311,0.07735944539308548,0.9634432196617126,0.6429425477981567,0.7518856525421143,-0.08515297621488571,0.9720175266265869,0.752848744392395,0.7647266387939453,0.02470499649643898,0.9677587151527405,0.6471748352050781,0.7704908847808838,-0.09141428768634796,0.9809360504150391,0.7556346654891968,0.7800174951553345,0.014605608768761158,0.9702805280685425,0.6174776554107666,0.761225700378418,-0.12441325187683105,0.8515141010284424,0.746056079864502,0.7769813537597656,-0.00734653091058135,0.8445639610290527
76,0.6912325620651245,0.3676704168319702,0.2813439965248108,0.9976403117179871,0.6877732872962952,0.3591885268688202,0.2580591142177582,0.9982656240463257,0.685674786567688,0.3592996895313263,0.2580450177192688,0.9982194900512695,0.6833875775337219,0.35938698053359985,0.2579910159111023,0.9980478286743164,0.6937108635902405,0.35945895314216614,0.2679009735584259,0.9981487393379211,0.6957975625991821,0.35972192883491516,0.26793140172958374,0.9982518553733826,0.6979048252105713,0.3599320650100708,0.26791417598724365,0.9981762170791626,0.6816693544387817,0.36436304450035095,0.16054144501686096,0.9986057281494141,0.7039475440979004,0.36577335000038147,0.20414790511131287,0.9983819127082825,0.6888484954833984,0.37689170241355896,0.24947383999824524,0.9983251690864563,0.6950699687004089,0.3774943947792053,0.26175448298454285,0.9984362125396729,0.6660250425338745,0.41421380639076233,0.058992017060518265,0.9995888471603394,0.7291125059127808,0.4228333532810211,0.17737945914268494,0.9991746544837952,0.6614080667495728,0.48749077320098877,0.01312194298952818,0.8701834678649902,0.7418537735939026,0.5012394189834595,0.12893131375312805,0.5083309412002563,0.6550477743148804,0.5215604901313782,0.041166599839925766,0.5802980661392212,0.7239958047866821,0.5472313761711121,0.08189662545919418,0.24983565509319305,0.6525355577468872,0.5331577658653259,0.03330085799098015,0.5329985022544861,0.7210227251052856,0.5586354732513428,0.08440197259187698,0.24283812940120697,0.6575943231582642,0.5287495255470276,0.03888228163123131,0.5226867198944092,0.7159475088119507,0.5602710247039795,0.07358603924512863,0.23329754173755646,0.660155713558197,0.5239059329032898,0.04362551495432854,0.4587422311306,0.7155303955078125,0.5535896420478821,0.07886074483394623,0.21581776440143585,0.6790551543235779,0.5608779788017273,-0.051605354994535446,0.9994210004806519,0.7177378535270691,0.5642262697219849,0.051593340933322906,0.998974084854126,0.6616483330726624,0.6458649039268494,-0.042755190283060074,0.9713687896728516,0.7279679775238037,0.6566280722618103,0.09753517061471939,0.9648482799530029,0.6444156765937805,0.7517753839492798,-0.07930250465869904,0.9743476510047913,0.7527143955230713,0.7639611959457397,0.049969881772994995,0.9700174331665039,0.6491184830665588,0.7700243592262268,-0.0845789983868599,0.982191801071167,0.7556028962135315,0.779973566532135,0.0432029590010643,0.9725133180618286,0.6173139810562134,0.7625228762626648,-0.12374589592218399,0.8611758351325989,0.7468271255493164,0.7769433259963989,0.01688438281416893,0.8523463606834412
77,0.6707011461257935,0.3717549443244934,0.10832858085632324,0.9978600144386292,0.6692169308662415,0.36285850405693054,0.08431649953126907,0.9984179735183716,0.6672773957252502,0.3631020188331604,0.0842699259519577,0.9983784556388855,0.665183424949646,0.3633851110935211,0.08425413072109222,0.9982227087020874,0.674999475479126,0.3628092408180237,0.09554215520620346,0.998311460018158,0.6771754622459412,0.36301425099372864,0.09556902945041656,0.9984028935432434,0.6794089078903198,0.36321428418159485,0.09555276483297348,0.9983295202255249,0.6621111035346985,0.3691711127758026,-0.0032514382619410753,0.9987319111824036,0.6836295127868652,0.36871418356895447,0.04549136757850647,0.998496413230896,0.667803168296814,0.3818287253379822,0.08056706190109253,0.9984738230705261,0.6736751794815063,0.382097065448761,0.09438793361186981,0.9985699653625488,0.6457673907279968,0.4203506410121918,-0.0914815366268158,0.9996238350868225,0.7054442763328552,0.4278198480606079,0.05320854112505913,0.9992201924324036,0.6429985165596008,0.489734947681427,-0.16302338242530823,0.8814626932144165,0.7189784049987793,0.4973597526550293,0.006240234710276127,0.49867331981658936,0.6349290609359741,0.5553020238876343,-0.17097501456737518,0.6147941946983337,0.7054002285003662,0.5491289496421814,-0.0837104544043541,0.2610851228237152,0.6256118416786194,0.573440670967102,-0.1899973601102829,0.5670033693313599,0.7016564011573792,0.5656478404998779,-0.09471531957387924,0.2537533640861511,0.6238046884536743,0.5729869604110718,-0.18455994129180908,0.5565334558486938,0.6996035575866699,0.5668771862983704,-0.10243406146764755,0.24452900886535645,0.6298962235450745,0.5674774646759033,-0.16881151497364044,0.49335333704948425,0.7000359296798706,0.560346245765686,-0.09028484672307968,0.22382737696170807,0.6583940386772156,0.5723617672920227,-0.05250554159283638,0.9994416236877441,0.6923927068710327,0.5728203058242798,0.05236188322305679,0.9990262389183044,0.644325315952301,0.6545078158378601,-0.034372102469205856,0.9737117886543274,0.7055021524429321,0.6585272550582886,0.07367957383394241,0.9651583433151245,0.6432703733444214,0.7529876232147217,-0.028593767434358597,0.9765147566795349,0.7500836849212646,0.7546938061714172,0.045658178627491,0.9716845154762268,0.6497039794921875,0.772545576095581,-0.029855307191610336,0.9833308458328247,0.7546643018722534,0.7645261287689209,0.03509344533085823,0.9734702110290527,0.6147779226303101,0.7655010223388672,-0.07981941848993301,0.87151038646698,0.7464382648468018,0.7758187055587769,-0.009921668097376823,0.8610059022903442
78,0.6638286709785461,0.3660891652107239,-0.08363752067089081,0.9980550408363342,0.6648359298706055,0.3606153726577759,-0.08954403549432755,0.9985488653182983,0.664885401725769,0.3611967861652374,-0.08959653973579407,0.998511016368866,0.6648318767547607,0.3617974817752838,-0.08964954316616058,0.9983757138252258,0.664415717124939,0.36054733395576477,-0.07140805572271347,0.9984427690505981,0.6641541123390198,0.3610793352127075,-0.0713956207036972,0.99850994348526,0.663779616355896,0.3616037964820862,-0.0713779404759407,0.9984449148178101,0.6636373996734619,0.3687196969985962,-0.08735814690589905,0.9988288879394531,0.6628261804580688,0.36802250146865845,-0.005396971944719553,0.9984649419784546,0.6632040739059448,0.37678343057632446,-0.0808224007487297,0.9986021518707275,0.6626630425453186,0.37683814764022827,-0.05731221288442612,0.9986653327941895,0.6602963209152222,0.42014646530151367,-0.13450667262077332,0.9996587038040161,0.6644737720489502,0.4226372539997101,0.08579979836940765,0.9992511868476868,0.6544870138168335,0.4861392080783844,-0.16061194241046906,0.891428530216217,0.6657084226608276,0.49062421917915344,0.08144818991422653,0.458708256483078,0.6480903625488281,0.5460455417633057,-0.16515372693538666,0.6447544097900391,0.6600406765937805,0.5408607721328735,-0.013211299665272236,0.2533996105194092,0.6346033215522766,0.565858006477356,-0.19181011617183685,0.5968284010887146,0.658063530921936,0.5554636716842651,-0.019133271649479866,0.24985654652118683,0.6407345533370972,0.561133086681366,-0.19234125316143036,0.587766706943512,0.6577458381652832,0.5554426908493042,-0.031853266060352325,0.2421754002571106,0.6479374170303345,0.5546526312828064,-0.16563141345977783,0.525316059589386,0.6584118008613586,0.5521608591079712,-0.01722351834177971,0.2220495045185089,0.6613054275512695,0.5685552954673767,-0.08222620189189911,0.999487042427063,0.6620375514030457,0.5653873085975647,0.08227910846471786,0.9990988969802856,0.6612406969070435,0.660089910030365,-0.12054524570703506,0.9761707782745361,0.6452163457870483,0.6491283774375916,0.11518019437789917,0.9620101451873779,0.7375604510307312,0.7486995458602905,-0.0807047188282013,0.9788047671318054,0.6490246057510376,0.751074492931366,0.21619316935539246,0.9733784794807434,0.7486645579338074,0.7524515986442566,-0.07962534576654434,0.9845579862594604,0.6545835137367249,0.7663159966468811,0.22076471149921417,0.9734171628952026,0.742485523223877,0.7806609869003296,-0.16265833377838135,0.884233832359314,0.6194789409637451,0.7651069760322571,0.15972545742988586,0.8734233379364014
79,0.662800669670105,0.36945298314094543,0.15436944365501404,0.9982427358627319,0.6612440943717957,0.3623625934123993,0.1275937259197235,0.998686671257019,0.6595447659492493,0.36271870136260986,0.12762901186943054,0.9986526370048523,0.6576934456825256,0.36319640278816223,0.12769030034542084,0.9985310435295105,0.6666367650032043,0.3627599775791168,0.134749174118042,0.9985895752906799,0.6686565279960632,0.36332738399505615,0.13474585115909576,0.9986489415168762,0.6706823110580444,0.3638738989830017,0.13484033942222595,0.9985909461975098,0.6551790833473206,0.37011533975601196,-0.0046021416783332825,0.9989401698112488,0.6746114492416382,0.37000030279159546,0.0457327738404274,0.9985971450805664,0.6597899198532104,0.37876513600349426,0.12140669673681259,0.9987305998802185,0.665898859500885,0.3789832890033722,0.130386620759964,0.9987835884094238,0.6330723762512207,0.4174101948738098,-0.049122050404548645,0.9996886253356934,0.6928654909133911,0.4275040030479431,0.10085248947143555,0.9992724061012268,0.6215930581092834,0.48214471340179443,-0.1149570494890213,0.9020392298698425,0.7029005289077759,0.4925674498081207,0.0732017233967781,0.4903217852115631,0.6172422766685486,0.5370531678199768,-0.12162166833877563,0.6715993881225586,0.6850602626800537,0.5369634032249451,-0.005606189835816622,0.2530995011329651,0.616374135017395,0.5522390007972717,-0.13750691711902618,0.6185178160667419,0.6807085871696472,0.5513995289802551,-0.01321432739496231,0.24497492611408234,0.6210255026817322,0.5468006134033203,-0.13037587702274323,0.6087373495101929,0.6758206486701965,0.549298107624054,-0.01945304311811924,0.23782937228679657,0.6233566403388977,0.54183030128479,-0.11931216716766357,0.5470883846282959,0.6775804162025452,0.544783353805542,-0.013923722319304943,0.21758046746253967,0.6476640105247498,0.5674570798873901,-0.06450585275888443,0.9995104074478149,0.6786328554153442,0.5669854283332825,0.0644623190164566,0.9991382360458374,0.6439372897148132,0.6600803136825562,-0.06282143294811249,0.9782083630561829,0.6820484399795532,0.6529978513717651,0.10879071801900864,0.964557409286499,0.6524874567985535,0.7557318806648254,-0.073773592710495,0.9808096885681152,0.7130841016769409,0.7472677230834961,0.027388587594032288,0.9757310748100281,0.6601485013961792,0.7699337005615234,-0.07707115262746811,0.9859027862548828,0.7281280755996704,0.7548200488090515,0.01969744823873043,0.9757171869277954,0.629271924495697,0.7760657668113708,-0.13028810918331146,0.8950205445289612,0.7196446657180786,0.776821494102478,-0.010463026352226734,0.884524405002594
