frame,NOSE.x,NOSE.y,NOSE.z,NOSE.v,LEFT_EYE_INNER.x,LEFT_EYE_INNER.y,LEFT_EYE_INNER.z,LEFT_EYE_INNER.v,LEFT_EYE.x,LEFT_EYE.y,LEFT_EYE.z,LEFT_EYE.v,LEFT_EYE_OUTER.x,LEFT_EYE_OUTER.y,LEFT_EYE_OUTER.z,LEFT_EYE_OUTER.v,RIGHT_EYE_INNER.x,RIGHT_EYE_INNER.y,RIGHT_EYE_INNER.z,RIGHT_EYE_INNER.v,RIGHT_EYE.x,RIGHT_EYE.y,RIGHT_EYE.z,RIGHT_EYE.v,RIGHT_EYE_OUTER.x,RIGHT_EYE_OUTER.y,RIGHT_EYE_OUTER.z,RIGHT_EYE_OUTER.v,LEFT_EAR.x,LEFT_EAR.y,LEFT_EAR.z,LEFT_EAR.v,RIGHT_EAR.x,RIGHT_EAR.y,RIGHT_EAR.z,RIGHT_EAR.v,MOUTH_LEFT.x,MOUTH_LEFT.y,MOUTH_LEFT.z,MOUTH_LEFT.v,MOUTH_RIGHT.x,MOUTH_RIGHT.y,MOUTH_RIGHT.z,MOUTH_RIGHT.v,LEFT_SHOULDER.x,LEFT_SHOULDER.y,LEFT_SHOULDER.z,LEFT_SHOULDER.v,RIGHT_SHOULDER.x,RIGHT_SHOULDER.y,RIGHT_SHOULDER.z,RIGHT_SHOULDER.v,LEFT_ELBOW.x,LEFT_ELBOW.y,LEFT_ELBOW.z,LEFT_ELBOW.v,RIGHT_ELBOW.x,RIGHT_ELBOW.y,RIGHT_ELBOW.z,RIGHT_ELBOW.v,LEFT_WRIST.x,LEFT_WRIST.y,LEFT_WRIST.z,LEFT_WRIST.v,RIGHT_WRIST.x,RIGHT_WRIST.y,RIGHT_WRIST.z,RIGHT_WRIST.v,LEFT_PINKY.x,LEFT_PINKY.y,LEFT_PINKY.z,LEFT_PINKY.v,RIGHT_PINKY.x,RIGHT_PINKY.y,RIGHT_PINKY.z,RIGHT_PINKY.v,LEFT_INDEX.x,LEFT_INDEX.y,LEFT_INDEX.z,LEFT_INDEX.v,RIGHT_INDEX.x,RIGHT_INDEX.y,RIGHT_INDEX.z,RIGHT_INDEX.v,LEFT_THUMB.x,LEFT_THUMB.y,LEFT_THUMB.z,LEFT_THUMB.v,RIGHT_THUMB.x,RIGHT_THUMB.y,RIGHT_THUMB.z,RIGHT_THUMB.v,LEFT_HIP.x,LEFT_HIP.y,LEFT_HIP.z,LEFT_HIP.v,RIGHT_HIP.x,RIGHT_HIP.y,RIGHT_HIP.z,RIGHT_HIP.v,LEFT_KNEE.x,LEFT_KNEE.y,LEFT_KNEE.z,LEFT_KNEE.v,RIGHT_KNEE.x,RIGHT_KNEE.y,RIGHT_KNEE.z,RIGHT_KNEE.v,LEFT_ANKLE.x,LEFT_ANKLE.y,LEFT_ANKLE.z,LEFT_ANKLE.v,RIGHT_ANKLE.x,RIGHT_ANKLE.y,RIGHT_ANKLE.z,RIGHT_ANKLE.v,LEFT_HEEL.x,LEFT_HEEL.y,LEFT_HEEL.z,LEFT_HEEL.v,RIGHT_HEEL.x,RIGHT_HEEL.y,RIGHT_HEEL.z,RIGHT_HEEL.v,LEFT_FOOT_INDEX.x,LEFT_FOOT_INDEX.y,LEFT_FOOT_INDEX.z,LEFT_FOOT_INDEX.v,RIGHT_FOOT_INDEX.x,RIGHT_FOOT_INDEX.y,RIGHT_FOOT_INDEX.z,RIGHT_FOOT_INDEX.v
0
1
2
3
4
5
6
7
8
9
10
11
12
13
14
15
16
17
18
19
20
21
22
23,0.437199205160141,0.44871875643730164,-0.02670157328248024,0.9981138706207275,0.4442714750766754,0.43203461170196533,-0.03202652931213379,0.9979491829872131,0.4446629583835602,0.43181177973747253,-0.03205547481775284,0.997495174407959,0.4456172585487366,0.4321909546852112,-0.032098542898893356,0.9982469081878662,0.4430435299873352,0.4361293911933899,-0.016018535941839218,0.9977617263793945,0.4396742880344391,0.4416438937187195,-0.01600692793726921,0.9964229464530945,0.4392072558403015,0.44175612926483154,-0.016076847910881042,0.9976195693016052,0.44825372099876404,0.4386884272098541,-0.03181564807891846,0.9982971549034119,0.4453001916408539,0.4466480612754822,0.040863774716854095,0.9968729615211487,0.44316262006759644,0.453773558139801,-0.024637751281261444,0.9967658519744873,0.43749937415122986,0.4577730894088745,-0.003637081477791071,0.9943711161613464,0.4707844853401184,0.48269370198249817,-0.05370504781603813,0.9988036155700684,0.4383210241794586,0.48723092675209045,0.08367740362882614,0.9964101910591125,0.47945690155029297,0.5012325644493103,-0.14812146127223969,0.9689299464225769,0.4193643629550934,0.49994903802871704,0.05654978007078171,0.5889824032783508,0.4582234025001526,0.47894617915153503,-0.18181964755058289,0.8409078121185303,0.4244568943977356,0.47318458557128906,-0.0352710522711277,0.6862878203392029,0.4544243812561035,0.4737498462200165,-0.19989342987537384,0.731602668762207,0.42563575506210327,0.46853911876678467,-0.04779405891895294,0.6051253080368042,0.4530717730522156,0.4720219671726227,-0.18712769448757172,0.6972200870513916,0.4271215498447418,0.46369487047195435,-0.052796222269535065,0.6000097990036011,0.45329540967941284,0.47573477029800415,-0.17699624598026276,0.6592506170272827,0.4272691607475281,0.466892808675766,-0.04098718985915184,0.605356752872467,0.44741326570510864,0.6083397269248962,-0.051025934517383575,0.9951168298721313,0.4315243363380432,0.6072471737861633,0.051142025738954544,0.9950107336044312,0.4085959792137146,0.6755684614181519,-0.07147083431482315,0.7797666788101196,0.396378755569458,0.6822746396064758,0.024422260001301765,0.3470650017261505,0.380206823348999,0.7547140717506409,-0.05517597123980522,0.5555371642112732,0.36780035495758057,0.76973557472229,0.02870398387312889,0.25255855917930603,0.38010913133621216,0.7708680629730225,-0.055991362780332565,0.6007834076881409,0.3696267306804657,0.7894955277442932,0.027011698111891747,0.3947155177593231,0.3600040376186371,0.7663396596908569,-0.10739149153232574,0.5013039708137512,0.3364141881465912,0.7777639627456665,-0.019583458080887794,0.25904086232185364
24
25
26
27
28
29
30
31
32
33
34
35
36
37
38
39
40
41
42
43
44
45
46
47
48
49
50
51
52
53
54
55
56
57
58
59
60
61
62
63
64
65
66
67
68
69
70
71
72
73
74
75
76
77
78
79
80
81
82
83
84
85
86,0.9154943227767944,0.6361743211746216,-0.12058170139789581,0.9924182295799255,0.9279195666313171,0.6454380750656128,-0.1276414841413498,0.9905601739883423,0.9283398389816284,0.650775671005249,-0.12781576812267303,0.9884698390960693,0.9286588430404663,0.6561208963394165,-0.127975195646286,0.990615725517273,0.9274042248725891,0.6341801881790161,-0.11464965343475342,0.9922412037849426,0.927415668964386,0.630820095539093,-0.11468444019556046,0.9899014234542847,0.9274348020553589,0.6274811029434204,-0.11491074413061142,0.9919915199279785,0.9250197410583496,0.66989666223526,-0.10304959118366241,0.9917400479316711,0.9236475229263306,0.6324986815452576,-0.04354057461023331,0.9905149936676025,0.9045182466506958,0.6487340927124023,-0.10525413602590561,0.9888665080070496,0.9039677381515503,0.6343048214912415,-0.0884251594543457,0.9888971447944641,0.8784152865409851,0.7011538147926331,-0.11567691713571548,0.9958752989768982,0.8701056241989136,0.6325768232345581,0.03380129486322403,0.9958221912384033,0.8356298208236694,0.7324060797691345,-0.17584648728370667,0.9165497422218323,0.8144314885139465,0.6041678190231323,0.023382633924484253,0.5462186336517334,0.8349208831787109,0.6899228692054749,-0.21492072939872742,0.7896618247032166,0.8005172610282898,0.5752973556518555,-0.030170727521181107,0.6459084749221802,0.8329154849052429,0.6822032928466797,-0.23113112151622772,0.6920610666275024,0.7936189770698547,0.5666255950927734,-0.026355192065238953,0.5751941800117493,0.8437536358833313,0.6771765947341919,-0.21738772094249725,0.6606225371360779,0.8284517526626587,0.5630136132240295,-0.05159442499279976,0.5713632702827454,0.8434373140335083,0.6800364851951599,-0.2100113332271576,0.6259427666664124,0.8024743795394897,0.564215898513794,-0.04125908389687538,0.574542760848999,0.6738983392715454,0.6934289932250977,-0.04785257950425148,0.9950728416442871,0.6757674813270569,0.6606837511062622,0.04762665554881096,0.9951316714286804,0.5812501907348633,0.688423752784729,-0.015586120076477528,0.7879350781440735,0.6057105660438538,0.725143551826477,0.1489478349685669,0.38381311297416687,0.5199558734893799,0.7435430288314819,0.08138102293014526,0.5786635875701904,0.5085184574127197,0.7476652264595032,0.15960127115249634,0.30737578868865967,0.5172539353370667,0.7571612596511841,0.09065520018339157,0.6214900612831116,0.4934903085231781,0.7543009519577026,0.15872400999069214,0.43308573961257935,0.47689294815063477,0.755548357963562,0.08331412822008133,0.5292985439300537,0.4703926146030426,0.7378398776054382,0.13702622056007385,0.3091876804828644
87
88
89
90
91
92
93
94
95
96
97
98
99
100
101
102
103
104
105
106
107
108
109
