frame,NOSE.x,NOSE.y,NOSE.z,NOSE.v,LEFT_EYE_INNER.x,LEFT_EYE_INNER.y,LEFT_EYE_INNER.z,LEFT_EYE_INNER.v,LEFT_EYE.x,LEFT_EYE.y,LEFT_EYE.z,LEFT_EYE.v,LEFT_EYE_OUTER.x,LEFT_EYE_OUTER.y,LEFT_EYE_OUTER.z,LEFT_EYE_OUTER.v,RIGHT_EYE_INNER.x,RIGHT_EYE_INNER.y,RIGHT_EYE_INNER.z,RIGHT_EYE_INNER.v,RIGHT_EYE.x,RIGHT_EYE.y,RIGHT_EYE.z,RIGHT_EYE.v,RIGHT_EYE_OUTER.x,RIGHT_EYE_OUTER.y,RIGHT_EYE_OUTER.z,RIGHT_EYE_OUTER.v,LEFT_EAR.x,LEFT_EAR.y,LEFT_EAR.z,LEFT_EAR.v,RIGHT_EAR.x,RIGHT_EAR.y,RIGHT_EAR.z,RIGHT_EAR.v,MOUTH_LEFT.x,MOUTH_LEFT.y,MOUTH_LEFT.z,MOUTH_LEFT.v,MOUTH_RIGHT.x,MOUTH_RIGHT.y,MOUTH_RIGHT.z,MOUTH_RIGHT.v,LEFT_SHOULDER.x,LEFT_SHOULDER.y,LEFT_SHOULDER.z,LEFT_SHOULDER.v,RIGHT_SHOULDER.x,RIGHT_SHOULDER.y,RIGHT_SHOULDER.z,RIGHT_SHOULDER.v,LEFT_ELBOW.x,LEFT_ELBOW.y,LEFT_ELBOW.z,LEFT_ELBOW.v,RIGHT_ELBOW.x,RIGHT_ELBOW.y,RIGHT_ELBOW.z,RIGHT_ELBOW.v,LEFT_WRIST.x,LEFT_WRIST.y,LEFT_WRIST.z,LEFT_WRIST.v,RIGHT_WRIST.x,RIGHT_WRIST.y,RIGHT_WRIST.z,RIGHT_WRIST.v,LEFT_PINKY.x,LEFT_PINKY.y,LEFT_PINKY.z,LEFT_PINKY.v,RIGHT_PINKY.x,RIGHT_PINKY.y,RIGHT_PINKY.z,RIGHT_PINKY.v,LEFT_INDEX.x,LEFT_INDEX.y,LEFT_INDEX.z,LEFT_INDEX.v,RIGHT_INDEX.x,RIGHT_INDEX.y,RIGHT_INDEX.z,RIGHT_INDEX.v,LEFT_THUMB.x,LEFT_THUMB.y,LEFT_THUMB.z,LEFT_THUMB.v,RIGHT_THUMB.x,RIGHT_THUMB.y,RIGHT_THUMB.z,RIGHT_THUMB.v,LEFT_HIP.x,LEFT_HIP.y,LEFT_HIP.z,LEFT_HIP.v,RIGHT_HIP.x,RIGHT_HIP.y,RIGHT_HIP.z,RIGHT_HIP.v,LEFT_KNEE.x,LEFT_KNEE.y,LEFT_KNEE.z,LEFT_KNEE.v,RIGHT_KNEE.x,RIGHT_KNEE.y,RIGHT_KNEE.z,RIGHT_KNEE.v,LEFT_ANKLE.x,LEFT_ANKLE.y,LEFT_ANKLE.z,LEFT_ANKLE.v,RIGHT_ANKLE.x,RIGHT_ANKLE.y,RIGHT_ANKLE.z,RIGHT_ANKLE.v,LEFT_HEEL.x,LEFT_HEEL.y,LEFT_HEEL.z,LEFT_HEEL.v,RIGHT_HEEL.x,RIGHT_HEEL.y,RIGHT_HEEL.z,RIGHT_HEEL.v,LEFT_FOOT_INDEX.x,LEFT_FOOT_INDEX.y,LEFT_FOOT_INDEX.z,LEFT_FOOT_INDEX.v,RIGHT_FOOT_INDEX.x,RIGHT_FOOT_INDEX.y,RIGHT_FOOT_INDEX.z,RIGHT_FOOT_INDEX.v
0
1
2
3
4
5
6
7
8
9
10,0.04746951907873154,0.6153242588043213,-0.04551904648542404,0.9430045485496521,0.052903782576322556,0.612127423286438,-0.04937653988599777,0.9262921214103699,0.053045421838760376,0.6116238832473755,-0.049283213913440704,0.9160470962524414,0.053162407130002975,0.611138105392456,-0.04916198551654816,0.9204562306404114,0.052268825471401215,0.6124484539031982,-0.0535750612616539,0.931477427482605,0.05195260047912598,0.6121202111244202,-0.053518109023571014,0.9230534434318542,0.05165889114141464,0.611816942691803,-0.0534684844315052,0.9300503730773926,0.04967903345823288,0.6075296998023987,-0.04536421224474907,0.9111588597297668,0.04738525301218033,0.6084495782852173,-0.06437952071428299,0.9125649333000183,0.04191904515028,0.6143691539764404,-0.03960944712162018,0.8738097548484802,0.04111558943986893,0.6147670149803162,-0.04532310739159584,0.8886940479278564,0.023563899099826813,0.611694872379303,-0.0435015931725502,0.7003540992736816,0.02120976150035858,0.6069151759147644,-0.04275776818394661,0.7805903553962708,0.028452575206756592,0.5995206236839294,-0.023392176255583763,0.21798351407051086,0.02964673936367035,0.5895258188247681,-0.04292558133602142,0.5747123956680298,0.03820601850748062,0.5762578248977661,-4.5583223254652694e-05,0.20294126868247986,0.03657020628452301,0.5586525797843933,-0.028309473767876625,0.4715712368488312,0.04044218361377716,0.5694941878318787,-0.005875182803720236,0.231143981218338,0.037056416273117065,0.5525217056274414,-0.030271101742982864,0.47974905371665955,0.0411352813243866,0.5705522894859314,-0.0026891743764281273,0.23890520632266998,0.036874279379844666,0.5497289299964905,-0.04217999801039696,0.483388215303421,0.04012557864189148,0.5727146863937378,0.0006358429091051221,0.22966505587100983,0.035898469388484955,0.5512722134590149,-0.032585348933935165,0.4763830304145813,-0.06203409284353256,0.6119006872177124,-0.01920713484287262,0.007666825316846371,-0.06597129255533218,0.6118766665458679,0.01940011978149414,0.007898968644440174,0.013729684054851532,0.6138082146644592,-0.01931283064186573,0.15224342048168182,0.003231823444366455,0.5965742468833923,0.029617613181471825,0.08314311504364014,0.032617852091789246,0.5794908404350281,0.06674163788557053,0.1933242827653885,0.031059229746460915,0.5869477987289429,0.10458920150995255,0.08034531027078629,0.0309944748878479,0.5673827528953552,0.07200293987989426,0.16012762486934662,0.030861198902130127,0.5813786387443542,0.1117306798696518,0.11817667633295059,0.05511844903230667,0.5846990346908569,0.03142635524272919,0.25343820452690125,0.056877125054597855,0.5877806544303894,0.087945856153965,0.1321054846048355
11,0.039704591035842896,0.5945958495140076,-0.024315398186445236,0.9480132460594177,0.042723096907138824,0.5972526669502258,-0.03111821971833706,0.9328237175941467,0.042517006397247314,0.5972383618354797,-0.031043779104948044,0.9235575199127197,0.04229917749762535,0.5972365736961365,-0.030985910445451736,0.9273850321769714,0.04260267689824104,0.597028374671936,-0.02365688420832157,0.9373387098312378,0.042328424751758575,0.5970374941825867,-0.023549910634756088,0.9296850562095642,0.0420730859041214,0.5970612168312073,-0.02342958375811577,0.9359219670295715,0.0370151586830616,0.596156895160675,-0.04002442583441734,0.9191864728927612,0.036857135593891144,0.5963719487190247,-0.006415021605789661,0.9198907613754272,0.03440774232149124,0.5923664569854736,-0.024675050750374794,0.8846185803413391,0.034328773617744446,0.5921326279640198,-0.015274105593562126,0.8978065848350525,0.015053702518343925,0.5922748446464539,-0.05224643275141716,0.7114549875259399,0.01066585723310709,0.5881149172782898,0.019066397100687027,0.7803846597671509,0.027223646640777588,0.6069239377975464,-0.04533136263489723,0.2533693015575409,0.0295526385307312,0.5981385707855225,0.019496971741318703,0.5577113628387451,0.04056404531002045,0.6150213479995728,-0.019501231610774994,0.22075383365154266,0.04259488731622696,0.5986825823783875,0.011304761283099651,0.4560141861438751,0.04355964437127113,0.6168615818023682,-0.022934798151254654,0.24657230079174042,0.04371584579348564,0.6019207239151001,0.00793408416211605,0.4616241753101349,0.043791793286800385,0.6186336874961853,-0.02394098788499832,0.25601574778556824,0.04434731602668762,0.5982638001441956,0.00017359794583171606,0.466504842042923,0.04263199493288994,0.6180718541145325,-0.019159134477376938,0.2460307478904724,0.04366300255060196,0.5961760878562927,0.006699827499687672,0.46098145842552185,-0.0751262679696083,0.598692774772644,-0.03061021864414215,0.009162971749901772,-0.08053658902645111,0.5955835580825806,0.030769890174269676,0.010032137855887413,-0.0016471026465296745,0.6137511134147644,-0.02315337024629116,0.18582013249397278,-0.00333156855776906,0.5899025201797485,0.030928228050470352,0.09706567972898483,0.03843626007437706,0.6100594997406006,0.0561010017991066,0.21471932530403137,0.03424398973584175,0.6118298172950745,0.10449186712503433,0.09293432533740997,0.043856799602508545,0.6047947406768799,0.060981858521699905,0.17757906019687653,0.03789427503943443,0.6130887269973755,0.11102551221847534,0.1324564516544342,0.056477587670087814,0.6219189167022705,0.01603231206536293,0.2725459039211273,0.05712233856320381,0.6203081011772156,0.08318942040205002,0.14461228251457214
12,0.04033651202917099,0.5980436205863953,-0.02995450235903263,0.951625645160675,0.04764368757605553,0.5987793803215027,-0.04047536104917526,0.9372497797012329,0.047389693558216095,0.5989106297492981,-0.040367335081100464,0.9285451173782349,0.047253143042325974,0.598995566368103,-0.040269043296575546,0.9318124055862427,0.04770930856466293,0.5986793041229248,-0.03450847789645195,0.9413628578186035,0.0475345104932785,0.5988332033157349,-0.034431736916303635,0.9342310428619385,0.04747913032770157,0.598929762840271,-0.03435095399618149,0.94010329246521,0.04560857266187668,0.5980504751205444,-0.04686887934803963,0.9237328171730042,0.044925495982170105,0.5986813306808472,-0.009614032693207264,0.9252362251281738,0.040367189794778824,0.5979085564613342,-0.031672216951847076,0.8902295231819153,0.04002964496612549,0.5982383489608765,-0.024753650650382042,0.901938796043396,0.024812322109937668,0.6231316924095154,-0.06776294857263565,0.7081546783447266,0.015228910371661186,0.5918686985969543,0.023867256939411163,0.7817355990409851,0.0330716148018837,0.6043440699577332,-0.06605806946754456,0.28346705436706543,0.02931785024702549,0.5747461915016174,0.036242470145225525,0.5502417087554932,0.03547019883990288,0.5762234926223755,-0.011883440427482128,0.22444605827331543,0.03672104328870773,0.5648425817489624,0.03859635442495346,0.43364575505256653,0.03337717801332474,0.5700576901435852,-0.008172573521733284,0.24464638531208038,0.03563051298260689,0.563202440738678,0.03852667286992073,0.4379767179489136,0.03282008692622185,0.5721251964569092,-0.006245600990951061,0.25399404764175415,0.037404850125312805,0.567767858505249,0.02933550998568535,0.4443172216415405,0.033441368490457535,0.574932873249054,-0.007760195527225733,0.2447841763496399,0.03771272301673889,0.5672970414161682,0.033807650208473206,0.4409150183200836,-0.06867270171642303,0.6236265301704407,-0.037119608372449875,0.008529185317456722,-0.07398226857185364,0.6007662415504456,0.03723115473985672,0.009639079682528973,0.002414856106042862,0.6153371930122375,-0.04855210334062576,0.1877509355545044,-0.0028760458808392286,0.5832312703132629,0.02529534325003624,0.10185617953538895,0.022924501448869705,0.6029322147369385,0.02347889170050621,0.21190506219863892,0.02874079905450344,0.5849254131317139,0.08233216404914856,0.09341873228549957,0.021849369630217552,0.5963948965072632,0.02764962986111641,0.17741180956363678,0.029153097420930862,0.5831629037857056,0.0877206027507782,0.13441164791584015,0.03856288641691208,0.6087491512298584,-0.009469123557209969,0.26732659339904785,0.05141538381576538,0.5820304751396179,0.06973669677972794,0.1430751532316208
13,0.046141766011714935,0.6008508205413818,-0.004555479623377323,0.9549615383148193,0.05051407217979431,0.5998554229736328,-0.011764607392251492,0.9415043592453003,0.05008970946073532,0.5999727249145508,-0.011687137186527252,0.9332748055458069,0.04978938028216362,0.6000546813011169,-0.011614697054028511,0.9363760352134705,0.05056179687380791,0.5998051166534424,-0.007868049666285515,0.9453768134117126,0.05020211264491081,0.5999669432640076,-0.007801698055118322,0.9387474656105042,0.04998304694890976,0.600097119808197,-0.007751231547445059,0.9443805813789368,0.048634033650159836,0.5994510054588318,-0.01778891496360302,0.9288603067398071,0.04793459177017212,0.5999055504798889,-0.00028173712780699134,0.9306443929672241,0.04451655596494675,0.6005094051361084,-0.0029811274725943804,0.896669864654541,0.041767094284296036,0.6010131239891052,0.0014837572816759348,0.9076013565063477,0.027175024151802063,0.6196905374526978,-0.04039251059293747,0.7128244042396545,0.0182811189442873,0.5937777757644653,0.027201583608984947,0.7886068224906921,0.03229277580976486,0.6063349843025208,-0.016996707767248154,0.2751634120941162,0.03134939819574356,0.5818136930465698,0.029407784342765808,0.5434179902076721,0.035040758550167084,0.5886762738227844,0.046903837472200394,0.2131042331457138,0.039541326463222504,0.5812919735908508,0.039898112416267395,0.4124571681022644,0.03389163687825203,0.5856809020042419,0.0496881827712059,0.23330341279506683,0.037250179797410965,0.5822016596794128,0.042272355407476425,0.4165557026863098,0.033945366740226746,0.5868144631385803,0.05100967362523079,0.24254432320594788,0.039858244359493256,0.5833607912063599,0.033725086599588394,0.42329421639442444,0.034216850996017456,0.5883126854896545,0.04933790862560272,0.2348145991563797,0.04041101783514023,0.5816504955291748,0.036430682986974716,0.4204072058200836,-0.06410951912403107,0.6206174492835999,-0.03421001881361008,0.008094144985079765,-0.07208157330751419,0.6023258566856384,0.0343843474984169,0.009514620527625084,0.0041496967896819115,0.6077221035957336,-0.04005429521203041,0.1892477124929428,-0.0020776467863470316,0.5848463177680969,0.03349210321903229,0.09799983352422714,0.025438880547881126,0.5884774327278137,0.040458016097545624,0.20470312237739563,0.028458282351493835,0.5817109942436218,0.08413301408290863,0.09057826548814774,0.02465786039829254,0.579253613948822,0.04545636847615242,0.1737569123506546,0.02874467894434929,0.5771349668502808,0.09307189285755157,0.13205550611019135,0.043246686458587646,0.5964382290840149,-0.0007263360312208533,0.2591283619403839,0.05201704427599907,0.5825939178466797,0.07703001797199249,0.14010119438171387
14,0.05128859356045723,0.6026160717010498,-0.016699383035302162,0.9582711458206177,0.05270666629076004,0.6005407571792603,-0.02185831591486931,0.9458750486373901,0.05245047062635422,0.6005921959877014,-0.021802593022584915,0.9382176995277405,0.05235027149319649,0.6006654500961304,-0.021748743951320648,0.9411882758140564,0.052349597215652466,0.600515604019165,-0.023738496005535126,0.9494710564613342,0.0518626943230629,0.6005904674530029,-0.023755140602588654,0.9432686567306519,0.051542483270168304,0.6006893515586853,-0.02368244156241417,0.948554277420044,0.05027683824300766,0.6001694202423096,-0.020667865872383118,0.9343084096908569,0.049166034907102585,0.6005964875221252,-0.030114296823740005,0.9356228113174438,0.04942775145173073,0.6079960465431213,-0.013768968172371387,0.903791069984436,0.0458313450217247,0.6073800921440125,-0.017970306798815727,0.9133345484733582,0.02663361094892025,0.6272722482681274,-0.02247772365808487,0.7126011252403259,0.01834859326481819,0.6079350709915161,-0.02422875165939331,0.7874770760536194,0.030451178550720215,0.6063151955604553,0.001897512935101986,0.26167210936546326,0.02813224121928215,0.583824872970581,-0.04451364278793335,0.5476287603378296,0.032051265239715576,0.5819823741912842,0.0526578426361084,0.20371310412883759,0.03699898719787598,0.5744364857673645,-0.05996928736567497,0.408293753862381,0.031408242881298065,0.5750488042831421,0.05317569896578789,0.22295548021793365,0.036185748875141144,0.5689848065376282,-0.06812502443790436,0.414442777633667,0.03151107206940651,0.575357973575592,0.0520828478038311,0.23246106505393982,0.037907447665929794,0.57147616147995,-0.07585982978343964,0.42246952652931213,0.03177885711193085,0.5787543058395386,0.052804261445999146,0.22553879022598267,0.03795193135738373,0.5733185410499573,-0.06386924535036087,0.4191696047782898,-0.06306187808513641,0.6279342174530029,-0.01659809798002243,0.007619987707585096,-0.06976015865802765,0.6183235049247742,0.01682666689157486,0.009029059670865536,0.005166627466678619,0.6082696914672852,-0.02415705844759941,0.17638064920902252,-0.0016415838617831469,0.5914079546928406,0.01618427410721779,0.09540551900863647,0.021419784054160118,0.5889884233474731,0.05873159319162369,0.18993118405342102,0.02240193821489811,0.5836702585220337,0.08080026507377625,0.08591843396425247,0.019754361361265182,0.5800586342811584,0.06406822055578232,0.16243185102939606,0.022618375718593597,0.5788649320602417,0.08792026340961456,0.12695324420928955,0.03810596466064453,0.5939683318138123,0.025499651208519936,0.2415594458580017,0.042149994522333145,0.5840069055557251,0.06707455217838287,0.13397884368896484
15,0.054092951118946075,0.6034059524536133,-0.020689386874437332,0.9603137373924255,0.05269763618707657,0.6005411148071289,-0.028392711654305458,0.9481092691421509,0.05243917554616928,0.6003881096839905,-0.028312936425209045,0.9412862658500671,0.05234166234731674,0.6001927256584167,-0.02821478247642517,0.9437463283538818,0.052334319800138474,0.6006559729576111,-0.03939772769808769,0.9519200325012207,0.05183986574411392,0.6006243824958801,-0.039312344044446945,0.9462203979492188,0.05151699110865593,0.6005586981773376,-0.039175283163785934,0.9505338668823242,0.04925379529595375,0.5958454012870789,-0.007483847439289093,0.9371447563171387,0.04836876317858696,0.5974254608154297,-0.06971912831068039,0.9369868636131287,0.04851590096950531,0.6081017851829529,-0.019216317683458328,0.9063062071800232,0.046795763075351715,0.6078398823738098,-0.03587336093187332,0.9149720668792725,0.02471756376326084,0.6147696375846863,0.0034193831961601973,0.6927908658981323,0.02022935263812542,0.6075836420059204,-0.07130599021911621,0.7623803615570068,0.03557358682155609,0.6091647744178772,0.037287987768650055,0.2431497722864151,0.043254826217889786,0.6149606108665466,-0.10383063554763794,0.564208984375,0.04440777003765106,0.6145966053009033,0.04815073311328888,0.19329482316970825,0.05259217694401741,0.6114476323127747,-0.1053137555718422,0.4247547388076782,0.046529561281204224,0.6136462092399597,0.043848637491464615,0.2152019590139389,0.053523022681474686,0.6106811165809631,-0.11853738874197006,0.43048736453056335,0.046350378543138504,0.6137335300445557,0.037540923804044724,0.22531642019748688,0.0522998571395874,0.6083844304084778,-0.12389892339706421,0.4363582134246826,0.045462317764759064,0.6149625182151794,0.04422527924180031,0.21908947825431824,0.05123712867498398,0.608457624912262,-0.10814160108566284,0.42923372983932495,-0.06308742612600327,0.6228647828102112,-0.0023823098745197058,0.0076752626337111,-0.0696481317281723,0.6167985796928406,0.002524137031286955,0.008772404864430428,0.005670003592967987,0.6070027947425842,-0.003666931763291359,0.17316913604736328,0.0005956062814220786,0.5907522439956665,0.002931688679382205,0.11241553723812103,0.03113270178437233,0.5972283482551575,0.08428910374641418,0.19655516743659973,0.03085179068148136,0.5999080538749695,0.08524101972579956,0.10166667401790619,0.030182603746652603,0.592520534992218,0.08956359326839447,0.16668400168418884,0.030389660969376564,0.5998014211654663,0.09261728823184967,0.14110197126865387,0.05447262525558472,0.5993892550468445,0.03902234509587288,0.24678298830986023,0.057879239320755005,0.5965784192085266,0.062055062502622604,0.1497432440519333
16,0.0510316863656044,0.6035360097885132,-0.02106853947043419,0.9607028961181641,0.051827311515808105,0.6007369160652161,-0.02928861975669861,0.9489453434944153,0.05143077298998833,0.600612461566925,-0.02920442260801792,0.9427978992462158,0.05114562436938286,0.6004447340965271,-0.029119044542312622,0.9445418119430542,0.05151519179344177,0.6009410619735718,-0.03976674750447273,0.9527626633644104,0.050898563116788864,0.6009702682495117,-0.03966992348432541,0.9475999474525452,0.05024860054254532,0.6018160581588745,-0.039529066532850266,0.9510600566864014,0.04697335511445999,0.5968072414398193,-0.02478516474366188,0.9386714100837708,0.045007653534412384,0.5995234251022339,-0.05784399062395096,0.9367567896842957,0.04486828297376633,0.6081313490867615,-0.02318478748202324,0.9065349102020264,0.04377178102731705,0.6078957319259644,-0.03546111658215523,0.9135060906410217,0.02221512980759144,0.613374650478363,-0.01874181441962719,0.6741248369216919,0.0177621953189373,0.6088869571685791,-0.04619082063436508,0.7394220232963562,0.035109542310237885,0.6139227151870728,0.02101452834904194,0.23316608369350433,0.03974699601531029,0.6158469915390015,-0.05941358953714371,0.5533280968666077,0.04350067302584648,0.619983434677124,0.02874770760536194,0.1834995001554489,0.04931478202342987,0.6131632924079895,-0.057333577424287796,0.4092663824558258,0.04508842155337334,0.6200104355812073,0.02419601008296013,0.20628014206886292,0.049912191927433014,0.6146692633628845,-0.06432300060987473,0.416136771440506,0.04509185999631882,0.6208428144454956,0.014869828708469868,0.21636424958705902,0.04956148564815521,0.6112014651298523,-0.07223732024431229,0.4219028055667877,0.0444297157227993,0.6213328242301941,0.023231899365782738,0.21114565432071686,0.04880962520837784,0.6098971962928772,-0.06102434918284416,0.4143317639827728,-0.0652771145105362,0.621168851852417,-0.004340496379882097,0.007501909974962473,-0.07143478095531464,0.6183238625526428,0.004437508061528206,0.008390728384256363,0.005358318332582712,0.6196774840354919,-0.009119042195379734,0.17501220107078552,-0.0003034143301192671,0.6105267405509949,0.024944592267274857,0.1105751022696495,0.032493218779563904,0.6136842966079712,0.0760875791311264,0.19958172738552094,0.031130388379096985,0.6186755895614624,0.09808675944805145,0.10323227941989899,0.032502129673957825,0.6078816056251526,0.08171413838863373,0.1692071557044983,0.031147729605436325,0.6167376041412354,0.10414499044418335,0.14235438406467438,0.05548989027738571,0.6183626651763916,0.030971001833677292,0.2480800598859787,0.05800456926226616,0.6182392835617065,0.06554070115089417,0.15172679722309113
17,0.051183950155973434,0.603136420249939,-0.05894847959280014,0.9625054001808167,0.051799602806568146,0.5986292362213135,-0.06106071546673775,0.9519411325454712,0.05139654129743576,0.598412811756134,-0.06094445660710335,0.9461371302604675,0.051108915358781815,0.5980646014213562,-0.060835741460323334,0.9478341341018677,0.05144988372921944,0.5988083481788635,-0.06757085025310516,0.95548415184021,0.050011586397886276,0.598164975643158,-0.06751253455877304,0.9507094621658325,0.04919932037591934,0.5980982184410095,-0.0674465000629425,0.9539515972137451,0.04632445052266121,0.5961471199989319,-0.05228418856859207,0.9421932697296143,0.04407459869980812,0.5972792506217957,-0.07989361882209778,0.9400925040245056,0.04536910727620125,0.6075185537338257,-0.05327162891626358,0.9110096096992493,0.044308245182037354,0.6071929931640625,-0.06183059141039848,0.9167278409004211,0.020614782348275185,0.6134128570556641,-0.039313338696956635,0.6551647186279297,0.01762574352324009,0.6075354218482971,-0.07216785848140717,0.7266141176223755,0.035793736577034,0.6151798963546753,-0.0017347922548651695,0.22582629323005676,0.03985654562711716,0.6044092178344727,-0.07418914139270782,0.5603277683258057,0.04965398088097572,0.6133080720901489,0.020544733852148056,0.17536164820194244,0.051358453929424286,0.5855440497398376,-0.06679493188858032,0.41135475039482117,0.05211755633354187,0.6105820536613464,0.018730880692601204,0.19687503576278687,0.052205510437488556,0.5798482298851013,-0.07482586055994034,0.4162520468235016,0.05157903581857681,0.6115253567695618,0.01037638820707798,0.20687608420848846,0.05103527754545212,0.577630341053009,-0.08557029068470001,0.4233095943927765,0.05062957480549812,0.6123873591423035,0.016119932755827904,0.2028619647026062,0.050174981355667114,0.5797114968299866,-0.07164247334003448,0.4152364432811737,-0.06541134417057037,0.6203690767288208,-0.01010157261043787,0.007481676060706377,-0.07103045284748077,0.6171637773513794,0.010243498720228672,0.008252509869635105,0.003766701789572835,0.6185808181762695,-0.01724238321185112,0.17016474902629852,-0.0008863558759912848,0.604361355304718,0.02127879485487938,0.1114993467926979,0.024144308641552925,0.606502890586853,0.07244302332401276,0.19409386813640594,0.02543412707746029,0.6171463131904602,0.0945458859205246,0.1026424691081047,0.023156849667429924,0.5996901988983154,0.07823454588651657,0.16295361518859863,0.025216033682227135,0.6126695871353149,0.10046762228012085,0.14080145955085754,0.04423585906624794,0.6166618466377258,0.023582646623253822,0.2402046173810959,0.04827000945806503,0.605742335319519,0.06713255494832993,0.1508510857820511
18,0.05164217948913574,0.6031932234764099,-0.052109651267528534,0.9652573466300964,0.051830731332302094,0.5977047681808472,-0.054983556270599365,0.9554792046546936,0.051416534930467606,0.5973877310752869,-0.05485760048031807,0.950150728225708,0.05067582055926323,0.5961305499076843,-0.05477747321128845,0.9517489075660706,0.05145924538373947,0.5978491306304932,-0.05791680887341499,0.9588418006896973,0.049764227122068405,0.5967757105827332,-0.05785941332578659,0.9544082283973694,0.0489242747426033,0.596398651599884,-0.05780057981610298,0.9572533965110779,0.045436032116413116,0.59379643201828,-0.02858077362179756,0.9465315341949463,0.04377008229494095,0.595205545425415,-0.07020403444766998,0.9441733956336975,0.04384879022836685,0.6052066087722778,-0.04645831137895584,0.917235791683197,0.043426357209682465,0.6051176190376282,-0.05095858499407768,0.9222986698150635,0.01767681911587715,0.6102375388145447,-0.015622568316757679,0.6458776593208313,0.01716167852282524,0.6026114225387573,-0.06618300825357437,0.7137089371681213,0.03533010929822922,0.6172102689743042,0.018837880343198776,0.2155519723892212,0.04063693434000015,0.6039286851882935,-0.08564072847366333,0.570800244808197,0.0488777756690979,0.6217346787452698,0.03664267435669899,0.1677057147026062,0.05650199204683304,0.597326397895813,-0.0849040225148201,0.4140234589576721,0.051736969500780106,0.6204050183296204,0.03319557383656502,0.18933191895484924,0.05900825187563896,0.5964822769165039,-0.0961589366197586,0.41674014925956726,0.05186913162469864,0.6206432580947876,0.02600611187517643,0.1996520608663559,0.05764441564679146,0.5933930277824402,-0.10274870693683624,0.42314064502716064,0.05079130083322525,0.6214039921760559,0.03261515125632286,0.19659507274627686,0.05614635348320007,0.5933893322944641,-0.08852861821651459,0.4127824306488037,-0.067764513194561,0.6172862648963928,-0.0062170145101845264,0.0075349630787968636,-0.07266411930322647,0.6134844422340393,0.006371283438056707,0.008066235110163689,0.0030427873134613037,0.6176076531410217,-0.01300435047596693,0.1680324822664261,-0.0019375104457139969,0.596096396446228,0.0065310075879096985,0.12000945955514908,0.023770010098814964,0.603613018989563,0.07656745612621307,0.19195012748241425,0.024254757910966873,0.6109069585800171,0.08721747994422913,0.10785458236932755,0.022463519126176834,0.5970584154129028,0.08193553984165192,0.15920859575271606,0.023800496011972427,0.6055081486701965,0.09397198259830475,0.14395399391651154,0.04448365420103073,0.6113824844360352,0.033361367881298065,0.23620162904262543,0.047649793326854706,0.6043607592582703,0.06270520389080048,0.15668155252933502
19,0.05592585355043411,0.6028507947921753,-0.08210496604442596,0.9680562615394592,0.053849250078201294,0.5982513427734375,-0.08425172418355942,0.9593223333358765,0.053410597145557404,0.5979444980621338,-0.08410568535327911,0.9544317126274109,0.05300036072731018,0.5967668890953064,-0.08394868671894073,0.9558994770050049,0.05344247817993164,0.5983498096466064,-0.09071621298789978,0.962416410446167,0.0524338074028492,0.597122311592102,-0.09066323935985565,0.9583680629730225,0.05046490952372551,0.5970417261123657,-0.09056364744901657,0.9609488248825073,0.04806893318891525,0.5942020416259766,-0.07268158346414566,0.9510383605957031,0.045048438012599945,0.5974915623664856,-0.10499940067529678,0.9489158391952515,0.05465281754732132,0.6062696576118469,-0.07512014359235764,0.9236787557601929,0.047829873859882355,0.6053045392036438,-0.08399209380149841,0.9281594753265381,0.023735586553812027,0.6132136583328247,-0.054525226354599,0.645950973033905,0.02477029711008072,0.6107909679412842,-0.09913558512926102,0.714056134223938,0.05142867565155029,0.6166144609451294,-0.03245003893971443,0.21349270641803741,0.05598050355911255,0.6040323376655579,-0.10629409551620483,0.5842543840408325,0.06126346439123154,0.6201618909835815,-0.010884629562497139,0.16085422039031982,0.06584598124027252,0.5941905379295349,-0.10027744621038437,0.4228241741657257,0.06309153884649277,0.6190172433853149,-0.017196297645568848,0.1804962456226349,0.06733224540948868,0.5921563506126404,-0.11161687225103378,0.42053186893463135,0.06142093986272812,0.6194857954978943,-0.025658151134848595,0.19072183966636658,0.06432048231363297,0.590103030204773,-0.12209747731685638,0.4268799424171448,0.06048964709043503,0.6201218366622925,-0.01542203314602375,0.18919962644577026,0.06317106634378433,0.590577244758606,-0.10511752218008041,0.415345698595047,-0.054825086146593094,0.6192824244499207,-0.007543657906353474,0.008793385699391365,-0.05791054293513298,0.6191168427467346,0.00767493387684226,0.009382355958223343,0.011194250546395779,0.6062576174736023,-0.020656343549489975,0.1621588170528412,0.006562208291143179,0.5875177383422852,0.0004185217840131372,0.1355712115764618,0.03919507563114166,0.5856149792671204,0.04950002580881119,0.195428729057312,0.038087256252765656,0.5922162532806396,0.06803248822689056,0.11999610811471939,0.03789161890745163,0.5804229974746704,0.052633415907621384,0.16264618933200836,0.038089923560619354,0.5903516411781311,0.07328085601329803,0.15542151033878326,0.06477592140436172,0.5843413472175598,-0.004945727996528149,0.2406810224056244,0.0624631866812706,0.5836206674575806,0.03882991150021553,0.17169293761253357
20
21
22
23
24
25
26
27
28
29
30
31
32
33
34,0.07598016411066055,0.6229575276374817,-0.10417250543832779,0.9691491723060608,0.08073172718286514,0.6225811839103699,-0.11328071355819702,0.9612388610839844,0.08102784305810928,0.6219751834869385,-0.1132739931344986,0.9568521976470947,0.08130490779876709,0.6213719844818115,-0.11324496567249298,0.9581586122512817,0.08017749339342117,0.624162495136261,-0.1146889179944992,0.9640616774559021,0.08002110570669174,0.6248912811279297,-0.11475130170583725,0.9605941772460938,0.07985850423574448,0.6256212592124939,-0.11484216153621674,0.9630792140960693,0.08031091094017029,0.6197530031204224,-0.12220947444438934,0.9531857371330261,0.07779856026172638,0.6263146996498108,-0.13031885027885437,0.9522895216941833,0.07238070666790009,0.6214655041694641,-0.10351123660802841,0.928590714931488,0.07156666368246078,0.6237120032310486,-0.10593654960393906,0.9326664209365845,0.060238488018512726,0.6201447248458862,-0.10380755364894867,0.6799102425575256,0.06274218112230301,0.622991144657135,-0.110301174223423,0.7414906024932861,0.05261481925845146,0.6026116609573364,-0.06672925502061844,0.24332766234874725,0.054216571152210236,0.6135724782943726,-0.07487852871417999,0.5972586870193481,0.06480249017477036,0.5831142663955688,-0.047998130321502686,0.21684733033180237,0.061419837176799774,0.6059014201164246,-0.04747277498245239,0.4655678868293762,0.067582868039608,0.5786621570587158,-0.05466794967651367,0.2348707765340805,0.0640658289194107,0.6037444472312927,-0.052627481520175934,0.4638131558895111,0.07114274054765701,0.5799057483673096,-0.055512070655822754,0.24611634016036987,0.06616100668907166,0.6032615303993225,-0.05951220542192459,0.47048577666282654,0.0701347291469574,0.5824674963951111,-0.04789115861058235,0.23798684775829315,0.06488654017448425,0.6032819747924805,-0.049687158316373825,0.4556054472923279,0.00019784457981586456,0.5939896106719971,-0.00721138808876276,0.09102018177509308,0.004936177283525467,0.587519645690918,0.007130561862140894,0.08587110787630081,0.011843156069517136,0.5885757803916931,0.09719057381153107,0.15166117250919342,0.01363401673734188,0.5788133144378662,0.11205822229385376,0.12573030591011047,0.003029904328286648,0.5713350772857666,0.21791954338550568,0.19248440861701965,0.00843353196978569,0.5750165581703186,0.22721561789512634,0.12019143998622894,0.002791217528283596,0.5719878673553467,0.23000916838645935,0.16488753259181976,0.008921701461076736,0.5776396989822388,0.23925355076789856,0.15635457634925842,0.0007845843210816383,0.5572640895843506,0.2216150462627411,0.24255341291427612,0.005205478519201279,0.5633319616317749,0.23132595419883728,0.1761631816625595
35,0.08614702522754669,0.6188849806785583,-0.10643132776021957,0.9720010757446289,0.08696287125349045,0.6173976063728333,-0.11438219249248505,0.9648923277854919,0.08691561967134476,0.6158842444419861,-0.11435775458812714,0.9609183669090271,0.08685759454965591,0.6143580079078674,-0.11434675753116608,0.962113618850708,0.08666898310184479,0.6213560700416565,-0.11495532840490341,0.967430055141449,0.08639971911907196,0.6228207349777222,-0.11499430984258652,0.96431964635849,0.08612566441297531,0.6242374777793884,-0.11505665630102158,0.9666025638580322,0.08375542610883713,0.6107386350631714,-0.12294002622365952,0.9574590921401978,0.08204886317253113,0.6250864863395691,-0.1263207495212555,0.9568005800247192,0.08331020176410675,0.6157076358795166,-0.10620099306106567,0.9353590607643127,0.08292640745639801,0.6202809810638428,-0.10693269968032837,0.9391024112701416,0.06998138129711151,0.6016467213630676,-0.10387387126684189,0.7112288475036621,0.07024234533309937,0.6306548714637756,-0.10917185246944427,0.7670299410820007,0.07866878807544708,0.6011577248573303,-0.07823595404624939,0.2892238199710846,0.07986167073249817,0.6646550297737122,-0.09083788096904755,0.6331484317779541,0.09122852981090546,0.5992478132247925,-0.0700065940618515,0.2657284736633301,0.08847130835056305,0.6770549416542053,-0.0973561555147171,0.5168387293815613,0.09416425973176956,0.5982271432876587,-0.08017556369304657,0.2743770480155945,0.09101854264736176,0.6821861267089844,-0.11136964708566666,0.5142216682434082,0.0946764349937439,0.6038988828659058,-0.08560730516910553,0.28737345337867737,0.09076304733753204,0.6789343357086182,-0.1170494556427002,0.5207025408744812,0.09313638508319855,0.6059139966964722,-0.07259362190961838,0.272839218378067,0.08920802175998688,0.6753576397895813,-0.10038001835346222,0.505882978439331,0.019214646890759468,0.5876092314720154,-0.012802081182599068,0.180770605802536,0.02004016563296318,0.5952625870704651,0.012603165581822395,0.17566265165805817,0.03572850674390793,0.5900161862373352,0.08156172931194305,0.17442730069160461,0.0398087203502655,0.5982657670974731,0.1107979565858841,0.11717275530099869,0.03517064079642296,0.571429967880249,0.19728676974773407,0.21234045922756195,0.04119666665792465,0.5809023976325989,0.22321566939353943,0.12432697415351868,0.035772960633039474,0.5722339749336243,0.20846739411354065,0.1790291666984558,0.04034389927983284,0.5805825591087341,0.23374226689338684,0.15945398807525635,0.036416471004486084,0.55986487865448,0.19699805974960327,0.2663750648498535,0.0461331270635128,0.5662816166877747,0.22505371272563934,0.19588632881641388
36,0.08512379974126816,0.6177067160606384,-0.06258945167064667,0.9735875725746155,0.08683973550796509,0.6178448796272278,-0.07073473930358887,0.9673107862472534,0.08693182468414307,0.6167234182357788,-0.07075345516204834,0.96370530128479,0.08700896799564362,0.6152897477149963,-0.07077573984861374,0.9648342132568359,0.0865442231297493,0.6201100945472717,-0.06786327064037323,0.9694393277168274,0.08639688789844513,0.6210173964500427,-0.06783400475978851,0.966690719127655,0.08623543381690979,0.6218851208686829,-0.06785831600427628,0.9686634540557861,0.08576782047748566,0.610970139503479,-0.08353561162948608,0.9600245356559753,0.08413241803646088,0.6222736239433289,-0.07097481191158295,0.9594743847846985,0.08313437551259995,0.6154090166091919,-0.0646132305264473,0.9402035474777222,0.08273442089557648,0.6176964640617371,-0.06105652451515198,0.9433372616767883,0.07892243564128876,0.604934573173523,-0.0793517678976059,0.7397106289863586,0.07575682550668716,0.6239863038063049,-0.05846036598086357,0.789431095123291,0.08411379903554916,0.6083236932754517,-0.06884722411632538,0.33875513076782227,0.07435194402933121,0.6433739066123962,-0.03897986188530922,0.6400929093360901,0.09560908377170563,0.6017650961875916,-0.06239734962582588,0.32344746589660645,0.07889267057180405,0.6514707803726196,-0.03980467468500137,0.5421608686447144,0.09826425462961197,0.60130375623703,-0.0707499235868454,0.32646819949150085,0.08116243779659271,0.6542388796806335,-0.0484599843621254,0.5377275943756104,0.10009455680847168,0.6037660241127014,-0.07421665638685226,0.33948004245758057,0.08182983100414276,0.6540011167526245,-0.05239130184054375,0.5454251766204834,0.09868637472391129,0.6046466827392578,-0.06404998898506165,0.3187206983566284,0.08064471185207367,0.6515847444534302,-0.042084768414497375,0.5274087190628052,0.030329013243317604,0.5915636420249939,-0.012828747741878033,0.26077398657798767,0.03180006518959999,0.5941017270088196,0.012707690708339214,0.25392571091651917,0.040850505232810974,0.5985262393951416,0.08568708598613739,0.19302025437355042,0.045497145503759384,0.5945441722869873,0.11151214689016342,0.10997402667999268,0.039880700409412384,0.5823959708213806,0.19844433665275574,0.23382122814655304,0.04602757468819618,0.5828587412834167,0.21986714005470276,0.13217292726039886,0.04144797474145889,0.5836582779884338,0.20992450416088104,0.20002129673957825,0.046990375965833664,0.5831440091133118,0.23019282519817352,0.16684798896312714,0.03684716671705246,0.5688246488571167,0.2017427235841751,0.2877300977706909,0.04492492228746414,0.5707762241363525,0.22305437922477722,0.21376493573188782
37,0.10292015224695206,0.6192943453788757,-0.05053165555000305,0.9757711291313171,0.10335918515920639,0.6215494275093079,-0.05688554048538208,0.970279335975647,0.10343015193939209,0.6210488677024841,-0.05694066360592842,0.9670379757881165,0.10348403453826904,0.6204414963722229,-0.05696333572268486,0.9680588245391846,0.10290072113275528,0.6226428747177124,-0.05354064702987671,0.9720008969306946,0.1026681438088417,0.6230810880661011,-0.05350438877940178,0.969493567943573,0.10241140425205231,0.6235170960426331,-0.0535212866961956,0.9712149500846863,0.10170696675777435,0.6168288588523865,-0.06611465662717819,0.9636717438697815,0.09979772567749023,0.6223189234733582,-0.05208538845181465,0.9629597067832947,0.10166122764348984,0.6155815124511719,-0.05219807103276253,0.9456658959388733,0.10131925344467163,0.6183256506919861,-0.048136405646800995,0.9481596350669861,0.0967937558889389,0.6078910827636719,-0.06957763433456421,0.765522837638855,0.0922258123755455,0.6130998134613037,-0.032504528760910034,0.8093584179878235,0.11726014316082001,0.6075300574302673,-0.06136840581893921,0.39032217860221863,0.0997554361820221,0.6338703036308289,-0.008666214533150196,0.6254842877388,0.13274259865283966,0.600132167339325,-0.04758504778146744,0.37801894545555115,0.11281688511371613,0.6155458688735962,0.003796858713030815,0.549247145652771,0.13680970668792725,0.5951033234596252,-0.05634784698486328,0.3738213777542114,0.11657550185918808,0.6120316982269287,-0.0007895405287854373,0.5418482422828674,0.13631349802017212,0.5992162227630615,-0.05491539090871811,0.3873049020767212,0.11632578074932098,0.6090089082717896,-0.00793540384620428,0.5524553060531616,0.13413050770759583,0.6002097725868225,-0.04749966785311699,0.3622455298900604,0.1150161400437355,0.6099686026573181,0.0001189567701658234,0.5340373516082764,0.043840691447257996,0.5914076566696167,-0.012314362451434135,0.33456334471702576,0.04527004063129425,0.5815666913986206,0.012176617980003357,0.3282318115234375,0.04473661631345749,0.6032405495643616,0.077769435942173,0.19743812084197998,0.045667313039302826,0.5867415070533752,0.10360743850469589,0.10467713326215744,0.03957035019993782,0.5998175740242004,0.17219534516334534,0.24590946733951569,0.044483013451099396,0.5819689035415649,0.19198769330978394,0.15037667751312256,0.0402335487306118,0.6024895906448364,0.1817571222782135,0.2182510644197464,0.04510863497853279,0.5826322436332703,0.2003127783536911,0.19061903655529022,0.03302019089460373,0.5902257561683655,0.17257659137248993,0.3138544261455536,0.04056072607636452,0.5705991983413696,0.19092553853988647,0.24240127205848694
38,0.11866186559200287,0.6189329028129578,-0.11685425043106079,0.9779459238052368,0.11939384788274765,0.6185407042503357,-0.1252746731042862,0.9730338454246521,0.11984020471572876,0.6167175769805908,-0.12527772784233093,0.9701447486877441,0.12028391659259796,0.614813506603241,-0.12529805302619934,0.9710387587547302,0.11776820570230484,0.6220827698707581,-0.12641370296478271,0.9746145606040955,0.1171625405550003,0.62291419506073,-0.126458078622818,0.972392201423645,0.1165597066283226,0.6235625743865967,-0.12650644779205322,0.9739569425582886,0.11852850764989853,0.6073230504989624,-0.1302812397480011,0.9671071767807007,0.11239965260028839,0.6219623684883118,-0.1367148458957672,0.9665172100067139,0.11692776530981064,0.613365113735199,-0.11486643552780151,0.9507989287376404,0.11543542146682739,0.6177987456321716,-0.11681543290615082,0.9531088471412659,0.1133330836892128,0.5857400894165039,-0.11292620003223419,0.7884438633918762,0.09843943268060684,0.6194018125534058,-0.1181352287530899,0.8282375931739807,0.13715523481369019,0.5792251825332642,-0.09018465876579285,0.44301003217697144,0.10435646772384644,0.6525390148162842,-0.1056421771645546,0.661433756351471,0.161264106631279,0.5745862126350403,-0.0870392844080925,0.43266841769218445,0.11111263930797577,0.670037031173706,-0.10586012899875641,0.5912850499153137,0.16871552169322968,0.5671190023422241,-0.09889625757932663,0.4274643361568451,0.11133117973804474,0.6765331625938416,-0.12052537500858307,0.5837088823318481,0.16712655127048492,0.5725796222686768,-0.10499069839715958,0.4403815269470215,0.11302079260349274,0.6742352843284607,-0.12346843630075455,0.5934910178184509,0.16286209225654602,0.5772591829299927,-0.08913232386112213,0.4114384949207306,0.11246392875909805,0.6697528958320618,-0.10731233656406403,0.5748046636581421,0.06749360263347626,0.5748888254165649,-0.00348472292535007,0.400931715965271,0.06365298479795456,0.5834361910820007,0.003296502633020282,0.3952586054801941,0.06241447851061821,0.5610284209251404,0.07868680357933044,0.21879348158836365,0.05692851543426514,0.572978675365448,0.09033054858446121,0.11282359808683395,0.04910532757639885,0.5485635995864868,0.1815415918827057,0.2691236436367035,0.048360008746385574,0.5520792603492737,0.1837349832057953,0.18273968994617462,0.04598715156316757,0.5475928783416748,0.19123198091983795,0.24520280957221985,0.04583922401070595,0.5473572015762329,0.1940847635269165,0.22612784802913666,0.052552759647369385,0.5426121354103088,0.1843930184841156,0.31256598234176636,0.05348014831542969,0.5436125993728638,0.1892395317554474,0.2483634054660797
39
40
41
42
43
44
45
46
47,0.12354312092065811,0.6836641430854797,-0.08865218609571457,0.9800986051559448,0.12570537626743317,0.6715443730354309,-0.08145961910486221,0.975594162940979,0.1327924281358719,0.6684808135032654,-0.08152453601360321,0.972942590713501,0.13029538094997406,0.6637371182441711,-0.08156204223632812,0.9737647771835327,0.11993346363306046,0.6777523756027222,-0.0847051739692688,0.9770454168319702,0.11982445418834686,0.6774512529373169,-0.08470562845468521,0.9750270247459412,0.11967021226882935,0.6774476170539856,-0.08480033278465271,0.976456880569458,0.1328960806131363,0.6613762378692627,-0.022102918475866318,0.9701252579689026,0.12483139336109161,0.6815820932388306,-0.0389530248939991,0.9697145819664001,0.13246700167655945,0.6857743859291077,-0.06425940245389938,0.9556075930595398,0.12766626477241516,0.6925550103187561,-0.06930860131978989,0.9577263593673706,0.1775496006011963,0.6748954653739929,-0.013335461728274822,0.8095406889915466,0.14888525009155273,0.7257264256477356,-0.013498552143573761,0.8454009294509888,0.2120911180973053,0.6862223744392395,-0.046956054866313934,0.45415979623794556,0.19012749195098877,0.7641246914863586,-0.07300540059804916,0.686292827129364,0.23306842148303986,0.7110236883163452,-0.1461651623249054,0.45465579628944397,0.21258525550365448,0.7453919053077698,-0.1508820354938507,0.6253719925880432,0.2369055300951004,0.7246976494789124,-0.17727598547935486,0.4483881890773773,0.22823628783226013,0.7546045780181885,-0.1695748120546341,0.615760087966919,0.23198263347148895,0.7293810248374939,-0.17868639528751373,0.46047601103782654,0.22849297523498535,0.7464668154716492,-0.18023142218589783,0.624398946762085,0.2339603155851364,0.7183023691177368,-0.15071618556976318,0.43314215540885925,0.2247224599123001,0.7433957457542419,-0.155900776386261,0.6058939099311829,0.29969045519828796,0.7315769195556641,-0.008259009569883347,0.46069952845573425,0.2889467179775238,0.7707838416099548,0.008173204027116299,0.45554855465888977,0.3588910698890686,0.750454306602478,-0.09759999811649323,0.23766760528087616,0.3396991789340973,0.746537983417511,-0.0641777291893959,0.15186405181884766,0.423117071390152,0.7603779435157776,0.02024456486105919,0.2725357115268707,0.4157307744026184,0.7807637453079224,0.050246112048625946,0.20714221894741058,0.4301002025604248,0.7635250687599182,0.030842015519738197,0.26831620931625366,0.42241525650024414,0.7879132628440857,0.061496615409851074,0.2565622329711914,0.4543372094631195,0.7485511302947998,-0.0027190805412828922,0.3190014660358429,0.45155224204063416,0.7873165607452393,0.025273669511079788,0.27038249373435974
48
49
50
51
52
53
54
55
56
57
58,0.1488199383020401,0.646773636341095,-0.010828139260411263,0.9817798137664795,0.15024447441101074,0.641372799873352,-0.017972277477383614,0.9777244329452515,0.15078891813755035,0.6415154933929443,-0.01801963336765766,0.9753172993659973,0.15118254721164703,0.6416451930999756,-0.01806635595858097,0.9761350750923157,0.14785811305046082,0.6412657499313354,-0.005385700147598982,0.9790584444999695,0.1477707028388977,0.64129638671875,-0.005374824162572622,0.9772026538848877,0.1475335955619812,0.6413412690162659,-0.005386264529079199,0.9785518050193787,0.15546157956123352,0.6455045342445374,-0.03235924243927002,0.9728955030441284,0.15329185128211975,0.6435549855232239,0.025310013443231583,0.9724564552307129,0.15197211503982544,0.6520395278930664,-0.014354268088936806,0.9597641229629517,0.15120816230773926,0.651997983455658,0.002129499102011323,0.9616636037826538,0.16609913110733032,0.6707274913787842,-0.06043218821287155,0.8285501003265381,0.16472725570201874,0.6738033294677734,0.06452512741088867,0.8607580661773682,0.17624926567077637,0.7019309997558594,-0.09054528176784515,0.49870312213897705,0.17094142735004425,0.7120473980903625,0.07384637743234634,0.6235580444335938,0.16549044847488403,0.7247536182403564,-0.09511745721101761,0.4856870770454407,0.16660436987876892,0.7331737279891968,0.03558369725942612,0.5758848190307617,0.16471195220947266,0.7306387424468994,-0.10705335438251495,0.4732963740825653,0.16580486297607422,0.7394039630889893,0.03536860644817352,0.5702108144760132,0.16240008175373077,0.7281476855278015,-0.10032396018505096,0.48089081048965454,0.16400393843650818,0.7379429340362549,0.02090802974998951,0.5782991051673889,0.1628834307193756,0.7268895506858826,-0.09219148010015488,0.4505806267261505,0.16437122225761414,0.7362428307533264,0.028590459376573563,0.5615891218185425,0.17551307380199432,0.7608531713485718,-0.04208563268184662,0.5144658088684082,0.17384569346904755,0.7564842104911804,0.042106226086616516,0.5096416473388672,0.17283351719379425,0.7655778527259827,-0.06937692314386368,0.30235639214515686,0.16230511665344238,0.7511288523674011,0.07675578445196152,0.16388140618801117,0.1721026748418808,0.7698835730552673,-0.011787970550358295,0.29685449600219727,0.1706923097372055,0.7700995206832886,0.07256529480218887,0.21554453670978546,0.1732906699180603,0.7701241970062256,-0.0051365564577281475,0.29750582575798035,0.17317767441272736,0.7738208770751953,0.07243276387453079,0.26964685320854187,0.16814669966697693,0.7670906186103821,0.0025429115630686283,0.3337644338607788,0.16529624164104462,0.7719026207923889,0.0727921649813652,0.27909979224205017
59,0.15858802199363708,0.6727567315101624,0.002450785366818309,0.9833571910858154,0.1596444845199585,0.6673427224159241,-0.0038823795039206743,0.9797605872154236,0.1599893569946289,0.6673159003257751,-0.003908208571374416,0.9775967001914978,0.1603257954120636,0.6673107147216797,-0.003932597115635872,0.9783775210380554,0.15971268713474274,0.667073130607605,0.003455245168879628,0.9810129404067993,0.15996739268302917,0.6668975353240967,0.0034537981264293194,0.9793422818183899,0.16025185585021973,0.6667138934135437,0.0033961650915443897,0.980552613735199,0.16372287273406982,0.6681563258171082,-0.020323654636740685,0.9754289984703064,0.16389283537864685,0.6673212051391602,0.01637147180736065,0.9750772714614868,0.1602267324924469,0.6771729588508606,-0.0013367936480790377,0.9635870456695557,0.1601850688457489,0.6769870519638062,0.008287732489407063,0.9652178287506104,0.16846582293510437,0.690628170967102,-0.033649712800979614,0.8456761240959167,0.17425969243049622,0.6869819760322571,0.04561987891793251,0.8746300339698792,0.1776893138885498,0.7372663617134094,-0.03953275829553604,0.49221161007881165,0.1742379069328308,0.7283291220664978,0.047752734273672104,0.5686252117156982,0.17075689136981964,0.753771960735321,-0.04059017077088356,0.4735981523990631,0.16855791211128235,0.749645471572876,0.024532975628972054,0.5228589773178101,0.16970179975032806,0.7566049098968506,-0.05033964663743973,0.4600010812282562,0.16828498244285583,0.7540492415428162,0.0252838097512722,0.5184795260429382,0.16950437426567078,0.752056360244751,-0.04615934565663338,0.46545013785362244,0.16660013794898987,0.7524644732475281,0.01749299094080925,0.5253883004188538,0.16945162415504456,0.7509576678276062,-0.0392829105257988,0.4340111315250397,0.16662916541099548,0.7507758736610413,0.020963575690984726,0.5105128884315491,0.17563112080097198,0.760448157787323,-0.036389000713825226,0.5629317760467529,0.1815805584192276,0.7563455104827881,0.036386169493198395,0.5585411787033081,0.13392199575901031,0.7582112550735474,-0.05126143619418144,0.35858920216560364,0.17163018882274628,0.7497702240943909,0.06798941642045975,0.1777334064245224,0.08889605849981308,0.7691667675971985,-0.03969290107488632,0.3607604205608368,0.1618025004863739,0.7704442143440247,0.0829281136393547,0.232675239443779,0.08411619812250137,0.7741290330886841,-0.03907354921102524,0.36025986075401306,0.16072821617126465,0.776018500328064,0.08483237028121948,0.29521986842155457,0.07158534228801727,0.7539213299751282,-0.06548670679330826,0.38724279403686523,0.15209797024726868,0.7704546451568604,0.07511782646179199,0.28821811079978943
60,0.1645704209804535,0.6632493138313293,0.011976394802331924,0.9846802353858948,0.16369985044002533,0.6582708954811096,0.0041381241753697395,0.9815513491630554,0.16315706074237823,0.6583036184310913,0.004118222277611494,0.9795934557914734,0.162636861205101,0.6583493947982788,0.004098169971257448,0.980344831943512,0.1673699915409088,0.6594523787498474,0.0053741540759801865,0.9827439785003662,0.1682039201259613,0.6593445539474487,0.005357472226023674,0.9812599420547485,0.1690738946199417,0.6592429280281067,0.005310201086103916,0.9823731780052185,0.16352418065071106,0.6603449583053589,-0.020680123940110207,0.9776409864425659,0.17179539799690247,0.6618118286132812,-0.014975467696785927,0.9774287939071655,0.16558094322681427,0.6681196093559265,0.005139521323144436,0.9668378233909607,0.16886745393276215,0.668717622756958,0.007612505462020636,0.9683435559272766,0.16653701663017273,0.6878806948661804,-0.022671077400445938,0.8609884977340698,0.1861913502216339,0.6885204315185547,-0.008614219725131989,0.8871066570281982,0.17599108815193176,0.7278571724891663,0.00927327387034893,0.46324214339256287,0.18963974714279175,0.7258402705192566,0.005079707130789757,0.5223010182380676,0.1714383214712143,0.7467097640037537,0.061594195663928986,0.44197478890419006,0.18260248005390167,0.7460811138153076,0.0149573665112257,0.4833644926548004,0.16982272267341614,0.7488795518875122,0.06788042187690735,0.4310389459133148,0.18184953927993774,0.7536091208457947,0.017961235716938972,0.4841395616531372,0.17017023265361786,0.7436700463294983,0.07072693854570389,0.4345965087413788,0.17976903915405273,0.7515857219696045,0.013910504058003426,0.48924535512924194,0.17097416520118713,0.7438756823539734,0.0646028146147728,0.4040868282318115,0.17980246245861053,0.7496660947799683,0.013901710510253906,0.47397100925445557,0.1742544174194336,0.7572709918022156,-0.013276922516524792,0.6065722703933716,0.18505722284317017,0.754357099533081,0.013111045584082603,0.6026427149772644,0.15181125700473785,0.7540442943572998,0.02825738489627838,0.37281444668769836,0.18231216073036194,0.7508062124252319,0.05087217688560486,0.21272745728492737,0.1336362063884735,0.768462598323822,0.003603438613936305,0.3889590799808502,0.1926332414150238,0.7871306538581848,-0.0027102248277515173,0.27981507778167725,0.13300718367099762,0.77386873960495,0.0007974623586051166,0.390829473733902,0.1950627565383911,0.7928704023361206,-0.007553805597126484,0.3469966650009155,0.12305452674627304,0.7543415427207947,-0.010947353206574917,0.416410893201828,0.1932624727487564,0.797521710395813,-0.013664906844496727,0.33115142583847046
61,0.167506605386734,0.6747884154319763,0.010461237281560898,0.9857707023620605,0.1666325330734253,0.6698301434516907,-0.00016005279030650854,0.9831933975219727,0.16630274057388306,0.6699373126029968,-0.00018539020675234497,0.9814426898956299,0.1659720093011856,0.6700632572174072,-0.00021762619144283235,0.982155978679657,0.168596088886261,0.6691049933433533,0.005102673079818487,0.9842337369918823,0.16936279833316803,0.6686602234840393,0.005104579962790012,0.9829091429710388,0.1701717972755432,0.6682261228561401,0.00506058381870389,0.9839240312576294,0.16751541197299957,0.670498251914978,-0.03329067677259445,0.9796870946884155,0.17343725264072418,0.6683002710342407,-0.009916773065924644,0.9794234037399292,0.1684630811214447,0.678420901298523,0.001284262165427208,0.9696659445762634,0.17041613161563873,0.6776763200759888,0.007927121594548225,0.9708805084228516,0.16774532198905945,0.690967857837677,-0.04275739938020706,0.8748689889907837,0.18970412015914917,0.6857239603996277,0.005906039848923683,0.8983200788497925,0.17599444091320038,0.7300384044647217,-0.040739886462688446,0.4727291166782379,0.18934859335422516,0.7234240770339966,-0.0016136125195771456,0.47765856981277466,0.1725517213344574,0.7510015964508057,-0.021181410178542137,0.44518163800239563,0.18410679697990417,0.7458363175392151,-0.026867445558309555,0.4395117461681366,0.17246195673942566,0.7560752034187317,-0.027257492765784264,0.429634690284729,0.18379083275794983,0.7518531680107117,-0.02900630794465542,0.44132184982299805,0.17176982760429382,0.7518893480300903,-0.024195048958063126,0.43206384778022766,0.18251189589500427,0.7504650950431824,-0.032941125333309174,0.4453983008861542,0.17220181226730347,0.7497595548629761,-0.019408028572797775,0.40100452303886414,0.18249666690826416,0.7483214139938354,-0.029052073135972023,0.43187493085861206,0.17531239986419678,0.7559425830841064,-0.021575676277279854,0.6458646655082703,0.19420155882835388,0.7514623403549194,0.021515771746635437,0.6423141956329346,0.1453658789396286,0.7574182748794556,-0.0249762125313282,0.42715415358543396,0.21575458347797394,0.7595523595809937,0.039641380310058594,0.2593039870262146,0.11393419653177261,0.7729071378707886,-0.03395100682973862,0.44408079981803894,0.237543985247612,0.782258927822113,0.03530239313840866,0.31804636120796204,0.11114535480737686,0.7795237302780151,-0.0347035750746727,0.4449426233768463,0.23980259895324707,0.7876554727554321,0.03553672879934311,0.3794882595539093,0.10085971653461456,0.7549117803573608,-0.05966707319021225,0.46106287837028503,0.24474219977855682,0.7832947969436646,0.026194671168923378,0.3471249043941498
62,0.1758062094449997,0.6754886507987976,0.013912205584347248,0.986973226070404,0.17435087263584137,0.6719751954078674,0.0022408009972423315,0.9847882986068726,0.1735159456729889,0.6721764802932739,0.002228253986686468,0.9832162261009216,0.17266947031021118,0.672397792339325,0.0022100985515862703,0.98387610912323,0.17717505991458893,0.6712192893028259,0.004367443732917309,0.9857216477394104,0.17823420464992523,0.6709133982658386,0.0043599558994174,0.9845353960990906,0.17934122681617737,0.6706231236457825,0.004306192509829998,0.9854511618614197,0.17246845364570618,0.6749181151390076,-0.034010544419288635,0.9816315770149231,0.18219445645809174,0.6726359724998474,-0.027170181274414062,0.9813998341560364,0.17554858326911926,0.6794717311859131,0.0036137152928858995,0.9725431799888611,0.17833200097084045,0.6787741780281067,0.007336796261370182,0.9735878109931946,0.1671353280544281,0.6947605013847351,-0.037476249039173126,0.8873148560523987,0.19776174426078796,0.6901116967201233,-0.03182964026927948,0.9084666967391968,0.16425418853759766,0.7366148233413696,-0.007616902701556683,0.4731288552284241,0.20323248207569122,0.7257630825042725,-0.02870611846446991,0.47228652238845825,0.17105549573898315,0.7517420053482056,0.03486650437116623,0.41402238607406616,0.19466230273246765,0.7479080557823181,-0.02540605701506138,0.4066389203071594,0.1715773642063141,0.7571656703948975,0.03349619358778,0.39708274602890015,0.1931663304567337,0.7541847825050354,-0.025962013751268387,0.407028466463089,0.1707308143377304,0.7534052133560181,0.03330371901392937,0.39944255352020264,0.19148126244544983,0.7534529566764832,-0.029117587953805923,0.41007494926452637,0.1711347997188568,0.7506962418556213,0.035476308315992355,0.3717094361782074,0.19176806509494781,0.7505958080291748,-0.026348814368247986,0.3982042670249939,0.17545269429683685,0.7557290196418762,0.0017632037634029984,0.6812446713447571,0.19962261617183685,0.7507101893424988,-0.00187724269926548,0.6780702471733093,0.14033666253089905,0.7581858038902283,0.0221821591258049,0.4817807972431183,0.2275879830121994,0.7594449520111084,0.04456029832363129,0.3297795355319977,0.10724016278982162,0.7708960175514221,0.05759965628385544,0.49543818831443787,0.24803631007671356,0.7845190167427063,0.0661979615688324,0.3810994625091553,0.10343638807535172,0.779072105884552,0.06250058114528656,0.49179747700691223,0.2493675947189331,0.7915595173835754,0.0702858418226242,0.4325253963470459,0.09593942761421204,0.7577196359634399,0.046102602034807205,0.5014315247535706,0.26025962829589844,0.7837024927139282,0.0576784610748291,0.39431554079055786
63,0.1815091371536255,0.6804630756378174,0.010363813489675522,0.9877328276634216,0.17962393164634705,0.6777306795120239,0.0004053743614349514,0.9859566688537598,0.17865335941314697,0.6781591773033142,0.00038790126563981175,0.9845650792121887,0.17768648266792297,0.6786143183708191,0.0003674292820505798,0.9851896166801453,0.18261821568012238,0.6765487790107727,0.003602593671530485,0.9867895841598511,0.18371908366680145,0.6761792898178101,0.0035515055060386658,0.9857324957847595,0.18484851717948914,0.6758244633674622,0.0034614079631865025,0.9865308403968811,0.17662857472896576,0.6818253397941589,-0.03327243775129318,0.9831597805023193,0.1874556690454483,0.6782407760620117,-0.030484071001410484,0.9829391837120056,0.18083645403385162,0.6846078634262085,0.001211316674016416,0.9747191071510315,0.18400074541568756,0.6833041310310364,0.002844178816303611,0.9755334854125977,0.16882279515266418,0.6959390640258789,-0.03339340165257454,0.8985377550125122,0.2009264975786209,0.6938530206680298,-0.036220621317625046,0.9175909161567688,0.1673646867275238,0.7307688593864441,-0.022665590047836304,0.44510534405708313,0.19900992512702942,0.7244716286659241,-0.03771396353840828,0.4448392391204834,0.176559716463089,0.7495302557945251,-0.0068526072427630424,0.38701963424682617,0.195929616689682,0.747597873210907,-0.02788073755800724,0.3703862726688385,0.17650136351585388,0.7558324933052063,-0.00875835306942463,0.3724868893623352,0.19576822221279144,0.7539800405502319,-0.02692635916173458,0.37100571393966675,0.17740711569786072,0.7534874677658081,-0.008703790605068207,0.37413153052330017,0.1946105659008026,0.7543781995773315,-0.027580227702856064,0.3732210695743561,0.17839062213897705,0.7509482502937317,-0.00634279940277338,0.3460162878036499,0.19425591826438904,0.7517497539520264,-0.027742166072130203,0.3626181483268738,0.18018589913845062,0.7559125423431396,0.004090609960258007,0.7130955457687378,0.2015974074602127,0.751232385635376,-0.004333533812314272,0.7102433443069458,0.1656414419412613,0.7534301280975342,0.033869918435811996,0.4555354714393616,0.21978060901165009,0.764051079750061,0.03919494152069092,0.33861321210861206,0.14940926432609558,0.76121586561203,0.0025980935897678137,0.5013288259506226,0.22122183442115784,0.7822809219360352,-0.010418510064482689,0.39647623896598816,0.1481010913848877,0.7649629712104797,-0.0063375188037753105,0.5045937895774841,0.2203904688358307,0.7888931632041931,-0.014898094348609447,0.46003279089927673,0.14422456920146942,0.7558847665786743,-0.02085930109024048,0.5036135315895081,0.22415976226329803,0.7884483337402344,-0.019079122692346573,0.39928653836250305
64
65
66
67
68
69
70,0.20296117663383484,0.6591117978096008,-0.10995440185070038,0.9887558221817017,0.2134634256362915,0.6471214294433594,-0.1152416318655014,0.987166166305542,0.21537432074546814,0.6457588076591492,-0.11532197147607803,0.9859182238578796,0.2189013659954071,0.6452387571334839,-0.11548085510730743,0.9865064024925232,0.21108222007751465,0.6506621837615967,-0.10016558319330215,0.987858772277832,0.21142640709877014,0.6517053246498108,-0.10006096214056015,0.9868435263633728,0.21143682301044464,0.6522872447967529,-0.10002098232507706,0.9876251220703125,0.22220607101917267,0.6479639410972595,-0.10742555558681488,0.9846300482749939,0.21585163474082947,0.6597380042076111,-0.03931353613734245,0.9842131733894348,0.21137157082557678,0.6682496666908264,-0.10410664230585098,0.9770259261131287,0.20750078558921814,0.6736872792243958,-0.08493726700544357,0.9777299761772156,0.22567220032215118,0.6862232685089111,-0.15078189969062805,0.9086657762527466,0.2437235414981842,0.7194585800170898,0.03911367803812027,0.9256819486618042,0.21422763168811798,0.6641318798065186,-0.2038409411907196,0.49819788336753845,0.31392553448677063,0.7339743375778198,0.06488005816936493,0.40308159589767456,0.16547685861587524,0.6478551626205444,-0.2217089682817459,0.4422222971916199,0.3414720892906189,0.7231371998786926,0.02569616213440895,0.33725205063819885,0.15437738597393036,0.6411199569702148,-0.25166767835617065,0.42344963550567627,0.3524322509765625,0.7188290953636169,0.02740931138396263,0.33931630849838257,0.1520809829235077,0.6395507454872131,-0.23192021250724792,0.423173725605011,0.3459106981754303,0.7223894596099854,0.0009191461140289903,0.3415331542491913,0.15698665380477905,0.6421276926994324,-0.21538598835468292,0.3964560925960541,0.34070679545402527,0.7222802639007568,0.013522254303097725,0.33251339197158813,0.3467261493206024,0.7545111179351807,-0.0414356105029583,0.7417517304420471,0.35286709666252136,0.7830851078033447,0.0414763018488884,0.7391490936279297,0.43667322397232056,0.6742362976074219,-0.09767099469900131,0.5041433572769165,0.45721235871315,0.7791939377784729,-0.02927059307694435,0.3607850670814514,0.4514840245246887,0.6438712477684021,0.0730748176574707,0.5209057331085205,0.46232375502586365,0.6821905970573425,0.15209700167179108,0.37576040625572205,0.4463939070701599,0.6446167826652527,0.09453950822353363,0.5179780721664429,0.4552883207798004,0.6675630211830139,0.17574891448020935,0.4391610622406006,0.4746485650539398,0.6176480650901794,0.08456068485975266,0.5194891691207886,0.4850026071071625,0.6513808965682983,0.1826416403055191,0.3847070336341858
71,0.2229350507259369,0.6495586037635803,-0.09757386147975922,0.9883549213409424,0.2265525758266449,0.638264536857605,-0.09980662167072296,0.9867289066314697,0.22976231575012207,0.6377102732658386,-0.0998423844575882,0.9850954413414001,0.2321963608264923,0.6346485018730164,-0.09992585331201553,0.9858679175376892,0.22284655272960663,0.6413449048995972,-0.09057354927062988,0.9860566258430481,0.22245562076568604,0.6419993042945862,-0.09055463969707489,0.9843644499778748,0.22191853821277618,0.6424339413642883,-0.09059716761112213,0.9858907461166382,0.2346326857805252,0.6391108632087708,-0.0928528681397438,0.9837430715560913,0.2273438274860382,0.6470314264297485,-0.04521632939577103,0.9824478626251221,0.22908632457256317,0.6598824858665466,-0.09310442954301834,0.9775731563568115,0.22486774623394012,0.6630784869194031,-0.08110655844211578,0.9773440957069397,0.27039822936058044,0.6720042824745178,-0.1058235913515091,0.917375922203064,0.2446269989013672,0.6915283799171448,-0.021409178152680397,0.9327054619789124,0.3176678419113159,0.6702582240104675,-0.11859825998544693,0.5057100653648376,0.19758868217468262,0.662423849105835,-0.06013983488082886,0.4373938739299774,0.3572566509246826,0.6894453763961792,-0.16021676361560822,0.4278146028518677,0.13872112333774567,0.6208648085594177,-0.07381315529346466,0.38395893573760986,0.37125927209854126,0.6935070157051086,-0.18160128593444824,0.4057824909687042,0.12397710233926773,0.6085997819900513,-0.08728152513504028,0.37725940346717834,0.3674773573875427,0.6953359246253967,-0.18154621124267578,0.4053916931152344,0.12282850593328476,0.608330488204956,-0.089719757437706,0.3777739405632019,0.36185222864151,0.6958659887313843,-0.16267599165439606,0.38185206055641174,0.12895654141902924,0.6133092045783997,-0.07983119785785675,0.3709050118923187,0.38329020142555237,0.722749650478363,-0.031871214509010315,0.7667051553726196,0.37852245569229126,0.7518690824508667,0.03181534260511398,0.7647225260734558,0.46390095353126526,0.6786887645721436,-0.07447934150695801,0.5011870861053467,0.45747703313827515,0.7767260074615479,-0.015143243595957756,0.3605746924877167,0.5261257886886597,0.7400345206260681,0.05820341780781746,0.5063769817352295,0.5442807078361511,0.7590572237968445,0.10605226457118988,0.37812620401382446,0.53133624792099,0.7497567534446716,0.06912548094987869,0.5096321105957031,0.5545052886009216,0.7538873553276062,0.11619466543197632,0.4463973641395569,0.5533066987991333,0.7491708993911743,0.014820421114563942,0.5022642016410828,0.5750104188919067,0.7681961059570312,0.06580926477909088,0.3856481611728668
72
73,0.26571035385131836,0.617411196231842,0.03625887632369995,0.9892246723175049,0.2599727511405945,0.604920506477356,0.027591552585363388,0.9877322316169739,0.25878578424453735,0.6096417903900146,0.027511488646268845,0.9862193465232849,0.25878214836120605,0.609385073184967,0.02745889686048031,0.9869902729988098,0.2586251497268677,0.6056705713272095,0.025444701313972473,0.987103283405304,0.2581712007522583,0.6058546304702759,0.02547399140894413,0.9854998588562012,0.25753921270370483,0.6057112216949463,0.02535885199904442,0.9869771599769592,0.2609718143939972,0.6157688498497009,0.014235486276447773,0.9848612546920776,0.267572283744812,0.6188840866088867,0.003648093668743968,0.9838464260101318,0.27297815680503845,0.6302064657211304,0.036203134804964066,0.9795385599136353,0.2733372449874878,0.6276177167892456,0.032875724136829376,0.9793601632118225,0.3114863634109497,0.6773074269294739,0.042269982397556305,0.9255152344703674,0.3038833737373352,0.6814378499984741,-0.023446664214134216,0.9393602609634399,0.39341312646865845,0.6888585686683655,0.06680476665496826,0.47262489795684814,0.3820079267024994,0.7284859418869019,-0.022349203005433083,0.41045665740966797,0.4389333724975586,0.66897052526474,0.03365219011902809,0.4105546772480011,0.436306893825531,0.7405516505241394,0.004756164271384478,0.35924577713012695,0.453320175409317,0.6623579263687134,0.02434512972831726,0.39129579067230225,0.4536828398704529,0.7433785200119019,0.0005954477819614112,0.35600706934928894,0.44959110021591187,0.6553332805633545,0.010743100196123123,0.39104968309402466,0.45087164640426636,0.7405952215194702,-0.014712455682456493,0.35623204708099365,0.4445468783378601,0.6579968333244324,0.025763537734746933,0.3684418797492981,0.4446280598640442,0.7416765093803406,-0.0011231016833335161,0.34898850321769714,0.44666582345962524,0.7539393305778503,0.053795866668224335,0.789315402507782,0.44278067350387573,0.7640089392662048,-0.05384889990091324,0.7877416014671326,0.5487191677093506,0.7409354448318481,0.0525173656642437,0.4955545961856842,0.5468595027923584,0.7672098875045776,-0.05202452093362808,0.403484046459198,0.6452068090438843,0.7891107201576233,0.11059682071208954,0.5147136449813843,0.658143937587738,0.7893698811531067,0.018126212060451508,0.41239601373672485,0.658460259437561,0.808634340763092,0.11348246037960052,0.5177276134490967,0.6693781614303589,0.8036203980445862,0.022297697141766548,0.45610567927360535,0.6603228449821472,0.7231939435005188,0.053952984511852264,0.5124960541725159,0.7046283483505249,0.7471556067466736,-0.04427555575966835,0.41594377160072327
74
75
76
77
78
79
80
81
82
83
84,0.49838095903396606,0.4367799162864685,-0.015237676911056042,0.9902940988540649,0.49111300706863403,0.42839890718460083,-0.00161259644664824,0.9889541864395142,0.49041947722435,0.42844170331954956,-0.0017122967401519418,0.9875918626785278,0.48969927430152893,0.42850780487060547,-0.0017213576938956976,0.9882867932319641,0.4895142614841461,0.42878055572509766,-0.03537090867757797,0.9883881211280823,0.48786693811416626,0.429236501455307,-0.03544183447957039,0.9869437217712402,0.4860770106315613,0.4298028349876404,-0.03547840937972069,0.9882757663726807,0.47897210717201233,0.4334712028503418,0.05526737496256828,0.9863687753677368,0.4758271276950836,0.435565322637558,-0.09624408930540085,0.9854570031166077,0.49535441398620605,0.44551247358322144,0.007502816617488861,0.981575071811676,0.49334269762039185,0.4459609389305115,-0.03659942373633385,0.9814194440841675,0.4676225781440735,0.5187985301017761,0.13939476013183594,0.9326375722885132,0.46180301904678345,0.5157380104064941,-0.18056577444076538,0.9454036355018616,0.4567081332206726,0.593671441078186,0.1700166016817093,0.4275062382221222,0.4542522430419922,0.6094772219657898,-0.23065456748008728,0.456712931394577,0.4596119523048401,0.6505964398384094,0.12504872679710388,0.37223660945892334,0.45347779989242554,0.67339026927948,-0.18874500691890717,0.384743332862854,0.46108585596084595,0.6695424914360046,0.12990066409111023,0.3557097017765045,0.4487842619419098,0.6907529234886169,-0.21527579426765442,0.3803420066833496,0.45973628759384155,0.667367696762085,0.1058557778596878,0.3555229902267456,0.4539877772331238,0.690921425819397,-0.2081286460161209,0.3785780668258667,0.4589499831199646,0.6611780524253845,0.1121835857629776,0.33549946546554565,0.4557349681854248,0.6857427954673767,-0.18459662795066833,0.3681565523147583,0.46967536211013794,0.693935215473175,0.09994924068450928,0.8102025389671326,0.46316781640052795,0.7039470076560974,-0.099514439702034,0.8088460564613342,0.5368149876594543,0.7121702432632446,0.0684192031621933,0.5063754320144653,0.5732125639915466,0.7468851208686829,-0.07708446681499481,0.46222957968711853,0.5023378133773804,0.7801806330680847,0.08511900156736374,0.5304216742515564,0.6866323947906494,0.7766720056533813,-0.09275655448436737,0.4702167212963104,0.4860772490501404,0.8128678798675537,0.08500485122203827,0.5422924757003784,0.7010984420776367,0.7948598861694336,-0.09805721789598465,0.5090453028678894,0.5013413429260254,0.7911632061004639,0.0456400066614151,0.5336992144584656,0.7265370488166809,0.7529728412628174,-0.17273278534412384,0.47219783067703247
85,0.4970339834690094,0.44016319513320923,-0.02915906347334385,0.9911313652992249,0.4881595969200134,0.4276217222213745,-0.01791464164853096,0.9899658560752869,0.4859359860420227,0.4278663098812103,-0.01800805702805519,0.9887413382530212,0.48468461632728577,0.42831698060035706,-0.01802927441895008,0.9893732070922852,0.48595842719078064,0.4277227222919464,-0.05005471035838127,0.9894518256187439,0.48266667127609253,0.4284433424472809,-0.05012475699186325,0.9881400465965271,0.4801623821258545,0.42953768372535706,-0.050181496888399124,0.9893696308135986,0.4723239839076996,0.4362795948982239,0.03605871647596359,0.9875697493553162,0.46748241782188416,0.4654431641101837,-0.10799549520015717,0.9868015646934509,0.4914461672306061,0.4524990916252136,-0.0064405640587210655,0.9832708239555359,0.48955100774765015,0.47897154092788696,-0.048471491783857346,0.983204185962677,0.4669300615787506,0.533306360244751,0.11557209491729736,0.938100278377533,0.4557294249534607,0.5303980708122253,-0.17959842085838318,0.9507937431335449,0.45163536071777344,0.602276623249054,0.13642625510692596,0.3865816593170166,0.447836697101593,0.6131542325019836,-0.22658994793891907,0.48039910197257996,0.4494771361351013,0.6506961584091187,0.07848409563302994,0.33672577142715454,0.460880845785141,0.6559313535690308,-0.18874111771583557,0.379794180393219,0.44882678985595703,0.6694194078445435,0.07722555845975876,0.3224474787712097,0.46291226148605347,0.6688396334648132,-0.2150983065366745,0.3772047162055969,0.44903627038002014,0.6667996644973755,0.05560944601893425,0.3223765790462494,0.46662768721580505,0.6646032333374023,-0.20611870288848877,0.3736644685268402,0.4491208493709564,0.6605855226516724,0.06626391410827637,0.3045305907726288,0.465134859085083,0.6605159640312195,-0.18416140973567963,0.3599311113357544,0.47030109167099,0.6926364302635193,0.0968889370560646,0.8280839323997498,0.46336594223976135,0.703962504863739,-0.0964604988694191,0.827650249004364,0.5345059633255005,0.6974131464958191,0.10159699618816376,0.5025104284286499,0.5729112029075623,0.748521089553833,-0.11338071525096893,0.5153059959411621,0.5225009322166443,0.771036684513092,0.1542474329471588,0.5474603772163391,0.6793545484542847,0.7833621501922607,-0.14952298998832703,0.5226709246635437,0.5188092589378357,0.7859581112861633,0.15691937506198883,0.5621313452720642,0.6914483308792114,0.8023896813392639,-0.15653103590011597,0.5571433901786804,0.5349216461181641,0.7778968811035156,0.11434181779623032,0.5547845363616943,0.7171535491943359,0.7536930441856384,-0.23764808475971222,0.5236760973930359
86,0.4945995807647705,0.43913131952285767,-0.05444760248064995,0.992007851600647,0.4871317446231842,0.4262550175189972,-0.041738905012607574,0.9909608364105225,0.4856615662574768,0.42635080218315125,-0.04183715581893921,0.9898592829704285,0.4845932424068451,0.42662662267684937,-0.041861195117235184,0.9904281497001648,0.48462289571762085,0.4263137876987457,-0.0746379941701889,0.990497350692749,0.48179593682289124,0.42669135332107544,-0.07470434904098511,0.9893160462379456,0.47922253608703613,0.4273681044578552,-0.07473905384540558,0.9904249310493469,0.47131872177124023,0.43413013219833374,0.016335342079401016,0.9887987971305847,0.46607470512390137,0.4456433057785034,-0.12967924773693085,0.9881144165992737,0.48999691009521484,0.45150426030158997,-0.02991725504398346,0.9849323630332947,0.4873448312282562,0.46245676279067993,-0.07239685952663422,0.9848784804344177,0.4632166922092438,0.5174843668937683,0.11040103435516357,0.9440464377403259,0.4536817669868469,0.5169909596443176,-0.19872024655342102,0.9557062387466431,0.4429229199886322,0.5921099185943604,0.12579157948493958,0.3494657278060913,0.445209264755249,0.6081023812294006,-0.25573667883872986,0.5286081433296204,0.44371262192726135,0.6552205681800842,0.04399702325463295,0.30509066581726074,0.4536147713661194,0.6595762372016907,-0.2333282232284546,0.4305824041366577,0.44357696175575256,0.6770835518836975,0.04203197732567787,0.29398494958877563,0.44979333877563477,0.6740988492965698,-0.26433587074279785,0.42328646779060364,0.4432705044746399,0.6768720746040344,0.016496820375323296,0.29396089911460876,0.45471376180648804,0.6712251901626587,-0.25263625383377075,0.41628509759902954,0.4426494240760803,0.669711172580719,0.02966218814253807,0.27831435203552246,0.45589956641197205,0.6664156317710876,-0.2278124988079071,0.397272527217865,0.46978050470352173,0.665153443813324,0.09919306635856628,0.8448458909988403,0.46335944533348083,0.6797837615013123,-0.09883446246385574,0.8447737693786621,0.5377483367919922,0.6789541244506836,0.10933396965265274,0.49347472190856934,0.5772122144699097,0.7497566938400269,-0.11185535043478012,0.5634780526161194,0.5384608507156372,0.7578876614570618,0.17401282489299774,0.5536390542984009,0.6830869913101196,0.7961645126342773,-0.13742029666900635,0.5701265931129456,0.5366730690002441,0.7715736031532288,0.17747239768505096,0.577725350856781,0.6924282312393188,0.8185155987739563,-0.1445867419242859,0.6010228991508484,0.555773138999939,0.7635146975517273,0.1370164155960083,0.5756029486656189,0.7227970957756042,0.7810995578765869,-0.23017272353172302,0.5706701278686523
87,0.4886813163757324,0.4350002110004425,-0.01631229743361473,0.9906005263328552,0.481056272983551,0.42536672949790955,-0.0065571581944823265,0.9902626276016235,0.47999054193496704,0.4254208207130432,-0.006649094633758068,0.9893084168434143,0.4788367748260498,0.4255477488040924,-0.0066961320117115974,0.9902352690696716,0.4784267544746399,0.4255383312702179,-0.03683806210756302,0.9890027642250061,0.47581928968429565,0.42585745453834534,-0.03683457896113396,0.9879840016365051,0.47326722741127014,0.4263177514076233,-0.03682668134570122,0.9891112446784973,0.4665294587612152,0.4324007034301758,0.04336170107126236,0.9879968762397766,0.46171507239341736,0.4376637041568756,-0.09356747567653656,0.985680341720581,0.48446306586265564,0.44478195905685425,0.006033779121935368,0.9828146696090698,0.4818207621574402,0.44764140248298645,-0.03399909287691116,0.9824965596199036,0.4601757526397705,0.4832351803779602,0.12538091838359833,0.9478238821029663,0.45390549302101135,0.4762350916862488,-0.1599847972393036,0.9597200751304626,0.4451153874397278,0.5578920841217041,0.1628032773733139,0.3162018656730652,0.4558085501194,0.4801870286464691,-0.2662595808506012,0.5689428448677063,0.4463728964328766,0.6213216185569763,0.06366473436355591,0.2765139639377594,0.46504440903663635,0.4648248553276062,-0.30364537239074707,0.4647650122642517,0.44598087668418884,0.6393851041793823,0.074571892619133,0.26768526434898376,0.46607813239097595,0.46322253346443176,-0.3377457857131958,0.4526400864124298,0.4450169503688812,0.6406617760658264,0.05024904012680054,0.26792553067207336,0.4657367169857025,0.45996996760368347,-0.32349273562431335,0.44454512000083923,0.44469112157821655,0.6340139508247375,0.050376392900943756,0.25402334332466125,0.4632621705532074,0.46256890892982483,-0.2991867959499359,0.4201214015483856,0.46004122495651245,0.6260401606559753,0.0991615504026413,0.8592990636825562,0.45447930693626404,0.6326518654823303,-0.09883307665586472,0.8593828678131104,0.5205357074737549,0.6784899234771729,0.1030033677816391,0.4528231620788574,0.5138362050056458,0.7071352005004883,-0.10481169074773788,0.5967289209365845,0.5121227502822876,0.7781807780265808,0.14366331696510315,0.5115589499473572,0.5526313781738281,0.7987784147262573,-0.10251939296722412,0.6020212173461914,0.4913312494754791,0.8051996231079102,0.1465246081352234,0.5405979752540588,0.548315167427063,0.8221743702888489,-0.10428808629512787,0.6293086409568787,0.5506504774093628,0.8067575097084045,0.10228390991687775,0.5428588390350342,0.60039883852005,0.7995249032974243,-0.16395863890647888,0.6004099249839783
88,0.4789338707923889,0.42629462480545044,-0.0117871118709445,0.9894906282424927,0.47351932525634766,0.41883140802383423,-0.0009232101729139686,0.9895195364952087,0.47260746359825134,0.418582946062088,-0.0009713156032375991,0.9880990982055664,0.47166579961776733,0.4181811511516571,-0.0009783642599359155,0.9898224472999573,0.47136935591697693,0.4186291992664337,-0.028722116723656654,0.9886619448661804,0.46918177604675293,0.41824784874916077,-0.02868329919874668,0.9874694347381592,0.4671986699104309,0.41778916120529175,-0.028694700449705124,0.9887888431549072,0.4615496098995209,0.4214220345020294,0.0465124137699604,0.9862878322601318,0.457515150308609,0.4226685166358948,-0.07917166501283646,0.9847776293754578,0.47526031732559204,0.4346536695957184,0.008677475154399872,0.9808527827262878,0.47280874848365784,0.4342728853225708,-0.02834230661392212,0.9795477986335754,0.45597848296165466,0.4556931257247925,0.11023684591054916,0.9491767287254333,0.44992274045944214,0.45445287227630615,-0.14486613869667053,0.9626040458679199,0.4513908326625824,0.3900921046733856,0.14986751973628998,0.2890380024909973,0.45587244629859924,0.39050862193107605,-0.23847539722919464,0.6070907711982727,0.45915737748146057,0.33727362751960754,0.05834876745939255,0.26105642318725586,0.46397072076797485,0.33264443278312683,-0.2581743597984314,0.5064242482185364,0.4588131904602051,0.3309469223022461,0.0470331609249115,0.25884026288986206,0.46545201539993286,0.32510632276535034,-0.29277706146240234,0.4940071403980255,0.45942431688308716,0.33025041222572327,0.033207640051841736,0.25887876749038696,0.46462851762771606,0.3260387182235718,-0.2771441340446472,0.48383790254592896,0.45923709869384766,0.33307209610939026,0.046920739114284515,0.2486201524734497,0.46318188309669495,0.3285320997238159,-0.25322049856185913,0.4551087021827698,0.45357704162597656,0.5643537640571594,0.08986175060272217,0.8722045421600342,0.44687002897262573,0.5665311217308044,-0.08980521559715271,0.8728219270706177,0.438124418258667,0.6392104625701904,0.14030495285987854,0.4110570549964905,0.4481552243232727,0.6638591289520264,-0.11765845119953156,0.6216551065444946,0.4155859351158142,0.7217401266098022,0.20228350162506104,0.4694862961769104,0.4491884112358093,0.7752459049224854,-0.13057789206504822,0.6276476383209229,0.41317930817604065,0.7201085686683655,0.20533600449562073,0.511724591255188,0.43874573707580566,0.790550172328949,-0.13516388833522797,0.6600111722946167,0.4384942948818207,0.7468500137329102,0.18031497299671173,0.5040056109428406,0.48110145330429077,0.8002211451530457,-0.20186910033226013,0.6178467869758606
89,0.468914270401001,0.4218410551548004,-0.021255115047097206,0.9896962642669678,0.46470746397972107,0.4148353934288025,-0.009833192452788353,0.9896252155303955,0.46412238478660583,0.4144464135169983,-0.009825126267969608,0.9879392385482788,0.46347475051879883,0.41384971141815186,-0.009775711223483086,0.9899505972862244,0.46338313817977905,0.414835125207901,-0.03124713897705078,0.9890278577804565,0.4620218873023987,0.41463711857795715,-0.03127697855234146,0.9878609776496887,0.4606890082359314,0.4143572747707367,-0.03126797080039978,0.9892069697380066,0.45641985535621643,0.4154362976551056,0.041368842124938965,0.9856283068656921,0.45354604721069336,0.4175471067428589,-0.0678337812423706,0.9855955243110657,0.4669615626335144,0.4284125864505768,-0.00031383385066874325,0.981093168258667,0.4649215340614319,0.42787986993789673,-0.03161415085196495,0.9799748063087463,0.4552212655544281,0.44564518332481384,0.09156551212072372,0.9534860253334045,0.445171982049942,0.4470858573913574,-0.13495422899723053,0.9661345481872559,0.45286184549331665,0.38118186593055725,0.11762070655822754,0.2767239809036255,0.45554304122924805,0.3803272843360901,-0.2228212058544159,0.6459471583366394,0.46298179030418396,0.3347408175468445,0.03621475026011467,0.2785196602344513,0.4629451632499695,0.32505056262016296,-0.20783491432666779,0.5543519258499146,0.4631148874759674,0.3236638009548187,0.02130022644996643,0.2799392342567444,0.4638930857181549,0.31683045625686646,-0.22732937335968018,0.5418279767036438,0.4607444703578949,0.3217340409755707,0.01107854675501585,0.280761182308197,0.46369820833206177,0.31697073578834534,-0.22584077715873718,0.5319985151290894,0.46031293272972107,0.32565203309059143,0.026365425437688828,0.27328169345855713,0.46272602677345276,0.3189225196838379,-0.20644883811473846,0.5043968558311462,0.45059093832969666,0.5564151406288147,0.07987625896930695,0.8848483562469482,0.4406915605068207,0.556567370891571,-0.079877570271492,0.8854186534881592,0.4489215910434723,0.6417023539543152,0.11644723266363144,0.39274993538856506,0.4273584485054016,0.6471309661865234,-0.09135278314352036,0.6556252837181091,0.4307842254638672,0.7169317007064819,0.1741568148136139,0.47472214698791504,0.42138606309890747,0.7331146597862244,-0.056554924696683884,0.6615796685218811,0.4247116446495056,0.7272917628288269,0.1714209020137787,0.5272082090377808,0.414841890335083,0.744053065776825,-0.056963950395584106,0.6890121698379517,0.4528964161872864,0.7363771200180054,0.12242672592401505,0.5202985405921936,0.4473264217376709,0.7688693404197693,-0.12524664402008057,0.6507711410522461
90,0.46628695726394653,0.4163009524345398,-0.036011338233947754,0.9896550178527832,0.46372517943382263,0.4086478650569916,-0.02551390789449215,0.9892865419387817,0.46318620443344116,0.40806978940963745,-0.025500159710645676,0.9873133301734924,0.46261754631996155,0.407404363155365,-0.025446301326155663,0.9897856116294861,0.4625908434391022,0.40886589884757996,-0.04993273317813873,0.9891266822814941,0.46141108870506287,0.4085759222507477,-0.04990871995687485,0.9880057573318481,0.46026453375816345,0.4083057940006256,-0.049927715212106705,0.9893839955329895,0.4550604820251465,0.40802857279777527,0.023264100775122643,0.9848526120185852,0.45293527841567993,0.40918731689453125,-0.08802248537540436,0.9859522581100464,0.46348366141319275,0.42212623357772827,-0.01573987677693367,0.9814873337745667,0.46199139952659607,0.42190492153167725,-0.04878893867135048,0.9804720282554626,0.4480316638946533,0.43710342049598694,0.0824931189417839,0.9568522572517395,0.4428887963294983,0.43685558438301086,-0.14446745812892914,0.9692316651344299,0.4523698687553406,0.3855195641517639,0.12635283172130585,0.25397512316703796,0.4554087221622467,0.38099023699760437,-0.24320057034492493,0.6809253096580505,0.46162527799606323,0.3391975462436676,0.0431920550763607,0.27006301283836365,0.4623536169528961,0.3243962526321411,-0.2534509003162384,0.5974600315093994,0.4627392292022705,0.32142215967178345,0.03012835420668125,0.27877429127693176,0.4632628560066223,0.3116704225540161,-0.27848896384239197,0.5855468511581421,0.4616617262363434,0.3204808235168457,0.014979866333305836,0.27962610125541687,0.4632861018180847,0.3099157512187958,-0.27409303188323975,0.5761101841926575,0.4609858989715576,0.3272148668766022,0.03138438239693642,0.27548664808273315,0.4625495970249176,0.31383582949638367,-0.2510254383087158,0.5493281483650208,0.44430413842201233,0.5563714504241943,0.08325827866792679,0.8960047960281372,0.43923115730285645,0.5556786060333252,-0.0832015722990036,0.8964946269989014,0.43466314673423767,0.6373069286346436,0.1091095358133316,0.36725741624832153,0.425921767950058,0.6468683481216431,-0.07603038847446442,0.6877206563949585,0.42586207389831543,0.7144788503646851,0.16067980229854584,0.4523537755012512,0.4214462339878082,0.7340685725212097,-0.04047640040516853,0.6931264400482178,0.4199523329734802,0.7275451421737671,0.16200652718544006,0.521557629108429,0.416558176279068,0.7471659779548645,-0.04065607488155365,0.7184090614318848,0.4506620764732361,0.7284320592880249,0.12351159006357193,0.513773500919342,0.451244056224823,0.747667133808136,-0.10777131468057632,0.6817123889923096
91,0.4663654863834381,0.4175211191177368,-0.04288934916257858,0.9889414310455322,0.4637214243412018,0.4095918834209442,-0.03298821300268173,0.9879930019378662,0.4631880223751068,0.4090401232242584,-0.03298221528530121,0.9854407906532288,0.4626753330230713,0.40847891569137573,-0.03293415531516075,0.9887166619300842,0.4624585211277008,0.40973103046417236,-0.058401890099048615,0.9884877800941467,0.46113482117652893,0.4093678593635559,-0.05837402865290642,0.9873101115226746,0.4599052369594574,0.4090937674045563,-0.05840330570936203,0.9887810349464417,0.45457273721694946,0.4085296094417572,0.01488728541880846,0.9827442169189453,0.45190516114234924,0.4099684953689575,-0.1007087379693985,0.9856131076812744,0.4635581374168396,0.423421174287796,-0.022592946887016296,0.9810506701469421,0.4619297981262207,0.42333078384399414,-0.05645764619112015,0.9801640510559082,0.4458387494087219,0.43685382604599,0.07520586252212524,0.9598931074142456,0.44126424193382263,0.4365069270133972,-0.15018001198768616,0.9720333814620972,0.45151185989379883,0.383263498544693,0.12424945831298828,0.23333710432052612,0.45496290922164917,0.3792766332626343,-0.2523088753223419,0.7123553156852722,0.46079787611961365,0.3395410478115082,0.04114151373505592,0.2631272077560425,0.4621867537498474,0.32490217685699463,-0.2617326080799103,0.6363037824630737,0.46191349625587463,0.32546770572662354,0.027691790834069252,0.27923741936683655,0.4624864459037781,0.31101521849632263,-0.28730499744415283,0.6250662803649902,0.46090131998062134,0.3249538838863373,0.012731892988085747,0.28016796708106995,0.46297159790992737,0.30948933959007263,-0.28188472986221313,0.6160581707954407,0.4603477418422699,0.32789337635040283,0.029461663216352463,0.2791922688484192,0.46236881613731384,0.3127085864543915,-0.2588253617286682,0.5903103351593018,0.4429726004600525,0.5595076680183411,0.08407650887966156,0.9060841202735901,0.4392883777618408,0.5588605999946594,-0.0840330421924591,0.9065042734146118,0.43060165643692017,0.6413865685462952,0.11748035997152328,0.34055769443511963,0.42584919929504395,0.6506324410438538,-0.05924852564930916,0.7144078016281128,0.4227541983127594,0.7152834534645081,0.18032261729240417,0.423554003238678,0.41965165734291077,0.7337828874588013,-0.008227752521634102,0.7195193767547607,0.4167664051055908,0.7276962995529175,0.18376675248146057,0.5080400109291077,0.4144703447818756,0.7468156218528748,-0.0062040952034294605,0.7443026900291443,0.44930925965309143,0.7284427881240845,0.14843705296516418,0.49519211053848267,0.4508028030395508,0.7436612844467163,-0.06977131962776184,0.7066166400909424
