frame,NOSE.x,NOSE.y,NOSE.z,NOSE.v,LEFT_EYE_INNER.x,LEFT_EYE_INNER.y,LEFT_EYE_INNER.z,LEFT_EYE_INNER.v,LEFT_EYE.x,LEFT_EYE.y,LEFT_EYE.z,LEFT_EYE.v,LEFT_EYE_OUTER.x,LEFT_EYE_OUTER.y,LEFT_EYE_OUTER.z,LEFT_EYE_OUTER.v,RIGHT_EYE_INNER.x,RIGHT_EYE_INNER.y,RIGHT_EYE_INNER.z,RIGHT_EYE_INNER.v,RIGHT_EYE.x,RIGHT_EYE.y,RIGHT_EYE.z,RIGHT_EYE.v,RIGHT_EYE_OUTER.x,RIGHT_EYE_OUTER.y,RIGHT_EYE_OUTER.z,RIGHT_EYE_OUTER.v,LEFT_EAR.x,LEFT_EAR.y,LEFT_EAR.z,LEFT_EAR.v,RIGHT_EAR.x,RIGHT_EAR.y,RIGHT_EAR.z,RIGHT_EAR.v,MOUTH_LEFT.x,MOUTH_LEFT.y,MOUTH_LEFT.z,MOUTH_LEFT.v,MOUTH_RIGHT.x,MOUTH_RIGHT.y,MOUTH_RIGHT.z,MOUTH_RIGHT.v,LEFT_SHOULDER.x,LEFT_SHOULDER.y,LEFT_SHOULDER.z,LEFT_SHOULDER.v,RIGHT_SHOULDER.x,RIGHT_SHOULDER.y,RIGHT_SHOULDER.z,RIGHT_SHOULDER.v,LEFT_ELBOW.x,LEFT_ELBOW.y,LEFT_ELBOW.z,LEFT_ELBOW.v,RIGHT_ELBOW.x,RIGHT_ELBOW.y,RIGHT_ELBOW.z,RIGHT_ELBOW.v,LEFT_WRIST.x,LEFT_WRIST.y,LEFT_WRIST.z,LEFT_WRIST.v,RIGHT_WRIST.x,RIGHT_WRIST.y,RIGHT_WRIST.z,RIGHT_WRIST.v,LEFT_PINKY.x,LEFT_PINKY.y,LEFT_PINKY.z,LEFT_PINKY.v,RIGHT_PINKY.x,RIGHT_PINKY.y,RIGHT_PINKY.z,RIGHT_PINKY.v,LEFT_INDEX.x,LEFT_INDEX.y,LEFT_INDEX.z,LEFT_INDEX.v,RIGHT_INDEX.x,RIGHT_INDEX.y,RIGHT_INDEX.z,RIGHT_INDEX.v,LEFT_THUMB.x,LEFT_THUMB.y,LEFT_THUMB.z,LEFT_THUMB.v,RIGHT_THUMB.x,RIGHT_THUMB.y,RIGHT_THUMB.z,RIGHT_THUMB.v,LEFT_HIP.x,LEFT_HIP.y,LEFT_HIP.z,LEFT_HIP.v,RIGHT_HIP.x,RIGHT_HIP.y,RIGHT_HIP.z,RIGHT_HIP.v,LEFT_KNEE.x,LEFT_KNEE.y,LEFT_KNEE.z,LEFT_KNEE.v,RIGHT_KNEE.x,RIGHT_KNEE.y,RIGHT_KNEE.z,RIGHT_KNEE.v,LEFT_ANKLE.x,LEFT_ANKLE.y,LEFT_ANKLE.z,LEFT_ANKLE.v,RIGHT_ANKLE.x,RIGHT_ANKLE.y,RIGHT_ANKLE.z,RIGHT_ANKLE.v,LEFT_HEEL.x,LEFT_HEEL.y,LEFT_HEEL.z,LEFT_HEEL.v,RIGHT_HEEL.x,RIGHT_HEEL.y,RIGHT_HEEL.z,RIGHT_HEEL.v,LEFT_FOOT_INDEX.x,LEFT_FOOT_INDEX.y,LEFT_FOOT_INDEX.z,LEFT_FOOT_INDEX.v,RIGHT_FOOT_INDEX.x,RIGHT_FOOT_INDEX.y,RIGHT_FOOT_INDEX.z,RIGHT_FOOT_INDEX.v
0
1,0.5130091905593872,0.3915693163871765,0.023246917873620987,0.9998794794082642,0.5148264765739441,0.3821946680545807,0.008970444090664387,0.9998981952667236,0.5142608284950256,0.3826940655708313,0.008880727924406528,0.9999046325683594,0.5136816501617432,0.38327276706695557,0.008828765712678432,0.9999120235443115,0.5163164138793945,0.3815648853778839,0.016398606821894646,0.9999212026596069,0.5164713263511658,0.38144180178642273,0.01639329455792904,0.9999217987060547,0.5167093873023987,0.3813452422618866,0.016273552551865578,0.9999192953109741,0.50831538438797,0.39018985629081726,-0.024886973202228546,0.999916672706604,0.5136977434158325,0.38847827911376953,0.006502778269350529,0.9998817443847656,0.5069656372070312,0.4030466377735138,0.016442427411675453,0.999812662601471,0.5085824728012085,0.4022142291069031,0.025584403425455093,0.9998358488082886,0.4834536910057068,0.44646692276000977,-0.06732214987277985,0.9998452663421631,0.5106678605079651,0.4446480870246887,0.05884861946105957,0.9995304346084595,0.4904025197029114,0.550200343132019,-0.09618689119815826,0.6886168718338013,0.5069063901901245,0.5511316657066345,0.03188766539096832,0.12066028267145157,0.4917600750923157,0.6341047286987305,-0.12250648438930511,0.6900874972343445,0.49801021814346313,0.631079375743866,-0.0159476138651371,0.1502246856689453,0.49689847230911255,0.6567790508270264,-0.14493973553180695,0.6548530459403992,0.49630871415138245,0.6561669111251831,-0.010451853275299072,0.16175168752670288,0.49441567063331604,0.6519363522529602,-0.1369534134864807,0.6429948806762695,0.4947529435157776,0.6537297368049622,-0.024942828342318535,0.15414942800998688,0.4930914044380188,0.643159806728363,-0.11990559101104736,0.5849658846855164,0.48940548300743103,0.6447970867156982,-0.02141105756163597,0.14763356745243073,0.45933952927589417,0.6396892070770264,-0.04883630573749542,0.9996013045310974,0.49380356073379517,0.6466712951660156,0.048778071999549866,0.9993701577186584,0.38147395849227905,0.6944881081581116,-0.05780952051281929,0.9987233281135559,0.5540578365325928,0.7146112322807312,0.10191784799098969,0.9479331970214844,0.2744750380516052,0.7132390141487122,-0.04320884495973587,0.9961357712745667,0.593274712562561,0.7086692452430725,0.1671956479549408,0.9501628875732422,0.26316675543785095,0.7208841443061829,-0.03939031809568405,0.9943491816520691,0.5938934087753296,0.7134976983070374,0.17652912437915802,0.9334509372711182,0.23512443900108337,0.7149178981781006,-0.07763677090406418,0.9808244705200195,0.6133474111557007,0.6948175430297852,0.16261202096939087,0.8947804570198059
2,0.5203042030334473,0.3948086202144623,-0.10305805504322052,0.9998745918273926,0.5230587720870972,0.3891436457633972,-0.11795660108327866,0.9998943209648132,0.5227669477462769,0.3899664282798767,-0.11798276007175446,0.9999023079872131,0.5224512815475464,0.3908645808696747,-0.11797280609607697,0.9999089241027832,0.5237004160881042,0.3890167772769928,-0.10556304454803467,0.9999113082885742,0.5234607458114624,0.38963425159454346,-0.10556989908218384,0.9999133348464966,0.5233039259910583,0.39029619097709656,-0.10564257204532623,0.9999111294746399,0.5158756971359253,0.40174442529678345,-0.14869661629199982,0.9999105334281921,0.5181357264518738,0.4018864631652832,-0.09705378860235214,0.9998745322227478,0.5132859945297241,0.40606334805488586,-0.10942442715167999,0.9998099207878113,0.5136960744857788,0.40567177534103394,-0.09443733096122742,0.9998325109481812,0.4834516644477844,0.45660483837127686,-0.18188264966011047,0.9998496770858765,0.5115218162536621,0.4588513672351837,-0.02108571119606495,0.9994896054267883,0.4843800961971283,0.5518003702163696,-0.2098504602909088,0.7037437558174133,0.5056513547897339,0.5494375824928284,0.025099897757172585,0.11287835985422134,0.4833528995513916,0.6324173808097839,-0.23094895482063293,0.6844392418861389,0.4988064169883728,0.6067802906036377,0.07905775308609009,0.13692332804203033,0.48901528120040894,0.6539541482925415,-0.2605949342250824,0.6422281861305237,0.4990023672580719,0.6225683689117432,0.09745897352695465,0.14773163199424744,0.48531144857406616,0.6502474546432495,-0.2527666687965393,0.6301580667495728,0.4976285398006439,0.6217134594917297,0.07949097454547882,0.14084285497665405,0.48289036750793457,0.6421008706092834,-0.22881174087524414,0.5748270750045776,0.4960528016090393,0.6151530742645264,0.07473175972700119,0.13553102314472198,0.4645381569862366,0.6409129500389099,-0.04854995012283325,0.9994249939918518,0.5067968964576721,0.6465386152267456,0.04852325841784477,0.9992170333862305,0.35459160804748535,0.6803372502326965,-0.049351032823324203,0.9983426332473755,0.6254911422729492,0.6870540380477905,0.08799273520708084,0.9444655776023865,0.24174411594867706,0.6813825964927673,-0.04730955883860588,0.9956657290458679,0.7223989367485046,0.6892634630203247,0.08866250514984131,0.9467795491218567,0.23060032725334167,0.6844580769538879,-0.04545450210571289,0.9936733841896057,0.7277582883834839,0.691588282585144,0.09045177698135376,0.9280392527580261,0.20734255015850067,0.6798532009124756,-0.10646548122167587,0.9785116314888,0.7671910524368286,0.6811067461967468,0.05042490363121033,0.8865130543708801
3,0.4970873296260834,0.45669546723365784,-0.04671256244182587,0.9997703433036804,0.501172661781311,0.4465273320674896,-0.05316213518381119,0.9996841549873352,0.5036615133285522,0.44570550322532654,-0.053225357085466385,0.9995862245559692,0.5061181783676147,0.44499632716178894,-0.05326763913035393,0.999610185623169,0.49359601736068726,0.44721922278404236,-0.04724109545350075,0.9997492432594299,0.49082618951797485,0.4468955993652344,-0.04724022001028061,0.999657928943634,0.4881037771701813,0.4465338885784149,-0.047376759350299835,0.9997274279594421,0.5084651708602905,0.44017839431762695,-0.0008088491158559918,0.9996185898780823,0.4825232923030853,0.4415568709373474,0.006061691790819168,0.9996902942657471,0.4990004003047943,0.46038082242012024,-0.05318361520767212,0.9995759129524231,0.491706907749176,0.46132850646972656,-0.033697985112667084,0.9996799826622009,0.5103510618209839,0.4651784300804138,0.007951962761580944,0.9998598098754883,0.46143627166748047,0.47269612550735474,0.0792350098490715,0.999539852142334,0.5134627819061279,0.5534173846244812,-0.06830091774463654,0.6771118640899658,0.43360552191734314,0.5518981218338013,0.079806849360466,0.1440427303314209,0.48624810576438904,0.5932626724243164,-0.19350765645503998,0.6501975059509277,0.4213944375514984,0.6234769225120544,0.04340784251689911,0.1606922745704651,0.48900604248046875,0.6058160662651062,-0.2258557826280594,0.6118170619010925,0.4147707521915436,0.6466151475906372,0.0337611585855484,0.1707184910774231,0.4848248064517975,0.6000267267227173,-0.21792693436145782,0.5986238718032837,0.41869106888771057,0.6486565470695496,-0.004475069232285023,0.16347432136535645,0.48300567269325256,0.5967987179756165,-0.193171426653862,0.5460623502731323,0.42409682273864746,0.6414209604263306,0.07278086990118027,0.16118250787258148,0.49167290329933167,0.6427667737007141,-0.03313019871711731,0.999444305896759,0.45485347509384155,0.6472359299659729,0.03316556289792061,0.9992895126342773,0.5823036432266235,0.676940381526947,-0.07203598320484161,0.9978402256965637,0.35360968112945557,0.6788132786750793,-0.007215733639895916,0.9494853615760803,0.630265474319458,0.6617678999900818,-0.044948942959308624,0.9934071898460388,0.2680566906929016,0.6931746006011963,0.030498003587126732,0.951288640499115,0.6305631399154663,0.6634160280227661,-0.04224381595849991,0.9871693849563599,0.261809378862381,0.7061470150947571,0.03358779847621918,0.9336522221565247,0.6596627235412598,0.651218056678772,-0.085594542324543,0.9753077626228333,0.21945306658744812,0.6748363971710205,-0.005271243862807751,0.8957695960998535
4
5
6
7
8
9,0.5431913137435913,0.3392219543457031,-0.11648489534854889,0.9991621375083923,0.5511520504951477,0.3404901623725891,-0.12786085903644562,0.9989206790924072,0.5517691969871521,0.3423791527748108,-0.12787729501724243,0.9988043308258057,0.5523363351821899,0.3443261384963989,-0.12786686420440674,0.9989569783210754,0.5508012175559998,0.3381802439689636,-0.1050039678812027,0.9987074732780457,0.5508981943130493,0.3383340835571289,-0.10503361374139786,0.9984577894210815,0.5510187745094299,0.3385009765625,-0.10509026050567627,0.9989176392555237,0.5529626607894897,0.3574533462524414,-0.1426888108253479,0.9985206127166748,0.5515908598899841,0.3495156168937683,-0.03900764882564545,0.9985710978507996,0.5376424193382263,0.34948813915252686,-0.11906470358371735,0.9981393218040466,0.5369681119918823,0.3467707335948944,-0.08915769308805466,0.998485803604126,0.5327744483947754,0.39185458421707153,-0.18792624771595,0.9998130202293396,0.5231195092201233,0.3847167193889618,0.04926130175590515,0.9994937181472778,0.5267741084098816,0.3904108703136444,-0.3041885197162628,0.7046603560447693,0.49209389090538025,0.41245734691619873,0.11471839249134064,0.15804614126682281,0.5232138633728027,0.35345566272735596,-0.37365347146987915,0.6737590432167053,0.4755140244960785,0.4113987386226654,0.07813306152820587,0.19391220808029175,0.5253058075904846,0.34588268399238586,-0.4115470051765442,0.63481205701828,0.47231346368789673,0.41327473521232605,0.0814734548330307,0.20214581489562988,0.5262899994850159,0.3432745933532715,-0.39758381247520447,0.6214341521263123,0.4735282361507416,0.4085299074649811,0.052791446447372437,0.19728878140449524,0.5245343446731567,0.3473920226097107,-0.3710886240005493,0.5681825280189514,0.4740312099456787,0.4082326292991638,0.06587009876966476,0.19462589919567108,0.47628098726272583,0.5303940773010254,-0.0842215046286583,0.9994650483131409,0.4734986424446106,0.5247880816459656,0.08427111804485321,0.9993144273757935,0.43644124269485474,0.5753011703491211,-0.09407355636358261,0.9908899664878845,0.4220762252807617,0.5735741853713989,0.07064677774906158,0.9134999513626099,0.40869253873825073,0.6666957139968872,-0.07558946311473846,0.9905561208724976,0.34931766986846924,0.6398866772651672,0.0971427783370018,0.9391481280326843,0.4098118245601654,0.6833235025405884,-0.07565469294786453,0.9811305999755859,0.3436124324798584,0.6585052609443665,0.0975898951292038,0.9182276725769043,0.38677486777305603,0.677742063999176,-0.13857483863830566,0.9741653203964233,0.3164885640144348,0.6365043520927429,0.0430353507399559,0.8944674730300903
10
11
12,0.5673637986183167,0.6076942086219788,0.11719957739114761,0.9976053237915039,0.5597686767578125,0.6082261204719543,0.11619354784488678,0.9978069067001343,0.5586737990379333,0.6086103916168213,0.11604620516300201,0.9975389838218689,0.5575860738754272,0.608873724937439,0.11591558158397675,0.9980778098106384,0.5659485459327698,0.6107454895973206,0.12114181369543076,0.9972480535507202,0.565685510635376,0.6100962162017822,0.12119166553020477,0.9967709183692932,0.5655815601348877,0.6093958020210266,0.12117119133472443,0.9980595111846924,0.5592024922370911,0.5989888906478882,0.12133262306451797,0.9977728128433228,0.5685939788818359,0.5913037061691284,0.14474020898342133,0.9973106980323792,0.5663925409317017,0.5924174189567566,0.12053105980157852,0.9970694780349731,0.5727742314338684,0.5889712572097778,0.12674984335899353,0.997563898563385,0.5777393579483032,0.5466792583465576,0.08061975985765457,0.9998024106025696,0.5782935619354248,0.5524168014526367,0.1485453099012375,0.9995278120040894,0.5555860996246338,0.6061179637908936,0.040004365146160126,0.6888391971588135,0.5521258115768433,0.6162073612213135,0.1510760486125946,0.1599099487066269,0.5297768712043762,0.6349536776542664,-0.06094943732023239,0.6656597256660461,0.5481614470481873,0.6437695622444153,0.1477455347776413,0.1966448724269867,0.5162830352783203,0.6442859768867493,-0.09175199270248413,0.630824089050293,0.5424460172653198,0.6477166414260864,0.15244194865226746,0.20566046237945557,0.5222439765930176,0.6348079442977905,-0.08406990766525269,0.6172558665275574,0.5461577773094177,0.6426871418952942,0.12658876180648804,0.20137502253055573,0.5274308919906616,0.6314119696617126,-0.06057010218501091,0.5640653371810913,0.548385500907898,0.6410556435585022,0.13828712701797485,0.19999605417251587,0.4702652096748352,0.4525904059410095,-0.0014412121381610632,0.9994820952415466,0.4681149423122406,0.46086153388023376,0.0014906885335221887,0.9993484616279602,0.4068278670310974,0.584746778011322,-0.07328172773122787,0.9543899893760681,0.3973853588104248,0.6025699377059937,-0.05229387432336807,0.890784740447998,0.29899588227272034,0.6507741212844849,-0.12423473596572876,0.955176591873169,0.2783978581428528,0.6770597696304321,-0.08523315191268921,0.8966441750526428,0.2859264612197876,0.6587905883789062,-0.13003495335578918,0.9519525170326233,0.26485592126846313,0.6841955184936523,-0.08578547835350037,0.8824774622917175,0.2641254663467407,0.6730452179908752,-0.19782479107379913,0.9403359889984131,0.2286655455827713,0.7162487506866455,-0.12561455368995667,0.8549605011940002
13
14
15
16
17
18,0.5869506001472473,0.34174400568008423,0.08215747028589249,0.9977869987487793,0.5905360579490662,0.3343757688999176,0.08726684004068375,0.9979516863822937,0.5915475487709045,0.3331882655620575,0.08721067756414413,0.9976857900619507,0.5925253033638,0.3321067690849304,0.08717326819896698,0.9982115626335144,0.5867037773132324,0.33477461338043213,0.07280830293893814,0.9974638819694519,0.5851927995681763,0.3339096009731293,0.07281438261270523,0.9969961643218994,0.5837050676345825,0.3330937325954437,0.07275614887475967,0.9981867671012878,0.5911478400230408,0.323497474193573,0.12284038960933685,0.9979363679885864,0.5782056450843811,0.3242305517196655,0.060015130788087845,0.9974867105484009,0.5826133489608765,0.3359665274620056,0.09986390918493271,0.9971762299537659,0.5826210975646973,0.3351326286792755,0.08129146695137024,0.9975529909133911,0.5847356915473938,0.3309188783168793,0.1516975313425064,0.999806821346283,0.5544745922088623,0.3276863694190979,0.024209730327129364,0.9995275139808655,0.6523748636245728,0.32434552907943726,0.14331471920013428,0.7028368711471558,0.5870439410209656,0.3318738341331482,0.003349106293171644,0.2263137251138687,0.6902560591697693,0.297814279794693,0.0773995965719223,0.6836966872215271,0.6147119402885437,0.2900491952896118,0.03725225478410721,0.25517237186431885,0.6990290880203247,0.29187488555908203,0.06021995097398758,0.6449127197265625,0.6224281191825867,0.2824227511882782,0.025990361347794533,0.2517870366573334,0.6931108236312866,0.28798139095306396,0.05886344239115715,0.6324552297592163,0.6168421506881714,0.2771577835083008,0.020142247900366783,0.2462727576494217,0.6893970370292664,0.29098325967788696,0.07280772924423218,0.5829811096191406,0.6143616437911987,0.28044936060905457,0.035376064479351044,0.24128566682338715,0.5093500018119812,0.4659944772720337,0.05676310136914253,0.9995226860046387,0.49203696846961975,0.46070539951324463,-0.05677809193730354,0.9994001984596252,0.5353334546089172,0.5778284072875977,-0.017146557569503784,0.9203168153762817,0.47571587562561035,0.6001495718955994,-0.1384653002023697,0.8809499740600586,0.47753915190696716,0.6568202376365662,0.02166750468313694,0.9199433326721191,0.37624743580818176,0.6478914022445679,-0.11163363605737686,0.8950244188308716,0.4646192491054535,0.6597840189933777,0.02223871275782585,0.9071005582809448,0.361014187335968,0.6469665169715881,-0.11063311994075775,0.869873046875,0.47576671838760376,0.6990735530853271,-0.032674819231033325,0.9108529686927795,0.3512706458568573,0.6784183382987976,-0.1723293662071228,0.856413722038269
19
20
21
22,0.45960673689842224,0.4047108590602875,-0.25378096103668213,0.9971911311149597,0.45604753494262695,0.39187467098236084,-0.2683292031288147,0.9975089430809021,0.4573422372341156,0.3893243372440338,-0.2682948410511017,0.9972372651100159,0.4586877226829529,0.38676708936691284,-0.2682836353778839,0.9978427290916443,0.45421457290649414,0.3952353298664093,-0.24579675495624542,0.99692302942276,0.4540708065032959,0.3958526849746704,-0.24592015147209167,0.9963968992233276,0.4539199471473694,0.3964789807796478,-0.24605007469654083,0.9976005554199219,0.46899765729904175,0.377105176448822,-0.28241220116615295,0.9975224733352661,0.46268659830093384,0.38938331604003906,-0.18117620050907135,0.996741771697998,0.4715409278869629,0.4047500491142273,-0.2544402778148651,0.9969757199287415,0.46928128600120544,0.4100360572338104,-0.22507330775260925,0.9967653155326843,0.5122005939483643,0.37940818071365356,-0.3140636086463928,0.9998043179512024,0.5031680464744568,0.41247886419296265,-0.047791995108127594,0.9992906451225281,0.5527096390724182,0.4156514108181,-0.35142502188682556,0.7288855910301208,0.5581285953521729,0.4684107005596161,0.09457088261842728,0.21516625583171844,0.5562815070152283,0.5273543000221252,-0.3529955744743347,0.7124369144439697,0.5841788053512573,0.5458075404167175,0.1426575481891632,0.26011621952056885,0.566874086856842,0.5671636462211609,-0.38098087906837463,0.6752586364746094,0.5922935009002686,0.5664882659912109,0.15966618061065674,0.2598600685596466,0.5542213320732117,0.5733402371406555,-0.37035346031188965,0.6638268828392029,0.5911140441894531,0.5680006146430969,0.1283089965581894,0.2549024522304535,0.5541908740997314,0.561306893825531,-0.3459583818912506,0.6149595379829407,0.5901158452033997,0.558424711227417,0.13242022693157196,0.24903231859207153,0.6300984621047974,0.4229520261287689,-0.08159532397985458,0.9991939663887024,0.6158710718154907,0.4487738609313965,0.08172133564949036,0.9991664886474609,0.5588340163230896,0.5171914100646973,-0.1300995945930481,0.9171815514564514,0.570566713809967,0.5828218460083008,0.03262482210993767,0.8612728714942932,0.6180049180984497,0.6238521933555603,0.009511491283774376,0.9152727127075195,0.6205947399139404,0.6645718216896057,0.1087365373969078,0.8740136027336121,0.6337876319885254,0.6358213424682617,0.023947449401021004,0.8999746441841125,0.6341504454612732,0.6689056158065796,0.11574123054742813,0.8479712009429932,0.6111400723457336,0.6667789816856384,-0.013897715136408806,0.9069461226463318,0.6134791374206543,0.7181107401847839,0.08653667569160461,0.8418805599212646
23
24,0.5718927383422852,0.3047870099544525,-0.16786833107471466,0.9972735643386841,0.5734332799911499,0.29854196310043335,-0.15206198394298553,0.9974408149719238,0.5732969045639038,0.2989712655544281,-0.15209664404392242,0.9971100091934204,0.5732203125953674,0.2994687259197235,-0.1521899700164795,0.9977526068687439,0.5717024803161621,0.2957644462585449,-0.17466367781162262,0.996857225894928,0.5703374743461609,0.2941907048225403,-0.17470957338809967,0.9962858557701111,0.5689741969108582,0.29262951016426086,-0.17475147545337677,0.9974048733711243,0.5653151273727417,0.2965809106826782,-0.07595184445381165,0.9972163438796997,0.5588011741638184,0.28699854016304016,-0.17995686829090118,0.9965093731880188,0.5658424496650696,0.3105022609233856,-0.137616828083992,0.9968935251235962,0.5641818046569824,0.3069894015789032,-0.16793926060199738,0.9966540336608887,0.5567936301231384,0.3199479877948761,-0.012218241579830647,0.999779224395752,0.5260775089263916,0.2952822744846344,-0.19259127974510193,0.9992766976356506,0.6000303030014038,0.33571910858154297,0.023353133350610733,0.7507964372634888,0.5147689580917358,0.2203197330236435,-0.2711794078350067,0.29332128167152405,0.6443997025489807,0.3606584668159485,-0.053237564861774445,0.7362915277481079,0.5179527997970581,0.15967728197574615,-0.2943401038646698,0.33366942405700684,0.6540960073471069,0.3640774190425873,-0.05930321663618088,0.6974238753318787,0.5170137286186218,0.14378923177719116,-0.324871301651001,0.33220332860946655,0.6535499095916748,0.3629932105541229,-0.0830143466591835,0.6887367963790894,0.5194045901298523,0.14389613270759583,-0.31930848956108093,0.32763686776161194,0.6493035554885864,0.3615010678768158,-0.0666845291852951,0.6445692777633667,0.5201495289802551,0.1507670283317566,-0.29614025354385376,0.32169294357299805,0.5312031507492065,0.42414581775665283,0.057224858552217484,0.9992324709892273,0.5135506391525269,0.4255920648574829,-0.05717199295759201,0.9992242455482483,0.5910729765892029,0.48187685012817383,-0.04139131307601929,0.9109731912612915,0.5131276845932007,0.47856464982032776,-0.2899700999259949,0.873589038848877,0.5587292909622192,0.5274059176445007,0.11988572031259537,0.9009249806404114,0.5380877256393433,0.5535430908203125,-0.15748204290866852,0.8837633728981018,0.5504733324050903,0.5276402831077576,0.13449011743068695,0.8845393061637878,0.5455623865127563,0.5639718174934387,-0.14628154039382935,0.8564634919166565,0.5572996139526367,0.5551406145095825,0.09498947858810425,0.8967398405075073,0.5589126348495483,0.5846800208091736,-0.2130325734615326,0.854616105556488
25
26,0.5572708249092102,0.24998481571674347,-0.00756184384226799,0.9973289370536804,0.5604869723320007,0.2473769634962082,-0.02629917487502098,0.9975839853286743,0.5599668622016907,0.24771347641944885,-0.026314562186598778,0.9972825050354004,0.5593721866607666,0.24823999404907227,-0.026361096650362015,0.9978652596473694,0.5625441670417786,0.24865077435970306,-0.011093499138951302,0.9969399571418762,0.5634852051734924,0.24966487288475037,-0.0111403688788414,0.9964523315429688,0.5642198920249939,0.2507129907608032,-0.011159035377204418,0.9974749088287354,0.5595626831054688,0.2597973942756653,-0.08279629051685333,0.9973865747451782,0.5657239556312561,0.26124000549316406,-0.013461554422974586,0.996628999710083,0.5547319650650024,0.25715047121047974,-0.024176480248570442,0.996987521648407,0.5561015009880066,0.25764480233192444,-0.004667700733989477,0.9967130422592163,0.5350744724273682,0.2797842025756836,-0.11479632556438446,0.9997365474700928,0.5559679269790649,0.28643998503685,0.007188417948782444,0.9992393851280212,0.5409336090087891,0.2191004604101181,-0.14840219914913177,0.7668604254722595,0.5775913596153259,0.22479653358459473,0.00575153948739171,0.344138503074646,0.5463123321533203,0.17476241290569305,-0.18782120943069458,0.7461939454078674,0.5920042395591736,0.1783713847398758,-0.0389859713613987,0.3886246383190155,0.5626843571662903,0.18476811051368713,-0.21274881064891815,0.7062892913818359,0.5975397825241089,0.1691436469554901,-0.05087750032544136,0.3831630051136017,0.5671384930610657,0.1853361576795578,-0.21090205013751984,0.6977335214614868,0.5951453447341919,0.16666965186595917,-0.06426398456096649,0.37851428985595703,0.5503542423248291,0.16961970925331116,-0.18910600244998932,0.653798520565033,0.564923882484436,0.16591984033584595,-0.047059640288352966,0.37149283289909363,0.4949706494808197,0.3902391195297241,-0.048888418823480606,0.9992924928665161,0.5143136382102966,0.39042794704437256,0.04875987023115158,0.9992466568946838,0.5033630132675171,0.4658561050891876,-0.07278480380773544,0.9193975925445557,0.549706220626831,0.42961618304252625,0.07452169060707092,0.8717746138572693,0.5057109594345093,0.5545457601547241,-0.029619157314300537,0.9099326133728027,0.5739392638206482,0.47836339473724365,0.1340177208185196,0.8810200691223145,0.5127154588699341,0.5635896325111389,-0.026091236621141434,0.8952061533927917,0.5766448378562927,0.48511531949043274,0.13833987712860107,0.8636318445205688,0.4946047365665436,0.5784190893173218,-0.08075111359357834,0.9024209976196289,0.5832436084747314,0.49208393692970276,0.1106380969285965,0.8409982323646545
27,0.5737128853797913,0.269825279712677,-0.06287582218647003,0.9972116947174072,0.5763892531394958,0.26225176453590393,-0.0727747306227684,0.9964810013771057,0.575383186340332,0.2606280446052551,-0.0727984756231308,0.9966464638710022,0.5739330053329468,0.25872066617012024,-0.07280313223600388,0.9966901540756226,0.5783198475837708,0.26525020599365234,-0.0875268429517746,0.9961510300636292,0.5787190198898315,0.2652352750301361,-0.08746568113565445,0.995755672454834,0.5790210962295532,0.26529034972190857,-0.08752259612083435,0.9961214661598206,0.5696033239364624,0.25965002179145813,-0.08768440037965775,0.9964126348495483,0.5756844282150269,0.2637670636177063,-0.1558031290769577,0.994983971118927,0.5677348375320435,0.27083757519721985,-0.062065720558166504,0.9959805607795715,0.5698760747909546,0.273476243019104,-0.08243905752897263,0.995100200176239,0.5363995432853699,0.265700101852417,-0.06185689568519592,0.9996803402900696,0.5591138601303101,0.28675031661987305,-0.18432162702083588,0.999303936958313,0.5372233986854553,0.21423958241939545,0.009714003652334213,0.7666637897491455,0.5963533520698547,0.26998552680015564,-0.2522663474082947,0.4074588119983673,0.5467668771743774,0.17472533881664276,0.01646639220416546,0.7550152540206909,0.6328611969947815,0.2416045367717743,-0.29653245210647583,0.4477469325065613,0.5463197231292725,0.1618981808423996,0.01635262742638588,0.7168946266174316,0.640289843082428,0.23330844938755035,-0.32791823148727417,0.44179317355155945,0.5502657294273376,0.16215060651302338,0.0020326334051787853,0.7088032960891724,0.6400453448295593,0.21960332989692688,-0.31626009941101074,0.43728262186050415,0.550087571144104,0.1663733422756195,0.011271337978541851,0.6669178009033203,0.6372056603431702,0.22195543348789215,-0.29370230436325073,0.4295421838760376,0.4955998361110687,0.362422913312912,0.04733041673898697,0.9991990327835083,0.5032522678375244,0.38051435351371765,-0.047457464039325714,0.9992749094963074,0.5430378913879395,0.3844829201698303,0.10920600593090057,0.8576694130897522,0.48664188385009766,0.43725770711898804,-0.017299285158514977,0.8665238618850708,0.5920202136039734,0.41086676716804504,0.22775709629058838,0.862301230430603,0.45183056592941284,0.49557411670684814,0.08160936832427979,0.8690632581710815,0.5995579957962036,0.4201698899269104,0.2379981279373169,0.8705843091011047,0.44389286637306213,0.4990612268447876,0.09043403714895248,0.8617177605628967,0.6169101595878601,0.38997989892959595,0.21243230998516083,0.8630242347717285,0.45022082328796387,0.5199369192123413,0.038657788187265396,0.8293864130973816
28,0.5762355327606201,0.26823100447654724,-0.1411580592393875,0.9974243640899658,0.578790545463562,0.26511234045028687,-0.13822808861732483,0.9966526031494141,0.5790995359420776,0.2626766264438629,-0.13823601603507996,0.9968262910842896,0.5787922143936157,0.2620137631893158,-0.13825488090515137,0.9967975616455078,0.5841001272201538,0.26641565561294556,-0.1606939136981964,0.9964368939399719,0.5833612680435181,0.26569047570228577,-0.16072233021259308,0.9960952997207642,0.5826622247695923,0.2650633454322815,-0.16080060601234436,0.996406078338623,0.5742126703262329,0.26247623562812805,-0.09530459344387054,0.9965783953666687,0.574797511100769,0.2627384662628174,-0.1996404528617859,0.9954009056091309,0.5712445378303528,0.27154475450515747,-0.12049251794815063,0.9962231516838074,0.571365475654602,0.2729816734790802,-0.15124303102493286,0.9954259395599365,0.5452398657798767,0.26833808422088623,-0.046254776418209076,0.9996680617332458,0.547353982925415,0.27568861842155457,-0.21871855854988098,0.9993712306022644,0.5430108904838562,0.23569172620773315,0.01490319799631834,0.7349444627761841,0.5800129175186157,0.26677221059799194,-0.3260299563407898,0.4639427363872528,0.5466030240058899,0.18965913355350494,-0.008849662728607655,0.7280266284942627,0.6172741055488586,0.23390059173107147,-0.3954772353172302,0.499224454164505,0.543339192867279,0.16245442628860474,-0.018161501735448837,0.6912155151367188,0.6258792877197266,0.2418835312128067,-0.4309456944465637,0.49207720160484314,0.5465013980865479,0.16525506973266602,-0.02775265835225582,0.683114230632782,0.6244193315505981,0.22120444476604462,-0.42406249046325684,0.48739859461784363,0.5494091510772705,0.18210573494434357,-0.01426415890455246,0.6448497176170349,0.6216186285018921,0.24122069776058197,-0.3942905366420746,0.4776967763900757,0.4971933960914612,0.3698682188987732,0.05390942096710205,0.9992700815200806,0.4816237986087799,0.3779944181442261,-0.054077524691820145,0.9993448257446289,0.5426310300827026,0.4120296835899353,0.09515903145074844,0.8619431853294373,0.43795710802078247,0.46727532148361206,-0.09079920500516891,0.8772869110107422,0.5833967924118042,0.40444570779800415,0.2753469944000244,0.8333345651626587,0.4205354154109955,0.4197547733783722,0.11224357038736343,0.8233736753463745,0.5868358612060547,0.404776930809021,0.2956635057926178,0.8419517278671265,0.41815319657325745,0.40151849389076233,0.1495879739522934,0.8208627104759216,0.6070228815078735,0.3880370259284973,0.3052898049354553,0.8362231850624084,0.4175484776496887,0.4316808879375458,0.15382930636405945,0.7903344631195068
29,0.5794283151626587,0.2652297019958496,-0.5391660928726196,0.9976420998573303,0.5832289457321167,0.27293887734413147,-0.5385103821754456,0.996940553188324,0.5829588174819946,0.27520278096199036,-0.5384539365768433,0.9971022605895996,0.5818331837654114,0.2737463116645813,-0.5384843945503235,0.997048556804657,0.5850771069526672,0.2687984108924866,-0.5258540511131287,0.9967140555381775,0.5850263833999634,0.2684282660484314,-0.5259853601455688,0.9964134693145752,0.5844290256500244,0.2674196660518646,-0.526005208492279,0.9966915845870972,0.5783923864364624,0.2843766510486603,-0.4693695902824402,0.9968140721321106,0.5783566832542419,0.27139657735824585,-0.41465479135513306,0.9957194328308105,0.5729196667671204,0.271463006734848,-0.5101684331893921,0.9963604211807251,0.573620617389679,0.27212414145469666,-0.4944969117641449,0.9956853985786438,0.558228075504303,0.31684815883636475,-0.42138999700546265,0.9996580481529236,0.5435473918914795,0.2690693438053131,-0.2755261957645416,0.99942547082901,0.5204362273216248,0.3021235764026642,-0.5024955868721008,0.7601384520530701,0.5220321416854858,0.2562265694141388,-0.24184587597846985,0.5100252628326416,0.505334734916687,0.23992350697517395,-0.6020693778991699,0.7530771493911743,0.4924047887325287,0.22258402407169342,-0.31163668632507324,0.5431200861930847,0.5000452399253845,0.22517995536327362,-0.6548277139663696,0.7168456315994263,0.486698716878891,0.20016874372959137,-0.3287639021873474,0.5323139429092407,0.5046924352645874,0.21951690316200256,-0.6498261094093323,0.7093757390975952,0.4906190037727356,0.19759108126163483,-0.3560708463191986,0.5289265513420105,0.5058436393737793,0.22520877420902252,-0.6034387350082397,0.6709760427474976,0.4945286810398102,0.22465671598911285,-0.32456469535827637,0.5186370611190796,0.5163566470146179,0.3732181489467621,-0.03261052817106247,0.9993247389793396,0.49176937341690063,0.3615526556968689,0.03257536143064499,0.9994089007377625,0.5301799774169922,0.40309324860572815,0.021554937586188316,0.8693755269050598,0.4266403615474701,0.3361205458641052,0.027274662628769875,0.8876388669013977,0.5678272247314453,0.4043664038181305,0.2532205581665039,0.8224600553512573,0.3806457221508026,0.3795495927333832,0.19677546620368958,0.8363910913467407,0.5719853043556213,0.4048095941543579,0.27981331944465637,0.8381659388542175,0.3791447877883911,0.38926950097084045,0.21148459613323212,0.8303338885307312,0.5713701844215393,0.4232928156852722,0.22965803742408752,0.8363601565361023,0.3553601801395416,0.39054980874061584,0.13666746020317078,0.8043130040168762
30,0.5758558511734009,0.2677953541278839,-0.4394470155239105,0.9978612065315247,0.5802609920501709,0.2784714996814728,-0.4429605007171631,0.9972367882728577,0.5801335573196411,0.2811649739742279,-0.4429614543914795,0.99737948179245,0.5822985768318176,0.27767258882522583,-0.4430522322654724,0.997333288192749,0.5811919569969177,0.27432122826576233,-0.42709922790527344,0.9970213174819946,0.5813413262367249,0.2736426293849945,-0.4272100329399109,0.9967427849769592,0.5810929536819458,0.27356550097465515,-0.42723846435546875,0.9970007538795471,0.5796890258789062,0.29169178009033203,-0.4049755930900574,0.9971126914024353,0.5765048265457153,0.28505781292915344,-0.3335269093513489,0.996104896068573,0.5702395439147949,0.274198979139328,-0.42167067527770996,0.9967008233070374,0.5707388520240784,0.2712854743003845,-0.40105319023132324,0.9960888028144836,0.5542469024658203,0.33008936047554016,-0.38189250230789185,0.9996605515480042,0.5420388579368591,0.281860888004303,-0.20761728286743164,0.9994274377822876,0.5012645721435547,0.3062751889228821,-0.4148349165916443,0.7822149991989136,0.49836596846580505,0.28126561641693115,-0.16021816432476044,0.5119127631187439,0.47733253240585327,0.2272823601961136,-0.44285932183265686,0.7729105353355408,0.4738304018974304,0.23616726696491241,-0.29583144187927246,0.5381292104721069,0.4691923260688782,0.21512021124362946,-0.4849139153957367,0.7373732924461365,0.47011980414390564,0.22197042405605316,-0.2212369740009308,0.530396580696106,0.4746101498603821,0.2093288004398346,-0.47850140929222107,0.7307758927345276,0.46928778290748596,0.21640390157699585,-0.2512994706630707,0.5306314826011658,0.48050886392593384,0.21083369851112366,-0.4417210519313812,0.6904565095901489,0.47047799825668335,0.2246141880750656,-0.2353183925151825,0.5214114189147949,0.5107325911521912,0.39944082498550415,-0.04873228073120117,0.9993642568588257,0.49507012963294983,0.3658192753791809,0.04884140193462372,0.9994279742240906,0.5031723976135254,0.3736577332019806,-0.20481252670288086,0.8718788623809814,0.4431335926055908,0.2890269160270691,-0.027790090069174767,0.8742210865020752,0.5459917783737183,0.3678947389125824,0.021524466574192047,0.8121930360794067,0.4453389644622803,0.26429733633995056,0.10280905663967133,0.8110623359680176,0.5550293922424316,0.36422985792160034,0.04691547155380249,0.8095988035202026,0.4450295865535736,0.26135361194610596,0.11821015179157257,0.7886375188827515,0.5548011064529419,0.36391666531562805,0.02738809958100319,0.818638265132904,0.4456291198730469,0.24392126500606537,0.09463447332382202,0.7756500244140625
31
32
33
34
35
36
37
38
39
40
41
42
43
44
45
46
47
48
49
50
51
52,0.48550671339035034,0.4897753596305847,-0.20290681719779968,0.9979225397109985,0.4920026361942291,0.48719748854637146,-0.21153073012828827,0.9974147081375122,0.4940411448478699,0.4900020956993103,-0.2115708887577057,0.9975650906562805,0.4947609305381775,0.49154967069625854,-0.21168561279773712,0.9975164532661438,0.4909486770629883,0.4852530360221863,-0.1974746435880661,0.9970737099647522,0.49091824889183044,0.4851556420326233,-0.19746685028076172,0.9968189001083374,0.49077194929122925,0.48511722683906555,-0.1974620372056961,0.9969417452812195,0.49676474928855896,0.5021629333496094,-0.21131277084350586,0.9973592162132263,0.4940986633300781,0.49418824911117554,-0.1482340693473816,0.9961331486701965,0.4833424687385559,0.4981324374675751,-0.19979824125766754,0.9969295263290405,0.48241716623306274,0.495855450630188,-0.1816399097442627,0.9962275624275208,0.47467240691185,0.5438168048858643,-0.21720106899738312,0.9996917247772217,0.4756266474723816,0.5175547003746033,-0.0681651160120964,0.999321460723877,0.4566691815853119,0.6099087595939636,-0.23530130088329315,0.7956651449203491,0.4740172028541565,0.5670482516288757,-0.0695861279964447,0.4702237844467163,0.45364290475845337,0.6594122052192688,-0.2629690170288086,0.7821670770645142,0.49690189957618713,0.5980523824691772,-0.13259999454021454,0.5004112124443054,0.4562017321586609,0.6721144914627075,-0.2880834639072418,0.749912440776825,0.5024263262748718,0.6079469919204712,-0.13843603432178497,0.4975283443927765,0.45709046721458435,0.6699737310409546,-0.29958152770996094,0.7439097166061401,0.504059374332428,0.6009538769721985,-0.1489977091550827,0.4973541796207428,0.45530956983566284,0.6649237871170044,-0.2685493528842926,0.7019588351249695,0.501668393611908,0.5983957648277283,-0.13847602903842926,0.4880792796611786,0.42435622215270996,0.6107138991355896,-0.06387381255626678,0.9994266629219055,0.4238795340061188,0.5943514108657837,0.06375829130411148,0.9994817972183228,0.411123663187027,0.5461382269859314,-0.1400340348482132,0.8829882144927979,0.4183838963508606,0.5334328413009644,0.06835352629423141,0.8249412178993225,0.4132932722568512,0.6108230352401733,0.002902863547205925,0.816029965877533,0.41457051038742065,0.5924358367919922,0.1476687341928482,0.7515444755554199,0.4205257296562195,0.6142038702964783,0.019009459763765335,0.8018798828125,0.41731977462768555,0.5976840853691101,0.15456384420394897,0.7345780730247498,0.40399131178855896,0.6327028274536133,0.03976497799158096,0.8148170709609985,0.40320974588394165,0.6028440594673157,0.16405564546585083,0.7179610133171082
53
54
55,0.4500182271003723,0.46940353512763977,0.27313700318336487,0.9973446726799011,0.45146188139915466,0.46433666348457336,0.26353707909584045,0.9952737092971802,0.4508729577064514,0.46354538202285767,0.2635553777217865,0.9956452250480652,0.4503241181373596,0.4628254771232605,0.26355621218681335,0.9953413605690002,0.4538767337799072,0.4672941267490387,0.27485886216163635,0.9960897564888,0.4549620747566223,0.4686436653137207,0.2749156951904297,0.9960147738456726,0.45605403184890747,0.46994778513908386,0.27488136291503906,0.9962459206581116,0.4490025043487549,0.4671366810798645,0.20952752232551575,0.9950990676879883,0.4571431577205658,0.47775429487228394,0.26437222957611084,0.9960946440696716,0.44687604904174805,0.47352367639541626,0.25337550044059753,0.9963842034339905,0.4492121636867523,0.4765826463699341,0.2691769301891327,0.9962290525436401,0.4393705725669861,0.4761944115161896,0.11667202413082123,0.999710202217102,0.45357710123062134,0.5175865888595581,0.2408173829317093,0.9993834495544434,0.4358019232749939,0.47238025069236755,-0.0052985819056630135,0.7458235025405884,0.43581342697143555,0.5693652033805847,0.20131513476371765,0.4373917877674103,0.43478018045425415,0.46859481930732727,-0.11981341987848282,0.7449286580085754,0.4247472882270813,0.615901529788971,0.14079198241233826,0.5048623085021973,0.4352479577064514,0.4646635949611664,-0.15012036263942719,0.7297711968421936,0.42255014181137085,0.628147304058075,0.13515326380729675,0.5205652713775635,0.4365978240966797,0.46468788385391235,-0.1386512964963913,0.7207227349281311,0.42266902327537537,0.6258544325828552,0.12922917306423187,0.515659511089325,0.4366079270839691,0.47003403306007385,-0.1184086948633194,0.6778061389923096,0.42299318313598633,0.6213161945343018,0.1373993307352066,0.501525342464447,0.4094785153865814,0.5534417033195496,-0.04838944599032402,0.9994839429855347,0.42942434549331665,0.5735731720924377,0.04813468083739281,0.999533474445343,0.37335631251335144,0.5697806477546692,-0.06030840426683426,0.8895339965820312,0.4281889498233795,0.6025310754776001,0.09707988053560257,0.8050432205200195,0.36783427000045776,0.6081902384757996,-0.17231084406375885,0.831815779209137,0.44294223189353943,0.6572341918945312,-0.07058756798505783,0.7728061079978943,0.37211596965789795,0.6073347926139832,-0.18469442427158356,0.8214942812919617,0.44644635915756226,0.6617392301559448,-0.08983839303255081,0.7605374455451965,0.35438284277915955,0.6441749334335327,-0.19639337062835693,0.8313450217247009,0.43515509366989136,0.6868479251861572,-0.117630735039711,0.7440094351768494
56,0.48459142446517944,0.441146582365036,0.31049901247024536,0.9868272542953491,0.48743581771850586,0.44132912158966064,0.3025360703468323,0.9814510941505432,0.4887464940547943,0.43662798404693604,0.3025394678115845,0.985786497592926,0.48762616515159607,0.44580990076065063,0.30251872539520264,0.9836149215698242,0.48773282766342163,0.44180482625961304,0.3161035478115082,0.9766408205032349,0.4875834584236145,0.4424949288368225,0.3161216080188751,0.9777630567550659,0.4886300563812256,0.4547628164291382,0.3161126971244812,0.9811797738075256,0.4875355660915375,0.4489245116710663,0.25296372175216675,0.9905843734741211,0.48878273367881775,0.46182194352149963,0.31762248277664185,0.9900656938552856,0.48282894492149353,0.453651487827301,0.2921578288078308,0.9906944632530212,0.4833454489707947,0.457615464925766,0.3107839822769165,0.9914725422859192,0.482368528842926,0.443026065826416,0.1445455253124237,0.9997378587722778,0.4791256785392761,0.4923401474952698,0.3053004741668701,0.9994025230407715,0.4801793098449707,0.41283825039863586,0.018276628106832504,0.7245258688926697,0.4557986259460449,0.5236369371414185,0.32231050729751587,0.39538881182670593,0.47739481925964355,0.40838173031806946,-0.07520173490047455,0.7618459463119507,0.43599939346313477,0.5367793440818787,0.3275405764579773,0.4649236798286438,0.47872018814086914,0.40493136644363403,-0.10650505125522614,0.7523662447929382,0.43211299180984497,0.5421659350395203,0.33128979802131653,0.4937974512577057,0.4775720238685608,0.40800806879997253,-0.09413252770900726,0.7426112294197083,0.4311830401420593,0.5360317826271057,0.32116255164146423,0.48774999380111694,0.476887047290802,0.4125222861766815,-0.07352549582719803,0.6995420455932617,0.4329405725002289,0.5330770015716553,0.3226357102394104,0.4735105633735657,0.45107537508010864,0.5232514142990112,-0.046458225697278976,0.9995355010032654,0.4544598162174225,0.5459146499633789,0.04643389210104942,0.999579906463623,0.41613930463790894,0.5780348181724548,-0.1497281938791275,0.8994311690330505,0.4306570589542389,0.5986440181732178,-0.011211792938411236,0.8019375205039978,0.4382527768611908,0.6255885362625122,-0.2162855863571167,0.8476055264472961,0.4499947428703308,0.6554596424102783,-0.10692733526229858,0.7863144278526306,0.4445473253726959,0.6240527629852295,-0.22439153492450714,0.8391488194465637,0.4538264274597168,0.6608458161354065,-0.12019290030002594,0.7811779379844666,0.43984365463256836,0.6654497981071472,-0.2651228904724121,0.8475013971328735,0.4467715322971344,0.6798784732818604,-0.17232592403888702,0.7656250596046448
57
58,0.4858323037624359,0.4816288948059082,-0.37801605463027954,0.9881434440612793,0.49094170331954956,0.4789482653141022,-0.37111762166023254,0.9833042621612549,0.49087172746658325,0.47920364141464233,-0.3710522949695587,0.9872047305107117,0.49059945344924927,0.4791482090950012,-0.3710695505142212,0.98525071144104,0.4904789328575134,0.4795650243759155,-0.3821306824684143,0.9789765477180481,0.48682650923728943,0.4747938811779022,-0.38226237893104553,0.9799865484237671,0.4838826060295105,0.4772334098815918,-0.3824092149734497,0.9830616116523743,0.48744964599609375,0.4789268672466278,-0.2972918450832367,0.9915196299552917,0.4740702211856842,0.4748914837837219,-0.34381717443466187,0.9910590052604675,0.4835548996925354,0.4865409731864929,-0.34352388978004456,0.9916167259216309,0.4830041527748108,0.4861151874065399,-0.357393741607666,0.9923231601715088,0.4734230041503906,0.4675481915473938,-0.18912066519260406,0.9994621276855469,0.454881489276886,0.5006003379821777,-0.26237908005714417,0.999457597732544,0.4662292003631592,0.442550927400589,-0.1024823933839798,0.6765949726104736,0.42183834314346313,0.559407651424408,-0.2790272831916809,0.455380380153656,0.4668787121772766,0.4187374711036682,-0.08948654681444168,0.717746376991272,0.4360826015472412,0.6284170746803284,-0.3378167748451233,0.5173731446266174,0.4661594331264496,0.4090381860733032,-0.09912125021219254,0.7090191841125488,0.43358105421066284,0.6482226848602295,-0.35969895124435425,0.5424268245697021,0.47046127915382385,0.41179603338241577,-0.10481210052967072,0.7006774544715881,0.4392005503177643,0.6446661353111267,-0.3722800016403198,0.536893367767334,0.47065845131874084,0.41667643189430237,-0.09236904978752136,0.6603058576583862,0.44081202149391174,0.6322149634361267,-0.34080415964126587,0.5223379135131836,0.41680583357810974,0.5333638787269592,-0.007119688205420971,0.9995664954185486,0.41487541794776917,0.5532808303833008,0.006778516806662083,0.9996188879013062,0.4074687361717224,0.4687108099460602,-0.02074112929403782,0.9021673798561096,0.4185507893562317,0.55857253074646,0.04486323520541191,0.810706615447998,0.3433692157268524,0.3829415440559387,0.028861384838819504,0.8600457906723022,0.38134637475013733,0.5613128542900085,0.17776842415332794,0.78745436668396,0.33112818002700806,0.36953073740005493,0.033203478902578354,0.8482191562652588,0.37516406178474426,0.5600099563598633,0.19150689244270325,0.7835404872894287,0.340175986289978,0.35274791717529297,-0.009496073238551617,0.8582675457000732,0.3756260871887207,0.5687116980552673,0.1812034249305725,0.7685234546661377
59
60,0.40454334020614624,0.36789315938949585,-0.0197178702801466,0.9879242777824402,0.4053024649620056,0.3566914200782776,-0.03689853474497795,0.9842212200164795,0.4054103493690491,0.3561363220214844,-0.0368904210627079,0.9877126216888428,0.4053993821144104,0.35584694147109985,-0.03689179942011833,0.9860883951187134,0.40670275688171387,0.356730192899704,-0.016398148611187935,0.9798924326896667,0.4075222611427307,0.35603469610214233,-0.016448432579636574,0.98050856590271,0.40812429785728455,0.3555472493171692,-0.016525181010365486,0.9835609793663025,0.41036757826805115,0.35963934659957886,-0.09170603007078171,0.9912901520729065,0.41635555028915405,0.3568396270275116,0.001737756421789527,0.9903383851051331,0.408511221408844,0.37481239438056946,-0.036357276141643524,0.9898665547370911,0.4094581604003906,0.3742436170578003,-0.009753666818141937,0.9898195862770081,0.4110976755619049,0.3935548663139343,-0.1613304167985916,0.999315619468689,0.4308781027793884,0.3959275782108307,0.06803886592388153,0.9983881711959839,0.36930862069129944,0.36495864391326904,-0.2074279487133026,0.7034472823143005,0.4202870726585388,0.38390740752220154,0.19892431795597076,0.427204430103302,0.34320926666259766,0.31621724367141724,-0.1565726101398468,0.7362170219421387,0.40139642357826233,0.3583599925041199,0.2894115149974823,0.48798567056655884,0.3335511088371277,0.3057938814163208,-0.1728832721710205,0.7258402109146118,0.400245726108551,0.351559579372406,0.3116367757320404,0.5129441022872925,0.33587324619293213,0.30031031370162964,-0.16217084228992462,0.7182385921478271,0.39943578839302063,0.3491329848766327,0.298200398683548,0.5077720284461975,0.3389356732368469,0.30320075154304504,-0.15108223259449005,0.676164448261261,0.39881956577301025,0.35202866792678833,0.2863803803920746,0.4949488043785095,0.44657355546951294,0.5313069224357605,-0.08754503726959229,0.9995681643486023,0.4542025923728943,0.524468183517456,0.08740691095590591,0.999518096446991,0.4084865152835846,0.5781717300415039,-0.08544103801250458,0.9081529974937439,0.4229501187801361,0.5756722688674927,0.18938755989074707,0.7800465226173401,0.42715105414390564,0.6688481569290161,-0.009156228974461555,0.8698336482048035,0.4279455244541168,0.6427061557769775,0.29308900237083435,0.7691627740859985,0.4323490560054779,0.6793181896209717,0.0005534736556001008,0.8574410676956177,0.44410520792007446,0.6550700068473816,0.3041402995586395,0.7722728848457336,0.40896138548851013,0.7007585167884827,-0.02352902665734291,0.8682383894920349,0.41654539108276367,0.6747411489486694,0.2998274564743042,0.7575559020042419
61,0.4082314968109131,0.3693329095840454,0.025320759043097496,0.9888877868652344,0.41366100311279297,0.3603517711162567,0.014583336189389229,0.9856817126274109,0.41440659761428833,0.36018937826156616,0.014576027169823647,0.9888169169425964,0.4152199625968933,0.3602462410926819,0.01455120462924242,0.9873887896537781,0.41393059492111206,0.3605479896068573,0.039321400225162506,0.9816699624061584,0.414689302444458,0.3604224622249603,0.03930912911891937,0.9821200966835022,0.4155256152153015,0.3604860007762909,0.03928028792142868,0.9849727153778076,0.42050227522850037,0.3657003343105316,-0.023740340024232864,0.9920341968536377,0.42095693945884705,0.366030752658844,0.08842499554157257,0.9909800291061401,0.410727322101593,0.37648850679397583,0.012460555881261826,0.9900230765342712,0.4108056128025055,0.3762180507183075,0.04472505301237106,0.9897868633270264,0.41373902559280396,0.3987608551979065,-0.09919676929712296,0.9993009567260742,0.43058252334594727,0.40371692180633545,0.15315969288349152,0.9977095723152161,0.37053659558296204,0.36545801162719727,-0.14772216975688934,0.731590747833252,0.3892373740673065,0.37658482789993286,0.2084222286939621,0.41290926933288574,0.34593260288238525,0.3165801167488098,-0.1069767028093338,0.7537845373153687,0.36232346296310425,0.3303399085998535,0.18544086813926697,0.48648151755332947,0.3415551781654358,0.30631572008132935,-0.12553410232067108,0.740301251411438,0.3691886365413666,0.3257025480270386,0.19748428463935852,0.5096635222434998,0.34703463315963745,0.3016735315322876,-0.10882946103811264,0.7325024008750916,0.3631090521812439,0.31258997321128845,0.18222883343696594,0.5054551362991333,0.3482845425605774,0.3055146634578705,-0.09891793131828308,0.6903055906295776,0.3638218641281128,0.3189525902271271,0.1782209873199463,0.49403923749923706,0.4467547535896301,0.5267052054405212,-0.08757223188877106,0.9995872974395752,0.45418423414230347,0.5246354937553406,0.08744120597839355,0.9995039105415344,0.4108319878578186,0.5829231142997742,-0.14477714896202087,0.9122801423072815,0.4229552149772644,0.5940955877304077,0.1332888901233673,0.7167419791221619,0.42849332094192505,0.6743125915527344,-0.11700175702571869,0.8690866827964783,0.4279523491859436,0.6674932837486267,0.17075632512569427,0.7117411494255066,0.43361592292785645,0.6814067363739014,-0.11220842599868774,0.860252320766449,0.4369972348213196,0.6775969862937927,0.17445752024650574,0.731476366519928,0.410469114780426,0.7031428217887878,-0.13379056751728058,0.8680212497711182,0.4157784879207611,0.6916730999946594,0.1623627096414566,0.7125732898712158
62,0.40810126066207886,0.3756944537162781,0.007394274231046438,0.9896793961524963,0.41245657205581665,0.3670274615287781,-0.006420826073735952,0.9869436621665955,0.41302889585494995,0.3667934536933899,-0.006421572063118219,0.9897631406784058,0.4135885238647461,0.36671802401542664,-0.006433386355638504,0.9885155558586121,0.41301316022872925,0.3670262396335602,0.016348371282219887,0.9832324385643005,0.4138580858707428,0.36669448018074036,0.01632506586611271,0.9835602045059204,0.414710134267807,0.36651375889778137,0.016286808997392654,0.9861980676651001,0.4191872477531433,0.36973971128463745,-0.051948320120573044,0.9926011562347412,0.421558678150177,0.3694581687450409,0.05221731588244438,0.9915165901184082,0.41064754128456116,0.3819475471973419,-0.007258153520524502,0.9900952577590942,0.4108656048774719,0.3817881941795349,0.022457264363765717,0.9897947907447815,0.4147007465362549,0.4018051028251648,-0.12245064973831177,0.9993153810501099,0.435598224401474,0.40599340200424194,0.12022130191326141,0.9974486827850342,0.37512582540512085,0.3658967614173889,-0.16947230696678162,0.7575116753578186,0.3998495042324066,0.3664984703063965,0.1961892992258072,0.38506442308425903,0.3494020700454712,0.31659162044525146,-0.14705923199653625,0.7733702063560486,0.3730267882347107,0.3246147036552429,0.17741122841835022,0.4763430058956146,0.3439481854438782,0.30649736523628235,-0.16977731883525848,0.7588371634483337,0.3746289610862732,0.31505873799324036,0.19171299040317535,0.5053852200508118,0.3499208986759186,0.3019771873950958,-0.1446274220943451,0.7511115670204163,0.3693980574607849,0.3109647333621979,0.17341552674770355,0.5018181204795837,0.3515724539756775,0.3055984675884247,-0.13568182289600372,0.7092907428741455,0.37252917885780334,0.3150844871997833,0.1700797975063324,0.4913588762283325,0.44802945852279663,0.5235384106636047,-0.0877358615398407,0.9996045827865601,0.4573964476585388,0.5219247937202454,0.0876041129231453,0.9995013475418091,0.4125748574733734,0.5856167078018188,-0.049258340150117874,0.9174113273620605,0.42090338468551636,0.5915332436561584,0.15278413891792297,0.6659665703773499,0.4289143979549408,0.6729361414909363,-0.03757498413324356,0.8776130676269531,0.42795926332473755,0.6613144278526306,0.1900646984577179,0.6792325973510742,0.4345945417881012,0.6783700585365295,-0.03907033056020737,0.8694255948066711,0.43510332703590393,0.6725386381149292,0.19361421465873718,0.7121805548667908,0.4113294184207916,0.6965141892433167,-0.030343318358063698,0.8764306902885437,0.41293078660964966,0.6894152164459229,0.188789963722229,0.697851836681366
63,0.4103619158267975,0.38272517919540405,0.0027975921984761953,0.9903472661972046,0.41326770186424255,0.3750843107700348,-0.012237941846251488,0.9880260825157166,0.4136022627353668,0.37519875168800354,-0.012234725058078766,0.9905606508255005,0.4138542115688324,0.3755304515361786,-0.012241567485034466,0.9894782304763794,0.41515764594078064,0.37429124116897583,0.009286759421229362,0.9845295548439026,0.41624918580055237,0.37415561079978943,0.009261402301490307,0.9847259521484375,0.4173649251461029,0.37417349219322205,0.009225137531757355,0.9871712923049927,0.41941705346107483,0.3795907199382782,-0.06158587336540222,0.9930417537689209,0.42447391152381897,0.37808477878570557,0.04684881493449211,0.9918331503868103,0.4127594530582428,0.3906385600566864,-0.012927347794175148,0.9900579452514648,0.4137640595436096,0.39023521542549133,0.015344175510108471,0.9897010326385498,0.4154694080352783,0.4102896749973297,-0.12877777218818665,0.9993150234222412,0.4383230209350586,0.4133598208427429,0.1045791283249855,0.9972535371780396,0.3756655156612396,0.3700568377971649,-0.17368337512016296,0.7793583869934082,0.40388065576553345,0.37118178606033325,0.1728048026561737,0.3579464256763458,0.3509010672569275,0.3212428092956543,-0.1311795860528946,0.7886068224906921,0.3763853907585144,0.32872751355171204,0.18227466940879822,0.4622112214565277,0.3451847434043884,0.31115975975990295,-0.14809300005435944,0.7735704183578491,0.3734866976737976,0.32393133640289307,0.19869033992290497,0.4963143765926361,0.3496992290019989,0.3078102469444275,-0.1300726681947708,0.7662272453308105,0.37306341528892517,0.31952226161956787,0.18358729779720306,0.493184894323349,0.35144156217575073,0.3109583258628845,-0.1222834438085556,0.7243275046348572,0.37385478615760803,0.3213236629962921,0.17723612487316132,0.48270362615585327,0.4476746618747711,0.5304480195045471,-0.08319078385829926,0.9996379017829895,0.45755043625831604,0.530017077922821,0.08293374627828598,0.9995387196540833,0.4123186469078064,0.5924835801124573,0.008886712603271008,0.9202566146850586,0.4201069474220276,0.5886158347129822,0.19560357928276062,0.6236363649368286,0.4291202425956726,0.6628265976905823,0.025574052706360817,0.8861683011054993,0.42801037430763245,0.6590753793716431,0.2113904058933258,0.6786924600601196,0.43420910835266113,0.6604834198951721,0.03036508336663246,0.8787264227867126,0.43387261033058167,0.6681753396987915,0.21451601386070251,0.7156124114990234,0.4215641915798187,0.6895519495010376,0.0441642589867115,0.8856711983680725,0.4182022511959076,0.6870220899581909,0.21827542781829834,0.7077556848526001
64,0.4106447100639343,0.3911062479019165,-0.00521837966516614,0.9905536770820618,0.41269931197166443,0.3847392201423645,-0.022311517968773842,0.9886830449104309,0.41294845938682556,0.38484159111976624,-0.022295812144875526,0.9909548759460449,0.4131169319152832,0.3849814236164093,-0.02229141816496849,0.9900360107421875,0.41489100456237793,0.3838365375995636,-0.004935136530548334,0.9853985905647278,0.4158851206302643,0.38385576009750366,-0.0049505895003676414,0.9854257702827454,0.41686439514160156,0.38382187485694885,-0.004961877595633268,0.9877106547355652,0.4177649915218353,0.3879634439945221,-0.07764698565006256,0.9929424524307251,0.4237760007381439,0.3865152597427368,0.00467365887016058,0.9918675422668457,0.4131932854652405,0.3988052308559418,-0.021865015849471092,0.9890819787979126,0.4141249656677246,0.3989914655685425,0.0011359787313267589,0.9888706803321838,0.415283203125,0.4156898558139801,-0.13163594901561737,0.9993009567260742,0.43917346000671387,0.4190763533115387,0.06179662421345711,0.9970695972442627,0.3757716715335846,0.3753364384174347,-0.18034973740577698,0.7978211045265198,0.4185318350791931,0.3957597017288208,0.1574445515871048,0.3381643295288086,0.35186293721199036,0.32243266701698303,-0.148655965924263,0.8043612241744995,0.40710607171058655,0.3598068952560425,0.19832858443260193,0.4480125904083252,0.3470365107059479,0.31257855892181396,-0.16688783466815948,0.789510190486908,0.40883392095565796,0.3517821729183197,0.21458494663238525,0.48582494258880615,0.3511156141757965,0.3096126616001129,-0.15238505601882935,0.7827728390693665,0.4079556465148926,0.3491049110889435,0.2009398490190506,0.4833441972732544,0.3540056347846985,0.3126693069934845,-0.14189203083515167,0.7417021989822388,0.406094491481781,0.35261380672454834,0.19435535371303558,0.4733565151691437,0.44711342453956604,0.5384431481361389,-0.07802734524011612,0.9996665120124817,0.4572366178035736,0.5371249914169312,0.07775648683309555,0.9995701313018799,0.41204047203063965,0.5966055989265442,0.03476472571492195,0.921198308467865,0.4201316833496094,0.5878620147705078,0.20683935284614563,0.588395893573761,0.42932167649269104,0.6586230397224426,0.06600762903690338,0.8941017985343933,0.4277355670928955,0.6541951894760132,0.22950339317321777,0.6799536943435669,0.4378196597099304,0.6534548401832581,0.07262002676725388,0.8874682784080505,0.4348994195461273,0.661392331123352,0.2358158528804779,0.7188524007797241,0.42747870087623596,0.6869198679924011,0.08249776810407639,0.8940947651863098,0.4221773147583008,0.6854798197746277,0.2303050011396408,0.7159824371337891
65,0.4182732105255127,0.3953932821750641,0.033074766397476196,0.9914740324020386,0.41895419359207153,0.38941773772239685,0.013867862522602081,0.9897986650466919,0.4187532961368561,0.38971880078315735,0.013880783692002296,0.9918398857116699,0.41849350929260254,0.3900905251502991,0.013877766206860542,0.9910184144973755,0.42205557227134705,0.3884965777397156,0.029687395319342613,0.9868354797363281,0.4234427511692047,0.3883739709854126,0.029645169153809547,0.9868482351303101,0.4249414801597595,0.38823258876800537,0.029651110991835594,0.9889113903045654,0.4207131862640381,0.3947746455669403,-0.0512334480881691,0.993622899055481,0.4314861297607422,0.3923458755016327,0.0191161148250103,0.992645800113678,0.41961270570755005,0.40244901180267334,0.013019544072449207,0.9901187419891357,0.42193761467933655,0.40171849727630615,0.03390955179929733,0.9899190068244934,0.41541552543640137,0.42682284116744995,-0.10370972007513046,0.9993624091148376,0.44970637559890747,0.4247916042804718,0.07087509334087372,0.9973089098930359,0.3765105605125427,0.38107606768608093,-0.11408518254756927,0.8173905611038208,0.4500080943107605,0.3927447199821472,0.18830299377441406,0.36568424105644226,0.35300055146217346,0.33603107929229736,-0.03132607042789459,0.8224238753318787,0.44441017508506775,0.3729352653026581,0.29068151116371155,0.4575047791004181,0.34755635261535645,0.325293630361557,-0.03551587089896202,0.8082799911499023,0.4456191658973694,0.364615797996521,0.31515267491340637,0.4921141266822815,0.352938711643219,0.3218856751918793,-0.02632281184196472,0.8021646738052368,0.44513893127441406,0.3664938509464264,0.30357035994529724,0.48921775817871094,0.3555964231491089,0.3247223198413849,-0.02487359754741192,0.7635201811790466,0.4439195990562439,0.3716600239276886,0.28949350118637085,0.4793362617492676,0.4468964636325836,0.5515583157539368,-0.0691155269742012,0.999699056148529,0.46418267488479614,0.5464519262313843,0.06868784129619598,0.999610424041748,0.4079838693141937,0.6028904318809509,0.050038646906614304,0.9249935746192932,0.43033719062805176,0.5871248841285706,0.23067621886730194,0.5649399161338806,0.4302136301994324,0.6572149395942688,0.04520894214510918,0.9023487567901611,0.4368440508842468,0.6441080570220947,0.2148773968219757,0.6902449131011963,0.44038718938827515,0.6477108597755432,0.04969271272420883,0.8967326879501343,0.43990272283554077,0.6491464972496033,0.21518342196941376,0.7339816093444824,0.4289320409297943,0.6858465671539307,0.06742344051599503,0.9021258354187012,0.4276692271232605,0.6808367371559143,0.22704561054706573,0.7255499958992004
66,0.4210891127586365,0.39786019921302795,0.017604846507310867,0.9921185374259949,0.4225020408630371,0.3923862874507904,0.0005983506562188268,0.9906896948814392,0.42206209897994995,0.39296382665634155,0.000614875287283212,0.9925289750099182,0.42126378417015076,0.39369094371795654,0.000605451175943017,0.9918007850646973,0.4257090091705322,0.3915505111217499,0.02365541085600853,0.9879615902900696,0.42733773589134216,0.39153966307640076,0.023601775988936424,0.9879218935966492,0.429037481546402,0.3914726674556732,0.02351040206849575,0.9897902607917786,0.4246577322483063,0.39893147349357605,-0.0551404170691967,0.9940714836120605,0.435465008020401,0.39602765440940857,0.010487685911357403,0.9931418895721436,0.42134690284729004,0.40585678815841675,-0.0001390086254104972,0.990540087223053,0.42452430725097656,0.404886931180954,0.030381908640265465,0.9902748465538025,0.4159318506717682,0.43148139119148254,-0.11725246906280518,0.9993797540664673,0.4511645436286926,0.4298843741416931,0.061183638870716095,0.9971713423728943,0.37679943442344666,0.38656356930732727,-0.14769546687602997,0.8347389101982117,0.4419175088405609,0.39198973774909973,0.15257999300956726,0.37037143111228943,0.35427019000053406,0.34011203050613403,-0.08593923598527908,0.8375675678253174,0.43070071935653687,0.3679583668708801,0.19056951999664307,0.46478763222694397,0.34809356927871704,0.33001214265823364,-0.0970631018280983,0.8237236142158508,0.43173885345458984,0.3604915738105774,0.20538167655467987,0.5009679794311523,0.35401028394699097,0.3270602226257324,-0.08218489587306976,0.8181583881378174,0.43022069334983826,0.3642013967037201,0.19181188941001892,0.49856916069984436,0.3567971885204315,0.32976511120796204,-0.07826988399028778,0.7809136509895325,0.42881450057029724,0.3689042031764984,0.18676051497459412,0.4876813590526581,0.44700726866722107,0.5525208711624146,-0.07095687836408615,0.9997202754020691,0.4651542603969574,0.5488966703414917,0.07062866538763046,0.9996282458305359,0.409761905670166,0.6073012948036194,0.029372146353125572,0.9255740642547607,0.42929163575172424,0.5973730087280273,0.22263725101947784,0.5309585928916931,0.4318881630897522,0.6585302948951721,0.0353027805685997,0.9066211581230164,0.4366095960140228,0.6523177027702332,0.204867884516716,0.6768616437911987,0.4412451386451721,0.6538991332054138,0.03944110870361328,0.9034496545791626,0.44007426500320435,0.6566440463066101,0.20693695545196533,0.735215961933136,0.42818742990493774,0.6871500015258789,0.04541454464197159,0.906379759311676,0.4292871057987213,0.6822793483734131,0.20988433063030243,0.718946635723114
67,0.42504867911338806,0.39708054065704346,0.014118509367108345,0.9927634000778198,0.4257567822933197,0.3930608630180359,-0.0018401216948404908,0.9915340542793274,0.4252927899360657,0.3936372399330139,-0.0018323215190321207,0.9931803941726685,0.4247320294380188,0.3941853940486908,-0.001832356327213347,0.9925390481948853,0.4295046925544739,0.391855388879776,0.01755613461136818,0.9890391826629639,0.4307693541049957,0.3919311463832855,0.017524417489767075,0.9889518618583679,0.4321448802947998,0.3918517827987671,0.017493823543190956,0.9906735420227051,0.42710813879966736,0.40054062008857727,-0.053519804030656815,0.994516134262085,0.43693891167640686,0.3974197506904602,0.0235030148178339,0.9936894774436951,0.4241529405117035,0.40528833866119385,-0.0017175280954688787,0.9909808039665222,0.42802757024765015,0.4039459824562073,0.023695126175880432,0.9907482862472534,0.4164910316467285,0.432165265083313,-0.10987414419651031,0.9993895888328552,0.45216622948646545,0.432222455739975,0.0731215626001358,0.9971320033073425,0.37711861729621887,0.3881528079509735,-0.14357484877109528,0.8502529859542847,0.4389006197452545,0.39233505725860596,0.1535239964723587,0.36651962995529175,0.35537365078926086,0.3372049629688263,-0.10372835397720337,0.8511093854904175,0.4251018166542053,0.3674526810646057,0.16101039946079254,0.4802619516849518,0.34971171617507935,0.32749783992767334,-0.11838529258966446,0.8375877737998962,0.42572537064552307,0.3586869537830353,0.17210805416107178,0.5175697207450867,0.35910362005233765,0.32440540194511414,-0.10518047958612442,0.8324667811393738,0.42548951506614685,0.36363857984542847,0.15813612937927246,0.5160894989967346,0.3614509701728821,0.32700231671333313,-0.09695647656917572,0.7969905734062195,0.42307958006858826,0.36764076352119446,0.1559787094593048,0.5042383670806885,0.4480131268501282,0.5569197535514832,-0.07311201840639114,0.9997395873069763,0.4646640419960022,0.5545411705970764,0.07282377034425735,0.9996482729911804,0.4059864580631256,0.610629677772522,0.013019666075706482,0.9238474369049072,0.4271862506866455,0.6048880815505981,0.1878807097673416,0.49112141132354736,0.4351416230201721,0.6615434885025024,0.025471419095993042,0.9080013036727905,0.43582502007484436,0.655262291431427,0.1787390559911728,0.6492103934288025,0.44217801094055176,0.6650631427764893,0.02449926733970642,0.90855872631073,0.44107985496520996,0.6646097302436829,0.18012751638889313,0.7263466119766235,0.43292737007141113,0.6942499279975891,0.03111054003238678,0.9081433415412903,0.4289155602455139,0.6900132894515991,0.1868145912885666,0.7019181251525879
68,0.43249616026878357,0.394976943731308,0.02920202910900116,0.9933692216873169,0.4338858127593994,0.38890695571899414,0.010664542205631733,0.9923007488250732,0.43336910009384155,0.38926586508750916,0.010671221651136875,0.9937753081321716,0.4328020215034485,0.3896850049495697,0.010702135041356087,0.9932120442390442,0.4382127821445465,0.3881305158138275,0.028015384450554848,0.9900305867195129,0.4391070306301117,0.38802874088287354,0.027997666969895363,0.9899185299873352,0.43996015191078186,0.3878720998764038,0.027985837310552597,0.9914973974227905,0.433925062417984,0.39551612734794617,-0.05165553838014603,0.9949080348014832,0.4431406855583191,0.3924790322780609,0.025820812210440636,0.9941350817680359,0.43027544021606445,0.4031327962875366,0.00966696348041296,0.9914766550064087,0.43433961272239685,0.4027324318885803,0.03244567662477493,0.9912525415420532,0.4184533655643463,0.4297884702682495,-0.110465407371521,0.9994150400161743,0.45477405190467834,0.429118812084198,0.07414837181568146,0.9971812963485718,0.38092705607414246,0.38932397961616516,-0.1337180882692337,0.8640387654304504,0.43940120935440063,0.3914628028869629,0.1624021679162979,0.3571456968784332,0.3566114902496338,0.33914098143577576,-0.09213487803936005,0.8635187745094299,0.4236035943031311,0.36102014780044556,0.19242459535598755,0.4943639039993286,0.3498539626598358,0.3289221525192261,-0.10621075332164764,0.8503519296646118,0.42335453629493713,0.35457462072372437,0.20711854100227356,0.5309950113296509,0.3569249212741852,0.3267289400100708,-0.09529749304056168,0.8457249999046326,0.4224942624568939,0.35863903164863586,0.19422900676727295,0.5299538373947144,0.35958653688430786,0.329388290643692,-0.08581438660621643,0.8115285634994507,0.42121464014053345,0.3593823313713074,0.18847984075546265,0.5155524611473083,0.4499419629573822,0.5551154017448425,-0.07352043688297272,0.9997643232345581,0.46527647972106934,0.5507312417030334,0.07319813221693039,0.9996785521507263,0.4126030504703522,0.6064951419830322,0.017406044527888298,0.9262499213218689,0.42616352438926697,0.6031575798988342,0.23854568600654602,0.45609724521636963,0.43625712394714355,0.6614971160888672,-0.0194130577147007,0.9150109887123108,0.43577510118484497,0.6502752304077148,0.2005251944065094,0.6462834477424622,0.44589513540267944,0.6652497053146362,-0.020950928330421448,0.9149921536445618,0.4369155764579773,0.6560569405555725,0.2057340145111084,0.7271961569786072,0.43430909514427185,0.6944614052772522,-0.025020232424139977,0.9156681895256042,0.4283604621887207,0.6893532872200012,0.20891305804252625,0.7108969688415527
