frame,NOSE.x,NOSE.y,NOSE.z,NOSE.v,LEFT_EYE_INNER.x,LEFT_EYE_INNER.y,LEFT_EYE_INNER.z,LEFT_EYE_INNER.v,LEFT_EYE.x,LEFT_EYE.y,LEFT_EYE.z,LEFT_EYE.v,LEFT_EYE_OUTER.x,LEFT_EYE_OUTER.y,LEFT_EYE_OUTER.z,LEFT_EYE_OUTER.v,RIGHT_EYE_INNER.x,RIGHT_EYE_INNER.y,RIGHT_EYE_INNER.z,RIGHT_EYE_INNER.v,RIGHT_EYE.x,RIGHT_EYE.y,RIGHT_EYE.z,RIGHT_EYE.v,RIGHT_EYE_OUTER.x,RIGHT_EYE_OUTER.y,RIGHT_EYE_OUTER.z,RIGHT_EYE_OUTER.v,LEFT_EAR.x,LEFT_EAR.y,LEFT_EAR.z,LEFT_EAR.v,RIGHT_EAR.x,RIGHT_EAR.y,RIGHT_EAR.z,RIGHT_EAR.v,MOUTH_LEFT.x,MOUTH_LEFT.y,MOUTH_LEFT.z,MOUTH_LEFT.v,MOUTH_RIGHT.x,MOUTH_RIGHT.y,MOUTH_RIGHT.z,MOUTH_RIGHT.v,LEFT_SHOULDER.x,LEFT_SHOULDER.y,LEFT_SHOULDER.z,LEFT_SHOULDER.v,RIGHT_SHOULDER.x,RIGHT_SHOULDER.y,RIGHT_SHOULDER.z,RIGHT_SHOULDER.v,LEFT_ELBOW.x,LEFT_ELBOW.y,LEFT_ELBOW.z,LEFT_ELBOW.v,RIGHT_ELBOW.x,RIGHT_ELBOW.y,RIGHT_ELBOW.z,RIGHT_ELBOW.v,LEFT_WRIST.x,LEFT_WRIST.y,LEFT_WRIST.z,LEFT_WRIST.v,RIGHT_WRIST.x,RIGHT_WRIST.y,RIGHT_WRIST.z,RIGHT_WRIST.v,LEFT_PINKY.x,LEFT_PINKY.y,LEFT_PINKY.z,LEFT_PINKY.v,RIGHT_PINKY.x,RIGHT_PINKY.y,RIGHT_PINKY.z,RIGHT_PINKY.v,LEFT_INDEX.x,LEFT_INDEX.y,LEFT_INDEX.z,LEFT_INDEX.v,RIGHT_INDEX.x,RIGHT_INDEX.y,RIGHT_INDEX.z,RIGHT_INDEX.v,LEFT_THUMB.x,LEFT_THUMB.y,LEFT_THUMB.z,LEFT_THUMB.v,RIGHT_THUMB.x,RIGHT_THUMB.y,RIGHT_THUMB.z,RIGHT_THUMB.v,LEFT_HIP.x,LEFT_HIP.y,LEFT_HIP.z,LEFT_HIP.v,RIGHT_HIP.x,RIGHT_HIP.y,RIGHT_HIP.z,RIGHT_HIP.v,LEFT_KNEE.x,LEFT_KNEE.y,LEFT_KNEE.z,LEFT_KNEE.v,RIGHT_KNEE.x,RIGHT_KNEE.y,RIGHT_KNEE.z,RIGHT_KNEE.v,LEFT_ANKLE.x,LEFT_ANKLE.y,LEFT_ANKLE.z,LEFT_ANKLE.v,RIGHT_ANKLE.x,RIGHT_ANKLE.y,RIGHT_ANKLE.z,RIGHT_ANKLE.v,LEFT_HEEL.x,LEFT_HEEL.y,LEFT_HEEL.z,LEFT_HEEL.v,RIGHT_HEEL.x,RIGHT_HEEL.y,RIGHT_HEEL.z,RIGHT_HEEL.v,LEFT_FOOT_INDEX.x,LEFT_FOOT_INDEX.y,LEFT_FOOT_INDEX.z,LEFT_FOOT_INDEX.v,RIGHT_FOOT_INDEX.x,RIGHT_FOOT_INDEX.y,RIGHT_FOOT_INDEX.z,RIGHT_FOOT_INDEX.v
0
1
2
3
4
5
6
7
8
9
10
11
12
13
14
15
16
17
18,0.42596864700317383,0.22336898744106293,0.1919403225183487,0.9882064461708069,0.4337109923362732,0.22227144241333008,0.21671506762504578,0.9927018880844116,0.4399503767490387,0.22464200854301453,0.2165796011686325,0.9910484552383423,0.4449065327644348,0.2171233594417572,0.21635489165782928,0.9928164482116699,0.42401939630508423,0.218406543135643,0.21610040962696075,0.9898027777671814,0.4224854111671448,0.21781346201896667,0.21609051525592804,0.9824941754341125,0.4203895628452301,0.21725338697433472,0.21590089797973633,0.9857555031776428,0.4472338557243347,0.23024848103523254,0.3301248550415039,0.9899032115936279,0.40677016973495483,0.2193164825439453,0.32837215065956116,0.9879568219184875,0.4272790551185608,0.25173288583755493,0.234726220369339,0.9950981736183167,0.41764646768569946,0.24325548112392426,0.23340782523155212,0.9905625581741333,0.48878899216651917,0.3167911171913147,0.3427853286266327,0.9995107650756836,0.3658825755119324,0.28848129510879517,0.29688501358032227,0.9995705485343933,0.5244855880737305,0.4294081926345825,0.09959195554256439,0.500809371471405,0.3305776119232178,0.3925030529499054,0.10609086602926254,0.5693589448928833,0.5197514295578003,0.3476181626319885,-0.22694091498851776,0.7746748328208923,0.3291472792625427,0.29191309213638306,-0.1333606243133545,0.8774256110191345,0.5193072557449341,0.332766592502594,-0.27060410380363464,0.7808272838592529,0.32711201906204224,0.26349687576293945,-0.16895489394664764,0.8656910061836243,0.5177257061004639,0.31301337480545044,-0.25102972984313965,0.757083535194397,0.32839685678482056,0.24981626868247986,-0.1550346314907074,0.8452324867248535,0.512363076210022,0.31933310627937317,-0.2254733145236969,0.6931595206260681,0.33327171206474304,0.26189422607421875,-0.13329029083251953,0.8098866939544678,0.46686244010925293,0.5175244212150574,0.053270597010850906,0.9999619722366333,0.38273972272872925,0.5157362222671509,-0.05368299409747124,0.9998773336410522,0.6128557324409485,0.5991367697715759,-0.1422600895166397,0.9468427300453186,0.38765209913253784,0.6103814840316772,-0.30827102065086365,0.8186313509941101,0.6040922403335571,0.805090069770813,-0.0929613932967186,0.822592556476593,0.44704189896583557,0.6246640086174011,0.05571985989809036,0.10710696130990982,0.5845308303833008,0.836141049861908,-0.0887395441532135,0.8009440898895264,0.4581409990787506,0.624241292476654,0.09884404391050339,0.21322289109230042,0.6495201587677002,0.8780094385147095,-0.1720001995563507,0.738987386226654,0.45030921697616577,0.661318838596344,0.09083516895771027,0.1680908054113388
19
20
21
22
23
24
25
26
27
28
29
30
31
32
33
34
35
36
37
38
39
40
41
42
43
44
45
46
47
48
49
50
51
52
53
54
55
56
57
58
59
60
61
62
63
64
65
66
67
68
69
70
71
72
73
74
75
76
77
78
79
80
81
82
83
84
85
86
87
88
89
90
91
92
93
94
95,0.9306583404541016,0.16633638739585876,-0.20968595147132874,0.9882918000221252,0.9398438334465027,0.14798572659492493,-0.19492387771606445,0.9913226962089539,0.9440635442733765,0.14766886830329895,-0.19499929249286652,0.9892655611038208,0.9476680755615234,0.14745599031448364,-0.195012629032135,0.9913734793663025,0.9286378622055054,0.14775997400283813,-0.1928173303604126,0.989644467830658,0.9253358840942383,0.14716434478759766,-0.19290873408317566,0.9829180240631104,0.9214247465133667,0.14664706587791443,-0.19314831495285034,0.9863213896751404,0.9559526443481445,0.15226736664772034,-0.08514310419559479,0.9864808917045593,0.9243401288986206,0.1511879563331604,-0.07100799679756165,0.987779974937439,0.9359594583511353,0.18287691473960876,-0.16433162987232208,0.994515597820282,0.925261378288269,0.18075034022331238,-0.16011002659797668,0.9905762672424316,0.9768635034561157,0.2238331288099289,0.013614201918244362,0.999211311340332,0.8902824521064758,0.22109454870224,-0.018902776762843132,0.9995368123054504,0.9957922101020813,0.3326878547668457,0.032991766929626465,0.5038707256317139,0.859118640422821,0.316503643989563,-0.01522839069366455,0.6026131510734558,0.9532241821289062,0.3887012302875519,-0.09116390347480774,0.732490062713623,0.8932193517684937,0.3712771534919739,-0.1259491890668869,0.8728746771812439,0.943553626537323,0.3903883099555969,-0.11756013333797455,0.7385948300361633,0.9025760889053345,0.38914623856544495,-0.16474363207817078,0.8559198975563049,0.9362674951553345,0.38068681955337524,-0.14240437746047974,0.7173168063163757,0.9068096876144409,0.3778652846813202,-0.17578241229057312,0.8374764919281006,0.9375038146972656,0.37621960043907166,-0.1035541445016861,0.6587781310081482,0.9063023328781128,0.37494686245918274,-0.13108381628990173,0.8012170791625977,0.9234808683395386,0.43782711029052734,0.012079072184860706,0.9974073767662048,0.8793898820877075,0.4207175374031067,-0.011989660561084747,0.9986996650695801,0.8338161706924438,0.49548158049583435,-0.06701066344976425,0.8815752267837524,0.79237961769104,0.5185953974723816,-0.15733683109283447,0.8163833022117615,0.7174273729324341,0.6271032691001892,-0.03485214710235596,0.7684550881385803,0.6961861848831177,0.6859558820724487,-0.19952160120010376,0.16802789270877838,0.700649082660675,0.6494952440261841,-0.03550346568226814,0.7663971185684204,0.6810250282287598,0.71393883228302,-0.20734350383281708,0.27142199873924255,0.6866260170936584,0.6600787043571472,-0.1485283374786377,0.7027568817138672,0.6751401424407959,0.7281914949417114,-0.3495706617832184,0.222012460231781
96,0.9330166578292847,0.1655956208705902,-0.18907946348190308,0.9893513321876526,0.9412980079650879,0.1480715572834015,-0.17994025349617004,0.9919920563697815,0.9454848170280457,0.1478995680809021,-0.17999376356601715,0.9901170134544373,0.9492600560188293,0.14786666631698608,-0.18001899123191833,0.9920465350151062,0.92933189868927,0.14774538576602936,-0.17042624950408936,0.9904977679252625,0.9256917834281921,0.14714844524860382,-0.1704714596271515,0.9844104647636414,0.9217689633369446,0.14663873612880707,-0.1706230640411377,0.9875146746635437,0.9576275944709778,0.1523895561695099,-0.08491764962673187,0.9875432252883911,0.9244447946548462,0.1511237919330597,-0.04008913412690163,0.9887876510620117,0.9411103129386902,0.1810443252325058,-0.15022185444831848,0.9949599504470825,0.9278953671455383,0.1785457730293274,-0.1363772749900818,0.9913633465766907,0.9852436780929565,0.22640180587768555,-0.023211879655718803,0.9992570877075195,0.8966749906539917,0.21965594589710236,0.038242362439632416,0.9995043873786926,0.9955240488052368,0.336628258228302,-0.05146370455622673,0.5416465997695923,0.8613951802253723,0.3122886121273041,0.06405675411224365,0.624303936958313,0.950109601020813,0.38676589727401733,-0.19134439527988434,0.7362717986106873,0.898154616355896,0.37205231189727783,-0.0393676832318306,0.8651177287101746,0.9385350942611694,0.39898231625556946,-0.2277090847492218,0.7360963225364685,0.9067989587783813,0.38922083377838135,-0.07138310372829437,0.8426552414894104,0.928074061870575,0.3807297646999359,-0.2371201068162918,0.7166508436203003,0.9124491810798645,0.3785308301448822,-0.08644764870405197,0.8250072002410889,0.9308313131332397,0.37626326084136963,-0.1966470181941986,0.6607085466384888,0.9115903973579407,0.37506839632987976,-0.04623169079422951,0.7879899740219116,0.9295663833618164,0.44140177965164185,-0.03547218069434166,0.9971105456352234,0.8818451762199402,0.4202974736690521,0.03558151796460152,0.9983770251274109,0.8654578924179077,0.49473363161087036,-0.17755387723445892,0.8224381804466248,0.7900616526603699,0.4815608859062195,-0.16533266007900238,0.805446207523346,0.7381348013877869,0.6247295141220093,-0.0962437242269516,0.7257286906242371,0.7093362212181091,0.6539490818977356,-0.12117431312799454,0.21165724098682404,0.7234843969345093,0.6489249467849731,-0.09039129316806793,0.7389935255050659,0.7042185664176941,0.6856597661972046,-0.1175093874335289,0.31371474266052246,0.7018932104110718,0.6479520797729492,-0.18432801961898804,0.6749762296676636,0.6762663722038269,0.6906156539916992,-0.2246156483888626,0.25872525572776794
97,0.9354211091995239,0.16316881775856018,-0.2220010757446289,0.9900982975959778,0.9423222541809082,0.1467995047569275,-0.2080702781677246,0.9922663569450378,0.9468522071838379,0.14670899510383606,-0.20811228454113007,0.9904935956001282,0.9512077569961548,0.14667916297912598,-0.20821252465248108,0.9923193454742432,0.9296966791152954,0.14636698365211487,-0.2095717191696167,0.9910074472427368,0.9260161519050598,0.14603334665298462,-0.20960000157356262,0.9854896068572998,0.9223060607910156,0.14578349888324738,-0.2097533494234085,0.9884170293807983,0.9590989351272583,0.15099643170833588,-0.09853322058916092,0.9878339171409607,0.9251115918159485,0.1508571207523346,-0.10116921365261078,0.9895238876342773,0.9457767605781555,0.17895756661891937,-0.17660044133663177,0.995071530342102,0.9311137199401855,0.17755582928657532,-0.1773078739643097,0.9917640089988708,0.9886994361877441,0.22832369804382324,-0.012249158695340157,0.9991561770439148,0.901164710521698,0.22046160697937012,-0.07159198820590973,0.999451220035553,0.9917693138122559,0.33529824018478394,0.024358365684747696,0.5189468264579773,0.8646236658096313,0.31233277916908264,-0.0756860300898552,0.6480005383491516,0.9510178565979004,0.3726155161857605,-0.053220659494400024,0.685334324836731,0.9048460721969604,0.37406083941459656,-0.1363990604877472,0.8562398552894592,0.9477123022079468,0.3983093202114105,-0.07291217148303986,0.688018262386322,0.9194296598434448,0.3892308473587036,-0.16558142006397247,0.8292678594589233,0.9431779980659485,0.3814811706542969,-0.0885947048664093,0.6711159944534302,0.924178957939148,0.3784504234790802,-0.17430874705314636,0.8124247193336487,0.9428775906562805,0.37662044167518616,-0.06113772839307785,0.6203168034553528,0.922314465045929,0.37489596009254456,-0.13971862196922302,0.7736791372299194,0.9277111291885376,0.44128671288490295,-0.02407495304942131,0.9954677820205688,0.8772879838943481,0.4186679422855377,0.023952990770339966,0.9972725510597229,0.8862078785896301,0.48417994379997253,-0.16247005760669708,0.7521404027938843,0.8056882619857788,0.4713275730609894,-0.22467657923698425,0.7804033756256104,0.7895250916481018,0.6187946200370789,-0.09344217926263809,0.6665343642234802,0.7603524923324585,0.6349666714668274,-0.1255294382572174,0.2313671112060547,0.7774550318717957,0.6439202427864075,-0.06237077713012695,0.6891716718673706,0.7542341947555542,0.6607597470283508,-0.11491972208023071,0.33297857642173767,0.7690848112106323,0.6432210206985474,-0.12326420843601227,0.6239569187164307,0.7455013394355774,0.6763845682144165,-0.2063707560300827,0.27269867062568665
98,0.9381674528121948,0.16196247935295105,-0.29702648520469666,0.9910175800323486,0.9453703761100769,0.14631296694278717,-0.2786889374256134,0.9929139614105225,0.9504502415657043,0.14636419713497162,-0.2787345051765442,0.9912877082824707,0.9553954005241394,0.14640037715435028,-0.2788558900356293,0.9929351806640625,0.9313861131668091,0.14541752636432648,-0.2811344861984253,0.9917967915534973,0.9274357557296753,0.14515872299671173,-0.28113216161727905,0.9868310689926147,0.9237672686576843,0.14506205916404724,-0.2812814712524414,0.9894996285438538,0.9629566073417664,0.15037928521633148,-0.14851722121238708,0.9887732863426208,0.9258742332458496,0.1502709835767746,-0.15536710619926453,0.9905015826225281,0.9488188624382019,0.17834053933620453,-0.24380691349506378,0.9954652786254883,0.9328027963638306,0.17655977606773376,-0.24577710032463074,0.9924880266189575,0.9879716634750366,0.22827334702014923,-0.02722857892513275,0.999062716960907,0.9021400213241577,0.22045734524726868,-0.11485517024993896,0.999453067779541,0.9892449378967285,0.33529606461524963,0.04076503962278366,0.49227312207221985,0.8659085035324097,0.31248459219932556,-0.1149374470114708,0.6770426630973816,0.9575234651565552,0.37394028902053833,-0.037051860243082047,0.6350347995758057,0.9077523350715637,0.3757207989692688,-0.1868801712989807,0.8631392121315002,0.9635505676269531,0.4048306345939636,-0.058046430349349976,0.6400275826454163,0.9221051335334778,0.39011451601982117,-0.2212720364332199,0.8344584107398987,0.961523711681366,0.39216867089271545,-0.07900436222553253,0.6258506774902344,0.927832305431366,0.3787735402584076,-0.23064377903938293,0.8190400004386902,0.9585859179496765,0.3856655955314636,-0.0479392446577549,0.5804194808006287,0.9254612922668457,0.374931275844574,-0.1903882920742035,0.7805982232093811,0.9272391200065613,0.4412432610988617,-0.01427149586379528,0.9944882392883301,0.8713697195053101,0.4144740402698517,0.014216629788279533,0.9964350461959839,0.9033549427986145,0.4700833857059479,-0.20079541206359863,0.6988576650619507,0.803922176361084,0.432553231716156,-0.24664661288261414,0.7615066170692444,0.828294575214386,0.6110780835151672,-0.060046277940273285,0.6178441047668457,0.7613402605056763,0.569618284702301,-0.0954173356294632,0.2444777637720108,0.8176820874214172,0.6345349550247192,-0.03372221440076828,0.642806887626648,0.7577921748161316,0.5903023481369019,-0.0784587413072586,0.34358131885528564,0.8113463521003723,0.6430453062057495,-0.11635658890008926,0.5772929191589355,0.7421174645423889,0.6089147329330444,-0.17562952637672424,0.2794918417930603
99,0.9394189715385437,0.16063658893108368,-0.30149155855178833,0.9918081164360046,0.9473465085029602,0.14586593210697174,-0.28981757164001465,0.9934083223342896,0.9523736834526062,0.14606663584709167,-0.2898622751235962,0.9919294118881226,0.9573551416397095,0.14620323479175568,-0.2899698317050934,0.993401288986206,0.9340469241142273,0.1447201371192932,-0.2836591601371765,0.9923796653747559,0.9304278492927551,0.1445203721523285,-0.2836201786994934,0.9878916144371033,0.9273405075073242,0.14450958371162415,-0.2837560772895813,0.9903557300567627,0.9660331010818481,0.15024611353874207,-0.18125034868717194,0.9894869923591614,0.9309515953063965,0.14982034265995026,-0.14961914718151093,0.9912124872207642,0.9498481750488281,0.17741817235946655,-0.2560630440711975,0.9957943558692932,0.9342087507247925,0.17552295327186584,-0.24693918228149414,0.9930763244628906,0.9886171221733093,0.2262411117553711,-0.09085673838853836,0.9990655183792114,0.9037958979606628,0.21997632086277008,-0.0790187269449234,0.9994515776634216,0.9952705502510071,0.3276849389076233,-0.05826083570718765,0.5002336502075195,0.8665361404418945,0.3087667226791382,-0.07250463962554932,0.7015773057937622,0.9572517275810242,0.37324973940849304,-0.1528005748987198,0.6017582416534424,0.9061657190322876,0.3749023973941803,-0.16572189331054688,0.8687719702720642,0.9622446894645691,0.4117335081100464,-0.18754836916923523,0.6044278740882874,0.9194691777229309,0.38905754685401917,-0.1870257556438446,0.8385148644447327,0.9576185941696167,0.4003373384475708,-0.19971966743469238,0.5923696160316467,0.9246958494186401,0.3772920072078705,-0.21443966031074524,0.8244450092315674,0.9545666575431824,0.3914370536804199,-0.1600538194179535,0.5507388114929199,0.9227889776229858,0.3733918368816376,-0.1776212751865387,0.7874297499656677,0.9393647313117981,0.42931511998176575,-0.03534699231386185,0.9943884611129761,0.8804260492324829,0.402705579996109,0.035560235381126404,0.9961240291595459,0.9297900199890137,0.4571484625339508,-0.2868342399597168,0.665083110332489,0.8142873644828796,0.43324899673461914,-0.22349229454994202,0.7297237515449524,0.8689570426940918,0.6163502931594849,-0.12395951896905899,0.5825337767601013,0.791442334651947,0.5797555446624756,-0.07285972684621811,0.24796585738658905,0.8607036471366882,0.6412160396575928,-0.10965564101934433,0.6158520579338074,0.7957006692886353,0.6032562851905823,-0.05688377097249031,0.351461261510849,0.8533434867858887,0.6682944893836975,-0.20920860767364502,0.5396267175674438,0.7576279044151306,0.6161268949508667,-0.15776796638965607,0.2753306031227112
100,0.9419754147529602,0.16030868887901306,-0.45642003417015076,0.9923245310783386,0.9501481056213379,0.14576372504234314,-0.4417506754398346,0.993490993976593,0.9552130699157715,0.14602985978126526,-0.4417814314365387,0.9920783042907715,0.9602211713790894,0.1461983621120453,-0.4418870806694031,0.9933652281761169,0.9367948770523071,0.1443217396736145,-0.43532389402389526,0.992497980594635,0.9331806302070618,0.14403511583805084,-0.43535685539245605,0.9884322881698608,0.9301573634147644,0.14399342238903046,-0.4354836940765381,0.9908182621002197,0.968841552734375,0.15016557276248932,-0.31217119097709656,0.9894965291023254,0.9331127405166626,0.14896541833877563,-0.27750223875045776,0.9914916753768921,0.9523094892501831,0.17704476416110992,-0.4030517637729645,0.9959568977355957,0.9362252354621887,0.17469139397144318,-0.3929838538169861,0.9934321045875549,0.9914506077766418,0.22251544892787933,-0.19344080984592438,0.9990950226783752,0.9053290486335754,0.2178320288658142,-0.1814917027950287,0.9994595646858215,1.0000667572021484,0.32890185713768005,-0.1752067506313324,0.5288005471229553,0.8666275143623352,0.3062745928764343,-0.16988226771354675,0.7261055707931519,0.9565140604972839,0.37109002470970154,-0.27467072010040283,0.5834421515464783,0.9052392840385437,0.373534619808197,-0.27035894989967346,0.8746394515037537,0.9454270601272583,0.4001632034778595,-0.31619149446487427,0.5776159763336182,0.9184259176254272,0.38903722167015076,-0.3098421096801758,0.8429691195487976,0.9357956647872925,0.39102014899253845,-0.32593220472335815,0.5668339133262634,0.923222541809082,0.3773007094860077,-0.3301825225353241,0.8297868371009827,0.9382151365280151,0.3796042799949646,-0.2810547947883606,0.5273585319519043,0.9213491678237915,0.37292343378067017,-0.27929359674453735,0.7939051389694214,0.9505078196525574,0.4105816185474396,-0.03274654597043991,0.9945138692855835,0.8897913098335266,0.3861948549747467,0.03300950676202774,0.996053159236908,0.967565655708313,0.4617445170879364,-0.32677847146987915,0.6289753913879395,0.8228818774223328,0.3888830840587616,-0.2739572823047638,0.6928382515907288,0.9438601732254028,0.6271811723709106,-0.14667612314224243,0.5487253069877625,0.8188233375549316,0.56137615442276,-0.08656102418899536,0.247880756855011,0.9389787912368774,0.6475406885147095,-0.1333456188440323,0.5881571173667908,0.8266600370407104,0.5858262777328491,-0.0684756338596344,0.35981377959251404,0.9418595433235168,0.6903259754180908,-0.2595387399196625,0.5056097507476807,0.7840814590454102,0.6041166186332703,-0.18173198401927948,0.27167701721191406
101,0.9434758424758911,0.1603054255247116,-0.24712593853473663,0.9921792149543762,0.9516733884811401,0.14576314389705658,-0.2325752228498459,0.9925460815429688,0.9563671946525574,0.1460065394639969,-0.23263411223888397,0.9913443326950073,0.9611169099807739,0.14617323875427246,-0.23273181915283203,0.9925430417060852,0.9399685859680176,0.14463971555233002,-0.2232867032289505,0.9916288256645203,0.9369713664054871,0.14460992813110352,-0.22332704067230225,0.9879506826400757,0.9345015287399292,0.144761860370636,-0.22345320880413055,0.9904231429100037,0.9712319374084473,0.15020355582237244,-0.13289012014865875,0.9881677031517029,0.9390791058540344,0.1491413414478302,-0.08469150215387344,0.9903304576873779,0.9535626173019409,0.1767795830965042,-0.20766770839691162,0.9954646825790405,0.9391409754753113,0.1746557205915451,-0.19351018965244293,0.9928902387619019,0.993480384349823,0.22260069847106934,-0.16318100690841675,0.9988338351249695,0.9074848890304565,0.2178594321012497,-0.018852924928069115,0.9992142915725708,1.0024182796478271,0.3287120461463928,-0.10204537212848663,0.5476656556129456,0.8670731782913208,0.30057743191719055,-0.025829961523413658,0.7359971404075623,0.956444263458252,0.3712994158267975,-0.21096500754356384,0.5648846626281738,0.9047528505325317,0.3734753429889679,-0.11642707884311676,0.8636196255683899,0.9389616847038269,0.39725881814956665,-0.24898084998130798,0.5519887804985046,0.913589358329773,0.3930474817752838,-0.14622202515602112,0.827063262462616,0.9277681112289429,0.38471540808677673,-0.2559381127357483,0.5428923964500427,0.922343373298645,0.38289254903793335,-0.15903332829475403,0.8146491646766663,0.9314009547233582,0.3757701516151428,-0.21582117676734924,0.504844069480896,0.9205090403556824,0.3748239278793335,-0.12215298414230347,0.778438925743103,0.9566140174865723,0.4133246839046478,-0.03208959475159645,0.9919707775115967,0.8960763216018677,0.3893471360206604,0.032309435307979584,0.9942488074302673,0.9807907938957214,0.3964146375656128,-0.3192538321018219,0.6235800981521606,0.8297565579414368,0.3458029329776764,-0.2570381462574005,0.6943451166152954,0.9242307543754578,0.5584286451339722,-0.17991937696933746,0.5384024977684021,0.8170083165168762,0.495426207780838,-0.11963029950857162,0.26938560605049133,0.9143121838569641,0.5809250473976135,-0.16808412969112396,0.5769915580749512,0.8185960054397583,0.5413129925727844,-0.09657913446426392,0.3762597143650055,0.9158467054367065,0.6154302358627319,-0.2710111737251282,0.49306535720825195,0.7735135555267334,0.5527055859565735,-0.2124612033367157,0.2816968560218811
102,0.9474043846130371,0.1603054404258728,-0.2985612154006958,0.9927259683609009,0.9557282328605652,0.14567647874355316,-0.2888590395450592,0.9927458763122559,0.9601820707321167,0.1458926945924759,-0.2888670265674591,0.9916551113128662,0.9648715853691101,0.14606928825378418,-0.2889423072338104,0.9926785230636597,0.9450322985649109,0.1446561962366104,-0.278075635433197,0.9919463992118835,0.9423409700393677,0.14462262392044067,-0.27814075350761414,0.9886502623558044,0.9401623606681824,0.1447954773902893,-0.278256356716156,0.9910008311271667,0.9758151769638062,0.1501365453004837,-0.1927630454301834,0.9883137345314026,0.9454904794692993,0.14892162382602692,-0.140611931681633,0.9908450245857239,0.9572792053222656,0.17667533457279205,-0.25907382369041443,0.9956594705581665,0.9437535405158997,0.17470325529575348,-0.24406138062477112,0.9932836294174194,1.0161290168762207,0.22264908254146576,-0.13454750180244446,0.9987988471984863,0.9142917394638062,0.21641398966312408,-0.025564119219779968,0.9992378950119019,1.0028704404830933,0.3288458287715912,-0.12512153387069702,0.5730526447296143,0.8692494630813599,0.2934551537036896,-0.02832864783704281,0.7532824873924255,0.9512516260147095,0.37169304490089417,-0.1950797289609909,0.5564279556274414,0.9045852422714233,0.37140318751335144,-0.11935581266880035,0.8655314445495605,0.9297135472297668,0.3971589505672455,-0.22699277102947235,0.5355117321014404,0.907945454120636,0.3929640054702759,-0.15061357617378235,0.826119065284729,0.9200731515884399,0.3830193877220154,-0.2349187135696411,0.528171956539154,0.9196301698684692,0.38270193338394165,-0.1649937927722931,0.814582109451294,0.9241130948066711,0.3750668168067932,-0.19894853234291077,0.49148470163345337,0.9185668230056763,0.3739211857318878,-0.1256588250398636,0.7797006964683533,0.961071789264679,0.41305625438690186,-0.046962983906269073,0.9920051693916321,0.906365692615509,0.387830913066864,0.047141414135694504,0.9944457411766052,0.9478678703308105,0.38964396715164185,-0.2549327313899994,0.6175594925880432,0.8281146287918091,0.3412821590900421,-0.21765975654125214,0.6899953484535217,0.9145415425300598,0.555289089679718,-0.06945362687110901,0.5349181294441223,0.8177455067634583,0.4845598042011261,-0.049658529460430145,0.29319772124290466,0.9141926765441895,0.5772605538368225,-0.050638824701309204,0.5712268948554993,0.8296068906784058,0.5182766318321228,-0.032660145312547684,0.4005493223667145,0.8979851007461548,0.615934431552887,-0.12881767749786377,0.4853113889694214,0.7779346108436584,0.5369104146957397,-0.1167885884642601,0.29805615544319153
103,0.949187159538269,0.15948979556560516,-0.27041465044021606,0.9928783178329468,0.957004725933075,0.14473463594913483,-0.2728288471698761,0.9923579096794128,0.9613316655158997,0.14472289383411407,-0.2728584408760071,0.9913785457611084,0.965811550617218,0.1446666121482849,-0.2729681134223938,0.9922302961349487,0.9468304514884949,0.1444181501865387,-0.25179773569107056,0.9913209080696106,0.9442231059074402,0.14449375867843628,-0.25181201100349426,0.9882258772850037,0.9419628977775574,0.14471769332885742,-0.25189533829689026,0.9905529618263245,0.9777240753173828,0.14883968234062195,-0.1891353726387024,0.9878206253051758,0.9482783079147339,0.1485159546136856,-0.12312465906143188,0.9899649620056152,0.9595349431037903,0.17480812966823578,-0.24969033896923065,0.9956267476081848,0.9463043212890625,0.17393729090690613,-0.21825698018074036,0.993142306804657,1.007535696029663,0.22011394798755646,-0.1395118236541748,0.9988410472869873,0.9171313047409058,0.2151532918214798,-0.02063753828406334,0.9991768002510071,1.0046420097351074,0.3283737897872925,-0.16798049211502075,0.6049882173538208,0.8715510368347168,0.2899206876754761,0.0067698038183152676,0.7579566836357117,0.9513243436813354,0.37220966815948486,-0.26415640115737915,0.5696253180503845,0.9024273753166199,0.3676837384700775,-0.10218401998281479,0.8571414947509766,0.929399847984314,0.39611127972602844,-0.3031384348869324,0.5414112210273743,0.9046388864517212,0.3910626173019409,-0.13116438686847687,0.8155866265296936,0.9209982752799988,0.380715548992157,-0.3056129813194275,0.5351886749267578,0.9148675203323364,0.37962856888771057,-0.14849860966205597,0.804715633392334,0.924644947052002,0.3734792172908783,-0.2655397355556488,0.4969731569290161,0.9145444631576538,0.37007224559783936,-0.11025319993495941,0.7712180614471436,0.9670141935348511,0.41342073678970337,-0.050140541046857834,0.9921690821647644,0.9124563932418823,0.38811320066452026,0.050281815230846405,0.9942972660064697,0.9618938565254211,0.40136992931365967,-0.2537485361099243,0.6008453369140625,0.8302048444747925,0.3554644286632538,-0.16305235028266907,0.6656666994094849,0.9438581466674805,0.5785182118415833,-0.07688242197036743,0.519140362739563,0.8121984601020813,0.5052810907363892,0.005773754324764013,0.2973269820213318,0.9420856237411499,0.590215802192688,-0.06281483918428421,0.5603976249694824,0.8202058672904968,0.5298655033111572,0.02330511435866356,0.413053035736084,0.9385643005371094,0.6593778133392334,-0.15061235427856445,0.46416252851486206,0.7722273468971252,0.5406820178031921,-0.05480928346514702,0.29329150915145874
104,0.9500566720962524,0.1595333218574524,-0.25306835770606995,0.992168128490448,0.9569876790046692,0.14479762315750122,-0.24951329827308655,0.990688681602478,0.9611836671829224,0.14475440979003906,-0.24956014752388,0.9897780418395996,0.9654476046562195,0.1446750909090042,-0.24967029690742493,0.9904984831809998,0.9466884732246399,0.14465703070163727,-0.2334592044353485,0.9893528819084167,0.943850040435791,0.1447775810956955,-0.23349198698997498,0.986189067363739,0.9412420988082886,0.14499524235725403,-0.23360851407051086,0.9888412952423096,0.9765332341194153,0.14886225759983063,-0.18491533398628235,0.9855401515960693,0.9470939636230469,0.1486184298992157,-0.10192231833934784,0.9869881272315979,0.9602602124214172,0.17479024827480316,-0.223798006772995,0.9946215152740479,0.946829617023468,0.17398777604103088,-0.20034626126289368,0.991571307182312,1.0161166191101074,0.21788057684898376,-0.11873210966587067,0.9987358450889587,0.9162480235099792,0.21504463255405426,-0.013368126936256886,0.9990401268005371,1.0058218240737915,0.3265427350997925,-0.16207589209079742,0.628433108329773,0.8717557787895203,0.2894183397293091,-0.0034566461108624935,0.7666493058204651,0.9507098197937012,0.37100136280059814,-0.2782478928565979,0.5750638842582703,0.9013449549674988,0.36580830812454224,-0.10885962098836899,0.8511963486671448,0.928869366645813,0.3924463987350464,-0.32033053040504456,0.5405106544494629,0.9024202227592468,0.3874892592430115,-0.136381596326828,0.8063479661941528,0.9204395413398743,0.3756445348262787,-0.3227280080318451,0.5354154109954834,0.9134079813957214,0.37764251232147217,-0.15247514843940735,0.7956998944282532,0.9234828948974609,0.36979520320892334,-0.2804906368255615,0.49522316455841064,0.9131790995597839,0.36946171522140503,-0.11610139906406403,0.7621954083442688,0.9666200876235962,0.4088387191295624,-0.0467502735555172,0.9923315048217773,0.9102165102958679,0.38713356852531433,0.046816613525152206,0.9943783283233643,0.9806803464889526,0.4129484295845032,-0.3176671862602234,0.6117316484451294,0.8267418742179871,0.368648499250412,-0.1740102618932724,0.6674274802207947,0.960374653339386,0.5838356614112854,-0.13863451778888702,0.5306100249290466,0.7988510131835938,0.529144823551178,-0.030629131942987442,0.3296630382537842,0.9552658796310425,0.60136878490448,-0.1214575320482254,0.577718198299408,0.804348349571228,0.5561940670013428,-0.016512397676706314,0.43792206048965454,0.9646807909011841,0.6599054932594299,-0.20417484641075134,0.47099411487579346,0.7624896764755249,0.5676118731498718,-0.10733213275671005,0.3085128664970398
105,0.9525049924850464,0.15960906445980072,-0.2777990400791168,0.9927954077720642,0.9586062431335449,0.1448071002960205,-0.27311062812805176,0.9912810921669006,0.9628473520278931,0.14468854665756226,-0.2731126546859741,0.990463376045227,0.9671429395675659,0.14447614550590515,-0.2731824219226837,0.9911260008811951,0.9478386640548706,0.14519663155078888,-0.26026344299316406,0.9900082945823669,0.9446813464164734,0.14565309882164001,-0.26030483841896057,0.9870893359184265,0.9416571855545044,0.14623065292835236,-0.26038625836372375,0.9895511269569397,0.9786021113395691,0.14793263375759125,-0.19142138957977295,0.9865186810493469,0.9465662837028503,0.14911077916622162,-0.1318691372871399,0.9877279996871948,0.9631272554397583,0.1745658665895462,-0.24350133538246155,0.9950136542320251,0.9489816427230835,0.17402736842632294,-0.22556838393211365,0.9921324849128723,1.0104182958602905,0.2172546088695526,-0.12969842553138733,0.9988380074501038,0.9181427955627441,0.21305148303508759,-0.025818463414907455,0.9990490078926086,1.008908987045288,0.3264824450016022,-0.13774552941322327,0.6611295938491821,0.8730261921882629,0.28655046224594116,0.004325097426772118,0.7739999890327454,0.9541239738464355,0.371046245098114,-0.22938676178455353,0.6060675382614136,0.9013325572013855,0.3662199378013611,-0.077182337641716,0.846407413482666,0.9304035305976868,0.39252910017967224,-0.2669064402580261,0.5659741163253784,0.9028302431106567,0.3885023891925812,-0.10169728100299835,0.7972884774208069,0.9216764569282532,0.37644901871681213,-0.2833104729652405,0.5614252686500549,0.9135541915893555,0.38094791769981384,-0.11859817802906036,0.7868592143058777,0.9253241419792175,0.36993035674095154,-0.236298605799675,0.5207646489143372,0.9131888151168823,0.3721253275871277,-0.08409227430820465,0.754578709602356,0.9682430028915405,0.4041244089603424,-0.04716447740793228,0.992661714553833,0.9142724275588989,0.38284724950790405,0.04724773392081261,0.9945955276489258,0.9655343890190125,0.40449967980384827,-0.2931537628173828,0.6100574731826782,0.8283834457397461,0.34720084071159363,-0.1827440708875656,0.66963791847229,0.9325564503669739,0.5678796768188477,-0.09005112946033478,0.5317876935005188,0.8195818662643433,0.5056411027908325,-0.020699799060821533,0.3513684868812561,0.9286697506904602,0.586945652961731,-0.07304298877716064,0.5738080739974976,0.8297494649887085,0.5302397012710571,-0.003817639546468854,0.45670560002326965,0.9232900738716125,0.6384360790252686,-0.15366382896900177,0.4705864191055298,0.7776726484298706,0.5646102428436279,-0.0808226466178894,0.32391494512557983
106,0.9567134976387024,0.15978650748729706,-0.29462042450904846,0.9929066896438599,0.9622460603713989,0.1448146253824234,-0.28352949023246765,0.9909757971763611,0.9663939476013184,0.1446649581193924,-0.2835535705089569,0.9902862310409546,0.9705246090888977,0.1443762183189392,-0.28364497423171997,0.9908718466758728,0.9511508941650391,0.14582559466362,-0.27488449215888977,0.9896852970123291,0.9476927518844604,0.14663052558898926,-0.274931937456131,0.9869428277015686,0.9444168210029602,0.14759474992752075,-0.27505576610565186,0.9894381761550903,0.9807368516921997,0.14760416746139526,-0.18631161749362946,0.986291229724884,0.9476526975631714,0.15044957399368286,-0.1418401002883911,0.9872020483016968,0.9670217633247375,0.17455317080020905,-0.2545338571071625,0.9949827790260315,0.9526761174201965,0.17456527054309845,-0.24198977649211884,0.992103099822998,1.018174409866333,0.21735204756259918,-0.12350916862487793,0.9987277984619141,0.9185185432434082,0.21314026415348053,-0.06309064477682114,0.9990151524543762,1.0161349773406982,0.3207816183567047,-0.1708678901195526,0.679123044013977,0.8746418952941895,0.28697478771209717,-0.07285066694021225,0.7858430743217468,0.9538381695747375,0.3708494305610657,-0.2970229387283325,0.6061290502548218,0.9020438194274902,0.3677333891391754,-0.16079337894916534,0.8409022092819214,0.9312969446182251,0.39193692803382874,-0.3408086895942688,0.5601538419723511,0.9038788080215454,0.38875263929367065,-0.19033193588256836,0.7879119515419006,0.9226094484329224,0.37705934047698975,-0.34537672996520996,0.5568085312843323,0.9150968790054321,0.3821927607059479,-0.20673613250255585,0.7776325941085815,0.926011860370636,0.37025347352027893,-0.30117812752723694,0.514869213104248,0.9142931699752808,0.37426695227622986,-0.16808566451072693,0.7447978854179382,0.9697958827018738,0.3959139287471771,-0.035791341215372086,0.9921793341636658,0.9102204442024231,0.3742596209049225,0.0358511358499527,0.9944714903831482,1.00150465965271,0.3864961266517639,-0.34818992018699646,0.626796305179596,0.8271644711494446,0.355350524187088,-0.2563432455062866,0.6890339255332947,0.9748096466064453,0.5528101325035095,-0.17229017615318298,0.5463415384292603,0.8137252926826477,0.5120111703872681,-0.11435757577419281,0.3899397850036621,0.9669777750968933,0.5677146315574646,-0.15706273913383484,0.5850498080253601,0.8190434575080872,0.5496423244476318,-0.10137705504894257,0.4795904755592346,0.9795611500740051,0.6229614019393921,-0.26576027274131775,0.4800686538219452,0.7722457647323608,0.5701580047607422,-0.21732065081596375,0.34746652841567993
107,0.9631844758987427,0.16236676275730133,-0.35809409618377686,0.9848477244377136,0.9682415723800659,0.14619064331054688,-0.3472364842891693,0.9749333262443542,0.9722887873649597,0.14580589532852173,-0.34731289744377136,0.973975419998169,0.9761028289794922,0.145363911986351,-0.34744778275489807,0.9738519191741943,0.9559748768806458,0.14742515981197357,-0.34372952580451965,0.9764888286590576,0.9516077041625977,0.14807863533496857,-0.34382250905036926,0.9739341139793396,0.9476045370101929,0.14905238151550293,-0.344027578830719,0.9790295958518982,0.9835004806518555,0.1477280557155609,-0.24514822661876678,0.9648196697235107,0.9490398168563843,0.15231749415397644,-0.22477924823760986,0.9782137274742126,0.972272515296936,0.17574000358581543,-0.3149666488170624,0.9888015985488892,0.957901120185852,0.1768895834684372,-0.30903756618499756,0.9863250255584717,1.0289899110794067,0.21817703545093536,-0.1665996015071869,0.9961161017417908,0.9203621745109558,0.2134314328432083,-0.1498180329799652,0.9985989928245544,1.018845796585083,0.3235805332660675,-0.17681950330734253,0.6652688980102539,0.8794720768928528,0.28846341371536255,-0.14820349216461182,0.7910127639770508,0.9537709951400757,0.3710004389286041,-0.2636241614818573,0.5692328214645386,0.9028794169425964,0.36789512634277344,-0.2214694321155548,0.8296123743057251,0.9316932559013367,0.3919815123081207,-0.29661500453948975,0.5242176055908203,0.9097326397895813,0.39265722036361694,-0.24975237250328064,0.772493302822113,0.9297653436660767,0.38675230741500854,-0.30396056175231934,0.521368145942688,0.9189245104789734,0.3839225172996521,-0.26261141896247864,0.7624070644378662,0.9306709170341492,0.37223905324935913,-0.2676697373390198,0.4823935031890869,0.9144505262374878,0.374512642621994,-0.22692516446113586,0.7296370267868042,0.9793750047683716,0.39963260293006897,-0.019128665328025818,0.9848698973655701,0.918840765953064,0.37777581810951233,0.01932486519217491,0.9914191365242004,1.0050318241119385,0.393415242433548,-0.24741068482398987,0.6132541298866272,0.8461947441101074,0.3463403582572937,-0.24711787700653076,0.6897323131561279,0.9705899953842163,0.5541651844978333,-0.04602396860718727,0.5279983282089233,0.8791338801383972,0.488122820854187,-0.061529647558927536,0.398944616317749,0.9637367129325867,0.5648685097694397,-0.030322298407554626,0.569083571434021,0.8912220001220703,0.5117690563201904,-0.04140767455101013,0.4939325451850891,0.9776074290275574,0.6141717433929443,-0.12987956404685974,0.45983436703681946,0.8470079302787781,0.525528073310852,-0.12872734665870667,0.3497534394264221
108,0.9660282135009766,0.16482368111610413,-0.3343662619590759,0.9858732223510742,0.9710677266120911,0.14865785837173462,-0.3237415552139282,0.9761490225791931,0.9752156138420105,0.1483326405286789,-0.32382139563560486,0.9752616882324219,0.9790951013565063,0.14797700941562653,-0.32394590973854065,0.9751139283180237,0.9578086137771606,0.14916321635246277,-0.3189859390258789,0.9775041937828064,0.9530588984489441,0.14938481152057648,-0.3190322518348694,0.9751092791557312,0.948501467704773,0.14989642798900604,-0.3192128837108612,0.9799036979675293,0.9850126504898071,0.14908388257026672,-0.21888640522956848,0.9667573571205139,0.9486851692199707,0.15288780629634857,-0.19360528886318207,0.9793320894241333,0.9738465547561646,0.17779476940631866,-0.2896904945373535,0.9895764589309692,0.9587241411209106,0.17862138152122498,-0.28240305185317993,0.9872527718544006,1.02009916305542,0.21857810020446777,-0.13936538994312286,0.996373176574707,0.9205473065376282,0.21347388625144958,-0.10137389600276947,0.9986444711685181,1.023034930229187,0.33291003108024597,-0.15031220018863678,0.6871356964111328,0.8854772448539734,0.2889958620071411,-0.1083168014883995,0.7912036180496216,0.9537051320075989,0.375791072845459,-0.24384315311908722,0.5813549160957336,0.9028508067131042,0.36797502636909485,-0.2080344408750534,0.8284151554107666,0.9321653246879578,0.39812859892845154,-0.27818068861961365,0.5291317105293274,0.9075300097465515,0.3918805718421936,-0.23147103190422058,0.7716411352157593,0.9291461706161499,0.38919052481651306,-0.285991907119751,0.5269930362701416,0.913770318031311,0.3835448920726776,-0.22355110943317413,0.7623834609985352,0.9305666089057922,0.37759754061698914,-0.24804365634918213,0.48804110288619995,0.9126878976821899,0.3740237355232239,-0.19698362052440643,0.7299079298973083,0.9808313250541687,0.403053343296051,-0.020141111686825752,0.9840622544288635,0.9225736856460571,0.3795121908187866,0.02039419859647751,0.9909399151802063,0.9843176603317261,0.4602085053920746,-0.22305479645729065,0.5786313414573669,0.8661726713180542,0.36200791597366333,-0.2799672484397888,0.672892153263092,0.9432340860366821,0.5894307494163513,-0.046713072806596756,0.4900229871273041,0.8574155569076538,0.5020519495010376,-0.09235911816358566,0.3882731795310974,0.9355279207229614,0.6043964624404907,-0.03346744924783707,0.5370227098464966,0.863822340965271,0.5348846912384033,-0.07257262617349625,0.4931694567203522,0.9424207806587219,0.6380216479301453,-0.13823503255844116,0.4256114959716797,0.8250652551651001,0.5522657632827759,-0.17664004862308502,0.33897969126701355
109
110
