frame,NOSE.x,NOSE.y,NOSE.z,NOSE.v,LEFT_EYE_INNER.x,LEFT_EYE_INNER.y,LEFT_EYE_INNER.z,LEFT_EYE_INNER.v,LEFT_EYE.x,LEFT_EYE.y,LEFT_EYE.z,LEFT_EYE.v,LEFT_EYE_OUTER.x,LEFT_EYE_OUTER.y,LEFT_EYE_OUTER.z,LEFT_EYE_OUTER.v,RIGHT_EYE_INNER.x,RIGHT_EYE_INNER.y,RIGHT_EYE_INNER.z,RIGHT_EYE_INNER.v,RIGHT_EYE.x,RIGHT_EYE.y,RIGHT_EYE.z,RIGHT_EYE.v,RIGHT_EYE_OUTER.x,RIGHT_EYE_OUTER.y,RIGHT_EYE_OUTER.z,RIGHT_EYE_OUTER.v,LEFT_EAR.x,LEFT_EAR.y,LEFT_EAR.z,LEFT_EAR.v,RIGHT_EAR.x,RIGHT_EAR.y,RIGHT_EAR.z,RIGHT_EAR.v,MOUTH_LEFT.x,MOUTH_LEFT.y,MOUTH_LEFT.z,MOUTH_LEFT.v,MOUTH_RIGHT.x,MOUTH_RIGHT.y,MOUTH_RIGHT.z,MOUTH_RIGHT.v,LEFT_SHOULDER.x,LEFT_SHOULDER.y,LEFT_SHOULDER.z,LEFT_SHOULDER.v,RIGHT_SHOULDER.x,RIGHT_SHOULDER.y,RIGHT_SHOULDER.z,RIGHT_SHOULDER.v,LEFT_ELBOW.x,LEFT_ELBOW.y,LEFT_ELBOW.z,LEFT_ELBOW.v,RIGHT_ELBOW.x,RIGHT_ELBOW.y,RIGHT_ELBOW.z,RIGHT_ELBOW.v,LEFT_WRIST.x,LEFT_WRIST.y,LEFT_WRIST.z,LEFT_WRIST.v,RIGHT_WRIST.x,RIGHT_WRIST.y,RIGHT_WRIST.z,RIGHT_WRIST.v,LEFT_PINKY.x,LEFT_PINKY.y,LEFT_PINKY.z,LEFT_PINKY.v,RIGHT_PINKY.x,RIGHT_PINKY.y,RIGHT_PINKY.z,RIGHT_PINKY.v,LEFT_INDEX.x,LEFT_INDEX.y,LEFT_INDEX.z,LEFT_INDEX.v,RIGHT_INDEX.x,RIGHT_INDEX.y,RIGHT_INDEX.z,RIGHT_INDEX.v,LEFT_THUMB.x,LEFT_THUMB.y,LEFT_THUMB.z,LEFT_THUMB.v,RIGHT_THUMB.x,RIGHT_THUMB.y,RIGHT_THUMB.z,RIGHT_THUMB.v,LEFT_HIP.x,LEFT_HIP.y,LEFT_HIP.z,LEFT_HIP.v,RIGHT_HIP.x,RIGHT_HIP.y,RIGHT_HIP.z,RIGHT_HIP.v,LEFT_KNEE.x,LEFT_KNEE.y,LEFT_KNEE.z,LEFT_KNEE.v,RIGHT_KNEE.x,RIGHT_KNEE.y,RIGHT_KNEE.z,RIGHT_KNEE.v,LEFT_ANKLE.x,LEFT_ANKLE.y,LEFT_ANKLE.z,LEFT_ANKLE.v,RIGHT_ANKLE.x,RIGHT_ANKLE.y,RIGHT_ANKLE.z,RIGHT_ANKLE.v,LEFT_HEEL.x,LEFT_HEEL.y,LEFT_HEEL.z,LEFT_HEEL.v,RIGHT_HEEL.x,RIGHT_HEEL.y,RIGHT_HEEL.z,RIGHT_HEEL.v,LEFT_FOOT_INDEX.x,LEFT_FOOT_INDEX.y,LEFT_FOOT_INDEX.z,LEFT_FOOT_INDEX.v,RIGHT_FOOT_INDEX.x,RIGHT_FOOT_INDEX.y,RIGHT_FOOT_INDEX.z,RIGHT_FOOT_INDEX.v
0
1
2
3
4
5
6
7
8
9
10
11
12
13
14
15
16
17
18
19
20
21
22
23
24
25
26
27
28
29
30
31
32
33
34
35
36
37
38
39
40
41
42
43
44
45
46
47
48
49
50
51
52
53
54
55
56
57
58
59
60
61
62
63
64
65
66
67
68
69
70
71
72
73
74
75
76
77
78
79
80
81
82
83
84
85
86
87
88
89
90
91
92
93
94
95
96
97
98
99
100
101
102
103
104
105
106
107
108
109
110
111
112
113
114
115
116
117
118
119
120
121
122
123
124
125
126
127
128
129
130
131
132
133
134
135
136
137
138
139
140
141
142
143
144,0.832766056060791,0.36929062008857727,-0.05245162919163704,0.9962658286094666,0.8342574834823608,0.37285369634628296,-0.056959815323352814,0.9949336647987366,0.8339457511901855,0.3731392025947571,-0.05691547319293022,0.9949678778648376,0.8336316347122192,0.3733987808227539,-0.05687851831316948,0.9944003224372864,0.8347757458686829,0.3726350665092468,-0.05146543309092522,0.9929942488670349,0.8348411321640015,0.3727496564388275,-0.0514812245965004,0.9913832545280457,0.834911048412323,0.37286376953125,-0.051471464335918427,0.9932188391685486,0.8308883905410767,0.37399813532829285,-0.06231125071644783,0.9904618859291077,0.8326360583305359,0.3734785318374634,-0.037141043692827225,0.9826979041099548,0.829497218132019,0.36739927530288696,-0.05277661234140396,0.9781219959259033,0.8300264477729797,0.36733219027519226,-0.04561366140842438,0.9846982359886169,0.8192329406738281,0.36532872915267944,-0.07123105227947235,0.959307074546814,0.8213249444961548,0.36111050844192505,-0.017625607550144196,0.9899197816848755,0.8329983949661255,0.33786505460739136,-0.09207186847925186,0.844017744064331,0.8298453092575073,0.3427046239376068,-0.020042376592755318,0.42594775557518005,0.8555067181587219,0.3284890353679657,-0.09879016131162643,0.6236063241958618,0.8485210537910461,0.3305263817310333,-0.0332452692091465,0.36424583196640015,0.8612993359565735,0.32467177510261536,-0.10902945697307587,0.561513364315033,0.85369473695755,0.32931581139564514,-0.03904564306139946,0.37938421964645386,0.8611994981765747,0.3276389241218567,-0.10668053478002548,0.5480154752731323,0.8553635478019714,0.3274915814399719,-0.04658316448330879,0.3931581676006317,0.8588098287582397,0.3293994069099426,-0.09856729209423065,0.48048654198646545,0.8532816171646118,0.32782667875289917,-0.0377824567258358,0.4103163778781891,0.7820256352424622,0.3262387216091156,-0.01168978214263916,0.9272939562797546,0.7803269028663635,0.32676082849502563,0.011663743294775486,0.9666542410850525,0.7856351137161255,0.36673322319984436,-0.02975638210773468,0.5003594160079956,0.7842339277267456,0.36416223645210266,0.003261178033426404,0.7920591235160828,0.7903232574462891,0.4257798194885254,-0.012006262317299843,0.6056872010231018,0.7872204184532166,0.4157569110393524,0.02275223843753338,0.7959276437759399,0.7910510897636414,0.43521490693092346,-0.010487746447324753,0.6617034077644348,0.7868143916130066,0.42312484979629517,0.024074116721749306,0.7691821455955505,0.7921658158302307,0.44180557131767273,-0.03124305047094822,0.6761252880096436,0.7932724952697754,0.43274012207984924,-0.0025100805796682835,0.7335488796234131
145,0.835552990436554,0.36760905385017395,-0.05244823172688484,0.9965129494667053,0.8363162875175476,0.3715657889842987,-0.05696774274110794,0.9953134059906006,0.8358929753303528,0.37184587121009827,-0.05692412704229355,0.9953400492668152,0.8354679346084595,0.3721010088920593,-0.056889425963163376,0.994810163974762,0.8369701504707336,0.3714521527290344,-0.05059142783284187,0.993503749370575,0.8369970321655273,0.3716529309749603,-0.050598181784152985,0.9920138716697693,0.8370253443717957,0.3718560039997101,-0.05057305842638016,0.9937107563018799,0.8323169946670532,0.3726915419101715,-0.06320248544216156,0.9912180304527283,0.8343819379806519,0.37259435653686523,-0.031655453145504,0.9840422868728638,0.8324487805366516,0.36540651321411133,-0.05306914448738098,0.9797835946083069,0.8331262469291687,0.36550337076187134,-0.04489181935787201,0.9858472347259521,0.8213765025138855,0.3619134724140167,-0.07247097790241241,0.9624667167663574,0.8238274455070496,0.3602572977542877,-0.0093831866979599,0.9905941486358643,0.8328596949577332,0.3401501476764679,-0.09173201769590378,0.8521716594696045,0.8326668739318848,0.34527698159217834,-0.0071122534573078156,0.4284290373325348,0.8546096682548523,0.33704861998558044,-0.09051152318716049,0.636272668838501,0.8514350652694702,0.3387760519981384,-0.022784411907196045,0.3658207952976227,0.8603399395942688,0.3347710072994232,-0.09977544844150543,0.5723780989646912,0.8564073443412781,0.3394235372543335,-0.02790687419474125,0.37855538725852966,0.8602725267410278,0.33834609389305115,-0.09703046828508377,0.5588492751121521,0.8580353856086731,0.3379131853580475,-0.03529420495033264,0.3922627866268158,0.858000636100769,0.33948439359664917,-0.08976223319768906,0.49036139249801636,0.8562248945236206,0.3376151919364929,-0.02730468474328518,0.4095911383628845,0.7855559587478638,0.32369986176490784,-0.014525650069117546,0.9324195384979248,0.7832606434822083,0.32558467984199524,0.01450403593480587,0.9689598083496094,0.7876688241958618,0.36376798152923584,-0.030291881412267685,0.5223390460014343,0.7872565984725952,0.3588523864746094,0.01074320450425148,0.7926490306854248,0.7909482717514038,0.43127161264419556,-0.017594726756215096,0.6200941801071167,0.7952967286109924,0.4087432622909546,0.02176647260785103,0.8002316951751709,0.7913787364959717,0.4423525035381317,-0.01640034280717373,0.6743242740631104,0.7957172989845276,0.4158189594745636,0.02213580720126629,0.7733616828918457,0.7924219369888306,0.4492504894733429,-0.036840878427028656,0.6855733394622803,0.8017538785934448,0.42419055104255676,-0.00426471047103405,0.7385262846946716
146,0.8396255373954773,0.36763209104537964,-0.05833021551370621,0.9966949224472046,0.839626669883728,0.3717145323753357,-0.06367523968219757,0.9956035614013672,0.8391785621643066,0.37192004919052124,-0.06364543735980988,0.9956251382827759,0.838720440864563,0.3721151649951935,-0.06363773345947266,0.9951214790344238,0.8400076031684875,0.3718080520629883,-0.054977960884571075,0.9938852787017822,0.8397928476333618,0.3721139132976532,-0.054993439465761185,0.9925602674484253,0.8395841717720032,0.3724312484264374,-0.05498911812901497,0.9941399097442627,0.8344489932060242,0.37275761365890503,-0.07517720758914948,0.9919754266738892,0.835704505443573,0.3729287087917328,-0.03292173147201538,0.9853456020355225,0.8364569544792175,0.3654719591140747,-0.0613953098654747,0.9813629388809204,0.836807906627655,0.3656212389469147,-0.04995771870017052,0.9869050979614258,0.8217509984970093,0.35928425192832947,-0.09174323827028275,0.9653841853141785,0.8244975209236145,0.35975900292396545,-0.009267907589673996,0.9911337494850159,0.8342934846878052,0.3400253355503082,-0.1089286059141159,0.862841010093689,0.8337613344192505,0.3447558581829071,-0.008639405481517315,0.4204357862472534,0.8576112985610962,0.3337530791759491,-0.10392852127552032,0.6511735916137695,0.8533369302749634,0.33677858114242554,-0.02545040473341942,0.3615422546863556,0.8636164665222168,0.3307896554470062,-0.11679546535015106,0.5827898979187012,0.8581683039665222,0.3366617262363434,-0.02987951599061489,0.37326106429100037,0.8634125590324402,0.3350478708744049,-0.1117192730307579,0.5692028403282166,0.8599544763565063,0.33504387736320496,-0.042550455778837204,0.3870890140533447,0.8610036969184875,0.3360213339328766,-0.1024048700928688,0.5008065104484558,0.8583248257637024,0.33494776487350464,-0.032950472086668015,0.4031352996826172,0.7852667570114136,0.3191046118736267,-0.024441059678792953,0.9381411075592041,0.7836589217185974,0.3227311372756958,0.02443074621260166,0.9712674617767334,0.7796478867530823,0.33696526288986206,-0.031556785106658936,0.5687068104743958,0.7800911664962769,0.3425421118736267,0.03701671212911606,0.7990386486053467,0.7793086171150208,0.382325679063797,-0.0034445426426827908,0.645789623260498,0.7934362292289734,0.3776463568210602,0.04911288246512413,0.8110035061836243,0.7798322439193726,0.3896416425704956,-0.000535449362359941,0.685895562171936,0.7959263920783997,0.3798178732395172,0.05012885481119156,0.7814165949821472,0.7803764343261719,0.39232292771339417,-0.01136193796992302,0.700260579586029,0.7992656230926514,0.3965001404285431,0.031859178096055984,0.7527168989181519
147,0.8398241996765137,0.3674248158931732,-0.05702878162264824,0.996656596660614,0.8394297361373901,0.3716387152671814,-0.06252913177013397,0.9956794381141663,0.8389415740966797,0.3718266487121582,-0.06250157952308655,0.9957224130630493,0.8384443521499634,0.3720049262046814,-0.06249280646443367,0.9952013492584229,0.8397857546806335,0.37178274989128113,-0.05475306510925293,0.993939995765686,0.8395187258720398,0.3721071183681488,-0.05477256327867508,0.9928221106529236,0.8392642140388489,0.37243494391441345,-0.054752953350543976,0.994325578212738,0.8340131640434265,0.37252774834632874,-0.07540079206228256,0.9925315976142883,0.8353460431098938,0.37294065952301025,-0.03224915638566017,0.9863582253456116,0.8366531133651733,0.36464014649391174,-0.05995451658964157,0.9824121594429016,0.8369717597961426,0.36493438482284546,-0.04942375048995018,0.9875343441963196,0.8216699361801147,0.3571763038635254,-0.09502600133419037,0.9674108624458313,0.8241607546806335,0.35887274146080017,-0.0014051601756364107,0.9910527467727661,0.835505485534668,0.337208092212677,-0.11295952647924423,0.8729239702224731,0.8342282176017761,0.34097203612327576,0.002130604814738035,0.4001404047012329,0.858616828918457,0.3272174596786499,-0.11080791056156158,0.6731481552124023,0.8537847399711609,0.33441048860549927,-0.021700933575630188,0.35280781984329224,0.8645377159118652,0.32541897892951965,-0.12448571622371674,0.6059956550598145,0.8584640622138977,0.3358269929885864,-0.025222647935152054,0.3639298975467682,0.8643906712532043,0.3298550248146057,-0.12006892263889313,0.5925302505493164,0.8603841066360474,0.33382830023765564,-0.0370493158698082,0.3776460289955139,0.8620370030403137,0.3302517831325531,-0.10958386957645416,0.5257371068000793,0.8589571118354797,0.3345305621623993,-0.02814660035073757,0.39288491010665894,0.7833662629127502,0.31681254506111145,-0.026754995808005333,0.9425350427627563,0.7833495736122131,0.3208560347557068,0.026769587770104408,0.9721015691757202,0.7800745964050293,0.322083443403244,-0.032030992209911346,0.6108344197273254,0.7809185981750488,0.33005058765411377,0.046009354293346405,0.8048242926597595,0.7708461284637451,0.3501322567462921,0.010919582098722458,0.664962887763977,0.7962042093276978,0.35751405358314514,0.05807224661111832,0.8216314315795898,0.7694967985153198,0.3558209538459778,0.015024824067950249,0.6875811815261841,0.7993024587631226,0.358612060546875,0.05909763649106026,0.7898378372192383,0.7713891267776489,0.35335880517959595,0.007287576794624329,0.7060921788215637,0.802873969078064,0.3741079568862915,0.04347435012459755,0.7672079205513
148,0.8389812707901001,0.3674975037574768,-0.050799764692783356,0.9966010451316833,0.8387223482131958,0.3717097342014313,-0.05591406673192978,0.9958280920982361,0.8383235931396484,0.37187355756759644,-0.05592358112335205,0.995873749256134,0.8379765748977661,0.37203294038772583,-0.05595853924751282,0.9954206347465515,0.8391170501708984,0.37181150913238525,-0.04662664979696274,0.9939863681793213,0.8389296531677246,0.3721221685409546,-0.046619631350040436,0.9929282069206238,0.8387504816055298,0.37240713834762573,-0.04659995064139366,0.9944218993186951,0.833426833152771,0.37198054790496826,-0.06750722229480743,0.9929372668266296,0.8352062106132507,0.3716917335987091,-0.023780222982168198,0.9873597621917725,0.8360356092453003,0.36448824405670166,-0.05345045402646065,0.9836055636405945,0.8367162942886353,0.3643474876880646,-0.04119529947638512,0.9881150126457214,0.8229023814201355,0.3522671163082123,-0.08682209998369217,0.9703240990638733,0.8242107629776001,0.3565271496772766,0.008501742035150528,0.9904303550720215,0.8401299715042114,0.3372132182121277,-0.10949058830738068,0.8825377225875854,0.8385715484619141,0.34256964921951294,0.021338259801268578,0.38789522647857666,0.8632817268371582,0.3411167562007904,-0.09878022968769073,0.7003647685050964,0.8612110018730164,0.35063159465789795,0.0010487621184438467,0.3723425269126892,0.8695783615112305,0.3446217179298401,-0.11552691459655762,0.6382574439048767,0.8663447499275208,0.355958491563797,-0.0009845310123637319,0.386062353849411,0.8693127632141113,0.3485662043094635,-0.10890617221593857,0.625792920589447,0.8681603670120239,0.35709720849990845,-0.010249677114188671,0.3989394009113312,0.866946816444397,0.34688594937324524,-0.09718427062034607,0.5633097887039185,0.8667804598808289,0.3549785912036896,-0.0038801939226686954,0.4112522304058075,0.7833130955696106,0.309978187084198,-0.030549878254532814,0.9475930333137512,0.784330427646637,0.3153315484523773,0.030589208006858826,0.9732199907302856,0.7855053544044495,0.2871815264225006,-0.03375973552465439,0.6312756538391113,0.7882196307182312,0.29294100403785706,0.05860639736056328,0.739077627658844,0.7715133428573608,0.26946407556533813,0.027434075251221657,0.6527917385101318,0.7821329832077026,0.2767503559589386,0.09944267570972443,0.7588716745376587,0.7680872678756714,0.2695144712924957,0.03409673273563385,0.6897767782211304,0.7787126898765564,0.275455117225647,0.10387691110372543,0.7442000508308411,0.773232102394104,0.2606419324874878,0.03234248235821724,0.6840468645095825,0.7870784401893616,0.26734623312950134,0.10063502937555313,0.7196064591407776
149,0.8395355939865112,0.365313321352005,-0.06472068279981613,0.9964378476142883,0.8386348485946655,0.36960309743881226,-0.07070000469684601,0.9959196448326111,0.838108241558075,0.3696562349796295,-0.07069739699363708,0.9959848523139954,0.8376312255859375,0.36970898509025574,-0.07072751224040985,0.9956138730049133,0.8391457796096802,0.36974433064460754,-0.061231829226017,0.9939159154891968,0.838958740234375,0.36980897188186646,-0.06122257187962532,0.9928768277168274,0.8387748003005981,0.3698766827583313,-0.061195842921733856,0.994375467300415,0.8332709074020386,0.36797696352005005,-0.08262686431407928,0.9932488799095154,0.835013210773468,0.3679969608783722,-0.03944717347621918,0.9880913496017456,0.836794376373291,0.3610406517982483,-0.0672764778137207,0.9844135642051697,0.83766108751297,0.3608262836933136,-0.054986558854579926,0.9884032607078552,0.8241763114929199,0.3447813391685486,-0.09965090453624725,0.9726170897483826,0.82520991563797,0.3538983166217804,0.004074468743056059,0.9888619780540466,0.8404192924499512,0.33199599385261536,-0.1122923269867897,0.891642689704895,0.8398359417915344,0.34513723850250244,0.008459719829261303,0.37074539065361023,0.8638175129890442,0.34378761053085327,-0.1046459823846817,0.7263307571411133,0.8619295358657837,0.3585997521877289,-0.010124685242772102,0.38112106919288635,0.8703988194465637,0.3482886254787445,-0.12009397894144058,0.6686881184577942,0.8666595220565796,0.3647722899913788,-0.012613600119948387,0.39733555912971497,0.8698633313179016,0.35322505235671997,-0.11565716564655304,0.6574300527572632,0.8685973882675171,0.3653789162635803,-0.021860642358660698,0.40949979424476624,0.867449939250946,0.3513796627521515,-0.10357692092657089,0.5987005233764648,0.867384135723114,0.36280080676078796,-0.014971333555877209,0.41884082555770874,0.7841297388076782,0.30213314294815063,-0.031826797872781754,0.9501395225524902,0.78657466173172,0.31100019812583923,0.031879667192697525,0.971127450466156,0.7950159311294556,0.283795028924942,-0.01987113058567047,0.6508368849754333,0.7979137897491455,0.2977401316165924,0.07653945684432983,0.6789134740829468,0.7773171663284302,0.276395708322525,0.04830985143780708,0.6336872577667236,0.7849762439727783,0.2873171269893646,0.11940451711416245,0.6966716051101685,0.773588240146637,0.27734139561653137,0.055256687104701996,0.6796669960021973,0.7825571298599243,0.28629663586616516,0.12392476946115494,0.6905133128166199,0.7847590446472168,0.2711174190044403,0.05286739394068718,0.6573166847229004,0.7906566858291626,0.2814672887325287,0.12178094685077667,0.6695697903633118
150,0.8403695821762085,0.36535897850990295,-0.08443289995193481,0.9966534376144409,0.838854193687439,0.36966440081596375,-0.09252063930034637,0.996222734451294,0.8382404446601868,0.3699347674846649,-0.09250056743621826,0.9962990880012512,0.8376592397689819,0.37006309628486633,-0.09250490367412567,0.9959710836410522,0.8393744230270386,0.3705293536186218,-0.08252523094415665,0.9943320155143738,0.8391333818435669,0.3708071708679199,-0.08251871168613434,0.9933897256851196,0.8388965725898743,0.37110936641693115,-0.08248129487037659,0.9947513937950134,0.8331530690193176,0.3683069944381714,-0.1078738421201706,0.9937391877174377,0.8347791433334351,0.3691386282444,-0.062288980931043625,0.9890368580818176,0.8375825881958008,0.3617866337299347,-0.08748088032007217,0.9856359958648682,0.8382798433303833,0.36159467697143555,-0.07422195374965668,0.9891576170921326,0.823802649974823,0.3450068533420563,-0.11690439283847809,0.9748225808143616,0.8251115083694458,0.3589625060558319,-0.02461531199514866,0.9876922965049744,0.8421810865402222,0.33295872807502747,-0.13842131197452545,0.9005553126335144,0.8406965136528015,0.35961729288101196,-0.005993193946778774,0.3671216070652008,0.8641692399978638,0.35415759682655334,-0.14997102320194244,0.7514733672142029,0.8648886680603027,0.3736793100833893,-0.038873884826898575,0.4101961553096771,0.8697352409362793,0.35983556509017944,-0.17068365216255188,0.6983798146247864,0.8693747520446777,0.3814568817615509,-0.04519527405500412,0.4270135760307312,0.8687893152236938,0.36609187722206116,-0.1689986139535904,0.6882480382919312,0.871675968170166,0.3794945776462555,-0.05767074227333069,0.43940237164497375,0.8667376637458801,0.3642416000366211,-0.1511000096797943,0.6336734890937805,0.8706927299499512,0.3758125901222229,-0.04532397538423538,0.4468158483505249,0.7877634763717651,0.3057976961135864,-0.033207111060619354,0.9508301019668579,0.7884652018547058,0.31413376331329346,0.033290714025497437,0.9666370749473572,0.8146305084228516,0.29810386896133423,-0.015350195579230785,0.6658827662467957,0.817474365234375,0.31231066584587097,0.059046752750873566,0.6232699751853943,0.8185597658157349,0.2851791977882385,0.04950689524412155,0.6524720191955566,0.8198019862174988,0.29715806245803833,0.12689119577407837,0.6491842865943909,0.8160762786865234,0.28149667382240295,0.054837264120578766,0.6946840882301331,0.817838191986084,0.29318368434906006,0.13347835838794708,0.6486616134643555,0.8316920399665833,0.28863564133644104,0.03365146368741989,0.6745114326477051,0.8317831158638,0.29770857095718384,0.12134140729904175,0.6426002383232117
151
152
153
154
155,0.3947434425354004,0.6624006628990173,0.028163695707917213,0.9968514442443848,0.3948509395122528,0.6566171646118164,0.041630227118730545,0.9965013265609741,0.3959489166736603,0.65675288438797,0.04158414900302887,0.9965623021125793,0.39706170558929443,0.6569106578826904,0.041507087647914886,0.9962806105613708,0.3909933269023895,0.6558870673179626,0.032427407801151276,0.9947924017906189,0.3892735242843628,0.6555482745170593,0.03245491161942482,0.993943452835083,0.3875757157802582,0.655217170715332,0.032347485423088074,0.9951900839805603,0.3958969712257385,0.6588918566703796,0.09825120121240616,0.9942561388015747,0.3823421895503998,0.6578400731086731,0.057388193905353546,0.9900091886520386,0.39666464924812317,0.6631081700325012,0.04958701506257057,0.9868613481521606,0.39086928963661194,0.6641031503677368,0.03737588971853256,0.9899147748947144,0.4126383364200592,0.7011952996253967,0.13365063071250916,0.9772472381591797,0.3661828935146332,0.6838115453720093,0.001446781912818551,0.9888619184494019,0.4517669081687927,0.7358265519142151,0.11689005047082901,0.8876716494560242,0.3789936900138855,0.7094867825508118,-0.10266374051570892,0.42679691314697266,0.47692400217056274,0.7154585123062134,0.04956171661615372,0.7635579109191895,0.4131215214729309,0.6815651059150696,-0.1563846915960312,0.46390050649642944,0.48303359746932983,0.7101090550422668,0.042724285274744034,0.7070504426956177,0.4214797616004944,0.6744087934494019,-0.17308251559734344,0.47259530425071716,0.4823887348175049,0.702342689037323,0.03663453459739685,0.6982786059379578,0.42169690132141113,0.6686795949935913,-0.16230405867099762,0.4826071560382843,0.4790094494819641,0.705549418926239,0.04472321271896362,0.6463560461997986,0.4201480746269226,0.6739463806152344,-0.15337751805782318,0.48482921719551086,0.40960997343063354,0.8087242245674133,0.0421450100839138,0.955492377281189,0.3795684576034546,0.801832914352417,-0.04211210459470749,0.9695775508880615,0.4473254680633545,0.8344231843948364,-0.059796251356601715,0.6793205142021179,0.4063273072242737,0.8453525304794312,-0.13835573196411133,0.648841142654419,0.43593382835388184,0.9102750420570374,-0.06516806781291962,0.6457814574241638,0.4307411313056946,0.8990758061408997,-0.14036798477172852,0.6508165001869202,0.42892393469810486,0.9204345941543579,-0.06805290281772614,0.6920469403266907,0.4283064901828766,0.9070847630500793,-0.1391364336013794,0.6397638320922852,0.4449940621852875,0.9361356496810913,-0.11560483276844025,0.6657935380935669,0.4516041874885559,0.9143015742301941,-0.18320289254188538,0.6385893225669861
156,0.39471325278282166,0.6644839644432068,0.00843278132379055,0.997046172618866,0.3964635729789734,0.6578900218009949,0.018975066021084785,0.9966578483581543,0.39860063791275024,0.6578352451324463,0.018924806267023087,0.9966885447502136,0.40081363916397095,0.6578186750411987,0.018814345821738243,0.9964890480041504,0.39117199182510376,0.6578938961029053,0.020139377564191818,0.9951653480529785,0.38933566212654114,0.6578381657600403,0.020136384293437004,0.9943676590919495,0.3875790536403656,0.6578056216239929,0.020061146467924118,0.9955481290817261,0.4056563973426819,0.6605538725852966,0.06519521027803421,0.9944895505905151,0.3846902549266815,0.6611949801445007,0.06560228019952774,0.99074786901474,0.3970812261104584,0.6630913019180298,0.02529534325003624,0.9877169728279114,0.39102092385292053,0.671616792678833,0.026785846799612045,0.9906070828437805,0.42951661348342896,0.7000888586044312,0.07493619620800018,0.9792995452880859,0.3677031099796295,0.696412980556488,0.054900042712688446,0.9898360371589661,0.46387043595314026,0.7295955419540405,0.03555633872747421,0.8706982135772705,0.3609562814235687,0.7465848326683044,0.004861890338361263,0.4356342554092407,0.4897868037223816,0.7125235795974731,-0.039658740162849426,0.7464621663093567,0.38178902864456177,0.7605755925178528,-0.07462629675865173,0.4546191990375519,0.4988178312778473,0.7085201740264893,-0.05579462647438049,0.686677873134613,0.38696250319480896,0.7697769999504089,-0.08782149851322174,0.4571620225906372,0.49679213762283325,0.7002457976341248,-0.0592929907143116,0.6806186437606812,0.39085355401039124,0.7599818110466003,-0.08840321749448776,0.467069536447525,0.49256911873817444,0.7027867436408997,-0.04449402913451195,0.63528972864151,0.3895527720451355,0.7574406862258911,-0.07661939412355423,0.4683203399181366,0.4198489785194397,0.8087266683578491,0.010263584554195404,0.9597506523132324,0.38364607095718384,0.8077610731124878,-0.010309086181223392,0.9724700450897217,0.4477093815803528,0.8129552602767944,-0.09945502877235413,0.6762295961380005,0.3986990749835968,0.8390058875083923,-0.11399409919977188,0.6511294841766357,0.41841572523117065,0.8697842955589294,-0.006265822798013687,0.6008538603782654,0.4075944423675537,0.8896122574806213,-0.02152230776846409,0.6158549189567566,0.41086822748184204,0.873254120349884,0.004951040260493755,0.6445651650428772,0.408205509185791,0.8943386673927307,-0.010790926404297352,0.6007078289985657,0.4173588752746582,0.8977266550064087,-0.02154424600303173,0.6225547194480896,0.41495221853256226,0.9104380011558533,-0.04192221537232399,0.6018732190132141
157,0.39486151933670044,0.712207555770874,-0.015976743772625923,0.9971736669540405,0.3985808491706848,0.7046636343002319,-0.008578876033425331,0.9967211484909058,0.40113797783851624,0.7042276859283447,-0.008622705936431885,0.9966592788696289,0.4036955237388611,0.7038536667823792,-0.008735822513699532,0.9965935945510864,0.3919627368450165,0.7051230072975159,-0.009245043620467186,0.9954760074615479,0.3898342549800873,0.7048656940460205,-0.009225483052432537,0.9947099089622498,0.387826144695282,0.7046355605125427,-0.00930821057409048,0.9958434104919434,0.4090054929256439,0.7011398077011108,0.027315890416502953,0.9944007992744446,0.3852233588695526,0.7021156549453735,0.024566275998950005,0.9912790656089783,0.39823663234710693,0.7151193022727966,-0.001616580644622445,0.9886854887008667,0.3911169171333313,0.7157685160636902,-0.0024404129944741726,0.9913659691810608,0.4338676929473877,0.7203899025917053,0.029091332107782364,0.9813461899757385,0.36718082427978516,0.7242720723152161,0.030723974108695984,0.9908342957496643,0.46191316843032837,0.7843429446220398,0.021933194249868393,0.8630239963531494,0.35689204931259155,0.7883166670799255,0.011687428690493107,0.45895862579345703,0.4805482029914856,0.8539053797721863,-0.03931032866239548,0.7524111866950989,0.3568289577960968,0.8423917293548584,-0.038731180131435394,0.49159374833106995,0.49704575538635254,0.864136815071106,-0.059450674802064896,0.6924575567245483,0.3537371754646301,0.8552770614624023,-0.05385972931981087,0.4894612729549408,0.48592814803123474,0.8664798736572266,-0.0685887560248375,0.6907116770744324,0.3597807288169861,0.8548663854598999,-0.06349792331457138,0.5004093050956726,0.47787079215049744,0.8689262866973877,-0.045839253813028336,0.6510198712348938,0.3641335368156433,0.8505144715309143,-0.0436517670750618,0.4995284378528595,0.42050448060035706,0.8004391193389893,0.0015471784863620996,0.9637722373008728,0.3846913278102875,0.7975305318832397,-0.0017044965643435717,0.9752198457717896,0.4247244894504547,0.8358350992202759,0.03737444430589676,0.6544632911682129,0.3836202621459961,0.8176276683807373,0.07675664126873016,0.6293447017669678,0.39251941442489624,0.8516767621040344,0.2174157202243805,0.5500280261039734,0.3834812641143799,0.8604792952537537,0.21031293272972107,0.5824901461601257,0.3878419101238251,0.8460159301757812,0.23749108612537384,0.5915318131446838,0.3864388167858124,0.8647438883781433,0.22486500442028046,0.5639485120773315,0.3828592002391815,0.8757573962211609,0.22792895138263702,0.5723397731781006,0.3795440196990967,0.8858646154403687,0.20103499293327332,0.5698046088218689
158,0.3876894414424896,0.6935854554176331,0.05160412937402725,0.997380256652832,0.39176613092422485,0.6867266893386841,0.05468793585896492,0.9965816140174866,0.39437976479530334,0.6865277886390686,0.05465684458613396,0.9968063235282898,0.39703279733657837,0.686370849609375,0.0545649528503418,0.9965118765830994,0.3853735327720642,0.6869164109230042,0.05905333161354065,0.9956005215644836,0.3832005560398102,0.6867826581001282,0.059055913239717484,0.9950730800628662,0.3810696005821228,0.6866838932037354,0.058984268456697464,0.9959142804145813,0.40508365631103516,0.6864086389541626,0.07400739938020706,0.994856059551239,0.3798791468143463,0.6871412396430969,0.09859825670719147,0.9920371770858765,0.39281225204467773,0.6966505646705627,0.06277691572904587,0.9893577098846436,0.3849635422229767,0.6977807283401489,0.06796444207429886,0.9916642904281616,0.42872485518455505,0.7016007900238037,0.07760178297758102,0.9831889271736145,0.3641417622566223,0.7107900381088257,0.10102562606334686,0.9917094111442566,0.46095648407936096,0.7367168664932251,0.04125671461224556,0.8755466341972351,0.3463212549686432,0.7729207873344421,0.04848230257630348,0.5055285692214966,0.4814804494380951,0.7504537105560303,0.04933721199631691,0.7754857540130615,0.34900617599487305,0.8083938360214233,-0.0026125002186745405,0.5390139818191528,0.4940251410007477,0.7639206647872925,0.04182448238134384,0.7208880186080933,0.3494774401187897,0.817046046257019,-0.010736361145973206,0.535287082195282,0.48814311623573303,0.7531763315200806,0.036704618483781815,0.7197479009628296,0.35172039270401,0.8205695748329163,-0.004199122078716755,0.5451173186302185,0.4818095266819,0.7488119602203369,0.04551289603114128,0.6841285228729248,0.35306355357170105,0.7906039953231812,-0.0017722321208566427,0.5445972681045532,0.4205131530761719,0.7969772815704346,-0.002784969285130501,0.9673227667808533,0.38148927688598633,0.7966238260269165,0.003013370791450143,0.9776521921157837,0.42237353324890137,0.8805954456329346,0.024160699918866158,0.6827506422996521,0.38666099309921265,0.8804309964179993,0.05656442046165466,0.6582152247428894,0.40837210416793823,0.9521745443344116,0.16487635672092438,0.5043579339981079,0.39042702317237854,0.9612951278686523,0.20799855887889862,0.5415874719619751,0.3906734883785248,0.9599451422691345,0.17931148409843445,0.5487054586410522,0.3927253484725952,0.9720434546470642,0.22299210727214813,0.5339661836624146,0.4083434045314789,0.9856927394866943,0.13212274014949799,0.5171607732772827,0.38969460129737854,0.99126136302948,0.16853532195091248,0.5155113339424133
159
160
161
162
163
164
165
166
167
168
169,0.8069387674331665,0.3752926290035248,-0.027430575340986252,0.9948288798332214,0.8078049421310425,0.3734031617641449,-0.02880682982504368,0.9926261901855469,0.8081763386726379,0.3733152747154236,-0.02882649004459381,0.9930609464645386,0.808551013469696,0.3732331097126007,-0.028844553977251053,0.9932518005371094,0.8070657849311829,0.3735501170158386,-0.02660701796412468,0.9912451505661011,0.8068693280220032,0.37356993556022644,-0.02660498395562172,0.990131676197052,0.8066771626472473,0.37358948588371277,-0.026621272787451744,0.9912346601486206,0.8097351789474487,0.3732818365097046,-0.026127183809876442,0.9915920495986938,0.8070295453071594,0.37376755475997925,-0.016180308535695076,0.985273540019989,0.8077136874198914,0.37678369879722595,-0.025476301088929176,0.9879201650619507,0.8068330883979797,0.37692347168922424,-0.02261410467326641,0.9883033037185669,0.8133641481399536,0.3798695206642151,-0.02318764291703701,0.9847972393035889,0.806043803691864,0.38257306814193726,-0.004892397206276655,0.9920714497566223,0.8232328295707703,0.3873160779476166,-0.022782448679208755,0.8776731491088867,0.815255343914032,0.3912549912929535,0.00166107970289886,0.4857839047908783,0.8307730555534363,0.3875134587287903,-0.035685595124959946,0.7864871621131897,0.8252148628234863,0.3888803720474243,-0.011545158922672272,0.5426225662231445,0.8327268362045288,0.3868175148963928,-0.04053814336657524,0.7356248497962952,0.8283829689025879,0.38871699571609497,-0.014666278846561909,0.5390816926956177,0.8328364491462708,0.3855096697807312,-0.043019045144319534,0.7348734736442566,0.8274778127670288,0.3863879442214966,-0.016913240775465965,0.5474894642829895,0.831926167011261,0.38601234555244446,-0.036830682307481766,0.6991276741027832,0.8264068365097046,0.38652607798576355,-0.012672631070017815,0.5405429005622864,0.8171719312667847,0.4122437536716461,-0.006692142691463232,0.9703795313835144,0.8130866885185242,0.41373491287231445,0.006693321280181408,0.9794788956642151,0.8169270753860474,0.42664510011672974,-0.012159936130046844,0.7022815346717834,0.8112085461616516,0.43052181601524353,0.006981668062508106,0.6516132354736328,0.8158710598945618,0.43957486748695374,0.028514761477708817,0.5281510353088379,0.8131958842277527,0.4428310990333557,0.04219154641032219,0.5378422141075134,0.8161093592643738,0.44054004549980164,0.032597657293081284,0.5717549920082092,0.8140383958816528,0.44412460923194885,0.04572875425219536,0.5396348237991333,0.8145777583122253,0.4457414746284485,0.029125526547431946,0.5361608862876892,0.8112772703170776,0.44845953583717346,0.042084287852048874,0.5195012092590332
170,0.8110048174858093,0.3757472336292267,-0.027467211708426476,0.9943182468414307,0.8114804029464722,0.37391164898872375,-0.026670753955841064,0.9914107322692871,0.8118292689323425,0.3738870322704315,-0.026685278862714767,0.99130779504776,0.8121811747550964,0.3738696277141571,-0.026697322726249695,0.9919899106025696,0.8103699684143066,0.37391945719718933,-0.02715042233467102,0.9904823899269104,0.8099290728569031,0.3738940358161926,-0.02715158835053444,0.9890207648277283,0.8094924092292786,0.3738706707954407,-0.02717033587396145,0.9901841282844543,0.8122552633285522,0.3741663694381714,-0.013134755194187164,0.9891741275787354,0.8085278272628784,0.37417760491371155,-0.019057810306549072,0.9836001396179199,0.8115164637565613,0.3774763345718384,-0.022542189806699753,0.988085150718689,0.8102201223373413,0.3774372935295105,-0.02343990094959736,0.9882030487060547,0.8155161142349243,0.3822566866874695,-7.5264171755407e-05,0.9861271381378174,0.8061793446540833,0.38323912024497986,-0.01840781792998314,0.9927035570144653,0.8242585062980652,0.3912077844142914,0.005239850841462612,0.8541814088821411,0.8159246444702148,0.3924476206302643,-0.021846119314432144,0.5211037993431091,0.831921398639679,0.39237329363822937,-0.012194158509373665,0.780069887638092,0.8275073766708374,0.3924363851547241,-0.03184955194592476,0.5770660042762756,0.8338751792907715,0.3924560248851776,-0.015957679599523544,0.7324697971343994,0.8307539224624634,0.3933837115764618,-0.037340279668569565,0.5710444450378418,0.8339861035346985,0.3908284902572632,-0.020589614287018776,0.7338340878486633,0.8306524157524109,0.39111819863319397,-0.037808116525411606,0.5782036781311035,0.8330345153808594,0.39101025462150574,-0.01451760996133089,0.6994082927703857,0.8295892477035522,0.3909732699394226,-0.03211509436368942,0.5651694536209106,0.8179222941398621,0.41239798069000244,0.004271937999874353,0.9730132222175598,0.8125367164611816,0.41386279463768005,-0.004278064239770174,0.9811688661575317,0.8235198259353638,0.42611655592918396,-0.012241137214004993,0.7189731001853943,0.8120386004447937,0.43134117126464844,-0.015324385836720467,0.679684579372406,0.8168027997016907,0.44091543555259705,0.02652021311223507,0.5543607473373413,0.8126128911972046,0.4482284486293793,0.01664801314473152,0.5765336155891418,0.8159812092781067,0.44205912947654724,0.030052464455366135,0.5910769104957581,0.8126903772354126,0.4495585858821869,0.019458234310150146,0.5682358145713806,0.816687285900116,0.4484586715698242,0.021633215248584747,0.5623235702514648,0.8115273714065552,0.45630183815956116,0.007797578815370798,0.5575137138366699
171,0.8099689483642578,0.37147894501686096,-0.03415965288877487,0.9938529133796692,0.8105849027633667,0.3694978356361389,-0.03160124272108078,0.9902366995811462,0.8109959363937378,0.369427353143692,-0.03160948306322098,0.9896917939186096,0.8114174008369446,0.3693627417087555,-0.031615324318408966,0.990652859210968,0.8095431327819824,0.36961084604263306,-0.03280465304851532,0.9893749952316284,0.8092527389526367,0.3696177303791046,-0.03280749171972275,0.9877288937568665,0.8090561628341675,0.36962565779685974,-0.032830558717250824,0.988863468170166,0.8119476437568665,0.3697749674320221,-0.015303227119147778,0.9861229062080383,0.8080897331237793,0.3701910376548767,-0.01981235481798649,0.9812753200531006,0.8108153343200684,0.3732501268386841,-0.026854682713747025,0.9880619049072266,0.8094016909599304,0.37339481711387634,-0.02866472862660885,0.9877796173095703,0.8162729144096375,0.379089891910553,-0.0010363133624196053,0.9872294068336487,0.8053346872329712,0.3791700005531311,-0.01753721758723259,0.9931288361549377,0.8241989016532898,0.390552818775177,0.0027771529275923967,0.8410413861274719,0.8097060322761536,0.38668912649154663,-0.02881714701652527,0.5605961680412292,0.830069899559021,0.39108940958976746,-0.015006574802100658,0.7889397740364075,0.8176923990249634,0.38550564646720886,-0.046923618763685226,0.6125815510749817,0.8318780660629272,0.39118996262550354,-0.01858474127948284,0.7425318360328674,0.819717288017273,0.38619205355644226,-0.052473198622465134,0.6036022901535034,0.8317294120788574,0.3897053599357605,-0.022799232974648476,0.7453469038009644,0.8198221921920776,0.38474854826927185,-0.052452098578214645,0.6098160147666931,0.8308039903640747,0.3898254632949829,-0.017068346962332726,0.7123314738273621,0.8192407488822937,0.3848963677883148,-0.047174934297800064,0.5935905575752258,0.8181737661361694,0.4079652428627014,0.004789627622812986,0.9754157662391663,0.8114129900932312,0.4092807173728943,-0.004804086871445179,0.9827149510383606,0.8224962949752808,0.4219640791416168,-0.01684790477156639,0.7392662763595581,0.8095304369926453,0.4301196336746216,-0.018037134781479836,0.7087389826774597,0.8165808916091919,0.43975934386253357,0.02129688858985901,0.5885161757469177,0.81059330701828,0.4477238953113556,0.013508719392120838,0.615592360496521,0.8148517608642578,0.44139328598976135,0.02457169070839882,0.6184543967247009,0.8107687830924988,0.449092835187912,0.016089025884866714,0.596752941608429,0.8165621757507324,0.44802987575531006,0.012450708076357841,0.5962563753128052,0.8112362623214722,0.4562280476093292,0.0005458069499582052,0.5965940356254578
172,0.8100346326828003,0.37001752853393555,-0.033140651881694794,0.9904393553733826,0.8106399774551392,0.36813414096832275,-0.03153040260076523,0.9844043850898743,0.8110706210136414,0.36805641651153564,-0.03154345601797104,0.9834762811660767,0.8115067481994629,0.3679860830307007,-0.03155404329299927,0.9852861762046814,0.8094595074653625,0.3682507574558258,-0.03206365182995796,0.981819212436676,0.8090724945068359,0.3682546317577362,-0.032065439969301224,0.9789024591445923,0.8087417483329773,0.3682594299316406,-0.03208686038851738,0.9799903631210327,0.8120185732841492,0.36832892894744873,-0.017845848575234413,0.978521466255188,0.8079879879951477,0.36874595284461975,-0.020283937454223633,0.96617591381073,0.8108465075492859,0.3716745376586914,-0.027242327108979225,0.9846000075340271,0.8093622326850891,0.3718145191669464,-0.028148552402853966,0.98102205991745,0.8162915110588074,0.3768967390060425,-0.008365362882614136,0.9880864024162292,0.8050637245178223,0.3772891163825989,-0.015827426686882973,0.9920716881752014,0.8235892057418823,0.38646188378334045,-0.0075505622662603855,0.819282054901123,0.8082197308540344,0.38142910599708557,-0.025551214814186096,0.5836123824119568,0.8275943994522095,0.3863968253135681,-0.02270662598311901,0.7794014811515808,0.8140451312065125,0.376114159822464,-0.04289066419005394,0.6308285593986511,0.8289688229560852,0.3867124617099762,-0.026404613628983498,0.7323111295700073,0.8155925869941711,0.37523120641708374,-0.04775059223175049,0.6168127655982971,0.8289114236831665,0.3851333558559418,-0.02954285219311714,0.7365598082542419,0.8153103590011597,0.3741741478443146,-0.047754667699337006,0.6219777464866638,0.8281623125076294,0.38513702154159546,-0.024282608181238174,0.704689085483551,0.8149307370185852,0.37479761242866516,-0.043368514627218246,0.6015551090240479,0.8180997967720032,0.4067741632461548,0.001495510688982904,0.9774972796440125,0.8108171224594116,0.40804532170295715,-0.0014994068769738078,0.9837369918823242,0.8218460083007812,0.4222312569618225,-0.018516916781663895,0.7507830858230591,0.8098583221435547,0.42603862285614014,-0.01599827967584133,0.7266557216644287,0.8170574903488159,0.4399251937866211,0.016813818365335464,0.6144224405288696,0.8110162615776062,0.44376441836357117,0.014633027836680412,0.6432633996009827,0.815436065196991,0.4415508210659027,0.019705845043063164,0.6335620880126953,0.8114131093025208,0.4448457956314087,0.017217904329299927,0.6101212501525879,0.8169963955879211,0.44866371154785156,0.006200471892952919,0.620372474193573,0.8117097616195679,0.4545679986476898,0.0029401397332549095,0.624791145324707
173
174
175
176
177
178
179
180
181
182
183
184
185
186
187
188
189
190
191
192,0.8370653390884399,0.3145188093185425,-0.24290914833545685,0.9913780093193054,0.8425647616386414,0.3032051622867584,-0.23107890784740448,0.9859236478805542,0.8452454805374146,0.3031407594680786,-0.23115770518779755,0.9850833415985107,0.847922682762146,0.3030988872051239,-0.23125436902046204,0.9866945147514343,0.8349035382270813,0.30351051688194275,-0.22792208194732666,0.9836040735244751,0.8325864672660828,0.30354636907577515,-0.22794559597969055,0.9809757471084595,0.8308979272842407,0.30373913049697876,-0.22802534699440002,0.9819468259811401,0.8504061698913574,0.30544978380203247,-0.15560601651668549,0.9806221127510071,0.8291503190994263,0.307636559009552,-0.140224888920784,0.9695209264755249,0.8428509831428528,0.3240392804145813,-0.21412427723407745,0.9861345887184143,0.8345803022384644,0.32436615228652954,-0.21001669764518738,0.9829113483428955,0.8732401132583618,0.36361849308013916,-0.10926666110754013,0.9891868829727173,0.8141652345657349,0.36690574884414673,-0.06669671833515167,0.9928101301193237,0.8968743085861206,0.42520979046821594,-0.13323038816452026,0.83583003282547,0.7993725538253784,0.42986947298049927,-0.060234345495700836,0.6212804913520813,0.8797990679740906,0.4600662887096405,-0.2203710973262787,0.7902597188949585,0.8079276084899902,0.4703559875488281,-0.16523902118206024,0.6495915651321411,0.8767854571342468,0.47557929158210754,-0.2475314885377884,0.7348571419715881,0.817665696144104,0.492014616727829,-0.18451781570911407,0.6225436925888062,0.8706225156784058,0.4695872962474823,-0.2501278817653656,0.739355742931366,0.8216708898544312,0.48583418130874634,-0.20081727206707,0.6289680004119873,0.8696848750114441,0.463945209980011,-0.22227723896503448,0.7055505514144897,0.8168007135391235,0.4787203371524811,-0.17293205857276917,0.6061103940010071,0.8634980320930481,0.47884601354599,-0.022726882249116898,0.9784342646598816,0.8261359333992004,0.47491970658302307,0.023003533482551575,0.983289897441864,0.8498682975769043,0.5703516006469727,-0.13687779009342194,0.7598804235458374,0.8156277537345886,0.574059784412384,0.009169635362923145,0.7309672832489014,0.850040078163147,0.6492363214492798,-0.009256098419427872,0.5801764130592346,0.8243988156318665,0.6449307203292847,0.18219830095767975,0.611724853515625,0.8455192446708679,0.6641977429389954,-0.0027470646891742945,0.5811434388160706,0.8289996981620789,0.6590211391448975,0.19416014850139618,0.5755797624588013,0.8495996594429016,0.6724273562431335,-0.10046996176242828,0.5748883485794067,0.8246141672134399,0.6766798496246338,0.09359019994735718,0.5996792912483215
193,0.8370347023010254,0.31515413522720337,-0.27675509452819824,0.9920125007629395,0.8396133184432983,0.3042713701725006,-0.26812174916267395,0.9867638349533081,0.8431751132011414,0.30403271317481995,-0.26819807291030884,0.9860773086547852,0.8451789617538452,0.3040730655193329,-0.2683045268058777,0.9874171614646912,0.8348267674446106,0.3064455986022949,-0.2607657313346863,0.9845020174980164,0.8325349688529968,0.30649518966674805,-0.2607804536819458,0.9820951819419861,0.8306912183761597,0.30659008026123047,-0.26085275411605835,0.9828141331672668,0.8509063720703125,0.3112483322620392,-0.19886460900306702,0.9817789793014526,0.8291769027709961,0.31176814436912537,-0.16495095193386078,0.9714899659156799,0.8408718109130859,0.324101984500885,-0.2492692768573761,0.9873796701431274,0.8343826532363892,0.3253132104873657,-0.2396363765001297,0.9843988418579102,0.8732715845108032,0.36336788535118103,-0.16054973006248474,0.9902470111846924,0.8143868446350098,0.3670044243335724,-0.07288636267185211,0.9934343695640564,0.8913642764091492,0.4251188337802887,-0.21937453746795654,0.8510159850120544,0.8014984130859375,0.4289683401584625,-0.031160777434706688,0.6301378607749939,0.8523474931716919,0.42055627703666687,-0.32609862089157104,0.8065568208694458,0.8132856488227844,0.46852388978004456,-0.09876443445682526,0.6507461071014404,0.8402193784713745,0.4225217401981354,-0.359224408864975,0.752845823764801,0.8176978230476379,0.48454612493515015,-0.115312360227108,0.6189778447151184,0.8380923271179199,0.41027021408081055,-0.35296714305877686,0.7567601799964905,0.8212295770645142,0.47883814573287964,-0.1329343020915985,0.6249637603759766,0.8414803743362427,0.4103361964225769,-0.3246757686138153,0.7197102308273315,0.8186238408088684,0.4729757308959961,-0.10675159841775894,0.5991315245628357,0.8605438470840454,0.4818755090236664,-0.027004996314644814,0.9802607893943787,0.8247388601303101,0.47958609461784363,0.02711644396185875,0.9843717217445374,0.8493425250053406,0.5743091702461243,-0.0942893996834755,0.7251343727111816,0.8203758001327515,0.5714956521987915,-0.05748414993286133,0.6872615218162537,0.8490079045295715,0.6510657668113708,0.06266655027866364,0.5614529848098755,0.8243595957756042,0.6449702382087708,0.12059469521045685,0.5893794298171997,0.846756637096405,0.6638021469116211,0.07364647090435028,0.5476469993591309,0.8282136917114258,0.6584861874580383,0.13464036583900452,0.54388028383255,0.8435823321342468,0.675865888595581,-0.013444984331727028,0.5549144744873047,0.8185202479362488,0.6765524744987488,0.043273042887449265,0.5852586030960083
194,0.8370648622512817,0.3155438303947449,-0.2761993408203125,0.9927088618278503,0.8398429155349731,0.30497610569000244,-0.2540072202682495,0.9878943562507629,0.8432782292366028,0.3046106696128845,-0.25409573316574097,0.9872861504554749,0.8453243374824524,0.3045569956302643,-0.2541983723640442,0.9884728789329529,0.8347657918930054,0.3066527545452118,-0.2547156512737274,0.9857664108276367,0.8332691192626953,0.30801922082901,-0.254798948764801,0.9835271239280701,0.8312622308731079,0.3080974221229553,-0.25498056411743164,0.9841158986091614,0.8507133722305298,0.31063273549079895,-0.1833774298429489,0.9833524227142334,0.8306444883346558,0.3133491277694702,-0.16235342621803284,0.9738744497299194,0.8408852815628052,0.32586559653282166,-0.238416388630867,0.9885838627815247,0.8343549966812134,0.3271462321281433,-0.23099367320537567,0.9858549237251282,0.8743185997009277,0.36122941970825195,-0.14133921265602112,0.9912113547325134,0.8157801628112793,0.36645299196243286,-0.06179998070001602,0.9940313696861267,0.8918927907943726,0.42480581998825073,-0.19439946115016937,0.8649881482124329,0.8022470474243164,0.4289349913597107,0.008673283271491528,0.644811749458313,0.8582416772842407,0.4047758877277374,-0.3068316578865051,0.8231040835380554,0.8165815472602844,0.45887404680252075,-0.02812081202864647,0.6626393795013428,0.8475468754768372,0.4030245542526245,-0.337703138589859,0.7714930176734924,0.8195029497146606,0.4711945950984955,-0.03751786798238754,0.6264211535453796,0.8456090092658997,0.39089876413345337,-0.3312297463417053,0.7746444940567017,0.8215798139572144,0.4647175371646881,-0.054141364991664886,0.6318280100822449,0.847935676574707,0.39254727959632874,-0.3053848147392273,0.7376030683517456,0.8208248019218445,0.4602643847465515,-0.03452301025390625,0.6044408679008484,0.860753059387207,0.481240838766098,-0.02654123865067959,0.9821627736091614,0.8261810541152954,0.47931668162345886,0.02667805552482605,0.9857267737388611,0.854815661907196,0.5739995241165161,-0.0713416337966919,0.6941637992858887,0.834119975566864,0.5687234997749329,-0.030429188162088394,0.6443893909454346,0.8542648553848267,0.6511077880859375,0.07054152339696884,0.5453982949256897,0.8313352465629578,0.6449525356292725,0.1460028737783432,0.5639305710792542,0.8541288375854492,0.6628167629241943,0.08101426064968109,0.5258092284202576,0.8333467245101929,0.6572434902191162,0.1558336317539215,0.5171200633049011,0.8529505729675293,0.6785329580307007,-0.0008196454728022218,0.5396233797073364,0.8233272433280945,0.675747811794281,0.08435694128274918,0.5682043433189392
195,0.8394144177436829,0.3154771029949188,-0.2808724045753479,0.9933289289474487,0.843733012676239,0.3049110472202301,-0.26860862970352173,0.988871693611145,0.8462602496147156,0.30456554889678955,-0.26867660880088806,0.9883174896240234,0.8485220074653625,0.3045022785663605,-0.2687740921974182,0.9893593192100525,0.8372073173522949,0.3063347637653351,-0.26468580961227417,0.9869092106819153,0.8347589373588562,0.3074367344379425,-0.2647101581096649,0.9848095774650574,0.8325611352920532,0.30754321813583374,-0.26477235555648804,0.9852885007858276,0.8521589040756226,0.31052419543266296,-0.1902032494544983,0.9846131801605225,0.8311249017715454,0.31303367018699646,-0.1700841337442398,0.9759117364883423,0.8433036804199219,0.3257681131362915,-0.24890482425689697,0.9896101951599121,0.8363038897514343,0.32691046595573425,-0.24315233528614044,0.9871102571487427,0.8743277788162231,0.36032694578170776,-0.1448202282190323,0.9920526146888733,0.8157389760017395,0.36402082443237305,-0.0812734067440033,0.9945517778396606,0.8907432556152344,0.4247813820838928,-0.1978832185268402,0.8770970702171326,0.8022763133049011,0.4285769462585449,-0.02246813103556633,0.6568282246589661,0.8564760088920593,0.401386559009552,-0.306283563375473,0.8361182808876038,0.820286750793457,0.4511006772518158,-0.08138229697942734,0.6689266562461853,0.8449403643608093,0.3993324339389801,-0.3373781740665436,0.7848381996154785,0.8235805630683899,0.462586373090744,-0.09521498531103134,0.6303732395172119,0.8439074754714966,0.3872990012168884,-0.33118659257888794,0.7871779203414917,0.8249000310897827,0.45523279905319214,-0.11171762645244598,0.6349738836288452,0.8465377688407898,0.38893383741378784,-0.30514082312583923,0.7493104338645935,0.8246389627456665,0.45096105337142944,-0.08824039995670319,0.6052796244621277,0.8605143427848816,0.4812127947807312,-0.023321691900491714,0.9837924838066101,0.8263616561889648,0.479548841714859,0.02335311844944954,0.986878514289856,0.8553315997123718,0.5737614035606384,-0.05595795065164566,0.6527338027954102,0.8357427716255188,0.5685668587684631,-0.02068393863737583,0.6042535305023193,0.8559761047363281,0.6506007313728333,0.07713290303945541,0.5225727558135986,0.8333688974380493,0.6479402184486389,0.1259661614894867,0.5437300801277161,0.8555790781974792,0.6616596579551697,0.08679760247468948,0.5092524290084839,0.8351563215255737,0.6597008109092712,0.13673050701618195,0.4930480718612671,0.8614238500595093,0.677951991558075,0.009110766462981701,0.5233691930770874,0.8260620832443237,0.6768948435783386,0.052696339786052704,0.5530593395233154
196,0.8410263061523438,0.31624120473861694,-0.29361313581466675,0.9935317635536194,0.8440494537353516,0.30487728118896484,-0.2840874195098877,0.9890575408935547,0.8465331196784973,0.3045426607131958,-0.28415730595588684,0.9885993003845215,0.8491120338439941,0.3044801652431488,-0.28426533937454224,0.9895461797714233,0.8371542096138,0.30623483657836914,-0.27977463603019714,0.9870993494987488,0.8346633911132812,0.30725616216659546,-0.27980124950408936,0.984935462474823,0.8325036764144897,0.3073374330997467,-0.2798529863357544,0.9852439761161804,0.8524697422981262,0.3101848363876343,-0.20921805500984192,0.9849834442138672,0.8311939239501953,0.31497132778167725,-0.18902036547660828,0.9764198064804077,0.8437222242355347,0.3259355127811432,-0.26356205344200134,0.9903045892715454,0.8374382257461548,0.32727375626564026,-0.25790753960609436,0.9878493547439575,0.8744815587997437,0.3599223792552948,-0.15998272597789764,0.9927910566329956,0.8158277273178101,0.3641684353351593,-0.10265568643808365,0.9949350953102112,0.8912272453308105,0.42419523000717163,-0.20479533076286316,0.8877929449081421,0.802618682384491,0.42936787009239197,-0.04445312172174454,0.6719943284988403,0.8592019081115723,0.41045209765434265,-0.3027111291885376,0.8451588153839111,0.8261337280273438,0.45185986161231995,-0.09610625356435776,0.6708952784538269,0.8482894897460938,0.41190052032470703,-0.3332892954349518,0.7919723987579346,0.8308333158493042,0.464013934135437,-0.11049191653728485,0.6293050646781921,0.8461624383926392,0.40063348412513733,-0.32803767919540405,0.7934352159500122,0.8323575258255005,0.45647183060646057,-0.12612049281597137,0.6330878734588623,0.8487399816513062,0.400905042886734,-0.30171313881874084,0.7535533308982849,0.831579864025116,0.45172184705734253,-0.1025361642241478,0.6006602644920349,0.8608211278915405,0.4811348021030426,-0.021806810051202774,0.9849733114242554,0.8296735882759094,0.4792843461036682,0.021857183426618576,0.9874472618103027,0.8596354722976685,0.5736598372459412,-0.043391153216362,0.6203242540359497,0.8370593786239624,0.5687631964683533,-0.01601109467446804,0.5742918848991394,0.8610237836837769,0.6507706046104431,0.0809352844953537,0.5033640265464783,0.8344098329544067,0.6517158150672913,0.12459637969732285,0.5234067440032959,0.8606587648391724,0.6617052555084229,0.089310422539711,0.4861622452735901,0.8365418314933777,0.6626625657081604,0.1344333291053772,0.4661153554916382,0.8672789335250854,0.677548348903656,0.007006117142736912,0.5040333271026611,0.8278688192367554,0.6814431548118591,0.046258363872766495,0.5341051816940308
197,0.8409137725830078,0.3172081708908081,-0.3036404550075531,0.9936397075653076,0.8441696166992188,0.30737051367759705,-0.296234667301178,0.9889529943466187,0.8465096354484558,0.3045872151851654,-0.2963028848171234,0.9886553287506104,0.8490486145019531,0.30455461144447327,-0.2964079976081848,0.9893501400947571,0.8372229337692261,0.3082521855831146,-0.2904914319515228,0.9869750738143921,0.8347390294075012,0.3087639808654785,-0.2905065715312958,0.9847666025161743,0.8325039744377136,0.30884984135627747,-0.2905562222003937,0.984811544418335,0.8525277376174927,0.30990874767303467,-0.22611089050769806,0.9852765798568726,0.8304255604743958,0.3144954741001129,-0.1989845335483551,0.9764598608016968,0.8438042402267456,0.3262501358985901,-0.27478060126304626,0.9909704327583313,0.83738774061203,0.32778871059417725,-0.2671799063682556,0.9885868430137634,0.8745524287223816,0.3596269488334656,-0.17957556247711182,0.9934865236282349,0.8157936930656433,0.3645422160625458,-0.10398276150226593,0.9953625798225403,0.8915589451789856,0.42345723509788513,-0.21292153000831604,0.8971222043037415,0.8025835752487183,0.4304594397544861,-0.043082207441329956,0.6846864223480225,0.8615959882736206,0.41592809557914734,-0.29468396306037903,0.8505496382713318,0.8256810903549194,0.46674424409866333,-0.08943133056163788,0.6763026118278503,0.8524296879768372,0.4196333587169647,-0.3237500488758087,0.7950525283813477,0.8281453251838684,0.4871000349521637,-0.10226050764322281,0.631664514541626,0.8494547009468079,0.4089762270450592,-0.31972765922546387,0.7955245971679688,0.8302232027053833,0.4821406602859497,-0.12108901888132095,0.6353364586830139,0.8512338399887085,0.4084227979183197,-0.29356542229652405,0.7533532977104187,0.8294048309326172,0.4755900204181671,-0.09692307561635971,0.6026763916015625,0.8624055981636047,0.48111623525619507,-0.026798227801918983,0.9861230850219727,0.8313050270080566,0.47949182987213135,0.02688390016555786,0.988118052482605,0.8611971139907837,0.5728168487548828,-0.04689529165625572,0.5943165421485901,0.8408583402633667,0.5690504908561707,-0.005152803845703602,0.5407838821411133,0.8635512590408325,0.647822916507721,0.10144766420125961,0.4890829920768738,0.840172290802002,0.6512631773948669,0.1297883689403534,0.5030725598335266,0.8645390272140503,0.6574693322181702,0.11200849711894989,0.4622265696525574,0.8431470990180969,0.662520170211792,0.1425769180059433,0.44686293601989746,0.8652400970458984,0.6767082214355469,0.02964967116713524,0.48981836438179016,0.8315473794937134,0.6810430288314819,0.07093356549739838,0.5198732018470764
198,0.8403394818305969,0.3226756453514099,-0.31674104928970337,0.9940412044525146,0.8434783220291138,0.313300758600235,-0.31045976281166077,0.9895053505897522,0.8459712266921997,0.3122365176677704,-0.310520738363266,0.9891932606697083,0.848888099193573,0.3078628480434418,-0.3106159269809723,0.9898859262466431,0.8363553285598755,0.31419819593429565,-0.30531150102615356,0.9876964092254639,0.8337830305099487,0.3144510090351105,-0.3053508400917053,0.9855348467826843,0.8313096165657043,0.3145976662635803,-0.3054113984107971,0.9856880307197571,0.8524054288864136,0.31162235140800476,-0.23942279815673828,0.9860432744026184,0.8295509219169617,0.31853732466697693,-0.21514078974723816,0.9777209758758545,0.8438860774040222,0.330927312374115,-0.28719067573547363,0.9917113184928894,0.8368281126022339,0.3322567641735077,-0.2802814841270447,0.9895070791244507,0.8738908767700195,0.35973113775253296,-0.17937108874320984,0.994105875492096,0.8144975900650024,0.36492112278938293,-0.12457088381052017,0.9957829117774963,0.8914063572883606,0.42271503806114197,-0.18547423183918,0.9035499095916748,0.8022629022598267,0.4313787519931793,-0.06836526840925217,0.7077125906944275,0.8734175562858582,0.45098981261253357,-0.23233270645141602,0.8413798809051514,0.8157005310058594,0.4729430377483368,-0.11674048751592636,0.6935704350471497,0.8703435659408569,0.4652170240879059,-0.2577032446861267,0.7804223895072937,0.8235895037651062,0.4956834614276886,-0.13262569904327393,0.646251916885376,0.8644421696662903,0.4589832127094269,-0.2681009769439697,0.7808297276496887,0.8264778852462769,0.49127858877182007,-0.1566370278596878,0.6502450108528137,0.864306628704071,0.4537924826145172,-0.2366904318332672,0.7388908863067627,0.8225245475769043,0.4811078608036041,-0.1265348494052887,0.618427038192749,0.8614339828491211,0.48104825615882874,-0.024996932595968246,0.9870561361312866,0.8312519788742065,0.479732871055603,0.025083893910050392,0.9887862801551819,0.8588571548461914,0.5751087069511414,-0.039591897279024124,0.5759748220443726,0.8367886543273926,0.5720668435096741,-0.004786024801433086,0.5279582738876343,0.8589754104614258,0.6555960178375244,0.06999044865369797,0.4892878234386444,0.8374074101448059,0.6601207852363586,0.10993808507919312,0.49664047360420227,0.861081600189209,0.6663872003555298,0.07816119492053986,0.4459155797958374,0.8406027555465698,0.6716646552085876,0.11763522773981094,0.43417203426361084,0.8643883466720581,0.6827487945556641,-0.008593978360295296,0.48601266741752625,0.8310148119926453,0.690807580947876,0.02914644218981266,0.5158879160881042
199,0.8403352499008179,0.32335999608039856,-0.3294897973537445,0.9943970441818237,0.8435784578323364,0.314383864402771,-0.32302719354629517,0.9900042414665222,0.8461116552352905,0.31385543942451477,-0.32307329773902893,0.989669680595398,0.8489643335342407,0.3122357726097107,-0.32316428422927856,0.9903230667114258,0.8364435434341431,0.315012663602829,-0.3189232051372528,0.9883419871330261,0.8338820338249207,0.31515514850616455,-0.3189771771430969,0.9862737059593201,0.8313763737678528,0.31526273488998413,-0.3190368115901947,0.9864826202392578,0.8523656725883484,0.3122226297855377,-0.2501623034477234,0.9866443276405334,0.8295961618423462,0.31921249628067017,-0.2313123494386673,0.9788079857826233,0.8448039889335632,0.33180665969848633,-0.2992100715637207,0.992337167263031,0.8368406295776367,0.3327997028827667,-0.29391875863075256,0.9902878403663635,0.8736196756362915,0.3596397340297699,-0.18193554878234863,0.9946482181549072,0.8145009279251099,0.3649764060974121,-0.13886049389839172,0.9961465001106262,0.891323447227478,0.41859808564186096,-0.1520763486623764,0.9090696573257446,0.8023449182510376,0.4313463866710663,-0.07981935888528824,0.7287297248840332,0.878929615020752,0.4488290846347809,-0.18272365629673004,0.834478497505188,0.813083291053772,0.4718725085258484,-0.1279522031545639,0.709985613822937,0.8761032819747925,0.46132105588912964,-0.20181453227996826,0.767294704914093,0.822365403175354,0.49261754751205444,-0.1423073559999466,0.660161018371582,0.8714603185653687,0.45482319593429565,-0.21246881783008575,0.7674050331115723,0.8252435922622681,0.4874473810195923,-0.16500408947467804,0.6642484664916992,0.8711327314376831,0.45023348927497864,-0.18624427914619446,0.7259812951087952,0.8227938413619995,0.47894084453582764,-0.13694033026695251,0.6332131028175354,0.86127769947052,0.48042720556259155,-0.02205749787390232,0.9877822995185852,0.8307594060897827,0.47991907596588135,0.02213646098971367,0.9892193675041199,0.8586708903312683,0.5748146772384644,-0.03976264223456383,0.565642774105072,0.835938572883606,0.5723495483398438,-0.004785450641065836,0.5223274230957031,0.8602670431137085,0.6548629999160767,0.07775963842868805,0.49433159828186035,0.8361856341362,0.6587079167366028,0.12009801715612411,0.49891072511672974,0.8606621623039246,0.6659545302391052,0.08457837253808975,0.4346591532230377,0.8392923474311829,0.670195460319519,0.1289934515953064,0.42719796299934387,0.866242527961731,0.681498646736145,-0.0006936465506441891,0.4860023558139801,0.8302752375602722,0.6892624497413635,0.039463091641664505,0.5176827907562256
200,0.8407829999923706,0.3230014145374298,-0.3390722870826721,0.9948898553848267,0.8439359664916992,0.31395700573921204,-0.32940956950187683,0.9908528923988342,0.8463476300239563,0.31282150745391846,-0.32946836948394775,0.9905344247817993,0.8489663004875183,0.3119344413280487,-0.3295651078224182,0.9911327958106995,0.8365885019302368,0.31477272510528564,-0.3251296579837799,0.9893417954444885,0.833964467048645,0.3149784207344055,-0.3251604735851288,0.9874157905578613,0.8313952684402466,0.315165251493454,-0.32520923018455505,0.9876220226287842,0.8523613810539246,0.31311097741127014,-0.24662387371063232,0.9877042174339294,0.8294917345046997,0.31941211223602295,-0.22624652087688446,0.9805938601493835,0.8460085988044739,0.33151137828826904,-0.30572184920310974,0.9930476546287537,0.8370450139045715,0.3326294720172882,-0.29995277523994446,0.9911851286888123,0.8735488653182983,0.35967856645584106,-0.18356618285179138,0.9951707720756531,0.8144671320915222,0.36516350507736206,-0.12933441996574402,0.996513307094574,0.8914546966552734,0.4189578890800476,-0.21244049072265625,0.9151912927627563,0.8023789525032043,0.43177512288093567,-0.07102332264184952,0.7503165602684021,0.8773342370986938,0.4475206434726715,-0.3211372494697571,0.8399333953857422,0.8096272349357605,0.4750833511352539,-0.12663652002811432,0.7299838662147522,0.873245358467102,0.4583815932273865,-0.3530491292476654,0.7728293538093567,0.8111180067062378,0.49277254939079285,-0.13950413465499878,0.679154098033905,0.8691991567611694,0.45202216506004333,-0.35707372426986694,0.7725306153297424,0.8203915357589722,0.49474823474884033,-0.16141347587108612,0.6831470727920532,0.8691595196723938,0.44959303736686707,-0.3243628144264221,0.7291510105133057,0.8172098398208618,0.4827946424484253,-0.13565462827682495,0.6527450680732727,0.8620635867118835,0.47957152128219604,-0.022105516865849495,0.9887508153915405,0.8315967321395874,0.4798293113708496,0.02219153568148613,0.990005373954773,0.8586674928665161,0.5752032399177551,-0.04945962503552437,0.5487704873085022,0.8368425369262695,0.571415364742279,-0.0116813275963068,0.5082261562347412,0.8598374128341675,0.6554298400878906,0.07401908189058304,0.492602676153183,0.8369297981262207,0.6609658598899841,0.11854057013988495,0.4936416745185852,0.8598325848579407,0.6662431955337524,0.08141951262950897,0.4182533025741577,0.8395400047302246,0.6726347804069519,0.12790176272392273,0.4152214229106903,0.8644037246704102,0.6824193596839905,-0.007002859376370907,0.48221418261528015,0.8307754397392273,0.6922871470451355,0.0348767414689064,0.5170406699180603
201,0.8407618403434753,0.32255223393440247,-0.35469889640808105,0.9948354959487915,0.8438725471496582,0.31320348381996155,-0.3479752242565155,0.9905234575271606,0.8463888168334961,0.3115999400615692,-0.34804606437683105,0.9900433421134949,0.8489464521408081,0.31136101484298706,-0.3481576144695282,0.9906086921691895,0.8365641832351685,0.31399014592170715,-0.34150776267051697,0.9890877604484558,0.8339520692825317,0.31420689821243286,-0.34157222509384155,0.9869365692138672,0.8313878178596497,0.314391553401947,-0.34164607524871826,0.9873220324516296,0.8524723052978516,0.31277143955230713,-0.27453067898750305,0.9872397184371948,0.8296030163764954,0.3187810182571411,-0.24415616691112518,0.9800883531570435,0.8459147214889526,0.3311682343482971,-0.3243170380592346,0.9934521317481995,0.8369975090026855,0.33227142691612244,-0.3156895637512207,0.9917078018188477,0.8742162585258484,0.3596728444099426,-0.21020379662513733,0.9956103563308716,0.8144146203994751,0.3651171922683716,-0.14311788976192474,0.9968187212944031,0.8915194272994995,0.42091161012649536,-0.20305940508842468,0.9218232035636902,0.8020427823066711,0.4318755865097046,-0.08483611047267914,0.7712955474853516,0.8778507113456726,0.45549947023391724,-0.2902507185935974,0.8427192568778992,0.8077338337898254,0.47673219442367554,-0.14586299657821655,0.7469788789749146,0.8741612434387207,0.46824169158935547,-0.3230471909046173,0.7729193568229675,0.8095898628234863,0.49430787563323975,-0.1609780341386795,0.693336009979248,0.8690807223320007,0.46079888939857483,-0.3367931544780731,0.7724903225898743,0.8168150186538696,0.49417516589164734,-0.18433232605457306,0.6973842978477478,0.8689635396003723,0.4559148848056793,-0.29920172691345215,0.7286133170127869,0.8166594505310059,0.4858725368976593,-0.15515698492527008,0.6683506369590759,0.863265872001648,0.4794656038284302,-0.024794137105345726,0.9889056086540222,0.8312743306159973,0.47980940341949463,0.024924151599407196,0.9899668097496033,0.8582957983016968,0.5750739574432373,-0.06366831809282303,0.5298362970352173,0.835654616355896,0.5726702809333801,-0.011922245845198631,0.4802590608596802,0.8596993684768677,0.6550039052963257,0.08948428183794022,0.47742554545402527,0.8372210264205933,0.6639003157615662,0.1408272087574005,0.47170618176460266,0.8597644567489624,0.6651831269264221,0.10057099908590317,0.39989525079727173,0.8396856188774109,0.6759635210037231,0.15300612151622772,0.4004638195037842,0.8637658357620239,0.684329092502594,0.012050921097397804,0.4613349735736847,0.8307543992996216,0.6945059299468994,0.0366937518119812,0.49451589584350586
202,0.8396223783493042,0.32562342286109924,-0.33871525526046753,0.995139479637146,0.8426352739334106,0.3156999945640564,-0.3323759138584137,0.9909162521362305,0.8452199101448059,0.314814954996109,-0.33241942524909973,0.9904093146324158,0.8479005098342896,0.31434252858161926,-0.33250686526298523,0.9909051656723022,0.8353356122970581,0.3169402480125427,-0.3272617757320404,0.9896566271781921,0.8327603340148926,0.3172513246536255,-0.3273254930973053,0.98764568567276,0.8301923871040344,0.317558228969574,-0.3273940980434418,0.9880485534667969,0.8519784212112427,0.3128429651260376,-0.258175790309906,0.9877460598945618,0.8286770582199097,0.32112544775009155,-0.23418442904949188,0.9812284111976624,0.8455944061279297,0.33350691199302673,-0.30768388509750366,0.9939703941345215,0.8363383412361145,0.33514052629470825,-0.3009070158004761,0.9923591017723083,0.8742124438285828,0.35913053154945374,-0.18725146353244781,0.9960255026817322,0.8141151666641235,0.3651305139064789,-0.13937878608703613,0.997113049030304,0.8915094137191772,0.4209720194339752,-0.13439558446407318,0.9257253408432007,0.8015742301940918,0.4322558045387268,-0.08066694438457489,0.7898784279823303,0.8803085088729858,0.45369473099708557,-0.15739327669143677,0.837476909160614,0.8068615794181824,0.47624367475509644,-0.13727125525474548,0.7635907530784607,0.8769682049751282,0.466408371925354,-0.17371860146522522,0.7640166282653809,0.8072137832641602,0.49343958497047424,-0.15243951976299286,0.7088556289672852,0.871614933013916,0.4561008810997009,-0.18608176708221436,0.7635852098464966,0.8149228096008301,0.49223577976226807,-0.1746104508638382,0.7128040194511414,0.8712239265441895,0.453260213136673,-0.1610393226146698,0.7199745178222656,0.8156217336654663,0.4849880635738373,-0.1461351066827774,0.6842726469039917,0.8636757731437683,0.4793153405189514,-0.02187352254986763,0.9896292090415955,0.8318780064582825,0.47978681325912476,0.021959742531180382,0.9904685616493225,0.8589423298835754,0.5768440365791321,-0.05691894143819809,0.5139591693878174,0.8361708521842957,0.5721917748451233,-0.012585444375872612,0.46154293417930603,0.8594280481338501,0.6614575982093811,0.07878991216421127,0.4726307988166809,0.8384684324264526,0.6659203171730042,0.1283741444349289,0.46388018131256104,0.859653115272522,0.6715341210365295,0.08753206580877304,0.38486823439598083,0.8408441543579102,0.6772574186325073,0.1387365162372589,0.391340434551239,0.8609181642532349,0.6926291584968567,-0.0015103595796972513,0.45384204387664795,0.8330469131469727,0.698525607585907,0.039813291281461716,0.4896048307418823
203,0.8384256362915039,0.3305112421512604,-0.3985046446323395,0.9951885342597961,0.8414986729621887,0.3183993399143219,-0.39100295305252075,0.9908156394958496,0.8440946340560913,0.3174058198928833,-0.39106619358062744,0.9904012680053711,0.8468272089958191,0.3163997232913971,-0.391193687915802,0.9908813238143921,0.8340098261833191,0.32012099027633667,-0.38697463274002075,0.9895643591880798,0.831413745880127,0.3203279674053192,-0.38703951239585876,0.9874770641326904,0.8290448188781738,0.3203146755695343,-0.38711512088775635,0.9878169894218445,0.851016640663147,0.3144839107990265,-0.3056514859199524,0.9877752661705017,0.8262898325920105,0.3253621459007263,-0.2860644459724426,0.9815171360969543,0.8438475728034973,0.3375406563282013,-0.36277616024017334,0.9943506121635437,0.8358711004257202,0.3405453562736511,-0.35729214549064636,0.9928197264671326,0.8742495775222778,0.3591690957546234,-0.2275235652923584,0.9964094758033752,0.8124871253967285,0.36551082134246826,-0.17726950347423553,0.997363269329071,0.8915707468986511,0.4260983467102051,-0.25156170129776,0.9308173060417175,0.8008517026901245,0.4343447685241699,-0.11165831983089447,0.8033822774887085,0.8795309066772461,0.4509682059288025,-0.3546435534954071,0.8397480249404907,0.8068398237228394,0.4770142734050751,-0.1504029929637909,0.7675255537033081,0.8736656308174133,0.46210190653800964,-0.38590356707572937,0.7655978202819824,0.80950927734375,0.4992736577987671,-0.16405506432056427,0.7093315720558167,0.8679903745651245,0.452479749917984,-0.38974934816360474,0.7644327282905579,0.8150571584701538,0.49219369888305664,-0.18447238206863403,0.7129978537559509,0.8684822916984558,0.44959843158721924,-0.35706573724746704,0.7175996899604797,0.8154178857803345,0.4850543737411499,-0.15820632874965668,0.6834200024604797,0.8640700578689575,0.47871193289756775,-0.019203269854187965,0.9901900291442871,0.8316991925239563,0.47975847125053406,0.019328005611896515,0.990757942199707,0.8611325025558472,0.5768030285835266,-0.05945446342229843,0.49555954337120056,0.8372992277145386,0.5685763955116272,-0.031783830374479294,0.44568952918052673,0.8598469495773315,0.660697877407074,0.07848216593265533,0.4648275673389435,0.8413974642753601,0.6655827164649963,0.11008254438638687,0.4575616419315338,0.859706699848175,0.6709430813789368,0.08728397637605667,0.3731938898563385,0.8433297276496887,0.6770114898681641,0.12018004804849625,0.37712395191192627,0.8620074391365051,0.6915246248245239,-0.004407771863043308,0.4453064203262329,0.8378089070320129,0.6990565657615662,0.0197441466152668,0.48325926065444946
204,0.8368785977363586,0.3293858766555786,-0.3786683678627014,0.9955660700798035,0.8386783599853516,0.31810036301612854,-0.3722473978996277,0.9915903806686401,0.8410137295722961,0.3164534568786621,-0.37230002880096436,0.9912406206130981,0.843294620513916,0.31554892659187317,-0.3724167048931122,0.9916754961013794,0.8320722579956055,0.31969383358955383,-0.36596760153770447,0.9903249740600586,0.8301036953926086,0.3198292851448059,-0.36600998044013977,0.9883867502212524,0.8281586766242981,0.31973305344581604,-0.36605560779571533,0.9886882305145264,0.848183274269104,0.3156678080558777,-0.29301920533180237,0.9888627529144287,0.8262054324150085,0.3252933919429779,-0.2631915211677551,0.9829772114753723,0.8429940342903137,0.336788535118103,-0.34575846791267395,0.9948777556419373,0.834682285785675,0.3393320143222809,-0.3372558653354645,0.9934442043304443,0.8736268281936646,0.35919779539108276,-0.2188153713941574,0.996760904788971,0.8129757642745972,0.3655456602573395,-0.1529722362756729,0.9975468516349792,0.8914936780929565,0.4254657030105591,-0.26251909136772156,0.9356697797775269,0.8008641004562378,0.4277993142604828,-0.056921154260635376,0.8075084090232849,0.8786905407905579,0.4431045949459076,-0.39491891860961914,0.8473806381225586,0.8072410821914673,0.45809686183929443,-0.059902310371398926,0.7717815041542053,0.8734865188598633,0.4496455490589142,-0.4292716979980469,0.7748237252235413,0.8093258142471313,0.4692470133304596,-0.06749516725540161,0.7129456996917725,0.8684571981430054,0.43998077511787415,-0.4347618520259857,0.7735151648521423,0.8110343813896179,0.4636746048927307,-0.08872171491384506,0.7167872786521912,0.8686212301254272,0.43789753317832947,-0.39914950728416443,0.7250255942344666,0.8118826150894165,0.4594072103500366,-0.06743781268596649,0.6869796514511108,0.8636695742607117,0.4786151349544525,-0.020438430830836296,0.9909424185752869,0.8315829038619995,0.4795635938644409,0.020618801936507225,0.9911707639694214,0.8599106073379517,0.5766801834106445,-0.06321966648101807,0.5223695635795593,0.8386262655258179,0.5686947107315063,-0.024064596742391586,0.4653013050556183,0.8540685772895813,0.6613447070121765,0.07831268012523651,0.5001994967460632,0.8404544591903687,0.6572393178939819,0.13158269226551056,0.48112499713897705,0.8533114194869995,0.6711211800575256,0.08744456619024277,0.38734474778175354,0.8425887823104858,0.6668424010276794,0.14358437061309814,0.385458767414093,0.8454116582870483,0.6899321675300598,-0.005932096857577562,0.47358253598213196,0.8375593423843384,0.6914952993392944,0.03220626339316368,0.5043729543685913
205,0.8362489938735962,0.3294566869735718,-0.35571375489234924,0.9957582950592041,0.8382917642593384,0.3181171119213104,-0.3481290936470032,0.9920563697814941,0.8409131169319153,0.3170280456542969,-0.34818893671035767,0.9917633533477783,0.8432762026786804,0.315370112657547,-0.3482954204082489,0.9921658039093018,0.8317241668701172,0.31973177194595337,-0.3426021933555603,0.9906522035598755,0.8298295736312866,0.32006174325942993,-0.34264564514160156,0.9887624979019165,0.8279432058334351,0.3201882541179657,-0.34270337224006653,0.9890544414520264,0.8480547070503235,0.31709372997283936,-0.2727065086364746,0.989529550075531,0.8256860971450806,0.3259260952472687,-0.24487105011940002,0.983934223651886,0.842687726020813,0.33667418360710144,-0.3248904347419739,0.9952818751335144,0.8342176675796509,0.3393876850605011,-0.31691402196884155,0.9939014315605164,0.8726507425308228,0.3590894043445587,-0.1858883649110794,0.9970628619194031,0.8131517171859741,0.36572933197021484,-0.1441890299320221,0.9977025985717773,0.8914154767990112,0.42298609018325806,-0.22458644211292267,0.934657871723175,0.800848126411438,0.4281240403652191,-0.05992082878947258,0.8143070936203003,0.8809282183647156,0.44051483273506165,-0.3216833472251892,0.8344208002090454,0.8144873380661011,0.4458528459072113,-0.09222012758255005,0.7721635699272156,0.8771098852157593,0.44808733463287354,-0.3512123227119446,0.759605348110199,0.8177831768989563,0.45481622219085693,-0.10423401743173599,0.712189257144928,0.8733628988265991,0.4380719065666199,-0.3572642207145691,0.7580184936523438,0.8175314664840698,0.44719198346138,-0.12281052023172379,0.7158626914024353,0.8727591633796692,0.43570461869239807,-0.3253549337387085,0.7072567343711853,0.8174349069595337,0.4436051547527313,-0.09923961758613586,0.6843000650405884,0.8635151982307434,0.4783661663532257,-0.013793637044727802,0.991485595703125,0.831505298614502,0.47950980067253113,0.013986557722091675,0.991413950920105,0.8596886396408081,0.5768256783485413,-0.06666242331266403,0.5150467753410339,0.8378850221633911,0.565769612789154,-0.03630180284380913,0.46424177289009094,0.8543788194656372,0.6619336009025574,0.07711425423622131,0.49737006425857544,0.8399799466133118,0.6563332676887512,0.12144224345684052,0.47885119915008545,0.8532698750495911,0.672372043132782,0.08552767336368561,0.3811565041542053,0.8420760035514832,0.6658452153205872,0.13354244828224182,0.37646329402923584,0.8533214330673218,0.690895140171051,-0.013533994555473328,0.46554261445999146,0.8401253819465637,0.6908883452415466,0.027586882933974266,0.5004553198814392
206,0.8359898328781128,0.32897529006004333,-0.3489028811454773,0.9959697127342224,0.8375142216682434,0.3192631006240845,-0.34155771136283875,0.9924490451812744,0.8400351405143738,0.31834080815315247,-0.34160956740379333,0.9921837449073792,0.8425993919372559,0.3195309042930603,-0.34171441197395325,0.9925384521484375,0.8315457105636597,0.3214928209781647,-0.3357733488082886,0.9910334944725037,0.8297794461250305,0.3221295475959778,-0.33582332730293274,0.989238977432251,0.8279761075973511,0.32245925068855286,-0.3358858525753021,0.9895102381706238,0.8468794822692871,0.3188510537147522,-0.2752518057823181,0.990027904510498,0.825823962688446,0.3279555141925812,-0.24379949271678925,0.9849482774734497,0.8416595458984375,0.336201936006546,-0.3175397217273712,0.9956783652305603,0.8338441848754883,0.3412908613681793,-0.3098146319389343,0.9943757057189941,0.8722920417785645,0.3588660955429077,-0.19550657272338867,0.997341513633728,0.8134174346923828,0.3657444715499878,-0.14689162373542786,0.997904896736145,0.8914381861686707,0.42093250155448914,-0.1965317726135254,0.937626838684082,0.8006243705749512,0.4277035593986511,-0.05548586696386337,0.8294724225997925,0.8832434415817261,0.4406077265739441,-0.262205570936203,0.8366212844848633,0.8073245882987976,0.4547719359397888,-0.05708307772874832,0.7878400087356567,0.8786857724189758,0.4474368095397949,-0.2822708189487457,0.7624208331108093,0.8081749081611633,0.45684710144996643,-0.06217307597398758,0.72758549451828,0.8769468069076538,0.4382261335849762,-0.2920258641242981,0.7601964473724365,0.8161471486091614,0.4569832682609558,-0.08300715684890747,0.7310588359832764,0.8739904165267944,0.4356992542743683,-0.26580578088760376,0.7083162665367126,0.8168591260910034,0.4538169503211975,-0.06379317492246628,0.700829029083252,0.8635848760604858,0.4779207110404968,-0.015394014306366444,0.9920697212219238,0.831494927406311,0.47881314158439636,0.015571375377476215,0.9916900396347046,0.8593823313713074,0.5762816667556763,-0.07457545399665833,0.5374701619148254,0.8376283645629883,0.5662587881088257,0.00022234907373785973,0.47747722268104553,0.8528879284858704,0.6618022322654724,0.06376811116933823,0.5190523862838745,0.8393456339836121,0.6492620706558228,0.1760324090719223,0.47981563210487366,0.851164698600769,0.6723190546035767,0.07205072045326233,0.3771660327911377,0.8409414291381836,0.6579310297966003,0.18992939591407776,0.3713683784008026,0.8530967831611633,0.6923243999481201,-0.025530841201543808,0.4714986979961395,0.8386502265930176,0.6837126612663269,0.09388907253742218,0.49704357981681824
207,0.8362862467765808,0.32522329688072205,-0.308418869972229,0.996250331401825,0.8387727737426758,0.3168829083442688,-0.29943862557411194,0.9929670691490173,0.8417866826057434,0.3171440660953522,-0.2994866967201233,0.9927214980125427,0.8444629907608032,0.31845182180404663,-0.29958492517471313,0.9929934144020081,0.8316468000411987,0.31760990619659424,-0.2966713607311249,0.991637647151947,0.8298541307449341,0.3181820511817932,-0.2967328131198883,0.9900120496749878,0.8280330896377563,0.31856048107147217,-0.29679346084594727,0.9902245402336121,0.8484722971916199,0.3184265196323395,-0.21987028419971466,0.9906654357910156,0.8259422183036804,0.32428178191185,-0.20680472254753113,0.9861128330230713,0.8419466018676758,0.3341546058654785,-0.27584725618362427,0.9960398077964783,0.8338623046875,0.33660462498664856,-0.2724226713180542,0.9948158860206604,0.8725177049636841,0.3584038317203522,-0.14175722002983093,0.9975537061691284,0.8133255243301392,0.3655274212360382,-0.1181994080543518,0.9980068206787109,0.8925746083259583,0.42098262906074524,-0.12311003357172012,0.9380983114242554,0.8003712892532349,0.4276357889175415,-0.056156326085329056,0.8371694087982178,0.8831909894943237,0.4404319226741791,-0.19143672287464142,0.8273664712905884,0.8076289892196655,0.4391147792339325,-0.07182087004184723,0.7931210398674011,0.8786265254020691,0.4477725923061371,-0.20969454944133759,0.7495973706245422,0.8094267845153809,0.4469119906425476,-0.08324841409921646,0.7324016094207764,0.8755770921707153,0.43858233094215393,-0.2170439511537552,0.746779203414917,0.8131155967712402,0.4389680325984955,-0.11366758495569229,0.7356446385383606,0.8741978406906128,0.43588465452194214,-0.19421756267547607,0.6940767168998718,0.8138019442558289,0.4357805848121643,-0.08598936349153519,0.7044288516044617,0.8645655512809753,0.4780133068561554,-0.014064960181713104,0.9923543930053711,0.8308437466621399,0.4788282811641693,0.014226946048438549,0.991499662399292,0.858116626739502,0.5770251154899597,-0.0785629078745842,0.5468329787254333,0.830306887626648,0.5679294466972351,-0.0046151177957654,0.47452741861343384,0.8486620187759399,0.6647309064865112,0.06328481435775757,0.5161362886428833,0.8327710032463074,0.6504846215248108,0.17675168812274933,0.4702141582965851,0.8460580110549927,0.6754909157752991,0.07185947149991989,0.3587888181209564,0.833642303943634,0.6599422097206116,0.19111528992652893,0.36123189330101013,0.8486227989196777,0.6966925859451294,-0.02520030364394188,0.45706087350845337,0.8326646685600281,0.6843385100364685,0.08981530368328094,0.4864053428173065
208,0.8353864550590515,0.32313817739486694,-0.3486384153366089,0.9965640306472778,0.8388134837150574,0.31671667098999023,-0.33869028091430664,0.9935712218284607,0.8417012095451355,0.3167014420032501,-0.3387529253959656,0.9933627247810364,0.844356894493103,0.3175448477268219,-0.33886176347732544,0.9935815334320068,0.8311609029769897,0.3154701590538025,-0.3324459493160248,0.9923032522201538,0.8289889097213745,0.31620609760284424,-0.3324894607067108,0.9908270835876465,0.8271087408065796,0.31658634543418884,-0.332533061504364,0.9909929633140564,0.8482258915901184,0.3179336488246918,-0.25057920813560486,0.9914794564247131,0.825741171836853,0.3234734535217285,-0.21917299926280975,0.9873265027999878,0.8413117527961731,0.3327339291572571,-0.3139614164829254,0.996414065361023,0.8331741094589233,0.3364541232585907,-0.30549877882003784,0.995284378528595,0.8721605539321899,0.3584333658218384,-0.17835122346878052,0.9977914690971375,0.8133749961853027,0.3657202422618866,-0.12061084806919098,0.9981719851493835,0.8927757143974304,0.42233243584632874,-0.23957780003547668,0.9428229928016663,0.8003749847412109,0.42546167969703674,-0.01811794564127922,0.844514787197113,0.8812009692192078,0.434158593416214,-0.38536155223846436,0.8398225903511047,0.8077815175056458,0.4436572790145874,-0.019225265830755234,0.8038899898529053,0.8753902316093445,0.43919745087623596,-0.42028793692588806,0.7656490206718445,0.8092891573905945,0.4557705819606781,-0.025298286229372025,0.7439694404602051,0.8718039393424988,0.42954856157302856,-0.42256417870521545,0.7628236413002014,0.8112354278564453,0.44773709774017334,-0.045924894511699677,0.7470452189445496,0.8714796900749207,0.4282292425632477,-0.3884894847869873,0.7096293568611145,0.8122203946113586,0.44260159134864807,-0.026127193123102188,0.7159997224807739,0.8645080327987671,0.47869351506233215,-0.01789006218314171,0.9928480982780457,0.8308752179145813,0.4792165756225586,0.018054937943816185,0.9919060468673706,0.8575124740600586,0.5790845155715942,-0.08796212822198868,0.5581340193748474,0.8299288749694824,0.5679555535316467,-0.03889819607138634,0.4887157678604126,0.8497059941291809,0.663931131362915,0.08629363030195236,0.5277707576751709,0.8331762552261353,0.6576319932937622,0.153044655919075,0.4907257854938507,0.8475154042243958,0.6752563714981079,0.0990004613995552,0.3601890206336975,0.834369957447052,0.6674012541770935,0.16984760761260986,0.3665134608745575,0.8497647047042847,0.694949746131897,0.001378409331664443,0.46546298265457153,0.8326670527458191,0.6919540166854858,0.054110389202833176,0.5044516324996948
209,0.8335579037666321,0.3308565318584442,-0.3995966911315918,0.9965772032737732,0.836879551410675,0.3221380412578583,-0.396475225687027,0.9936646819114685,0.8394662737846375,0.32177257537841797,-0.39650458097457886,0.993510901927948,0.8419736623764038,0.32163673639297485,-0.3966330885887146,0.993687629699707,0.8301318883895874,0.3228393793106079,-0.39001742005348206,0.9922454357147217,0.8280733823776245,0.3232584297657013,-0.3900957703590393,0.9908992052078247,0.8261314630508423,0.3236199617385864,-0.39018967747688293,0.9910557270050049,0.8475266695022583,0.3227982223033905,-0.3223033547401428,0.9916814565658569,0.8256633877754211,0.3272038996219635,-0.2920251488685608,0.9879584908485413,0.8397685885429382,0.33870798349380493,-0.3674863874912262,0.9966515302658081,0.831951916217804,0.3409976363182068,-0.35902780294418335,0.9955524206161499,0.8729245066642761,0.36394405364990234,-0.2287072241306305,0.997990071773529,0.8151049613952637,0.3667427599430084,-0.18444164097309113,0.99831622838974,0.8932949304580688,0.4273335039615631,-0.2494846135377884,0.9424511790275574,0.8026493787765503,0.42505067586898804,-0.09464213252067566,0.8480205535888672,0.8756640553474426,0.43501442670822144,-0.3476080596446991,0.8340898752212524,0.816815197467804,0.46050387620925903,-0.09154916554689407,0.7999827861785889,0.8691967129707336,0.44018903374671936,-0.3727527856826782,0.7575370073318481,0.8185210227966309,0.4760129153728485,-0.09600494801998138,0.7370051741600037,0.866899311542511,0.4315408766269684,-0.3758317530155182,0.7530222535133362,0.8199265599250793,0.4723172187805176,-0.11709801107645035,0.7396892309188843,0.8669284582138062,0.4298967123031616,-0.34928518533706665,0.6945630311965942,0.8208597302436829,0.46592193841934204,-0.09760042279958725,0.7067591547966003,0.863793671131134,0.47995027899742126,-0.01674211584031582,0.9931471347808838,0.8298346400260925,0.4782794415950775,0.016909005120396614,0.9919037222862244,0.8528779745101929,0.5809618234634399,-0.0829053521156311,0.5784700512886047,0.8271687626838684,0.568210244178772,-0.046150922775268555,0.5160334706306458,0.8434718251228333,0.6679322719573975,0.08486530184745789,0.5560001134872437,0.8305158615112305,0.6558568477630615,0.12614360451698303,0.5170718431472778,0.8409408330917358,0.6787079572677612,0.09570758789777756,0.37584978342056274,0.8320260047912598,0.6643735766410828,0.13928364217281342,0.3773529529571533,0.8444294929504395,0.7015340328216553,-0.004445045255124569,0.4870058298110962,0.8306602239608765,0.6917795538902283,0.02815014123916626,0.5275610089302063
210,0.8325235247612,0.33725598454475403,-0.3829117715358734,0.9968098998069763,0.8358125686645508,0.3275560438632965,-0.37301722168922424,0.9940909743309021,0.8366815447807312,0.3238232731819153,-0.37314707040786743,0.9939593076705933,0.8394530415534973,0.323488712310791,-0.373276948928833,0.9941428899765015,0.8293204307556152,0.32919561862945557,-0.382612019777298,0.992713451385498,0.8272672891616821,0.329618364572525,-0.38257479667663574,0.9914113879203796,0.8252478837966919,0.3300527036190033,-0.382693886756897,0.9915758371353149,0.8448907136917114,0.3263855576515198,-0.2861695885658264,0.9922636151313782,0.8254534006118774,0.3325459361076355,-0.2815861999988556,0.9887179136276245,0.8390120267868042,0.34403562545776367,-0.35297107696533203,0.9969090819358826,0.8311854600906372,0.34626907110214233,-0.33511823415756226,0.9958531260490417,0.8707122802734375,0.36359596252441406,-0.21289288997650146,0.9981768131256104,0.8153657913208008,0.3716648519039154,-0.1535693109035492,0.9984561800956726,0.8946396112442017,0.4272814691066742,-0.27879756689071655,0.9470256567001343,0.8025966882705688,0.42708441615104675,-0.09426634758710861,0.8532819151878357,0.8665858507156372,0.41115236282348633,-0.40222328901290894,0.846137285232544,0.8154768943786621,0.467295378446579,-0.09276151657104492,0.802047610282898,0.8568446040153503,0.40802642703056335,-0.43236416578292847,0.77208411693573,0.8176826238632202,0.48284995555877686,-0.09660108387470245,0.7343281507492065,0.8557822108268738,0.4003930389881134,-0.42514508962631226,0.7671549320220947,0.8197343945503235,0.47943395376205444,-0.11830248683691025,0.7367107272148132,0.8572925329208374,0.40248045325279236,-0.40053004026412964,0.7082741260528564,0.820701003074646,0.47350841760635376,-0.09872317314147949,0.7030988335609436,0.8635708689689636,0.48447075486183167,-0.021364714950323105,0.9934806823730469,0.831100583076477,0.48266059160232544,0.021397393196821213,0.9922304153442383,0.8511571884155273,0.5851418375968933,-0.07274629175662994,0.5737584233283997,0.8270564079284668,0.5769068598747253,-0.038589879870414734,0.5128195881843567,0.8452194333076477,0.6717212796211243,0.05787904933094978,0.5660586953163147,0.8308941125869751,0.6681182980537415,0.1128864511847496,0.521359920501709,0.8434938192367554,0.6818734407424927,0.0652003362774849,0.3732464909553528,0.8325254321098328,0.678036093711853,0.12243356555700302,0.37246963381767273,0.8457120060920715,0.702475368976593,-0.031117763370275497,0.49691611528396606,0.8296595811843872,0.7031162977218628,0.02357560768723488,0.5346623659133911
211,0.8326019048690796,0.337203711271286,-0.3766154944896698,0.9966742992401123,0.8356460332870483,0.3271968960762024,-0.37481823563575745,0.9940516948699951,0.837208092212677,0.325386643409729,-0.374860942363739,0.9939385056495667,0.8398306965827942,0.32483017444610596,-0.3749867081642151,0.9940974712371826,0.8293234705924988,0.3288349211215973,-0.37095528841018677,0.9926388263702393,0.827288806438446,0.3292815089225769,-0.3710179030895233,0.991409957408905,0.8252758979797363,0.3297472298145294,-0.37112879753112793,0.9915633201599121,0.8453145027160645,0.3272016644477844,-0.30915457010269165,0.9923028349876404,0.8254141807556152,0.33281463384628296,-0.28593674302101135,0.9893625378608704,0.8389765620231628,0.3445720374584198,-0.34781399369239807,0.9970265626907349,0.8312233686447144,0.3467511236667633,-0.33977481722831726,0.9960063695907593,0.8732790946960449,0.36724916100502014,-0.2249501496553421,0.9982703924179077,0.8167134523391724,0.37275633215904236,-0.18558679521083832,0.9985431432723999,0.8959797024726868,0.42844387888908386,-0.28103548288345337,0.9467476010322571,0.8086182475090027,0.4278174042701721,-0.1081242561340332,0.8554083108901978,0.8686363101005554,0.4200191795825958,-0.39993518590927124,0.8410863280296326,0.8217536211013794,0.4677032232284546,-0.09938438981771469,0.7948340177536011,0.8608545064926147,0.42221954464912415,-0.42787107825279236,0.7651616930961609,0.8241074681282043,0.4832199513912201,-0.10029087215662003,0.7226281762123108,0.8587551116943359,0.41400447487831116,-0.42522183060646057,0.7589079737663269,0.826021671295166,0.47954562306404114,-0.1185036301612854,0.7244900465011597,0.859652042388916,0.41360828280448914,-0.4001913070678711,0.6934378743171692,0.8266319036483765,0.4734949767589569,-0.10370848327875137,0.6896475553512573,0.8648234605789185,0.48689836263656616,-0.017255131155252457,0.9918491244316101,0.83160799741745,0.48238810896873474,0.017378203570842743,0.9911785125732422,0.8513504266738892,0.5848513245582581,-0.04908670485019684,0.5873268246650696,0.8276792764663696,0.5765966176986694,-0.02687361277639866,0.5361157059669495,0.8407121896743774,0.6698841452598572,0.10617667436599731,0.5587610602378845,0.8289653062820435,0.6648239493370056,0.13169074058532715,0.5308603644371033,0.8365146517753601,0.6800801753997803,0.11619852483272552,0.36370959877967834,0.830182671546936,0.6767352223396301,0.14239975810050964,0.36878207325935364,0.8426486253738403,0.7004109621047974,0.01901804655790329,0.47975465655326843,0.8246259689331055,0.6967799663543701,0.02542300894856453,0.5334973335266113
212,0.8324322700500488,0.3374830484390259,-0.39168068766593933,0.996576726436615,0.8351262807846069,0.32749614119529724,-0.3912253975868225,0.9940801858901978,0.8370529413223267,0.32627567648887634,-0.3912546932697296,0.993987500667572,0.839514434337616,0.325553297996521,-0.3913872539997101,0.9941798448562622,0.8290804028511047,0.3293783366680145,-0.3847254812717438,0.9925392270088196,0.8271034955978394,0.3299121558666229,-0.38479334115982056,0.9912890791893005,0.8251293301582336,0.3304615318775177,-0.3848804235458374,0.9914530515670776,0.845219612121582,0.32733866572380066,-0.3272877633571625,0.9925157427787781,0.8253617286682129,0.33348241448402405,-0.29609981179237366,0.989575982093811,0.8387816548347473,0.34460267424583435,-0.36303046345710754,0.9971533417701721,0.8312052488327026,0.34706926345825195,-0.3540801405906677,0.9960508346557617,0.8737858533859253,0.36762288212776184,-0.24306288361549377,0.9984062314033508,0.8175736665725708,0.37276360392570496,-0.1892692744731903,0.9986039400100708,0.8929928541183472,0.4258546829223633,-0.2666682004928589,0.9454053640365601,0.8080903887748718,0.42768675088882446,-0.10815276950597763,0.8571509718894958,0.8746098279953003,0.4202757179737091,-0.357726514339447,0.8350557684898376,0.8177241086959839,0.46725255250930786,-0.11068912595510483,0.7959305047988892,0.8707850575447083,0.4227350950241089,-0.384126216173172,0.7580140233039856,0.8163466453552246,0.48313623666763306,-0.11436295509338379,0.7225415706634521,0.8674588203430176,0.41905632615089417,-0.3859139084815979,0.7508798241615295,0.8175867199897766,0.47836095094680786,-0.13653428852558136,0.7244208455085754,0.8670116662979126,0.4185830354690552,-0.3593505918979645,0.6836672425270081,0.8195213079452515,0.4723811447620392,-0.11790130287408829,0.6904316544532776,0.865054726600647,0.4865509569644928,-0.02015886828303337,0.991847813129425,0.831871509552002,0.4830896258354187,0.02034829370677471,0.9905998110771179,0.8518084287643433,0.5841944813728333,-0.06120948866009712,0.6084348559379578,0.8270974159240723,0.5765234231948853,0.0031124758534133434,0.5491943359375,0.8427130579948425,0.6709804534912109,0.06742957979440689,0.5796535611152649,0.8295373916625977,0.6639427542686462,0.16016080975532532,0.5373795628547668,0.8396586179733276,0.6822426319122314,0.07425718009471893,0.3716408312320709,0.8310303688049316,0.676479160785675,0.17155878245830536,0.3752630949020386,0.8434181213378906,0.7016695737838745,-0.02816883847117424,0.4900096356868744,0.824304461479187,0.694757342338562,0.0706169456243515,0.5363684296607971
213
214
215
216
217
