frame,NOSE.x,NOSE.y,NOSE.z,NOSE.v,LEFT_EYE_INNER.x,LEFT_EYE_INNER.y,LEFT_EYE_INNER.z,LEFT_EYE_INNER.v,LEFT_EYE.x,LEFT_EYE.y,LEFT_EYE.z,LEFT_EYE.v,LEFT_EYE_OUTER.x,LEFT_EYE_OUTER.y,LEFT_EYE_OUTER.z,LEFT_EYE_OUTER.v,RIGHT_EYE_INNER.x,RIGHT_EYE_INNER.y,RIGHT_EYE_INNER.z,RIGHT_EYE_INNER.v,RIGHT_EYE.x,RIGHT_EYE.y,RIGHT_EYE.z,RIGHT_EYE.v,RIGHT_EYE_OUTER.x,RIGHT_EYE_OUTER.y,RIGHT_EYE_OUTER.z,RIGHT_EYE_OUTER.v,LEFT_EAR.x,LEFT_EAR.y,LEFT_EAR.z,LEFT_EAR.v,RIGHT_EAR.x,RIGHT_EAR.y,RIGHT_EAR.z,RIGHT_EAR.v,MOUTH_LEFT.x,MOUTH_LEFT.y,MOUTH_LEFT.z,MOUTH_LEFT.v,MOUTH_RIGHT.x,MOUTH_RIGHT.y,MOUTH_RIGHT.z,MOUTH_RIGHT.v,LEFT_SHOULDER.x,LEFT_SHOULDER.y,LEFT_SHOULDER.z,LEFT_SHOULDER.v,RIGHT_SHOULDER.x,RIGHT_SHOULDER.y,RIGHT_SHOULDER.z,RIGHT_SHOULDER.v,LEFT_ELBOW.x,LEFT_ELBOW.y,LEFT_ELBOW.z,LEFT_ELBOW.v,RIGHT_ELBOW.x,RIGHT_ELBOW.y,RIGHT_ELBOW.z,RIGHT_ELBOW.v,LEFT_WRIST.x,LEFT_WRIST.y,LEFT_WRIST.z,LEFT_WRIST.v,RIGHT_WRIST.x,RIGHT_WRIST.y,RIGHT_WRIST.z,RIGHT_WRIST.v,LEFT_PINKY.x,LEFT_PINKY.y,LEFT_PINKY.z,LEFT_PINKY.v,RIGHT_PINKY.x,RIGHT_PINKY.y,RIGHT_PINKY.z,RIGHT_PINKY.v,LEFT_INDEX.x,LEFT_INDEX.y,LEFT_INDEX.z,LEFT_INDEX.v,RIGHT_INDEX.x,RIGHT_INDEX.y,RIGHT_INDEX.z,RIGHT_INDEX.v,LEFT_THUMB.x,LEFT_THUMB.y,LEFT_THUMB.z,LEFT_THUMB.v,RIGHT_THUMB.x,RIGHT_THUMB.y,RIGHT_THUMB.z,RIGHT_THUMB.v,LEFT_HIP.x,LEFT_HIP.y,LEFT_HIP.z,LEFT_HIP.v,RIGHT_HIP.x,RIGHT_HIP.y,RIGHT_HIP.z,RIGHT_HIP.v,LEFT_KNEE.x,LEFT_KNEE.y,LEFT_KNEE.z,LEFT_KNEE.v,RIGHT_KNEE.x,RIGHT_KNEE.y,RIGHT_KNEE.z,RIGHT_KNEE.v,LEFT_ANKLE.x,LEFT_ANKLE.y,LEFT_ANKLE.z,LEFT_ANKLE.v,RIGHT_ANKLE.x,RIGHT_ANKLE.y,RIGHT_ANKLE.z,RIGHT_ANKLE.v,LEFT_HEEL.x,LEFT_HEEL.y,LEFT_HEEL.z,LEFT_HEEL.v,RIGHT_HEEL.x,RIGHT_HEEL.y,RIGHT_HEEL.z,RIGHT_HEEL.v,LEFT_FOOT_INDEX.x,LEFT_FOOT_INDEX.y,LEFT_FOOT_INDEX.z,LEFT_FOOT_INDEX.v,RIGHT_FOOT_INDEX.x,RIGHT_FOOT_INDEX.y,RIGHT_FOOT_INDEX.z,RIGHT_FOOT_INDEX.v
0
1
2
3
4
5
6
7
8,0.5587536692619324,0.48535892367362976,0.1582692414522171,0.9999058246612549,0.5724145174026489,0.4928267300128937,0.14738233387470245,0.9998136162757874,0.5827323198318481,0.5096139311790466,0.147178053855896,0.9998065829277039,0.5845465660095215,0.5147057771682739,0.14698997139930725,0.9998372793197632,0.5648991465568542,0.4790142774581909,0.1870250105857849,0.9998493194580078,0.5642513036727905,0.47836410999298096,0.18699948489665985,0.9998308420181274,0.563916802406311,0.4772912263870239,0.18680202960968018,0.9998798370361328,0.5812399983406067,0.5466668009757996,0.12438897788524628,0.9997603297233582,0.5699683427810669,0.5279914140701294,0.2986811697483063,0.9999145269393921,0.5515259504318237,0.5054412484169006,0.1506718546152115,0.9995296001434326,0.5474826693534851,0.4983232915401459,0.2012604922056198,0.9995423555374146,0.5472058653831482,0.6162729859352112,0.014050031080842018,0.9998750686645508,0.4676678776741028,0.5450058579444885,0.3604840040206909,0.9996693134307861,0.5725512504577637,0.614641010761261,-0.19228360056877136,0.9940195083618164,0.375599205493927,0.5663629174232483,0.40529665350914,0.14824602007865906,0.5823265910148621,0.5354176759719849,-0.2626004219055176,0.9550753235816956,0.3317612111568451,0.5719544887542725,0.28200581669807434,0.18833577632904053,0.5860610008239746,0.519993782043457,-0.3044576942920685,0.9098038673400879,0.31135788559913635,0.5803170800209045,0.26739534735679626,0.20833289623260498,0.5833486318588257,0.5028142333030701,-0.2900707423686981,0.8925493359565735,0.32383450865745544,0.5784018635749817,0.23562809824943542,0.2185525745153427,0.578291654586792,0.5298886895179749,-0.25946128368377686,0.8791643977165222,0.332179456949234,0.5771340727806091,0.26341310143470764,0.20710593461990356,0.3120259642601013,0.7045192122459412,-0.08387763053178787,0.9999125003814697,0.2774994373321533,0.6255853772163391,0.08385629206895828,0.9998902082443237,0.10061874240636826,0.7297133803367615,-0.21965423226356506,0.596693217754364,0.10287360846996307,0.6642540693283081,-0.010959356091916561,0.48609063029289246,-0.013887882232666016,0.8037508726119995,-0.010652711614966393,0.12441352754831314,-0.03384891152381897,0.7764179706573486,0.11195583641529083,0.16125506162643433,-0.02372226119041443,0.8149873614311218,0.011293553747236729,0.3037208914756775,-0.04439082741737366,0.8052052855491638,0.1202971339225769,0.17892856895923615,-0.06641095876693726,0.8310982584953308,-0.04799216240644455,0.23179884254932404,-0.10193166881799698,0.7791863083839417,0.02363608591258526,0.2339099794626236
9,0.5544019937515259,0.49435749650001526,0.13121962547302246,0.9998751282691956,0.5692185163497925,0.5044238567352295,0.1325918287038803,0.999756395816803,0.5734096169471741,0.5130234360694885,0.132447749376297,0.9997526407241821,0.5756763219833374,0.5187492966651917,0.13221997022628784,0.9997852444648743,0.5627965927124023,0.4937731623649597,0.15870869159698486,0.9997956156730652,0.561467170715332,0.4917837381362915,0.15870021283626556,0.9997711777687073,0.5601876974105835,0.48975446820259094,0.15843451023101807,0.9998350739479065,0.5726322531700134,0.5481334328651428,0.1487765908241272,0.9997266530990601,0.5561195611953735,0.521664023399353,0.2755492031574249,0.9998781681060791,0.548133134841919,0.5173131227493286,0.14113658666610718,0.9993870854377747,0.5439607501029968,0.5054153800010681,0.17538726329803467,0.9992978572845459,0.5412939786911011,0.6293089389801025,0.0879884734749794,0.9998363852500916,0.4648844599723816,0.530973494052887,0.3102993369102478,0.999554455280304,0.5661200284957886,0.6150680184364319,-0.04031188040971756,0.9925660490989685,0.3759884238243103,0.5226621031761169,0.1943928599357605,0.1877077966928482,0.5747735500335693,0.5172913074493408,0.016984449699521065,0.9383913278579712,0.4082760214805603,0.5299935936927795,-0.025972992181777954,0.2293575555086136,0.5778863430023193,0.4936915338039398,0.004637317266315222,0.8795642852783203,0.4133124351501465,0.5351456999778748,-0.06449541449546814,0.24155309796333313,0.5739997029304504,0.4991268217563629,0.022911312058568,0.8604856133460999,0.4248903691768646,0.5359982252120972,-0.04838923364877701,0.24963124096393585,0.567560076713562,0.5121983885765076,0.02492924965918064,0.8511035442352295,0.42390745878219604,0.5410444140434265,-0.02931475266814232,0.2367781102657318,0.30588242411613464,0.7044211030006409,-0.06154093146324158,0.9998310208320618,0.2706683278083801,0.6172815561294556,0.061525821685791016,0.9998009204864502,0.1019081324338913,0.7311657667160034,-0.12265074253082275,0.5944976210594177,0.10056687891483307,0.6464765667915344,0.005389445926994085,0.46531403064727783,-0.031977467238903046,0.770584762096405,-0.01029239408671856,0.13550202548503876,-0.04390756040811539,0.7402294278144836,0.1085783839225769,0.1632014662027359,-0.052808307111263275,0.7770289182662964,0.0031772940419614315,0.3136362135410309,-0.06238652020692825,0.7736891508102417,0.11379249393939972,0.18871286511421204,-0.08180500566959381,0.7859839797019958,-0.08730269968509674,0.236591637134552,-0.1092505231499672,0.7043390274047852,0.013543514534831047,0.23550906777381897
10,0.5598348379135132,0.5071247220039368,0.09473095089197159,0.9998366236686707,0.5759636759757996,0.5176849961280823,0.0969947949051857,0.9996771812438965,0.576675534248352,0.5231497883796692,0.09680981189012527,0.9996809363365173,0.5791186690330505,0.5294296741485596,0.09658851474523544,0.9996992349624634,0.5705730319023132,0.5067917704582214,0.11603714525699615,0.9997252225875854,0.568766713142395,0.5036531090736389,0.11601962149143219,0.9997050166130066,0.5669178366661072,0.5006020665168762,0.11571265757083893,0.9997749328613281,0.5762159824371338,0.552832305431366,0.14672306180000305,0.9996674656867981,0.5563670992851257,0.5200241804122925,0.22351649403572083,0.999846339225769,0.5511132478713989,0.5275224447250366,0.11431746184825897,0.9992162585258484,0.5457530617713928,0.505109429359436,0.13872209191322327,0.9990308880805969,0.5458229184150696,0.6290969848632812,0.07759366184473038,0.999813437461853,0.47304025292396545,0.5246930718421936,0.2676529288291931,0.9994928240776062,0.5604900121688843,0.6338481903076172,-0.09508737921714783,0.9912071824073792,0.3769446015357971,0.5291669964790344,0.16331243515014648,0.2088436335325241,0.575594425201416,0.517310380935669,-0.13044415414333344,0.9339752793312073,0.3862789571285248,0.5142269730567932,-0.04171447455883026,0.2689705193042755,0.5807899236679077,0.4903452694416046,-0.15736915171146393,0.8708045482635498,0.3796142339706421,0.5135648250579834,-0.06948991119861603,0.2776898741722107,0.5813971757888794,0.4969630539417267,-0.13636229932308197,0.8509049415588379,0.39186838269233704,0.5089647769927979,-0.07621444761753082,0.2844701409339905,0.5732698440551758,0.5076357126235962,-0.12375311553478241,0.8432960510253906,0.3949378430843353,0.5155508518218994,-0.051172446459531784,0.27079421281814575,0.30493083596229553,0.7035980820655823,-0.059006500989198685,0.9997771978378296,0.27095723152160645,0.6178346276283264,0.05905113369226456,0.9997351169586182,0.10279400646686554,0.7305924892425537,-0.11262284219264984,0.6037173867225647,0.10037155449390411,0.6480080485343933,0.027986451983451843,0.44591715931892395,-0.031756676733493805,0.764129102230072,-0.007119921501725912,0.15123389661312103,-0.044494401663541794,0.7358466386795044,0.1128133162856102,0.16509366035461426,-0.053460754454135895,0.7729488015174866,0.0033837121445685625,0.3344574570655823,-0.06527508795261383,0.7698083519935608,0.11582167446613312,0.20147345960140228,-0.07953105866909027,0.7736484408378601,-0.08535853028297424,0.2481079250574112,-0.10869257152080536,0.6889408826828003,0.01583152636885643,0.23665381968021393
11,0.5580456852912903,0.5103935599327087,0.1123797744512558,0.9997736215591431,0.5743980407714844,0.5179353356361389,0.10910366475582123,0.9995622038841248,0.5740537643432617,0.5231622457504272,0.10892653465270996,0.9995607733726501,0.5759372711181641,0.5289780497550964,0.10870245844125748,0.9995895028114319,0.5703025460243225,0.5083968639373779,0.13084125518798828,0.9996063113212585,0.5685290098190308,0.5056408047676086,0.13081461191177368,0.999565064907074,0.5667790174484253,0.5029316544532776,0.13054966926574707,0.9996501803398132,0.572510302066803,0.5524660348892212,0.14347071945667267,0.9996098279953003,0.5578669309616089,0.5185606479644775,0.2169492542743683,0.9997580051422119,0.5472804307937622,0.5295830965042114,0.12287138402462006,0.9990829229354858,0.5458143353462219,0.5103247761726379,0.15167295932769775,0.9988068342208862,0.53117835521698,0.625582754611969,0.07257618755102158,0.9997977018356323,0.4811862111091614,0.525378942489624,0.2727777063846588,0.9993899464607239,0.5014146566390991,0.646598756313324,-0.03081822767853737,0.9869847297668457,0.3894583582878113,0.5335614085197449,0.18731829524040222,0.21157129108905792,0.5190016031265259,0.540395975112915,0.01944596692919731,0.9217727184295654,0.3897424340248108,0.5274935960769653,0.012912414968013763,0.26893818378448486,0.5197542905807495,0.5143868923187256,0.006801786366850138,0.8513028025627136,0.3800598382949829,0.5287424921989441,-0.008460200391709805,0.2794623374938965,0.526321530342102,0.5234405398368835,0.026447733864188194,0.8309857845306396,0.3908870816230774,0.5252471566200256,-0.019104477018117905,0.28560277819633484,0.5211129784584045,0.5308294296264648,0.03004230000078678,0.825470507144928,0.3943372368812561,0.5294572114944458,0.001761801540851593,0.2737865149974823,0.28667357563972473,0.701677143573761,-0.05465679243206978,0.9996165633201599,0.26626822352409363,0.6264190673828125,0.054597269743680954,0.9995036125183105,0.09165854752063751,0.7447236180305481,-0.10981880128383636,0.5976842045783997,0.08604152500629425,0.673241913318634,0.01879376359283924,0.42899829149246216,-0.06345480680465698,0.7701137065887451,0.03020744025707245,0.1518755555152893,-0.07087233662605286,0.7414505481719971,0.11451069265604019,0.1657908707857132,-0.09091667830944061,0.7783528566360474,0.040061675012111664,0.33423805236816406,-0.09485527127981186,0.7749164700508118,0.11898474395275116,0.2058393955230713,-0.10436709225177765,0.7749837040901184,-0.05072202533483505,0.23944152891635895,-0.12943263351917267,0.7091295123100281,0.018068067729473114,0.2299080640077591
12,0.542393684387207,0.4946017265319824,0.10015398263931274,0.9997209906578064,0.5611488223075867,0.4966046214103699,0.10113300383090973,0.9994257092475891,0.5625519156455994,0.4999375343322754,0.10094349086284637,0.9994392395019531,0.5656353235244751,0.5060557126998901,0.10066311061382294,0.9994513392448425,0.5542179346084595,0.4862922430038452,0.12158075720071793,0.9994638562202454,0.5517388582229614,0.48211395740509033,0.12157917022705078,0.9994166493415833,0.5492594838142395,0.47809696197509766,0.12133357673883438,0.9995214939117432,0.5664022564888,0.5256712436676025,0.1461491882801056,0.9995609521865845,0.542844295501709,0.48312845826148987,0.23466262221336365,0.9997019171714783,0.5348641276359558,0.5171557664871216,0.12094423919916153,0.9990173578262329,0.5263416767120361,0.4974825978279114,0.14809080958366394,0.9986271858215332,0.5328040719032288,0.625169575214386,0.11416983604431152,0.9998061656951904,0.4638354182243347,0.4901132583618164,0.28003838658332825,0.9993650913238525,0.5229002237319946,0.6812364459037781,-0.03453900292515755,0.9859170317649841,0.35929471254348755,0.51877361536026,0.21568958461284637,0.24060861766338348,0.5383557081222534,0.5718157291412354,-0.056263528764247894,0.9169842600822449,0.3513546586036682,0.522754967212677,0.025763582438230515,0.30457186698913574,0.5418118238449097,0.5445740818977356,-0.08203104883432388,0.8394072651863098,0.338832288980484,0.52614825963974,-0.005212627816945314,0.3121945559978485,0.5409416556358337,0.5484666228294373,-0.060027800500392914,0.8182168006896973,0.353851854801178,0.5220921635627747,-0.0178583562374115,0.31888383626937866,0.5351799726486206,0.5565924048423767,-0.04892582446336746,0.8144410252571106,0.35886910557746887,0.5255826115608215,0.01310815941542387,0.30648818612098694,0.2778412699699402,0.7017076015472412,-0.050433166325092316,0.9995965957641602,0.24909403920173645,0.608829915523529,0.050446122884750366,0.9994798302650452,0.07747397571802139,0.7581070065498352,-0.12678149342536926,0.6005227565765381,0.06403953582048416,0.6724514365196228,0.013667808845639229,0.42956018447875977,-0.06667576730251312,0.7736717462539673,0.11483248323202133,0.1490190327167511,-0.07863641530275345,0.746015191078186,0.1926075965166092,0.16717152297496796,-0.08765316754579544,0.7818059921264648,0.13698944449424744,0.3262439966201782,-0.09754276275634766,0.7781381607055664,0.2101833075284958,0.20978116989135742,-0.11883628368377686,0.7813994288444519,0.043217599391937256,0.22878648340702057,-0.14558881521224976,0.7184286117553711,0.10594761371612549,0.22490310668945312
13,0.541832685470581,0.4713410437107086,0.061360396444797516,0.9997165203094482,0.5617660284042358,0.46677902340888977,0.0707855075597763,0.9994091391563416,0.5629112124443054,0.46734338998794556,0.07056276500225067,0.99943608045578,0.5644913911819458,0.4690493941307068,0.07025238871574402,0.9994432926177979,0.5509517788887024,0.4590652287006378,0.09106896072626114,0.9994452595710754,0.5472238659858704,0.45500361919403076,0.09104567021131516,0.9994054436683655,0.5434684157371521,0.45105379819869995,0.09080895781517029,0.9995025992393494,0.5679341554641724,0.501731276512146,0.13883830606937408,0.9995690584182739,0.5347502827644348,0.45908117294311523,0.22489313781261444,0.9996991157531738,0.5354663133621216,0.49845075607299805,0.0868668481707573,0.9990490078926086,0.5226278305053711,0.4794284403324127,0.11391393840312958,0.9985973238945007,0.5369089841842651,0.6251035928726196,0.09290973097085953,0.9998166561126709,0.4486056864261627,0.48124226927757263,0.2722948491573334,0.9992772340774536,0.5729883909225464,0.7006720900535583,-0.11006494611501694,0.9866859316825867,0.32265806198120117,0.5171626210212708,0.22340962290763855,0.24281281232833862,0.5645045638084412,0.5661143064498901,-0.21227271854877472,0.9193171262741089,0.2948264479637146,0.5139669179916382,0.0008724129875190556,0.31619417667388916,0.5656629204750061,0.5103181004524231,-0.247444748878479,0.8392214775085449,0.2761704623699188,0.5172256231307983,-0.03336266428232193,0.3247351050376892,0.5632479786872864,0.5100904107093811,-0.20314542949199677,0.8171120285987854,0.2925540506839752,0.5105627179145813,-0.052225857973098755,0.3322261571884155,0.5584001541137695,0.524383008480072,-0.19860488176345825,0.8137686252593994,0.301307737827301,0.5139836668968201,-0.015181141905486584,0.3185186982154846,0.27167561650276184,0.705544114112854,-0.05283971503376961,0.9995877742767334,0.23576708137989044,0.6096310019493103,0.0528484508395195,0.9994459748268127,0.06839783489704132,0.7628697752952576,-0.1335407942533493,0.6060729026794434,0.04939373582601547,0.6711718440055847,0.011035135015845299,0.43289458751678467,-0.07232353091239929,0.7657894492149353,0.1408918797969818,0.14763174951076508,-0.08770433813333511,0.7408602833747864,0.21955320239067078,0.1671590656042099,-0.09076487272977829,0.7680175304412842,0.16652318835258484,0.3197391629219055,-0.10379588603973389,0.7704540491104126,0.23889970779418945,0.20926417410373688,-0.1265999674797058,0.7745301127433777,0.07602126896381378,0.22218166291713715,-0.15740296244621277,0.7166399359703064,0.13583393394947052,0.2226940542459488
14
15
16
17
18
19
20
21
22
23
24
25
26
27
28
29
30
31
32
33
34
35
36
37
38
39
40
41
42
43
44
45
46
47
48
49
50
51
52
53
54
55
56
57
58
59
60
61
62
63
64
65
66
67
68
69
70
71
72
73
74
75
76
77
78
79
80
81
82
83
84
85
86
