frame,NOSE.x,NOSE.y,NOSE.z,NOSE.v,LEFT_EYE_INNER.x,LEFT_EYE_INNER.y,LEFT_EYE_INNER.z,LEFT_EYE_INNER.v,LEFT_EYE.x,LEFT_EYE.y,LEFT_EYE.z,LEFT_EYE.v,LEFT_EYE_OUTER.x,LEFT_EYE_OUTER.y,LEFT_EYE_OUTER.z,LEFT_EYE_OUTER.v,RIGHT_EYE_INNER.x,RIGHT_EYE_INNER.y,RIGHT_EYE_INNER.z,RIGHT_EYE_INNER.v,RIGHT_EYE.x,RIGHT_EYE.y,RIGHT_EYE.z,RIGHT_EYE.v,RIGHT_EYE_OUTER.x,RIGHT_EYE_OUTER.y,RIGHT_EYE_OUTER.z,RIGHT_EYE_OUTER.v,LEFT_EAR.x,LEFT_EAR.y,LEFT_EAR.z,LEFT_EAR.v,RIGHT_EAR.x,RIGHT_EAR.y,RIGHT_EAR.z,RIGHT_EAR.v,MOUTH_LEFT.x,MOUTH_LEFT.y,MOUTH_LEFT.z,MOUTH_LEFT.v,MOUTH_RIGHT.x,MOUTH_RIGHT.y,MOUTH_RIGHT.z,MOUTH_RIGHT.v,LEFT_SHOULDER.x,LEFT_SHOULDER.y,LEFT_SHOULDER.z,LEFT_SHOULDER.v,RIGHT_SHOULDER.x,RIGHT_SHOULDER.y,RIGHT_SHOULDER.z,RIGHT_SHOULDER.v,LEFT_ELBOW.x,LEFT_ELBOW.y,LEFT_ELBOW.z,LEFT_ELBOW.v,RIGHT_ELBOW.x,RIGHT_ELBOW.y,RIGHT_ELBOW.z,RIGHT_ELBOW.v,LEFT_WRIST.x,LEFT_WRIST.y,LEFT_WRIST.z,LEFT_WRIST.v,RIGHT_WRIST.x,RIGHT_WRIST.y,RIGHT_WRIST.z,RIGHT_WRIST.v,LEFT_PINKY.x,LEFT_PINKY.y,LEFT_PINKY.z,LEFT_PINKY.v,RIGHT_PINKY.x,RIGHT_PINKY.y,RIGHT_PINKY.z,RIGHT_PINKY.v,LEFT_INDEX.x,LEFT_INDEX.y,LEFT_INDEX.z,LEFT_INDEX.v,RIGHT_INDEX.x,RIGHT_INDEX.y,RIGHT_INDEX.z,RIGHT_INDEX.v,LEFT_THUMB.x,LEFT_THUMB.y,LEFT_THUMB.z,LEFT_THUMB.v,RIGHT_THUMB.x,RIGHT_THUMB.y,RIGHT_THUMB.z,RIGHT_THUMB.v,LEFT_HIP.x,LEFT_HIP.y,LEFT_HIP.z,LEFT_HIP.v,RIGHT_HIP.x,RIGHT_HIP.y,RIGHT_HIP.z,RIGHT_HIP.v,LEFT_KNEE.x,LEFT_KNEE.y,LEFT_KNEE.z,LEFT_KNEE.v,RIGHT_KNEE.x,RIGHT_KNEE.y,RIGHT_KNEE.z,RIGHT_KNEE.v,LEFT_ANKLE.x,LEFT_ANKLE.y,LEFT_ANKLE.z,LEFT_ANKLE.v,RIGHT_ANKLE.x,RIGHT_ANKLE.y,RIGHT_ANKLE.z,RIGHT_ANKLE.v,LEFT_HEEL.x,LEFT_HEEL.y,LEFT_HEEL.z,LEFT_HEEL.v,RIGHT_HEEL.x,RIGHT_HEEL.y,RIGHT_HEEL.z,RIGHT_HEEL.v,LEFT_FOOT_INDEX.x,LEFT_FOOT_INDEX.y,LEFT_FOOT_INDEX.z,LEFT_FOOT_INDEX.v,RIGHT_FOOT_INDEX.x,RIGHT_FOOT_INDEX.y,RIGHT_FOOT_INDEX.z,RIGHT_FOOT_INDEX.v
0
1
2
3
4
5
6
7
8
9
10
11
12
13
14,0.5347789525985718,0.24027642607688904,-0.2579956352710724,0.9830790758132935,0.5412637591362,0.2226584553718567,-0.25589409470558167,0.9787513017654419,0.5452221035957336,0.2210330069065094,-0.2559186816215515,0.9765675663948059,0.5492023825645447,0.2194949984550476,-0.2561183571815491,0.9756056666374207,0.5298986434936523,0.2257651388645172,-0.25488001108169556,0.97958904504776,0.5258824229240417,0.22643059492111206,-0.255022257566452,0.9797376990318298,0.5218384265899658,0.22707237303256989,-0.2552379071712494,0.9833444952964783,0.5554158687591553,0.1845768541097641,-0.17221099138259888,0.974389374256134,0.5138505697250366,0.22901834547519684,-0.16923271119594574,0.982808530330658,0.5403627157211304,0.25245147943496704,-0.2176482230424881,0.9900047183036804,0.5266905426979065,0.2556069493293762,-0.21781405806541443,0.9906438589096069,0.6025539040565491,0.2851168215274811,-0.09855368733406067,0.9965503215789795,0.45170679688453674,0.31481215357780457,-0.07279688119888306,0.9979442954063416,0.6229938268661499,0.4541085660457611,-0.10584704577922821,0.05454978719353676,0.4442184567451477,0.4825061559677124,-0.09003938734531403,0.12148343771696091,0.597378671169281,0.4506143033504486,-0.23038141429424286,0.02225605957210064,0.45314639806747437,0.5298519134521484,-0.2513859272003174,0.04970961809158325,0.592620849609375,0.4536302983760834,-0.2650447189807892,0.029157551005482674,0.45040005445480347,0.5488251447677612,-0.27811601758003235,0.07446102797985077,0.5927950739860535,0.43486279249191284,-0.26464173197746277,0.026973973959684372,0.4516013264656067,0.5365099310874939,-0.2993675470352173,0.06886246800422668,0.5898520350456238,0.4318171441555023,-0.23154333233833313,0.022595813497900963,0.4574111998081207,0.5254358053207397,-0.26189202070236206,0.05663587898015976,0.6001883149147034,0.5119292140007019,-0.000689020031131804,0.9997230172157288,0.4869745373725891,0.5161444544792175,0.000660423596855253,0.9998608827590942,0.6857369542121887,0.5799915790557861,-0.5161619186401367,0.9763046503067017,0.39031749963760376,0.5888864398002625,-0.5072474479675293,0.9804850220680237,0.6728142499923706,0.7951499819755554,-0.07737186551094055,0.9638243913650513,0.41879338026046753,0.7855920791625977,-0.13157230615615845,0.9910990595817566,0.6540418863296509,0.8148337006568909,-0.03811559081077576,0.8770053386688232,0.44212883710861206,0.810484766960144,-0.0975898876786232,0.9443562626838684,0.6895477175712585,0.8899564743041992,-0.2139643132686615,0.9393275380134583,0.3809390664100647,0.88020259141922,-0.2740766406059265,0.9797946810722351
15
16
17
18
19
20
21
22
23
24
25,0.36524125933647156,0.6365997195243835,-0.043134577572345734,0.9840463995933533,0.3508283793926239,0.6387099027633667,-0.0876922607421875,0.9803352952003479,0.35013434290885925,0.6364279985427856,-0.0876324325799942,0.9784448742866516,0.34947848320007324,0.634242057800293,-0.08759917318820953,0.9775053262710571,0.34924203157424927,0.6377503871917725,-0.04270768165588379,0.9807646870613098,0.34788718819618225,0.6353529095649719,-0.042674750089645386,0.9808617830276489,0.3465098440647125,0.6328021287918091,-0.04275025054812431,0.9841553568840027,0.3452419936656952,0.6086716055870056,-0.20247793197631836,0.9763787388801575,0.3409506678581238,0.6059877872467041,0.0016194861382246017,0.983700156211853,0.3731519281864166,0.6192913055419922,-0.07361000031232834,0.9903827905654907,0.3730837106704712,0.6192877888679504,-0.015086117200553417,0.9908847212791443,0.3880089521408081,0.580055832862854,-0.3055957853794098,0.9968872666358948,0.3875467777252197,0.516177773475647,0.15619993209838867,0.9981260895729065,0.43891626596450806,0.736613929271698,-0.2679396867752075,0.14205223321914673,0.45855551958084106,0.622614324092865,0.2715412974357605,0.12322947382926941,0.4088887572288513,0.8111475706100464,-0.10818712413311005,0.10236044973134995,0.4573889672756195,0.7274565100669861,0.21557709574699402,0.06280288100242615,0.40091389417648315,0.8251230716705322,-0.13477957248687744,0.10348815470933914,0.4549056887626648,0.739568829536438,0.2256021797657013,0.08825743943452835,0.3932030498981476,0.8147719502449036,-0.1223134770989418,0.10122521221637726,0.4476376473903656,0.7499223351478577,0.17701776325702667,0.08553867042064667,0.3973323702812195,0.8097501993179321,-0.09833051264286041,0.09527409076690674,0.4501543939113617,0.748947024345398,0.1950380653142929,0.07479584217071533,0.5914275050163269,0.5360866785049438,-0.16509181261062622,0.9997259378433228,0.5952814817428589,0.5097813606262207,0.1650478094816208,0.9998610019683838,0.5232037901878357,0.7143869996070862,0.018513500690460205,0.9705653190612793,0.5897674560546875,0.6698272824287415,0.25619420409202576,0.9323784708976746,0.49474114179611206,0.7928645610809326,0.39078256487846375,0.906707227230072,0.5541753768920898,0.7810846567153931,0.430156409740448,0.9184833765029907,0.5082650780677795,0.8045170307159424,0.4342281222343445,0.8266914486885071,0.5592435002326965,0.7984006404876709,0.4550701975822449,0.8755475878715515,0.4331831932067871,0.8105977773666382,0.505083441734314,0.8893135786056519,0.5067854523658752,0.8116035461425781,0.49735027551651,0.9228513836860657
26,0.34849080443382263,0.6409885883331299,-0.0442289337515831,0.9845607280731201,0.332512229681015,0.6386654376983643,-0.08700918406248093,0.9811763763427734,0.33199289441108704,0.6364219188690186,-0.08698131889104843,0.9796010851860046,0.33151975274086,0.6342456340789795,-0.08698515594005585,0.978518545627594,0.3319839537143707,0.6375500559806824,-0.043202199041843414,0.9818324446678162,0.3313005864620209,0.6350671052932739,-0.04315716773271561,0.9819844365119934,0.3305789828300476,0.6324103474617004,-0.0432586707174778,0.9849072098731995,0.3323073983192444,0.6093476414680481,-0.19566185772418976,0.9776766300201416,0.3309647738933563,0.6058376431465149,-0.003106501419097185,0.9844062328338623,0.3607628643512726,0.6275032162666321,-0.07473607361316681,0.9895431995391846,0.3582572937011719,0.6227529048919678,-0.020147591829299927,0.9901444911956787,0.37924668192863464,0.6016642451286316,-0.279876172542572,0.997135579586029,0.3935830593109131,0.5116435289382935,0.09637592732906342,0.9982830882072449,0.4287475645542145,0.737485945224762,-0.2269352376461029,0.2008676379919052,0.5167542695999146,0.5063175559043884,0.10301579535007477,0.14370346069335938,0.38942620158195496,0.8136513829231262,0.007064080331474543,0.12632514536380768,0.6010562181472778,0.4757935404777527,0.0017076324438676238,0.07467784732580185,0.3812093138694763,0.8371460437774658,0.015341614373028278,0.12327946722507477,0.6227694153785706,0.45627957582473755,0.011398756876587868,0.09992619603872299,0.3753542900085449,0.8249123692512512,0.024757344275712967,0.12083474546670914,0.6218811273574829,0.4670572578907013,-0.023939114063978195,0.09643527865409851,0.37901872396469116,0.8104384541511536,0.01940799131989479,0.11203644424676895,0.6152859926223755,0.4752351641654968,-0.012911098077893257,0.08513053506612778,0.5906102657318115,0.5371209979057312,-0.1427285373210907,0.99974125623703,0.5975970029830933,0.5042608380317688,0.14242994785308838,0.999869167804718,0.6009544730186462,0.6946437358856201,-0.02717147395014763,0.9642892479896545,0.6759213209152222,0.6291807889938354,0.1672373116016388,0.9096553921699524,0.5550268292427063,0.8033365607261658,0.24122972786426544,0.8755466341972351,0.6422664523124695,0.754827618598938,0.318176805973053,0.8552741408348083,0.5576689839363098,0.8174879550933838,0.2730649411678314,0.7958119511604309,0.6462451219558716,0.7259191870689392,0.33966881036758423,0.825529932975769,0.5093437433242798,0.8512974977493286,0.33117467164993286,0.8600172996520996,0.6085106730461121,0.7637652158737183,0.4163198471069336,0.8629758954048157
27,0.35082367062568665,0.6317055225372314,0.014694835059344769,0.9846179485321045,0.3355362117290497,0.627310037612915,-0.021520867943763733,0.9817054271697998,0.3347417116165161,0.6254492402076721,-0.021508125588297844,0.9803981781005859,0.33395951986312866,0.6236236691474915,-0.021459773182868958,0.9793232679367065,0.33514195680618286,0.6262833476066589,0.016524076461791992,0.982345700263977,0.3342035114765167,0.6239541172981262,0.01658746600151062,0.9823727011680603,0.3330638110637665,0.6214269995689392,0.016385970637202263,0.9850939512252808,0.3334220051765442,0.600441575050354,-0.11948714405298233,0.9783420562744141,0.3319365978240967,0.5967749953269958,0.053688425570726395,0.984620213508606,0.3617098331451416,0.6205705404281616,-0.011652487330138683,0.9890156388282776,0.36068445444107056,0.6177085638046265,0.03758040443062782,0.9893147945404053,0.37381142377853394,0.6023271679878235,-0.2171172797679901,0.9973959922790527,0.4031827449798584,0.4993572235107422,0.1304936558008194,0.9984381198883057,0.43720585107803345,0.7350151538848877,-0.22623440623283386,0.25424569845199585,0.5258339047431946,0.47988244891166687,0.14969095587730408,0.14684613049030304,0.3901160955429077,0.8105433583259583,-0.1015080064535141,0.15935209393501282,0.6116843819618225,0.4841272532939911,0.033885516226291656,0.08102329820394516,0.38510143756866455,0.8363426923751831,-0.09696095436811447,0.15106864273548126,0.6303349733352661,0.47472766041755676,0.03310514986515045,0.10522367060184479,0.37849074602127075,0.8207570314407349,-0.07995128631591797,0.14885874092578888,0.6290081143379211,0.4841865003108978,0.0006155291339382529,0.1012258306145668,0.381761372089386,0.8053846955299377,-0.0878319963812828,0.1366955041885376,0.6241873502731323,0.4881182909011841,0.01858588121831417,0.08988556265830994,0.5827741026878357,0.5396788120269775,-0.13918395340442657,0.9997307062149048,0.608256459236145,0.5041742920875549,0.13877663016319275,0.9998719096183777,0.4819413721561432,0.6861444115638733,-0.057546138763427734,0.9608524441719055,0.6697088479995728,0.6210107207298279,0.195363849401474,0.9064399003982544,0.4596560597419739,0.8329163789749146,0.1061493530869484,0.8563547730445862,0.6405978202819824,0.6677240133285522,0.3597308397293091,0.8289746642112732,0.47285422682762146,0.8580924272537231,0.12591661512851715,0.7733976244926453,0.6379097104072571,0.6744232773780823,0.3823952078819275,0.8101612329483032,0.3723582327365875,0.8628507256507874,0.161540225148201,0.8434875011444092,0.6182201504707336,0.6674039363861084,0.44948744773864746,0.8451833724975586
28,0.3320479989051819,0.6124638319015503,0.2135511189699173,0.9822090268135071,0.3192814886569977,0.6117145419120789,0.1655312478542328,0.9799463152885437,0.3187222480773926,0.6136918663978577,0.16558481752872467,0.9793452620506287,0.31820446252822876,0.6154528856277466,0.16563919186592102,0.9782017469406128,0.31983134150505066,0.6022727489471436,0.18953153491020203,0.9815173149108887,0.31964218616485596,0.597584068775177,0.18958188593387604,0.9818311333656311,0.3193948566913605,0.5927151441574097,0.18938811123371124,0.9838236570358276,0.32253915071487427,0.6010139584541321,0.009670662693679333,0.9778510332107544,0.32376569509506226,0.5727586150169373,0.1233225017786026,0.9837624430656433,0.3437393009662628,0.6121013164520264,0.16608813405036926,0.9863139986991882,0.3441162705421448,0.6024148464202881,0.1984107494354248,0.9868364930152893,0.3690173923969269,0.6238691210746765,-0.08453401178121567,0.9976173639297485,0.4010840356349945,0.48179733753204346,0.1317494958639145,0.9985745549201965,0.42184561491012573,0.7420171499252319,-0.012739707715809345,0.2852104604244232,0.5065909624099731,0.43363988399505615,0.1872691512107849,0.18586386740207672,0.3857269883155823,0.811333954334259,0.17746654152870178,0.18402616679668427,0.5673353672027588,0.41680413484573364,0.18725474178791046,0.08974391222000122,0.3803132474422455,0.8326429724693298,0.18348149955272675,0.17083023488521576,0.5817724466323853,0.40687206387519836,0.20178203284740448,0.11092618107795715,0.37424933910369873,0.8228021264076233,0.19057859480381012,0.16824449598789215,0.5814276337623596,0.41356316208839417,0.1760636419057846,0.10623174160718918,0.3769553005695343,0.8130531907081604,0.1883133351802826,0.15133149921894073,0.5764271020889282,0.4185791313648224,0.1816106140613556,0.09618134051561356,0.5716530084609985,0.5535832047462463,-0.09100481122732162,0.9997439980506897,0.607502281665802,0.49217286705970764,0.09051750600337982,0.9998806715011597,0.5238595604896545,0.6553071141242981,-0.06599068641662598,0.9480212926864624,0.7021371126174927,0.5763219594955444,0.13059958815574646,0.9082280993461609,0.47044509649276733,0.8371896147727966,0.025834253057837486,0.8410026431083679,0.6604307293891907,0.7085550427436829,0.2704816162586212,0.8053281903266907,0.4746306836605072,0.8633063435554504,0.04242292046546936,0.7642791867256165,0.6788252592086792,0.6880945563316345,0.29417482018470764,0.805963933467865,0.39246252179145813,0.8896762132644653,0.08269003033638,0.8210392594337463,0.6737021207809448,0.7131577134132385,0.39887550473213196,0.8112214803695679
29,0.3512168228626251,0.593132734298706,0.4698750078678131,0.9732367992401123,0.34048235416412354,0.5917355418205261,0.44014233350753784,0.9705092906951904,0.3389398455619812,0.59432053565979,0.44018831849098206,0.9709522128105164,0.33743560314178467,0.5968490839004517,0.44015854597091675,0.9704113006591797,0.34489285945892334,0.5817524790763855,0.46309399604797363,0.9735762476921082,0.34605440497398376,0.5770798325538635,0.4631962776184082,0.9733939170837402,0.34715157747268677,0.572211503982544,0.46305781602859497,0.9751986861228943,0.34189239144325256,0.5894346833229065,0.3088565170764923,0.9695794582366943,0.35327816009521484,0.5551871657371521,0.4156979024410248,0.9758886694908142,0.3600832223892212,0.5958327054977417,0.4257844388484955,0.9781731963157654,0.36400657892227173,0.5851041078567505,0.45630544424057007,0.9796155691146851,0.37004324793815613,0.6195363998413086,0.14976844191551208,0.9978184103965759,0.4246922433376312,0.4732336699962616,0.39323246479034424,0.99869704246521,0.4080594480037689,0.7417405247688293,0.21071958541870117,0.2850080728530884,0.5252808332443237,0.45538750290870667,0.4135388731956482,0.1801111400127411,0.37943172454833984,0.8017005920410156,0.42643851041793823,0.1822962760925293,0.590986967086792,0.45928141474723816,0.3935154378414154,0.09506530314683914,0.3690081238746643,0.8246601223945618,0.4336676597595215,0.169580340385437,0.603054940700531,0.45150142908096313,0.39993584156036377,0.11870691925287247,0.36700063943862915,0.8070687651634216,0.4418121874332428,0.16752590239048004,0.6055423021316528,0.46419063210487366,0.3732229769229889,0.11317075788974762,0.3726166784763336,0.7932578921318054,0.4373045563697815,0.15118087828159332,0.6013764142990112,0.4703834354877472,0.38427549600601196,0.10363797098398209,0.5640884041786194,0.5555577874183655,-0.09793035686016083,0.9997655749320984,0.6111404895782471,0.4889059364795685,0.09750890731811523,0.999891459941864,0.5235510468482971,0.6590003371238708,-0.0426129475235939,0.9479615092277527,0.7054292559623718,0.5766294598579407,0.128658264875412,0.911072850227356,0.47064995765686035,0.8401216268539429,0.06620076298713684,0.828468382358551,0.689409613609314,0.6649588346481323,0.248330757021904,0.7883781790733337,0.4761546552181244,0.8647647500038147,0.08281920850276947,0.7553134560585022,0.6924647092819214,0.6683177947998047,0.2678351104259491,0.8058592081069946,0.4060932695865631,0.9001821875572205,0.14014257490634918,0.7962576150894165,0.6769401431083679,0.6950938105583191,0.3653154969215393,0.7857992053031921
30,0.33373698592185974,0.588777482509613,0.41001248359680176,0.974116325378418,0.32168957591056824,0.5900316834449768,0.3721391260623932,0.9723119139671326,0.3205317556858063,0.5927597284317017,0.372100293636322,0.9727402925491333,0.31943389773368835,0.5954480767250061,0.37202996015548706,0.9719651341438293,0.3253585398197174,0.579643189907074,0.39209994673728943,0.9753811955451965,0.32652008533477783,0.5748968720436096,0.3921067416667938,0.9752632975578308,0.32770827412605286,0.5699949860572815,0.39187583327293396,0.9768001437187195,0.32521164417266846,0.5904080867767334,0.22937700152397156,0.9714695811271667,0.336941659450531,0.5533136129379272,0.32272738218307495,0.9777478575706482,0.3426198363304138,0.5911687612533569,0.36377018690109253,0.979234516620636,0.3459908664226532,0.5804035663604736,0.39055269956588745,0.9808424711227417,0.3574531078338623,0.6161471009254456,0.0769682377576828,0.9980313777923584,0.41700154542922974,0.4796290695667267,0.2986222207546234,0.9988150596618652,0.40424633026123047,0.7323178052902222,0.0195823572576046,0.35189178586006165,0.515498697757721,0.45693597197532654,0.33453938364982605,0.19752538204193115,0.38256973028182983,0.8022994995117188,0.12703518569469452,0.25802746415138245,0.5609487295150757,0.45045846700668335,0.2406313121318817,0.10687093436717987,0.3739042580127716,0.8247119188308716,0.06257890164852142,0.24415083229541779,0.5721615552902222,0.4446118175983429,0.22314636409282684,0.1264474093914032,0.37024253606796265,0.8115547895431519,0.09135279804468155,0.24153569340705872,0.5711125135421753,0.4524421691894531,0.19897012412548065,0.1207960993051529,0.37573477625846863,0.7970588207244873,0.131123349070549,0.22185072302818298,0.566435694694519,0.4553087651729584,0.23339280486106873,0.11347198486328125,0.5614911913871765,0.5553911924362183,-0.05377066880464554,0.9997876286506653,0.5857290625572205,0.48766377568244934,0.05359842628240585,0.9999012351036072,0.6921694874763489,0.5799632668495178,-0.05144470930099487,0.9488494992256165,0.7039281129837036,0.5807048678398132,-0.08230980485677719,0.913513720035553,0.5918148756027222,0.6669096350669861,0.16188672184944153,0.8203222155570984,0.656997561454773,0.7003543376922607,0.08384088426828384,0.7799310088157654,0.5834832787513733,0.6801697015762329,0.1901952475309372,0.7514883875846863,0.6550599336624146,0.6963834762573242,0.11059900373220444,0.8006898164749146,0.5509418845176697,0.7083669304847717,0.23593898117542267,0.771131694316864,0.6277914643287659,0.7183436155319214,0.1613704264163971,0.764973521232605
31,0.3298811614513397,0.5906503796577454,0.371647447347641,0.9760297536849976,0.31811290979385376,0.5915619134902954,0.3422001004219055,0.9745564460754395,0.31682294607162476,0.5933029651641846,0.342166006565094,0.9748579859733582,0.3155904710292816,0.5951308608055115,0.3421045243740082,0.974212110042572,0.3215572237968445,0.5837218761444092,0.36465024948120117,0.9774140119552612,0.3225242793560028,0.5795421004295349,0.36462002992630005,0.9772904515266418,0.32353705167770386,0.5751885175704956,0.364446222782135,0.9787777066230774,0.31963762640953064,0.587553858757019,0.22490064799785614,0.973686933517456,0.3310178220272064,0.5572642683982849,0.324650377035141,0.9796298742294312,0.3375750184059143,0.5888795852661133,0.33261531591415405,0.9806671142578125,0.341130793094635,0.5810485482215881,0.36137935519218445,0.9822728037834167,0.3585153818130493,0.608249843120575,0.06119845062494278,0.9982131719589233,0.39445367455482483,0.4915744960308075,0.3284934163093567,0.9989054203033447,0.40653952956199646,0.7156201004981995,0.029002776369452477,0.4059276878833771,0.4326518177986145,0.581878662109375,0.3455541729927063,0.19862473011016846,0.3834702670574188,0.8004558682441711,0.10450856387615204,0.30843234062194824,0.4174330234527588,0.7007632851600647,0.24289126694202423,0.13476642966270447,0.3748374581336975,0.823089599609375,0.07500869035720825,0.29084324836730957,0.4121028780937195,0.7229671478271484,0.23725013434886932,0.15537628531455994,0.37022024393081665,0.8115031719207764,0.09880385547876358,0.2868362367153168,0.4087661802768707,0.7364990711212158,0.20394814014434814,0.15231779217720032,0.3748733699321747,0.7982912063598633,0.11464734375476837,0.26666972041130066,0.41054248809814453,0.7322736978530884,0.22767803072929382,0.14711493253707886,0.5620985627174377,0.5390557050704956,-0.06510022282600403,0.9998075366020203,0.5770604014396667,0.48933616280555725,0.06487053632736206,0.9999101758003235,0.6960544586181641,0.5716319680213928,-0.0767984390258789,0.950070858001709,0.696194052696228,0.5926368832588196,-0.07766932249069214,0.9178194403648376,0.6358401775360107,0.6543553471565247,0.20385202765464783,0.8226083517074585,0.6599823236465454,0.7102001309394836,0.14184781908988953,0.7871702313423157,0.6282898783683777,0.6585467457771301,0.24813421070575714,0.7512496113777161,0.65105140209198,0.7051275968551636,0.17492900788784027,0.8067123889923096,0.620893120765686,0.7109745740890503,0.28087297081947327,0.7630369067192078,0.6571712493896484,0.7753580808639526,0.2360154092311859,0.7673983573913574
32,0.31537991762161255,0.6114225387573242,0.13155515491962433,0.9782854914665222,0.3017723262310028,0.6010753512382507,0.09280702471733093,0.976988673210144,0.30194324254989624,0.6033805012702942,0.09272530674934387,0.9772382974624634,0.30214494466781616,0.6061761975288391,0.09265188872814178,0.976671040058136,0.30054065585136414,0.5949289798736572,0.12934879958629608,0.9795633554458618,0.30038538575172424,0.5864755511283875,0.12933053076267242,0.9794450998306274,0.29987066984176636,0.5842528939247131,0.1291787177324295,0.9808109402656555,0.30529993772506714,0.5991128087043762,-0.03554524481296539,0.9761629104614258,0.3078075051307678,0.578896701335907,0.12864765524864197,0.9815571308135986,0.3246864676475525,0.6036818027496338,0.08964614570140839,0.982481837272644,0.3258255124092102,0.5996941328048706,0.13679803907871246,0.9839369058609009,0.3550615906715393,0.6077840328216553,-0.1868472844362259,0.9983834028244019,0.37296393513679504,0.5134841203689575,0.2160349190235138,0.9989983439445496,0.40994542837142944,0.7188498377799988,-0.12152563035488129,0.45639821887016296,0.44550466537475586,0.579744279384613,0.3290512263774872,0.1861761063337326,0.3840782344341278,0.8007583022117615,0.0985286608338356,0.3381004333496094,0.45889925956726074,0.675634503364563,0.3649671971797943,0.12776514887809753,0.3757842183113098,0.8143841624259949,0.09129690378904343,0.31676366925239563,0.46259593963623047,0.6934478282928467,0.39420202374458313,0.148875430226326,0.3712576925754547,0.8053019642829895,0.1094706654548645,0.31249505281448364,0.4588622450828552,0.701978325843811,0.35324811935424805,0.1469006985425949,0.37576282024383545,0.7947214841842651,0.11220909655094147,0.29106345772743225,0.45713767409324646,0.6970726251602173,0.35032984614372253,0.14346273243427277,0.562049388885498,0.5278978943824768,-0.09974931925535202,0.9998258352279663,0.5638245940208435,0.5055903196334839,0.09942255914211273,0.9999185800552368,0.7032471895217896,0.57612144947052,-0.12711243331432343,0.9528139233589172,0.6836557984352112,0.6800440549850464,0.03732670471072197,0.9149395227432251,0.6461870074272156,0.6148713827133179,0.3307330906391144,0.8082788586616516,0.657090961933136,0.7319707274436951,0.2986751198768616,0.761420726776123,0.6345499157905579,0.6052519679069519,0.390463650226593,0.7249379754066467,0.6535771489143372,0.7250539660453796,0.3394381105899811,0.7786155343055725,0.6381772756576538,0.6713894605636597,0.489227294921875,0.7455973625183105,0.6528288125991821,0.791878879070282,0.4344886839389801,0.7432241439819336
33,0.31533607840538025,0.6143372058868408,0.16731739044189453,0.980135440826416,0.2981944978237152,0.6021229028701782,0.11032108217477798,0.9790406227111816,0.2983473539352417,0.6042253375053406,0.1103224977850914,0.9792511463165283,0.29860419034957886,0.6082468628883362,0.11045072227716446,0.9787557125091553,0.29754677414894104,0.5971513986587524,0.15416380763053894,0.9813753962516785,0.30219966173171997,0.5937871932983398,0.15414893627166748,0.9812499284744263,0.3021640181541443,0.5904872417449951,0.1540728509426117,0.982522189617157,0.3038875460624695,0.5995701551437378,-0.013166919350624084,0.9782142639160156,0.30443519353866577,0.5789092183113098,0.14294666051864624,0.9831656217575073,0.32605913281440735,0.6068603992462158,0.10524293035268784,0.9838457703590393,0.32770633697509766,0.6028186082839966,0.16344846785068512,0.9851375818252563,0.3546372354030609,0.6064736247062683,-0.16811974346637726,0.9985302686691284,0.378288596868515,0.5043361186981201,0.24451521039009094,0.9990758299827576,0.4079810678958893,0.7196686267852783,-0.12085898220539093,0.5061534643173218,0.4635378420352936,0.5344187617301941,0.3809075653553009,0.17804525792598724,0.3838127553462982,0.8046979308128357,0.0971367359161377,0.3806985318660736,0.48710209131240845,0.6564412713050842,0.41855329275131226,0.12281205505132675,0.37704920768737793,0.8178548216819763,0.09408432245254517,0.3521761894226074,0.49586015939712524,0.6863356828689575,0.45069560408592224,0.1429438591003418,0.37212321162223816,0.8123915791511536,0.11089940369129181,0.347172349691391,0.4897899627685547,0.6755317449569702,0.40275272727012634,0.14145663380622864,0.3763635456562042,0.8021364808082581,0.11144143342971802,0.3244706690311432,0.48468130826950073,0.6794394850730896,0.4018081724643707,0.13984711468219757,0.5639511346817017,0.5359960794448853,-0.13628487288951874,0.999836802482605,0.5679773688316345,0.49860066175460815,0.13602116703987122,0.9999250173568726,0.5731408596038818,0.6887496709823608,-0.0003005515900440514,0.9542429447174072,0.6799095869064331,0.6590095162391663,0.1579163819551468,0.9141521453857422,0.5175577402114868,0.7880430817604065,0.2989223301410675,0.7867472171783447,0.6502901315689087,0.7109368443489075,0.294960081577301,0.7389121651649475,0.5198342800140381,0.8033884167671204,0.33815890550613403,0.6986389756202698,0.6494344472885132,0.715474009513855,0.3330830931663513,0.75799560546875,0.46646079421043396,0.8317921161651611,0.41971737146377563,0.7189767956733704,0.6358354687690735,0.7407261729240417,0.4083678722381592,0.7213204503059387
34,0.31430768966674805,0.6225718855857849,0.17135518789291382,0.9815533757209778,0.29507651925086975,0.6050626635551453,0.1213398203253746,0.9806504249572754,0.2953873872756958,0.6075976490974426,0.12135656177997589,0.9808562397956848,0.2958791255950928,0.6115032434463501,0.12142673879861832,0.9804099202156067,0.29432597756385803,0.5979530811309814,0.15994569659233093,0.9827413558959961,0.29510432481765747,0.5951768159866333,0.15996232628822327,0.9825791120529175,0.29495149850845337,0.5917157530784607,0.15985125303268433,0.9837844967842102,0.3023924231529236,0.6015347242355347,-0.026395369321107864,0.9797371625900269,0.30061018466949463,0.5808488130569458,0.14001008868217468,0.9841943383216858,0.32543015480041504,0.609692394733429,0.12034068256616592,0.9845568537712097,0.3274799883365631,0.6108382344245911,0.17075380682945251,0.9855220913887024,0.354911744594574,0.6221110224723816,-0.1877371370792389,0.9986581206321716,0.3809138238430023,0.495071679353714,0.2415509670972824,0.9991226196289062,0.406439870595932,0.7379214763641357,-0.1465809941291809,0.5513450503349304,0.47803086042404175,0.4924139380455017,0.37000492215156555,0.17076119780540466,0.38357871770858765,0.8072679042816162,0.07787849754095078,0.4252280592918396,0.5162432789802551,0.5483866930007935,0.3948470652103424,0.11785706877708435,0.37774890661239624,0.8339172601699829,0.08478986471891403,0.39212659001350403,0.5287420153617859,0.5508517622947693,0.41969090700149536,0.13681647181510925,0.3691909611225128,0.8294565081596375,0.09132636338472366,0.3871304392814636,0.5227432250976562,0.5626636147499084,0.37606245279312134,0.1356200873851776,0.375597208738327,0.8173030018806458,0.09229377657175064,0.36269062757492065,0.5173575282096863,0.5647430419921875,0.37886789441108704,0.13511516153812408,0.5678720474243164,0.5487264394760132,-0.14639271795749664,0.9998388886451721,0.5826250910758972,0.4959934651851654,0.14605046808719635,0.9999277591705322,0.5401406288146973,0.7251655459403992,0.017111431807279587,0.9527819752693176,0.6762973070144653,0.6578522324562073,0.17670905590057373,0.9056711792945862,0.5247443914413452,0.8026164174079895,0.31986576318740845,0.7572640776634216,0.6468384265899658,0.7021480798721313,0.3244059979915619,0.7021120190620422,0.5242002606391907,0.8136627078056335,0.35783395171165466,0.6678324341773987,0.6462627649307251,0.7086467146873474,0.35092490911483765,0.7260937690734863,0.4757789969444275,0.8415058851242065,0.43571218848228455,0.690619945526123,0.6286782026290894,0.7237300872802734,0.42845797538757324,0.6898467540740967
35,0.3071210980415344,0.6223403215408325,0.214450404047966,0.983069896697998,0.291748970746994,0.6089333891868591,0.1617952138185501,0.982255756855011,0.2919498085975647,0.6123244762420654,0.16179177165031433,0.9823878407478333,0.2924392819404602,0.6162662506103516,0.1617445945739746,0.9819839000701904,0.2908731997013092,0.5988797545433044,0.19959203898906708,0.9841626286506653,0.290783554315567,0.5956689715385437,0.19968535006046295,0.9840005040168762,0.2906830310821533,0.5927640795707703,0.1995517909526825,0.9851042032241821,0.2973436713218689,0.6110429763793945,-0.014750945381820202,0.981372058391571,0.2959432899951935,0.5819532871246338,0.154076486825943,0.9853568077087402,0.31922832131385803,0.6136986017227173,0.15640759468078613,0.9854998588562012,0.319540798664093,0.6102665662765503,0.2062690705060959,0.9862731695175171,0.3540160357952118,0.6347660422325134,-0.17500220239162445,0.9987866282463074,0.38147908449172974,0.4810328781604767,0.20268113911151886,0.9992002844810486,0.4035360813140869,0.7527698874473572,-0.029842162504792213,0.5925783514976501,0.4977295994758606,0.4548242688179016,0.2324489802122116,0.17714247107505798,0.3831714987754822,0.812418520450592,0.26902076601982117,0.44688552618026733,0.5778550505638123,0.46423569321632385,0.1923503577709198,0.12304547429084778,0.3783058524131775,0.8359804749488831,0.29073992371559143,0.40258118510246277,0.6010002493858337,0.4579721987247467,0.20565290749073029,0.13954605162143707,0.3684011995792389,0.8363800048828125,0.2928290367126465,0.39818277955055237,0.6036467552185059,0.47117969393730164,0.17027559876441956,0.13769082725048065,0.37597137689590454,0.8176672458648682,0.281002938747406,0.3726698160171509,0.5958085060119629,0.47475799918174744,0.17793485522270203,0.1363559514284134,0.568168044090271,0.5488850474357605,-0.11602413654327393,0.9998539090156555,0.5789871215820312,0.49398455023765564,0.11565530300140381,0.9999341368675232,0.621292769908905,0.6781082153320312,-0.0013893481809645891,0.9509037137031555,0.6592617630958557,0.6524989604949951,0.1327628195285797,0.904627799987793,0.5809543132781982,0.6508384943008423,0.301658034324646,0.7168706655502319,0.612470805644989,0.7665108442306519,0.22911226749420166,0.6854072213172913,0.5788233280181885,0.6395296454429626,0.34023556113243103,0.6228892803192139,0.6108109951019287,0.7805576324462891,0.24960188567638397,0.6998668909072876,0.5500206351280212,0.6897006630897522,0.41601887345314026,0.649338960647583,0.5743511915206909,0.8172163367271423,0.32610994577407837,0.6658094525337219
36,0.3112730383872986,0.6222301721572876,0.1561071127653122,0.9844176769256592,0.2877449691295624,0.6118794083595276,0.10947338491678238,0.9834266304969788,0.28821101784706116,0.6144947409629822,0.1095624789595604,0.9835662841796875,0.2889436185359955,0.6175341010093689,0.109708771109581,0.9831187725067139,0.28777962923049927,0.6035693287849426,0.14624352753162384,0.9852179884910583,0.2962152361869812,0.5979228615760803,0.14634892344474792,0.9849783182144165,0.29621195793151855,0.5946205258369446,0.14620821177959442,0.9859986901283264,0.3004670739173889,0.6074749827384949,-0.03893064707517624,0.9824752807617188,0.30136165022850037,0.5801543593406677,0.12838467955589294,0.9861057996749878,0.32369470596313477,0.614237904548645,0.11169622093439102,0.9860277771949768,0.3247721791267395,0.6104332208633423,0.16017647087574005,0.9862381815910339,0.3542594015598297,0.6354625225067139,-0.1727951318025589,0.9988828897476196,0.38315123319625854,0.47522416710853577,0.1916133463382721,0.9992556571960449,0.3986566364765167,0.7498524785041809,-0.145126074552536,0.623630166053772,0.5022827982902527,0.4489174783229828,0.21751579642295837,0.19445040822029114,0.38909122347831726,0.80572909116745,0.008407841436564922,0.4593445658683777,0.5937752723693848,0.4487244486808777,0.12169539928436279,0.14740917086601257,0.38816502690315247,0.8305696845054626,0.0044960277155041695,0.40979379415512085,0.6169103384017944,0.43546634912490845,0.11543621122837067,0.16228421032428741,0.38050001859664917,0.8279876112937927,0.009014232084155083,0.40515878796577454,0.6183455586433411,0.44561851024627686,0.07932522892951965,0.15845757722854614,0.384579598903656,0.8148055672645569,0.01737225241959095,0.38116565346717834,0.6117053627967834,0.4515990614891052,0.10468582063913345,0.15461945533752441,0.5731409788131714,0.5593186616897583,-0.13359694182872772,0.999825119972229,0.6032878756523132,0.48996707797050476,0.13324084877967834,0.9999281167984009,0.4762844443321228,0.7344891428947449,-0.006950644310563803,0.9401002526283264,0.6601886749267578,0.6268942952156067,0.1902506798505783,0.9001501202583313,0.41751402616500854,0.784804105758667,0.23135249316692352,0.6857640147209167,0.6054076552391052,0.661970317363739,0.4474417269229889,0.6570639610290527,0.4280480444431305,0.7920864224433899,0.2578262984752655,0.5962722897529602,0.5997236967086792,0.6709153652191162,0.48125630617141724,0.6815921068191528,0.36437076330184937,0.8227455615997314,0.2966606020927429,0.6274915337562561,0.5732433795928955,0.6782293915748596,0.5603674650192261,0.6464879512786865
37,0.31238260865211487,0.6058406829833984,0.1961921751499176,0.9845581650733948,0.2927002012729645,0.5969110131263733,0.1543249487876892,0.982886016368866,0.29135534167289734,0.5979424715042114,0.15439550578594208,0.983167290687561,0.29005593061447144,0.5991224646568298,0.15454217791557312,0.9825108051300049,0.29709330201148987,0.589752197265625,0.18670958280563354,0.9848747849464417,0.300916850566864,0.5851891040802002,0.18680064380168915,0.9845024943351746,0.3021668791770935,0.5813305377960205,0.1865849494934082,0.9855576753616333,0.3012140393257141,0.5869740843772888,0.0149123789742589,0.9813902974128723,0.3109596073627472,0.5611943602561951,0.16386021673679352,0.9855450391769409,0.3238404393196106,0.6031076908111572,0.1555972397327423,0.9845904111862183,0.3272154927253723,0.5977951288223267,0.19830453395843506,0.9839242100715637,0.3542819321155548,0.6301794052124023,-0.12754812836647034,0.9989515542984009,0.3970942199230194,0.47497719526290894,0.2093767374753952,0.9992934465408325,0.39337822794914246,0.7487451434135437,-0.1323140561580658,0.6458237767219543,0.5087060928344727,0.45442718267440796,0.24305108189582825,0.2005375176668167,0.39113616943359375,0.8047385811805725,-0.012237166985869408,0.4582548141479492,0.5994717478752136,0.45149242877960205,0.17572958767414093,0.1537221223115921,0.3886656165122986,0.8248450756072998,-0.020315276458859444,0.4054816961288452,0.621730387210846,0.4392448663711548,0.17834517359733582,0.16938234865665436,0.3833360970020294,0.8234142661094666,-0.008594655431807041,0.4002445340156555,0.6229537725448608,0.4473817050457001,0.14320145547389984,0.1644906848669052,0.3869031071662903,0.8147001266479492,-0.0012267476413398981,0.3764059245586395,0.6155900955200195,0.4523525536060333,0.1610051691532135,0.1599891483783722,0.5729607343673706,0.5579971075057983,-0.13247302174568176,0.9998103380203247,0.6107937097549438,0.4815565347671509,0.13225144147872925,0.999927818775177,0.48426008224487305,0.7287278771400452,0.003193822456523776,0.9338904023170471,0.6880375146865845,0.59043288230896,0.20698478817939758,0.8964609503746033,0.44012802839279175,0.8307076692581177,0.18692612648010254,0.6747199296951294,0.6386231184005737,0.5949574112892151,0.4406357705593109,0.6365344524383545,0.4531966745853424,0.8506215810775757,0.2085811346769333,0.5858112573623657,0.6338860392570496,0.6015189290046692,0.47324204444885254,0.6740512251853943,0.37749871611595154,0.8641504645347595,0.2367798089981079,0.6136350631713867,0.616065502166748,0.6023300290107727,0.559404730796814,0.6305068135261536
38,0.2963089346885681,0.6069844961166382,0.37236177921295166,0.9848215579986572,0.2816650867462158,0.6044142842292786,0.3308848440647125,0.983660876750946,0.28205493092536926,0.6078043580055237,0.3309483528137207,0.9837899804115295,0.2825411260128021,0.611325204372406,0.33098775148391724,0.9833424687385559,0.2869740426540375,0.5907527804374695,0.35887572169303894,0.9852907061576843,0.2887246608734131,0.5874385833740234,0.3589842915534973,0.9847180247306824,0.2901274263858795,0.5839940905570984,0.35885971784591675,0.9860823750495911,0.29517000913619995,0.6074782013893127,0.1764937937259674,0.9817246794700623,0.29994529485702515,0.5659939646720886,0.3048854470252991,0.9859435558319092,0.31197941303253174,0.6074919104576111,0.32514771819114685,0.9842023849487305,0.3136610984802246,0.5981225371360779,0.3618808388710022,0.9827696681022644,0.3497453033924103,0.6376089453697205,0.03896733373403549,0.9989869594573975,0.39666682481765747,0.47735336422920227,0.31083452701568604,0.9993284344673157,0.3875988721847534,0.7490225434303284,0.09520965069532394,0.6343714594841003,0.5056805610656738,0.43186241388320923,0.3515336215496063,0.19726993143558502,0.39115196466445923,0.8049954175949097,0.2902475893497467,0.4350128769874573,0.5872471928596497,0.4274144470691681,0.33083295822143555,0.15130256116390228,0.3885602056980133,0.8257775902748108,0.29138079285621643,0.38248738646507263,0.6060404777526855,0.41772955656051636,0.3270338177680969,0.16709691286087036,0.3811483085155487,0.8235204815864563,0.2948506772518158,0.37763211131095886,0.606911838054657,0.42911380529403687,0.29387158155441284,0.16218982636928558,0.38646966218948364,0.8153206706047058,0.29878872632980347,0.35609170794487,0.600546658039093,0.43325909972190857,0.31714481115341187,0.15835927426815033,0.5681012868881226,0.5717423558235168,-0.11471539735794067,0.9997931122779846,0.6092039942741394,0.4829271137714386,0.11424677073955536,0.9999279379844666,0.49386724829673767,0.7665089964866638,0.07132018357515335,0.9066480398178101,0.7040320634841919,0.5477345585823059,0.19403576850891113,0.8959807753562927,0.45679980516433716,0.8364072442054749,0.2790309488773346,0.64210045337677,0.7119274139404297,0.4108051359653473,0.3388409912586212,0.6326117515563965,0.4711741805076599,0.8503644466400146,0.3012036979198456,0.5535238981246948,0.7110257148742676,0.40227290987968445,0.3559311032295227,0.6782934665679932,0.396185040473938,0.8671246767044067,0.2744983434677124,0.5765774846076965,0.7125459909439087,0.37875327467918396,0.40167006850242615,0.6165859699249268
39,0.3038731515407562,0.5920017957687378,0.41524791717529297,0.9826968908309937,0.2875438332557678,0.5914332270622253,0.3688451945781708,0.982126772403717,0.28788354992866516,0.5960603952407837,0.3689548969268799,0.9826297163963318,0.2883470058441162,0.6007486581802368,0.3690210282802582,0.9821386933326721,0.29164525866508484,0.5764676332473755,0.3846687376499176,0.9844807982444763,0.2939912676811218,0.5711199045181274,0.38475146889686584,0.9838395118713379,0.29491689801216125,0.5656114220619202,0.3846382796764374,0.9849241375923157,0.29857924580574036,0.6027405858039856,0.1972828060388565,0.9811819195747375,0.3024607002735138,0.550629198551178,0.27449631690979004,0.9852622747421265,0.31766217947006226,0.5998605489730835,0.36228665709495544,0.9826235175132751,0.3193800449371338,0.5860663056373596,0.38325944542884827,0.9818638563156128,0.352359801530838,0.6472809910774231,0.04386063665151596,0.9990474581718445,0.39654791355133057,0.4770244359970093,0.282105028629303,0.999373197555542,0.401064395904541,0.784582257270813,0.12445859611034393,0.644205629825592,0.48678213357925415,0.42229416966438293,0.3357507586479187,0.24236029386520386,0.3911433517932892,0.8058708310127258,0.33882299065589905,0.4261101186275482,0.534598708152771,0.3948100805282593,0.37867000699043274,0.16621893644332886,0.38733962178230286,0.8248680233955383,0.3406921923160553,0.37578973174095154,0.5474618673324585,0.3798673450946808,0.38819801807403564,0.1812460571527481,0.380630224943161,0.8146175742149353,0.34454429149627686,0.3708474934101105,0.5433372259140015,0.38543832302093506,0.36547398567199707,0.1757802963256836,0.3845406770706177,0.8070690035820007,0.34775030612945557,0.34820735454559326,0.5372745394706726,0.39382287859916687,0.373442679643631,0.1705072969198227,0.5653115510940552,0.5735093355178833,-0.09679435193538666,0.9997524619102478,0.607028603553772,0.483648419380188,0.09656207263469696,0.9999185800552368,0.49302229285240173,0.6779901385307312,0.06356848776340485,0.9045540690422058,0.6946229934692383,0.5701571106910706,0.17851439118385315,0.889750599861145,0.4490588307380676,0.8160210847854614,0.2597879469394684,0.6425027251243591,0.6825346946716309,0.6265153288841248,0.42418748140335083,0.6147289276123047,0.4632035791873932,0.8275483250617981,0.280007928609848,0.5561044812202454,0.6786199808120728,0.6558092832565308,0.46172794699668884,0.6707344055175781,0.38114723563194275,0.8543208241462708,0.30367934703826904,0.5623843669891357,0.700215220451355,0.6591220498085022,0.5610490441322327,0.589206337928772
40,0.3344044089317322,0.5574058294296265,0.39573797583580017,0.9842580556869507,0.3293866515159607,0.5534482598304749,0.35968226194381714,0.9837579131126404,0.3287515342235565,0.5572596788406372,0.35967084765434265,0.9841773509979248,0.32819753885269165,0.5612040758132935,0.35961514711380005,0.9837434887886047,0.33172884583473206,0.5412390828132629,0.37341567873954773,0.9858749508857727,0.33209317922592163,0.5362383127212524,0.37340909242630005,0.985284149646759,0.332542359828949,0.5311031937599182,0.37327075004577637,0.9862855076789856,0.33213070034980774,0.5622866749763489,0.2231498658657074,0.9829279184341431,0.33741918206214905,0.5186536908149719,0.28173041343688965,0.9866076707839966,0.3384789824485779,0.5670107007026672,0.35110312700271606,0.9842693209648132,0.3394777178764343,0.5543790459632874,0.36773714423179626,0.9836142659187317,0.3603220582008362,0.6312028169631958,0.06828286498785019,0.9991382360458374,0.39052361249923706,0.49119389057159424,0.2656450867652893,0.9994303584098816,0.4014351963996887,0.7778177261352539,0.1079716682434082,0.6688971519470215,0.41279059648513794,0.5869616270065308,0.210427924990654,0.2558784782886505,0.39167308807373047,0.8062038421630859,0.21444086730480194,0.44188955426216125,0.40425771474838257,0.7108448147773743,0.024963555857539177,0.1982245296239853,0.3888048529624939,0.8228130340576172,0.20959201455116272,0.3930444121360779,0.4060226380825043,0.6914228796958923,0.015413212589919567,0.2173384577035904,0.3824169635772705,0.8106533885002136,0.21677598357200623,0.38821741938591003,0.4003616273403168,0.7025913000106812,-0.01228330098092556,0.21413764357566833,0.38456156849861145,0.8022735714912415,0.22371730208396912,0.36647796630859375,0.40412265062332153,0.7339563965797424,0.010749501176178455,0.2073402851819992,0.5682968497276306,0.5619043111801147,-0.03246038034558296,0.9997767806053162,0.595105767250061,0.4990837872028351,0.03190257400274277,0.9999262690544128,0.622468888759613,0.5330856442451477,0.043435078114271164,0.9021106958389282,0.6920819282531738,0.5782860517501831,0.07781478762626648,0.8849179744720459,0.6114179491996765,0.6030288338661194,0.24688121676445007,0.6321812868118286,0.654062032699585,0.7230258584022522,0.20601478219032288,0.6272050142288208,0.6100401282310486,0.602837324142456,0.27194279432296753,0.5599091649055481,0.6396778225898743,0.7430495023727417,0.23159447312355042,0.6851773262023926,0.6101341247558594,0.632114052772522,0.31166893243789673,0.5475727319717407,0.6655915379524231,0.7745932340621948,0.3134233355522156,0.6027692556381226
41,0.32076674699783325,0.5646092891693115,0.35259518027305603,0.9855977892875671,0.31750816106796265,0.5645978450775146,0.321002334356308,0.9851969480514526,0.317648708820343,0.5680493116378784,0.3209843039512634,0.9855649471282959,0.31785327196121216,0.5715792179107666,0.32100075483322144,0.9851692914962769,0.316841185092926,0.5531216859817505,0.3283950686454773,0.9871081113815308,0.3155202269554138,0.5482504963874817,0.32832375168800354,0.9865708947181702,0.31517916917800903,0.5432586669921875,0.32810431718826294,0.9874786734580994,0.3248327970504761,0.5698367953300476,0.21035833656787872,0.9843416810035706,0.3219638466835022,0.5288521647453308,0.252226322889328,0.9878114461898804,0.32828643918037415,0.5690475106239319,0.31693679094314575,0.9855982661247253,0.3274157643318176,0.5569133758544922,0.3259226977825165,0.9850218892097473,0.36437922716140747,0.6211994886398315,0.13718825578689575,0.9992169141769409,0.36580193042755127,0.49278348684310913,0.16555523872375488,0.9994845390319824,0.409030020236969,0.7712152004241943,0.17982909083366394,0.6935204863548279,0.3932286500930786,0.5685631632804871,0.19342973828315735,0.2853991389274597,0.39179638028144836,0.8056427836418152,0.2415253221988678,0.4776095151901245,0.38138750195503235,0.6705345511436462,0.15392912924289703,0.2262347787618637,0.3888581395149231,0.8249930143356323,0.2364826500415802,0.4296981692314148,0.3802160918712616,0.6896711587905884,0.15447428822517395,0.24226988852024078,0.3824508488178253,0.812066912651062,0.23518529534339905,0.42549747228622437,0.3801283836364746,0.6981602311134338,0.04796815663576126,0.24069926142692566,0.3844636082649231,0.8026270270347595,0.24506428837776184,0.40245237946510315,0.3807353377342224,0.6958475708961487,0.12447520345449448,0.23476669192314148,0.5689073204994202,0.5397958755493164,0.05316763371229172,0.9997984766960144,0.5690097808837891,0.49888837337493896,-0.0538606122136116,0.9999334216117859,0.676144003868103,0.5228064656257629,0.162139430642128,0.8928164839744568,0.6921073794364929,0.5751063823699951,-0.09202543646097183,0.8949868083000183,0.6413767337799072,0.45814546942710876,0.37178555130958557,0.6547325253486633,0.6525706052780151,0.7652783989906311,0.02026819996535778,0.6616425514221191,0.6346049904823303,0.453445702791214,0.3988707959651947,0.5828343629837036,0.629045307636261,0.7669981122016907,0.04385439306497574,0.7102548480033875,0.64470374584198,0.4458746016025543,0.4669530391693115,0.5708878040313721,0.6597782373428345,0.8191994428634644,0.11422733962535858,0.637703001499176
42,0.3122439980506897,0.5725517868995667,0.31338995695114136,0.9867423176765442,0.3053074777126312,0.5717495679855347,0.28318995237350464,0.9864800572395325,0.30528968572616577,0.5748339891433716,0.28309276700019836,0.9867663979530334,0.3053310513496399,0.5779840350151062,0.28302130103111267,0.9864424467086792,0.3044878840446472,0.5604328513145447,0.2912346124649048,0.9881868362426758,0.30331888794898987,0.5556318759918213,0.29106730222702026,0.9876735806465149,0.3028784990310669,0.5506412386894226,0.2908138632774353,0.9885450601577759,0.31152084469795227,0.5737897753715515,0.1768430769443512,0.9856275916099548,0.30879178643226624,0.5342854261398315,0.2129712551832199,0.9888207316398621,0.3217414915561676,0.5748949646949768,0.2725209593772888,0.9867874979972839,0.3211432993412018,0.5643312335014343,0.28528207540512085,0.9862796664237976,0.36169201135635376,0.615064263343811,0.08586108684539795,0.9992865920066833,0.35862627625465393,0.4933629333972931,0.1922765076160431,0.9995216727256775,0.4058959484100342,0.7693201899528503,0.08467148244380951,0.7176390886306763,0.3971174359321594,0.5572791695594788,0.2849760353565216,0.28494104743003845,0.39440810680389404,0.8044820427894592,0.22401757538318634,0.5129603147506714,0.3923642635345459,0.6509872674942017,0.3614122271537781,0.23088881373405457,0.39199644327163696,0.8218783140182495,0.22217921912670135,0.4662802517414093,0.3935966193675995,0.6707198023796082,0.3830655515193939,0.24781732261180878,0.38383424282073975,0.8124761581420898,0.22421345114707947,0.4621289372444153,0.3914906978607178,0.6761348247528076,0.35503047704696655,0.24784043431282043,0.38653215765953064,0.8033401370048523,0.23111648857593536,0.43706223368644714,0.3909085988998413,0.6721917390823364,0.3540726602077484,0.24400871992111206,0.5678917765617371,0.5301287770271301,-0.017831094563007355,0.9998168349266052,0.5619288682937622,0.49772778153419495,0.01729435846209526,0.9999387860298157,0.6974018812179565,0.5527559518814087,0.009470059536397457,0.8947975039482117,0.6901926398277283,0.5774218440055847,-0.0029288101941347122,0.896364688873291,0.6477659940719604,0.509308934211731,0.32709071040153503,0.6560618281364441,0.6466275453567505,0.7330338954925537,0.14574205875396729,0.6724721193313599,0.6367586255073547,0.4962283670902252,0.38799792528152466,0.5792049169540405,0.6289941072463989,0.7371235489845276,0.17210787534713745,0.7126944065093994,0.6502319574356079,0.5293561816215515,0.40992432832717896,0.566290557384491,0.6525675654411316,0.8199157118797302,0.25838932394981384,0.6442620754241943
43,0.32027488946914673,0.5729362368583679,0.32666999101638794,0.9876700639724731,0.31307345628738403,0.5751460194587708,0.30351078510284424,0.9875866174697876,0.3135465383529663,0.5782164931297302,0.3035072982311249,0.9877771139144897,0.3140941858291626,0.5812835693359375,0.3034633994102478,0.9875398874282837,0.3115120232105255,0.5645744204521179,0.3022785782814026,0.9892032742500305,0.31026893854141235,0.560125470161438,0.3021727204322815,0.9887121319770813,0.30967506766319275,0.5553941130638123,0.30197423696517944,0.9895106554031372,0.3217065632343292,0.5789797902107239,0.21803709864616394,0.9868500828742981,0.3167761266231537,0.539454460144043,0.2129872739315033,0.98976731300354,0.3317338526248932,0.5767044425010681,0.2995109558105469,0.9878326058387756,0.3295291066169739,0.5665161609649658,0.2972944676876068,0.9874085187911987,0.3783389627933502,0.6140787601470947,0.12069141864776611,0.9993301033973694,0.3645746409893036,0.5187388062477112,0.19195714592933655,0.9995507597923279,0.41080307960510254,0.6922057271003723,0.12550637125968933,0.7107771039009094,0.4016106128692627,0.5850824117660522,0.15568339824676514,0.32266533374786377,0.4030398726463318,0.7530935406684875,0.20025160908699036,0.5095005035400391,0.3969429135322571,0.6602338552474976,0.03737974539399147,0.2723731994628906,0.4087289273738861,0.7713276147842407,0.17636249959468842,0.4626177251338959,0.40167006850242615,0.678095817565918,0.024777308106422424,0.284007728099823,0.3981435000896454,0.7693254947662354,0.17941726744174957,0.4586200714111328,0.39761197566986084,0.6828247904777527,0.006744064390659332,0.2845653295516968,0.39502307772636414,0.7579854130744934,0.1969519555568695,0.4321172833442688,0.3952869474887848,0.6807725429534912,0.028349226340651512,0.27701297402381897,0.5704123377799988,0.5333489775657654,-0.018967587500810623,0.9998314380645752,0.5663827657699585,0.502742350101471,0.018564842641353607,0.9999423623085022,0.6585115790367126,0.5777300000190735,-0.004563611000776291,0.9018096923828125,0.6775580644607544,0.5801876187324524,-0.0662941038608551,0.904651403427124,0.6164363026618958,0.6984462738037109,0.24469152092933655,0.678296685218811,0.6073964834213257,0.7280969023704529,0.11799059063196182,0.7001420259475708,0.6089175343513489,0.706229567527771,0.2771531045436859,0.5990656018257141,0.5924043655395508,0.7376763224601746,0.14551851153373718,0.7351553440093994,0.6045711040496826,0.77378249168396,0.3049411177635193,0.5803803205490112,0.5987082719802856,0.7976906299591064,0.20763500034809113,0.6695254445075989
44,0.32374754548072815,0.5749171376228333,0.14690610766410828,0.9884108901023865,0.3162744343280792,0.570853590965271,0.11611942201852798,0.988364577293396,0.3159629702568054,0.5707715153694153,0.11610665172338486,0.9884482622146606,0.3157556354999542,0.5705422759056091,0.11602935940027237,0.988296389579773,0.31695932149887085,0.5661117434501648,0.13941577076911926,0.9899097084999084,0.31671977043151855,0.5624943375587463,0.13938772678375244,0.9894485473632812,0.3169568181037903,0.5578711032867432,0.1392398178577423,0.9902466535568237,0.3208944797515869,0.5611876249313354,0.03814127296209335,0.9876639246940613,0.32173338532447815,0.5402860045433044,0.13994552195072174,0.9904775023460388,0.33263885974884033,0.5768011212348938,0.12643086910247803,0.988624095916748,0.3321262001991272,0.5683035254478455,0.15600480139255524,0.9883741736412048,0.35719186067581177,0.5888148546218872,-0.08234306424856186,0.9993858337402344,0.36729878187179565,0.5438511967658997,0.19580551981925964,0.9995754957199097,0.38151177763938904,0.7064573168754578,-0.06069321557879448,0.727427065372467,0.4067186713218689,0.6364173889160156,0.1867813766002655,0.34755823016166687,0.3873702585697174,0.7689575552940369,0.03261818736791611,0.49448513984680176,0.4008502960205078,0.7586727142333984,0.051882993429899216,0.2846683859825134,0.37167888879776,0.7682291269302368,0.007946738973259926,0.44682013988494873,0.39665818214416504,0.728490948677063,0.052388232201337814,0.293606162071228,0.3699367642402649,0.7641314268112183,0.023007316514849663,0.4416741728782654,0.39106348156929016,0.7335357069969177,0.015131521038711071,0.2961392402648926,0.37045449018478394,0.7587012648582458,0.041458696126937866,0.4176982045173645,0.3911218047142029,0.7608370184898376,0.03579530119895935,0.28850898146629333,0.5642626285552979,0.5242354273796082,-0.06575368344783783,0.9998463988304138,0.5676833391189575,0.5193370580673218,0.06564290821552277,0.9999465346336365,0.6828612089157104,0.5664033889770508,-0.10623888671398163,0.9095075130462646,0.6656749248504639,0.6456254124641418,0.004653728101402521,0.9011252522468567,0.6400588750839233,0.6691401600837708,0.2162739485502243,0.6883682012557983,0.6005496978759766,0.7785549163818359,0.15805235505104065,0.7007431387901306,0.6343764066696167,0.6711797118186951,0.25501391291618347,0.6064693927764893,0.5937268733978271,0.783947765827179,0.1911298781633377,0.7357321381568909,0.6183444857597351,0.7405318021774292,0.3119843602180481,0.5838331580162048,0.570976197719574,0.8479974269866943,0.2936158776283264,0.6712900400161743
45
46
47
48
49
50
51
52
53
54
55
56
57
58
59
60
61
62
63
64
65
66
67
68
69
70
71
72
73
74
75
76
77
78
79
80
81
82
83
84
85
86
87
88
89
90
91
92
93,0.5227283239364624,0.1861414611339569,0.15154263377189636,0.988177478313446,0.5272741913795471,0.1732352077960968,0.1677054762840271,0.9877187013626099,0.5301838517189026,0.17262643575668335,0.16767245531082153,0.9873436093330383,0.5331438779830933,0.1720981001853943,0.16749252378940582,0.9873199462890625,0.5173300504684448,0.17441296577453613,0.1691187173128128,0.9897652268409729,0.5138874650001526,0.17459511756896973,0.16901883482933044,0.9892683625221252,0.51044100522995,0.17478860914707184,0.16879791021347046,0.9903923869132996,0.5356408357620239,0.17935416102409363,0.24184736609458923,0.986656129360199,0.5016199350357056,0.1831357777118683,0.24695917963981628,0.9893770217895508,0.526942789554596,0.2028537541627884,0.18110765516757965,0.9887247085571289,0.5146752595901489,0.20405012369155884,0.18162816762924194,0.9885648488998413,0.5859599709510803,0.26920878887176514,0.19321878254413605,0.9990329146385193,0.44445282220840454,0.2827697694301605,0.2493986338376999,0.9994608759880066,0.6066867113113403,0.42487695813179016,0.10781966149806976,0.6575029492378235,0.4264701008796692,0.44068625569343567,0.10752226412296295,0.3302834928035736,0.5810974836349487,0.4365614950656891,-0.028872394934296608,0.44620922207832336,0.44217967987060547,0.43618524074554443,-0.10515604168176651,0.26528066396713257,0.5762006640434265,0.4425285756587982,-0.06288526952266693,0.403804212808609,0.452974408864975,0.4405447542667389,-0.14025050401687622,0.2757679224014282,0.5771260261535645,0.4259489178657532,-0.05467475578188896,0.39902541041374207,0.4520999789237976,0.42982912063598633,-0.1313977986574173,0.2769894301891327,0.5770351886749268,0.4225403964519501,-0.028124645352363586,0.3773331642150879,0.4513450264930725,0.4269244074821472,-0.10716758668422699,0.2679193317890167,0.5850396156311035,0.506343424320221,-0.008571814745664597,0.999847412109375,0.46834808588027954,0.5075203776359558,0.008189285174012184,0.9999474287033081,0.6773693561553955,0.574325680732727,-0.5721107125282288,0.9164258241653442,0.3744291663169861,0.5697190165519714,-0.5385977029800415,0.9092630743980408,0.6631065607070923,0.7863009572029114,-0.19464242458343506,0.7150844931602478,0.41277414560317993,0.7832129001617432,-0.22964175045490265,0.730033278465271,0.6433380842208862,0.8061239719390869,-0.1576765477657318,0.6331924200057983,0.43559274077415466,0.8097039461135864,-0.19904910027980804,0.7580766081809998,0.6831873655319214,0.8961917161941528,-0.3326646685600281,0.6192142367362976,0.374173641204834,0.8848764896392822,-0.3813287615776062,0.7024646997451782
94
95
96
97
98
99
100
101
102
103
104
105
106
107
108
109
