frame,NOSE.x,NOSE.y,NOSE.z,NOSE.v,LEFT_EYE_INNER.x,LEFT_EYE_INNER.y,LEFT_EYE_INNER.z,LEFT_EYE_INNER.v,LEFT_EYE.x,LEFT_EYE.y,LEFT_EYE.z,LEFT_EYE.v,LEFT_EYE_OUTER.x,LEFT_EYE_OUTER.y,LEFT_EYE_OUTER.z,LEFT_EYE_OUTER.v,RIGHT_EYE_INNER.x,RIGHT_EYE_INNER.y,RIGHT_EYE_INNER.z,RIGHT_EYE_INNER.v,RIGHT_EYE.x,RIGHT_EYE.y,RIGHT_EYE.z,RIGHT_EYE.v,RIGHT_EYE_OUTER.x,RIGHT_EYE_OUTER.y,RIGHT_EYE_OUTER.z,RIGHT_EYE_OUTER.v,LEFT_EAR.x,LEFT_EAR.y,LEFT_EAR.z,LEFT_EAR.v,RIGHT_EAR.x,RIGHT_EAR.y,RIGHT_EAR.z,RIGHT_EAR.v,MOUTH_LEFT.x,MOUTH_LEFT.y,MOUTH_LEFT.z,MOUTH_LEFT.v,MOUTH_RIGHT.x,MOUTH_RIGHT.y,MOUTH_RIGHT.z,MOUTH_RIGHT.v,LEFT_SHOULDER.x,LEFT_SHOULDER.y,LEFT_SHOULDER.z,LEFT_SHOULDER.v,RIGHT_SHOULDER.x,RIGHT_SHOULDER.y,RIGHT_SHOULDER.z,RIGHT_SHOULDER.v,LEFT_ELBOW.x,LEFT_ELBOW.y,LEFT_ELBOW.z,LEFT_ELBOW.v,RIGHT_ELBOW.x,RIGHT_ELBOW.y,RIGHT_ELBOW.z,RIGHT_ELBOW.v,LEFT_WRIST.x,LEFT_WRIST.y,LEFT_WRIST.z,LEFT_WRIST.v,RIGHT_WRIST.x,RIGHT_WRIST.y,RIGHT_WRIST.z,RIGHT_WRIST.v,LEFT_PINKY.x,LEFT_PINKY.y,LEFT_PINKY.z,LEFT_PINKY.v,RIGHT_PINKY.x,RIGHT_PINKY.y,RIGHT_PINKY.z,RIGHT_PINKY.v,LEFT_INDEX.x,LEFT_INDEX.y,LEFT_INDEX.z,LEFT_INDEX.v,RIGHT_INDEX.x,RIGHT_INDEX.y,RIGHT_INDEX.z,RIGHT_INDEX.v,LEFT_THUMB.x,LEFT_THUMB.y,LEFT_THUMB.z,LEFT_THUMB.v,RIGHT_THUMB.x,RIGHT_THUMB.y,RIGHT_THUMB.z,RIGHT_THUMB.v,LEFT_HIP.x,LEFT_HIP.y,LEFT_HIP.z,LEFT_HIP.v,RIGHT_HIP.x,RIGHT_HIP.y,RIGHT_HIP.z,RIGHT_HIP.v,LEFT_KNEE.x,LEFT_KNEE.y,LEFT_KNEE.z,LEFT_KNEE.v,RIGHT_KNEE.x,RIGHT_KNEE.y,RIGHT_KNEE.z,RIGHT_KNEE.v,LEFT_ANKLE.x,LEFT_ANKLE.y,LEFT_ANKLE.z,LEFT_ANKLE.v,RIGHT_ANKLE.x,RIGHT_ANKLE.y,RIGHT_ANKLE.z,RIGHT_ANKLE.v,LEFT_HEEL.x,LEFT_HEEL.y,LEFT_HEEL.z,LEFT_HEEL.v,RIGHT_HEEL.x,RIGHT_HEEL.y,RIGHT_HEEL.z,RIGHT_HEEL.v,LEFT_FOOT_INDEX.x,LEFT_FOOT_INDEX.y,LEFT_FOOT_INDEX.z,LEFT_FOOT_INDEX.v,RIGHT_FOOT_INDEX.x,RIGHT_FOOT_INDEX.y,RIGHT_FOOT_INDEX.z,RIGHT_FOOT_INDEX.v
0
1
2
3
4
5
6
7
8
9
10
11
12
13
14
15
16
17
18
19
20
21
22
23
24
25
26
27
28
29
30
31
32
33
34
35
36
37
38
39
40
41
42
43
44
45
46
47
48
49
50
51
52
53
54
55
56
57
58
59
60
61
62
63
64
65
66
67
68,0.45592379570007324,0.6066206693649292,0.06174428015947342,0.9998862743377686,0.4753949046134949,0.6191938519477844,0.07154480367898941,0.9998890161514282,0.47718435525894165,0.6265758872032166,0.07145901024341583,0.9999046325683594,0.47830820083618164,0.6342786550521851,0.07134746015071869,0.9999189376831055,0.47187209129333496,0.5973512530326843,0.08427149802446365,0.9998568296432495,0.46974968910217285,0.5895955562591553,0.08424117416143417,0.9998249411582947,0.4689715504646301,0.5823675394058228,0.0840759426355362,0.9998509883880615,0.4784788489341736,0.646916389465332,0.14421139657497406,0.9999059438705444,0.4681432843208313,0.5882888436317444,0.20426586270332336,0.9998272061347961,0.44657859206199646,0.6218379139900208,0.09076712280511856,0.999846339225769,0.4420204162597656,0.5945066809654236,0.10826660692691803,0.9995567202568054,0.41990146040916443,0.7137587666511536,0.04669032618403435,0.9999668598175049,0.40675991773605347,0.5493172407150269,0.26864874362945557,0.9987698197364807,0.387168288230896,0.6794610619544983,-0.13322795927524567,0.97303706407547,0.3184019923210144,0.49773576855659485,0.15410928428173065,0.29281243681907654,0.3811293840408325,0.5144844651222229,-0.2380487024784088,0.954206109046936,0.33513206243515015,0.43468302488327026,-0.08469118922948837,0.47713229060173035,0.3746379017829895,0.4768981635570526,-0.27231985330581665,0.919526219367981,0.3315322697162628,0.4103096127510071,-0.12944574654102325,0.5037091374397278,0.39100733399391174,0.47255051136016846,-0.262722909450531,0.9181077480316162,0.34652310609817505,0.41804856061935425,-0.14140690863132477,0.507132887840271,0.39190858602523804,0.4846322238445282,-0.23324331641197205,0.9112999439239502,0.34533971548080444,0.4348967671394348,-0.09908844530582428,0.5278040766716003,0.21998052299022675,0.6494300365447998,-0.0746389776468277,0.9982714653015137,0.21703186631202698,0.5591173768043518,0.07484360039234161,0.9964686632156372,0.25674042105674744,0.5144808292388916,-0.23466503620147705,0.7997875213623047,0.2027713507413864,0.40725454688072205,-0.10589531809091568,0.5317332148551941,0.09285074472427368,0.38648661971092224,-0.2724040746688843,0.5210057497024536,0.06657492369413376,0.40141406655311584,-0.1614169329404831,0.24852442741394043,0.05805259943008423,0.38801276683807373,-0.2724948525428772,0.6331967711448669,0.04324072599411011,0.42132166028022766,-0.16523149609565735,0.3819158375263214,0.05890066176652908,0.2879384756088257,-0.3330272138118744,0.450136661529541,0.020192652940750122,0.335990309715271,-0.22294461727142334,0.24217106401920319
69
70
71
72
73
74
75
76,0.4562148153781891,0.6477672457695007,0.13690483570098877,0.9998786449432373,0.4604165554046631,0.649819552898407,0.1425662636756897,0.9998843669891357,0.46010226011276245,0.6510787606239319,0.14254657924175262,0.9998965263366699,0.45969492197036743,0.6525252461433411,0.14247210323810577,0.999911904335022,0.4609219431877136,0.6438794732093811,0.15816758573055267,0.9998484253883362,0.4600676894187927,0.6434263586997986,0.15822674334049225,0.9998143911361694,0.45933637022972107,0.6429590582847595,0.15820637345314026,0.9998392462730408,0.45186668634414673,0.6632160544395447,0.1534966230392456,0.9999039769172668,0.45318976044654846,0.6571003794670105,0.22771017253398895,0.9998288750648499,0.4455902576446533,0.6550451517105103,0.1389104723930359,0.9998495578765869,0.4447917342185974,0.6524738073348999,0.16036266088485718,0.9995728731155396,0.3957545757293701,0.710723340511322,0.11090490967035294,0.9999697804450989,0.4202510416507721,0.6705061197280884,0.22677020728588104,0.9988702535629272,0.35273101925849915,0.7378720045089722,-0.011772136203944683,0.9741547703742981,0.4158879816532135,0.6426109075546265,0.1548118144273758,0.2963775098323822,0.37936294078826904,0.7220764756202698,-0.04059233516454697,0.951257050037384,0.42587828636169434,0.635265588760376,0.041522689163684845,0.4502238929271698,0.3875270187854767,0.719648540019989,-0.05666237324476242,0.9111122488975525,0.4298463463783264,0.635813295841217,0.03536878898739815,0.472895085811615,0.3924708962440491,0.7177596688270569,-0.026254642754793167,0.9089019894599915,0.43002405762672424,0.6370861530303955,0.03460666164755821,0.4756236970424652,0.38983890414237976,0.7152708172798157,-0.028641948476433754,0.8989906311035156,0.42726582288742065,0.6364364624023438,0.03812257573008537,0.4957180619239807,0.3545757532119751,0.5788272619247437,-0.05378355830907822,0.9984438419342041,0.3665260672569275,0.5730351805686951,0.0533146858215332,0.9968190789222717,0.39581796526908875,0.4970007538795471,-0.06754565984010696,0.8140310049057007,0.3753651976585388,0.5242090821266174,0.03658738732337952,0.533491313457489,0.395208477973938,0.41238948702812195,-0.1427670419216156,0.557041585445404,0.3835265636444092,0.4499679207801819,-0.05033716559410095,0.28525424003601074,0.3887820839881897,0.4022890031337738,-0.15027649700641632,0.6620294451713562,0.37653839588165283,0.4411781430244446,-0.05911264568567276,0.42250069975852966,0.4057663381099701,0.374698281288147,-0.17108450829982758,0.4950125515460968,0.4027937352657318,0.40994971990585327,-0.08156012743711472,0.29555049538612366
77
78
79
80
81
82
83
84
85
86
87
88
89,0.43336719274520874,0.5985250473022461,-0.09086157381534576,0.9998106360435486,0.4462498724460602,0.6265771985054016,-0.07934124767780304,0.9997917413711548,0.44428426027297974,0.6340377330780029,-0.07939736545085907,0.9998220801353455,0.4418971538543701,0.6403071880340576,-0.07950130850076675,0.999837338924408,0.4501514434814453,0.5856946110725403,-0.07378178834915161,0.9997726678848267,0.4472957253456116,0.5959789156913757,-0.07384682446718216,0.9997420310974121,0.44907134771347046,0.5873237252235413,-0.07399147003889084,0.9997755885124207,0.43373966217041016,0.644436776638031,0.010803456418216228,0.9998112320899963,0.4464709162712097,0.574391782283783,0.03344744071364403,0.9997789263725281,0.41887083649635315,0.6076451539993286,-0.0540250763297081,0.9997974038124084,0.41724953055381775,0.585334062576294,-0.04739741235971451,0.9995250105857849,0.3799157738685608,0.6551830768585205,-0.06017983704805374,0.9999368786811829,0.38983917236328125,0.5054479837417603,0.1272985190153122,0.9987726807594299,0.3297829031944275,0.644409716129303,-0.1640617400407791,0.9743989706039429,0.3111186921596527,0.44209301471710205,0.04498037323355675,0.32675233483314514,0.3569076955318451,0.47988182306289673,-0.1999165117740631,0.9504953622817993,0.3101671636104584,0.4351930618286133,-0.1452924907207489,0.4715045988559723,0.34917229413986206,0.44441622495651245,-0.22793936729431152,0.9104081392288208,0.3053242862224579,0.41632702946662903,-0.18289366364479065,0.4904934763908386,0.37078729271888733,0.43807661533355713,-0.20865675806999207,0.9082327485084534,0.315973699092865,0.43079814314842224,-0.18470314145088196,0.49377116560935974,0.37131404876708984,0.44852572679519653,-0.18986228108406067,0.8986364006996155,0.31283748149871826,0.44991832971572876,-0.15209540724754333,0.5120705366134644,0.17835675179958344,0.6016033291816711,-0.06908842921257019,0.9966834783554077,0.18432986736297607,0.5046054720878601,0.0693778321146965,0.9947920441627502,0.24038037657737732,0.48551246523857117,-0.2828839421272278,0.80644291639328,0.19204062223434448,0.3974161148071289,-0.1651095598936081,0.5397663116455078,0.11217151582241058,0.30564501881599426,-0.2418632060289383,0.5677298307418823,0.07398401945829391,0.5223348736763,-0.1635536104440689,0.30110248923301697,0.08603201061487198,0.30259549617767334,-0.23341360688209534,0.6717066764831543,0.06082385778427124,0.5542914867401123,-0.15850788354873657,0.44012293219566345,0.08355458825826645,0.18802085518836975,-0.27829501032829285,0.5014721155166626,0.0193231999874115,0.5025508403778076,-0.20420274138450623,0.3050929009914398
90
91
92
