frame,NOSE.x,NOSE.y,NOSE.z,NOSE.v,LEFT_EYE_INNER.x,LEFT_EYE_INNER.y,LEFT_EYE_INNER.z,LEFT_EYE_INNER.v,LEFT_EYE.x,LEFT_EYE.y,LEFT_EYE.z,LEFT_EYE.v,LEFT_EYE_OUTER.x,LEFT_EYE_OUTER.y,LEFT_EYE_OUTER.z,LEFT_EYE_OUTER.v,RIGHT_EYE_INNER.x,RIGHT_EYE_INNER.y,RIGHT_EYE_INNER.z,RIGHT_EYE_INNER.v,RIGHT_EYE.x,RIGHT_EYE.y,RIGHT_EYE.z,RIGHT_EYE.v,RIGHT_EYE_OUTER.x,RIGHT_EYE_OUTER.y,RIGHT_EYE_OUTER.z,RIGHT_EYE_OUTER.v,LEFT_EAR.x,LEFT_EAR.y,LEFT_EAR.z,LEFT_EAR.v,RIGHT_EAR.x,RIGHT_EAR.y,RIGHT_EAR.z,RIGHT_EAR.v,MOUTH_LEFT.x,MOUTH_LEFT.y,MOUTH_LEFT.z,MOUTH_LEFT.v,MOUTH_RIGHT.x,MOUTH_RIGHT.y,MOUTH_RIGHT.z,MOUTH_RIGHT.v,LEFT_SHOULDER.x,LEFT_SHOULDER.y,LEFT_SHOULDER.z,LEFT_SHOULDER.v,RIGHT_SHOULDER.x,RIGHT_SHOULDER.y,RIGHT_SHOULDER.z,RIGHT_SHOULDER.v,LEFT_ELBOW.x,LEFT_ELBOW.y,LEFT_ELBOW.z,LEFT_ELBOW.v,RIGHT_ELBOW.x,RIGHT_ELBOW.y,RIGHT_ELBOW.z,RIGHT_ELBOW.v,LEFT_WRIST.x,LEFT_WRIST.y,LEFT_WRIST.z,LEFT_WRIST.v,RIGHT_WRIST.x,RIGHT_WRIST.y,RIGHT_WRIST.z,RIGHT_WRIST.v,LEFT_PINKY.x,LEFT_PINKY.y,LEFT_PINKY.z,LEFT_PINKY.v,RIGHT_PINKY.x,RIGHT_PINKY.y,RIGHT_PINKY.z,RIGHT_PINKY.v,LEFT_INDEX.x,LEFT_INDEX.y,LEFT_INDEX.z,LEFT_INDEX.v,RIGHT_INDEX.x,RIGHT_INDEX.y,RIGHT_INDEX.z,RIGHT_INDEX.v,LEFT_THUMB.x,LEFT_THUMB.y,LEFT_THUMB.z,LEFT_THUMB.v,RIGHT_THUMB.x,RIGHT_THUMB.y,RIGHT_THUMB.z,RIGHT_THUMB.v,LEFT_HIP.x,LEFT_HIP.y,LEFT_HIP.z,LEFT_HIP.v,RIGHT_HIP.x,RIGHT_HIP.y,RIGHT_HIP.z,RIGHT_HIP.v,LEFT_KNEE.x,LEFT_KNEE.y,LEFT_KNEE.z,LEFT_KNEE.v,RIGHT_KNEE.x,RIGHT_KNEE.y,RIGHT_KNEE.z,RIGHT_KNEE.v,LEFT_ANKLE.x,LEFT_ANKLE.y,LEFT_ANKLE.z,LEFT_ANKLE.v,RIGHT_ANKLE.x,RIGHT_ANKLE.y,RIGHT_ANKLE.z,RIGHT_ANKLE.v,LEFT_HEEL.x,LEFT_HEEL.y,LEFT_HEEL.z,LEFT_HEEL.v,RIGHT_HEEL.x,RIGHT_HEEL.y,RIGHT_HEEL.z,RIGHT_HEEL.v,LEFT_FOOT_INDEX.x,LEFT_FOOT_INDEX.y,LEFT_FOOT_INDEX.z,LEFT_FOOT_INDEX.v,RIGHT_FOOT_INDEX.x,RIGHT_FOOT_INDEX.y,RIGHT_FOOT_INDEX.z,RIGHT_FOOT_INDEX.v
0
1
2
3
4
5
6
7
8
9
10
11
12
13
14
15
16
17
18
19
20,0.6953513622283936,0.27251094579696655,0.20047855377197266,0.9991530179977417,0.6964331269264221,0.2668101191520691,0.20627383887767792,0.9990246295928955,0.6934704780578613,0.2688056230545044,0.20623910427093506,0.9990430474281311,0.693570077419281,0.2682400345802307,0.20626673102378845,0.9992005228996277,0.6957247257232666,0.2670482397079468,0.20899958908557892,0.9988594055175781,0.6955816745758057,0.2667649984359741,0.20893268287181854,0.9987567663192749,0.695456862449646,0.26648449897766113,0.20878887176513672,0.9990171194076538,0.6993655562400818,0.26423466205596924,0.21715375781059265,0.99915611743927,0.6963269710540771,0.2645723223686218,0.2288805991411209,0.9986158609390259,0.6960731744766235,0.2764527201652527,0.20335693657398224,0.996849000453949,0.6955615282058716,0.27654075622558594,0.20641088485717773,0.9958588480949402,0.7088266611099243,0.28219228982925415,0.1615271419286728,0.9995344877243042,0.6906329989433289,0.28292977809906006,0.18961398303508759,0.9995392560958862,0.70064377784729,0.3049219250679016,0.09003086388111115,0.8193840980529785,0.6808809638023376,0.3125931918621063,0.06764303892850876,0.6533617377281189,0.6838445067405701,0.2970656454563141,0.07041098922491074,0.8375173211097717,0.6742045283317566,0.29276978969573975,-0.04988139122724533,0.7425772547721863,0.6790652871131897,0.29542142152786255,0.06530216336250305,0.794826328754425,0.6742590665817261,0.28723323345184326,-0.061764128506183624,0.6889157891273499,0.6813597083091736,0.293429434299469,0.07557307183742523,0.7750192880630493,0.6714181303977966,0.2863936126232147,-0.05522831529378891,0.6868014931678772,0.682442843914032,0.294808030128479,0.0746382623910904,0.7378783226013184,0.6727674007415771,0.2892528176307678,-0.05021898075938225,0.6687019467353821,0.7181692123413086,0.39159029722213745,-0.016011102125048637,0.9998108744621277,0.7043299078941345,0.38897132873535156,0.015893876552581787,0.9998107552528381,0.7388206124305725,0.4532219171524048,-0.09068469703197479,0.9376599788665771,0.7001397013664246,0.4381873309612274,-0.09017642587423325,0.9237715005874634,0.7265083193778992,0.5103386044502258,-0.21544723212718964,0.8528050780296326,0.72408527135849,0.5132052898406982,-0.234798863530159,0.8158751726150513,0.7262690663337708,0.5190325379371643,-0.23155717551708221,0.9160557985305786,0.7300298810005188,0.5250195264816284,-0.2508297860622406,0.866890013217926,0.7202572822570801,0.5371813178062439,-0.2717748284339905,0.8739141225814819,0.7231917977333069,0.544692873954773,-0.29055291414260864,0.8836190104484558
21,0.6963799595832825,0.2524074614048004,0.028306299820542336,0.9991657137870789,0.6965182423591614,0.2451763153076172,0.03822308033704758,0.9990342855453491,0.6961508989334106,0.24465447664260864,0.0381765142083168,0.999030351638794,0.697182834148407,0.2440997064113617,0.03819293901324272,0.9991973042488098,0.6946964859962463,0.24680307507514954,0.0331689715385437,0.9988797307014465,0.6934702396392822,0.2473801076412201,0.03311670944094658,0.9987664818763733,0.6921128034591675,0.24796290695667267,0.033001597970724106,0.9990403652191162,0.6995174288749695,0.2453944832086563,0.09463199973106384,0.9990781545639038,0.6895996928215027,0.2508673667907715,0.07017888128757477,0.998640239238739,0.6991820931434631,0.25837242603302,0.050872981548309326,0.9969834089279175,0.6959000825881958,0.2602696716785431,0.043430082499980927,0.9960939288139343,0.7189849615097046,0.27162590622901917,0.10086647421121597,0.9995184540748596,0.680004894733429,0.28153306245803833,0.06347189098596573,0.9995579719543457,0.7075539827346802,0.30493834614753723,0.035743843764066696,0.8156989216804504,0.6661705374717712,0.3141169548034668,-0.04715023189783096,0.6772593855857849,0.6827057600021362,0.29619312286376953,-0.03318601846694946,0.8430601954460144,0.6581248641014099,0.32175302505493164,-0.178304523229599,0.764609694480896,0.6761868596076965,0.29491889476776123,-0.04976688697934151,0.8015859723091125,0.653354287147522,0.3268500864505768,-0.20514047145843506,0.7148289084434509,0.6755810976028442,0.290437251329422,-0.04691397398710251,0.783574104309082,0.6560917496681213,0.32237452268600464,-0.20506778359413147,0.7130199074745178,0.6772670745849609,0.29189062118530273,-0.03395918756723404,0.7468966245651245,0.6591478586196899,0.32198506593704224,-0.181430846452713,0.6953966021537781,0.7252442836761475,0.38562649488449097,-0.001707666553556919,0.9997597336769104,0.6995785236358643,0.3881744146347046,0.0017605837201699615,0.9997640252113342,0.7298828959465027,0.4415014684200287,-0.1375909447669983,0.937960684299469,0.7014604806900024,0.43985265493392944,-0.13965368270874023,0.9228182435035706,0.7227196097373962,0.5208566784858704,-0.16585277020931244,0.8589461445808411,0.7241212129592896,0.5291885733604431,-0.1666104644536972,0.825391948223114,0.7218745946884155,0.5298165082931519,-0.17064568400382996,0.9173818826675415,0.7300090789794922,0.5391920804977417,-0.17064082622528076,0.8659021854400635,0.7198693752288818,0.5609385371208191,-0.23190096020698547,0.8809012770652771,0.7231887578964233,0.562663733959198,-0.23812058568000793,0.8883989453315735
22,0.6892381906509399,0.2536066174507141,0.07332814484834671,0.9991661310195923,0.6903915405273438,0.24643579125404358,0.07542097568511963,0.9990513324737549,0.6917048096656799,0.246104896068573,0.07539724558591843,0.99904465675354,0.6929172277450562,0.24574705958366394,0.0754222422838211,0.999200701713562,0.6885293126106262,0.2471928894519806,0.08034559339284897,0.9988840222358704,0.6878740787506104,0.2473195493221283,0.08029188215732574,0.9987682104110718,0.6871782541275024,0.24746976792812347,0.08018296957015991,0.9990497827529907,0.6962980031967163,0.24692192673683167,0.09258954226970673,0.9990363717079163,0.6884178519248962,0.24930301308631897,0.11339690536260605,0.9986484050750732,0.6926207542419434,0.25989478826522827,0.08090785890817642,0.9969689249992371,0.6898683309555054,0.2608641982078552,0.08658578246831894,0.9961507320404053,0.7174311280250549,0.2710188031196594,0.06282541900873184,0.9995207786560059,0.6818568110466003,0.28156375885009766,0.11072742938995361,0.999542236328125,0.6940957307815552,0.2945201098918915,-0.029204631224274635,0.8226810097694397,0.6618613600730896,0.3140915334224701,0.011759145185351372,0.6845805048942566,0.6708667874336243,0.2891489267349243,-0.08734629303216934,0.8455658555030823,0.6565083265304565,0.3163302540779114,-0.11359580606222153,0.7772073745727539,0.6659817695617676,0.2882920205593109,-0.1071917861700058,0.8032696843147278,0.6542325019836426,0.31825223565101624,-0.13428132236003876,0.7295052409172058,0.6660895347595215,0.2867184281349182,-0.09951315820217133,0.7859280705451965,0.6594660878181458,0.3115305006504059,-0.13434423506259918,0.7280386686325073,0.6673648357391357,0.28905338048934937,-0.08591465651988983,0.7494893074035645,0.6585854887962341,0.31497514247894287,-0.11678433418273926,0.7115171551704407,0.7234520316123962,0.3845023214817047,-0.021670306101441383,0.9997418522834778,0.6996690034866333,0.3889712989330292,0.02165914699435234,0.9997318387031555,0.714299201965332,0.44496139883995056,-0.11819060891866684,0.9335946440696716,0.7040298581123352,0.4590088725090027,-0.06365334242582321,0.9054765105247498,0.7228900790214539,0.5452820658683777,-0.15575559437274933,0.8631480932235718,0.725383460521698,0.5439643263816833,-0.09395167976617813,0.8239250183105469,0.7233230471611023,0.5590368509292603,-0.16315434873104095,0.9159845113754272,0.7318331599235535,0.5563015341758728,-0.09894578158855438,0.8592230081558228,0.7174600958824158,0.5734983682632446,-0.21653279662132263,0.8846977353096008,0.719571053981781,0.5684449672698975,-0.14737531542778015,0.8866791129112244
23,0.6804288625717163,0.2571989893913269,0.0030858111567795277,0.999226450920105,0.6829191446304321,0.25044742226600647,0.01069558598101139,0.9991220235824585,0.6851540207862854,0.2504485547542572,0.010672414675354958,0.9991124272346497,0.687114953994751,0.2499188929796219,0.010700913146138191,0.9992573857307434,0.6786499619483948,0.2511446177959442,0.01728826016187668,0.9989627003669739,0.6773937940597534,0.2510937452316284,0.017240818589925766,0.9988481402397156,0.6761246919631958,0.2509840726852417,0.01716003753244877,0.9991163015365601,0.6928249597549438,0.2500523030757904,0.0529581680893898,0.9990947842597961,0.6779404878616333,0.24956683814525604,0.0812423974275589,0.9987287521362305,0.6860137581825256,0.2625317871570587,0.01893485151231289,0.9971991777420044,0.6807277798652649,0.2620462477207184,0.026985982432961464,0.9964326024055481,0.7159695029258728,0.27249404788017273,0.03733828291296959,0.9995463490486145,0.670173168182373,0.2934264838695526,0.08906779438257217,0.9995400309562683,0.7038233876228333,0.2568957507610321,-0.09091092646121979,0.838787317276001,0.6488558650016785,0.3319851756095886,-0.01701206900179386,0.7106573581695557,0.6717814207077026,0.26731109619140625,-0.16318000853061676,0.8582344055175781,0.6529532074928284,0.31529858708381653,-0.14829733967781067,0.7970844507217407,0.668892502784729,0.2664118707180023,-0.18515264987945557,0.8159911036491394,0.6550944447517395,0.31183597445487976,-0.17207786440849304,0.7521001696586609,0.6692048907279968,0.2687058746814728,-0.17037293314933777,0.7995638847351074,0.6582940816879272,0.30628690123558044,-0.166426882147789,0.7507262825965881,0.6706997156143188,0.27236658334732056,-0.15908527374267578,0.7647821307182312,0.6568880081176758,0.31132733821868896,-0.14940407872200012,0.7348253726959229,0.7228230834007263,0.38817280530929565,-0.021308908239006996,0.9997503757476807,0.6933234930038452,0.3978942036628723,0.02130757085978985,0.9997319579124451,0.7216160297393799,0.4419889748096466,-0.17106038331985474,0.9333853125572205,0.6990771889686584,0.46287062764167786,-0.08624964952468872,0.8951998949050903,0.7240924835205078,0.5343589186668396,-0.1765776127576828,0.8654963374137878,0.7221542596817017,0.5446949601173401,-0.09151662141084671,0.8160415887832642,0.7252008318901062,0.5461414456367493,-0.18876555562019348,0.9157481789588928,0.728915810585022,0.5556300282478333,-0.09265507757663727,0.8439995646476746,0.7194175124168396,0.5634473562240601,-0.2307557761669159,0.8889626860618591,0.7144134640693665,0.5691601634025574,-0.14997532963752747,0.8790150284767151
24,0.6757526993751526,0.2644801735877991,-0.1318514049053192,0.9992420077323914,0.6787744164466858,0.2590377628803253,-0.12231826782226562,0.9991276264190674,0.6801185607910156,0.254507452249527,-0.1223352700471878,0.9990977644920349,0.6821084022521973,0.2535141408443451,-0.12233922630548477,0.999253511428833,0.6742764711380005,0.26159191131591797,-0.11545447260141373,0.9989590644836426,0.6733889579772949,0.2624153792858124,-0.11548154056072235,0.9987930059432983,0.6717148423194885,0.2635122239589691,-0.11554423719644547,0.9990954399108887,0.6868231296539307,0.2607899308204651,-0.06510896980762482,0.9990784525871277,0.6726698875427246,0.2690473794937134,-0.03349518030881882,0.9986055493354797,0.6817973852157593,0.2701685130596161,-0.11039582639932632,0.9973688125610352,0.6763574481010437,0.27173754572868347,-0.1011730283498764,0.9965698719024658,0.7157548666000366,0.27729150652885437,-0.05758513882756233,0.9995424747467041,0.6636042594909668,0.3109428286552429,-0.01766444370150566,0.9994226694107056,0.7085192203521729,0.2356799989938736,-0.2067512720823288,0.854303240776062,0.6423052549362183,0.35621073842048645,-0.1484767645597458,0.738192617893219,0.6742118000984192,0.25906121730804443,-0.2931734323501587,0.8696609735488892,0.6557745933532715,0.3158908784389496,-0.30264124274253845,0.8163061738014221,0.6701043248176575,0.26297906041145325,-0.32191914319992065,0.8243661522865295,0.6582232117652893,0.308639794588089,-0.33185869455337524,0.7744461894035339,0.670498251914978,0.2653864324092865,-0.3037968575954437,0.8088152408599854,0.6601030826568604,0.3039606511592865,-0.31994470953941345,0.7730371952056885,0.670993983745575,0.2683788537979126,-0.2891615927219391,0.7741972208023071,0.6593089699745178,0.3085136115550995,-0.3014450669288635,0.757084846496582,0.7209087610244751,0.3974859416484833,-0.015605626627802849,0.9997627139091492,0.6879037022590637,0.40976953506469727,0.015611683949828148,0.9997296929359436,0.7226992845535278,0.4339129626750946,-0.26614493131637573,0.933692455291748,0.6969013810157776,0.481045663356781,-0.08736418187618256,0.8876537680625916,0.7241842150688171,0.5147264003753662,-0.22331717610359192,0.862626850605011,0.7215186357498169,0.5570048093795776,-0.003750662785023451,0.8082824349403381,0.7245267033576965,0.5228658318519592,-0.22030720114707947,0.9145487546920776,0.7273620367050171,0.564021110534668,0.002951639937236905,0.8271712064743042,0.7224817872047424,0.5409707427024841,-0.2985994219779968,0.8914905786514282,0.7156741619110107,0.5756602883338928,-0.06891404837369919,0.8652735352516174
25,0.670289158821106,0.27234774827957153,-0.04058974236249924,0.9992619752883911,0.6741786003112793,0.2660275995731354,-0.037211284041404724,0.99915611743927,0.6758143901824951,0.26421353220939636,-0.0372081883251667,0.9991179704666138,0.6783688068389893,0.2636202573776245,-0.037195123732089996,0.9992647171020508,0.6710397601127625,0.26782381534576416,-0.025490131229162216,0.9989936351776123,0.6706883311271667,0.26835358142852783,-0.025517409667372704,0.9988093376159668,0.6695089340209961,0.2692447304725647,-0.025561701506376266,0.9991101026535034,0.6847940683364868,0.2683122754096985,-0.010236344300210476,0.9991012215614319,0.6727506518363953,0.2728997468948364,0.04303453490138054,0.9985546469688416,0.6763595342636108,0.2772960960865021,-0.030297422781586647,0.9975394606590271,0.6727808117866516,0.27858632802963257,-0.014853117987513542,0.9967572689056396,0.7147884368896484,0.28294822573661804,-0.016301918774843216,0.9995186924934387,0.6668609380722046,0.31502577662467957,0.05847781151533127,0.9993842244148254,0.7093226909637451,0.26003298163414,-0.13313372433185577,0.867939829826355,0.6452634930610657,0.35905009508132935,-0.043886274099349976,0.7615929841995239,0.6756211519241333,0.26858216524124146,-0.20323164761066437,0.8803211450576782,0.6562755107879639,0.31734800338745117,-0.17935052514076233,0.8336819410324097,0.6706302165985107,0.2689664959907532,-0.2283085137605667,0.8352272510528564,0.6594862341880798,0.3073788285255432,-0.20135650038719177,0.7948684692382812,0.6716561317443848,0.2706429660320282,-0.21352633833885193,0.8203436136245728,0.6610615253448486,0.30279383063316345,-0.19392156600952148,0.7934372425079346,0.6725085973739624,0.2734867036342621,-0.1990710347890854,0.7862693667411804,0.660760760307312,0.3070331811904907,-0.17957119643688202,0.7778964042663574,0.7208117246627808,0.4034354090690613,-0.024588221684098244,0.9997783303260803,0.690888524055481,0.41518908739089966,0.024666020646691322,0.9997395873069763,0.7253332734107971,0.43082597851753235,-0.26739004254341125,0.9390233159065247,0.6984898447990417,0.4860894978046417,0.0035010550636798143,0.8875406980514526,0.7151656150817871,0.4970442056655884,-0.24338755011558533,0.8699942231178284,0.7217573523521423,0.5553315281867981,0.06580733507871628,0.8145171403884888,0.7143946290016174,0.5021299719810486,-0.24053959548473358,0.9184393882751465,0.7350848913192749,0.5693333148956299,0.06995442509651184,0.826850950717926,0.705378532409668,0.5238445401191711,-0.30239611864089966,0.8989501595497131,0.7162083387374878,0.5776814818382263,0.01629078947007656,0.8640193343162537
26,0.6716791391372681,0.27389276027679443,0.013456478714942932,0.9991812705993652,0.6748166084289551,0.26620155572891235,0.006349681410938501,0.9990836977958679,0.6760574579238892,0.2648840546607971,0.006331619806587696,0.9990130066871643,0.6775419116020203,0.26423564553260803,0.006337989121675491,0.9991906881332397,0.6734800338745117,0.26743796467781067,0.023870717734098434,0.9988884329795837,0.6735835075378418,0.26765862107276917,0.023844759911298752,0.9986404180526733,0.6733299493789673,0.2681509256362915,0.023782577365636826,0.9990381002426147,0.6855746507644653,0.2667493522167206,-0.011770399287343025,0.999017596244812,0.6736396551132202,0.2718769907951355,0.07243280112743378,0.9983542561531067,0.6768036484718323,0.27904123067855835,0.010152580216526985,0.9973962306976318,0.6750317215919495,0.2800559103488922,0.032740820199251175,0.9965983629226685,0.705595850944519,0.28439614176750183,-0.058141954243183136,0.999524712562561,0.6880438923835754,0.3074862062931061,0.1166820079088211,0.9993895888328552,0.6838935017585754,0.2841130495071411,-0.08833671361207962,0.8752793073654175,0.667282223701477,0.3500784635543823,0.1361316740512848,0.7212479114532471,0.6643268465995789,0.29051390290260315,-0.02262122929096222,0.8653234839439392,0.6577314734458923,0.3360150456428528,0.08828699588775635,0.8110923767089844,0.6610727906227112,0.29136359691619873,-0.02767016924917698,0.8125040531158447,0.6570397019386292,0.3378918468952179,0.08859341591596603,0.7744996547698975,0.6624277234077454,0.2936421036720276,-0.020834213122725487,0.797164797782898,0.6590584516525269,0.33248886466026306,0.07950945198535919,0.7742503881454468,0.6643847823143005,0.2952340543270111,-0.01730850338935852,0.7622182369232178,0.6600545048713684,0.33234700560569763,0.08308077603578568,0.7592431902885437,0.7213769555091858,0.4018738865852356,-0.056446630507707596,0.9997920989990234,0.7070115208625793,0.4104093909263611,0.05637611821293831,0.999757707118988,0.7012535333633423,0.4586805999279022,-0.20091302692890167,0.9374948740005493,0.7011059522628784,0.4779526889324188,-0.005778699181973934,0.8523030877113342,0.7161267399787903,0.5156334042549133,-0.14270390570163727,0.8703733682632446,0.725542426109314,0.5520258545875549,-0.0057208784855902195,0.8124474287033081,0.7228517532348633,0.5108537077903748,-0.1366669237613678,0.9171178340911865,0.7355395555496216,0.5632486939430237,-0.006194773595780134,0.8259462118148804,0.7148561477661133,0.559232771396637,-0.14853128790855408,0.90207839012146,0.715380072593689,0.5748412013053894,-0.03121623769402504,0.8654256463050842
27,0.671232283115387,0.279562383890152,-0.011054334230720997,0.9992578029632568,0.672674298286438,0.2717893421649933,-0.008927596732974052,0.999169647693634,0.673849880695343,0.270602822303772,-0.008932115510106087,0.999104380607605,0.6759850978851318,0.2693309187889099,-0.008943743072450161,0.9992654323577881,0.6696561574935913,0.2750159800052643,0.004154689144343138,0.998991072177887,0.6692993640899658,0.2778238356113434,0.004126482177525759,0.9987637400627136,0.6688829660415649,0.27846887707710266,0.004088451620191336,0.9991263747215271,0.6808445453643799,0.27008482813835144,0.01256614364683628,0.9991108775138855,0.6705769896507263,0.2800006866455078,0.0719379335641861,0.9985023140907288,0.6766687631607056,0.2835168242454529,-0.003008125815540552,0.997648298740387,0.6731822490692139,0.2861349284648895,0.014097282662987709,0.99691241979599,0.7061526775360107,0.2842899560928345,-0.003630463033914566,0.9995645880699158,0.6756285429000854,0.31618866324424744,0.10119805485010147,0.9994075894355774,0.7018352746963501,0.24999861419200897,-0.09577596932649612,0.8868797421455383,0.6625887155532837,0.3587188124656677,0.09896884858608246,0.7437741756439209,0.6682016253471375,0.266851007938385,-0.09619583189487457,0.8714731931686401,0.6584335565567017,0.3284168839454651,-0.07261116802692413,0.826706051826477,0.6642974019050598,0.2733708620071411,-0.11028634011745453,0.8079197406768799,0.6581361889839172,0.33501163125038147,-0.09217322617769241,0.7909684181213379,0.6652002930641174,0.279599666595459,-0.09415846318006516,0.7923152446746826,0.6598781943321228,0.3296659290790558,-0.07962021976709366,0.7905075550079346,0.6676483154296875,0.2818637192249298,-0.08984348177909851,0.7575057148933411,0.6604322195053101,0.3229427635669708,-0.07255776226520538,0.774793267250061,0.7229653000831604,0.40147244930267334,-0.040275927633047104,0.9998117089271545,0.7066511511802673,0.41019579768180847,0.04022828862071037,0.9997778534889221,0.7095516920089722,0.4569600224494934,-0.2348831444978714,0.9416987895965576,0.7033761739730835,0.48337310552597046,0.018481183797121048,0.8482616543769836,0.7163389921188354,0.5165879726409912,-0.1733100861310959,0.8766538500785828,0.7271727919578552,0.5496330261230469,0.0912373811006546,0.8088434934616089,0.7207521200180054,0.5149902105331421,-0.16875003278255463,0.9205977916717529,0.7352590560913086,0.5593473315238953,0.09783514589071274,0.8181679248809814,0.7133029699325562,0.5548721551895142,-0.21261760592460632,0.9076865315437317,0.7201232314109802,0.5782672166824341,0.05750367045402527,0.857208788394928
28,0.673324465751648,0.2615329921245575,0.009715508669614792,0.9991587996482849,0.6753765344619751,0.2593589723110199,0.005540928803384304,0.9990410804748535,0.6802486181259155,0.25796836614608765,0.005521252751350403,0.99898761510849,0.6813912391662598,0.2589978575706482,0.005513607989996672,0.9991567134857178,0.67701256275177,0.2592281699180603,0.022400572896003723,0.9988903403282166,0.6775113344192505,0.2599860429763794,0.022365981712937355,0.9986526370048523,0.6780892610549927,0.2603128254413605,0.022288817912340164,0.9990325570106506,0.689048171043396,0.26563531160354614,-0.0040007540956139565,0.9988804459571838,0.6848050355911255,0.2665487825870514,0.07458649575710297,0.9981370568275452,0.6786501407623291,0.2665806710720062,0.007803665939718485,0.9973673820495605,0.6752415895462036,0.2719494104385376,0.02962101623415947,0.9964180588722229,0.7060818076133728,0.2882433831691742,-0.047535475343465805,0.9995068311691284,0.6826552152633667,0.3106357753276825,0.11516477912664413,0.9989549517631531,0.6956945061683655,0.2980208694934845,-0.08368951827287674,0.8909925818443298,0.6691956520080566,0.35083943605422974,0.10137860476970673,0.6987594366073608,0.6686127781867981,0.29432472586631775,-0.06610216945409775,0.8583061099052429,0.6622719764709473,0.3410038352012634,0.018858252093195915,0.7919193506240845,0.663827657699585,0.29526153206825256,-0.08036866784095764,0.7912150621414185,0.6615699529647827,0.3421722650527954,0.013335466384887695,0.7598397135734558,0.6649194359779358,0.29307982325553894,-0.07503539323806763,0.775541365146637,0.6626113653182983,0.33469000458717346,0.008032737299799919,0.7607488036155701,0.6674615144729614,0.2948719561100006,-0.06242441385984421,0.7370292544364929,0.6630579233169556,0.33380457758903503,0.014333714731037617,0.7417831420898438,0.7250574231147766,0.40109533071517944,-0.05005863308906555,0.9998176097869873,0.7097650170326233,0.4105047881603241,0.05006822198629379,0.9997526407241821,0.7106814384460449,0.45585450530052185,-0.22296324372291565,0.9432796239852905,0.7096754312515259,0.47944706678390503,0.08748846501111984,0.7947014570236206,0.708347499370575,0.5369177460670471,-0.21724581718444824,0.8855403065681458,0.7319951057434082,0.5493214130401611,0.16764262318611145,0.7787615656852722,0.712664008140564,0.5508717894554138,-0.2160993069410324,0.9255839586257935,0.7391088604927063,0.556779682636261,0.17447832226753235,0.7955660820007324,0.6938509345054626,0.5623708367347717,-0.27431997656822205,0.9145431518554688,0.7215943336486816,0.5703371167182922,0.1438063383102417,0.8307039737701416
29,0.6713964939117432,0.28138864040374756,-0.02270653285086155,0.9991986155509949,0.6735895872116089,0.27352163195610046,-0.026936182752251625,0.9990852475166321,0.6759227514266968,0.272305965423584,-0.026949461549520493,0.9990290403366089,0.677199125289917,0.2716778516769409,-0.026959026232361794,0.9991946816444397,0.6726685762405396,0.27487659454345703,-0.010791136883199215,0.9989404678344727,0.6726831793785095,0.27510061860084534,-0.010829919017851353,0.9986934661865234,0.6727239489555359,0.2753241956233978,-0.010891580954194069,0.9990670680999756,0.685393750667572,0.27165186405181885,-0.02513110265135765,0.9989435076713562,0.6796942949295044,0.275687038898468,0.04731861874461174,0.9981904625892639,0.6769967675209045,0.28561466932296753,-0.021243970841169357,0.997562825679779,0.674385666847229,0.2882224917411804,-0.00031580886570736766,0.9965844750404358,0.7061945199966431,0.2909092605113983,-0.04548767954111099,0.999480128288269,0.6819113492965698,0.3172389268875122,0.08707736432552338,0.9988333582878113,0.6966174244880676,0.2727302610874176,-0.09843765199184418,0.898813784122467,0.6679929494857788,0.34906432032585144,0.06014145165681839,0.7126811146736145,0.6698600053787231,0.2856019139289856,-0.05928780883550644,0.8466185927391052,0.6618808507919312,0.33242517709732056,-0.025987867265939713,0.7996964454650879,0.6638613343238831,0.2867985963821411,-0.06766761839389801,0.7646755576133728,0.6603525280952454,0.33076244592666626,-0.035300470888614655,0.7651552557945251,0.6653451919555664,0.2894558906555176,-0.060603898018598557,0.7488470077514648,0.661201000213623,0.32568272948265076,-0.03306011110544205,0.7663657665252686,0.668181300163269,0.29095789790153503,-0.055106304585933685,0.7104530334472656,0.6625673770904541,0.3269523084163666,-0.027984563261270523,0.7456466555595398,0.7260711789131165,0.4027707278728485,-0.043344154953956604,0.9998201131820679,0.7080067992210388,0.412848562002182,0.043348293751478195,0.9997424483299255,0.7084686756134033,0.45406869053840637,-0.20594282448291779,0.9444977641105652,0.7076606750488281,0.48085305094718933,0.05601637437939644,0.7862260341644287,0.7012683749198914,0.5435165762901306,-0.20958110690116882,0.8936054706573486,0.7365430593490601,0.5481374263763428,0.11397954076528549,0.7731634974479675,0.7068296074867249,0.5554702877998352,-0.2102179229259491,0.929962158203125,0.7437566518783569,0.5560690760612488,0.11848656088113785,0.7896628379821777,0.6884304881095886,0.5670351386070251,-0.26837414503097534,0.9206403493881226,0.7282342910766602,0.5722629427909851,0.08068491518497467,0.8217623233795166
30,0.6726612448692322,0.2794684171676636,-0.014860187657177448,0.9992682337760925,0.6741064786911011,0.27285459637641907,-0.01513267308473587,0.9991658329963684,0.6763917803764343,0.2720884382724762,-0.015135146677494049,0.9991138577461243,0.6776677370071411,0.27139562368392944,-0.015123622491955757,0.9992636442184448,0.6737982630729675,0.27340584993362427,-0.002995781134814024,0.9990357160568237,0.6739189028739929,0.27329114079475403,-0.0030411717016249895,0.9988100528717041,0.6739042401313782,0.273561030626297,-0.0030914852395653725,0.999150812625885,0.6857128143310547,0.2700478732585907,-0.0014895834028720856,0.99903804063797,0.6798558235168457,0.27430909872055054,0.05257011204957962,0.9983533024787903,0.6782214045524597,0.28393879532814026,-0.009519464336335659,0.9977906346321106,0.6757115125656128,0.2879713773727417,0.006097461096942425,0.9968916177749634,0.7063217163085938,0.2902238070964813,-0.023701541125774384,0.9994997382164001,0.676805853843689,0.3191922903060913,0.08377327024936676,0.9988486766815186,0.6964298486709595,0.26369863748550415,-0.09387363493442535,0.9057319164276123,0.6658767461776733,0.3671649694442749,0.004196753725409508,0.7325965166091919,0.6681312322616577,0.2699870765209198,-0.09110022336244583,0.8391090035438538,0.6604132652282715,0.33664602041244507,-0.13739503920078278,0.8145376443862915,0.6610668301582336,0.28129473328590393,-0.10512961447238922,0.7485284209251404,0.6590731739997864,0.32847750186920166,-0.15658749639987946,0.7803938984870911,0.6625714302062988,0.28523772954940796,-0.09688831865787506,0.732534646987915,0.6607169508934021,0.3226355314254761,-0.1496117264032364,0.7813544273376465,0.6657456159591675,0.2865562438964844,-0.08749422430992126,0.6939218044281006,0.6619973182678223,0.3262196481227875,-0.1380651891231537,0.7589238882064819,0.724964439868927,0.4021000862121582,-0.0407557375729084,0.9998358488082886,0.707123875617981,0.4137967526912689,0.04073113948106766,0.9997626543045044,0.6995474100112915,0.45371004939079285,-0.2263079434633255,0.9485049843788147,0.7034446001052856,0.4821663498878479,0.04561461880803108,0.7867811322212219,0.6969243288040161,0.546991765499115,-0.21753990650177002,0.9031360149383545,0.7350099682807922,0.5501304268836975,0.12245406955480576,0.775749146938324,0.7032835483551025,0.5615981817245483,-0.2169911116361618,0.9348564147949219,0.7421563267707825,0.5566126108169556,0.12903530895709991,0.7845117449760437,0.681562602519989,0.5690435171127319,-0.28345242142677307,0.9276520013809204,0.7268068194389343,0.5740824341773987,0.08704696595668793,0.8193491697311401
31,0.6727780103683472,0.27831190824508667,-0.02710895799100399,0.9991514086723328,0.6752058267593384,0.27259358763694763,-0.031757649034261703,0.9990611672401428,0.6768556237220764,0.2720086872577667,-0.03178030997514725,0.9990020990371704,0.6781063675880432,0.27116838097572327,-0.031770575791597366,0.9991845488548279,0.6741217374801636,0.27224913239479065,-0.01588429883122444,0.9988716244697571,0.6741516590118408,0.2716246247291565,-0.01590093784034252,0.9985674619674683,0.6741151809692383,0.2715681791305542,-0.015963919460773468,0.9989635944366455,0.685673713684082,0.26966559886932373,-0.031242435798048973,0.9989272356033325,0.679867148399353,0.2722301185131073,0.04033491760492325,0.9981102347373962,0.677272617816925,0.2821773290634155,-0.02565174736082554,0.9977807402610779,0.6751989126205444,0.2861229181289673,-0.005051552318036556,0.9967746138572693,0.7049333453178406,0.2900505065917969,-0.06576932221651077,0.9994858503341675,0.6773831844329834,0.31647101044654846,0.08542592823505402,0.9987453818321228,0.6906026601791382,0.29160162806510925,-0.17053209245204926,0.9115548133850098,0.6687067151069641,0.3494921922683716,0.08622227609157562,0.7131462693214417,0.6677377223968506,0.287906289100647,-0.24442622065544128,0.8444308042526245,0.664061427116394,0.33793124556541443,0.028613915666937828,0.7950292229652405,0.6624844074249268,0.2897513508796692,-0.2717578709125519,0.7596820592880249,0.6629137992858887,0.33788061141967773,0.022637957707047462,0.7602567076683044,0.6634547114372253,0.2898676097393036,-0.2652054727077484,0.7442759871482849,0.6631911993026733,0.33259451389312744,0.012387377209961414,0.7628195881843567,0.665524959564209,0.29170119762420654,-0.24376413226127625,0.7027676701545715,0.664021372795105,0.33284100890159607,0.022400951012969017,0.7391776442527771,0.7208725214004517,0.4019080102443695,-0.04937924072146416,0.9998241662979126,0.7061355113983154,0.4133806824684143,0.04941559582948685,0.9997158050537109,0.6946467757225037,0.4623086154460907,-0.18117253482341766,0.9491453170776367,0.695536732673645,0.4800715446472168,0.02078065648674965,0.7827702164649963,0.6983139514923096,0.5485326647758484,-0.1567274034023285,0.9103148579597473,0.7239353656768799,0.5553001165390015,0.06193719431757927,0.7811843156814575,0.702752411365509,0.5597276091575623,-0.15585866570472717,0.9369435906410217,0.7311072945594788,0.5639482140541077,0.06652674078941345,0.7859191298484802,0.6762506365776062,0.5720502734184265,-0.2193375825881958,0.9323987364768982,0.7137580513954163,0.5807148814201355,0.05525397136807442,0.8208976984024048
32,0.6727341413497925,0.2795019745826721,-0.028273385018110275,0.9991600513458252,0.6752146482467651,0.2725406587123871,-0.030919190496206284,0.9990850687026978,0.6767248511314392,0.2719678282737732,-0.03094411827623844,0.9990224242210388,0.6780592203140259,0.271324098110199,-0.03094417229294777,0.9992128610610962,0.6731809377670288,0.2729859948158264,-0.016823360696434975,0.9989000558853149,0.6728307008743286,0.2727934420108795,-0.0168470311909914,0.9985665082931519,0.6724494695663452,0.27283135056495667,-0.016894865781068802,0.9989700317382812,0.6849797964096069,0.27103742957115173,-0.02123326063156128,0.9989657402038574,0.6770037412643433,0.2736127972602844,0.04183005541563034,0.99814772605896,0.6771658062934875,0.28469422459602356,-0.02354348823428154,0.9979095458984375,0.6745039224624634,0.28663018345832825,-0.005298116710036993,0.9968928098678589,0.7030423283576965,0.29112184047698975,-0.051037080585956573,0.9994813203811646,0.6768880486488342,0.31478413939476013,0.08855678886175156,0.9986816644668579,0.6905828714370728,0.2876724302768707,-0.14926078915596008,0.9177778959274292,0.6679657697677612,0.343450129032135,0.08513040095567703,0.7153210043907166,0.6683192849159241,0.2879583537578583,-0.19498200714588165,0.8461686968803406,0.6636308431625366,0.33446168899536133,0.02301832102239132,0.7944732904434204,0.6632839441299438,0.28960224986076355,-0.21585705876350403,0.7624810338020325,0.6618619561195374,0.3332952857017517,0.01712644286453724,0.757207989692688,0.6641107797622681,0.2907455563545227,-0.20820768177509308,0.7474656105041504,0.6620194911956787,0.32820793986320496,0.011412279680371284,0.7608098387718201,0.6660208106040955,0.2924945652484894,-0.19302329421043396,0.703473687171936,0.6630687713623047,0.32910382747650146,0.018680529668927193,0.7363807559013367,0.7200207114219666,0.4015694260597229,-0.05036010593175888,0.99982750415802,0.7056037783622742,0.4121149778366089,0.05041186138987541,0.9997107982635498,0.6925405263900757,0.46315470337867737,-0.17740175127983093,0.94978928565979,0.6957413554191589,0.47985851764678955,0.015681494027376175,0.7811964750289917,0.6854547262191772,0.5560862421989441,-0.17533907294273376,0.9180020689964294,0.7247164249420166,0.5532389283180237,0.046255722641944885,0.7849259972572327,0.6889973878860474,0.5686303377151489,-0.1714448481798172,0.9412723779678345,0.7315694093704224,0.5606012940406799,0.04810093343257904,0.7871751189231873,0.6660758256912231,0.5726156234741211,-0.24529580771923065,0.9380929470062256,0.719098687171936,0.5819896459579468,0.014646442607045174,0.8216042518615723
33,0.6711069941520691,0.27509230375289917,0.003600462805479765,0.9989475011825562,0.6738260984420776,0.26848992705345154,-0.023616470396518707,0.9989572167396545,0.6746021509170532,0.26861223578453064,-0.023800555616617203,0.9989213347434998,0.6752456426620483,0.26871785521507263,-0.02390418015420437,0.999123752117157,0.673513650894165,0.2680153548717499,0.005037363618612289,0.9987354278564453,0.6735484004020691,0.2677602767944336,0.005041415803134441,0.9983636140823364,0.6729120016098022,0.26768702268600464,0.005010373890399933,0.9988202452659607,0.6817064881324768,0.2702712416648865,-0.037636756896972656,0.9986013770103455,0.6797493100166321,0.271098256111145,0.045802876353263855,0.9980944991111755,0.6734575629234314,0.28334060311317444,-0.008919546380639076,0.9974952340126038,0.6733217239379883,0.2834022641181946,0.010238292627036572,0.9964457154273987,0.6883950233459473,0.2994120419025421,-0.0964406356215477,0.9994612336158752,0.6891322731971741,0.3111391067504883,0.09063320606946945,0.998527467250824,0.6709516644477844,0.3109362721443176,-0.21461646258831024,0.9077314734458923,0.6756474375724792,0.33550596237182617,0.17718413472175598,0.6553241014480591,0.6612164378166199,0.300608366727829,-0.3077402114868164,0.8413814902305603,0.668607234954834,0.3331737220287323,0.23939308524131775,0.7372767925262451,0.6603411436080933,0.2963079810142517,-0.3354876637458801,0.7694737911224365,0.6689370274543762,0.33053234219551086,0.25668129324913025,0.7079713344573975,0.6617148518562317,0.29560601711273193,-0.3272102475166321,0.7545974850654602,0.6680244207382202,0.3259013891220093,0.24668915569782257,0.7127330303192139,0.6618906259536743,0.29919207096099854,-0.3072304129600525,0.7058640122413635,0.6670785546302795,0.3271991014480591,0.2370341569185257,0.6908950209617615,0.7119881510734558,0.4054829776287079,-0.06722897291183472,0.9998136758804321,0.711638331413269,0.41137298941612244,0.06728041917085648,0.9996556639671326,0.6864911913871765,0.4756892919540405,-0.1100238710641861,0.9472730159759521,0.6934868097305298,0.4790348708629608,0.05296672508120537,0.7550275921821594,0.6843994855880737,0.5631569027900696,-0.1224871501326561,0.9245883226394653,0.7247895002365112,0.5499633550643921,0.08353948593139648,0.7776998281478882,0.689680278301239,0.5752098560333252,-0.1236710399389267,0.9449740052223206,0.7374411821365356,0.558897852897644,0.08603110909461975,0.7853888273239136,0.6615258455276489,0.5751129984855652,-0.16524331271648407,0.9413875937461853,0.7191442251205444,0.5809401869773865,0.06199009343981743,0.8125032782554626
34,0.6694691181182861,0.27488887310028076,0.015653545036911964,0.9989612698554993,0.671406090259552,0.2682098150253296,0.0009025741601362824,0.9989725947380066,0.6719368100166321,0.26818546652793884,0.0008508440805599093,0.9989281892776489,0.672406792640686,0.26815828680992126,0.0008274022256955504,0.9991382360458374,0.6715067028999329,0.26790934801101685,0.018089482560753822,0.998774528503418,0.6718258857727051,0.2675729990005493,0.018078897148370743,0.9984114170074463,0.6718882918357849,0.2674409747123718,0.018033919855952263,0.9988651871681213,0.6773602366447449,0.26994115114212036,-0.016245249658823013,0.9986356496810913,0.677374541759491,0.27103281021118164,0.04787794500589371,0.998184084892273,0.6713764667510986,0.2824057340621948,0.006454914808273315,0.9975138306617737,0.6714134812355042,0.2829928994178772,0.023713992908596992,0.996527910232544,0.6871759295463562,0.29851076006889343,-0.06217188760638237,0.9994057416915894,0.6889079809188843,0.30872687697410583,0.08714577555656433,0.9984557032585144,0.6782758235931396,0.3151581585407257,-0.1522439569234848,0.9067751169204712,0.6733189821243286,0.3346880376338959,0.12534989416599274,0.6274198293685913,0.6618164777755737,0.30833423137664795,-0.225200816988945,0.8343709707260132,0.6620963215827942,0.33223196864128113,0.07345940917730331,0.7169442176818848,0.6595160961151123,0.3063661754131317,-0.25652045011520386,0.7656840682029724,0.6594518423080444,0.33137425780296326,0.07654551416635513,0.6895314455032349,0.6594712138175964,0.3042702078819275,-0.2394438236951828,0.7498115301132202,0.6593922972679138,0.3261655271053314,0.041034746915102005,0.6944321393966675,0.6604462265968323,0.3063599169254303,-0.22272267937660217,0.6993384957313538,0.6596822738647461,0.326744019985199,0.05372122675180435,0.6726493835449219,0.7070972919464111,0.40462419390678406,-0.058068327605724335,0.9997577667236328,0.7069448828697205,0.4098959267139435,0.058065902441740036,0.9995833039283752,0.6830266714096069,0.4744945168495178,-0.10143091529607773,0.9464259147644043,0.689968466758728,0.4787263572216034,0.04097282141447067,0.7456400394439697,0.6825883388519287,0.5621747374534607,-0.11454299837350845,0.9305111169815063,0.72272789478302,0.5490345358848572,0.021029110997915268,0.7848606705665588,0.6871361136436462,0.5754521489143372,-0.11712677776813507,0.9481483697891235,0.7376583814620972,0.5584754943847656,0.019273066893219948,0.7921786308288574,0.663053572177887,0.5756294131278992,-0.16008701920509338,0.9450957775115967,0.7175623178482056,0.5791738033294678,-0.008457767777144909,0.8168063759803772
35,0.6643457412719727,0.2747476398944855,-0.004142806399613619,0.9985488057136536,0.6681249737739563,0.268006294965744,-0.015932785347104073,0.9986580014228821,0.6689938306808472,0.2678804397583008,-0.01594991236925125,0.9986478686332703,0.6698298454284668,0.26779210567474365,-0.01594063639640808,0.9989280104637146,0.6679514050483704,0.26782211661338806,0.004459419287741184,0.9983835220336914,0.6684740781784058,0.26746124029159546,0.004450761713087559,0.9978620409965515,0.6689292788505554,0.2673274278640747,0.004403186030685902,0.998492419719696,0.6767308115959167,0.2704697847366333,-0.04011538624763489,0.9979822039604187,0.6756637096405029,0.2708386778831482,0.04787617176771164,0.9978663921356201,0.666570782661438,0.2818511426448822,-0.01329425536096096,0.9967613220214844,0.6661940813064575,0.2825852036476135,0.012481240555644035,0.9954994916915894,0.6890116333961487,0.2992478311061859,-0.09112675487995148,0.999337375164032,0.6810494661331177,0.31128638982772827,0.09325781464576721,0.9981852173805237,0.6790105104446411,0.30438849329948425,-0.21679441630840302,0.9059807658195496,0.6675480604171753,0.3358564078807831,0.17068924009799957,0.588253378868103,0.6635819673538208,0.3017352223396301,-0.30893078446388245,0.8263629078865051,0.6613035798072815,0.331601083278656,0.20202264189720154,0.6777846813201904,0.6612280607223511,0.30157485604286194,-0.33692115545272827,0.7657241225242615,0.6597541570663452,0.33035388588905334,0.21252691745758057,0.6528624892234802,0.6604838967323303,0.30018723011016846,-0.3284428119659424,0.7496218085289001,0.6599570512771606,0.3253757357597351,0.20258426666259766,0.6593077778816223,0.6617156267166138,0.3021950423717499,-0.30805930495262146,0.6936008334159851,0.66005539894104,0.32619941234588623,0.19860973954200745,0.6391503214836121,0.7088140249252319,0.40716975927352905,-0.06693107634782791,0.9997586607933044,0.706062376499176,0.41332530975341797,0.06698065996170044,0.9995705485343933,0.6816662549972534,0.47028738260269165,-0.1384633332490921,0.9436257481575012,0.6846447587013245,0.4782642126083374,0.027612140402197838,0.7221657037734985,0.6853171586990356,0.5629682540893555,-0.11646541208028793,0.9352936744689941,0.7201359272003174,0.5460279583930969,0.04821747913956642,0.7688626646995544,0.6929334402084351,0.5730497241020203,-0.12969981133937836,0.9503207206726074,0.7354675531387329,0.5581550598144531,0.04985995218157768,0.7826555967330933,0.6621502637863159,0.5774489641189575,-0.1909809410572052,0.9478470087051392,0.7131889462471008,0.5780514478683472,0.01982276700437069,0.8018558621406555
36,0.6664083003997803,0.27754583954811096,-0.02050086297094822,0.9980979561805725,0.6698859930038452,0.27143898606300354,-0.0277563389390707,0.9983500838279724,0.670813798904419,0.27141278982162476,-0.02777911350131035,0.9983301758766174,0.671762228012085,0.2714250385761261,-0.027770202606916428,0.998712956905365,0.6691868305206299,0.2712353467941284,-0.00998675636947155,0.9978886842727661,0.6694918274879456,0.27100974321365356,-0.009996147826313972,0.9971073269844055,0.6697602272033691,0.27089443802833557,-0.010038422420620918,0.9979856610298157,0.6784750819206238,0.2747442126274109,-0.03916805610060692,0.9976810812950134,0.6758460998535156,0.2740655839443207,0.040801241993904114,0.9972243309020996,0.669106125831604,0.28505754470825195,-0.02397932857275009,0.9963054656982422,0.6680713891983032,0.28514689207077026,-0.0008069135365076363,0.9946045279502869,0.692115306854248,0.30089953541755676,-0.09022396802902222,0.9993168711662292,0.6781474351882935,0.31485143303871155,0.09078037738800049,0.9980345964431763,0.6790682673454285,0.30169734358787537,-0.21710388362407684,0.9122358560562134,0.667518675327301,0.3358807861804962,0.14907492697238922,0.5574718713760376,0.6594748497009277,0.30147916078567505,-0.2940320372581482,0.8327022194862366,0.6606608629226685,0.33256521821022034,0.16029532253742218,0.6452909111976624,0.6569552421569824,0.30205193161964417,-0.3205220103263855,0.7760649919509888,0.6589808464050293,0.3327905535697937,0.16587893664836884,0.6221039295196533,0.6562052965164185,0.3022281229496002,-0.31187841296195984,0.760490357875824,0.6590926647186279,0.3294106125831604,0.15430393815040588,0.63007652759552,0.6572096347808838,0.30389589071273804,-0.29266804456710815,0.7023388147354126,0.659423828125,0.32950612902641296,0.1552007794380188,0.6115084290504456,0.7106482982635498,0.4079023003578186,-0.06323321163654327,0.9997662305831909,0.7028087377548218,0.41418084502220154,0.06328211724758148,0.9995797276496887,0.6839169263839722,0.4678093194961548,-0.1408858597278595,0.9422134160995483,0.6781570911407471,0.4778593182563782,-0.016487140208482742,0.7140483856201172,0.697807788848877,0.5484949946403503,-0.14254309237003326,0.9378583431243896,0.7018864154815674,0.5549474358558655,-0.006626063026487827,0.7712247967720032,0.7070025205612183,0.556692361831665,-0.14323769509792328,0.9492332935333252,0.7106856107711792,0.5661291480064392,-0.007635584566742182,0.7824998497962952,0.685411810874939,0.5760378241539001,-0.1906750500202179,0.9497698545455933,0.6805230379104614,0.5778742432594299,-0.052395641803741455,0.8049123287200928
37,0.6664395928382874,0.27945753931999207,-0.02037154510617256,0.9975127577781677,0.6699199676513672,0.2733466923236847,-0.02859104797244072,0.9978764057159424,0.6708791255950928,0.2733375132083893,-0.028610583394765854,0.9978934526443481,0.6718472242355347,0.2733677923679352,-0.028596054762601852,0.9984062314033508,0.6691303849220276,0.27319443225860596,-0.010687326081097126,0.9972508549690247,0.6693875193595886,0.2730465531349182,-0.010702135041356087,0.9962397813796997,0.6696305871009827,0.27295827865600586,-0.010744091123342514,0.997424304485321,0.6784571409225464,0.2767678499221802,-0.04464335739612579,0.9968563914299011,0.6755027770996094,0.27583521604537964,0.036107610911130905,0.9967063069343567,0.6690024733543396,0.2870505154132843,-0.025386709719896317,0.9952965974807739,0.6679139733314514,0.2869567573070526,-0.002022478496655822,0.9931222200393677,0.6909441351890564,0.3026038110256195,-0.09733213484287262,0.9992666840553284,0.6775903105735779,0.3156889081001282,0.08989561349153519,0.9976298213005066,0.6769980788230896,0.30373239517211914,-0.22354045510292053,0.9161079525947571,0.6672084927558899,0.33497387170791626,0.17281398177146912,0.5272574424743652,0.6585935354232788,0.30478334426879883,-0.30441227555274963,0.8368857502937317,0.6572664976119995,0.32957252860069275,0.2168697863817215,0.6211435198783875,0.6564548015594482,0.30582424998283386,-0.3307875096797943,0.7836238741874695,0.6549314260482788,0.33000871539115906,0.22879727184772491,0.6001721024513245,0.6555576324462891,0.3064357340335846,-0.32158511877059937,0.7682004570960999,0.6550577878952026,0.3276544213294983,0.21859917044639587,0.6095979809761047,0.6562749743461609,0.30798476934432983,-0.30288180708885193,0.707251787185669,0.6556425094604492,0.32714784145355225,0.2134557068347931,0.5931129455566406,0.7096648216247559,0.4101346433162689,-0.06420843303203583,0.9997584819793701,0.7022069692611694,0.41391733288764954,0.06426852196455002,0.9995586276054382,0.6746980547904968,0.46956297755241394,-0.12653988599777222,0.9399234056472778,0.6769306659698486,0.47758281230926514,-0.009091151878237724,0.7092539072036743,0.6864869594573975,0.5528010725975037,-0.12589620053768158,0.9421281218528748,0.710114598274231,0.5469139218330383,0.014836952090263367,0.7659898996353149,0.6926971077919006,0.5659310817718506,-0.12593185901641846,0.9515700340270996,0.7198038697242737,0.5523836016654968,0.014894056133925915,0.7786155343055725,0.6666578054428101,0.5783937573432922,-0.16938145458698273,0.9522952437400818,0.6857699155807495,0.5732720494270325,-0.048998959362506866,0.7981176972389221
38,0.6665450930595398,0.27893945574760437,0.04170918092131615,0.9976215362548828,0.6694719791412354,0.27334627509117126,0.02777543105185032,0.9979419708251953,0.6698018908500671,0.27302587032318115,0.02778417244553566,0.9979548454284668,0.6701813340187073,0.2731550931930542,0.027798261493444443,0.9984589219093323,0.6695123314857483,0.2727341055870056,0.04354593902826309,0.9973873496055603,0.6698755621910095,0.2726462781429291,0.04353613406419754,0.9964321255683899,0.6701197624206543,0.2725925147533417,0.04351406916975975,0.9975699186325073,0.6744993329048157,0.27718350291252136,-0.015786945819854736,0.9969884157180786,0.6757901310920715,0.2758621871471405,0.05550443008542061,0.9968856573104858,0.6676759719848633,0.2864079475402832,0.02852635644376278,0.9952151775360107,0.6677218079566956,0.28628504276275635,0.04879031702876091,0.9933694005012512,0.6729192733764648,0.3072246015071869,-0.07858259230852127,0.9992820620536804,0.6849603056907654,0.31498709321022034,0.10282491147518158,0.9975463151931763,0.6547952890396118,0.3284820020198822,-0.07601463794708252,0.9190856218338013,0.669606626033783,0.3365093171596527,0.16799692809581757,0.49411672353744507,0.651239275932312,0.32498350739479065,-0.004043585620820522,0.8123458623886108,0.6572901010513306,0.331149697303772,0.2056693583726883,0.5836580395698547,0.6515050530433655,0.3242834210395813,-0.00777906458824873,0.7548836469650269,0.6549646854400635,0.331177681684494,0.21645298600196838,0.5647369623184204,0.6522625684738159,0.32456380128860474,-0.007573091425001621,0.7392427325248718,0.6552220582962036,0.32865917682647705,0.2094990313053131,0.5739946365356445,0.6532602906227112,0.3259083032608032,-0.0015275129117071629,0.6823753118515015,0.6556822061538696,0.32865026593208313,0.20372553169727325,0.5600677728652954,0.6970757246017456,0.40969741344451904,-0.06299851834774017,0.9997327327728271,0.7025856375694275,0.4132259786128998,0.06305991113185883,0.999548077583313,0.6689885854721069,0.47575652599334717,-0.08709700405597687,0.9389458298683167,0.6806050539016724,0.4735358655452728,0.028940964490175247,0.6887476444244385,0.6871851682662964,0.5530270934104919,-0.09043772518634796,0.9442673921585083,0.7122271656990051,0.5414589047431946,0.03769724816083908,0.7599976062774658,0.6948700547218323,0.5646656155586243,-0.0900675356388092,0.9526068568229675,0.7220695614814758,0.5486964583396912,0.03790774568915367,0.7771812677383423,0.6674858331680298,0.5771328210830688,-0.10803516209125519,0.9520347118377686,0.6972874402999878,0.5659239888191223,0.025626543909311295,0.7900125980377197
39,0.6623131036758423,0.28693196177482605,-0.01809842698276043,0.9978258013725281,0.6648749113082886,0.280670702457428,-0.023381246253848076,0.9981101751327515,0.6657699942588806,0.28046715259552,-0.023389015346765518,0.9981159567832947,0.6666612029075623,0.2803753614425659,-0.023377638310194016,0.9985798001289368,0.6635860204696655,0.28068962693214417,-0.010366030037403107,0.9976092576980591,0.6634558439254761,0.2806546986103058,-0.010386886075139046,0.9967319965362549,0.6632881164550781,0.2806556820869446,-0.010407580994069576,0.99777752161026,0.6716440916061401,0.2834702730178833,-0.029202252626419067,0.9972458481788635,0.6672459840774536,0.28350841999053955,0.03026220202445984,0.9971523284912109,0.6649070978164673,0.294132262468338,-0.018752584233880043,0.9956297278404236,0.6632967591285706,0.2942151427268982,-0.001998952589929104,0.9939538836479187,0.6811787486076355,0.30868807435035706,-0.07432789355516434,0.999315083026886,0.6695383787155151,0.32595857977867126,0.07292333990335464,0.9977087378501892,0.6666299104690552,0.31073471903800964,-0.14764942228794098,0.9257605075836182,0.6533183455467224,0.35342636704444885,0.05063599348068237,0.5207411646842957,0.6535398364067078,0.317421019077301,-0.033730410039424896,0.8175891041755676,0.6482184529304504,0.34799715876579285,-0.03016483783721924,0.6061592698097229,0.6505928039550781,0.3210379183292389,-0.011942809447646141,0.7573975920677185,0.6467846035957336,0.34839683771133423,-0.039471812546253204,0.583609938621521,0.650775671005249,0.3214206397533417,-0.07442044466733932,0.7416605949401855,0.6477210521697998,0.34320852160453796,-0.04357578232884407,0.5927007794380188,0.6526062488555908,0.3251382112503052,-0.004782681353390217,0.6852639317512512,0.6487283706665039,0.34340837597846985,-0.03436781093478203,0.5780671834945679,0.6976442933082581,0.41637569665908813,-0.061447203159332275,0.9997450709342957,0.6955095529556274,0.4204860031604767,0.06140369921922684,0.999577522277832,0.6691802144050598,0.47826966643333435,-0.09311337769031525,0.9415560364723206,0.6825222373008728,0.47825825214385986,0.021546747535467148,0.6874565482139587,0.685104250907898,0.5553112030029297,-0.08500486612319946,0.9485282897949219,0.713807225227356,0.5450306534767151,0.039132095873355865,0.7690966725349426,0.692054808139801,0.5645474791526794,-0.08454900234937668,0.9555164575576782,0.7236984968185425,0.5525807738304138,0.03971220180392265,0.7857747673988342,0.6680046319961548,0.578471839427948,-0.1159755140542984,0.9551379680633545,0.7014152407646179,0.5691587328910828,0.014033501967787743,0.7966189384460449
40,0.663814902305603,0.2847769558429718,-0.0327918604016304,0.9979673624038696,0.6649059057235718,0.2805338501930237,-0.03808058053255081,0.9982144236564636,0.6670312285423279,0.2793942391872406,-0.03809460252523422,0.9982103705406189,0.6682884693145752,0.27843359112739563,-0.03808618709445,0.9986451864242554,0.6642841100692749,0.2804986238479614,-0.025753039866685867,0.997761070728302,0.6652301549911499,0.2786397337913513,-0.025770727545022964,0.9969435334205627,0.6651076078414917,0.27867111563682556,-0.025804493576288223,0.9979212284088135,0.6734156608581543,0.28180375695228577,-0.03947145864367485,0.9974172711372375,0.6686808466911316,0.2818250358104706,0.015116766095161438,0.9973453283309937,0.6664329767227173,0.2920835316181183,-0.031931933015584946,0.995942234992981,0.6648504137992859,0.2921763062477112,-0.016244951635599136,0.9944300651550293,0.6831550598144531,0.30860957503318787,-0.07832687348127365,0.9993432760238647,0.6690110564231873,0.32260847091674805,0.0668836385011673,0.9978606700897217,0.6696627140045166,0.32551509141921997,-0.14019230008125305,0.9298790097236633,0.6516757011413574,0.35188817977905273,0.06055552884936333,0.5349470376968384,0.6542565822601318,0.3301771879196167,-0.14969003200531006,0.8236445784568787,0.647821307182312,0.3651443421840668,-0.014449653215706348,0.617423951625824,0.6512640714645386,0.33289581537246704,-0.1591249257326126,0.7670409679412842,0.6466519236564636,0.371483713388443,-0.02246399223804474,0.5930272340774536,0.6509318351745605,0.33059316873550415,-0.16266316175460815,0.751702606678009,0.6480969190597534,0.3663486838340759,-0.03431384637951851,0.6023969054222107,0.6522780656814575,0.33149513602256775,-0.14190280437469482,0.6953546404838562,0.6488186120986938,0.3641815483570099,-0.02141917310655117,0.5882430076599121,0.699726402759552,0.4141750931739807,-0.06035538390278816,0.999743640422821,0.6944328546524048,0.41863125562667847,0.06033780053257942,0.9995816946029663,0.667339563369751,0.47865867614746094,-0.09235434234142303,0.9442862868309021,0.679883599281311,0.4770842492580414,0.027193468064069748,0.6820391416549683,0.6846956014633179,0.5558172464370728,-0.08286719024181366,0.9527604579925537,0.7112855911254883,0.5428588390350342,0.05124104768037796,0.7767969369888306,0.6927813291549683,0.5668641328811646,-0.0828733965754509,0.9586454629898071,0.7210654020309448,0.5507184267044067,0.052135664969682693,0.7929447889328003,0.6678402423858643,0.5784227848052979,-0.11842306703329086,0.9582151174545288,0.6992000937461853,0.5656095743179321,0.02450847253203392,0.8019585609436035
41,0.6626220345497131,0.29071807861328125,0.033166129142045975,0.9973315596580505,0.6618484258651733,0.28825613856315613,0.016977161169052124,0.9975224733352661,0.6621701121330261,0.2883315980434418,0.016963304951786995,0.9975391030311584,0.6621611714363098,0.28833940625190735,0.016975080594420433,0.9980189204216003,0.6627132296562195,0.2874465584754944,0.028634920716285706,0.9971020817756653,0.6650884747505188,0.28545284271240234,0.0286184661090374,0.9962409138679504,0.6654495596885681,0.28514763712882996,0.02857280895113945,0.9972912669181824,0.665444016456604,0.29244673252105713,-0.03317830339074135,0.996841549873352,0.6697362661361694,0.28666460514068604,0.022765332832932472,0.9967038631439209,0.6630438566207886,0.2976813018321991,0.017312150448560715,0.9953869581222534,0.6645776033401489,0.2969158887863159,0.031910836696624756,0.9940894246101379,0.6600504517555237,0.3209845721721649,-0.0885264128446579,0.9993788599967957,0.6829667687416077,0.32248249650001526,0.0643591657280922,0.9977795481681824,0.647767186164856,0.36547186970710754,-0.10634539276361465,0.933447003364563,0.6703460216522217,0.349816232919693,0.08334104716777802,0.49472707509994507,0.6367558240890503,0.381398469209671,-0.0722990483045578,0.8235135674476624,0.6610432863235474,0.35745909810066223,0.06346429884433746,0.5721861720085144,0.6343334317207336,0.38626334071159363,-0.08552886545658112,0.7669633626937866,0.659820556640625,0.3605448603630066,0.07026222348213196,0.5548760890960693,0.6339529156684875,0.38183197379112244,-0.08169499039649963,0.7528582215309143,0.6589095592498779,0.35721272230148315,0.059368886053562164,0.5635377168655396,0.636090099811554,0.38036200404167175,-0.06969917565584183,0.6960695385932922,0.6588176488876343,0.3562454283237457,0.05936563014984131,0.5505253076553345,0.6860241889953613,0.41892558336257935,-0.05957532674074173,0.9997097253799438,0.6998106837272644,0.4185353219509125,0.05956454202532768,0.9994713664054871,0.6668352484703064,0.49002692103385925,-0.05175011605024338,0.9471474289894104,0.6785311102867126,0.47527360916137695,0.0811787024140358,0.6677119731903076,0.6814969182014465,0.5623435378074646,-0.061377011239528656,0.956724226474762,0.7122538685798645,0.5330410599708557,0.08685334026813507,0.7785963416099548,0.6890072226524353,0.5695518255233765,-0.06232490390539169,0.9620720744132996,0.7215031385421753,0.5400528311729431,0.08667163550853729,0.7993655204772949,0.6659373641014099,0.5786610245704651,-0.0861775204539299,0.9607866406440735,0.7012937664985657,0.5550937652587891,0.07170642912387848,0.8004851937294006
42,0.6573396921157837,0.30010515451431274,-0.0024852559436112642,0.9972888827323914,0.6577714681625366,0.2936585545539856,-0.017451120540499687,0.9974489808082581,0.6579958200454712,0.29373934864997864,-0.017454423010349274,0.997468888759613,0.6581634283065796,0.2938385009765625,-0.01742534339427948,0.9978991150856018,0.6586753129959106,0.29252302646636963,-0.003377611981704831,0.996993899345398,0.6596793532371521,0.2916739881038666,-0.0033857873640954494,0.9961596727371216,0.6603427529335022,0.29107266664505005,-0.0034276400692760944,0.9971694946289062,0.6597645878791809,0.2947496175765991,-0.05200701951980591,0.9968711733818054,0.6652541160583496,0.290539413690567,0.01070399396121502,0.9965468645095825,0.6588999032974243,0.30621013045310974,-0.013914288952946663,0.9955887794494629,0.659969687461853,0.3050309419631958,0.003783097956329584,0.9943552613258362,0.6671963334083557,0.32489001750946045,-0.10083670914173126,0.9994335174560547,0.6781914830207825,0.32111406326293945,0.059659380465745926,0.9979512095451355,0.6481599807739258,0.375299870967865,-0.11835239082574844,0.9389209747314453,0.6541815996170044,0.3620997965335846,0.05292573571205139,0.48512691259384155,0.6314843893051147,0.40459439158439636,-0.10008283704519272,0.8365824818611145,0.6351863741874695,0.3984036445617676,-0.02115708217024803,0.5636321902275085,0.6271660923957825,0.4132932126522064,-0.11719202995300293,0.7829759120941162,0.6293944120407104,0.4060356318950653,-0.029509058222174644,0.5485571622848511,0.6238713264465332,0.41259729862213135,-0.11538757383823395,0.7700713872909546,0.6305936574935913,0.4052877724170685,-0.044015876948833466,0.5569179654121399,0.6270171403884888,0.41044673323631287,-0.0986996591091156,0.7153645157814026,0.6331804394721985,0.4031714200973511,-0.0294845812022686,0.5435212254524231,0.6864928007125854,0.42399775981903076,-0.05947067588567734,0.9996805191040039,0.695161759853363,0.4196300804615021,0.05944056436419487,0.9993988275527954,0.6655489802360535,0.4890434145927429,-0.06516508758068085,0.9487665295600891,0.6831409931182861,0.4772733449935913,0.08938731998205185,0.6506339907646179,0.6825684905052185,0.5633904933929443,-0.04718778282403946,0.9598269462585449,0.7150006890296936,0.5349557399749756,0.12194462865591049,0.7767687439918518,0.6905871629714966,0.5714194178581238,-0.045981280505657196,0.9648734331130981,0.7236239314079285,0.5421378016471863,0.12416064739227295,0.8032065629959106,0.6672593355178833,0.579888105392456,-0.07409045845270157,0.9624375700950623,0.7038325071334839,0.5561311841011047,0.10716438293457031,0.7969461679458618
43,0.6595498323440552,0.30412375926971436,-0.00828846637159586,0.9974653720855713,0.6605488061904907,0.2961187958717346,-0.018546050414443016,0.9976127743721008,0.6611464023590088,0.29582804441452026,-0.018539058044552803,0.9976030588150024,0.6616820096969604,0.295570433139801,-0.018515311181545258,0.9979901313781738,0.6605018973350525,0.2954786717891693,-0.005178771447390318,0.9972041249275208,0.6609677076339722,0.29483646154403687,-0.0052060773596167564,0.9964256286621094,0.6611903309822083,0.2942145764827728,-0.005261441692709923,0.9973779320716858,0.6645302176475525,0.29405689239501953,-0.0487845204770565,0.9970670342445374,0.665617823600769,0.2919667661190033,0.022215619683265686,0.9968051314353943,0.6614735722541809,0.30904391407966614,-0.012619547545909882,0.9958582520484924,0.6616612672805786,0.30842334032058716,0.0044641392305493355,0.994780421257019,0.6702286005020142,0.31900084018707275,-0.071468286216259,0.999477744102478,0.6736097931861877,0.32040277123451233,0.06813272833824158,0.9981421828269958,0.6559656858444214,0.35030609369277954,-0.08958591520786285,0.9433146119117737,0.6432377099990845,0.356924444437027,0.03857753798365593,0.5045424699783325,0.6389027833938599,0.36098363995552063,-0.06830112636089325,0.8376666903495789,0.6260064244270325,0.382921427488327,-0.06945875287055969,0.5793636441230774,0.6342664957046509,0.36479946970939636,-0.08053051680326462,0.782162606716156,0.6200271844863892,0.39041680097579956,-0.08149229735136032,0.5638169050216675,0.6340047717094421,0.3637326657772064,-0.07504834234714508,0.7694715857505798,0.6234806180000305,0.38701674342155457,-0.09240857511758804,0.5724007487297058,0.6363285183906555,0.3636946678161621,-0.06495322287082672,0.715094804763794,0.6262270212173462,0.3851647973060608,-0.0768793374300003,0.5596172213554382,0.6906118988990784,0.4205988943576813,-0.05807404965162277,0.9996944069862366,0.6904714703559875,0.41892412304878235,0.05795837193727493,0.9994389414787292,0.6682533025741577,0.48591670393943787,-0.0859164148569107,0.9511367678642273,0.6714061498641968,0.48190543055534363,0.0635543093085289,0.6244344115257263,0.6973550915718079,0.5597982406616211,-0.0804266482591629,0.9624804854393005,0.6945968866348267,0.5479471683502197,0.08582382649183273,0.7720115184783936,0.7081024050712585,0.5644089579582214,-0.0802050456404686,0.96674644947052,0.7078061103820801,0.5569523572921753,0.08661128580570221,0.8010773062705994,0.6881881952285767,0.5826534628868103,-0.10928566753864288,0.9645726680755615,0.6768116354942322,0.5707256197929382,0.05949563905596733,0.7942757606506348
44,0.6514710187911987,0.31761690974235535,-0.014929311349987984,0.9976588487625122,0.6528104543685913,0.3089686632156372,-0.026452939957380295,0.9977996945381165,0.653828501701355,0.3084659278392792,-0.026444878429174423,0.9977843761444092,0.6548281908035278,0.30799275636672974,-0.026450803503394127,0.9981285333633423,0.6520586013793945,0.30831488966941833,-0.00952226109802723,0.9974122047424316,0.652259886264801,0.30752864480018616,-0.009541187435388565,0.9966956377029419,0.6524665951728821,0.30672627687454224,-0.009575237520039082,0.997573733329773,0.6616771817207336,0.30359843373298645,-0.04932790249586105,0.9973112344741821,0.6556845903396606,0.2994256019592285,0.025855323299765587,0.997056245803833,0.6560675501823425,0.3208584189414978,-0.02017153613269329,0.9962091445922852,0.6550912261009216,0.32031571865081787,0.0014482556143775582,0.9952255487442017,0.6739214658737183,0.3229171633720398,-0.07650759816169739,0.9995173215866089,0.6675406694412231,0.32332512736320496,0.06934668868780136,0.9983054399490356,0.6582223773002625,0.35568109154701233,-0.10752179473638535,0.9466207027435303,0.6385204792022705,0.35561230778694153,0.02460511028766632,0.5109074115753174,0.6391332745552063,0.3577597439289093,-0.08412176370620728,0.8320875763893127,0.6257120370864868,0.3714863955974579,-0.09746021032333374,0.5789616703987122,0.6336165070533752,0.3594503104686737,-0.09675998985767365,0.7725381255149841,0.6212140321731567,0.3776431679725647,-0.11114057153463364,0.5638229846954346,0.6344311833381653,0.3559560775756836,-0.08957833051681519,0.7600293159484863,0.6245601773262024,0.37652701139450073,-0.11739473044872284,0.5721129775047302,0.6367026567459106,0.3567090630531311,-0.07997851073741913,0.7038349509239197,0.6267814636230469,0.37325671315193176,-0.10376153886318207,0.560390293598175,0.6917021870613098,0.4228014647960663,-0.056690335273742676,0.9997090697288513,0.6877988576889038,0.421786904335022,0.056605540215969086,0.9994687438011169,0.6689515113830566,0.48544976115226746,-0.1075073629617691,0.9543658494949341,0.6719138026237488,0.4801703691482544,0.05077945441007614,0.616413414478302,0.6867144107818604,0.5588920712471008,-0.09621588885784149,0.9655805826187134,0.7042810320854187,0.5316356420516968,0.09132648259401321,0.7746426463127136,0.6974623799324036,0.5649052262306213,-0.09512575715780258,0.9693389534950256,0.7129472494125366,0.5372779369354248,0.09523317217826843,0.8047935962677002,0.6725000143051147,0.5816009640693665,-0.12857308983802795,0.9670329093933105,0.6986657977104187,0.5547244548797607,0.07406000792980194,0.7974908947944641
45,0.6542767286300659,0.3069462776184082,-0.018024632707238197,0.9978618025779724,0.6539693474769592,0.29968395829200745,-0.025029759854078293,0.9979942440986633,0.6548320055007935,0.2992752492427826,-0.025036761537194252,0.9979730248451233,0.6550018191337585,0.29891645908355713,-0.025060031563043594,0.9982876181602478,0.6540415287017822,0.29926592111587524,-0.010152832604944706,0.9976358413696289,0.6543467044830322,0.29861563444137573,-0.010176138021051884,0.9969704747200012,0.6545044183731079,0.2981480360031128,-0.010200058110058308,0.9977709054946899,0.6606765389442444,0.2975855767726898,-0.03931562229990959,0.9975594282150269,0.65804523229599,0.29547491669654846,0.028527945280075073,0.9973029494285583,0.6580632328987122,0.31177952885627747,-0.019560208544135094,0.9965669512748718,0.6576490998268127,0.31140074133872986,-0.0004069396236445755,0.9956499338150024,0.6832082867622375,0.32034632563591003,-0.061976294964551926,0.9995533227920532,0.6603805422782898,0.3268650472164154,0.06564103066921234,0.9983975887298584,0.6793798208236694,0.336593896150589,-0.1481056809425354,0.9500671625137329,0.6363965272903442,0.3553270995616913,0.0005888236337341368,0.5089277625083923,0.6542466282844543,0.3325275480747223,-0.19922171533107758,0.8308817148208618,0.6194348335266113,0.36679160594940186,-0.1362246721982956,0.5640756487846375,0.6470922827720642,0.3338184952735901,-0.22406093776226044,0.7686307430267334,0.6132758855819702,0.37126070261001587,-0.15459439158439636,0.5512787699699402,0.64585280418396,0.3304367661476135,-0.21252243220806122,0.7562912106513977,0.6160141825675964,0.36862924695014954,-0.16199082136154175,0.5604896545410156,0.6482936143875122,0.33162081241607666,-0.19615617394447327,0.6965469717979431,0.6188305616378784,0.36719799041748047,-0.14444097876548767,0.5499218702316284,0.6930340528488159,0.421945184469223,-0.047568850219249725,0.9997358322143555,0.6809858679771423,0.42070600390434265,0.04755217581987381,0.9995068907737732,0.6796504259109497,0.4763621985912323,-0.1853795200586319,0.9567626714706421,0.6752856969833374,0.4810466468334198,0.06750459969043732,0.5987470746040344,0.6861201524734497,0.5555582046508789,-0.1954466998577118,0.9679907560348511,0.7057446837425232,0.5315183401107788,0.15381558239459991,0.7578738331794739,0.6977825164794922,0.5647113919258118,-0.19784918427467346,0.970824658870697,0.7161146402359009,0.5366595387458801,0.16091738641262054,0.7923394441604614,0.6716257929801941,0.5811833143234253,-0.2668694853782654,0.9691332578659058,0.7019078135490417,0.5560723543167114,0.12375508248806,0.784977912902832
46,0.6547057032585144,0.29656097292900085,0.14278186857700348,0.9980234503746033,0.6560773849487305,0.2918011248111725,0.12844716012477875,0.9981566071510315,0.6563573479652405,0.2919789254665375,0.12844325602054596,0.9981374740600586,0.6561051607131958,0.2923406660556793,0.12842994928359985,0.9984075427055359,0.655209481716156,0.2893165946006775,0.1374286413192749,0.9978227615356445,0.6555487513542175,0.2892914414405823,0.1374625861644745,0.9972163438796997,0.6553783416748047,0.28923240303993225,0.13744951784610748,0.9979298114776611,0.6606590151786804,0.28927651047706604,0.08657349646091461,0.9977905750274658,0.6594738960266113,0.28721413016319275,0.12770682573318481,0.9975380301475525,0.6592692732810974,0.3013955354690552,0.13054487109184265,0.9968693256378174,0.6594477295875549,0.3017842471599579,0.1421770304441452,0.9960314035415649,0.669568657875061,0.31622985005378723,0.02214678004384041,0.9995942115783691,0.6787421703338623,0.3121790587902069,0.11994494497776031,0.9985185265541077,0.6445151567459106,0.3341263234615326,-0.059539616107940674,0.9547353982925415,0.6852234601974487,0.3242516815662384,0.020848345011472702,0.5325611233711243,0.6404939889907837,0.3212724030017853,-0.07752777636051178,0.8389596343040466,0.6901882886886597,0.32299646735191345,-0.09265725314617157,0.54210364818573,0.6394089460372925,0.3266944885253906,-0.09606947004795074,0.7729899883270264,0.6908634901046753,0.328569620847702,-0.10872337967157364,0.5217579007148743,0.6409805417060852,0.32686373591423035,-0.08696854114532471,0.7613227963447571,0.6934341788291931,0.3208778500556946,-0.10329713672399521,0.5281772613525391,0.641871452331543,0.3291601538658142,-0.0748097226023674,0.7027692198753357,0.6933766603469849,0.32085949182510376,-0.09372903406620026,0.5195316672325134,0.688573956489563,0.4074300527572632,-0.04255228489637375,0.9997388124465942,0.6857910752296448,0.40966740250587463,0.04257800430059433,0.9995099306106567,0.6874547600746155,0.47272616624832153,-0.1392100304365158,0.9601095914840698,0.6736587285995483,0.4828924834728241,-0.01826022006571293,0.6324844360351562,0.7014653086662292,0.5454858541488647,-0.15419559180736542,0.9678714871406555,0.7028919458389282,0.5421334505081177,-0.051167916506528854,0.7748137712478638,0.7083083391189575,0.5531793236732483,-0.15911802649497986,0.9638727903366089,0.7117652893066406,0.5532808899879456,-0.05778665468096733,0.8068186044692993,0.6933273673057556,0.5778960585594177,-0.20408952236175537,0.9658941030502319,0.6918829083442688,0.5667932629585266,-0.10101844370365143,0.794502854347229
47,0.6604092717170715,0.2962106764316559,0.04464111104607582,0.9981844425201416,0.66201251745224,0.2898147404193878,0.07818171381950378,0.9983127117156982,0.6618701815605164,0.2902701497077942,0.07801559567451477,0.9982906579971313,0.666035532951355,0.2916863262653351,0.07759558409452438,0.9985419511795044,0.6606161594390869,0.2909906804561615,0.0697515681385994,0.9979975819587708,0.6598352193832397,0.2909821569919586,0.06974092125892639,0.9974324703216553,0.6589773297309875,0.29092031717300415,0.06977372616529465,0.9980992078781128,0.6720844507217407,0.29011011123657227,0.02141745388507843,0.9979833364486694,0.6626697778701782,0.2901862859725952,0.07568010687828064,0.9977319240570068,0.6657126545906067,0.30122172832489014,0.11260805279016495,0.997105598449707,0.6635788679122925,0.3017180263996124,0.08413109928369522,0.9962920546531677,0.6869277954101562,0.3161158561706543,-0.016620483249425888,0.9996097087860107,0.6704538464546204,0.31732991337776184,0.1022050604224205,0.9985237121582031,0.6927703022956848,0.3428029417991638,-0.09196881204843521,0.9562540650367737,0.6577044129371643,0.33162829279899597,0.03878571838140488,0.557661771774292,0.6730712652206421,0.3241018056869507,-0.12615029513835907,0.8403293490409851,0.6443253755569458,0.30908843874931335,-0.056869544088840485,0.5718254446983337,0.6684896349906921,0.3295535743236542,-0.14295916259288788,0.7715239524841309,0.6388704776763916,0.3028324842453003,-0.07037351280450821,0.5471009016036987,0.6682983636856079,0.32687291502952576,-0.1299062967300415,0.7588486671447754,0.6391404271125793,0.29952746629714966,-0.07125891745090485,0.552403450012207,0.6695394515991211,0.32904666662216187,-0.1222601905465126,0.7005466818809509,0.6415770053863525,0.3024848699569702,-0.06095480918884277,0.5440956950187683,0.6897486448287964,0.40822330117225647,-0.04429353028535843,0.9997320175170898,0.6829479336738586,0.4106517732143402,0.04425501823425293,0.9995064735412598,0.6682183742523193,0.4796140491962433,-0.09969037026166916,0.9604445099830627,0.6777582168579102,0.4829903841018677,0.008905025199055672,0.6244409084320068,0.682098388671875,0.5527498126029968,-0.11448826640844345,0.9697049260139465,0.714797854423523,0.5434176921844482,0.02204897068440914,0.7692393064498901,0.6916502118110657,0.5660582780838013,-0.11672220379114151,0.9649181365966797,0.727082371711731,0.5530627965927124,0.0212765671312809,0.800851047039032,0.6648799180984497,0.581243097782135,-0.15734297037124634,0.9674720764160156,0.7063899636268616,0.5704935789108276,-0.010892907157540321,0.7885223031044006
48,0.6637268662452698,0.28561726212501526,-0.04669729247689247,0.9978845119476318,0.6662194728851318,0.2813071012496948,-0.042161986231803894,0.9980841875076294,0.6668460369110107,0.28150680661201477,-0.04223070293664932,0.9980747699737549,0.6691769361495972,0.28136810660362244,-0.0423121377825737,0.9984068274497986,0.6638611555099487,0.281728059053421,-0.032614655792713165,0.9975724220275879,0.6631051301956177,0.28115877509117126,-0.0326063372194767,0.9967813491821289,0.6622817516326904,0.2811550796031952,-0.032602857798337936,0.9974424839019775,0.673521876335144,0.2828918397426605,-0.014696885831654072,0.9980254173278809,0.6632202863693237,0.28485116362571716,0.030911743640899658,0.9962576031684875,0.6681615710258484,0.2921160161495209,-0.03237106651067734,0.9972133040428162,0.6651447415351868,0.2916523516178131,-0.02118958905339241,0.9961081147193909,0.6920139789581299,0.3133883476257324,-0.02606554701924324,0.9996386766433716,0.6611829400062561,0.3171655833721161,0.0920034646987915,0.9982866644859314,0.7046011686325073,0.34211570024490356,-0.13459959626197815,0.960227906703949,0.658125102519989,0.34264567494392395,0.04404883831739426,0.5270043611526489,0.6718094944953918,0.3419666290283203,-0.21208056807518005,0.8540468811988831,0.6572499871253967,0.33036792278289795,-0.07470418512821198,0.5623207688331604,0.6653204560279846,0.34322500228881836,-0.24087759852409363,0.7902768850326538,0.6562890410423279,0.33127784729003906,-0.09326599538326263,0.5435699820518494,0.6636294722557068,0.3422355651855469,-0.23258325457572937,0.7787548303604126,0.6559913158416748,0.32498592138290405,-0.10137548297643661,0.5490245223045349,0.6660893559455872,0.3410464823246002,-0.20982077717781067,0.7229839563369751,0.6566766500473022,0.32354918122291565,-0.08193599432706833,0.5364564061164856,0.690894603729248,0.4057687222957611,-0.046875275671482086,0.9997378587722778,0.6749358177185059,0.4102010428905487,0.04681134968996048,0.999434232711792,0.6692588329315186,0.4776116907596588,-0.14270468056201935,0.9609776139259338,0.6744641661643982,0.48297950625419617,0.026231054216623306,0.6117637753486633,0.683174729347229,0.5520625710487366,-0.13424602150917053,0.9708361625671387,0.7133244276046753,0.5436822175979614,0.06990591436624527,0.767162561416626,0.6926345825195312,0.565741240978241,-0.13549669086933136,0.9633132815361023,0.7217584252357483,0.5553969144821167,0.0704585611820221,0.7939194440841675,0.6641789078712463,0.5804183483123779,-0.19839178025722504,0.968471884727478,0.7025871872901917,0.5707048177719116,0.013435128144919872,0.7852535247802734
49,0.6685634851455688,0.2836796045303345,-0.11195771396160126,0.9963684678077698,0.6690919995307922,0.2768380343914032,-0.10340516269207001,0.9969342350959778,0.6707783937454224,0.2768530249595642,-0.10346567630767822,0.9970474243164062,0.6727231740951538,0.27654504776000977,-0.10354572534561157,0.9974515438079834,0.6660745143890381,0.2776798605918884,-0.09811405837535858,0.9954211115837097,0.6640691757202148,0.27772027254104614,-0.0981212928891182,0.9935607314109802,0.6623062491416931,0.27788203954696655,-0.09813536703586578,0.9933055639266968,0.6790225505828857,0.28103604912757874,-0.04713922739028931,0.9978199005126953,0.6626626253128052,0.28160837292671204,-0.02282649837434292,0.9884999990463257,0.6730150580406189,0.292925089597702,-0.09038317948579788,0.997015655040741,0.6665976643562317,0.2910213768482208,-0.08363579213619232,0.9939807653427124,0.705833375453949,0.3187642991542816,-0.040915992110967636,0.999519407749176,0.6520276069641113,0.31719398498535156,0.030328938737511635,0.993492841720581,0.7132402658462524,0.35699141025543213,-0.12740042805671692,0.9608204364776611,0.6571009159088135,0.34579598903656006,-0.03740444779396057,0.5043861269950867,0.6715147495269775,0.3525691628456116,-0.1837906837463379,0.8459596633911133,0.6612852811813354,0.32666656374931335,-0.15812575817108154,0.5306990742683411,0.6605110764503479,0.3474120795726776,-0.20625069737434387,0.7752634286880493,0.662311315536499,0.3233933746814728,-0.17897871136665344,0.5120483636856079,0.6599239110946655,0.34511569142341614,-0.1974187195301056,0.7643427848815918,0.6607619524002075,0.31893354654312134,-0.1782471239566803,0.5158752202987671,0.6612788438796997,0.342758446931839,-0.1804981678724289,0.7051670551300049,0.6612178087234497,0.3204270899295807,-0.16165798902511597,0.5010274052619934,0.6965334415435791,0.4065391719341278,-0.03715662285685539,0.9997079968452454,0.672583818435669,0.41133779287338257,0.03731430694460869,0.9989964365959167,0.676334023475647,0.45248401165008545,-0.19930166006088257,0.9626336693763733,0.6720725297927856,0.4855661690235138,0.06686784327030182,0.625400960445404,0.684299647808075,0.5398750901222229,-0.16723576188087463,0.9716522693634033,0.7107747197151184,0.5386368632316589,0.17017772793769836,0.7702780365943909,0.6921306252479553,0.5543859004974365,-0.16650401055812836,0.9595402479171753,0.7163820862770081,0.5405027270317078,0.17712804675102234,0.7905060648918152,0.6706117987632751,0.5660682320594788,-0.24678203463554382,0.9688419103622437,0.6975195407867432,0.5571078062057495,0.12305860221385956,0.7811330556869507
50,0.6681747436523438,0.28181275725364685,-0.08261587470769882,0.9944901466369629,0.6695975065231323,0.27248603105545044,-0.07460948824882507,0.9956865310668945,0.671752393245697,0.27239617705345154,-0.07469251751899719,0.9959595799446106,0.6732557415962219,0.27226731181144714,-0.0747775286436081,0.9965671300888062,0.6663479804992676,0.27362868189811707,-0.06826968491077423,0.9923585653305054,0.6651397943496704,0.2743231952190399,-0.06826026737689972,0.9887468218803406,0.662643313407898,0.27602604031562805,-0.06827954202890396,0.9873586893081665,0.6795932650566101,0.2770994305610657,-0.029422897845506668,0.9976900219917297,0.6628929376602173,0.2800042927265167,0.004224647767841816,0.978279173374176,0.6740797758102417,0.29093167185783386,-0.06369787454605103,0.996802568435669,0.6686170697212219,0.2913897931575775,-0.055353861302137375,0.9911803603172302,0.7052944898605347,0.31795188784599304,-0.04007919505238533,0.9995214939117432,0.655774712562561,0.31654465198516846,0.051751576364040375,0.9891507625579834,0.7099251747131348,0.3597206473350525,-0.12024358659982681,0.9620646238327026,0.6590327024459839,0.3406575620174408,-0.011912338435649872,0.47996559739112854,0.6695358157157898,0.35799551010131836,-0.17003954946994781,0.8456388115882874,0.6648663878440857,0.3086281716823578,-0.12337581813335419,0.5099234580993652,0.6593999862670898,0.3608895540237427,-0.1931091845035553,0.7718570828437805,0.6657243967056274,0.30278274416923523,-0.1433374434709549,0.49248194694519043,0.6576553583145142,0.35097724199295044,-0.18472440540790558,0.7617651224136353,0.6633557081222534,0.29900434613227844,-0.14409616589546204,0.4942097067832947,0.6594098210334778,0.3477727770805359,-0.166912242770195,0.7002779841423035,0.6638261079788208,0.30142223834991455,-0.12767480313777924,0.47618693113327026,0.6963893175125122,0.40711960196495056,-0.039133939892053604,0.9997174143791199,0.6680958867073059,0.41099634766578674,0.03931970149278641,0.9988882541656494,0.6790167093276978,0.46126535534858704,-0.18570159375667572,0.9631786346435547,0.6707065105438232,0.4887006878852844,0.07226699590682983,0.6344376802444458,0.6844666600227356,0.5485463738441467,-0.1733364760875702,0.9725097417831421,0.710091769695282,0.5407739281654358,0.15920206904411316,0.7700973749160767,0.6925257444381714,0.5636802911758423,-0.17459729313850403,0.956853449344635,0.7156850099563599,0.5415536761283875,0.16454504430294037,0.7843671441078186,0.6736384630203247,0.5763819813728333,-0.25512731075286865,0.9693771004676819,0.6977394223213196,0.5593078136444092,0.11172119528055191,0.7766141891479492
51,0.6722536683082581,0.2778843939304352,-0.053741008043289185,0.9949659109115601,0.6731656789779663,0.2708698809146881,-0.04618871957063675,0.9960160255432129,0.6750136613845825,0.2706444561481476,-0.04622847959399223,0.9962408542633057,0.6761823892593384,0.2705089747905731,-0.046261876821517944,0.9968088865280151,0.6699684858322144,0.27185532450675964,-0.03997854143381119,0.9929807186126709,0.6691632866859436,0.2724209129810333,-0.039987146854400635,0.9896690845489502,0.6678475141525269,0.2731796205043793,-0.04001610726118088,0.9884635210037231,0.6809052228927612,0.27401188015937805,0.00226418930105865,0.9978447556495667,0.6642677187919617,0.27837035059928894,0.016611207276582718,0.9800629019737244,0.6775038242340088,0.2839987874031067,-0.03806387633085251,0.9970042109489441,0.6725417375564575,0.2856568396091461,-0.03008926287293434,0.9917835593223572,0.7028020024299622,0.3140515387058258,-0.010937703773379326,0.9994791746139526,0.6587203145027161,0.3102775514125824,0.05184458568692207,0.9899960160255432,0.7067409753799438,0.35858792066574097,-0.06715879589319229,0.9639747142791748,0.65068119764328,0.3012039065361023,-0.009965910576283932,0.528423547744751,0.6693886518478394,0.35934701561927795,-0.0947834923863411,0.8514999747276306,0.6610649824142456,0.2628117799758911,-0.09376062452793121,0.55279141664505,0.6595415472984314,0.3635096251964569,-0.11094559729099274,0.7743396759033203,0.6612392067909241,0.25444942712783813,-0.1039348840713501,0.5282831788063049,0.657932460308075,0.3549322783946991,-0.10511206090450287,0.7642727494239807,0.6612123847007751,0.25298598408699036,-0.12735465168952942,0.5278788805007935,0.660699725151062,0.3531337380409241,-0.09253533184528351,0.7036669254302979,0.6612473130226135,0.25685685873031616,-0.11329717934131622,0.5098074674606323,0.6959514617919922,0.40186968445777893,-0.03509162366390228,0.9996721148490906,0.6715927124023438,0.4045949876308441,0.03518760949373245,0.9989418387413025,0.6806562542915344,0.46292680501937866,-0.09003167599439621,0.960006594657898,0.6744055151939392,0.47815507650375366,0.029072199016809464,0.6488339900970459,0.6952085494995117,0.5279467105865479,-0.06290823966264725,0.9686821103096008,0.700309693813324,0.5412123799324036,0.07703123986721039,0.7777169346809387,0.7010501623153687,0.53432297706604,-0.06235145404934883,0.9404260516166687,0.7071412801742554,0.5467636585235596,0.07776601612567902,0.7797247767448425,0.6905852556228638,0.5560784935951233,-0.12229691445827484,0.9667285680770874,0.6892703771591187,0.5616837739944458,0.017144011333584785,0.7828240394592285
52,0.6728418469429016,0.27299585938453674,-0.05588969588279724,0.9954206347465515,0.6744551658630371,0.2657574415206909,-0.04907762259244919,0.9963555335998535,0.6756482720375061,0.26570117473602295,-0.04912812262773514,0.9965555667877197,0.6770394444465637,0.2655264735221863,-0.049168188124895096,0.9970771670341492,0.6716970205307007,0.2664926052093506,-0.042543262243270874,0.9935962557792664,0.6705619096755981,0.26714959740638733,-0.04255037009716034,0.9905782341957092,0.6696475148200989,0.26766127347946167,-0.04256007820367813,0.9894982576370239,0.6804978847503662,0.26978805661201477,-0.002997579053044319,0.9980280995368958,0.6648839712142944,0.27291661500930786,0.01965155079960823,0.9817058444023132,0.6772662997245789,0.279999315738678,-0.0404529944062233,0.9972479939460754,0.6736717224121094,0.2815338373184204,-0.03228338807821274,0.992452085018158,0.7001091241836548,0.3102387487888336,-0.02554393745958805,0.9995099306106567,0.6603252291679382,0.30672338604927063,0.05959243327379227,0.9907119870185852,0.703011691570282,0.3579443693161011,-0.08675704151391983,0.9669522047042847,0.6514217853546143,0.3132759928703308,0.005177977494895458,0.5474382638931274,0.6677519083023071,0.3595077395439148,-0.11654002964496613,0.8637373447418213,0.6593074798583984,0.28337928652763367,-0.09174030274152756,0.5773524045944214,0.6589389443397522,0.3617338538169861,-0.1357780396938324,0.7909983992576599,0.6600536108016968,0.27740180492401123,-0.10972145944833755,0.5489517450332642,0.6571534276008606,0.3586525321006775,-0.13066425919532776,0.7819582223892212,0.6601364612579346,0.27361059188842773,-0.11378391087055206,0.5473834872245789,0.6600903272628784,0.35703814029693604,-0.11447568982839584,0.724673330783844,0.6598088145256042,0.2765462100505829,-0.0981661006808281,0.52841717004776,0.6912940740585327,0.40207117795944214,-0.03696363419294357,0.9996567368507385,0.6717637181282043,0.40417909622192383,0.03709656745195389,0.9989778399467468,0.6857438683509827,0.46851593255996704,-0.08392906934022903,0.9575284719467163,0.6711715459823608,0.48190802335739136,0.029239466413855553,0.6423712968826294,0.7031022906303406,0.5334749817848206,-0.06343673914670944,0.967470645904541,0.6900521516799927,0.549317479133606,0.07277610152959824,0.7773131132125854,0.7098187804222107,0.5439485907554626,-0.06330901384353638,0.9365506768226624,0.701185405254364,0.5580729246139526,0.07269162684679031,0.7740394473075867,0.6961659789085388,0.5612934231758118,-0.11756547540426254,0.9665466547012329,0.673339307308197,0.5719663500785828,0.02203585021197796,0.7845656275749207
