frame,NOSE.x,NOSE.y,NOSE.z,NOSE.v,LEFT_EYE_INNER.x,LEFT_EYE_INNER.y,LEFT_EYE_INNER.z,LEFT_EYE_INNER.v,LEFT_EYE.x,LEFT_EYE.y,LEFT_EYE.z,LEFT_EYE.v,LEFT_EYE_OUTER.x,LEFT_EYE_OUTER.y,LEFT_EYE_OUTER.z,LEFT_EYE_OUTER.v,RIGHT_EYE_INNER.x,RIGHT_EYE_INNER.y,RIGHT_EYE_INNER.z,RIGHT_EYE_INNER.v,RIGHT_EYE.x,RIGHT_EYE.y,RIGHT_EYE.z,RIGHT_EYE.v,RIGHT_EYE_OUTER.x,RIGHT_EYE_OUTER.y,RIGHT_EYE_OUTER.z,RIGHT_EYE_OUTER.v,LEFT_EAR.x,LEFT_EAR.y,LEFT_EAR.z,LEFT_EAR.v,RIGHT_EAR.x,RIGHT_EAR.y,RIGHT_EAR.z,RIGHT_EAR.v,MOUTH_LEFT.x,MOUTH_LEFT.y,MOUTH_LEFT.z,MOUTH_LEFT.v,MOUTH_RIGHT.x,MOUTH_RIGHT.y,MOUTH_RIGHT.z,MOUTH_RIGHT.v,LEFT_SHOULDER.x,LEFT_SHOULDER.y,LEFT_SHOULDER.z,LEFT_SHOULDER.v,RIGHT_SHOULDER.x,RIGHT_SHOULDER.y,RIGHT_SHOULDER.z,RIGHT_SHOULDER.v,LEFT_ELBOW.x,LEFT_ELBOW.y,LEFT_ELBOW.z,LEFT_ELBOW.v,RIGHT_ELBOW.x,RIGHT_ELBOW.y,RIGHT_ELBOW.z,RIGHT_ELBOW.v,LEFT_WRIST.x,LEFT_WRIST.y,LEFT_WRIST.z,LEFT_WRIST.v,RIGHT_WRIST.x,RIGHT_WRIST.y,RIGHT_WRIST.z,RIGHT_WRIST.v,LEFT_PINKY.x,LEFT_PINKY.y,LEFT_PINKY.z,LEFT_PINKY.v,RIGHT_PINKY.x,RIGHT_PINKY.y,RIGHT_PINKY.z,RIGHT_PINKY.v,LEFT_INDEX.x,LEFT_INDEX.y,LEFT_INDEX.z,LEFT_INDEX.v,RIGHT_INDEX.x,RIGHT_INDEX.y,RIGHT_INDEX.z,RIGHT_INDEX.v,LEFT_THUMB.x,LEFT_THUMB.y,LEFT_THUMB.z,LEFT_THUMB.v,RIGHT_THUMB.x,RIGHT_THUMB.y,RIGHT_THUMB.z,RIGHT_THUMB.v,LEFT_HIP.x,LEFT_HIP.y,LEFT_HIP.z,LEFT_HIP.v,RIGHT_HIP.x,RIGHT_HIP.y,RIGHT_HIP.z,RIGHT_HIP.v,LEFT_KNEE.x,LEFT_KNEE.y,LEFT_KNEE.z,LEFT_KNEE.v,RIGHT_KNEE.x,RIGHT_KNEE.y,RIGHT_KNEE.z,RIGHT_KNEE.v,LEFT_ANKLE.x,LEFT_ANKLE.y,LEFT_ANKLE.z,LEFT_ANKLE.v,RIGHT_ANKLE.x,RIGHT_ANKLE.y,RIGHT_ANKLE.z,RIGHT_ANKLE.v,LEFT_HEEL.x,LEFT_HEEL.y,LEFT_HEEL.z,LEFT_HEEL.v,RIGHT_HEEL.x,RIGHT_HEEL.y,RIGHT_HEEL.z,RIGHT_HEEL.v,LEFT_FOOT_INDEX.x,LEFT_FOOT_INDEX.y,LEFT_FOOT_INDEX.z,LEFT_FOOT_INDEX.v,RIGHT_FOOT_INDEX.x,RIGHT_FOOT_INDEX.y,RIGHT_FOOT_INDEX.z,RIGHT_FOOT_INDEX.v
0
1
2
3
4
5
6
7
8
9
10
11
12
13
14
15
16
17
18
19
20
21
22
23
24
25
26
27
28
29
30
31
32
33
34
35
36
37,0.5056374669075012,0.481661856174469,-0.13545654714107513,0.9975280165672302,0.5085838437080383,0.47468045353889465,-0.12977799773216248,0.9915453791618347,0.5104974508285522,0.47441911697387695,-0.1298397332429886,0.9915551543235779,0.5124090909957886,0.47419473528862,-0.1298837959766388,0.9921207427978516,0.5033732056617737,0.47515398263931274,-0.1262720376253128,0.9880202412605286,0.5016705989837646,0.47518736124038696,-0.12627458572387695,0.9864142537117004,0.4999750554561615,0.4752209782600403,-0.12633374333381653,0.9864224791526794,0.5162032246589661,0.47593170404434204,-0.07913289219141006,0.9912160634994507,0.49877914786338806,0.477425754070282,-0.06277022510766983,0.9734166860580444,0.5096946954727173,0.48778849840164185,-0.11491011083126068,0.9988446235656738,0.5033330321311951,0.4883333742618561,-0.11031254380941391,0.9977430105209351,0.5344657301902771,0.5094802975654602,-0.04558786377310753,0.9998888969421387,0.4864679276943207,0.5181659460067749,-0.0076932162046432495,0.9989571571350098,0.5554535388946533,0.5530308485031128,-0.02612265571951866,0.9796146750450134,0.48436230421066284,0.5690854787826538,0.021328706294298172,0.7557917237281799,0.5557547211647034,0.5990976691246033,-0.08479633182287216,0.9332802891731262,0.4812314510345459,0.5951005816459656,-0.04645560681819916,0.8141512870788574,0.5589005351066589,0.6127458214759827,-0.10380597412586212,0.8920584321022034,0.4804368019104004,0.6050635576248169,-0.06236793473362923,0.7864907383918762,0.5540142059326172,0.6118367314338684,-0.11881472915410995,0.899260938167572,0.4799734950065613,0.6015779972076416,-0.08370301127433777,0.8014839887619019,0.5503070950508118,0.6073327660560608,-0.09133605659008026,0.8807733654975891,0.48218846321105957,0.5979111790657043,-0.05650876834988594,0.7720710635185242,0.5316870808601379,0.6131005883216858,-0.01141288597136736,0.9991388320922852,0.5030916929244995,0.6077214479446411,0.01148517057299614,0.9981081485748291,0.5335596799850464,0.6932193040847778,-0.04175969213247299,0.9301091432571411,0.5164676308631897,0.6932318210601807,0.0011093518696725368,0.8959358334541321,0.5359350442886353,0.7598073482513428,0.06814711540937424,0.9365291595458984,0.525059163570404,0.7602980136871338,0.108855701982975,0.9317225217819214,0.5344348549842834,0.7681214213371277,0.07487048953771591,0.7090107202529907,0.5280941128730774,0.7676748633384705,0.11587865650653839,0.7363254427909851,0.5347015857696533,0.7875927686691284,0.0033579119481146336,0.9179732799530029,0.5242647528648376,0.7882851958274841,0.0451074093580246,0.9199729561805725
38,0.5101343393325806,0.5493058562278748,0.048969611525535583,0.9972319602966309,0.5116338729858398,0.5470056533813477,0.061065204441547394,0.9917514324188232,0.5131319761276245,0.5472041964530945,0.061046529561281204,0.9916462898254395,0.5146448612213135,0.547444224357605,0.06101267784833908,0.9923690557479858,0.5072305202484131,0.5467044115066528,0.05824265629053116,0.988534688949585,0.5057225227355957,0.546738862991333,0.058223433792591095,0.9869982600212097,0.5042359232902527,0.5467826128005981,0.058133624494075775,0.9872617721557617,0.516891598701477,0.5518996119499207,0.10372386127710342,0.9912125468254089,0.5019478797912598,0.5514419674873352,0.09021719545125961,0.9752370119094849,0.513201892375946,0.5554212331771851,0.06375138461589813,0.9963945150375366,0.5077559947967529,0.5554012060165405,0.05949680879712105,0.9949052929878235,0.5321530103683472,0.5803312063217163,0.10351301729679108,0.9995050430297852,0.4951123297214508,0.5743974447250366,0.06852607429027557,0.9985096454620361,0.5494319200515747,0.596022367477417,0.07497606426477432,0.9364197850227356,0.5008603930473328,0.5838736295700073,0.03366028517484665,0.7383953332901001,0.5464845299720764,0.5713178515434265,0.06540572643280029,0.895782470703125,0.510536789894104,0.5775564312934875,0.03396868333220482,0.77251797914505,0.5452960133552551,0.5687886476516724,0.05956104397773743,0.8490932583808899,0.5127650499343872,0.5754997730255127,0.027318522334098816,0.7404612898826599,0.5428539514541626,0.5722588300704956,0.0649525374174118,0.8549848198890686,0.5132021903991699,0.5746470093727112,0.029297957196831703,0.7541530728340149,0.5418988466262817,0.5741373300552368,0.06623216718435287,0.8367617130279541,0.5130311846733093,0.5766557455062866,0.03338298574090004,0.7286704182624817,0.5314178466796875,0.6408231854438782,0.0030791403260082006,0.9991354942321777,0.5047875642776489,0.6393430829048157,-0.003046227851882577,0.9982131123542786,0.5353537797927856,0.6960600018501282,-0.022005029022693634,0.9214069843292236,0.5180928111076355,0.6982811689376831,-0.04049605876207352,0.8800005912780762,0.531192421913147,0.76180100440979,0.039940543472766876,0.9148792624473572,0.5237464308738708,0.761963963508606,0.008926807902753353,0.9153721928596497,0.5300097465515137,0.7675759196281433,0.044014349579811096,0.6895590424537659,0.5257223844528198,0.7698947787284851,0.012608429417014122,0.7050418257713318,0.5347474813461304,0.7870318293571472,-0.0022338766139000654,0.9023539423942566,0.5233782529830933,0.7884756922721863,-0.03830794617533684,0.9015244245529175
39
40
41,0.5484722256660461,0.5055640935897827,-0.159981831908226,0.9971798658370972,0.550857663154602,0.5013529062271118,-0.15030428767204285,0.9917705655097961,0.552086353302002,0.5021302103996277,-0.1503475308418274,0.991588294506073,0.5533317923545837,0.5029292106628418,-0.15038233995437622,0.9919452667236328,0.5467016100883484,0.49929913878440857,-0.15433774888515472,0.9890121221542358,0.5449913740158081,0.49861228466033936,-0.15434840321540833,0.9876720309257507,0.5432934761047363,0.4979349970817566,-0.15440738201141357,0.9878852963447571,0.5520298480987549,0.507905900478363,-0.08922722190618515,0.9894735813140869,0.5379356145858765,0.5013329982757568,-0.10933290421962738,0.9768790602684021,0.5483577847480774,0.5141686797142029,-0.13659296929836273,0.996161937713623,0.5430463552474976,0.5116692781448364,-0.14250454306602478,0.9951260685920715,0.5584592223167419,0.5480870604515076,-0.053472090512514114,0.9992581605911255,0.5133913159370422,0.537976861000061,-0.06924115121364594,0.9985493421554565,0.5628136992454529,0.5948079824447632,-0.07280097156763077,0.9051625728607178,0.5029468536376953,0.5876191854476929,-0.07736731320619583,0.7489230036735535,0.5567951798439026,0.5822408199310303,-0.17066921293735504,0.871160626411438,0.5051507949829102,0.6093108057975769,-0.14975392818450928,0.7769553065299988,0.5547064542770386,0.5805627107620239,-0.19484186172485352,0.824713408946991,0.5045444369316101,0.6169922351837158,-0.16749896109104156,0.7450212836265564,0.55598384141922,0.5727170705795288,-0.1975896656513214,0.8300789594650269,0.5070667862892151,0.6119776368141174,-0.17857474088668823,0.7578451633453369,0.5549788475036621,0.5732141137123108,-0.17476852238178253,0.8073087334632874,0.5084230899810791,0.6092422604560852,-0.15526048839092255,0.7302965521812439,0.5433085560798645,0.6369036436080933,0.0017827523406594992,0.9989227652549744,0.5169318914413452,0.6338807940483093,-0.0017685970524325967,0.9980037212371826,0.5470332503318787,0.6987317800521851,-0.025034621357917786,0.9087286591529846,0.519964873790741,0.6966739892959595,-0.023864513263106346,0.8685608506202698,0.5293524265289307,0.7497583031654358,0.10342811048030853,0.894746720790863,0.5167239904403687,0.7452051043510437,0.11370109021663666,0.8964316248893738,0.5241689682006836,0.754910409450531,0.11342395842075348,0.6835935711860657,0.5170353651046753,0.7504143118858337,0.12509103119373322,0.6875556707382202,0.5303794741630554,0.7805874347686768,0.061797428876161575,0.8836289048194885,0.5135692358016968,0.7693918347358704,0.0692652091383934,0.8853844404220581
42,0.5765649080276489,0.49074962735176086,-0.144825741648674,0.997330904006958,0.5801413655281067,0.4854532480239868,-0.13393187522888184,0.9923111200332642,0.5808952450752258,0.4861902594566345,-0.13395026326179504,0.9920840263366699,0.5815871357917786,0.48695123195648193,-0.13396458327770233,0.992383599281311,0.576513409614563,0.48253002762794495,-0.1483238935470581,0.9898698329925537,0.574596107006073,0.48103228211402893,-0.14832501113414764,0.9886572957038879,0.572513997554779,0.4794245958328247,-0.14837953448295593,0.9888640642166138,0.5770924687385559,0.48772186040878296,-0.0698656290769577,0.9895526170730591,0.5654867887496948,0.4775627851486206,-0.1325121968984604,0.9790709614753723,0.573920488357544,0.49714356660842896,-0.11910846084356308,0.9964608550071716,0.5694918036460876,0.493882954120636,-0.13817858695983887,0.9955744743347168,0.5664454698562622,0.5222313404083252,-0.0018495781114324927,0.9992777109146118,0.5278841853141785,0.5067421793937683,-0.1288992166519165,0.998686671257019,0.5627982020378113,0.5792578458786011,0.026925409212708473,0.835293173789978,0.5075441598892212,0.564642071723938,-0.13159222900867462,0.7735677361488342,0.5584111213684082,0.6191083788871765,-0.030288994312286377,0.8065581321716309,0.5123575925827026,0.6113545894622803,-0.15567104518413544,0.7973558306694031,0.5580637454986572,0.6357389092445374,-0.04235024005174637,0.7633469104766846,0.5106889605522156,0.6258708834648132,-0.17665047943592072,0.7665196061134338,0.5570358633995056,0.6334491968154907,-0.0583701953291893,0.7699111700057983,0.517215371131897,0.6248654127120972,-0.182835653424263,0.7781339883804321,0.5557119846343994,0.6266378164291382,-0.039077673107385635,0.7500075697898865,0.5183455348014832,0.619330108165741,-0.158124178647995,0.7512888312339783,0.5419486165046692,0.6149283647537231,0.03744278848171234,0.9989993572235107,0.5190591812133789,0.611169695854187,-0.03739582747220993,0.998124897480011,0.5432537198066711,0.6937363743782043,0.01119721494615078,0.9115287661552429,0.5184015035629272,0.678318977355957,-0.04765830561518669,0.87533038854599,0.5251754522323608,0.7578606009483337,0.12901297211647034,0.8997946977615356,0.5099090337753296,0.7305632829666138,0.10024487972259521,0.8981972932815552,0.5171480178833008,0.7654743790626526,0.13706661760807037,0.7055426239967346,0.5065369009971619,0.735142171382904,0.11190831661224365,0.6920077204704285,0.5339940786361694,0.7888548374176025,0.08047399669885635,0.8888648152351379,0.5135587453842163,0.7616947889328003,0.05036839842796326,0.8891497850418091
43,0.584473729133606,0.48740196228027344,-0.14841106534004211,0.9969156980514526,0.5882185697555542,0.4810318648815155,-0.13927102088928223,0.9921413660049438,0.5893734693527222,0.4816681444644928,-0.13930292427539825,0.9913417100906372,0.5901216268539429,0.48224037885665894,-0.13932719826698303,0.991464376449585,0.5837095975875854,0.47824108600616455,-0.15098612010478973,0.9902560710906982,0.5816875100135803,0.4766729474067688,-0.15100225806236267,0.9891083240509033,0.5793705582618713,0.4749130308628082,-0.15106844902038574,0.989446222782135,0.5859625935554504,0.48276758193969727,-0.06725505739450455,0.9863535761833191,0.5721728205680847,0.4741891622543335,-0.12606960535049438,0.9808368682861328,0.5818659067153931,0.49484139680862427,-0.12423001229763031,0.9962686896324158,0.5769098997116089,0.49153751134872437,-0.13975419104099274,0.9958215355873108,0.5703930258750916,0.519504964351654,0.0017060706159099936,0.9988183379173279,0.5301294326782227,0.5027570724487305,-0.10843886435031891,0.9987843036651611,0.56617271900177,0.5664182901382446,0.036931056529283524,0.7616764307022095,0.5069398880004883,0.55193030834198,-0.10779841244220734,0.7940945029258728,0.5594976544380188,0.604645311832428,-0.013476918451488018,0.7327227592468262,0.5050072073936462,0.5887486338615417,-0.14099206030368805,0.8108753561973572,0.558294415473938,0.6165353059768677,-0.024504510685801506,0.6938687562942505,0.5005963444709778,0.6000941395759583,-0.15956062078475952,0.778498113155365,0.5572169423103333,0.6131112575531006,-0.03855491057038307,0.7001959085464478,0.5062423944473267,0.5986654758453369,-0.17167505621910095,0.7895863056182861,0.5562645792961121,0.6079663634300232,-0.021348515525460243,0.6827651858329773,0.5082751512527466,0.5948154926300049,-0.1457212120294571,0.7623513340950012,0.5394980907440186,0.60771644115448,0.0336771234869957,0.9985092282295227,0.5204664468765259,0.6057258248329163,-0.033649131655693054,0.9977630972862244,0.5354292988777161,0.6912609338760376,0.013187134638428688,0.879755437374115,0.518487811088562,0.6837323307991028,-0.04585579037666321,0.8533113598823547,0.5208195447921753,0.7578452229499817,0.11398081481456757,0.8784946203231812,0.5112322568893433,0.7520422339439392,0.049742441624403,0.8861364126205444,0.5135960578918457,0.7659769058227539,0.11544378846883774,0.7047851085662842,0.5085254311561584,0.7605365514755249,0.05524523928761482,0.6797115802764893,0.533485472202301,0.7882281541824341,0.05231453850865364,0.8706933856010437,0.5168472528457642,0.7830631136894226,-0.020320581272244453,0.8781962394714355
44
45,0.5937381386756897,0.5020765662193298,0.1359361708164215,0.9972184300422668,0.5950813889503479,0.49274080991744995,0.15365126729011536,0.9929254055023193,0.5950394868850708,0.49233731627464294,0.15360896289348602,0.9922050833702087,0.5949889421463013,0.4918624758720398,0.1535586267709732,0.992316722869873,0.593488335609436,0.49147793650627136,0.13282300531864166,0.9912289381027222,0.5922076106071472,0.49017369747161865,0.13277362287044525,0.9901953935623169,0.5907033681869507,0.48858970403671265,0.13275375962257385,0.9905006885528564,0.5873769521713257,0.48670706152915955,0.21094265580177307,0.9877166152000427,0.5823116898536682,0.4827944040298462,0.1161031723022461,0.9827519059181213,0.5887751579284668,0.5068589448928833,0.1566171646118164,0.9966257810592651,0.5865974426269531,0.5051461458206177,0.12876708805561066,0.9962267279624939,0.5742579698562622,0.519084095954895,0.2253994643688202,0.9988613128662109,0.5522700548171997,0.4970817565917969,0.05361676961183548,0.998879611492157,0.6150469183921814,0.5116877555847168,0.2139861285686493,0.7210161685943604,0.568200945854187,0.49150049686431885,-0.04127490520477295,0.8030743598937988,0.6509811878204346,0.48917901515960693,0.14995838701725006,0.6979467272758484,0.5900390148162842,0.47109487652778625,-0.07608145475387573,0.7942884564399719,0.6592329740524292,0.4838085174560547,0.14120686054229736,0.6609107851982117,0.5952602624893188,0.4684065580368042,-0.09587594121694565,0.7552077770233154,0.6592473387718201,0.4775811433792114,0.13470572233200073,0.6650569438934326,0.5960651636123657,0.46234872937202454,-0.08925938606262207,0.7628493905067444,0.6568891406059265,0.47981399297714233,0.14269858598709106,0.6469504833221436,0.5942251682281494,0.4633883237838745,-0.07552562654018402,0.7324698567390442,0.5137410163879395,0.5917567610740662,0.06478769332170486,0.9986374974250793,0.501610279083252,0.5762621164321899,-0.06468622386455536,0.9979712963104248,0.5265405774116516,0.6754076480865479,-0.040245529264211655,0.8301762938499451,0.515353798866272,0.6793379187583923,-0.16511547565460205,0.8651894927024841,0.5206279158592224,0.7751802802085876,-0.08979480713605881,0.8328486084938049,0.5170379281044006,0.7746180295944214,-0.2194902002811432,0.8945504426956177,0.5131253600120544,0.7942330837249756,-0.09910254925489426,0.6828885078430176,0.508875846862793,0.7948510646820068,-0.2285935878753662,0.7077735662460327,0.5414388179779053,0.7974167466163635,-0.1697310209274292,0.8454799056053162,0.5394393801689148,0.7990010380744934,-0.3063909709453583,0.8871436715126038
46,0.5945742130279541,0.501797616481781,0.16776590049266815,0.997463047504425,0.5955148935317993,0.49221271276474,0.17953592538833618,0.9936155080795288,0.5953590869903564,0.49164238572120667,0.1795254945755005,0.9929643273353577,0.5952293872833252,0.4909664988517761,0.17949232459068298,0.9930716753005981,0.5945115685462952,0.49125936627388,0.16062435507774353,0.9920925498008728,0.5935889482498169,0.4900270998477936,0.16058529913425446,0.9911620020866394,0.5926347970962524,0.48853322863578796,0.16052831709384918,0.9914432764053345,0.5883165001869202,0.4861641228199005,0.21204321086406708,0.9889241456985474,0.5861050486564636,0.4828903377056122,0.12570281326770782,0.984467625617981,0.5892258286476135,0.5066338777542114,0.17921791970729828,0.9968646168708801,0.5875586271286011,0.5049645900726318,0.15415063500404358,0.9965389966964722,0.568350613117218,0.5137133002281189,0.22190339863300323,0.9988477826118469,0.562665581703186,0.4970652163028717,0.05684648081660271,0.9989793300628662,0.6019716858863831,0.508282482624054,0.2301221787929535,0.6664593815803528,0.5886236429214478,0.48888251185417175,0.019863013178110123,0.8144687414169312,0.6280549764633179,0.48454713821411133,0.1914476603269577,0.6403161883354187,0.6094570159912109,0.4644530415534973,0.053384583443403244,0.7823730111122131,0.6319119334220886,0.47898319363594055,0.18429985642433167,0.6073446869850159,0.6142007112503052,0.4612767994403839,0.041307780891656876,0.7453982830047607,0.6305954456329346,0.47371408343315125,0.18101820349693298,0.6114345788955688,0.6133652329444885,0.45939376950263977,0.041793860495090485,0.7505417466163635,0.6306535005569458,0.4759863317012787,0.18621572852134705,0.5941060781478882,0.6116710305213928,0.45953744649887085,0.05392526835203171,0.7146124839782715,0.5119600296020508,0.5917368531227112,0.058652929961681366,0.9987170100212097,0.5083454251289368,0.5776361227035522,-0.05856310576200485,0.9981470108032227,0.5224378108978271,0.6863735318183899,-0.014146989211440086,0.7869433164596558,0.5199544429779053,0.6860071420669556,-0.10692677646875381,0.8749945163726807,0.5207746028900146,0.7852206826210022,-0.04808185622096062,0.8097511529922485,0.5204318165779114,0.789467453956604,-0.1376480758190155,0.9024928212165833,0.5131680369377136,0.8127599358558655,-0.05492883175611496,0.6818073391914368,0.5142819285392761,0.8106651306152344,-0.1433023065328598,0.7340803742408752,0.5328634977340698,0.8168364763259888,-0.1229163184762001,0.8354124426841736,0.5348259210586548,0.8178207278251648,-0.2096930742263794,0.8951152563095093
47,0.5953768491744995,0.5022313594818115,0.18602348864078522,0.9977047443389893,0.596402108669281,0.493648886680603,0.20530490577220917,0.994247317314148,0.5965791344642639,0.49333295226097107,0.20528502762317657,0.9936606287956238,0.5968413949012756,0.49295276403427124,0.20525023341178894,0.9937602877616882,0.5946552753448486,0.49235841631889343,0.18947377800941467,0.9928766489028931,0.5935657620429993,0.49112313985824585,0.1894315630197525,0.9920397400856018,0.5925899744033813,0.4896162450313568,0.18936000764369965,0.9922959208488464,0.5909179449081421,0.4895285367965698,0.26416996121406555,0.9900229573249817,0.5859386324882507,0.48516198992729187,0.19414228200912476,0.9860159158706665,0.5913681387901306,0.5077889561653137,0.20633170008659363,0.9971303939819336,0.587936282157898,0.5057259202003479,0.18547044694423676,0.9968414306640625,0.5686480402946472,0.5397485494613647,0.283843070268631,0.9988581538200378,0.5630005598068237,0.49716916680336,0.1159311905503273,0.9990750551223755,0.5736967325210571,0.5729939937591553,0.29933005571365356,0.6034079790115356,0.582981526851654,0.4868202209472656,0.03824768587946892,0.8286774158477783,0.5746978521347046,0.5759653449058533,0.2701006531715393,0.5823163986206055,0.6064698100090027,0.45787447690963745,0.02733408287167549,0.7936212420463562,0.5733301639556885,0.5804224014282227,0.2691923975944519,0.5530291199684143,0.6116929650306702,0.45195257663726807,0.016570916399359703,0.7619655728340149,0.574175238609314,0.5723505616188049,0.269706666469574,0.5568172335624695,0.6130032539367676,0.4515984356403351,0.017607778310775757,0.7645995020866394,0.5752999782562256,0.5699723362922668,0.26762527227401733,0.5405837893486023,0.6097260117530823,0.45368850231170654,0.02778283879160881,0.7282489538192749,0.5153015851974487,0.6061815023422241,0.05881017446517944,0.9988175630569458,0.5100715160369873,0.5831660032272339,-0.05870264768600464,0.9983247518539429,0.5226426124572754,0.7038970589637756,-0.02122507430613041,0.7641459107398987,0.5257741808891296,0.7003567814826965,-0.13207504153251648,0.8861963152885437,0.5231321454048157,0.8081512451171875,-0.09248396754264832,0.8005899786949158,0.5223674178123474,0.8212915062904358,-0.17367492616176605,0.910849928855896,0.5137666463851929,0.8280478119850159,-0.10576228052377701,0.6963751912117004,0.5135728120803833,0.8345712423324585,-0.17433343827724457,0.7595734000205994,0.5390825271606445,0.8472337126731873,-0.17142823338508606,0.8401471376419067,0.5372746586799622,0.8582751750946045,-0.21934273838996887,0.9043136239051819
48,0.5994231700897217,0.5026213526725769,0.17523151636123657,0.997686505317688,0.599779486656189,0.49385353922843933,0.1923888474702835,0.9946742653846741,0.6001511812210083,0.4934897720813751,0.1923571079969406,0.9941375255584717,0.6005681753158569,0.493081659078598,0.19232824444770813,0.9942891597747803,0.5970235466957092,0.49286097288131714,0.1716523915529251,0.9934386014938354,0.5952870845794678,0.4918311834335327,0.17161528766155243,0.9927078485488892,0.5934485793113708,0.4906076490879059,0.171550914645195,0.992995023727417,0.5948079228401184,0.4903436601161957,0.24516645073890686,0.9908466339111328,0.5856203436851501,0.48808395862579346,0.15537533164024353,0.9873263239860535,0.5971778631210327,0.508434534072876,0.19431880116462708,0.996788740158081,0.5924133062362671,0.5066913366317749,0.1671057492494583,0.9967172741889954,0.5692909955978394,0.5400362610816956,0.27537432312965393,0.9985581636428833,0.5750150680541992,0.5083374977111816,0.09863568097352982,0.9991225004196167,0.5771130919456482,0.5773799419403076,0.31440573930740356,0.544241726398468,0.60515958070755,0.5139020085334778,0.04503912478685379,0.8290050029754639,0.5835577845573425,0.5755690336227417,0.30475154519081116,0.5257250070571899,0.6215752363204956,0.48836421966552734,0.1305135041475296,0.7590581178665161,0.583095908164978,0.5748661160469055,0.30792683362960815,0.500282347202301,0.626017153263092,0.48035016655921936,0.12990644574165344,0.7416432499885559,0.5843139290809631,0.568253755569458,0.3059329390525818,0.5037794709205627,0.623073399066925,0.481017142534256,0.12941275537014008,0.739237904548645,0.5853131413459778,0.5682792067527771,0.3014070391654968,0.48924049735069275,0.6212190389633179,0.4837398827075958,0.13297930359840393,0.7016485929489136,0.5149042010307312,0.6183963418006897,0.06586899608373642,0.9988979697227478,0.5148940682411194,0.6014401316642761,-0.06579847633838654,0.9984617233276367,0.5248110890388489,0.7236555218696594,-0.0058288550935685635,0.751548707485199,0.5500063300132751,0.6976167559623718,-0.13733786344528198,0.8965267539024353,0.5266602635383606,0.8242526650428772,-0.0904332846403122,0.800044596195221,0.5302876830101013,0.8253023624420166,-0.21838033199310303,0.9179180264472961,0.5153754949569702,0.8437625765800476,-0.1028401255607605,0.7098068594932556,0.5254648327827454,0.836807131767273,-0.22800497710704803,0.7820298075675964,0.5380553007125854,0.859742283821106,-0.16308708488941193,0.8458327054977417,0.5449076294898987,0.8631900548934937,-0.2700161933898926,0.9122772216796875
49,0.5995060205459595,0.5035897493362427,0.13604184985160828,0.9978699088096619,0.6010104417800903,0.49480628967285156,0.15113630890846252,0.9951807260513306,0.6016782522201538,0.49450457096099854,0.15108905732631683,0.9946934580802917,0.602419912815094,0.49416735768318176,0.1510896384716034,0.9948379397392273,0.5973963737487793,0.4933542311191559,0.13098309934139252,0.9940609335899353,0.5955023169517517,0.49218007922172546,0.13094213604927063,0.9934039115905762,0.5935168266296387,0.4908289909362793,0.1308789849281311,0.9936744570732117,0.5976790189743042,0.4912029504776001,0.2097715586423874,0.9917234778404236,0.5858665108680725,0.48783737421035767,0.1218969002366066,0.9885797500610352,0.5971768498420715,0.5100238919258118,0.15859368443489075,0.9970435500144958,0.5921753644943237,0.5080393552780151,0.13263383507728577,0.9969868063926697,0.5740624666213989,0.5349744558334351,0.2574697732925415,0.9986111521720886,0.5766409635543823,0.5074717402458191,0.03542328625917435,0.9992035627365112,0.5872769951820374,0.5774425268173218,0.20734432339668274,0.5001623630523682,0.5981311202049255,0.5423033237457275,0.023573001846671104,0.8392243981361389,0.598756730556488,0.5567880868911743,0.10167672485113144,0.4837571680545807,0.6128175854682922,0.5328143835067749,0.16436606645584106,0.7304545640945435,0.6003658175468445,0.552741289138794,0.08994537591934204,0.4636687934398651,0.617499053478241,0.5316976308822632,0.17467084527015686,0.7078574895858765,0.5999380946159363,0.5459734797477722,0.10032717138528824,0.466793417930603,0.6151218414306641,0.5307826399803162,0.17127609252929688,0.7035351395606995,0.5985670685768127,0.5470191240310669,0.10088229179382324,0.4535863697528839,0.613197922706604,0.531696081161499,0.16864880919456482,0.6718376874923706,0.5152367353439331,0.6180440783500671,0.07321907579898834,0.998967170715332,0.5219192504882812,0.5959225296974182,-0.07321234047412872,0.998578667640686,0.5348485708236694,0.7218350172042847,0.010888146236538887,0.7369946837425232,0.5570899248123169,0.7051002383232117,-0.1299746334552765,0.9063818454742432,0.5311983227729797,0.8239194750785828,-0.07992053776979446,0.8011990189552307,0.5336828827857971,0.8283727765083313,-0.206454798579216,0.9253555536270142,0.519476056098938,0.8412536978721619,-0.09513558447360992,0.7203729748725891,0.5234250426292419,0.8455789685249329,-0.2151295393705368,0.8024256825447083,0.5419512987136841,0.8626783490180969,-0.14106985926628113,0.8498900532722473,0.5468014478683472,0.867829442024231,-0.25614577531814575,0.9199655652046204
50,0.6001812815666199,0.4944220781326294,0.10520495474338531,0.9980459809303284,0.602551281452179,0.4870361387729645,0.11739715188741684,0.9956465363502502,0.603420078754425,0.48685222864151,0.11734814941883087,0.9952056407928467,0.6043621897697449,0.48657897114753723,0.11733339726924896,0.9953393340110779,0.5993909239768982,0.4856385290622711,0.09840542823076248,0.9946312308311462,0.5980900526046753,0.48461827635765076,0.09836630523204803,0.9940393567085266,0.5967736840248108,0.48346084356307983,0.09833063185214996,0.9942903518676758,0.6019139885902405,0.48624861240386963,0.17203238606452942,0.9925233125686646,0.5929251313209534,0.4828833043575287,0.08860960602760315,0.9897111058235168,0.5981630086898804,0.5014551877975464,0.1272456794977188,0.9973044991493225,0.5935426354408264,0.4993845224380493,0.10272818803787231,0.997258722782135,0.5821889638900757,0.5219154953956604,0.22967450320720673,0.9987109303474426,0.5838139057159424,0.5063648819923401,0.005022131372243166,0.999278724193573,0.5978149175643921,0.5709144473075867,0.15687443315982819,0.46714261174201965,0.611137330532074,0.5475887060165405,0.010444932617247105,0.8486881256103516,0.6088395714759827,0.5554431676864624,0.023482603952288628,0.4531713128089905,0.6236269474029541,0.5444937944412231,0.14547692239284515,0.7068220973014832,0.6127651929855347,0.553701639175415,0.0060841697268188,0.4387979805469513,0.6276637315750122,0.5458687543869019,0.15191538631916046,0.6794987320899963,0.6127320528030396,0.54544997215271,0.014156061224639416,0.44171789288520813,0.6238842010498047,0.540888249874115,0.14802035689353943,0.6743417382240295,0.611117959022522,0.5458936095237732,0.021311206743121147,0.42904767394065857,0.6217714548110962,0.5452623963356018,0.14945046603679657,0.6470746397972107,0.5173802375793457,0.616344690322876,0.07673369348049164,0.9990306496620178,0.5221313834190369,0.6028560996055603,-0.07669796794652939,0.998695433139801,0.53912752866745,0.7213090062141418,0.031711991876363754,0.7154257893562317,0.5572871565818787,0.7084124088287354,-0.13714507222175598,0.9151714444160461,0.5311921834945679,0.8308801651000977,-0.028186451643705368,0.7989450097084045,0.5410905480384827,0.8337050080299377,-0.21430084109306335,0.93222576379776,0.5198317766189575,0.845154881477356,-0.03884144872426987,0.7272574305534363,0.5283405780792236,0.853764533996582,-0.22346925735473633,0.8209645748138428,0.5487054586410522,0.8569712042808533,-0.08519137650728226,0.8510913848876953,0.5561394095420837,0.8645384907722473,-0.2688097357749939,0.9271141886711121
51,0.6079784035682678,0.48909419775009155,-0.0022396754939109087,0.9981509447097778,0.6116485595703125,0.4804114103317261,0.014791029505431652,0.9960355162620544,0.6126899123191833,0.4803665280342102,0.014702205546200275,0.9956247806549072,0.6136932373046875,0.4801703095436096,0.014628836885094643,0.9957690834999084,0.6075839400291443,0.4780846834182739,-0.006045228336006403,0.9951168894767761,0.6055235266685486,0.4762975871562958,-0.006045139394700527,0.9945796132087708,0.6034066677093506,0.4743503928184509,-0.00609000725671649,0.9948249459266663,0.6094216108322144,0.47755882143974304,0.0967760980129242,0.9931938648223877,0.5968567132949829,0.4710884094238281,0.004446777515113354,0.9907005429267883,0.6057976484298706,0.49610742926597595,0.030616020783782005,0.9974411725997925,0.6000679731369019,0.4937792718410492,0.0035255439579486847,0.9974175691604614,0.5970768928527832,0.5142584443092346,0.18185757100582123,0.9987770318984985,0.5779392719268799,0.48851320147514343,-0.062481045722961426,0.9993293285369873,0.6201602816581726,0.5652136206626892,0.18260681629180908,0.45425838232040405,0.6018673777580261,0.5477349162101746,-0.13141515851020813,0.862744927406311,0.6389477252960205,0.578419029712677,0.09312918037176132,0.45687276124954224,0.641269326210022,0.5814896821975708,-0.13127443194389343,0.7312012910842896,0.6453141570091248,0.5815320611000061,0.08331824839115143,0.44346463680267334,0.6510993838310242,0.5815221667289734,-0.15235736966133118,0.7021869421005249,0.6468654870986938,0.572955310344696,0.07392613589763641,0.44593513011932373,0.652985692024231,0.583463728427887,-0.1447172909975052,0.6963754296302795,0.6434875726699829,0.5722377300262451,0.08538150042295456,0.4311351776123047,0.6486368775367737,0.5815800428390503,-0.1274298131465912,0.6669429540634155,0.5276866555213928,0.6127599477767944,0.08026484400033951,0.9989515542984009,0.5218225717544556,0.5982321500778198,-0.08012893050909042,0.9987207055091858,0.5523611307144165,0.7172628045082092,0.027211284264922142,0.6790092587471008,0.5494486093521118,0.7090685367584229,-0.1538323611021042,0.9217261075973511,0.5335416793823242,0.8201106786727905,0.048798564821481705,0.7644978165626526,0.5358893275260925,0.834976851940155,-0.1792197972536087,0.9379165172576904,0.5217973589897156,0.8358050584793091,0.04743736609816551,0.7056498527526855,0.5267030000686646,0.8543911576271057,-0.1834704577922821,0.8365261554718018,0.555368185043335,0.8525274991989136,-0.01374736987054348,0.8234378099441528,0.5527111887931824,0.8678309917449951,-0.2615275979042053,0.9322654604911804
52,0.6157920956611633,0.4750538170337677,0.06973759829998016,0.9982616305351257,0.618465781211853,0.4654833972454071,0.08597835153341293,0.9963753819465637,0.6188595294952393,0.4650428891181946,0.08591344952583313,0.9960066676139832,0.6192546486854553,0.4644978642463684,0.08586885035037994,0.9961559772491455,0.615699291229248,0.4642018973827362,0.06087639927864075,0.9955538511276245,0.6140693426132202,0.4629650413990021,0.060837458819150925,0.9950752854347229,0.6123369932174683,0.4615895450115204,0.06076011061668396,0.9953099489212036,0.6125962734222412,0.46076202392578125,0.1532491147518158,0.9937922358512878,0.6048560738563538,0.45863068103790283,0.03889025002717972,0.9915740489959717,0.6112018823623657,0.4818277955055237,0.09621763229370117,0.9975668787956238,0.606699526309967,0.47983723878860474,0.06323423981666565,0.9975589513778687,0.5903782248497009,0.5062268376350403,0.21602599322795868,0.9987828135490417,0.5878828763961792,0.48685041069984436,-0.04733928292989731,0.9993918538093567,0.6014828085899353,0.5746631622314453,0.23801854252815247,0.41699811816215515,0.6142742037773132,0.5640980005264282,-0.1441434621810913,0.8743771910667419,0.6142712831497192,0.6276385188102722,0.18551340699195862,0.4262492060661316,0.6602878570556641,0.6135453581809998,-0.1912575215101242,0.7539848685264587,0.6162473559379578,0.6333858370780945,0.18985678255558014,0.41658133268356323,0.6721564531326294,0.6127885580062866,-0.22071826457977295,0.7263482213020325,0.6225433945655823,0.629618227481842,0.17092643678188324,0.4189291000366211,0.6722780466079712,0.6056767106056213,-0.200201153755188,0.7200782895088196,0.6222409009933472,0.6278303861618042,0.1754571944475174,0.4051092565059662,0.6690342426300049,0.6049747467041016,-0.184047132730484,0.6877137422561646,0.5305365920066833,0.61162930727005,0.08884541690349579,0.9987367391586304,0.5315966010093689,0.5959470272064209,-0.08872216939926147,0.9987643957138062,0.5504891276359558,0.7134802341461182,0.06943255662918091,0.6404831409454346,0.5491378307342529,0.7097980380058289,-0.15857478976249695,0.9281874299049377,0.5335582494735718,0.8143424987792969,0.09098772704601288,0.7405872344970703,0.5333160161972046,0.8360570669174194,-0.1850840151309967,0.9435279369354248,0.5222893953323364,0.831303596496582,0.089241623878479,0.7010762095451355,0.5252832770347595,0.8525568246841431,-0.19086936116218567,0.8519368171691895,0.5599177479743958,0.8453493118286133,0.038667358458042145,0.8115142583847046,0.5550194978713989,0.8662340044975281,-0.2856861650943756,0.9378878474235535
53,0.6244788765907288,0.4712018668651581,0.09103962033987045,0.998416006565094,0.6266606450080872,0.46067512035369873,0.10533970594406128,0.9967264533042908,0.627143383026123,0.46027278900146484,0.10531327873468399,0.9963914752006531,0.627652108669281,0.45975151658058167,0.10528834909200668,0.9965318441390991,0.6236281394958496,0.4592352509498596,0.08636333793401718,0.9959865808486938,0.6217527985572815,0.4578506350517273,0.08632627874612808,0.9955555200576782,0.6198509931564331,0.4563155174255371,0.08627859503030777,0.9957718849182129,0.620714545249939,0.4559580385684967,0.17997528612613678,0.99439537525177,0.6114116907119751,0.4532187283039093,0.07107856124639511,0.9924069046974182,0.6205024719238281,0.4783898890018463,0.10282202064990997,0.997786283493042,0.6160264015197754,0.4761155843734741,0.08597994595766068,0.9977796077728271,0.5928733348846436,0.5010504722595215,0.26620975136756897,0.9988575577735901,0.5944864749908447,0.4770464301109314,-0.020137358456850052,0.99945068359375,0.6015298962593079,0.5722845196723938,0.2798880934715271,0.37982800602912903,0.6217457056045532,0.5560144782066345,-0.12561006844043732,0.8837811350822449,0.6146911382675171,0.6256645917892456,0.22577574849128723,0.39313027262687683,0.6597830057144165,0.6102325916290283,-0.16401271522045135,0.7684981822967529,0.6157213449478149,0.634777843952179,0.22801713645458221,0.386785089969635,0.6687542200088501,0.6214889883995056,-0.1901915967464447,0.7404888272285461,0.6211788654327393,0.6298144459724426,0.21200191974639893,0.38914763927459717,0.671263575553894,0.6152470707893372,-0.171116441488266,0.7331595420837402,0.6213462948799133,0.6267870664596558,0.21635134518146515,0.3765784800052643,0.6671051383018494,0.6113805770874023,-0.15686748921871185,0.6964308619499207,0.5350027084350586,0.6101482510566711,0.0883902981877327,0.9987685680389404,0.5350781083106995,0.5955289602279663,-0.08829426020383835,0.9988463521003723,0.5534859895706177,0.712173342704773,0.041723307222127914,0.6078349351882935,0.5606359839439392,0.7105448246002197,-0.15678219497203827,0.9328902363777161,0.5402928590774536,0.816982626914978,0.040040962398052216,0.7194816470146179,0.5499039888381958,0.8372535109519958,-0.19170044362545013,0.9481143355369568,0.5297058820724487,0.8344069719314575,0.03536524996161461,0.6981732249259949,0.5375612378120422,0.8595594763755798,-0.19890250265598297,0.8653168082237244,0.5672246217727661,0.8476955890655518,-0.020806143060326576,0.8012514114379883,0.5806226134300232,0.8663073182106018,-0.28505563735961914,0.9425281286239624
54
55,0.6371145248413086,0.46388062834739685,-0.03780972585082054,0.9982864260673523,0.6402261853218079,0.452290803194046,-0.018624983727931976,0.9966713190078735,0.6409278512001038,0.45226943492889404,-0.0186782106757164,0.9961645007133484,0.6418384313583374,0.4523197114467621,-0.01874295249581337,0.9965084195137024,0.6358470320701599,0.4511379897594452,-0.03962929919362068,0.996083676815033,0.6330876350402832,0.4501866102218628,-0.039665766060352325,0.9956691265106201,0.6305758953094482,0.44927966594696045,-0.03979475796222687,0.9960323572158813,0.6365861296653748,0.4519065022468567,0.06786035001277924,0.9933109879493713,0.6231882572174072,0.4476274251937866,-0.02632242441177368,0.9929472208023071,0.6332253217697144,0.4747558832168579,-0.004122686572372913,0.9975539445877075,0.6274740695953369,0.4733920395374298,-0.031769346445798874,0.9977625608444214,0.6217437982559204,0.5192204713821411,0.14981438219547272,0.9988959431648254,0.5875263214111328,0.4977143406867981,-0.09648853540420532,0.9995025396347046,0.610988199710846,0.5907928347587585,0.1729520708322525,0.3482632637023926,0.5809881091117859,0.5871798396110535,-0.15068507194519043,0.890637218952179,0.6055758595466614,0.622588574886322,0.11722429096698761,0.3613211214542389,0.6162906885147095,0.6673293709754944,-0.14820614457130432,0.7816055417060852,0.6020066738128662,0.6351190805435181,0.10646281391382217,0.3563922345638275,0.6209431886672974,0.6928435564041138,-0.17582164704799652,0.7496076822280884,0.6047558188438416,0.6290028691291809,0.09254962205886841,0.35850203037261963,0.6300950050354004,0.6891451478004456,-0.17522725462913513,0.742205023765564,0.6050804257392883,0.6245313286781311,0.10857643187046051,0.34683871269226074,0.6275128126144409,0.6797048449516296,-0.14616519212722778,0.7020500302314758,0.5712932348251343,0.6392859220504761,0.07247056066989899,0.9988406896591187,0.546295702457428,0.6220835447311401,-0.07251804322004318,0.9989166855812073,0.5836383104324341,0.7301149964332581,-0.040581054985523224,0.612061083316803,0.5490148663520813,0.7194948792457581,-0.22120551764965057,0.9265480041503906,0.5896985530853271,0.8471665978431702,-0.00581200560554862,0.7176728844642639,0.5092529654502869,0.8034970164299011,-0.17020858824253082,0.9382736682891846,0.5800195932388306,0.8642715811729431,-0.009251264855265617,0.6961446404457092,0.4981590211391449,0.8135309219360352,-0.16849662363529205,0.8441497683525085,0.6207858324050903,0.8779610395431519,-0.09323767572641373,0.7988502979278564,0.5181102752685547,0.8468384146690369,-0.26042917370796204,0.9382829666137695
56
57,0.6439527273178101,0.47572067379951477,-0.34187203645706177,0.9984496831893921,0.6477567553520203,0.4641726315021515,-0.31950870156288147,0.9969837069511414,0.6495413184165955,0.46431735157966614,-0.3195067048072815,0.9965128302574158,0.6511810421943665,0.46433794498443604,-0.3195735812187195,0.9968169331550598,0.6399236917495728,0.46276479959487915,-0.3368130028247833,0.9964665770530701,0.6362547874450684,0.46200692653656006,-0.336917519569397,0.9960921406745911,0.6325709223747253,0.4612736999988556,-0.336992084980011,0.9964204430580139,0.6467151045799255,0.4668472409248352,-0.19263586401939392,0.9937459230422974,0.6248282790184021,0.46337348222732544,-0.26540395617485046,0.9936362504959106,0.6430876851081848,0.48784467577934265,-0.2917405366897583,0.9976202249526978,0.6325994729995728,0.487759530544281,-0.31298336386680603,0.9978861808776855,0.6318854689598083,0.5245296955108643,-0.0361676923930645,0.9986726641654968,0.6042162179946899,0.5333373546600342,-0.27497419714927673,0.9995042681694031,0.623351514339447,0.5987386107444763,0.04646485298871994,0.3168931007385254,0.592186689376831,0.6206037998199463,-0.2875317335128784,0.897360622882843,0.6211821436882019,0.643066942691803,0.019782112911343575,0.3301979899406433,0.6158307790756226,0.6874459385871887,-0.27941060066223145,0.7825366854667664,0.6203757524490356,0.6609621644020081,0.01464090496301651,0.32611799240112305,0.6160096526145935,0.709117591381073,-0.3058716058731079,0.741654098033905,0.6218481659889221,0.655580461025238,-0.005434445105493069,0.3285195827484131,0.6243388056755066,0.7059299349784851,-0.3140811622142792,0.7350192070007324,0.6217347979545593,0.6495935916900635,0.009408166632056236,0.31731244921684265,0.6226169466972351,0.6967459321022034,-0.2809915840625763,0.6905596256256104,0.5911113619804382,0.6836107969284058,0.051765210926532745,0.9989383220672607,0.5568425059318542,0.6743557453155518,-0.05185983330011368,0.9989882111549377,0.607014000415802,0.787151575088501,-0.04025467857718468,0.6490572094917297,0.5143631100654602,0.764161229133606,0.049237582832574844,0.9300450086593628,0.6123978495597839,0.9202907085418701,-0.023514799773693085,0.7448956966400146,0.46250152587890625,0.807872474193573,0.29080548882484436,0.9389705061912537,0.6003283858299255,0.9410970211029053,-0.02751406468451023,0.7166577577590942,0.4447372853755951,0.812540590763092,0.31173646450042725,0.8267784118652344,0.6295977234840393,0.957575261592865,-0.1377999633550644,0.8172287940979004,0.45202571153640747,0.8504108786582947,0.24199488759040833,0.9377630352973938
58,0.6512686014175415,0.47531548142433167,-0.3692845404148102,0.9985939860343933,0.6519681811332703,0.4633854627609253,-0.3490358889102936,0.99723881483078,0.6529580354690552,0.46345481276512146,-0.3490338921546936,0.9967857003211975,0.6539610624313354,0.46349164843559265,-0.3490527272224426,0.9970614910125732,0.6465054750442505,0.4621812701225281,-0.3719567358493805,0.9968031644821167,0.6433748006820679,0.46148937940597534,-0.3720923066139221,0.9964675903320312,0.6399475336074829,0.4608442485332489,-0.3722161054611206,0.9967658519744873,0.6480374932289124,0.4656606614589691,-0.23050780594348907,0.993806779384613,0.6290160417556763,0.46299001574516296,-0.33151981234550476,0.994251549243927,0.6500841379165649,0.4871796667575836,-0.32232874631881714,0.9977638721466064,0.6428266167640686,0.4861699640750885,-0.351698100566864,0.9980640411376953,0.6427410244941711,0.529983401298523,-0.07455851137638092,0.9987034201622009,0.6033900380134583,0.5360633730888367,-0.3444165587425232,0.9995481371879578,0.6376458406448364,0.608089804649353,0.002514278283342719,0.3012424111366272,0.5927948355674744,0.6375886797904968,-0.36852020025253296,0.9070009589195251,0.6249317526817322,0.6869712471961975,-0.042970821261405945,0.3109407424926758,0.6086238622665405,0.7225837111473083,-0.384774386882782,0.8022271990776062,0.6230137944221497,0.7111997008323669,-0.05347934365272522,0.3053969740867615,0.6072152256965637,0.7452957630157471,-0.4219445288181305,0.7628252506256104,0.6224695444107056,0.7093716859817505,-0.07576975971460342,0.3084155321121216,0.6162141561508179,0.7449856400489807,-0.42909708619117737,0.7566648721694946,0.621953547000885,0.7000544667243958,-0.054854609072208405,0.2976427376270294,0.616174578666687,0.7360900044441223,-0.3864509165287018,0.7131229639053345,0.5959327816963196,0.693534255027771,0.06049472093582153,0.9990383982658386,0.5583139657974243,0.6834533214569092,-0.06066177412867546,0.9990774989128113,0.6142892837524414,0.7971212267875671,0.03846140578389168,0.6812546849250793,0.519706130027771,0.7762904763221741,0.028963884338736534,0.935623049736023,0.6109285950660706,0.9249343276023865,0.14060963690280914,0.7693240642547607,0.45576873421669006,0.8078561425209045,0.28087252378463745,0.9429789185523987,0.5977059006690979,0.9433586597442627,0.1460709422826767,0.7365219593048096,0.4436415135860443,0.8069912791252136,0.3036996126174927,0.8220719695091248,0.6304956674575806,0.9660826921463013,0.05249129980802536,0.8338525295257568,0.4492626190185547,0.8529093861579895,0.23314602673053741,0.940913736820221
59,0.6544206142425537,0.4758000373840332,-0.3652169108390808,0.9987327456474304,0.6556608080863953,0.4634478986263275,-0.342617005109787,0.9975083470344543,0.6571847200393677,0.46351251006126404,-0.34262317419052124,0.9970946311950684,0.658672571182251,0.4635685980319977,-0.34265047311782837,0.9973404407501221,0.6489309072494507,0.4623841345310211,-0.36228346824645996,0.9971207976341248,0.6452087759971619,0.46180474758148193,-0.3624076247215271,0.9968188405036926,0.6411729454994202,0.4613208472728729,-0.36251145601272583,0.9970874190330505,0.6548431515693665,0.46599286794662476,-0.21674831211566925,0.9942916035652161,0.6302045583724976,0.46444955468177795,-0.30220508575439453,0.9948244690895081,0.6547999978065491,0.4887762665748596,-0.3156389594078064,0.997958242893219,0.6461913585662842,0.48715656995773315,-0.3406067490577698,0.9982492923736572,0.6544313430786133,0.5391282439231873,-0.0730123370885849,0.9986789226531982,0.6017545461654663,0.5363957285881042,-0.31520015001296997,0.9995905160903931,0.6426635980606079,0.6123918890953064,0.00596352806314826,0.27785661816596985,0.5883556604385376,0.6343456506729126,-0.3359420895576477,0.9160636067390442,0.6327463388442993,0.6875715851783752,-0.019864613190293312,0.2908793091773987,0.5877432227134705,0.7196144461631775,-0.35942381620407104,0.8207851052284241,0.6291377544403076,0.7113624215126038,-0.028376469388604164,0.2854745090007782,0.5858013033866882,0.7434783577919006,-0.3932667374610901,0.783230185508728,0.6303743124008179,0.7099636197090149,-0.051628269255161285,0.28892308473587036,0.5943412184715271,0.7448442578315735,-0.40270647406578064,0.7776121497154236,0.6283632516860962,0.700935959815979,-0.03212757408618927,0.27875763177871704,0.5955334901809692,0.7365124821662903,-0.3618289530277252,0.7364978194236755,0.6119034290313721,0.70240318775177,0.06747367978096008,0.99913090467453,0.5708479881286621,0.6913764476776123,-0.06761046499013901,0.9991641044616699,0.6230231523513794,0.808332085609436,0.0335443913936615,0.7106282711029053,0.5404947996139526,0.7947855591773987,-0.00327077554538846,0.9415726661682129,0.6085390448570251,0.9254524111747742,0.12939825654029846,0.7911538481712341,0.4695213735103607,0.8045185208320618,0.28151100873947144,0.9462935328483582,0.5934656858444214,0.9444352984428406,0.13445810973644257,0.7573995590209961,0.46153730154037476,0.7889423966407776,0.31098222732543945,0.8197169899940491,0.6318406462669373,0.9651229977607727,0.058386702090501785,0.8488131761550903,0.45185643434524536,0.8487535119056702,0.2672860324382782,0.9435134530067444
60,0.656773567199707,0.46586188673973083,-0.3235444128513336,0.998859167098999,0.6596580147743225,0.4547674357891083,-0.29664063453674316,0.9977565407752991,0.6615952849388123,0.4548783302307129,-0.2966442406177521,0.9973833560943604,0.6634804010391235,0.4550921618938446,-0.29665932059288025,0.9976039528846741,0.6523151397705078,0.4539789855480194,-0.3126324415206909,0.9974083304405212,0.6486788988113403,0.45353785157203674,-0.31271040439605713,0.9971365928649902,0.644669234752655,0.45316311717033386,-0.31275755167007446,0.9973783493041992,0.6615831255912781,0.4597039222717285,-0.15358687937259674,0.9948445558547974,0.6351326704025269,0.45605647563934326,-0.22443917393684387,0.9953417181968689,0.6581935286521912,0.4784373342990875,-0.2689511179924011,0.9981563091278076,0.6485521793365479,0.4761715829372406,-0.28935477137565613,0.9984225630760193,0.6601914763450623,0.5388264060020447,0.021643105894327164,0.9987487196922302,0.6102873682975769,0.5222917795181274,-0.2391957938671112,0.9996305108070374,0.646213173866272,0.6125103235244751,0.10070494562387466,0.2571527063846588,0.5837739706039429,0.6096572279930115,-0.26078683137893677,0.9242776036262512,0.6384867429733276,0.6894465088844299,0.020624052733182907,0.2841445207595825,0.5742113590240479,0.7038373947143555,-0.3445834517478943,0.838054358959198,0.6388035416603088,0.7132118940353394,0.00843555573374033,0.2776784300804138,0.5680360198020935,0.7291877269744873,-0.3671247363090515,0.8029950261116028,0.6384910345077515,0.7153377532958984,-0.027377203106880188,0.28248128294944763,0.5767207741737366,0.7383633852005005,-0.38203492760658264,0.797895610332489,0.6353713274002075,0.7066687345504761,0.0031139221973717213,0.2725791931152344,0.5803098082542419,0.7342042922973633,-0.3451189398765564,0.7598245739936829,0.6253146529197693,0.699166476726532,0.07818211615085602,0.9991993308067322,0.5937806367874146,0.688502848148346,-0.0782923623919487,0.9992348551750183,0.6303533911705017,0.8121325969696045,0.06925573945045471,0.7278563976287842,0.5675963759422302,0.798542857170105,-0.09557753056287766,0.9468392133712769,0.6087278723716736,0.9237154722213745,0.21040558815002441,0.80765300989151,0.48323121666908264,0.8238067030906677,0.10182958841323853,0.950577974319458,0.5936980843544006,0.9431881308555603,0.21885259449481964,0.7718079686164856,0.46961838006973267,0.812678337097168,0.11945682764053345,0.8240529298782349,0.6328206062316895,0.9618972539901733,0.15172989666461945,0.8589033484458923,0.47322988510131836,0.8650873899459839,0.04950602352619171,0.947350800037384
61,0.6584601402282715,0.4508320987224579,-0.31245070695877075,0.9989720582962036,0.6617645621299744,0.438696950674057,-0.28761905431747437,0.9979774951934814,0.6638110876083374,0.4386463463306427,-0.287645161151886,0.9976387619972229,0.6658608913421631,0.43873724341392517,-0.28766313195228577,0.9978355765342712,0.6538240909576416,0.43844732642173767,-0.30000558495521545,0.9976659417152405,0.6499017477035522,0.43796008825302124,-0.30006200075149536,0.9974213242530823,0.6458727121353149,0.43752267956733704,-0.30011412501335144,0.9976391792297363,0.6653013825416565,0.4439569115638733,-0.1472891867160797,0.9953189492225647,0.6367276310920715,0.4404386579990387,-0.2019260674715042,0.9958065152168274,0.6605648398399353,0.46336090564727783,-0.2586970627307892,0.9983339309692383,0.6505408883094788,0.4623359739780426,-0.2742365300655365,0.9985785484313965,0.6708778142929077,0.5227030515670776,0.013076531700789928,0.9988501071929932,0.6129292249679565,0.507800817489624,-0.1949184387922287,0.999666690826416,0.6617003679275513,0.6044524908065796,0.08377853035926819,0.2470204085111618,0.5720841288566589,0.586732029914856,-0.21219699084758759,0.9316200613975525,0.666567325592041,0.6826163530349731,-0.01876342110335827,0.28936803340911865,0.5656789541244507,0.6781105399131775,-0.2862681448459625,0.8532953262329102,0.6709535121917725,0.7045230269432068,-0.03955299034714699,0.2827885150909424,0.5578806400299072,0.7033010125160217,-0.3207043409347534,0.8199848532676697,0.670852541923523,0.7009152173995972,-0.07362468540668488,0.2897243797779083,0.5666457414627075,0.7077687978744507,-0.3341129720211029,0.8153755068778992,0.6662096977233887,0.6928513646125793,-0.03706515207886696,0.2800508141517639,0.5707783102989197,0.7032600045204163,-0.2906961441040039,0.7801547050476074,0.6377606391906738,0.6933372020721436,0.07588838040828705,0.9992408752441406,0.6038938760757446,0.682318389415741,-0.0759899690747261,0.999284565448761,0.6320008039474487,0.809701144695282,0.06023018807172775,0.7160741090774536,0.5993415117263794,0.7931709885597229,-0.10572081804275513,0.9469431638717651,0.6047230958938599,0.918148398399353,0.20775938034057617,0.8102264404296875,0.5221911668777466,0.8484643697738647,0.06406747549772263,0.9518818855285645,0.5895949602127075,0.9334946870803833,0.21634769439697266,0.774317741394043,0.5238856077194214,0.8746898770332336,0.07740441709756851,0.8224961757659912,0.6329506635665894,0.9622581601142883,0.13883188366889954,0.8591765761375427,0.5429543256759644,0.9262110590934753,-0.013140598312020302,0.9487584233283997
62,0.6588462591171265,0.4400519132614136,-0.26111775636672974,0.9990702867507935,0.6627336740493774,0.4265766441822052,-0.24040372669696808,0.9981670379638672,0.6651005744934082,0.4263152778148651,-0.2404462993144989,0.9978563785552979,0.6674211621284485,0.426310271024704,-0.24044668674468994,0.9980288743972778,0.654255747795105,0.42724812030792236,-0.24776074290275574,0.9978918433189392,0.6505221128463745,0.4270934760570526,-0.24779012799263,0.9976711869239807,0.6468903422355652,0.42693477869033813,-0.24786195158958435,0.9978676438331604,0.6694972515106201,0.4306987226009369,-0.1105935126543045,0.9957037568092346,0.6398011445999146,0.42957934737205505,-0.14292427897453308,0.9962194561958313,0.6622828245162964,0.45195066928863525,-0.21108505129814148,0.9984909892082214,0.6520106196403503,0.45081964135169983,-0.2201606035232544,0.998717188835144,0.6842480301856995,0.5121676921844482,0.01378051470965147,0.9989414215087891,0.6119272112846375,0.4948749840259552,-0.10072587430477142,0.999698281288147,0.6845045685768127,0.5955178737640381,0.06456901133060455,0.27061691880226135,0.5673902630805969,0.5624279379844666,-0.08760616183280945,0.9376359581947327,0.6998082399368286,0.6630355715751648,-0.11112157255411148,0.3064013123512268,0.5603975057601929,0.648588240146637,-0.17297546565532684,0.8634312748908997,0.7046580910682678,0.6821653246879578,-0.14522811770439148,0.29810842871665955,0.5561403632164001,0.6720277667045593,-0.20238110423088074,0.827987790107727,0.7035387754440308,0.6775339245796204,-0.17774741351604462,0.30841633677482605,0.5630325675010681,0.6735216379165649,-0.2283059060573578,0.824193000793457,0.6986597776412964,0.6705817580223083,-0.12966246902942657,0.29785534739494324,0.5664047598838806,0.6674433946609497,-0.18341407179832458,0.7907484769821167,0.648146390914917,0.6871664524078369,0.056097496300935745,0.9992002248764038,0.6107354760169983,0.6766586899757385,-0.05610158294439316,0.9992823004722595,0.6400482058525085,0.8094896674156189,0.031761955469846725,0.7284484505653381,0.6055284142494202,0.793388307094574,-0.0777878537774086,0.948680579662323,0.6092316508293152,0.9196198582649231,0.16651859879493713,0.8222252726554871,0.5537235736846924,0.8894540667533875,0.0785544142127037,0.9537081718444824,0.5943881273269653,0.9342412352561951,0.17305326461791992,0.7792681455612183,0.5422771573066711,0.8979718685150146,0.08730310201644897,0.819705605506897,0.6322627067565918,0.9623386859893799,0.06599055230617523,0.866023063659668,0.5504754781723022,0.9472647309303284,-0.034468092024326324,0.9502060413360596
63,0.659123420715332,0.42236459255218506,-0.24295158684253693,0.9991517663002014,0.6635119318962097,0.4096696674823761,-0.2244681566953659,0.9983177781105042,0.6660284399986267,0.4097735583782196,-0.22454504668712616,0.998034656047821,0.6684794425964355,0.41003677248954773,-0.22456347942352295,0.9981805086135864,0.6548101305961609,0.41016799211502075,-0.22677698731422424,0.9980774521827698,0.6511268019676208,0.410284161567688,-0.22678346931934357,0.9978750348091125,0.647614061832428,0.41039207577705383,-0.2268359661102295,0.9980509281158447,0.6721323132514954,0.4154348373413086,-0.10777716338634491,0.9960210919380188,0.641700804233551,0.4155785143375397,-0.11680946499109268,0.996580183506012,0.6632970571517944,0.434378981590271,-0.19881241023540497,0.998629093170166,0.6527860760688782,0.4335426092147827,-0.2012976109981537,0.99884033203125,0.6934418082237244,0.49077659845352173,-0.0158153735101223,0.9990069270133972,0.6111838817596436,0.4803442060947418,-0.06218987703323364,0.9997208714485168,0.7154045701026917,0.5527997612953186,-0.1313607096672058,0.32620158791542053,0.5642013549804688,0.5309999585151672,-0.05650259926915169,0.9424923062324524,0.7142568826675415,0.546758234500885,-0.3823384642601013,0.3519108295440674,0.5619921684265137,0.6319419145584106,-0.12973061203956604,0.86480313539505,0.7255570292472839,0.5527164936065674,-0.4327267110347748,0.33781978487968445,0.5630566477775574,0.661186158657074,-0.15227167308330536,0.8194240927696228,0.7209429144859314,0.5429379940032959,-0.4427005350589752,0.3487495183944702,0.5702807307243347,0.660115659236908,-0.17587196826934814,0.8167539238929749,0.7091192007064819,0.5370455384254456,-0.3936602473258972,0.334924578666687,0.5691450834274292,0.6429771184921265,-0.13931989669799805,0.7857315540313721,0.6604180335998535,0.6696889400482178,0.031563784927129745,0.9991062879562378,0.6188751459121704,0.6633921265602112,-0.03153245523571968,0.9992181658744812,0.6510251760482788,0.797704815864563,0.028268760070204735,0.7298970818519592,0.6225992441177368,0.7905328869819641,-0.05514456704258919,0.9463834762573242,0.6186121702194214,0.9102171063423157,0.19237159192562103,0.820122480392456,0.6076666116714478,0.9013885259628296,0.11023066192865372,0.9491363763809204,0.60406893491745,0.9233140349388123,0.20202866196632385,0.7698055505752563,0.6015487909317017,0.9208896160125732,0.12011288106441498,0.8044028878211975,0.6320050954818726,0.9541676044464111,0.08872945606708527,0.8594135046005249,0.6146945953369141,0.95257568359375,-0.00892711989581585,0.9440014958381653
64,0.6618963479995728,0.4176487624645233,-0.209803968667984,0.999204695224762,0.6663497686386108,0.40457576513290405,-0.1900877058506012,0.9984565377235413,0.6689742803573608,0.4046374559402466,-0.19016271829605103,0.9981892108917236,0.6715307831764221,0.40478071570396423,-0.19021517038345337,0.9983145594596863,0.6576361656188965,0.40440213680267334,-0.1945289671421051,0.9982427954673767,0.6538712978363037,0.40427935123443604,-0.19455930590629578,0.9980562329292297,0.6500661969184875,0.4041953980922699,-0.1945868283510208,0.9982184171676636,0.6746196746826172,0.4095141291618347,-0.06918860971927643,0.996370792388916,0.6431375741958618,0.4091179072856903,-0.09040658175945282,0.9969105124473572,0.6657801270484924,0.43131959438323975,-0.16371293365955353,0.998747706413269,0.6557585000991821,0.43034616112709045,-0.16988661885261536,0.9989482164382935,0.6976043581962585,0.4791327714920044,-0.015509027056396008,0.9989979863166809,0.6111655235290527,0.47610393166542053,-0.058674175292253494,0.9997109174728394,0.7255974411964417,0.5265703201293945,-0.15862725675106049,0.36238670349121094,0.561130702495575,0.5113726258277893,-0.16340669989585876,0.9471774101257324,0.7217563390731812,0.5160447359085083,-0.3896350562572479,0.3754480183124542,0.5863720178604126,0.4908011257648468,-0.3984071612358093,0.8707764744758606,0.7239612936973572,0.5177251100540161,-0.44112882018089294,0.3573973774909973,0.5933612585067749,0.49724113941192627,-0.4427640438079834,0.8207436800003052,0.7177490592002869,0.5099481344223022,-0.439578115940094,0.3664174973964691,0.6020563840866089,0.486575722694397,-0.43356651067733765,0.8170775175094604,0.7138372659683228,0.5111880898475647,-0.3966616988182068,0.3530122935771942,0.5979551076889038,0.4895615577697754,-0.39924538135528564,0.7869042754173279,0.6721151471138,0.6693965196609497,0.018105963245034218,0.999121904373169,0.6280489563941956,0.6645810604095459,-0.018001992255449295,0.9992040991783142,0.6635596752166748,0.7996874451637268,0.028623390942811966,0.7401262521743774,0.6307040452957153,0.7977225184440613,0.019829008728265762,0.9403952360153198,0.6339766979217529,0.9105210900306702,0.22791051864624023,0.8157495260238647,0.6362170577049255,0.9151922464370728,0.21435192227363586,0.9360961318016052,0.6241797208786011,0.9256874918937683,0.24232682585716248,0.761773407459259,0.6317646503448486,0.929693341255188,0.2279735803604126,0.783928632736206,0.6440788507461548,0.954787015914917,0.13650080561637878,0.8517687320709229,0.6349816918373108,0.9594650864601135,0.03364604339003563,0.9269174337387085
65,0.6624845266342163,0.4145341217517853,-0.2302854061126709,0.9992772340774536,0.6670941114425659,0.4015180468559265,-0.21078261733055115,0.9986003637313843,0.669998049736023,0.4015970528125763,-0.2108648270368576,0.9983558058738708,0.6728394627571106,0.40179866552352905,-0.210942342877388,0.9984663128852844,0.6578801274299622,0.40152689814567566,-0.21524015069007874,0.9984098672866821,0.6539851427078247,0.401770681142807,-0.2152714729309082,0.9982402324676514,0.6501254439353943,0.40224358439445496,-0.21530833840370178,0.9983879923820496,0.6761744618415833,0.40768861770629883,-0.08831411600112915,0.9967154860496521,0.6435407996177673,0.4092465937137604,-0.11035855114459991,0.9972156882286072,0.6670085191726685,0.4288119375705719,-0.18330839276313782,0.9988692402839661,0.6562198996543884,0.42887797951698303,-0.18996132910251617,0.9990519285202026,0.6996489763259888,0.483060747385025,-0.02931426838040352,0.9990665316581726,0.6114392876625061,0.4775635302066803,-0.04640481248497963,0.9997296333312988,0.737561821937561,0.5242025852203369,-0.15988577902317047,0.4123436510562897,0.5565834641456604,0.5134972333908081,-0.10200943797826767,0.9504448771476746,0.7381668090820312,0.5191580057144165,-0.4102734625339508,0.4156666398048401,0.5661624073982239,0.5754667520523071,-0.25574547052383423,0.8723843693733215,0.7405184507369995,0.5220044255256653,-0.46470245718955994,0.39357519149780273,0.5677767992019653,0.598031222820282,-0.29245954751968384,0.8179926872253418,0.7335062026977539,0.5138411521911621,-0.46933990716934204,0.40156376361846924,0.5808807015419006,0.5967591404914856,-0.297281414270401,0.8150992393493652,0.7299596071243286,0.5150638222694397,-0.41985851526260376,0.38669753074645996,0.5803166627883911,0.5871044993400574,-0.26145684719085693,0.7872744798660278,0.6808380484580994,0.6727055907249451,-7.814174750819802e-05,0.9991212487220764,0.6321362257003784,0.6688133478164673,0.00014139081758912653,0.9991920590400696,0.6767411231994629,0.8153384327888489,0.019677521660923958,0.7554823756217957,0.6418877243995667,0.8147135376930237,0.01959703490138054,0.9354758262634277,0.6639772653579712,0.9192097783088684,0.24426770210266113,0.8145592212677002,0.666382908821106,0.9396618008613586,0.2349337339401245,0.9272404909133911,0.6607416272163391,0.9398506879806519,0.2623572051525116,0.7456528544425964,0.6686371564865112,0.9494816064834595,0.2514762878417969,0.7697920203208923,0.6731294393539429,0.9626568555831909,0.14999066293239594,0.8467479944229126,0.664505124092102,0.9740551114082336,0.06692185997962952,0.9158541560173035
66,0.6624069809913635,0.42521584033966064,-0.23562708497047424,0.9993409514427185,0.6665492653846741,0.41177889704704285,-0.2164096087217331,0.9987267851829529,0.6694191694259644,0.4116981327533722,-0.21649575233459473,0.9985011219978333,0.6722739934921265,0.4117712378501892,-0.21657487750053406,0.9985964894294739,0.6571258306503296,0.4120903015136719,-0.21940013766288757,0.9985585808753967,0.6531678438186646,0.41220271587371826,-0.21944674849510193,0.9984034299850464,0.6493972539901733,0.4124334752559662,-0.21949069201946259,0.9985390305519104,0.6759873628616333,0.41741642355918884,-0.09046588093042374,0.9970206618309021,0.6426152586936951,0.4188467562198639,-0.10624410212039948,0.9974896907806396,0.6671684384346008,0.4387998878955841,-0.18702366948127747,0.9989777207374573,0.6560543179512024,0.43863585591316223,-0.19190716743469238,0.9991450905799866,0.7059032917022705,0.4878444969654083,-0.032348040491342545,0.9991304874420166,0.6113047003746033,0.48789647221565247,-0.02827812358736992,0.9997497797012329,0.7378320693969727,0.537949800491333,-0.16510294377803802,0.4626699686050415,0.5546742081642151,0.527600109577179,-0.08608227223157883,0.9546331167221069,0.730734646320343,0.5185800194740295,-0.429513156414032,0.45939505100250244,0.5630531907081604,0.5988168120384216,-0.2473289966583252,0.879279375076294,0.736469030380249,0.5222874879837036,-0.4871519207954407,0.43238040804862976,0.5645573139190674,0.618943989276886,-0.2834377586841583,0.8227530121803284,0.7299442291259766,0.5141298174858093,-0.4885154366493225,0.4393664598464966,0.5756582617759705,0.6154232621192932,-0.28967177867889404,0.8205432891845703,0.72709059715271,0.5165346264839172,-0.4379311203956604,0.42230159044265747,0.5765644311904907,0.6092599630355835,-0.25294601917266846,0.7946937084197998,0.6952921152114868,0.6810729503631592,-0.00699774082750082,0.998935878276825,0.6424880623817444,0.6911680102348328,0.0071009015664458275,0.999035656452179,0.6969010233879089,0.8275431394577026,-0.03062761388719082,0.7583422064781189,0.6616575717926025,0.8388403654098511,0.01757344789803028,0.9148059487342834,0.6954320669174194,0.9259588718414307,0.21228370070457458,0.786895215511322,0.6889321208000183,0.950480043888092,0.22501365840435028,0.8938161730766296,0.6970167756080627,0.954760730266571,0.23106595873832703,0.7121615409851074,0.6931880712509155,0.9718639254570007,0.24246099591255188,0.7381458282470703,0.7052857279777527,0.9684670567512512,0.11522488296031952,0.8161356449127197,0.6897262334823608,1.0048598051071167,0.08827793598175049,0.8781031370162964
67,0.6632675528526306,0.4265923500061035,-0.1897551566362381,0.9994034171104431,0.667426586151123,0.41587480902671814,-0.16742751002311707,0.998850405216217,0.6703829765319824,0.41626471281051636,-0.16751232743263245,0.9986456632614136,0.6733747720718384,0.416663259267807,-0.16760627925395966,0.9987301230430603,0.6577962040901184,0.4143243432044983,-0.1723334640264511,0.9986997246742249,0.6537495851516724,0.4134018123149872,-0.17239966988563538,0.9985595345497131,0.6499589681625366,0.4129154086112976,-0.1724218726158142,0.9986822605133057,0.6770046949386597,0.42204707860946655,-0.03625793382525444,0.9973127841949463,0.6426388621330261,0.4217150807380676,-0.06157534569501877,0.9977396130561829,0.6687778234481812,0.4415552020072937,-0.1403818130493164,0.9990783929824829,0.6570321321487427,0.44407880306243896,-0.1478632688522339,0.9992299675941467,0.7072939872741699,0.4923800528049469,0.0016777364071458578,0.9992005228996277,0.6117424368858337,0.5001427531242371,0.006735693663358688,0.9997709393501282,0.7365795373916626,0.5484435558319092,-0.1542758196592331,0.49970346689224243,0.5598465800285339,0.5428403615951538,-0.05883278697729111,0.9580094814300537,0.7397017478942871,0.5426656007766724,-0.4529522955417633,0.49231117963790894,0.5652018785476685,0.6085933446884155,-0.22814173996448517,0.8872114419937134,0.7434671521186829,0.5446641445159912,-0.5167397260665894,0.46490800380706787,0.5639994740486145,0.6254996657371521,-0.2662154734134674,0.8319717049598694,0.7363479137420654,0.5364686250686646,-0.5190547108650208,0.4714890420436859,0.5753759145736694,0.6228668689727783,-0.27686402201652527,0.8305932879447937,0.7324000000953674,0.5383330583572388,-0.4633401036262512,0.453482061624527,0.5780432224273682,0.6183637976646423,-0.23587167263031006,0.8069518804550171,0.7049736380577087,0.7058258652687073,-0.009155835956335068,0.9989522695541382,0.653647780418396,0.7219216227531433,0.0092643266543746,0.9990185499191284,0.7221502661705017,0.8492254614830017,-0.06845863163471222,0.7673354148864746,0.6770946383476257,0.8769214749336243,-0.003158824983984232,0.8935075998306274,0.7252849340438843,0.961254894733429,0.1893211156129837,0.7572394609451294,0.7088752388954163,0.9719836115837097,0.2542184293270111,0.8382399678230286,0.7237180471420288,0.9771367311477661,0.20929720997810364,0.6751806139945984,0.7164005041122437,0.9819062352180481,0.2781617343425751,0.6954772472381592,0.7317153215408325,1.0100092887878418,0.10178277641534805,0.7796428799629211,0.7119840979576111,1.020691990852356,0.16491468250751495,0.8206288814544678
68,0.6633855104446411,0.43256044387817383,-0.21646945178508759,0.9994587898254395,0.6676381826400757,0.42035481333732605,-0.1929045021533966,0.9989608526229858,0.6705787777900696,0.4205617308616638,-0.19302615523338318,0.9987755417823792,0.6736273169517517,0.42088583111763,-0.19315829873085022,0.9988511204719543,0.6578000783920288,0.4201652407646179,-0.19660601019859314,0.9988239407539368,0.6537666916847229,0.4200667440891266,-0.19666658341884613,0.9986963272094727,0.6500164866447449,0.4204220175743103,-0.1966983824968338,0.998806893825531,0.6774753928184509,0.4276108145713806,-0.05644853785634041,0.9975761771202087,0.6428083777427673,0.43026039004325867,-0.07474029064178467,0.9979599714279175,0.6692646741867065,0.4488169848918915,-0.165557861328125,0.999168336391449,0.656640887260437,0.4513971507549286,-0.1713266223669052,0.9993048310279846,0.7142321467399597,0.5093632936477661,-0.00128057855181396,0.9992621541023254,0.6130229234695435,0.516143262386322,0.005351612344384193,0.999767005443573,0.7363969683647156,0.5854290127754211,-0.10893739759922028,0.5377016067504883,0.5737438797950745,0.5898652672767639,-0.07392407953739166,0.955786943435669,0.740342915058136,0.5633043050765991,-0.36867016553878784,0.5316882729530334,0.5683497190475464,0.6077026724815369,-0.3028942048549652,0.8900110721588135,0.7412385940551758,0.5697388052940369,-0.4263766407966614,0.5046752691268921,0.5652766227722168,0.6206129789352417,-0.35206764936447144,0.8368390798568726,0.7373884916305542,0.5602940917015076,-0.4426031708717346,0.5114485621452332,0.5788220167160034,0.6092889308929443,-0.36802393198013306,0.8365021347999573,0.7321469187736511,0.5600873231887817,-0.38222771883010864,0.49292856454849243,0.5797834992408752,0.6072442531585693,-0.31604307889938354,0.8142408728599548,0.7160239815711975,0.7169818878173828,-0.0017652101814746857,0.9989522695541382,0.6633077263832092,0.7330731153488159,0.0019066184759140015,0.9989900588989258,0.740086555480957,0.8544037938117981,-0.07648291438817978,0.7831801176071167,0.6898970603942871,0.8882461190223694,-0.04017249494791031,0.889691174030304,0.7334328889846802,0.9543532729148865,0.21039435267448425,0.7427802681922913,0.7219496965408325,0.9819343090057373,0.2381729632616043,0.8076178431510925,0.731197714805603,0.983694314956665,0.2348957061767578,0.6566705107688904,0.7290667295455933,0.9908808469772339,0.26093000173568726,0.6616681814193726,0.744604229927063,0.9996346831321716,0.12450742721557617,0.7569448351860046,0.7281284928321838,1.0319563150405884,0.15123040974140167,0.7818076014518738
69,0.6639778017997742,0.4346309006214142,-0.22843332588672638,0.9994885325431824,0.6675837635993958,0.42201584577560425,-0.2060241401195526,0.9990360140800476,0.6704469323158264,0.42218127846717834,-0.20615839958190918,0.9988635778427124,0.6733784079551697,0.4224680960178375,-0.20629453659057617,0.9989311099052429,0.6576720476150513,0.42340919375419617,-0.20842428505420685,0.998904287815094,0.653645396232605,0.4243687689304352,-0.20846745371818542,0.9987796545028687,0.6498740315437317,0.42554935812950134,-0.20852632820606232,0.9988805055618286,0.6769469380378723,0.43078309297561646,-0.07332251965999603,0.9977856874465942,0.6426147222518921,0.4363626539707184,-0.08518943935632706,0.9981077909469604,0.6703062653541565,0.4512268900871277,-0.17858266830444336,0.999234676361084,0.6570855975151062,0.45521339774131775,-0.18255171179771423,0.9993555545806885,0.7170292735099792,0.511916995048523,-0.00809548981487751,0.9992752075195312,0.6139453649520874,0.5255632996559143,-0.0054540173150599,0.9996994137763977,0.7372897863388062,0.5913435816764832,-0.09927105158567429,0.5665957927703857,0.5886489152908325,0.6121057868003845,-0.08924771100282669,0.9505598545074463,0.7283177971839905,0.5709299445152283,-0.32944387197494507,0.5618019104003906,0.5870155692100525,0.6083804965019226,-0.32308679819107056,0.890491783618927,0.7281690835952759,0.5767434239387512,-0.38003265857696533,0.5338001251220703,0.5854862332344055,0.6113455891609192,-0.37006089091300964,0.8394051790237427,0.7251049280166626,0.5677499175071716,-0.39555424451828003,0.5406648516654968,0.5887149572372437,0.5984442234039307,-0.3805352747440338,0.8397101163864136,0.7220733165740967,0.5681475400924683,-0.34120267629623413,0.5211318135261536,0.5929442644119263,0.5984521508216858,-0.33340954780578613,0.8176373839378357,0.7196534872055054,0.7175269722938538,0.0004949870053678751,0.998858630657196,0.6629496216773987,0.7345367074012756,-0.00033511928631924093,0.9989039301872253,0.7401697635650635,0.8640227913856506,-0.09717706590890884,0.7823574542999268,0.696354866027832,0.8806086182594299,-0.033968787640333176,0.8700292706489563,0.7445571422576904,0.9527939558029175,0.2443428486585617,0.6913894414901733,0.7313703298568726,0.9746072888374329,0.22970108687877655,0.7683420181274414,0.7400980591773987,0.9742423295974731,0.2758065462112427,0.6175229549407959,0.7320221662521362,0.9951620697975159,0.25458723306655884,0.6211528182029724,0.7591148614883423,0.9994892477989197,0.18206341564655304,0.7032167315483093,0.7363425493240356,1.0366488695144653,0.12013618648052216,0.7338594198226929
70,0.6637905240058899,0.4334598183631897,-0.23571515083312988,0.9995206594467163,0.667177140712738,0.4202180802822113,-0.214464470744133,0.9991082549095154,0.669896125793457,0.42042383551597595,-0.2145954668521881,0.9989503026008606,0.6727319955825806,0.42077282071113586,-0.21473029255867004,0.99901282787323,0.6572712063789368,0.42104053497314453,-0.2158500701189041,0.9989804029464722,0.6530860662460327,0.42191654443740845,-0.21588702499866486,0.9988584518432617,0.6493598222732544,0.42303764820098877,-0.21593709290027618,0.9989516139030457,0.6759406328201294,0.4285629987716675,-0.08457055687904358,0.9979817867279053,0.642376184463501,0.4334154725074768,-0.09163936972618103,0.9982521533966064,0.6692813634872437,0.4481312930583954,-0.18689972162246704,0.9993008971214294,0.6567075252532959,0.4503341317176819,-0.18956539034843445,0.9994083642959595,0.7145317792892456,0.5077844858169556,-0.03289617970585823,0.9993008971214294,0.6136935949325562,0.5226135849952698,0.012016099877655506,0.99965900182724,0.7423771023750305,0.590605616569519,-0.11846740543842316,0.6019706130027771,0.5954169034957886,0.6089037656784058,0.0542680099606514,0.9394912719726562,0.735249400138855,0.5734387636184692,-0.368842214345932,0.5949258804321289,0.5965248346328735,0.6124707460403442,-0.05485881492495537,0.8825467824935913,0.7351229190826416,0.5788772106170654,-0.4236883223056793,0.5665532946586609,0.5964915156364441,0.6212730407714844,-0.08231014758348465,0.8334879875183105,0.7303134202957153,0.5672504305839539,-0.44278377294540405,0.5733955502510071,0.5974582433700562,0.6101405024528503,-0.10227030515670776,0.8355013132095337,0.7266241312026978,0.5673007965087891,-0.38228148221969604,0.5529123544692993,0.6007183790206909,0.6070128679275513,-0.06537313759326935,0.8140296339988708,0.7206197381019592,0.712175726890564,-0.009205116890370846,0.9986961483955383,0.6635007858276367,0.7284042239189148,0.009474324062466621,0.9988254308700562,0.7401699423789978,0.8575297594070435,-0.07572713494300842,0.784523069858551,0.6941889524459839,0.8666539788246155,-0.0329328253865242,0.8689603805541992,0.7469720244407654,0.9507150053977966,0.2772122621536255,0.6514587998390198,0.7300552725791931,0.9692844152450562,0.1967291533946991,0.7630681991577148,0.7424771189689636,0.95584636926651,0.30948489904403687,0.5857553482055664,0.7361635565757751,0.9965208172798157,0.21341316401958466,0.6044227480888367,0.7622767090797424,0.9960845112800598,0.2181057184934616,0.6622664332389832,0.7373479604721069,1.039209008216858,0.07788796722888947,0.7165213227272034
71,0.6627870798110962,0.4200630486011505,-0.23957867920398712,0.9995437264442444,0.6666122674942017,0.4056553542613983,-0.217534139752388,0.9991674423217773,0.6692983508110046,0.40576472878456116,-0.21766197681427002,0.999022364616394,0.6722580194473267,0.4059954881668091,-0.21778997778892517,0.9990772604942322,0.6558486223220825,0.40671148896217346,-0.2207554131746292,0.9990453720092773,0.6512046456336975,0.4077032804489136,-0.2207985818386078,0.9989280104637146,0.6470925211906433,0.40890270471572876,-0.2208501398563385,0.9990090727806091,0.675561785697937,0.4133504331111908,-0.08082259446382523,0.9981578588485718,0.6402221918106079,0.4187980890274048,-0.09866828471422195,0.9983819723129272,0.6689159274101257,0.43532341718673706,-0.18889382481575012,0.9993546009063721,0.6559394598007202,0.43717873096466064,-0.19422438740730286,0.9994493126869202,0.7096403241157532,0.48860615491867065,-0.030714670196175575,0.9993148446083069,0.6129470467567444,0.513656735420227,-0.01862800493836403,0.9996070265769958,0.7424580454826355,0.5595820546150208,-0.16061384975910187,0.6369620561599731,0.6010257601737976,0.5998109579086304,-0.07895606011152267,0.9269790053367615,0.7346013784408569,0.530806303024292,-0.4143465459346771,0.6270204186439514,0.6134641170501709,0.5824185609817505,-0.3469197154045105,0.8728545308113098,0.733482301235199,0.5298289060592651,-0.47008252143859863,0.597131609916687,0.6152428984642029,0.5868225693702698,-0.3945099115371704,0.8258250951766968,0.7232040762901306,0.5119399428367615,-0.476290762424469,0.6034988760948181,0.6165062189102173,0.5748886466026306,-0.40584906935691833,0.82877117395401,0.7244365215301514,0.5215537548065186,-0.4229479730129242,0.5827046036720276,0.6186658143997192,0.5735119581222534,-0.3576611876487732,0.8065517544746399,0.7196224927902222,0.7005823254585266,-0.009231784380972385,0.9985533952713013,0.6631636619567871,0.7214308381080627,0.009506157599389553,0.9987742304801941,0.7367018461227417,0.8384672999382019,-0.05925561115145683,0.7949947714805603,0.6882187724113464,0.8596078157424927,-0.03573843091726303,0.8699575066566467,0.7702862620353699,0.9383400678634644,0.2301115095615387,0.6444627642631531,0.7319467067718506,0.9796446561813354,0.12110307067632675,0.7681218981742859,0.7713914513587952,0.9446669816970825,0.25249359011650085,0.5741943120956421,0.7390497326850891,0.9764854907989502,0.12975969910621643,0.6001867055892944,0.7804763317108154,0.9761863350868225,0.15374988317489624,0.6536950469017029,0.7367470860481262,1.0352411270141602,-0.007661442272365093,0.7143630385398865
72,0.6546244621276855,0.4070824086666107,-0.242151141166687,0.9995831251144409,0.6595238447189331,0.39178702235221863,-0.22528037428855896,0.9992414116859436,0.6630365252494812,0.39148086309432983,-0.22543027997016907,0.9991095066070557,0.6661370396614075,0.3914847671985626,-0.22553646564483643,0.9991583228111267,0.6473994851112366,0.39351722598075867,-0.2210063487291336,0.9991303086280823,0.6429544687271118,0.3945336639881134,-0.22100424766540527,0.9990211129188538,0.6388872861862183,0.3959973454475403,-0.22102141380310059,0.9990947246551514,0.6716428995132446,0.3976668417453766,-0.0921599492430687,0.9983317255973816,0.6333979368209839,0.40474608540534973,-0.10466261208057404,0.9985318779945374,0.6637049317359924,0.42201662063598633,-0.19003942608833313,0.9994142651557922,0.6489407420158386,0.4244275391101837,-0.19812898337841034,0.9994996786117554,0.7069039940834045,0.4662838280200958,-0.04317612946033478,0.9993670582771301,0.6111436486244202,0.4949299395084381,-0.0030354091431945562,0.9996299743652344,0.7425621747970581,0.5282558798789978,-0.177744060754776,0.6710807681083679,0.5957306027412415,0.5879446268081665,-0.05139440298080444,0.9221673011779785,0.7335503697395325,0.5181963443756104,-0.44698047637939453,0.660085916519165,0.6052765846252441,0.5770471096038818,-0.303406685590744,0.8759709596633911,0.7321803569793701,0.5167045593261719,-0.5021835565567017,0.6308339238166809,0.6053118109703064,0.589461088180542,-0.3420226275920868,0.8315914869308472,0.7234753966331482,0.5045230984687805,-0.506858766078949,0.6365688443183899,0.6090985536575317,0.5726234912872314,-0.35135331749916077,0.8350646495819092,0.7225693464279175,0.5065702199935913,-0.4544276297092438,0.6161009073257446,0.6111750602722168,0.576514482498169,-0.3092649579048157,0.813362181186676,0.719462513923645,0.6835356950759888,-0.016478465870022774,0.9985311031341553,0.6641108393669128,0.7119054794311523,0.016668736934661865,0.998755156993866,0.7314838171005249,0.8242056965827942,-0.07980440557003021,0.8022048473358154,0.6847242712974548,0.8546303510665894,-0.04567037150263786,0.8659623861312866,0.7607158422470093,0.9373818635940552,0.11809549480676651,0.6497626900672913,0.7324529886245728,0.9730027914047241,0.08401748538017273,0.7728692293167114,0.7682039141654968,0.9440123438835144,0.13270053267478943,0.5751187205314636,0.743811845779419,0.9827190637588501,0.09055698662996292,0.6063884496688843,0.7819674611091614,0.9733350276947021,0.02963564172387123,0.6607258319854736,0.7341942191123962,1.029215693473816,-0.04013171046972275,0.7179450988769531
73,0.6448043584823608,0.3976472318172455,-0.22558078169822693,0.9996216893196106,0.6496713161468506,0.38220110535621643,-0.20679566264152527,0.9993125796318054,0.6539093255996704,0.38134607672691345,-0.2069254219532013,0.9991934895515442,0.6578491926193237,0.3808058798313141,-0.20702219009399414,0.9992367625236511,0.6369336843490601,0.38510388135910034,-0.20498573780059814,0.9992120862007141,0.6326061487197876,0.38629549741744995,-0.20502635836601257,0.9991124868392944,0.6287084817886353,0.3876800239086151,-0.2050313949584961,0.9991790652275085,0.6641565561294556,0.3858557641506195,-0.07259149104356766,0.9984942078590393,0.625124454498291,0.39461418986320496,-0.07286672294139862,0.9986740350723267,0.654812753200531,0.41194140911102295,-0.17325828969478607,0.9994694590568542,0.6394391059875488,0.41493216156959534,-0.174480602145195,0.9995462894439697,0.7053481340408325,0.449572890996933,-0.02686484530568123,0.9994210004806519,0.6069680452346802,0.4822443127632141,0.03966997563838959,0.9996514916419983,0.7444638013839722,0.5058795213699341,-0.1629086434841156,0.702970564365387,0.5928977727890015,0.5856625437736511,-0.02558988891541958,0.9212465882301331,0.7301697731018066,0.4799201786518097,-0.41309991478919983,0.6904875040054321,0.6045246124267578,0.5798236131668091,-0.28693848848342896,0.8818976879119873,0.7291406989097595,0.47153767943382263,-0.4650973379611969,0.660937488079071,0.6039379835128784,0.5885444283485413,-0.324573278427124,0.8394232988357544,0.7163461446762085,0.45952948927879333,-0.4619402289390564,0.66587895154953,0.6004273891448975,0.572773814201355,-0.33586564660072327,0.8430485129356384,0.7214335203170776,0.4660337567329407,-0.417083740234375,0.6461091041564941,0.6037228107452393,0.5738497972488403,-0.2935016453266144,0.8221320509910583,0.7166560888290405,0.6703594923019409,-0.03284881263971329,0.9985930323600769,0.665282130241394,0.6949045658111572,0.03305145353078842,0.9987658262252808,0.7226310968399048,0.8213465213775635,-0.11983613669872284,0.7997844219207764,0.6834138035774231,0.8518012762069702,-0.04403271526098251,0.8327653408050537,0.7530453205108643,0.943700909614563,0.019632618874311447,0.6453007459640503,0.7306303977966309,0.9807336330413818,0.06692220270633698,0.7578830718994141,0.7639241814613342,0.9487577080726624,0.02900462970137596,0.5722997188568115,0.7441995143890381,0.9975483417510986,0.0714765340089798,0.6049944162368774,0.7657155394554138,0.9815534949302673,-0.07666634023189545,0.6617390513420105,0.7224785685539246,1.035032868385315,-0.056220002472400665,0.705721378326416
74,0.638275682926178,0.3924696743488312,-0.18158593773841858,0.9996570348739624,0.643771767616272,0.3762108385562897,-0.1616857945919037,0.9993782639503479,0.648298978805542,0.37547630071640015,-0.16180911660194397,0.9992707371711731,0.6525718569755554,0.3750515580177307,-0.16192030906677246,0.9993091821670532,0.6303297281265259,0.37880000472068787,-0.16007429361343384,0.9992875456809998,0.6257387399673462,0.37972545623779297,-0.1600770503282547,0.999197244644165,0.6219460368156433,0.3807506263256073,-0.16008566319942474,0.9992575645446777,0.6587186455726624,0.3806636929512024,-0.033211976289749146,0.9986413717269897,0.6191850304603577,0.38747912645339966,-0.029525870457291603,0.9988036155700684,0.6478859782218933,0.40656062960624695,-0.1324499547481537,0.9995200634002686,0.6326559782028198,0.409896582365036,-0.13148650527000427,0.9995894432067871,0.7042757272720337,0.4458794593811035,0.014863857999444008,0.9994714856147766,0.6019426584243774,0.4812755584716797,0.06371255218982697,0.9996747374534607,0.7470794916152954,0.5165746808052063,-0.1398482322692871,0.7311328053474426,0.5886156558990479,0.5857511162757874,-0.0401652529835701,0.9250981211662292,0.7347514629364014,0.49449098110198975,-0.38333386182785034,0.7184646129608154,0.596398651599884,0.5721169114112854,-0.3333188593387604,0.8917266130447388,0.732801079750061,0.5029913187026978,-0.4389670789241791,0.68966144323349,0.601291298866272,0.5684489011764526,-0.3873370289802551,0.8523927330970764,0.7219234704971313,0.4907773733139038,-0.44182080030441284,0.6941977739334106,0.5965538024902344,0.5514466762542725,-0.3964940905570984,0.8557496666908264,0.7231811285018921,0.48677295446395874,-0.39029043912887573,0.6754270792007446,0.5981324911117554,0.5541679263114929,-0.3428418040275574,0.8360421657562256,0.7146293520927429,0.6680987477302551,-0.028024669736623764,0.9985566735267639,0.6645241975784302,0.6857715845108032,0.028264030814170837,0.9986131191253662,0.7185813188552856,0.8223668336868286,-0.1454172432422638,0.782956063747406,0.6843253374099731,0.8512223958969116,-0.07248326390981674,0.7872511744499207,0.746904194355011,0.9631118178367615,-0.043535035103559494,0.6181010603904724,0.7263795137405396,0.9910153150558472,0.007259338162839413,0.7149577736854553,0.7582052946090698,0.986689567565918,-0.03916213661432266,0.5536673665046692,0.7386001944541931,1.01018226146698,0.008908824995160103,0.5782434940338135,0.7561122179031372,1.0089913606643677,-0.15044498443603516,0.6318452954292297,0.7193697094917297,1.0463975667953491,-0.12184369564056396,0.663642942905426
75,0.6321133971214294,0.3922138214111328,-0.12953682243824005,0.9996897578239441,0.6377871632575989,0.3762987554073334,-0.1101808175444603,0.9994384050369263,0.6424919366836548,0.3752613961696625,-0.11026283353567123,0.9993415474891663,0.6471976041793823,0.3745947778224945,-0.11037735641002655,0.9993759393692017,0.624454140663147,0.37957730889320374,-0.10636243969202042,0.9993565678596497,0.620285153388977,0.3805435001850128,-0.10634009540081024,0.9992750287055969,0.6171193718910217,0.3815038800239563,-0.10634060949087143,0.9993295669555664,0.6549254655838013,0.3793289065361023,0.005323132500052452,0.998775064945221,0.6152735948562622,0.3886497914791107,0.02040034346282482,0.998921275138855,0.6421257853507996,0.4051874279975891,-0.0860128253698349,0.9995662569999695,0.6268433928489685,0.40898433327674866,-0.08171384036540985,0.9996287226676941,0.7029486894607544,0.44261234998703003,0.034197889268398285,0.9995195269584656,0.5995587110519409,0.48166579008102417,0.10118146240711212,0.9996911883354187,0.7475495934486389,0.5159358382225037,-0.13040678203105927,0.7570390105247498,0.5840227603912354,0.5854565501213074,-0.010301191359758377,0.9267864227294922,0.7312864661216736,0.4766082763671875,-0.3787068724632263,0.7448415160179138,0.5878778696060181,0.5785850286483765,-0.312762051820755,0.8993774056434631,0.7319022417068481,0.48820167779922485,-0.4339446425437927,0.7172353863716125,0.5898485779762268,0.5785214304924011,-0.3589107394218445,0.86214280128479,0.7134060263633728,0.46531441807746887,-0.4313583970069885,0.7212587594985962,0.591214120388031,0.5595681667327881,-0.3944384455680847,0.8651770353317261,0.7203232049942017,0.48016393184661865,-0.3833359181880951,0.7034866809844971,0.5914523601531982,0.5612396597862244,-0.32222339510917664,0.8464179039001465,0.7150990962982178,0.6675272583961487,-0.0352715365588665,0.9985930323600769,0.6653416156768799,0.6849778294563293,0.03543493151664734,0.9984813332557678,0.7176340818405151,0.8500350117683411,-0.13195423781871796,0.7872006297111511,0.6857633590698242,0.8561256527900696,-0.04173912853002548,0.7558276653289795,0.7496758699417114,0.9845411777496338,-0.02062171883881092,0.6174355149269104,0.728367030620575,0.9990167617797852,0.0587000735104084,0.6828652620315552,0.757049560546875,0.9896323680877686,-0.015264548361301422,0.5413596630096436,0.7413674592971802,1.0170540809631348,0.06185559555888176,0.5526718497276306,0.7494146227836609,1.0617731809616089,-0.1322171837091446,0.6199115514755249,0.7210103273391724,1.0607287883758545,-0.05897550657391548,0.6303346157073975
76,0.6217323541641235,0.39887431263923645,-0.12757249176502228,0.999718189239502,0.6272656917572021,0.38301315903663635,-0.11100735515356064,0.99949049949646,0.6322426199913025,0.3820325434207916,-0.1110827773809433,0.9994034767150879,0.637187123298645,0.38136962056159973,-0.11116834729909897,0.9994339346885681,0.6165819764137268,0.3855587840080261,-0.10517476499080658,0.9994168877601624,0.6135751008987427,0.38635942339897156,-0.10516772419214249,0.9993429780006409,0.6105748414993286,0.3872224688529968,-0.10520263761281967,0.9993923902511597,0.6494742035865784,0.3861551284790039,-0.007836861535906792,0.9988915324211121,0.6119635701179504,0.3939678370952606,0.016095072031021118,0.9990247488021851,0.6314500570297241,0.4119386076927185,-0.08876386284828186,0.9996055960655212,0.6193227171897888,0.4147149622440338,-0.08156875520944595,0.9996619820594788,0.6963661909103394,0.4460124373435974,0.015795070677995682,0.9995629787445068,0.5980240106582642,0.4852847754955292,0.09047775715589523,0.9997069835662842,0.7440977096557617,0.5177446603775024,-0.12880530953407288,0.7794443964958191,0.576481282711029,0.5901712775230408,-0.006342194974422455,0.9295989871025085,0.7302096486091614,0.5005754828453064,-0.3728857636451721,0.7662129998207092,0.5858281850814819,0.5801520943641663,-0.2639468014240265,0.9060735702514648,0.7323009371757507,0.5077415108680725,-0.4266725182533264,0.7395866513252258,0.5898071527481079,0.5860823392868042,-0.3160788416862488,0.8704759478569031,0.7201087474822998,0.49205252528190613,-0.4327320456504822,0.7434102296829224,0.5912595987319946,0.569557785987854,-0.3265067934989929,0.8733424544334412,0.7203660607337952,0.49855750799179077,-0.3810185194015503,0.7266861796379089,0.5911691784858704,0.5705811977386475,-0.27260977029800415,0.8557592034339905,0.7137279510498047,0.6710897088050842,-0.04426572844386101,0.9986247420310974,0.6657091379165649,0.686869204044342,0.044479161500930786,0.9982988238334656,0.7131084203720093,0.8502013087272644,-0.14713869988918304,0.7802442908287048,0.6802563071250916,0.8545910120010376,0.0014171975199133158,0.7057504653930664,0.746813952922821,1.0038803815841675,-0.11827943474054337,0.6086642742156982,0.717011570930481,0.9952584505081177,0.08583005517721176,0.6331262588500977,0.7559187412261963,0.9996198415756226,-0.12083135545253754,0.530368447303772,0.7298731207847595,1.0143179893493652,0.0895593911409378,0.5214299559593201,0.7365657091140747,1.0709164142608643,-0.2393191158771515,0.6041964888572693,0.7129526734352112,1.0561789274215698,-0.021297862753272057,0.5865188241004944
77,0.6169670820236206,0.4105408489704132,-0.10331859439611435,0.9997440576553345,0.6225763559341431,0.3933674395084381,-0.0857640877366066,0.9995383024215698,0.6271942257881165,0.39242908358573914,-0.08582296967506409,0.999459981918335,0.6319670081138611,0.3915887773036957,-0.08591534197330475,0.9994872808456421,0.6122758388519287,0.3942420780658722,-0.07897879183292389,0.9994719624519348,0.6092168092727661,0.3942122757434845,-0.07897980511188507,0.999405026435852,0.6061525940895081,0.394294410943985,-0.07898538559675217,0.9994500875473022,0.6433910131454468,0.3940082788467407,0.018206000328063965,0.9989978075027466,0.6079848408699036,0.39989739656448364,0.04550943151116371,0.9991181492805481,0.6253322958946228,0.4251450300216675,-0.0643024891614914,0.9996423125267029,0.614180326461792,0.42668667435646057,-0.05645854398608208,0.9996926784515381,0.6897804737091064,0.4520564675331116,0.022732604295015335,0.9996044635772705,0.5938223004341125,0.501809298992157,0.14155396819114685,0.9997224807739258,0.7435470223426819,0.5236497521400452,-0.1285008192062378,0.8003852963447571,0.5702961683273315,0.6119394302368164,0.041919153183698654,0.9303857684135437,0.7328611612319946,0.5144068002700806,-0.3674810528755188,0.7851350903511047,0.5737909078598022,0.6056787967681885,-0.2319139540195465,0.9126878976821899,0.7315452694892883,0.5256526470184326,-0.4199780523777008,0.7584524750709534,0.5750889182090759,0.6011008620262146,-0.2819540798664093,0.8789316415786743,0.7195971012115479,0.5198259949684143,-0.4320216178894043,0.7621141672134399,0.5799744725227356,0.5749894380569458,-0.28602805733680725,0.8814924359321594,0.7197278738021851,0.5195981860160828,-0.3774637281894684,0.7459756135940552,0.5803570747375488,0.5761675238609314,-0.23991544544696808,0.8649824261665344,0.7126900553703308,0.6813345551490784,-0.06487490981817245,0.9986557364463806,0.6650018095970154,0.7039520144462585,0.06507677584886551,0.9980663061141968,0.6983643770217896,0.8583341240882874,-0.1688070297241211,0.7639874815940857,0.6773437261581421,0.8590212464332581,0.015088786371052265,0.6481536626815796,0.7435311079025269,1.0418986082077026,-0.17992711067199707,0.5897322297096252,0.7126742601394653,1.0236531496047974,0.0807865783572197,0.5770853161811829,0.7522854804992676,1.058790683746338,-0.18493439257144928,0.5104073882102966,0.7260401844978333,1.0437569618225098,0.08232849836349487,0.4804575741291046,0.7054620981216431,1.1159026622772217,-0.30056068301200867,0.5776194930076599,0.7110952138900757,1.0878995656967163,-0.023009032011032104,0.535915732383728
78,0.610762357711792,0.4379138648509979,-0.06291970610618591,0.9997654557228088,0.6171094179153442,0.4200153350830078,-0.04653039574623108,0.9995790719985962,0.6217797994613647,0.4187146723270416,-0.04660666733980179,0.9995080828666687,0.6269271969795227,0.4174361526966095,-0.04674031585454941,0.9995335340499878,0.606838047504425,0.42187198996543884,-0.040320590138435364,0.9995195865631104,0.603906512260437,0.42219531536102295,-0.04031971096992493,0.9994585514068604,0.6009120941162109,0.42251232266426086,-0.040341030806303024,0.9995004534721375,0.6397957801818848,0.42146405577659607,0.04862508177757263,0.9990905523300171,0.6052778959274292,0.42634063959121704,0.07247014343738556,0.9991986751556396,0.6201852560043335,0.45360735058784485,-0.027580324560403824,0.9996719360351562,0.6097240447998047,0.45570218563079834,-0.020803777500987053,0.9997154474258423,0.6828947067260742,0.4788949191570282,0.04242639243602753,0.9996362924575806,0.591382622718811,0.5295733213424683,0.1536477953195572,0.9997082352638245,0.7415061593055725,0.5268166661262512,-0.09586691856384277,0.8187653422355652,0.5688375234603882,0.6258812546730042,0.0477365106344223,0.9222046732902527,0.7174593210220337,0.5578437447547913,-0.288083553314209,0.7995869517326355,0.561754047870636,0.6107481122016907,-0.2086258828639984,0.9134266376495361,0.7119861841201782,0.5737456679344177,-0.3287961184978485,0.7701492309570312,0.5594000816345215,0.60983806848526,-0.2527695596218109,0.8797374367713928,0.6971838474273682,0.5647398233413696,-0.32129159569740295,0.7733593583106995,0.5768690705299377,0.5925397276878357,-0.2524607479572296,0.8818122744560242,0.6982755661010742,0.5644097924232483,-0.28770211338996887,0.7571302056312561,0.5757814049720764,0.593828022480011,-0.21483561396598816,0.8655030727386475,0.7093604207038879,0.7033557295799255,-0.05133470892906189,0.998605489730835,0.6630988717079163,0.7273464202880859,0.05143071338534355,0.997728705406189,0.6980315446853638,0.8713036775588989,-0.16358576714992523,0.7481318116188049,0.6714210510253906,0.8773404359817505,-0.03609536588191986,0.6067810654640198,0.7403008341789246,1.0463268756866455,-0.14784055948257446,0.567329466342926,0.7098111510276794,1.0399205684661865,-0.001540841069072485,0.533026933670044,0.7510467767715454,1.0649734735488892,-0.1491982787847519,0.4905692934989929,0.7229052782058716,1.0587049722671509,-0.0016692548524588346,0.44652259349823,0.7088974714279175,1.1160163879394531,-0.24388258159160614,0.5492509007453918,0.7058005332946777,1.1065635681152344,-0.10018434375524521,0.4938582479953766
