frame,NOSE.x,NOSE.y,NOSE.z,NOSE.v,LEFT_EYE_INNER.x,LEFT_EYE_INNER.y,LEFT_EYE_INNER.z,LEFT_EYE_INNER.v,LEFT_EYE.x,LEFT_EYE.y,LEFT_EYE.z,LEFT_EYE.v,LEFT_EYE_OUTER.x,LEFT_EYE_OUTER.y,LEFT_EYE_OUTER.z,LEFT_EYE_OUTER.v,RIGHT_EYE_INNER.x,RIGHT_EYE_INNER.y,RIGHT_EYE_INNER.z,RIGHT_EYE_INNER.v,RIGHT_EYE.x,RIGHT_EYE.y,RIGHT_EYE.z,RIGHT_EYE.v,RIGHT_EYE_OUTER.x,RIGHT_EYE_OUTER.y,RIGHT_EYE_OUTER.z,RIGHT_EYE_OUTER.v,LEFT_EAR.x,LEFT_EAR.y,LEFT_EAR.z,LEFT_EAR.v,RIGHT_EAR.x,RIGHT_EAR.y,RIGHT_EAR.z,RIGHT_EAR.v,MOUTH_LEFT.x,MOUTH_LEFT.y,MOUTH_LEFT.z,MOUTH_LEFT.v,MOUTH_RIGHT.x,MOUTH_RIGHT.y,MOUTH_RIGHT.z,MOUTH_RIGHT.v,LEFT_SHOULDER.x,LEFT_SHOULDER.y,LEFT_SHOULDER.z,LEFT_SHOULDER.v,RIGHT_SHOULDER.x,RIGHT_SHOULDER.y,RIGHT_SHOULDER.z,RIGHT_SHOULDER.v,LEFT_ELBOW.x,LEFT_ELBOW.y,LEFT_ELBOW.z,LEFT_ELBOW.v,RIGHT_ELBOW.x,RIGHT_ELBOW.y,RIGHT_ELBOW.z,RIGHT_ELBOW.v,LEFT_WRIST.x,LEFT_WRIST.y,LEFT_WRIST.z,LEFT_WRIST.v,RIGHT_WRIST.x,RIGHT_WRIST.y,RIGHT_WRIST.z,RIGHT_WRIST.v,LEFT_PINKY.x,LEFT_PINKY.y,LEFT_PINKY.z,LEFT_PINKY.v,RIGHT_PINKY.x,RIGHT_PINKY.y,RIGHT_PINKY.z,RIGHT_PINKY.v,LEFT_INDEX.x,LEFT_INDEX.y,LEFT_INDEX.z,LEFT_INDEX.v,RIGHT_INDEX.x,RIGHT_INDEX.y,RIGHT_INDEX.z,RIGHT_INDEX.v,LEFT_THUMB.x,LEFT_THUMB.y,LEFT_THUMB.z,LEFT_THUMB.v,RIGHT_THUMB.x,RIGHT_THUMB.y,RIGHT_THUMB.z,RIGHT_THUMB.v,LEFT_HIP.x,LEFT_HIP.y,LEFT_HIP.z,LEFT_HIP.v,RIGHT_HIP.x,RIGHT_HIP.y,RIGHT_HIP.z,RIGHT_HIP.v,LEFT_KNEE.x,LEFT_KNEE.y,LEFT_KNEE.z,LEFT_KNEE.v,RIGHT_KNEE.x,RIGHT_KNEE.y,RIGHT_KNEE.z,RIGHT_KNEE.v,LEFT_ANKLE.x,LEFT_ANKLE.y,LEFT_ANKLE.z,LEFT_ANKLE.v,RIGHT_ANKLE.x,RIGHT_ANKLE.y,RIGHT_ANKLE.z,RIGHT_ANKLE.v,LEFT_HEEL.x,LEFT_HEEL.y,LEFT_HEEL.z,LEFT_HEEL.v,RIGHT_HEEL.x,RIGHT_HEEL.y,RIGHT_HEEL.z,RIGHT_HEEL.v,LEFT_FOOT_INDEX.x,LEFT_FOOT_INDEX.y,LEFT_FOOT_INDEX.z,LEFT_FOOT_INDEX.v,RIGHT_FOOT_INDEX.x,RIGHT_FOOT_INDEX.y,RIGHT_FOOT_INDEX.z,RIGHT_FOOT_INDEX.v
0
1
2
3
4
5
6
7
8
9
10
11
12
13
14
15
16
17
18
19
20
21
22
23
24
25
26
27
28
29
30
31
32
33
34
35
36
37
38
39
40
41
42
43
44
45
46
47
48
49
50
51
52
53
54
55
56
57
58
59
60
61
62
63
64
65
66
67
68,0.44069594144821167,0.34715986251831055,-0.18243347108364105,0.9994712471961975,0.4431452751159668,0.3394840657711029,-0.18246380984783173,0.9993190765380859,0.4458525776863098,0.33880260586738586,-0.18246974050998688,0.9993477463722229,0.44609442353248596,0.34014415740966797,-0.1825280338525772,0.9995135068893433,0.4392527937889099,0.34084171056747437,-0.17355911433696747,0.998923122882843,0.43885207176208496,0.3426893651485443,-0.17359812557697296,0.9986640214920044,0.43798166513442993,0.34306108951568604,-0.17364154756069183,0.998696506023407,0.452272891998291,0.3410412669181824,-0.15702128410339355,0.9994939565658569,0.44111841917037964,0.34504345059394836,-0.1162874698638916,0.9960193037986755,0.4459609389305115,0.35192835330963135,-0.1712304651737213,0.9997095465660095,0.44180184602737427,0.35362508893013,-0.15954278409481049,0.9989913105964661,0.4723016619682312,0.36806052923202515,-0.138200581073761,0.9999393224716187,0.44312772154808044,0.37376242876052856,-0.0504150465130806,0.9986162185668945,0.4904063642024994,0.4073837399482727,-0.13812355697155,0.9764641523361206,0.4523395895957947,0.40979039669036865,-0.016589339822530746,0.4770440459251404,0.47501152753829956,0.42424675822257996,-0.14619575440883636,0.8589260578155518,0.46239179372787476,0.4232148230075836,-0.038576044142246246,0.4012358784675598,0.47198933362960815,0.42989757657051086,-0.15890169143676758,0.8023036122322083,0.465524286031723,0.42882415652275085,-0.04235713183879852,0.3597268760204315,0.4692405164241791,0.4254322350025177,-0.1618029922246933,0.7905462384223938,0.46440744400024414,0.42609545588493347,-0.05481449514627457,0.3564833998680115,0.46986255049705505,0.42381200194358826,-0.1463792771100998,0.701832115650177,0.46414679288864136,0.42401012778282166,-0.043777838349342346,0.33423274755477905,0.48753875494003296,0.4317556619644165,-0.032445263117551804,0.9997995495796204,0.46787309646606445,0.43627187609672546,0.03253856673836708,0.9977249503135681,0.4878343939781189,0.4766627252101898,-0.16309024393558502,0.9814854860305786,0.46054428815841675,0.47796404361724854,0.0032783267088234425,0.6707494854927063,0.49497708678245544,0.5386663675308228,-0.1465601772069931,0.9903743267059326,0.4650103449821472,0.531714141368866,0.06938113272190094,0.7540446519851685,0.4996534287929535,0.5487228631973267,-0.1480005979537964,0.933438241481781,0.4702181816101074,0.5412962436676025,0.0731026902794838,0.7028865218162537,0.48182374238967896,0.5591144561767578,-0.21489281952381134,0.9846929311752319,0.4506751596927643,0.5499327778816223,0.03241625800728798,0.83253413438797
69,0.44583097100257874,0.3495921790599823,-0.1971788853406906,0.9995096325874329,0.4469267427921295,0.3421619236469269,-0.19721725583076477,0.9993652105331421,0.4483005106449127,0.3415772318840027,-0.19722233712673187,0.9993898272514343,0.45010051131248474,0.3412703573703766,-0.1972810924053192,0.9995466470718384,0.4431065618991852,0.34376949071884155,-0.18694224953651428,0.9989998936653137,0.4422872066497803,0.34435150027275085,-0.18698503077030182,0.9987561106681824,0.4414214491844177,0.3446761667728424,-0.187003955245018,0.998790979385376,0.4543583393096924,0.34217607975006104,-0.17176303267478943,0.9995256066322327,0.4451329708099365,0.3460776209831238,-0.12453749030828476,0.9962924718856812,0.4507080912590027,0.3549627959728241,-0.18603090941905975,0.9997252225875854,0.44737592339515686,0.3566649258136749,-0.17241232097148895,0.9990451335906982,0.4770379662513733,0.36808308959007263,-0.1580096334218979,0.9999407529830933,0.45098376274108887,0.3735993802547455,-0.051681578159332275,0.9986851215362549,0.49049878120422363,0.40973928570747375,-0.17219023406505585,0.977774441242218,0.46190524101257324,0.4085659980773926,-0.01638496108353138,0.4615171253681183,0.4707537591457367,0.42756029963493347,-0.18359574675559998,0.8661616444587708,0.4673651158809662,0.4221997559070587,-0.03986889868974686,0.3906412422657013,0.46631497144699097,0.43379685282707214,-0.19950227439403534,0.8103543519973755,0.4686904549598694,0.4282049536705017,-0.04540096968412399,0.3511674702167511,0.4634118676185608,0.4287261664867401,-0.200895756483078,0.799119234085083,0.46728888154029846,0.4257456362247467,-0.05894113704562187,0.3480645418167114,0.46521419286727905,0.4266427159309387,-0.1835070550441742,0.7113849520683289,0.4673698842525482,0.4235590994358063,-0.04592343419790268,0.32717856764793396,0.49336880445480347,0.4317565858364105,-0.034960225224494934,0.9997920989990234,0.4745859205722809,0.43516185879707336,0.03503900393843651,0.9978023171424866,0.4886576533317566,0.4769846498966217,-0.16300426423549652,0.9801784753799438,0.46294188499450684,0.4744720757007599,-0.03685426712036133,0.6809771060943604,0.49565252661705017,0.540174663066864,-0.1459701955318451,0.9898456335067749,0.466482937335968,0.5343115925788879,0.012978863902390003,0.7594301700592041,0.5009733438491821,0.5491234660148621,-0.14740893244743347,0.929481029510498,0.47168436646461487,0.5440225601196289,0.014978250488638878,0.7066426873207092,0.481804758310318,0.5591285228729248,-0.21406559646129608,0.9843640327453613,0.45160049200057983,0.5521060824394226,-0.027830976992845535,0.8354936242103577
70,0.44722747802734375,0.35453158617019653,-0.16085824370384216,0.9994656443595886,0.44895777106285095,0.34368762373924255,-0.16451658308506012,0.999306857585907,0.4500081539154053,0.3431137800216675,-0.1645345389842987,0.9993356466293335,0.45131930708885193,0.34254932403564453,-0.16458898782730103,0.9994985461235046,0.44581156969070435,0.34539932012557983,-0.153115913271904,0.9989198446273804,0.4451156258583069,0.3457263112068176,-0.15315794944763184,0.9986716508865356,0.4436224102973938,0.3450435698032379,-0.15319280326366425,0.998725414276123,0.4564739763736725,0.34358394145965576,-0.15249036252498627,0.9994882941246033,0.4496232867240906,0.34882742166519165,-0.09910397976636887,0.996204137802124,0.45243948698043823,0.3582350015640259,-0.15404844284057617,0.9996933341026306,0.45027270913124084,0.3595907390117645,-0.1388120800256729,0.998958170413971,0.4793943762779236,0.3673751950263977,-0.1459907740354538,0.9999379515647888,0.4552691876888275,0.37416237592697144,-0.031768798828125,0.9987236261367798,0.4905568063259125,0.407858282327652,-0.1560535728931427,0.9775380492210388,0.46436911821365356,0.4090632498264313,0.00677042081952095,0.44635358452796936,0.4714899957180023,0.42138245701789856,-0.16525542736053467,0.864287793636322,0.46859827637672424,0.4237491488456726,-0.02045615203678608,0.3891684412956238,0.46748819947242737,0.42648664116859436,-0.17932352423667908,0.809328019618988,0.46953248977661133,0.4304361343383789,-0.025514736771583557,0.35277029871940613,0.4646880030632019,0.42129743099212646,-0.18192557990550995,0.7976675033569336,0.4684165120124817,0.4274948239326477,-0.038905855268239975,0.34984347224235535,0.4660075604915619,0.41977113485336304,-0.16538463532924652,0.7080680131912231,0.46870166063308716,0.42490720748901367,-0.02660742774605751,0.32971349358558655,0.4945768415927887,0.4320964217185974,-0.037675146013498306,0.9997865557670593,0.47669845819473267,0.4351937174797058,0.037749163806438446,0.9979006052017212,0.48818784952163696,0.47765037417411804,-0.14165516197681427,0.980078399181366,0.46332159638404846,0.4748736023902893,-0.02359512820839882,0.6880461573600769,0.49563831090927124,0.5407196879386902,-0.13541413843631744,0.9900270104408264,0.46709737181663513,0.5358180999755859,0.006980416364967823,0.7700799107551575,0.501072108745575,0.5491440296173096,-0.13752388954162598,0.9291588068008423,0.4716936945915222,0.5456128716468811,0.00740091735497117,0.7178782820701599,0.48178720474243164,0.560067355632782,-0.19642524421215057,0.9847200512886047,0.4509032666683197,0.5530450940132141,-0.031004777178168297,0.8433939218521118
71,0.4678054451942444,0.4295620918273926,0.07111318409442902,0.9992900490760803,0.47024425864219666,0.4244900047779083,0.07667671144008636,0.998984694480896,0.47120410203933716,0.42483675479888916,0.07672253251075745,0.9990704655647278,0.47327834367752075,0.4246949553489685,0.07671396434307098,0.9991331696510315,0.4670826494693756,0.42430007457733154,0.08193057775497437,0.9987121820449829,0.4666372835636139,0.4241231679916382,0.08192947506904602,0.9985655546188354,0.4660271108150482,0.42408931255340576,0.0818898156285286,0.998587965965271,0.47588983178138733,0.4240884482860565,0.09943205863237381,0.9992527961730957,0.464695543050766,0.42922481894493103,0.12343001365661621,0.9963283538818359,0.47175031900405884,0.43150565028190613,0.07851029932498932,0.9992470741271973,0.46801766753196716,0.43087777495384216,0.08526208996772766,0.9985058307647705,0.48743486404418945,0.4222799837589264,0.08018698543310165,0.9999319314956665,0.46449142694473267,0.4369438886642456,0.12924881279468536,0.998812735080719,0.49160972237586975,0.41669195890426636,0.07036875188350677,0.9649755358695984,0.46659302711486816,0.4522870182991028,0.11610402166843414,0.41587430238723755,0.47020357847213745,0.41489335894584656,0.10495617240667343,0.8427273035049438,0.46631211042404175,0.46378853917121887,0.08426301181316376,0.3869911730289459,0.46489161252975464,0.4148615300655365,0.10593877732753754,0.7830778956413269,0.46356210112571716,0.4688360393047333,0.08242107182741165,0.35828453302383423,0.4634551405906677,0.41436538100242615,0.11557547748088837,0.7686740159988403,0.46485987305641174,0.4684840738773346,0.07773060351610184,0.35703855752944946,0.46489256620407104,0.4148734211921692,0.10988534986972809,0.6842069625854492,0.46650266647338867,0.4665467441082001,0.08217059075832367,0.33786478638648987,0.49557265639305115,0.45691579580307007,-0.027791302651166916,0.9998074173927307,0.4795040190219879,0.46571236848831177,0.027640098705887794,0.9981079697608948,0.48563703894615173,0.471485435962677,-0.14860740303993225,0.9818297624588013,0.4612431526184082,0.4738391935825348,-0.06290045380592346,0.7084378600120544,0.49615922570228577,0.5414682030677795,-0.21142923831939697,0.9899494647979736,0.46696558594703674,0.5359939336776733,-0.11082093417644501,0.7813233733177185,0.5041101574897766,0.5492160320281982,-0.21851685643196106,0.9338237643241882,0.4711865782737732,0.5453894138336182,-0.11652623116970062,0.7388046383857727,0.48411136865615845,0.5621194839477539,-0.2565596103668213,0.9853112101554871,0.4511081278324127,0.5528208017349243,-0.1429709494113922,0.852607250213623
72,0.46801814436912537,0.42898789048194885,0.05844160169363022,0.9992092847824097,0.47171464562416077,0.4253316819667816,0.06479857116937637,0.9989085793495178,0.47302523255348206,0.4256884455680847,0.06482391804456711,0.9989665150642395,0.4754716455936432,0.42546483874320984,0.06480515748262405,0.9990508556365967,0.4675285816192627,0.42532819509506226,0.06843171268701553,0.9986538887023926,0.4656864106655121,0.4244807958602905,0.0684269517660141,0.998518168926239,0.46486514806747437,0.4243364930152893,0.06840161979198456,0.9986094832420349,0.47810259461402893,0.4252099096775055,0.0907662883400917,0.9991725087165833,0.46323853731155396,0.42817285656929016,0.10785653442144394,0.9965215921401978,0.4710426330566406,0.4333243668079376,0.06729789823293686,0.9991083145141602,0.4666019082069397,0.4330690801143646,0.07201991975307465,0.9984381198883057,0.48618000745773315,0.43089720606803894,0.0795954018831253,0.9998832941055298,0.46071377396583557,0.440357506275177,0.11942591518163681,0.9988946914672852,0.49158215522766113,0.42333459854125977,0.06810487806797028,0.9440602660179138,0.46252894401550293,0.446258544921875,0.12561562657356262,0.4083082675933838,0.4714806079864502,0.416808545589447,0.09830889105796814,0.7947995662689209,0.4537877142429352,0.45946407318115234,0.12253335863351822,0.4023072421550751,0.4665103852748871,0.4171024560928345,0.09935401380062103,0.7335142493247986,0.45116835832595825,0.4410395622253418,0.12161844968795776,0.37416502833366394,0.46631091833114624,0.41680067777633667,0.10484961420297623,0.7181696891784668,0.45247697830200195,0.4420453906059265,0.12089098989963531,0.3737238049507141,0.467364639043808,0.41578200459480286,0.10130982100963593,0.6418808102607727,0.45442861318588257,0.44853267073631287,0.12201915681362152,0.3568968176841736,0.494466632604599,0.4725581407546997,-0.018743596971035004,0.9998153448104858,0.47753944993019104,0.4802629351615906,0.018700581043958664,0.9982540607452393,0.4846852719783783,0.4668537378311157,-0.14134910702705383,0.9832577109336853,0.46025294065475464,0.4809495508670807,-0.0864059180021286,0.7315148711204529,0.49617570638656616,0.5347721576690674,-0.18917050957679749,0.9887308478355408,0.4650852084159851,0.5359582901000977,-0.1344529688358307,0.7919449806213379,0.5017226934432983,0.5446088314056396,-0.1953667849302292,0.9344360828399658,0.46950745582580566,0.5445923209190369,-0.14039310812950134,0.7562896609306335,0.4888128340244293,0.5607418417930603,-0.2366303652524948,0.9850674271583557,0.45524731278419495,0.5528579950332642,-0.17410418391227722,0.8619752526283264
73,0.4639182686805725,0.3646116852760315,-0.20584020018577576,0.9990198612213135,0.47131529450416565,0.3566202223300934,-0.20200932025909424,0.9986519813537598,0.47153347730636597,0.35604581236839294,-0.20203204452991486,0.998716413974762,0.46993881464004517,0.35530468821525574,-0.20210106670856476,0.9988591074943542,0.4582328200340271,0.35860735177993774,-0.1956009417772293,0.9981898069381714,0.4551776945590973,0.3591519296169281,-0.19562597572803497,0.9978675246238708,0.4531473219394684,0.36004623770713806,-0.19563689827919006,0.997835636138916,0.4764079451560974,0.3576495945453644,-0.16193415224552155,0.9989840984344482,0.45058733224868774,0.3637143075466156,-0.13184815645217896,0.9949578046798706,0.46610158681869507,0.36909931898117065,-0.18938860297203064,0.9990753531455994,0.4614551067352295,0.37046897411346436,-0.18076053261756897,0.9981973171234131,0.4858892560005188,0.38269031047821045,-0.14218279719352722,0.999886691570282,0.4594869613647461,0.3919408917427063,-0.06016864627599716,0.9982208013534546,0.49709901213645935,0.4129513204097748,-0.1834719032049179,0.9487327337265015,0.4620088040828705,0.42136305570602417,-0.033978644758462906,0.38766583800315857,0.478238046169281,0.4269351065158844,-0.23503057658672333,0.8109210729598999,0.4563637375831604,0.4350152611732483,-0.06899835169315338,0.38517147302627563,0.47517386078834534,0.43501660227775574,-0.25531941652297974,0.7532294988632202,0.4555256962776184,0.4350176155567169,-0.07660841196775436,0.36384835839271545,0.47058337926864624,0.4311540722846985,-0.256285697221756,0.7389464974403381,0.455380916595459,0.4328959584236145,-0.08745083957910538,0.3631061315536499,0.4714806079864502,0.42864614725112915,-0.23584981262683868,0.663977324962616,0.45674601197242737,0.4331120252609253,-0.07423092424869537,0.3461305797100067,0.495391845703125,0.44650062918663025,-0.022534824907779694,0.9997692704200745,0.47692808508872986,0.44772234559059143,0.022453194484114647,0.9978669285774231,0.4892158508300781,0.4799509346485138,-0.15174062550067902,0.9779588580131531,0.46190181374549866,0.479279488325119,-0.0847868099808693,0.7344411015510559,0.49774008989334106,0.5359833240509033,-0.12520048022270203,0.9850279688835144,0.4678320288658142,0.5358309149742126,-0.046488743275403976,0.7869085073471069,0.5037795305252075,0.545867383480072,-0.1248994916677475,0.920993447303772,0.4724842607975006,0.5446089506149292,-0.04707053676247597,0.7454944252967834,0.4880124032497406,0.5607098340988159,-0.18815219402313232,0.9806070327758789,0.45498842000961304,0.5537610650062561,-0.08933182060718536,0.8547080159187317
74,0.45703738927841187,0.3563575744628906,-0.09487555176019669,0.9991039633750916,0.46372079849243164,0.34983569383621216,-0.09682946652173996,0.9987701773643494,0.46422186493873596,0.34947988390922546,-0.09688332676887512,0.9988279938697815,0.46331262588500977,0.34918132424354553,-0.09690895676612854,0.9989604949951172,0.4574236273765564,0.3511011302471161,-0.08670253306627274,0.9983484148979187,0.4545794129371643,0.35161036252975464,-0.08669040352106094,0.9980520009994507,0.4523819386959076,0.35210877656936646,-0.08670560270547867,0.9980269074440002,0.4683816432952881,0.3519271910190582,-0.10558229684829712,0.9990731477737427,0.4510858654975891,0.35545504093170166,-0.0446203351020813,0.9954091310501099,0.4638373851776123,0.3617652952671051,-0.0913645476102829,0.9991574287414551,0.4611898362636566,0.36242178082466125,-0.07789634168148041,0.998350977897644,0.4817725121974945,0.37255963683128357,-0.0898820161819458,0.9998946189880371,0.4579308032989502,0.38330259919166565,0.014650590717792511,0.998306930065155,0.48835816979408264,0.40902388095855713,-0.11379800736904144,0.9529091715812683,0.4612358510494232,0.4166041910648346,0.03379577025771141,0.37597864866256714,0.47410616278648376,0.4288993179798126,-0.13941557705402374,0.8248640298843384,0.45705538988113403,0.4346742630004883,-0.01584804058074951,0.3739144206047058,0.47274303436279297,0.4369366466999054,-0.1553608477115631,0.7702808380126953,0.4567705988883972,0.43705666065216064,-0.019319742918014526,0.35309118032455444,0.4682731032371521,0.433072030544281,-0.15736040472984314,0.7573215365409851,0.4563269019126892,0.4340464770793915,-0.02932051196694374,0.35364603996276855,0.46923691034317017,0.4307135045528412,-0.14022277295589447,0.6849779486656189,0.4571542739868164,0.43328970670700073,-0.01913556642830372,0.3383355736732483,0.49347561597824097,0.43835940957069397,-0.03367464989423752,0.9997584223747253,0.47671714425086975,0.4419415593147278,0.033673882484436035,0.9979662299156189,0.488492488861084,0.48451295495033264,-0.08107560873031616,0.9741761684417725,0.46632272005081177,0.4843238592147827,-0.013771435245871544,0.7235205173492432,0.4975506365299225,0.5378154516220093,-0.06918327510356903,0.9842542409896851,0.4743770956993103,0.5381929278373718,0.004406451713293791,0.7850950360298157,0.5033814907073975,0.5461342930793762,-0.07005332410335541,0.9178074598312378,0.4798929691314697,0.546813428401947,0.004030189476907253,0.74711012840271,0.4865652620792389,0.5612598061561584,-0.11381582915782928,0.9792013764381409,0.45669636130332947,0.5545263290405273,-0.02880058065056801,0.8527181148529053
75,0.4543164372444153,0.3615884482860565,-0.03959624841809273,0.9991875290870667,0.4574005603790283,0.35411664843559265,-0.042220763862133026,0.9988870024681091,0.4569898545742035,0.35362499952316284,-0.0422370471060276,0.9989387392997742,0.45791202783584595,0.35289478302001953,-0.04225294291973114,0.9990592002868652,0.45484837889671326,0.3556302487850189,-0.03305007889866829,0.9985071420669556,0.4535008370876312,0.35601890087127686,-0.03306116908788681,0.9982389807701111,0.4521225094795227,0.35681432485580444,-0.033091895282268524,0.9982175827026367,0.464359849691391,0.3527997136116028,-0.03659519925713539,0.999161958694458,0.452251672744751,0.35680073499679565,0.005293619818985462,0.995857298374176,0.45983996987342834,0.3648763597011566,-0.03586575761437416,0.9992377161979675,0.45886558294296265,0.36633166670799255,-0.024030344560742378,0.998506486415863,0.4816977381706238,0.36898428201675415,-0.04691758751869202,0.9999027252197266,0.4573100507259369,0.38291552662849426,0.04702872037887573,0.998436689376831,0.4885404109954834,0.40622350573539734,-0.07509111613035202,0.9566256999969482,0.4574736952781677,0.41517916321754456,0.03342849761247635,0.3899478316307068,0.47324904799461365,0.4281574487686157,-0.13590416312217712,0.8344480395317078,0.4561634063720703,0.422969788312912,-0.04171067848801613,0.3830052614212036,0.4716610312461853,0.43654412031173706,-0.13766878843307495,0.7799988389015198,0.4562394618988037,0.4274505376815796,-0.052838969975709915,0.3596048653125763,0.4673219323158264,0.432496041059494,-0.12717077136039734,0.7680138945579529,0.456230103969574,0.42183372378349304,-0.0566980317234993,0.35991930961608887,0.468876451253891,0.4295215606689453,-0.12712228298187256,0.6965007185935974,0.45699048042297363,0.4203273057937622,-0.045546967536211014,0.3433598279953003,0.4923973083496094,0.43456384539604187,-0.03289629518985748,0.9997564554214478,0.4764423370361328,0.4403233826160431,0.03289804607629776,0.9980994462966919,0.483633816242218,0.48199376463890076,-0.09374086558818817,0.9726956486701965,0.46525734663009644,0.48291391134262085,-0.01857915334403515,0.7190233469009399,0.4913281798362732,0.5373409986495972,-0.10326264053583145,0.982692301273346,0.474815309047699,0.5376507639884949,-0.010521292686462402,0.778156578540802,0.4985671043395996,0.5454416275024414,-0.10550016164779663,0.9182603359222412,0.4814760684967041,0.5463869571685791,-0.013841331005096436,0.7456740736961365,0.4809303879737854,0.5601167678833008,-0.14681878685951233,0.9781423211097717,0.45902538299560547,0.5551765561103821,-0.042438749223947525,0.8465182185173035
76,0.45687809586524963,0.3870469331741333,-0.15902426838874817,0.9990444779396057,0.4590488076210022,0.38030576705932617,-0.16115033626556396,0.9986610412597656,0.4599286913871765,0.3796207010746002,-0.161143496632576,0.9986915588378906,0.46120691299438477,0.37887367606163025,-0.16118140518665314,0.9988225698471069,0.45613375306129456,0.38126251101493835,-0.15457433462142944,0.9981685876846313,0.45507416129112244,0.38128501176834106,-0.15460427105426788,0.997864842414856,0.4539962708950043,0.3814098536968231,-0.15463179349899292,0.9979994893074036,0.4667714238166809,0.37620413303375244,-0.1402946412563324,0.9989466071128845,0.45591869950294495,0.3791190981864929,-0.11069130897521973,0.9957472085952759,0.46174073219299316,0.3890857398509979,-0.14879128336906433,0.9992160201072693,0.45859795808792114,0.3904133141040802,-0.14021846652030945,0.9984301924705505,0.4842907786369324,0.38753801584243774,-0.1118546724319458,0.999902606010437,0.4578056335449219,0.3959504961967468,-0.05227801948785782,0.9985502362251282,0.4961245656013489,0.4158625304698944,-0.10319273173809052,0.9575138092041016,0.458855003118515,0.42458370327949524,-0.007132173515856266,0.41308358311653137,0.49206942319869995,0.4409511983394623,-0.11553182452917099,0.8281735181808472,0.460331529378891,0.43680837750434875,-0.01792724058032036,0.41999226808547974,0.49324172735214233,0.4490967094898224,-0.12287385761737823,0.7669700980186462,0.4607623517513275,0.4430179297924042,-0.028173958882689476,0.3927850127220154,0.4897368550300598,0.44749581813812256,-0.1289437711238861,0.7555882930755615,0.4606912136077881,0.43904024362564087,-0.034280989319086075,0.3931775987148285,0.48882508277893066,0.4447896182537079,-0.11687467247247696,0.6855241656303406,0.4615495800971985,0.4368816614151001,-0.02227969840168953,0.3771316111087799,0.49366775155067444,0.4368860125541687,-0.022946054115891457,0.9997309446334839,0.4770476818084717,0.4417715072631836,0.02295788750052452,0.9981785416603088,0.48585742712020874,0.48085805773735046,-0.10460187494754791,0.9669583439826965,0.4651169180870056,0.4821775257587433,-0.0535772442817688,0.7236273288726807,0.4935672879219055,0.534201979637146,-0.08803170174360275,0.9810124039649963,0.4739667475223541,0.5365835428237915,-0.026884566992521286,0.7861284613609314,0.4990186095237732,0.5422701239585876,-0.08816009014844894,0.9152536988258362,0.48024219274520874,0.5440523624420166,-0.026406507939100266,0.7508137822151184,0.4888002872467041,0.5522366166114807,-0.13278242945671082,0.9765214920043945,0.4616829752922058,0.5555343627929688,-0.061346422880887985,0.8487433791160583
77,0.45568400621414185,0.38359200954437256,-0.0850314125418663,0.9991343021392822,0.4578176438808441,0.3787275552749634,-0.08895567804574966,0.998786985874176,0.4586719870567322,0.37710222601890564,-0.0889633372426033,0.9988133907318115,0.45948296785354614,0.37257787585258484,-0.088980533182621,0.9989332556724548,0.45576220750808716,0.37902215123176575,-0.07967233657836914,0.9983423948287964,0.4546002745628357,0.3779527246952057,-0.07967938482761383,0.9980667233467102,0.45338907837867737,0.3777168393135071,-0.07970155775547028,0.99819016456604,0.46563202142715454,0.37169918417930603,-0.09190620481967926,0.9990456700325012,0.45524412393569946,0.37270835041999817,-0.045354269444942474,0.9961592555046082,0.46115222573280334,0.3851757347583771,-0.08145276457071304,0.9992915391921997,0.45835548639297485,0.3838748633861542,-0.06955207884311676,0.9985819458961487,0.4836443066596985,0.3867242932319641,-0.08679763972759247,0.9999097585678101,0.4586621820926666,0.3945521414279938,0.007855481468141079,0.9986807703971863,0.492462158203125,0.42023488879203796,-0.1011214479804039,0.9608118534088135,0.4582974910736084,0.4242384135723114,0.028073791414499283,0.4326563775539398,0.4790881276130676,0.44379061460494995,-0.09785833954811096,0.8383274078369141,0.4563814699649811,0.43628624081611633,-0.013171650469303131,0.4430617094039917,0.47706517577171326,0.45198336243629456,-0.10855601727962494,0.7784508466720581,0.4558683931827545,0.442218154668808,-0.020785439759492874,0.4140181243419647,0.4734901487827301,0.44845396280288696,-0.1119568794965744,0.7679741978645325,0.4555533528327942,0.4380638003349304,-0.029337774962186813,0.4151422679424286,0.4742856025695801,0.4458850920200348,-0.09808877110481262,0.7001319527626038,0.45657747983932495,0.43621522188186646,-0.017990531399846077,0.3987996280193329,0.49366816878318787,0.43754202127456665,-0.030766483396291733,0.9997313022613525,0.4792654514312744,0.44269898533821106,0.030753910541534424,0.9983004331588745,0.4821430742740631,0.4848548173904419,-0.07182075828313828,0.9603223204612732,0.46646714210510254,0.48263218998908997,-0.01528466772288084,0.7011324763298035,0.48910340666770935,0.5380058884620667,-0.06349504739046097,0.9793099164962769,0.47688406705856323,0.5368503332138062,0.0007595531642436981,0.7761651873588562,0.49437111616134644,0.5444148778915405,-0.06388714909553528,0.9131090044975281,0.4826602339744568,0.5442866086959839,0.001138333580456674,0.7458170652389526,0.47838544845581055,0.5572860836982727,-0.09955818951129913,0.9751482009887695,0.4655625820159912,0.5562172532081604,-0.026895875111222267,0.8432920575141907
78,0.452784925699234,0.3799645006656647,-0.060894675552845,0.9991940259933472,0.45414024591445923,0.3741512894630432,-0.0630437508225441,0.9988781809806824,0.4550406038761139,0.37323904037475586,-0.0630539134144783,0.9989006519317627,0.45600977540016174,0.37129300832748413,-0.06308184564113617,0.999017059803009,0.45265164971351624,0.37495553493499756,-0.05554001405835152,0.998464822769165,0.45191508531570435,0.3747764527797699,-0.05554022639989853,0.9981948137283325,0.45118293166160583,0.374845415353775,-0.05557013303041458,0.9983215928077698,0.4612368941307068,0.37050390243530273,-0.053939271718263626,0.9991135597229004,0.45414990186691284,0.3727940022945404,-0.020279955118894577,0.9964552521705627,0.4570530354976654,0.3826005756855011,-0.055343568325042725,0.9993330240249634,0.45484161376953125,0.3825574517250061,-0.04576384648680687,0.9986668229103088,0.47405076026916504,0.3861231207847595,-0.05705275386571884,0.9999156594276428,0.45942872762680054,0.39355385303497314,0.024769006296992302,0.9987840056419373,0.4806583821773529,0.42366573214530945,-0.06392285972833633,0.9624207019805908,0.46362248063087463,0.4239860475063324,0.040817804634571075,0.42819610238075256,0.4718019366264343,0.43954914808273315,-0.06930720061063766,0.8434708714485168,0.4665619432926178,0.4378664791584015,0.006087536923587322,0.4438743591308594,0.47074002027511597,0.44547349214553833,-0.07822233438491821,0.784670352935791,0.46772560477256775,0.4437354803085327,0.0013090192805975676,0.41608867049217224,0.4693576693534851,0.4419254958629608,-0.07987447828054428,0.774742066860199,0.46677660942077637,0.440705806016922,-0.007328984793275595,0.41704657673835754,0.46966490149497986,0.44016793370246887,-0.06919185817241669,0.7085475921630859,0.4667530953884125,0.43881580233573914,0.0018210342386737466,0.4018525183200836,0.48738425970077515,0.4379834234714508,-0.031004389747977257,0.999722957611084,0.4796369671821594,0.44172403216362,0.031002914533019066,0.9983784556388855,0.47405996918678284,0.4836360216140747,-0.059100985527038574,0.9607246518135071,0.4754919409751892,0.4782705307006836,-0.003007185412570834,0.6914907097816467,0.48149508237838745,0.5349794030189514,-0.0684693232178688,0.9802818894386292,0.49385252594947815,0.5242871046066284,-0.004752791486680508,0.7821400165557861,0.486614853143692,0.5413320064544678,-0.07048697769641876,0.9188845753669739,0.5004573464393616,0.5304819345474243,-0.005767380353063345,0.7546472549438477,0.4719454348087311,0.5541807413101196,-0.10096471011638641,0.9761969447135925,0.485461562871933,0.5418274402618408,-0.031426072120666504,0.8469599485397339
79,0.44837188720703125,0.37648406624794006,-0.1427673101425171,0.9992395043373108,0.45086804032325745,0.37109869718551636,-0.14479395747184753,0.9989199638366699,0.45220476388931274,0.3703981339931488,-0.144810751080513,0.9989315867424011,0.45358148217201233,0.3690248429775238,-0.14486163854599,0.9990448355674744,0.4482826292514801,0.3712690770626068,-0.1357486993074417,0.9985312819480896,0.4474664628505707,0.3708755671977997,-0.135761559009552,0.9982641339302063,0.4466545581817627,0.3707762062549591,-0.1357918381690979,0.99839848279953,0.4594734311103821,0.3678852915763855,-0.12698550522327423,0.9991507530212402,0.45009464025497437,0.3690090775489807,-0.08636293560266495,0.9966180324554443,0.4530470371246338,0.3797388970851898,-0.13409025967121124,0.9993786215782166,0.4495173394680023,0.38000431656837463,-0.12244317680597305,0.9987660646438599,0.4752621650695801,0.3860073685646057,-0.12004926055669785,0.999915599822998,0.4522547721862793,0.3912512958049774,-0.02684381976723671,0.9988902807235718,0.48273521661758423,0.4276162385940552,-0.1358615905046463,0.9649494886398315,0.4537864625453949,0.4239145815372467,-0.02570318803191185,0.43752309679985046,0.46649861335754395,0.44254592061042786,-0.1481858491897583,0.8532271981239319,0.4567645490169525,0.43751123547554016,-0.09095995873212814,0.46266308426856995,0.462980180978775,0.4486788809299469,-0.1632944941520691,0.7974908947944641,0.45696282386779785,0.44409140944480896,-0.10276024043560028,0.43778496980667114,0.46103066205978394,0.44374698400497437,-0.16531912982463837,0.7884368300437927,0.4576435089111328,0.4401839077472687,-0.11218790709972382,0.43920260667800903,0.46240562200546265,0.44182008504867554,-0.1485518515110016,0.723508894443512,0.45831388235092163,0.43812042474746704,-0.09666187316179276,0.42321139574050903,0.4867841601371765,0.44198372960090637,-0.030843745917081833,0.9996887445449829,0.4722931981086731,0.4444253146648407,0.030844833701848984,0.9984570145606995,0.48339611291885376,0.4855823814868927,-0.08920992910861969,0.957555890083313,0.46605831384658813,0.487344354391098,-0.011751243844628334,0.6942280530929565,0.5014261603355408,0.52644944190979,-0.05092310160398483,0.9791706204414368,0.47663187980651855,0.5406065583229065,0.013874024152755737,0.791679859161377,0.5065069198608398,0.5302081108093262,-0.048770878463983536,0.9157402515411377,0.48818427324295044,0.5423701405525208,0.015832994133234024,0.7621558904647827,0.496279239654541,0.5469912886619568,-0.09027543663978577,0.97527676820755,0.4656161367893219,0.5569111704826355,-0.01932968571782112,0.8515142202377319
80,0.4489153027534485,0.3763839900493622,-0.11464394629001617,0.9993088841438293,0.45085567235946655,0.3704632520675659,-0.11517752707004547,0.9990176558494568,0.45205697417259216,0.36980849504470825,-0.11518704891204834,0.9990274310112,0.45351141691207886,0.36868777871131897,-0.11522676795721054,0.999131441116333,0.44846898317337036,0.37101343274116516,-0.10696344077587128,0.998664915561676,0.44787174463272095,0.37079933285713196,-0.10697833448648453,0.9984217286109924,0.44718438386917114,0.3706870973110199,-0.1070091500878334,0.9985455870628357,0.4586121439933777,0.36773574352264404,-0.10032103210687637,0.9992291927337646,0.4503580927848816,0.36911264061927795,-0.06030073016881943,0.9969356060028076,0.45338934659957886,0.38021010160446167,-0.10618388652801514,0.999437689781189,0.4502786099910736,0.3813580572605133,-0.09561367332935333,0.9988824725151062,0.4757511019706726,0.3860447108745575,-0.09800702333450317,0.999921977519989,0.45243558287620544,0.39286646246910095,-0.007573841605335474,0.9989896416664124,0.4835151135921478,0.42431938648223877,-0.12194552272558212,0.9678160548210144,0.4537164270877838,0.42550191283226013,-0.00795801728963852,0.4504128098487854,0.46827712655067444,0.4406074583530426,-0.1458570957183838,0.8639125823974609,0.4539032578468323,0.4374614953994751,-0.07765142619609833,0.48265543580055237,0.4646947979927063,0.447408527135849,-0.1613796353340149,0.8110549449920654,0.4533890187740326,0.4435361921787262,-0.09076397120952606,0.45681172609329224,0.4621443748474121,0.44248953461647034,-0.16377396881580353,0.8028623461723328,0.45394906401634216,0.43935486674308777,-0.09928648173809052,0.45891284942626953,0.46363529562950134,0.4404977858066559,-0.14663943648338318,0.7399225234985352,0.4548637866973877,0.4374195635318756,-0.08341306447982788,0.4426947236061096,0.48688918352127075,0.4444447159767151,-0.030937235802412033,0.999698281288147,0.4730004370212555,0.44738733768463135,0.03093934990465641,0.9985731840133667,0.48619014024734497,0.4893723428249359,-0.09320323169231415,0.9583678841590881,0.4659329950809479,0.4912813603878021,-0.034898541867733,0.7089518308639526,0.5010138750076294,0.5385867953300476,-0.07863523066043854,0.9802561402320862,0.47558918595314026,0.5451459288597107,-0.011968131177127361,0.8048675656318665,0.50652015209198,0.5442136526107788,-0.07930571585893631,0.9180161952972412,0.48501211404800415,0.5512210726737976,-0.011667026206851006,0.7746874094009399,0.4913533627986908,0.5643845200538635,-0.1252700537443161,0.9764671921730042,0.458967924118042,0.5622247457504272,-0.049054261296987534,0.8598742485046387
81,0.4460245966911316,0.375367671251297,-0.13754168152809143,0.9993535280227661,0.4490688443183899,0.3702247440814972,-0.13661620020866394,0.9990828633308411,0.4504221975803375,0.36964619159698486,-0.1366375982761383,0.9990889430046082,0.4523344933986664,0.36861124634742737,-0.13668060302734375,0.9991889595985413,0.4452384412288666,0.37064751982688904,-0.12857495248317719,0.9987528920173645,0.44449958205223083,0.3705523610115051,-0.12859398126602173,0.9985173940658569,0.4439202845096588,0.37040913105010986,-0.12861382961273193,0.9986397624015808,0.4565369486808777,0.36889326572418213,-0.11553977429866791,0.9992700815200806,0.4464815557003021,0.37027591466903687,-0.07928267866373062,0.997117817401886,0.4510597586631775,0.3800577223300934,-0.1287064105272293,0.9994689226150513,0.44647637009620667,0.3809939920902252,-0.11834321916103363,0.9989483952522278,0.4711575508117676,0.39289215207099915,-0.11730968952178955,0.9999216794967651,0.4501726031303406,0.3968726396560669,-0.017650965601205826,0.9989752769470215,0.47495269775390625,0.43309423327445984,-0.12655627727508545,0.9688660502433777,0.4490583539009094,0.43078190088272095,0.00371723435819149,0.44494539499282837,0.46057581901550293,0.4499451220035553,-0.13058504462242126,0.8652560114860535,0.4467463493347168,0.4437657296657562,-0.03883369266986847,0.47585105895996094,0.4578336179256439,0.4557826817035675,-0.14371442794799805,0.8139593601226807,0.4457519054412842,0.44881540536880493,-0.044188015162944794,0.4524994194507599,0.45570722222328186,0.45237648487091064,-0.14613009989261627,0.8062370419502258,0.44535931944847107,0.44572383165359497,-0.060356926172971725,0.4554485082626343,0.4569820463657379,0.4507805407047272,-0.1311015784740448,0.7433876395225525,0.446432501077652,0.4444725215435028,-0.04648389294743538,0.4400956630706787,0.4836577773094177,0.4522382318973541,-0.034709248691797256,0.9996916651725769,0.47010093927383423,0.4540437161922455,0.03471462428569794,0.9985629320144653,0.48035916686058044,0.4968588948249817,-0.08007562905550003,0.9516465663909912,0.4613584876060486,0.49667656421661377,0.0002193811524193734,0.6784863471984863,0.49730730056762695,0.5459051728248596,-0.059934236109256744,0.9797690510749817,0.4691930413246155,0.5468069911003113,0.041929591447114944,0.7884286642074585,0.5051310658454895,0.5514681339263916,-0.05988556146621704,0.9162201285362244,0.4785621762275696,0.5514326095581055,0.044443123042583466,0.7634680867195129,0.48406630754470825,0.5679872035980225,-0.10266568511724472,0.9760701060295105,0.4553413987159729,0.5639623999595642,0.015663914382457733,0.8531395792961121
82,0.4454552233219147,0.3737143278121948,-0.03322094678878784,0.999411404132843,0.44700321555137634,0.36881276965141296,-0.03602258116006851,0.9991691708564758,0.44788622856140137,0.3687489628791809,-0.03604143112897873,0.9991739988327026,0.4501643776893616,0.3674267530441284,-0.036055076867341995,0.9992654919624329,0.44444480538368225,0.3691093325614929,-0.026212016120553017,0.9988718032836914,0.44422441720962524,0.36910608410835266,-0.026213401928544044,0.9986583590507507,0.4446318745613098,0.36862215399742126,-0.026224354282021523,0.998769998550415,0.4550653398036957,0.36871111392974854,-0.035494789481163025,0.9993385672569275,0.44734615087509155,0.3694426119327545,0.007535494863986969,0.9973950386047363,0.44929128885269165,0.37806716561317444,-0.0323038324713707,0.9995171427726746,0.44649896025657654,0.3785826563835144,-0.019841991364955902,0.9990457892417908,0.4671754240989685,0.39198967814445496,-0.061068277806043625,0.9999277591705322,0.45114225149154663,0.39473456144332886,0.05136629194021225,0.9990646839141846,0.46957507729530334,0.4283307194709778,-0.07375846803188324,0.969835102558136,0.4511285424232483,0.43009522557258606,0.06141785904765129,0.4320984184741974,0.4582633972167969,0.4496411979198456,-0.0674169659614563,0.8705929517745972,0.4469173550605774,0.4456084668636322,0.02216320112347603,0.46964403986930847,0.456609308719635,0.4565737843513489,-0.07959923893213272,0.8203893303871155,0.44469910860061646,0.4517330825328827,0.017507122829556465,0.4471806287765503,0.4541230797767639,0.4540257751941681,-0.07933034002780914,0.8127074241638184,0.444692462682724,0.4494958221912384,0.006485348101705313,0.45097073912620544,0.45491480827331543,0.45189616084098816,-0.06683198362588882,0.7513954043388367,0.44608020782470703,0.44745075702667236,0.01615937612950802,0.4369281530380249,0.47985586524009705,0.4497012495994568,-0.03808606415987015,0.9997128844261169,0.47089719772338867,0.4538482427597046,0.038108501583337784,0.9986628293991089,0.46972328424453735,0.49421343207359314,-0.0656568706035614,0.9537877440452576,0.4753738343715668,0.4846687912940979,0.04016183316707611,0.6556063890457153,0.4725257456302643,0.5460140109062195,-0.06696999073028564,0.980927586555481,0.49368152022361755,0.518827497959137,0.055472481995821,0.7822927236557007,0.47746333479881287,0.5530998706817627,-0.06839863955974579,0.9230979681015015,0.49950703978538513,0.5241395235061646,0.055712319910526276,0.7642500996589661,0.45929545164108276,0.5653423070907593,-0.09990790486335754,0.9769516587257385,0.4850769639015198,0.5323963165283203,0.038877543061971664,0.8482974171638489
83,0.4463297724723816,0.37887293100357056,0.010088630951941013,0.9994375705718994,0.44792404770851135,0.3737393319606781,0.004477775655686855,0.9992212653160095,0.44865602254867554,0.3736307919025421,0.004462341777980328,0.9992260336875916,0.4496878981590271,0.37321165204048157,0.004454919137060642,0.9993186593055725,0.4455554485321045,0.37438294291496277,0.016566822305321693,0.9989529252052307,0.444948673248291,0.37434476613998413,0.016572458669543266,0.9987546801567078,0.4455362856388092,0.3720824420452118,0.016538573428988457,0.9988643527030945,0.4557062089443207,0.3734535276889801,-0.008891825564205647,0.9993780851364136,0.45143112540245056,0.37412720918655396,0.045594487339258194,0.9975922107696533,0.44967976212501526,0.3831314742565155,0.0059975506737828255,0.9995320439338684,0.44748416543006897,0.3833732604980469,0.021731061860919,0.9990737438201904,0.4679874777793884,0.39211735129356384,-0.045080721378326416,0.999934196472168,0.4586769938468933,0.397335410118103,0.08129708468914032,0.9990963339805603,0.47158676385879517,0.4277779161930084,-0.06967218220233917,0.971541166305542,0.46124178171157837,0.43097466230392456,0.09100908041000366,0.40356963872909546,0.45609551668167114,0.4464835822582245,-0.07106831669807434,0.8737485408782959,0.45750564336776733,0.451587975025177,0.0590975359082222,0.43208420276641846,0.45561113953590393,0.4530423581600189,-0.08200395107269287,0.8237742781639099,0.45654207468032837,0.4576863646507263,0.057738296687603,0.4111890494823456,0.45374780893325806,0.44957220554351807,-0.07952119410037994,0.8155343532562256,0.45546141266822815,0.45566263794898987,0.04913095012307167,0.41454142332077026,0.4551197588443756,0.44785434007644653,-0.06940683722496033,0.7510355710983276,0.455838143825531,0.4536592662334442,0.05432460829615593,0.40216273069381714,0.48213186860084534,0.4535320997238159,-0.04295642301440239,0.9997251629829407,0.4743524491786957,0.4577595293521881,0.04292837530374527,0.9986770153045654,0.47466903924942017,0.49671342968940735,-0.0788746029138565,0.9565348029136658,0.47395676374435425,0.4934960603713989,0.03933348506689072,0.6298808455467224,0.4823882579803467,0.5546942353248596,-0.10741531848907471,0.9818844795227051,0.48914170265197754,0.5339016318321228,0.040090084075927734,0.7601454257965088,0.4873465895652771,0.5625500082969666,-0.11189238727092743,0.925929069519043,0.49478763341903687,0.5406748056411743,0.038812149316072464,0.7517184615135193,0.4673989415168762,0.5763869881629944,-0.14549283683300018,0.9779458045959473,0.47933506965637207,0.5476493239402771,0.024236977100372314,0.8416937589645386
84,0.4444396495819092,0.382782518863678,-0.11777101457118988,0.9994489550590515,0.4468323588371277,0.3770448565483093,-0.11979295313358307,0.9992163777351379,0.4480363726615906,0.37676897644996643,-0.1198185533285141,0.9992251992225647,0.4496169090270996,0.3760467767715454,-0.11987219750881195,0.9993253350257874,0.4439418315887451,0.37696489691734314,-0.110568106174469,0.9989376068115234,0.44333869218826294,0.3764742910861969,-0.11056967824697495,0.998730480670929,0.44303593039512634,0.37533828616142273,-0.1105891689658165,0.9988311529159546,0.45470666885375977,0.375931054353714,-0.10284458100795746,0.9994021058082581,0.44649067521095276,0.3754848837852478,-0.06130554527044296,0.9975816011428833,0.44789475202560425,0.3872193694114685,-0.10951785743236542,0.9995628595352173,0.4445159435272217,0.38721513748168945,-0.09757870435714722,0.9991246461868286,0.469423770904541,0.3961504101753235,-0.10395592451095581,0.9999393820762634,0.4468138813972473,0.3980694115161896,0.00027189869433641434,0.9991335272789001,0.47532540559768677,0.42827045917510986,-0.13950030505657196,0.9741800427436829,0.44239574670791626,0.4296024441719055,-0.004413588438183069,0.41401293873786926,0.45836034417152405,0.4481815993785858,-0.1742796003818512,0.8852625489234924,0.43661436438560486,0.4424266815185547,-0.08096127212047577,0.45509034395217896,0.45614734292030334,0.4550904929637909,-0.19312135875225067,0.839093804359436,0.43434667587280273,0.4460473358631134,-0.09409748762845993,0.4341093897819519,0.45376095175743103,0.45175695419311523,-0.19471704959869385,0.8316071629524231,0.4347653388977051,0.442833811044693,-0.10410620272159576,0.43789389729499817,0.45469242334365845,0.44967520236968994,-0.17502236366271973,0.771262526512146,0.43646693229675293,0.4425698518753052,-0.08759528398513794,0.4240604043006897,0.4806349277496338,0.459248811006546,-0.03871244937181473,0.9997183084487915,0.46546411514282227,0.46077463030815125,0.038788508623838425,0.9986682534217834,0.4762711524963379,0.5056323409080505,-0.08302108198404312,0.9590277671813965,0.455435186624527,0.4990757405757904,-0.012012701481580734,0.6526195406913757,0.48439764976501465,0.5599783658981323,-0.07340764999389648,0.9827617406845093,0.46833109855651855,0.5500810146331787,0.025752495974302292,0.7751563191413879,0.4896068572998047,0.5676426291465759,-0.07427521795034409,0.9281019568443298,0.47320908308029175,0.5588076114654541,0.026668325066566467,0.7667189836502075,0.47021475434303284,0.5778641104698181,-0.12536080181598663,0.9786860346794128,0.4524450898170471,0.5667203664779663,0.0029621212743222713,0.8508869409561157
85,0.44047993421554565,0.3813439905643463,-0.10229750722646713,0.9994715452194214,0.4430170953273773,0.3753063976764679,-0.10381172597408295,0.9992521405220032,0.4443840980529785,0.37504756450653076,-0.10383458435535431,0.9992647767066956,0.44573506712913513,0.37450867891311646,-0.10387799888849258,0.9993605613708496,0.4401286244392395,0.3753902316093445,-0.09461070597171783,0.9989783763885498,0.43973198533058167,0.375119149684906,-0.09461389482021332,0.998778760433197,0.4397260248661041,0.37421825528144836,-0.09463923424482346,0.9988637566566467,0.4514506757259369,0.37467730045318604,-0.08884906768798828,0.999443531036377,0.44251012802124023,0.37476491928100586,-0.047979049384593964,0.9976530075073242,0.44403910636901855,0.38530606031417847,-0.09519517421722412,0.999596357345581,0.44089779257774353,0.3859004080295563,-0.08346165716648102,0.9991742372512817,0.4675329327583313,0.39530858397483826,-0.09331150352954865,0.9999417066574097,0.4406006932258606,0.39843717217445374,0.00601191446185112,0.9991459250450134,0.4769556522369385,0.43162301182746887,-0.1218814104795456,0.9763489961624146,0.43878212571144104,0.4296501874923706,-0.010650192387402058,0.4219610095024109,0.4570130407810211,0.4477368891239166,-0.15756914019584656,0.8951321244239807,0.43273526430130005,0.4349079132080078,-0.10211671888828278,0.47651201486587524,0.45602983236312866,0.45540398359298706,-0.1761215478181839,0.8520578145980835,0.4305484890937805,0.43650496006011963,-0.11624975502490997,0.45766162872314453,0.4524865746498108,0.4505307972431183,-0.17721973359584808,0.8452861905097961,0.4305427074432373,0.4319995045661926,-0.12402285635471344,0.46160319447517395,0.4527614712715149,0.4485331177711487,-0.15807415544986725,0.788268506526947,0.4298171103000641,0.4277283251285553,-0.10817690193653107,0.4441215693950653,0.476285845041275,0.45913755893707275,-0.03192233666777611,0.9996700286865234,0.4594544470310211,0.4619036912918091,0.03200769051909447,0.9985167980194092,0.4741300940513611,0.5019798874855042,-0.10546034574508667,0.9584715366363525,0.4537450671195984,0.5033860206604004,-0.004296808037906885,0.6589920520782471,0.4824419915676117,0.5548783540725708,-0.07894058525562286,0.9798988103866577,0.46503257751464844,0.5533310770988464,0.046126049011945724,0.7690385580062866,0.48658886551856995,0.5626028180122375,-0.08006250113248825,0.9276375770568848,0.470142662525177,0.558964729309082,0.04849249869585037,0.7652915120124817,0.4726305902004242,0.5733330845832825,-0.12931303679943085,0.9760486483573914,0.45264333486557007,0.5688005089759827,0.011937715113162994,0.8421926498413086
86,0.4359523355960846,0.3724803924560547,-0.11461205780506134,0.9989446401596069,0.4388431906700134,0.36740052700042725,-0.11723552644252777,0.9986811876296997,0.44012442231178284,0.3673647940158844,-0.11727175861597061,0.9987590312957764,0.4413956105709076,0.36735549569129944,-0.11733393371105194,0.9990178346633911,0.4366742670536041,0.367240846157074,-0.10727914422750473,0.9978571534156799,0.4362374246120453,0.3671683669090271,-0.10728426277637482,0.9972826242446899,0.43584728240966797,0.3671172857284546,-0.1073201522231102,0.9974602460861206,0.4470064640045166,0.3691980242729187,-0.1067066639661789,0.9991894960403442,0.43940919637680054,0.368686705827713,-0.06237677484750748,0.994651734828949,0.4394398331642151,0.377814382314682,-0.10908780992031097,0.9994813799858093,0.436610609292984,0.37804192304611206,-0.09635382890701294,0.998699963092804,0.46206316351890564,0.39396923780441284,-0.11205694824457169,0.9999428391456604,0.43875283002853394,0.39391034841537476,-0.004655748605728149,0.9988995790481567,0.47243475914001465,0.4306207001209259,-0.13262979686260223,0.97767573595047,0.4392748773097992,0.42617520689964294,0.004340375307947397,0.39912429451942444,0.4523536264896393,0.45167893171310425,-0.1528022438287735,0.9015381932258606,0.4384062886238098,0.4352039396762848,-0.05355793237686157,0.44726133346557617,0.4529877305030823,0.45678308606147766,-0.1713622510433197,0.8602321147918701,0.43784284591674805,0.43846285343170166,-0.06289489567279816,0.43190571665763855,0.4490310549736023,0.45218151807785034,-0.17348384857177734,0.8540164828300476,0.43770790100097656,0.43456974625587463,-0.07281635701656342,0.43628498911857605,0.44991058111190796,0.4501855969429016,-0.15362952649593353,0.798490047454834,0.4380025863647461,0.4312649071216583,-0.059327155351638794,0.42022281885147095,0.4735635817050934,0.45658788084983826,-0.03390415012836456,0.9995675683021545,0.4579538404941559,0.4589877724647522,0.034007079899311066,0.9979302287101746,0.46537595987319946,0.49876782298088074,-0.10266990959644318,0.949188768863678,0.4524926543235779,0.49917876720428467,-0.004793782718479633,0.6255291104316711,0.4711516797542572,0.5549961924552917,-0.07600224018096924,0.9750324487686157,0.4642447829246521,0.5502602458000183,0.03367363661527634,0.746843695640564,0.47600239515304565,0.5639910101890564,-0.07558000832796097,0.9233289957046509,0.4697144031524658,0.5585251450538635,0.03541933745145798,0.753591001033783,0.4579363465309143,0.573489248752594,-0.12166231870651245,0.9718315601348877,0.4481654763221741,0.5657203793525696,0.0011562018189579248,0.8291204571723938
87,0.4333208203315735,0.36811766028404236,-0.024193501099944115,0.9989680647850037,0.43646007776260376,0.3644808530807495,-0.026609594002366066,0.9987583160400391,0.4374949038028717,0.36463481187820435,-0.02661491371691227,0.9988247752189636,0.4385167062282562,0.3648415803909302,-0.026631424203515053,0.9990657567977905,0.43481212854385376,0.3641990125179291,-0.018032420426607132,0.9980063438415527,0.4344921112060547,0.3642461597919464,-0.01804886944591999,0.9974774122238159,0.43417826294898987,0.36436647176742554,-0.018076341599225998,0.99765944480896,0.44255393743515015,0.3679954409599304,-0.023330403491854668,0.9992197751998901,0.43679261207580566,0.3670962154865265,0.013407175429165363,0.9951143860816956,0.43514060974121094,0.37358009815216064,-0.022091442719101906,0.9994234442710876,0.432966411113739,0.3734145164489746,-0.011525687761604786,0.998706042766571,0.44845691323280334,0.3914463222026825,-0.04290134459733963,0.9999352693557739,0.43578553199768066,0.39211124181747437,0.049701862037181854,0.9989373087882996,0.4473264813423157,0.41990309953689575,-0.05888551473617554,0.9765626788139343,0.431352436542511,0.41859355568885803,0.03584569692611694,0.38608425855636597,0.42813244462013245,0.414753794670105,-0.051517557352781296,0.9024980068206787,0.4256654381752014,0.421626478433609,-0.021563807502388954,0.4516339600086212,0.4232958257198334,0.4137306213378906,-0.06184052675962448,0.8610880374908447,0.42378029227256775,0.4224417805671692,-0.027691561728715897,0.4390336573123932,0.4234257638454437,0.40891698002815247,-0.05572910234332085,0.85417640209198,0.4240261912345886,0.4186985194683075,-0.03338896855711937,0.44402921199798584,0.4251099228858948,0.41019153594970703,-0.04844285547733307,0.7985363602638245,0.4247869849205017,0.41856056451797485,-0.025507142767310143,0.42773693799972534,0.46293243765830994,0.45381784439086914,-0.03428306803107262,0.999583899974823,0.456437349319458,0.45681723952293396,0.03435204178094864,0.9980496764183044,0.45642608404159546,0.49762317538261414,-0.08141548931598663,0.9502264857292175,0.45535722374916077,0.4977636933326721,0.025223564356565475,0.5861989259719849,0.46439439058303833,0.5538306832313538,-0.08899583667516708,0.9754403829574585,0.4725120961666107,0.526631236076355,0.04929172247648239,0.7212671041488647,0.4690799117088318,0.5617707967758179,-0.09059347212314606,0.928144633769989,0.47743648290634155,0.5307357907295227,0.051183223724365234,0.7384272217750549,0.4504408836364746,0.5713155269622803,-0.12304146587848663,0.9720802903175354,0.4657415449619293,0.5381613969802856,0.035386618226766586,0.8112850189208984
88,0.4317470192909241,0.38156214356422424,-0.11246540397405624,0.9989504814147949,0.4352447986602783,0.37729963660240173,-0.11492328345775604,0.9987291693687439,0.436102956533432,0.3772631287574768,-0.11493635177612305,0.9988018274307251,0.4369300901889801,0.37726151943206787,-0.11498592793941498,0.9990481734275818,0.4326615333557129,0.37553900480270386,-0.105898417532444,0.9980005621910095,0.4327642023563385,0.3751048147678375,-0.10591789335012436,0.9974659085273743,0.4334702491760254,0.37782272696495056,-0.10595706850290298,0.9976189732551575,0.44418811798095703,0.3790944516658783,-0.10036797821521759,0.9992108941078186,0.4360877573490143,0.37860625982284546,-0.06018969416618347,0.9949242472648621,0.43460679054260254,0.3873386085033417,-0.10495326668024063,0.9994319677352905,0.4319722652435303,0.3855544626712799,-0.09344688802957535,0.998667299747467,0.4558543562889099,0.397924542427063,-0.0984840914607048,0.9999375343322754,0.4353335499763489,0.39889487624168396,-0.006725359708070755,0.9989696145057678,0.46192020177841187,0.4358491897583008,-0.11946054548025131,0.9768707156181335,0.4342311918735504,0.4271232485771179,0.00048081413842737675,0.3775537312030792,0.44296279549598694,0.4492902457714081,-0.14822660386562347,0.906339168548584,0.4413943886756897,0.44289544224739075,-0.05047433450818062,0.44183114171028137,0.43930211663246155,0.45453399419784546,-0.16625839471817017,0.8665872812271118,0.44223588705062866,0.4476398229598999,-0.05735429376363754,0.4323793053627014,0.4368410110473633,0.4487319588661194,-0.16612757742404938,0.8602044582366943,0.4413753151893616,0.4462185204029083,-0.06944549828767776,0.4380376935005188,0.43817299604415894,0.4475753605365753,-0.14815625548362732,0.8040734529495239,0.44191378355026245,0.4448739290237427,-0.05648348480463028,0.4191240966320038,0.4692164957523346,0.45875805616378784,-0.03315404802560806,0.9995914101600647,0.456521213054657,0.4615575671195984,0.03325257450342178,0.9978829026222229,0.46213269233703613,0.49698635935783386,-0.1390867978334427,0.9515355825424194,0.4561203122138977,0.5062536597251892,0.03894894942641258,0.5670954585075378,0.46515974402427673,0.5601514577865601,-0.13700152933597565,0.9755359888076782,0.46886077523231506,0.5456998348236084,0.09062739461660385,0.7026234865188599,0.46821507811546326,0.5685945749282837,-0.1386629343032837,0.9284783005714417,0.4731016755104065,0.5515417456626892,0.09359517693519592,0.7189770936965942,0.45048290491104126,0.5744107961654663,-0.19224733114242554,0.9726361036300659,0.45955508947372437,0.5592063069343567,0.06158740445971489,0.799071729183197
89,0.4252311587333679,0.36612239480018616,-0.10314943641424179,0.9989441633224487,0.42753320932388306,0.3606090545654297,-0.10581598430871964,0.9986968040466309,0.42873239517211914,0.36015594005584717,-0.10583605617284775,0.998781681060791,0.42992204427719116,0.35975563526153564,-0.1058678850531578,0.9990204572677612,0.4252609312534332,0.36107534170150757,-0.09672774374485016,0.9979474544525146,0.42479148507118225,0.36115846037864685,-0.0967448279261589,0.9974406361579895,0.424365371465683,0.361799418926239,-0.09677901118993759,0.997585117816925,0.4356923997402191,0.3600381314754486,-0.09455056488513947,0.9992060661315918,0.4279216229915619,0.3622758090496063,-0.05450329929590225,0.9948442578315735,0.4294685423374176,0.3701786994934082,-0.09734278917312622,0.9994223713874817,0.4265156388282776,0.37095820903778076,-0.085804283618927,0.9986153841018677,0.4523618817329407,0.381296843290329,-0.09791579842567444,0.9999313354492188,0.43037790060043335,0.3872132897377014,-0.0031777280382812023,0.9989678859710693,0.45636874437332153,0.42732322216033936,-0.117320716381073,0.977561354637146,0.4312599301338196,0.4193587303161621,-0.014149735681712627,0.3870837986469269,0.44230523705482483,0.44760555028915405,-0.13687869906425476,0.9112606644630432,0.4312500059604645,0.41852161288261414,-0.09046594798564911,0.4606691002845764,0.4402431547641754,0.45362451672554016,-0.15281277894973755,0.8726112246513367,0.4311082363128662,0.4201090633869171,-0.10191009193658829,0.4506615996360779,0.4377991259098053,0.4474949538707733,-0.1537066549062729,0.866696834564209,0.4302186071872711,0.41582077741622925,-0.10941256582736969,0.4558059573173523,0.4384303092956543,0.44708746671676636,-0.13702432811260223,0.8122504949569702,0.43105918169021606,0.41548585891723633,-0.0957266241312027,0.43467095494270325,0.46649813652038574,0.44487252831459045,-0.032193318009376526,0.9995222091674805,0.4518183171749115,0.44900453090667725,0.03225373104214668,0.9978103637695312,0.4642689824104309,0.48858797550201416,-0.09780839085578918,0.9462930560112,0.4470699727535248,0.499179869890213,0.00797065906226635,0.5692279934883118,0.46658340096473694,0.5503393411636353,-0.06353653967380524,0.971795380115509,0.45955100655555725,0.5455552935600281,0.051998745650053024,0.7023068070411682,0.46928492188453674,0.5578327178955078,-0.0626373440027237,0.9231666326522827,0.4649594724178314,0.5510351657867432,0.053899526596069336,0.7179145216941833,0.45562511682510376,0.5737732648849487,-0.10737427324056625,0.9699996113777161,0.4488601088523865,0.5602101683616638,0.012773707509040833,0.7984398007392883
90,0.426217645406723,0.38694849610328674,-0.11677025258541107,0.9985093474388123,0.4275144636631012,0.38121888041496277,-0.1200341209769249,0.9978881478309631,0.42857474088668823,0.3806629478931427,-0.12006273120641708,0.998192548751831,0.4296412467956543,0.380163311958313,-0.12010326236486435,0.9985547661781311,0.42561131715774536,0.3821893036365509,-0.11230289936065674,0.9962021708488464,0.42514568567276,0.3824578821659088,-0.11231981217861176,0.995535135269165,0.4246816039085388,0.38277608156204224,-0.1123633161187172,0.9956336617469788,0.43408018350601196,0.3796367943286896,-0.10861345380544662,0.998856246471405,0.4273509085178375,0.38310715556144714,-0.07373000681400299,0.9921785593032837,0.42979758977890015,0.39010587334632874,-0.11014755070209503,0.9991849064826965,0.4273618161678314,0.39157113432884216,-0.10012032091617584,0.9977517127990723,0.449659526348114,0.3963785171508789,-0.10226447880268097,0.99993497133255,0.42941173911094666,0.4029770493507385,-0.017987053841352463,0.9988803267478943,0.45982998609542847,0.43349409103393555,-0.11404047161340714,0.9790194630622864,0.4340546727180481,0.4338868260383606,-0.01238308660686016,0.3775084912776947,0.44575127959251404,0.45379093289375305,-0.1367412954568863,0.9178829789161682,0.43477553129196167,0.44167807698249817,-0.024961398914456367,0.4575207233428955,0.44367915391921997,0.4605492353439331,-0.1520649939775467,0.8810573816299438,0.435007244348526,0.4454646706581116,-0.030078306794166565,0.44720134139060974,0.4396580755710602,0.4552616477012634,-0.15338334441184998,0.8754915595054626,0.4338749051094055,0.44280388951301575,-0.04423540085554123,0.45290473103523254,0.4413580894470215,0.45445728302001953,-0.13715940713882446,0.8235021829605103,0.4343297481536865,0.4416488707065582,-0.03135461360216141,0.43238329887390137,0.4634242057800293,0.45969459414482117,-0.030957575887441635,0.9993374347686768,0.4498023986816406,0.4615257680416107,0.031056711450219154,0.9973572492599487,0.46013131737709045,0.5053938031196594,-0.05994982272386551,0.9464163184165955,0.44850748777389526,0.5035725831985474,0.0007225927547551692,0.5865334868431091,0.464240163564682,0.5573203563690186,-0.02867262437939644,0.9716628789901733,0.4589301645755768,0.5497667789459229,0.039672695100307465,0.7172118425369263,0.4675980508327484,0.5633479356765747,-0.02820790931582451,0.9208609461784363,0.4638206958770752,0.5564112067222595,0.04127582162618637,0.7303172945976257,0.4530380666255951,0.5752164721488953,-0.07207471877336502,0.9688577651977539,0.44931983947753906,0.5662832260131836,0.0031249267049133778,0.8078281879425049
91,0.42888522148132324,0.39800795912742615,-0.1674330085515976,0.9980725646018982,0.43006372451782227,0.3929615020751953,-0.17371760308742523,0.9973856806755066,0.4310693144798279,0.3924572169780731,-0.17371664941310883,0.9976978302001953,0.4320829510688782,0.3919873535633087,-0.1737668216228485,0.9981599450111389,0.42833080887794495,0.39286717772483826,-0.16374655067920685,0.9949381947517395,0.42797914147377014,0.3924594521522522,-0.16379326581954956,0.9941591024398804,0.42763227224349976,0.3920665383338928,-0.16384868323802948,0.994482159614563,0.4369255006313324,0.3878924548625946,-0.16948512196540833,0.9984595775604248,0.4307389259338379,0.3884749114513397,-0.12442648410797119,0.9900794625282288,0.43271487951278687,0.3992932140827179,-0.16272889077663422,0.9989206790924072,0.4305352568626404,0.39955490827560425,-0.1497914046049118,0.9967966079711914,0.45419803261756897,0.399111807346344,-0.152391254901886,0.9999316930770874,0.43356090784072876,0.40091392397880554,-0.06815572828054428,0.9988641738891602,0.4621817171573639,0.43925485014915466,-0.1528235524892807,0.9799068570137024,0.4351567327976227,0.4341471791267395,-0.05326710268855095,0.37454792857170105,0.4392484724521637,0.45294150710105896,-0.14975978434085846,0.9185523986816406,0.434957355260849,0.4469468295574188,-0.09585665166378021,0.4448588490486145,0.43462783098220825,0.4575326144695282,-0.16222071647644043,0.8789106607437134,0.4351773262023926,0.4522104859352112,-0.10325209051370621,0.43471118807792664,0.4329153001308441,0.4533260464668274,-0.16099628806114197,0.8739186525344849,0.4343112111091614,0.4493151903152466,-0.11628703027963638,0.44036412239074707,0.4351937174797058,0.45191165804862976,-0.14821316301822662,0.8198067545890808,0.4347761571407318,0.4475997984409332,-0.10197635740041733,0.4212174117565155,0.46732616424560547,0.4577702283859253,-0.03115210495889187,0.9991968870162964,0.4537202715873718,0.4597324728965759,0.031229104846715927,0.9971356987953186,0.4579501748085022,0.50431227684021,-0.056645505130290985,0.944858193397522,0.4473634660243988,0.502031147480011,0.007001368794590235,0.5799366235733032,0.4616796374320984,0.5567710995674133,-0.009505752474069595,0.970705509185791,0.45766085386276245,0.5500406622886658,0.06628867983818054,0.7170021533966064,0.4654666483402252,0.5628615617752075,-0.006926300935447216,0.9178358316421509,0.46237093210220337,0.5562591552734375,0.07055705785751343,0.7237171530723572,0.4492343068122864,0.5743452906608582,-0.048418186604976654,0.9657948613166809,0.44686466455459595,0.5669450163841248,0.036369334906339645,0.7991172671318054
92
93
94
95
96
97,0.41055136919021606,0.38480573892593384,-0.023940391838550568,0.9980753660202026,0.4098922312259674,0.38029205799102783,-0.024056073278188705,0.9973819851875305,0.4100913405418396,0.38036471605300903,-0.024059990420937538,0.9975625276565552,0.41004878282546997,0.3805481791496277,-0.024066882207989693,0.9980831742286682,0.40977174043655396,0.37988921999931335,-0.02289733663201332,0.9952935576438904,0.4077480435371399,0.386698454618454,-0.022928372025489807,0.9945525527000427,0.40728169679641724,0.38706544041633606,-0.022988274693489075,0.9949032068252563,0.4126099944114685,0.385528028011322,-0.011051655746996403,0.9981154203414917,0.4080837666988373,0.38899335265159607,-0.006851264741271734,0.990890383720398,0.4138769209384918,0.38835808634757996,-0.017351871356368065,0.9986107349395752,0.4109230041503906,0.3883490562438965,-0.016207661479711533,0.9967650175094604,0.4227414131164551,0.3964308202266693,-0.006741949822753668,0.9998476505279541,0.41778260469436646,0.41065436601638794,0.017701176926493645,0.9986449480056763,0.43228238821029663,0.3863886892795563,-0.021719643846154213,0.9686996936798096,0.4212058186531067,0.4329150915145874,0.0021126377396285534,0.3942291736602783,0.4222269654273987,0.3844296634197235,-0.03734014555811882,0.9058254361152649,0.42318686842918396,0.42911452054977417,-0.04087447002530098,0.4583964943885803,0.41989120841026306,0.382799357175827,-0.04492361843585968,0.8612397313117981,0.42549794912338257,0.4277932941913605,-0.046850837767124176,0.44493013620376587,0.41743865609169006,0.3829338848590851,-0.04181450232863426,0.8549253940582275,0.4239087700843811,0.42332732677459717,-0.04957844689488411,0.4497750699520111,0.41906270384788513,0.38444623351097107,-0.03669857606291771,0.8015508651733398,0.4236377775669098,0.4246855676174164,-0.04250798001885414,0.4285412132740021,0.4633174538612366,0.4491139054298401,-0.0160992369055748,0.9989656805992126,0.4606820046901703,0.45447978377342224,0.016122328117489815,0.9971477389335632,0.44555288553237915,0.49818164110183716,-0.024900177493691444,0.9371750950813293,0.4396512508392334,0.4979674220085144,-0.01706012524664402,0.5869497656822205,0.44343671202659607,0.5442913174629211,-0.006058847066015005,0.9621814489364624,0.44178828597068787,0.5508350133895874,-0.010826869867742062,0.7268097400665283,0.4439416527748108,0.5504757761955261,-0.00510790990665555,0.9142475128173828,0.44363918900489807,0.5576269030570984,-0.010591486468911171,0.7406427264213562,0.4374612271785736,0.5609115362167358,-0.03241496533155441,0.9580696225166321,0.43508657813072205,0.5716618895530701,-0.03594447299838066,0.8055440187454224
98,0.4174393117427826,0.38481223583221436,-0.17279484868049622,0.9982273578643799,0.41705578565597534,0.3801669776439667,-0.16940779983997345,0.9975699186325073,0.4180819094181061,0.3797863721847534,-0.16937626898288727,0.997698187828064,0.41912490129470825,0.3792654573917389,-0.16937845945358276,0.9981858134269714,0.41389623284339905,0.3809155821800232,-0.1724240928888321,0.9957399368286133,0.4125286936759949,0.3849387466907501,-0.17250557243824005,0.9950739741325378,0.4112818241119385,0.3857903778553009,-0.1725803166627884,0.9953974485397339,0.4198528230190277,0.3801070749759674,-0.13103510439395905,0.9981984496116638,0.4092763066291809,0.38846635818481445,-0.14534100890159607,0.9917927384376526,0.42022618651390076,0.3883242905139923,-0.15596254169940948,0.9986991882324219,0.4163062572479248,0.3896316885948181,-0.1601353883743286,0.9970698952674866,0.43224525451660156,0.38998880982398987,-0.09758719056844711,0.9997860789299011,0.4110439419746399,0.41552990674972534,-0.09776584804058075,0.9987695813179016,0.44679492712020874,0.3830171823501587,-0.09080778062343597,0.9659046530723572,0.41029611229896545,0.45896726846694946,-0.10268627107143402,0.45394060015678406,0.42746415734291077,0.3844398558139801,-0.09648342430591583,0.8992617130279541,0.41398996114730835,0.4944468140602112,-0.149530291557312,0.5096877813339233,0.42274194955825806,0.3842383325099945,-0.10329347848892212,0.8421815037727356,0.4139237403869629,0.5046823024749756,-0.15736809372901917,0.4942549765110016,0.4189143776893616,0.3839828073978424,-0.09887143224477768,0.8354675769805908,0.4161994457244873,0.5010982751846313,-0.1693495213985443,0.4989238977432251,0.4209050238132477,0.3850448429584503,-0.09531058371067047,0.7824729681015015,0.4177207350730896,0.4971035420894623,-0.1546676903963089,0.47833698987960815,0.46334734559059143,0.44841206073760986,-0.016182105988264084,0.9988062977790833,0.45291590690612793,0.4573022127151489,0.01620340719819069,0.9973138570785522,0.43993115425109863,0.4968107342720032,-0.037834301590919495,0.9209097027778625,0.43110671639442444,0.4980449378490448,-0.03682059049606323,0.5956364870071411,0.42509526014328003,0.548709511756897,-0.0033413630444556475,0.9455991983413696,0.4278634190559387,0.5526761412620544,-0.009949770756065845,0.7137970328330994,0.42428141832351685,0.5581062436103821,-0.0014975538942962885,0.8992069959640503,0.4282219409942627,0.5608623623847961,-0.008343648165464401,0.7336241602897644,0.4132717549800873,0.5612268447875977,-0.04214785620570183,0.9462828040122986,0.42069488763809204,0.570572555065155,-0.04547825828194618,0.7979794144630432
99,0.4236854910850525,0.38076338171958923,-0.11202871799468994,0.9983817338943481,0.42415714263916016,0.3765096664428711,-0.11075177043676376,0.9977717399597168,0.4245429039001465,0.3760455250740051,-0.11072568595409393,0.9978728890419006,0.4249635338783264,0.3755243122577667,-0.11070144176483154,0.9983250498771667,0.4223279356956482,0.37802037596702576,-0.11670084297657013,0.996150553226471,0.4214927554130554,0.3787441849708557,-0.11676555871963501,0.9955511093139648,0.42056041955947876,0.3795117437839508,-0.1168438047170639,0.9958468079566956,0.42274951934814453,0.3767887353897095,-0.08639257401227951,0.9982914924621582,0.41623711585998535,0.38347822427749634,-0.1149563416838646,0.9926029443740845,0.42325490713119507,0.3852865397930145,-0.10052621364593506,0.9987888336181641,0.42099857330322266,0.3868531584739685,-0.10874112695455551,0.9973416328430176,0.42656564712524414,0.38881245255470276,-0.06561949849128723,0.9997541904449463,0.41131591796875,0.41510340571403503,-0.07895340025424957,0.998862087726593,0.42946138978004456,0.3938398063182831,-0.02674335241317749,0.9304923415184021,0.41256260871887207,0.4554838240146637,-0.0689011737704277,0.5062966346740723,0.42567580938339233,0.40226730704307556,-0.010229179635643959,0.8578199744224548,0.41708463430404663,0.48036134243011475,-0.09318773448467255,0.5542226433753967,0.42271360754966736,0.4050043523311615,-0.0145987868309021,0.7958546280860901,0.4195826053619385,0.48833292722702026,-0.09871263802051544,0.5368693470954895,0.4198865294456482,0.40407541394233704,-0.017467567697167397,0.7897757291793823,0.4227661192417145,0.48391294479370117,-0.1082327589392662,0.5412736535072327,0.42083898186683655,0.403677761554718,-0.011299734003841877,0.738620936870575,0.4226606786251068,0.48027530312538147,-0.09646551311016083,0.5200867652893066,0.4589230418205261,0.44725215435028076,-0.013075316324830055,0.9988992810249329,0.4501672387123108,0.4573215842247009,0.012998761609196663,0.9975669384002686,0.44285979866981506,0.4957543611526489,-0.002750868909060955,0.91435307264328,0.4321187436580658,0.49834299087524414,0.010872992686927319,0.6112940907478333,0.42884692549705505,0.5479928255081177,0.08291551470756531,0.942062497138977,0.4377935826778412,0.5340701937675476,0.10384116321802139,0.7068302631378174,0.4281359612941742,0.5578898191452026,0.09087254106998444,0.897101104259491,0.43900051712989807,0.5371396541595459,0.11294952780008316,0.7303251028060913,0.418412983417511,0.5595546960830688,0.06292098760604858,0.9440429210662842,0.4400850832462311,0.5480080842971802,0.09104690700769424,0.7913051843643188
100,0.4232681691646576,0.3866041898727417,-0.09598143398761749,0.9983131289482117,0.42335397005081177,0.38140150904655457,-0.09959830343723297,0.9977608919143677,0.4220595359802246,0.3811017572879791,-0.0995975211262703,0.997799277305603,0.4213677942752838,0.38077476620674133,-0.09960369765758514,0.9982531666755676,0.41829028725624084,0.3819939196109772,-0.09715747833251953,0.9963937401771545,0.41889625787734985,0.3794574737548828,-0.09720830619335175,0.9958078265190125,0.4172515273094177,0.37969884276390076,-0.09724990278482437,0.9961006045341492,0.4206087589263916,0.3810795247554779,-0.09017376601696014,0.998089075088501,0.41452059149742126,0.3841390311717987,-0.08003212511539459,0.9931311011314392,0.4231220781803131,0.39158713817596436,-0.08905044943094254,0.99850994348526,0.4199022650718689,0.3924924433231354,-0.08635803312063217,0.997317910194397,0.4220128655433655,0.4069260358810425,-0.09681684523820877,0.9997598528862,0.41211366653442383,0.3968600630760193,-0.022585825994610786,0.9989121556282043,0.4184018671512604,0.4440152049064636,-0.08697119355201721,0.9366653561592102,0.4168739318847656,0.4057563245296478,0.04654813930392265,0.501203715801239,0.4107930660247803,0.4843955934047699,-0.06780350208282471,0.8683077096939087,0.41394248604774475,0.4016803503036499,0.07614965736865997,0.5508512258529663,0.4104863703250885,0.4963057339191437,-0.07795604318380356,0.8078061938285828,0.4145902693271637,0.4002595543861389,0.08573926985263824,0.5349292755126953,0.40615326166152954,0.4953807592391968,-0.07557068020105362,0.8020233511924744,0.41308683156967163,0.4000236690044403,0.07457544654607773,0.5384157299995422,0.40692439675331116,0.49120423197746277,-0.06561483442783356,0.7502892017364502,0.41360393166542053,0.40112927556037903,0.07417226582765579,0.5132102966308594,0.45711058378219604,0.45036110281944275,-0.03375421464443207,0.9989001750946045,0.4517274498939514,0.4514397084712982,0.03372964635491371,0.9977563619613647,0.424184650182724,0.4912234842777252,-0.028908461332321167,0.9035761952400208,0.4257892072200775,0.48332247138023376,0.019537022337317467,0.6116294264793396,0.4252590537071228,0.5395342111587524,0.032045189291238785,0.9329688549041748,0.43936705589294434,0.5250175595283508,0.04964679107069969,0.6918786764144897,0.4287346303462982,0.5478933453559875,0.035742856562137604,0.8938063383102417,0.4443153738975525,0.5296757817268372,0.05262055993080139,0.7206944823265076,0.41328486800193787,0.5527941584587097,0.020882532000541687,0.9347772002220154,0.4380262494087219,0.5425348877906799,0.040170036256313324,0.7714686989784241
101
102
103
104
105
106
107
108
109
110
111
112
113
114
115
116
117
118
119
120
121
122
123
124
125
126
127
128
129
130
131
132
133
134
135
136
137
138
139
140
141
142
143
144
145
146
147,0.4524497091770172,0.3569144010543823,-0.09714031964540482,0.9984124302864075,0.4568064212799072,0.3572724163532257,-0.09253042191267014,0.997892439365387,0.45713862776756287,0.35892781615257263,-0.09253254532814026,0.9978953003883362,0.45745858550071716,0.3605882525444031,-0.0925692543387413,0.9983205199241638,0.45623207092285156,0.352327823638916,-0.09806840121746063,0.9966780543327332,0.45603734254837036,0.35020148754119873,-0.09811312705278397,0.9961310029029846,0.45584163069725037,0.34808623790740967,-0.09816499799489975,0.9964132905006409,0.45636099576950073,0.3599631190299988,-0.056236833333969116,0.9979709982872009,0.4540089964866638,0.34305259585380554,-0.08251846581697464,0.9937110543251038,0.4491373896598816,0.35952913761138916,-0.08183300495147705,0.9985251426696777,0.44825583696365356,0.35299932956695557,-0.0896075889468193,0.9974926710128784,0.4433044493198395,0.3685097396373749,-0.0174897201359272,0.9997261762619019,0.432333767414093,0.33434659242630005,-0.07375947386026382,0.999005913734436,0.42454320192337036,0.3974730372428894,-2.147042323485948e-05,0.9006752967834473,0.4062036871910095,0.3533695936203003,-0.06674329191446304,0.5301429629325867,0.4155239164829254,0.39691483974456787,-0.029934242367744446,0.834114670753479,0.40837183594703674,0.3780730664730072,-0.06700927019119263,0.5637293457984924,0.41043490171432495,0.39891931414604187,-0.03424377739429474,0.7734383940696716,0.4062904417514801,0.38604435324668884,-0.072789765894413,0.5429304838180542,0.4135054647922516,0.3949124217033386,-0.0385386198759079,0.7691343426704407,0.4105924069881439,0.38451212644577026,-0.07595649361610413,0.5473499298095703,0.4150165915489197,0.39350059628486633,-0.03165091201663017,0.7206676006317139,0.4112955629825592,0.38158783316612244,-0.06715907901525497,0.5202564597129822,0.4021987318992615,0.3864450752735138,0.018927844241261482,0.9989446997642517,0.3908708989620209,0.36535266041755676,-0.019018501043319702,0.9979515075683594,0.4163225293159485,0.42458105087280273,-0.008574861101806164,0.8838926553726196,0.37055376172065735,0.36319977045059204,-0.09732972085475922,0.6404724717140198,0.39532020688056946,0.42175427079200745,0.047634419053792953,0.8801082968711853,0.3603377342224121,0.36268937587738037,-0.02845890447497368,0.6815621256828308,0.3911915123462677,0.4175921678543091,0.054081209003925323,0.8501485586166382,0.360073447227478,0.36154812574386597,-0.019930467009544373,0.6980924606323242,0.3910335898399353,0.4353507161140442,0.04968392848968506,0.8764898180961609,0.352774441242218,0.3659493625164032,-0.026477869600057602,0.7489303350448608
148,0.43874111771583557,0.3545387387275696,-0.14249709248542786,0.9982348084449768,0.4432609975337982,0.3543461859226227,-0.13656313717365265,0.9977777004241943,0.44365182518959045,0.3557586669921875,-0.13659054040908813,0.9975072741508484,0.44404321908950806,0.35719260573387146,-0.13664719462394714,0.9980694055557251,0.44251328706741333,0.3496355414390564,-0.14618580043315887,0.9967944025993347,0.43836745619773865,0.34535863995552063,-0.14622965455055237,0.9962127208709717,0.44209614396095276,0.34523457288742065,-0.14626814424991608,0.9965280890464783,0.44380444288253784,0.35406920313835144,-0.09042026102542877,0.997097909450531,0.4411478042602539,0.3379606306552887,-0.1339462250471115,0.9940710067749023,0.43483513593673706,0.35200372338294983,-0.122843898832798,0.9983338117599487,0.4327332079410553,0.3465082347393036,-0.13559085130691528,0.997545599937439,0.4334370195865631,0.35966968536376953,-0.03188806772232056,0.9996004104614258,0.4202722907066345,0.32886800169944763,-0.13390295207500458,0.9989662170410156,0.4238719046115875,0.3934209644794464,-0.00848016794770956,0.8564363718032837,0.404334157705307,0.364898681640625,-0.14249542355537415,0.5703064799308777,0.4272594451904297,0.40372565388679504,-0.032665252685546875,0.7836371064186096,0.414424329996109,0.39863258600234985,-0.14128752052783966,0.5936252474784851,0.4290253520011902,0.40746039152145386,-0.034481342881917953,0.7273242473602295,0.41648584604263306,0.4070310592651367,-0.15438176691532135,0.5665234327316284,0.4314786493778229,0.4066642224788666,-0.042810965329408646,0.7233695983886719,0.4208940863609314,0.40400174260139465,-0.15117812156677246,0.5687801837921143,0.43014708161354065,0.40448522567749023,-0.03659965097904205,0.6802247166633606,0.4198545813560486,0.400994211435318,-0.13959869742393494,0.5321947336196899,0.38780272006988525,0.37600594758987427,0.028658028692007065,0.9989921450614929,0.3756170868873596,0.3553629219532013,-0.028735186904668808,0.9980707764625549,0.39268484711647034,0.42678967118263245,-0.017221245914697647,0.8602541089057922,0.36081260442733765,0.36766567826271057,-0.1454991102218628,0.6657814979553223,0.36401069164276123,0.404915452003479,0.06040272116661072,0.8130940794944763,0.35414615273475647,0.35950374603271484,-0.05301203206181526,0.6577240824699402,0.3613537847995758,0.39643368124961853,0.06999943405389786,0.7970657348632812,0.3550209403038025,0.3535323441028595,-0.041349031031131744,0.6804981827735901,0.3532923758029938,0.4127753973007202,0.07000590860843658,0.8119333982467651,0.34741249680519104,0.3657155930995941,-0.04060036316514015,0.7246562242507935
149
150,0.4633854031562805,0.3701872229576111,-0.35001468658447266,0.998400866985321,0.46965599060058594,0.3698965013027191,-0.34383320808410645,0.997979998588562,0.4705408215522766,0.3719009459018707,-0.34387335181236267,0.9977355003356934,0.47140130400657654,0.37391921877861023,-0.34398922324180603,0.9982450008392334,0.4672784209251404,0.36290138959884644,-0.34927231073379517,0.9970804452896118,0.46652334928512573,0.3600406050682068,-0.34934329986572266,0.9965313673019409,0.46576476097106934,0.3572300970554352,-0.34936174750328064,0.9968014359474182,0.47180700302124023,0.3734893798828125,-0.2735886573791504,0.9973539710044861,0.4637686610221863,0.3494419455528259,-0.30049240589141846,0.9944866299629211,0.4601133465766907,0.37436774373054504,-0.3202365040779114,0.9984883069992065,0.45724186301231384,0.3659689724445343,-0.3280588388442993,0.9977596402168274,0.4570852220058441,0.3965832591056824,-0.20949216187000275,0.9996373057365417,0.4372524619102478,0.3344036936759949,-0.22949650883674622,0.9990193247795105,0.4400039315223694,0.4455835223197937,-0.23158523440361023,0.8659706711769104,0.4086124002933502,0.3432169556617737,-0.27926644682884216,0.5582956075668335,0.44040626287460327,0.4855504333972931,-0.27491870522499084,0.7973026633262634,0.4270400106906891,0.35946279764175415,-0.3605095446109772,0.5613330006599426,0.44169703125953674,0.49797505140304565,-0.287350594997406,0.7427645921707153,0.4323519766330719,0.3638838231563568,-0.37944087386131287,0.5359025597572327,0.44298744201660156,0.49812549352645874,-0.3016389012336731,0.7401915788650513,0.4353345036506653,0.3619372248649597,-0.3792038857936859,0.5338267087936401,0.4405764639377594,0.4923739433288574,-0.28091102838516235,0.6961058974266052,0.4334476590156555,0.36291393637657166,-0.3618212342262268,0.49458014965057373,0.40213117003440857,0.41047605872154236,0.007116778753697872,0.9989497065544128,0.38415712118148804,0.3765659034252167,-0.0069791958667337894,0.9982219934463501,0.4150027632713318,0.4415847659111023,-0.11664296686649323,0.8648632168769836,0.36157116293907166,0.3680970370769501,-0.25811392068862915,0.6919435858726501,0.4041305184364319,0.49074098467826843,-0.009969765320420265,0.8178668022155762,0.3290073573589325,0.3980765640735626,-0.0811094120144844,0.6532245874404907,0.398390531539917,0.49771013855934143,-0.0009263217216357589,0.7971571683883667,0.3277679681777954,0.40231019258499146,-0.06483589112758636,0.6526594161987305,0.4089588522911072,0.511682391166687,-0.05401753634214401,0.8182741403579712,0.3141207695007324,0.41077762842178345,-0.12395073473453522,0.7158727645874023
151,0.46238479018211365,0.36861616373062134,-0.4231864809989929,0.9985572695732117,0.46901363134384155,0.36780208349227905,-0.4174516201019287,0.9981759190559387,0.47006091475486755,0.37003573775291443,-0.41744279861450195,0.9979525804519653,0.4710591435432434,0.3722898066043854,-0.41757291555404663,0.9984139800071716,0.46624556183815,0.3605317175388336,-0.42318853735923767,0.9973635673522949,0.46534043550491333,0.3576245903968811,-0.4232923090457916,0.996860682964325,0.46443280577659607,0.3547593951225281,-0.4233317971229553,0.9971070885658264,0.47153791785240173,0.3723944127559662,-0.34385091066360474,0.9976023435592651,0.462235689163208,0.34718307852745056,-0.3716883957386017,0.9950104355812073,0.459425151348114,0.37371447682380676,-0.391367644071579,0.9986346364021301,0.4560616910457611,0.3648636043071747,-0.39959007501602173,0.9979767799377441,0.45718035101890564,0.39557915925979614,-0.266413152217865,0.9996629953384399,0.43769463896751404,0.32429710030555725,-0.292857825756073,0.9991055727005005,0.44769930839538574,0.4452882409095764,-0.2658906579017639,0.8772029280662537,0.4312517046928406,0.2578156590461731,-0.2960529923439026,0.6017133593559265,0.4404544234275818,0.47767403721809387,-0.2934767007827759,0.8104673624038696,0.42815741896629333,0.2444196492433548,-0.320451557636261,0.5958502292633057,0.439283549785614,0.4887098968029022,-0.301835834980011,0.7520280480384827,0.4313206076622009,0.23681138455867767,-0.33101633191108704,0.5600899457931519,0.44025152921676636,0.48472991585731506,-0.31373459100723267,0.7506456971168518,0.4327986240386963,0.2375795841217041,-0.34333378076553345,0.5578169226646423,0.43960443139076233,0.4796415865421295,-0.2983357310295105,0.7085954546928406,0.4314538538455963,0.2411467730998993,-0.3261367678642273,0.5195281505584717,0.4078849256038666,0.40084800124168396,0.013079917058348656,0.9986086487770081,0.38546696305274963,0.36685001850128174,-0.013094492256641388,0.9983564019203186,0.416201651096344,0.4436412751674652,-0.01146188098937273,0.8662927746772766,0.3579943776130676,0.3837752640247345,-0.21513576805591583,0.7206186056137085,0.4035969376564026,0.4869547188282013,0.14780105650424957,0.8175740838050842,0.32994717359542847,0.4276103973388672,-0.03942793235182762,0.6754220724105835,0.397522509098053,0.490431010723114,0.1616620123386383,0.7800127267837524,0.3280854821205139,0.43045732378959656,-0.022857073694467545,0.6463603973388672,0.4048120081424713,0.5117613077163696,0.12004905939102173,0.8048529028892517,0.3215232193470001,0.45646432042121887,-0.08233879506587982,0.7226954102516174
152
153
154
155
156
157
158
159
160
161,0.4597504734992981,0.31900542974472046,-0.07988958060741425,0.9986934661865234,0.46076899766921997,0.3105678856372833,-0.06835996359586716,0.9983454942703247,0.4617275595664978,0.31061407923698425,-0.06838416308164597,0.9981396794319153,0.46267467737197876,0.31070083379745483,-0.0683978721499443,0.9985572695732117,0.4568266272544861,0.3100895881652832,-0.06736374646425247,0.9976160526275635,0.4545675218105316,0.30996543169021606,-0.06737767904996872,0.997158944606781,0.45160388946533203,0.31656163930892944,-0.06741072237491608,0.9973850846290588,0.46653348207473755,0.31795844435691833,-0.008640016429126263,0.9978182911872864,0.44959694147109985,0.31913840770721436,-0.006035237107425928,0.995489239692688,0.4623326361179352,0.32510045170783997,-0.057708315551280975,0.9987381100654602,0.45715174078941345,0.32490259408950806,-0.05715160816907883,0.9981538653373718,0.4802631437778473,0.34476083517074585,0.008712290786206722,0.999510645866394,0.43881115317344666,0.3511347770690918,0.01682477816939354,0.999036431312561,0.4982219338417053,0.3360804319381714,-0.05930089205503464,0.8880477547645569,0.4280012249946594,0.37529265880584717,-0.06268855929374695,0.6375051140785217,0.49102649092674255,0.2820059061050415,-0.12131466716527939,0.8275361657142639,0.4353342056274414,0.35235458612442017,-0.1752806454896927,0.6335865259170532,0.49015218019485474,0.2660618722438812,-0.13916201889514923,0.771492063999176,0.4360261559486389,0.34781181812286377,-0.1955379843711853,0.5978163480758667,0.4881596565246582,0.26473042368888855,-0.1313968449831009,0.7696988582611084,0.4382968842983246,0.3427025377750397,-0.19188512861728668,0.595357358455658,0.48728758096694946,0.2713797688484192,-0.1206805482506752,0.7304220199584961,0.4388776421546936,0.34543082118034363,-0.17666764557361603,0.559130847454071,0.4720362722873688,0.43576228618621826,-0.011830558069050312,0.9987038969993591,0.4508832097053528,0.4377259314060211,0.011928143911063671,0.9984445571899414,0.45819753408432007,0.4881332516670227,-0.126198410987854,0.8732467889785767,0.4560914933681488,0.49404993653297424,-0.038205835968256,0.7278512120246887,0.45008382201194763,0.5546783208847046,-0.11195745319128036,0.8287061452865601,0.47391027212142944,0.5539156794548035,0.010601190850138664,0.6965456604957581,0.4464074969291687,0.5635902881622314,-0.11334607750177383,0.7926236987113953,0.4802723526954651,0.563878059387207,0.012667736038565636,0.6656492948532104,0.4489606022834778,0.5730119943618774,-0.17835643887519836,0.8196699619293213,0.4701923727989197,0.5760296583175659,-0.043936606496572495,0.7397002577781677
162
163
164
165
166
167
168
