frame,NOSE.x,NOSE.y,NOSE.z,NOSE.v,LEFT_EYE_INNER.x,LEFT_EYE_INNER.y,LEFT_EYE_INNER.z,LEFT_EYE_INNER.v,LEFT_EYE.x,LEFT_EYE.y,LEFT_EYE.z,LEFT_EYE.v,LEFT_EYE_OUTER.x,LEFT_EYE_OUTER.y,LEFT_EYE_OUTER.z,LEFT_EYE_OUTER.v,RIGHT_EYE_INNER.x,RIGHT_EYE_INNER.y,RIGHT_EYE_INNER.z,RIGHT_EYE_INNER.v,RIGHT_EYE.x,RIGHT_EYE.y,RIGHT_EYE.z,RIGHT_EYE.v,RIGHT_EYE_OUTER.x,RIGHT_EYE_OUTER.y,RIGHT_EYE_OUTER.z,RIGHT_EYE_OUTER.v,LEFT_EAR.x,LEFT_EAR.y,LEFT_EAR.z,LEFT_EAR.v,RIGHT_EAR.x,RIGHT_EAR.y,RIGHT_EAR.z,RIGHT_EAR.v,MOUTH_LEFT.x,MOUTH_LEFT.y,MOUTH_LEFT.z,MOUTH_LEFT.v,MOUTH_RIGHT.x,MOUTH_RIGHT.y,MOUTH_RIGHT.z,MOUTH_RIGHT.v,LEFT_SHOULDER.x,LEFT_SHOULDER.y,LEFT_SHOULDER.z,LEFT_SHOULDER.v,RIGHT_SHOULDER.x,RIGHT_SHOULDER.y,RIGHT_SHOULDER.z,RIGHT_SHOULDER.v,LEFT_ELBOW.x,LEFT_ELBOW.y,LEFT_ELBOW.z,LEFT_ELBOW.v,RIGHT_ELBOW.x,RIGHT_ELBOW.y,RIGHT_ELBOW.z,RIGHT_ELBOW.v,LEFT_WRIST.x,LEFT_WRIST.y,LEFT_WRIST.z,LEFT_WRIST.v,RIGHT_WRIST.x,RIGHT_WRIST.y,RIGHT_WRIST.z,RIGHT_WRIST.v,LEFT_PINKY.x,LEFT_PINKY.y,LEFT_PINKY.z,LEFT_PINKY.v,RIGHT_PINKY.x,RIGHT_PINKY.y,RIGHT_PINKY.z,RIGHT_PINKY.v,LEFT_INDEX.x,LEFT_INDEX.y,LEFT_INDEX.z,LEFT_INDEX.v,RIGHT_INDEX.x,RIGHT_INDEX.y,RIGHT_INDEX.z,RIGHT_INDEX.v,LEFT_THUMB.x,LEFT_THUMB.y,LEFT_THUMB.z,LEFT_THUMB.v,RIGHT_THUMB.x,RIGHT_THUMB.y,RIGHT_THUMB.z,RIGHT_THUMB.v,LEFT_HIP.x,LEFT_HIP.y,LEFT_HIP.z,LEFT_HIP.v,RIGHT_HIP.x,RIGHT_HIP.y,RIGHT_HIP.z,RIGHT_HIP.v,LEFT_KNEE.x,LEFT_KNEE.y,LEFT_KNEE.z,LEFT_KNEE.v,RIGHT_KNEE.x,RIGHT_KNEE.y,RIGHT_KNEE.z,RIGHT_KNEE.v,LEFT_ANKLE.x,LEFT_ANKLE.y,LEFT_ANKLE.z,LEFT_ANKLE.v,RIGHT_ANKLE.x,RIGHT_ANKLE.y,RIGHT_ANKLE.z,RIGHT_ANKLE.v,LEFT_HEEL.x,LEFT_HEEL.y,LEFT_HEEL.z,LEFT_HEEL.v,RIGHT_HEEL.x,RIGHT_HEEL.y,RIGHT_HEEL.z,RIGHT_HEEL.v,LEFT_FOOT_INDEX.x,LEFT_FOOT_INDEX.y,LEFT_FOOT_INDEX.z,LEFT_FOOT_INDEX.v,RIGHT_FOOT_INDEX.x,RIGHT_FOOT_INDEX.y,RIGHT_FOOT_INDEX.z,RIGHT_FOOT_INDEX.v
0
1
2
3
4
5
6
7
8
9
10
11
12
13
14
15,0.5478154420852661,0.6505244970321655,0.08694896101951599,0.9999680519104004,0.5468530058860779,0.6581224799156189,0.10611262172460556,0.9999332427978516,0.5436007380485535,0.6600675582885742,0.10611861944198608,0.9999407529830933,0.5403658151626587,0.6619420647621155,0.10605330765247345,0.9999394416809082,0.5560709834098816,0.6517339944839478,0.10679583251476288,0.9999539852142334,0.5589847564697266,0.6493901014328003,0.10683295875787735,0.9999557733535767,0.5618242621421814,0.647063136100769,0.10679306089878082,0.999950647354126,0.5316653847694397,0.6558195352554321,0.16214650869369507,0.9998469352722168,0.5630466341972351,0.6333507299423218,0.1679360717535019,0.999902606010437,0.5364260077476501,0.6436004042625427,0.10404586791992188,0.9990983009338379,0.5479096174240112,0.6351940631866455,0.10542670637369156,0.999325156211853,0.4814542829990387,0.62498939037323,0.15182778239250183,0.9965164661407471,0.5595012307167053,0.581800639629364,0.139600470662117,0.9975457787513733,0.4453722834587097,0.6796829700469971,0.11405668407678604,0.4936870038509369,0.5824704170227051,0.5959078073501587,0.18882820010185242,0.5436667799949646,0.4248197674751282,0.7487696409225464,0.08819052577018738,0.4828144907951355,0.5752280950546265,0.6561228036880493,0.30490535497665405,0.48634225130081177,0.417275607585907,0.7699097990989685,0.09622588753700256,0.43172648549079895,0.5744025111198425,0.6722970604896545,0.33049890398979187,0.42619696259498596,0.4229869842529297,0.7730085849761963,0.09228500723838806,0.43645167350769043,0.5735975503921509,0.6771180033683777,0.3386155962944031,0.3886827528476715,0.4264623522758484,0.765877366065979,0.08474279195070267,0.4203268587589264,0.5729610323905945,0.6729762554168701,0.31064894795417786,0.35445043444633484,0.4406803250312805,0.4812946915626526,0.006125295534729958,0.9977254271507263,0.488817036151886,0.45399951934814453,-0.006331986747682095,0.9980981945991516,0.45159465074539185,0.5953748226165771,-0.024806957691907883,0.6830772757530212,0.5237221717834473,0.5923540592193604,-0.041242290288209915,0.8721494078636169,0.45139217376708984,0.7138380408287048,-0.06797176599502563,0.2779747247695923,0.480154812335968,0.7125063538551331,-0.09007429331541061,0.37997308373451233,0.4429125189781189,0.720123291015625,-0.07149830460548401,0.48036959767341614,0.4688200056552887,0.7130372524261475,-0.09139102697372437,0.49503093957901,0.4758733808994293,0.760375440120697,-0.10867883265018463,0.3979676067829132,0.4795699715614319,0.7791684865951538,-0.13063187897205353,0.4517301917076111
16
17
18
19
20
21,0.570590078830719,0.6741754412651062,-0.08147730678319931,0.9996347427368164,0.5651355385780334,0.6679225564002991,-0.07346691191196442,0.9992965459823608,0.5619471669197083,0.6701894402503967,-0.07348113507032394,0.9991346597671509,0.5587978363037109,0.6723581552505493,-0.07355450093746185,0.9992673397064209,0.5741244554519653,0.6609501242637634,-0.06843922287225723,0.9995298981666565,0.5771709680557251,0.6584562659263611,-0.06846216320991516,0.9992663264274597,0.5801432728767395,0.6559886932373047,-0.06853733956813812,0.999382734298706,0.5511066317558289,0.6674587726593018,-0.018484948202967644,0.9983895421028137,0.5808483958244324,0.6453093886375427,0.006438097916543484,0.998682975769043,0.5627117156982422,0.6614826321601868,-0.060027651488780975,0.9969878792762756,0.5686398148536682,0.6608180999755859,-0.053088266402482986,0.997252345085144,0.5075687766075134,0.6300371885299683,-0.013159173540771008,0.9950069785118103,0.5771664381027222,0.5887178778648376,0.023519832640886307,0.9976080060005188,0.47433191537857056,0.591919481754303,-0.0606171190738678,0.4498550295829773,0.5817777514457703,0.5533661246299744,-0.015595783479511738,0.5066619515419006,0.4699726700782776,0.574850857257843,-0.1115906685590744,0.43659475445747375,0.5805783867835999,0.5906685590744019,-0.08166693896055222,0.45103684067726135,0.46476346254348755,0.5680975317955017,-0.11022685468196869,0.3915528655052185,0.5821424126625061,0.5944383144378662,-0.0920960009098053,0.3988795578479767,0.46776264905929565,0.5719258785247803,-0.12114350497722626,0.3958449363708496,0.5818259119987488,0.6018473505973816,-0.0820222720503807,0.3655179440975189,0.4705762267112732,0.5739360451698303,-0.1156582236289978,0.3816332519054413,0.5791721940040588,0.6019666790962219,-0.08108033239841461,0.33605027198791504,0.46988004446029663,0.47319698333740234,-0.002819173503667116,0.9916382431983948,0.5064682960510254,0.4437791407108307,0.0026071297470480204,0.9970458745956421,0.4615928530693054,0.5756530165672302,0.04483874514698982,0.6310396790504456,0.5320156812667847,0.5362886786460876,0.01615038514137268,0.8344980478286743,0.45130079984664917,0.736348569393158,0.11982496082782745,0.26488539576530457,0.518287181854248,0.6294495463371277,0.15945248305797577,0.37149351835250854,0.44704189896583557,0.7534914016723633,0.12734968960285187,0.45214760303497314,0.5143493413925171,0.6442632675170898,0.17313271760940552,0.4768298864364624,0.45264118909835815,0.7826225757598877,0.08523693680763245,0.37417593598365784,0.5287604928016663,0.6425678133964539,0.13123029470443726,0.42751356959342957
22
23
24
25
26
27
28
29
30
31
32
33
34
35
36
37
38
39
40
41
42
43
44
45
46
47
48
49
50
51
52
53
54
55
56
57
58
59
60
61
62
63
64
65
66
67
68
69
70
71
72
73
74
75,0.2480204552412033,0.503277063369751,-0.21681003272533417,0.9982640743255615,0.2502104341983795,0.49338844418525696,-0.2033117711544037,0.9964126348495483,0.25174853205680847,0.4936065673828125,-0.20338061451911926,0.9961962103843689,0.2532493770122528,0.4938955307006836,-0.2034388780593872,0.9957498908042908,0.24479246139526367,0.49211999773979187,-0.21450689435005188,0.9967140555381775,0.24243977665901184,0.4916221499443054,-0.21450547873973846,0.9966462254524231,0.2399439513683319,0.4912242293357849,-0.21460692584514618,0.9966591596603394,0.25222277641296387,0.4969651401042938,-0.12211722135543823,0.9916300177574158,0.23299846053123474,0.4945369362831116,-0.1757645457983017,0.9967477321624756,0.2493377923965454,0.5127910375595093,-0.18470950424671173,0.9954896569252014,0.24273166060447693,0.511359453201294,-0.20042511820793152,0.996475875377655,0.2538057565689087,0.541473925113678,-0.05712362378835678,0.9946190714836121,0.19893351197242737,0.5415334701538086,-0.13062340021133423,0.9974348545074463,0.2650374174118042,0.6076707243919373,-0.03968237340450287,0.44690364599227905,0.2182879000902176,0.6228786706924438,-0.12364070117473602,0.5427407622337341,0.265180766582489,0.6056616306304932,-0.1109846979379654,0.42888692021369934,0.26486802101135254,0.6473773717880249,-0.16547399759292603,0.463636577129364,0.2650185823440552,0.6109245419502258,-0.12906907498836517,0.3829180896282196,0.2782634198665619,0.661661684513092,-0.18398018181324005,0.40786561369895935,0.26831763982772827,0.5998743772506714,-0.13613897562026978,0.38785865902900696,0.28146469593048096,0.6518219113349915,-0.1926063895225525,0.378208190202713,0.26581981778144836,0.5985814332962036,-0.11632809787988663,0.37274283170700073,0.27639174461364746,0.6453730463981628,-0.16852520406246185,0.34734997153282166,0.25725695490837097,0.6613598465919495,0.0060906303115189075,0.9867512583732605,0.22506067156791687,0.6711418628692627,-0.0058898841962218285,0.9910011291503906,0.2615301012992859,0.7509358525276184,-0.038542088121175766,0.6368044018745422,0.23818083107471466,0.7486850023269653,-0.051974665373563766,0.8166511058807373,0.2773073613643646,0.8147541284561157,0.10440592467784882,0.2839694619178772,0.2571631968021393,0.8177489042282104,0.07944175601005554,0.38215285539627075,0.2774595022201538,0.8252122402191162,0.11334051936864853,0.44739440083503723,0.2603299021720886,0.8259544372558594,0.08772281557321548,0.46422597765922546,0.28914952278137207,0.8371236324310303,0.038404613733291626,0.3679809272289276,0.26455166935920715,0.8487759232521057,-0.0035058404318988323,0.42626065015792847
76,0.23452964425086975,0.502808153629303,-0.0914204865694046,0.998239278793335,0.2352730929851532,0.4930465817451477,-0.09922312200069427,0.9966031908988953,0.2358299195766449,0.4931693971157074,-0.0992787778377533,0.9963720440864563,0.2363254576921463,0.49337491393089294,-0.09935672581195831,0.9959768056869507,0.23328690230846405,0.4921121597290039,-0.10024420917034149,0.9968429803848267,0.23234161734580994,0.4916402995586395,-0.10027194023132324,0.9967231750488281,0.2313174307346344,0.4913201630115509,-0.10032708942890167,0.9967567324638367,0.23602783679962158,0.4968279302120209,-0.09863033145666122,0.992348313331604,0.23242060840129852,0.49542686343193054,-0.10601018369197845,0.9968216419219971,0.23570077121257782,0.512049674987793,-0.08632151037454605,0.9957964420318604,0.23290996253490448,0.5113407969474792,-0.08871105313301086,0.9966238737106323,0.20248201489448547,0.5404835939407349,-0.07879764586687088,0.9950827956199646,0.22949521243572235,0.5418621897697449,-0.06488500535488129,0.9972201585769653,0.21559838950634003,0.6057387590408325,-0.043839775025844574,0.4675186574459076,0.23393604159355164,0.5963055491447449,-0.06691280752420425,0.4974960684776306,0.2219138890504837,0.5920406579971313,-0.017902839928865433,0.41120287775993347,0.2458798885345459,0.5825501680374146,-0.10385735332965851,0.42385557293891907,0.22106917202472687,0.5903559923171997,-0.02192976325750351,0.3634195625782013,0.2499101161956787,0.583840548992157,-0.11141836643218994,0.3759646713733673,0.22645719349384308,0.582300066947937,-0.023943183943629265,0.3677529990673065,0.24748952686786652,0.5774237513542175,-0.11639734357595444,0.34902065992355347,0.2267954796552658,0.5838136076927185,-0.01772596314549446,0.35424312949180603,0.2458563596010208,0.5773191452026367,-0.10684908926486969,0.32088813185691833,0.22893337905406952,0.6684415936470032,-0.009252314455807209,0.9878344535827637,0.22506514191627502,0.6700524091720581,0.00945239420980215,0.9914031028747559,0.24327027797698975,0.7540980577468872,-0.038537926971912384,0.6429305076599121,0.23824386298656464,0.7470035552978516,0.00570882810279727,0.7749203443527222,0.24705305695533752,0.8262683153152466,0.09988931566476822,0.2996062636375427,0.246266171336174,0.8177289962768555,0.11725951731204987,0.3889942765235901,0.24811942875385284,0.835570216178894,0.11119052022695541,0.44707536697387695,0.24899551272392273,0.8272650837898254,0.12641221284866333,0.459940642118454,0.24856960773468018,0.8516735434532166,0.05409349128603935,0.3692036271095276,0.24599766731262207,0.8482993245124817,0.06984933465719223,0.4295103847980499
77,0.22263769805431366,0.5023185014724731,-0.16815248131752014,0.997653603553772,0.22356994450092316,0.4924706518650055,-0.1749567985534668,0.9959388375282288,0.22486886382102966,0.49222037196159363,-0.17505869269371033,0.9957048892974854,0.22613325715065002,0.4921058416366577,-0.1752600371837616,0.9952224493026733,0.21986660361289978,0.4921656847000122,-0.10211803019046783,0.9959288835525513,0.21847860515117645,0.4919654130935669,-0.10326014459133148,0.9956792593002319,0.21712012588977814,0.492087185382843,-0.10348570346832275,0.9955863356590271,0.22747394442558289,0.4953708350658417,-0.1314392387866974,0.9923161268234253,0.21692292392253876,0.49590474367141724,-0.12408141046762466,0.995757520198822,0.22566886246204376,0.5105185508728027,-0.1553506851196289,0.9958747029304504,0.22093400359153748,0.5110363364219666,-0.14044319093227386,0.9965088963508606,0.231387659907341,0.5430625677108765,-0.09711414575576782,0.9951706528663635,0.1937723457813263,0.5453287959098816,-0.06752043217420578,0.9970226883888245,0.2394697666168213,0.6084473729133606,-0.11031319200992584,0.4814649820327759,0.19259649515151978,0.6043598651885986,-0.08906811475753784,0.49466603994369507,0.2381897270679474,0.6379669308662415,-0.17673611640930176,0.381389856338501,0.2096889466047287,0.6327649354934692,-0.20986473560333252,0.39561522006988525,0.2355021983385086,0.6473424434661865,-0.1988602727651596,0.338786244392395,0.21402469277381897,0.6474250555038452,-0.23578575253486633,0.3529755175113678,0.23712070286273956,0.640931248664856,-0.2055821418762207,0.34267422556877136,0.21726879477500916,0.6423444151878357,-0.24736852943897247,0.329405277967453,0.23609276115894318,0.6375070214271545,-0.18027107417583466,0.33057093620300293,0.2170807421207428,0.6372478604316711,-0.21786101162433624,0.30318909883499146,0.23418550193309784,0.6694346070289612,-0.01563962548971176,0.9886845946311951,0.2044486552476883,0.6710296273231506,0.01586727239191532,0.9913398027420044,0.23959138989448547,0.7632754445075989,-0.09257734566926956,0.6677759289741516,0.20548371970653534,0.7530415058135986,0.03692193701863289,0.7605632543563843,0.23620286583900452,0.8404085636138916,0.0820106714963913,0.3312646746635437,0.21721196174621582,0.8202729821205139,0.24494199454784393,0.3983708620071411,0.23519137501716614,0.8492386937141418,0.09567766636610031,0.44707825779914856,0.22119931876659393,0.829600989818573,0.2625943422317505,0.45202526450157166,0.23621949553489685,0.8774994611740112,0.009193651378154755,0.3771759867668152,0.2140009105205536,0.8528356552124023,0.1791876256465912,0.4255877733230591
78,0.20937493443489075,0.5022170543670654,-0.16400538384914398,0.9968109130859375,0.2097572386264801,0.492544949054718,-0.15876995027065277,0.9944656491279602,0.21077802777290344,0.49225589632987976,-0.15885987877845764,0.9943786263465881,0.2118237465620041,0.49213331937789917,-0.15897546708583832,0.9941918849945068,0.20670053362846375,0.492558091878891,-0.15142546594142914,0.9930552840232849,0.2055225372314453,0.49252036213874817,-0.15153616666793823,0.9921879172325134,0.2042246162891388,0.49277788400650024,-0.1516343653202057,0.9918573498725891,0.2143075168132782,0.49540480971336365,-0.10271072387695312,0.990981936454773,0.2047988921403885,0.49655088782310486,-0.09903255850076675,0.9898366928100586,0.21224839985370636,0.5099061727523804,-0.1411254107952118,0.9952479600906372,0.20839890837669373,0.5107666850090027,-0.13941505551338196,0.9950934648513794,0.2248964011669159,0.5447299480438232,-0.05809957534074783,0.9955525994300842,0.18488582968711853,0.5474443435668945,-0.058318812400102615,0.9964600205421448,0.230333611369133,0.6098188757896423,-0.04893689230084419,0.5027803182601929,0.19642168283462524,0.6059820652008057,-0.06886398792266846,0.49275580048561096,0.2329370230436325,0.6540125608444214,-0.09957243502140045,0.37727028131484985,0.22195088863372803,0.6408233642578125,-0.14976808428764343,0.3839562237262726,0.23867233097553253,0.6741894483566284,-0.12006145715713501,0.3360568583011627,0.23044833540916443,0.6551733016967773,-0.17154942452907562,0.3464260995388031,0.23217789828777313,0.6752082109451294,-0.13921940326690674,0.3408881723880768,0.23122337460517883,0.6513023972511292,-0.18887999653816223,0.3253578841686249,0.23091678321361542,0.6668347716331482,-0.10755039751529694,0.3306165933609009,0.22775974869728088,0.6471872925758362,-0.1588250696659088,0.298838347196579,0.22176799178123474,0.6773697137832642,-0.014423188753426075,0.9893648624420166,0.2031596601009369,0.6754781007766724,0.014598740264773369,0.9905866980552673,0.22572633624076843,0.7764855623245239,-0.0706835612654686,0.6364913582801819,0.20956233143806458,0.7682389616966248,-0.00046527074300684035,0.7158301472663879,0.22911615669727325,0.861520528793335,0.07374419271945953,0.3280978798866272,0.21189665794372559,0.853255569934845,0.13767272233963013,0.38893088698387146,0.22884733974933624,0.8742576241493225,0.08073602616786957,0.42975053191185,0.2120993435382843,0.8656189441680908,0.14503827691078186,0.4321879744529724,0.23316633701324463,0.8849318027496338,-0.00361882196739316,0.3687629699707031,0.21688953042030334,0.8802496790885925,0.05880631133913994,0.41385310888290405
79,0.19787020981311798,0.5020439624786377,0.1940232217311859,0.9949895739555359,0.19477880001068115,0.4925385117530823,0.17668089270591736,0.9934211373329163,0.19319477677345276,0.4922676682472229,0.17666928470134735,0.9933077096939087,0.19165565073490143,0.4921689033508301,0.17662546038627625,0.9933028221130371,0.19903899729251862,0.49255508184432983,0.17195838689804077,0.991655707359314,0.20037992298603058,0.49251481890678406,0.17194873094558716,0.9905873537063599,0.20169100165367126,0.4927627444267273,0.17184051871299744,0.9902346134185791,0.19060316681861877,0.4958816468715668,0.10957138240337372,0.9908745884895325,0.2047954499721527,0.4965192377567291,0.08799786865711212,0.9895235896110535,0.1966513991355896,0.5096473097801208,0.17373530566692352,0.9944422841072083,0.20056085288524628,0.510500967502594,0.16759738326072693,0.9940919876098633,0.16515319049358368,0.5501952767372131,0.08185285329818726,0.995926558971405,0.22952106595039368,0.5472325682640076,0.003367980942130089,0.9967403411865234,0.16244342923164368,0.6301987767219543,0.055387306958436966,0.5435914993286133,0.24865004420280457,0.6088455319404602,-0.05491074174642563,0.5419352650642395,0.1813466101884842,0.6767284274101257,0.04912068694829941,0.3567256033420563,0.261989027261734,0.6623489260673523,-0.08559119701385498,0.4173819124698639,0.1856505572795868,0.6911826729774475,0.04395180195569992,0.3124980032444,0.25300830602645874,0.6837901473045349,-0.0954742431640625,0.36165162920951843,0.18932165205478668,0.6891459822654724,0.046211373060941696,0.3165073096752167,0.24180474877357483,0.6836777925491333,-0.0923977941274643,0.33942171931266785,0.18942750990390778,0.683063805103302,0.0478806309401989,0.30791887640953064,0.2368381917476654,0.678362250328064,-0.0857459008693695,0.31020697951316833,0.19254082441329956,0.6866753697395325,0.023253412917256355,0.9899272322654724,0.20412898063659668,0.6838445663452148,-0.023127425462007523,0.990444004535675,0.19537009298801422,0.7793216109275818,0.022975295782089233,0.6054346561431885,0.21295669674873352,0.7781886458396912,-0.021481797099113464,0.6838685274124146,0.19771240651607513,0.8728483319282532,0.056454163044691086,0.31854644417762756,0.206059068441391,0.8741029500961304,0.008052723482251167,0.3823626637458801,0.1982477456331253,0.8895207047462463,0.05548346787691116,0.4233669638633728,0.20041289925575256,0.8912991285324097,0.008776414208114147,0.4482397139072418,0.20217135548591614,0.8846330642700195,0.010088509880006313,0.3429071307182312,0.2194276601076126,0.8894608616828918,-0.04262758046388626,0.3888000547885895
80,0.18175050616264343,0.5021214485168457,-0.25035223364830017,0.9951623678207397,0.18368279933929443,0.4920736253261566,-0.2345547378063202,0.993347704410553,0.18563543260097504,0.49177086353302,-0.23462216556072235,0.9929711818695068,0.18760529160499573,0.49171993136405945,-0.2346983253955841,0.9930232167243958,0.177890807390213,0.4925152063369751,-0.23555997014045715,0.9919518828392029,0.17560510337352753,0.4925135672092438,-0.2355874478816986,0.9908870458602905,0.17356139421463013,0.4928111433982849,-0.235696479678154,0.9906678795814514,0.1925685703754425,0.4958527982234955,-0.14204652607440948,0.9901549220085144,0.17326220870018005,0.49655041098594666,-0.14337675273418427,0.9899900555610657,0.18651138246059418,0.5099353790283203,-0.215105339884758,0.9948089122772217,0.1793133169412613,0.5114079713821411,-0.2164999544620514,0.9945361018180847,0.20251548290252686,0.5497549772262573,-0.06337229162454605,0.9961515069007874,0.15557247400283813,0.5551744699478149,-0.104996457695961,0.9969334006309509,0.2026490718126297,0.624244749546051,0.00414277845993638,0.5798363089561462,0.14573580026626587,0.6274097561836243,-0.12485907971858978,0.5851126313209534,0.254347026348114,0.6711071133613586,-0.024027882143855095,0.38610705733299255,0.18031993508338928,0.6783338785171509,-0.22035381197929382,0.4630622863769531,0.2668229341506958,0.6845881938934326,0.007137781474739313,0.3357151448726654,0.19448697566986084,0.6983887553215027,-0.24873462319374084,0.4030599296092987,0.26285070180892944,0.6857128739356995,-0.07210354506969452,0.34126371145248413,0.2002309262752533,0.693229615688324,-0.2624169886112213,0.38324612379074097,0.25528684258461,0.6808764338493347,0.01880856230854988,0.33388251066207886,0.19679595530033112,0.6855717301368713,-0.22682258486747742,0.35308995842933655,0.21076026558876038,0.692820131778717,0.008951318450272083,0.9904860258102417,0.17718175053596497,0.6891689300537109,-0.008776899427175522,0.9906046986579895,0.21173875033855438,0.7905885577201843,-0.011860215105116367,0.6096518635749817,0.17963871359825134,0.7834916710853577,0.04542924836277962,0.6581690311431885,0.21274320781230927,0.8727793097496033,0.14857801795005798,0.30546602606773376,0.18918690085411072,0.8603734970092773,0.27509260177612305,0.3573794960975647,0.20947372913360596,0.8868639469146729,0.16065597534179688,0.39804404973983765,0.19286206364631653,0.8711344599723816,0.2950509488582611,0.41877955198287964,0.21794037520885468,0.903477132320404,0.06540199369192123,0.323005348443985,0.18841849267482758,0.8909438252449036,0.19784636795520782,0.36445528268814087
81,0.16374847292900085,0.4951699376106262,-0.2980925440788269,0.9955930709838867,0.16733640432357788,0.4834124743938446,-0.2826249301433563,0.9938784241676331,0.17021426558494568,0.483564168214798,-0.2826813757419586,0.9935024380683899,0.17293064296245575,0.4839758574962616,-0.28273189067840576,0.9934816360473633,0.15864786505699158,0.48373034596443176,-0.28179410099983215,0.9926607608795166,0.15559157729148865,0.4841105341911316,-0.2818271219730377,0.99169921875,0.15279386937618256,0.4847523868083954,-0.2819170355796814,0.9914987683296204,0.1766231209039688,0.48922693729400635,-0.18723607063293457,0.9908053278923035,0.15312924981117249,0.49063628911972046,-0.1819860190153122,0.9908826947212219,0.16930098831653595,0.505240261554718,-0.261976957321167,0.995283305644989,0.16005857288837433,0.5060163736343384,-0.26076018810272217,0.995053231716156,0.20744304358959198,0.5470820665359497,-0.11599961668252945,0.9964266419410706,0.13071593642234802,0.5548436641693115,-0.11672866344451904,0.997176468372345,0.22111816704273224,0.6117011308670044,-0.08387668430805206,0.6061820983886719,0.11826200783252716,0.6370357275009155,-0.12068061530590057,0.6232794523239136,0.24202947318553925,0.6628682613372803,-0.17461107671260834,0.4002244770526886,0.15207608044147491,0.677564799785614,-0.2297220677137375,0.5076904892921448,0.24877944588661194,0.6786941885948181,-0.2021317034959793,0.34956443309783936,0.1656053364276886,0.6948588490486145,-0.2584317624568939,0.4483647048473358,0.24083659052848816,0.6748867630958557,-0.22080250084400177,0.35589972138404846,0.17265211045742035,0.6893247365951538,-0.2726753354072571,0.43078097701072693,0.23498554527759552,0.6697183847427368,-0.18077875673770905,0.34874558448791504,0.16689474880695343,0.6816486120223999,-0.23614461719989777,0.4003017842769623,0.20473603904247284,0.6880313754081726,-0.010738442651927471,0.991161048412323,0.16090431809425354,0.6905502676963806,0.010899840854108334,0.99113929271698,0.2087654173374176,0.7860388159751892,-0.0448790080845356,0.6252775192260742,0.16469500958919525,0.7871609330177307,0.058095335960388184,0.657941997051239,0.20923033356666565,0.8628332018852234,0.15484075248241425,0.3262092173099518,0.17015084624290466,0.8528409600257874,0.295075386762619,0.3671083450317383,0.20752286911010742,0.8738672733306885,0.1701105386018753,0.392378568649292,0.17446644604206085,0.86500483751297,0.315706729888916,0.419802188873291,0.2139759361743927,0.8981783986091614,0.07852358371019363,0.3341561257839203,0.17414170503616333,0.8944766521453857,0.22953610122203827,0.37077534198760986
82,0.15230068564414978,0.4851292073726654,-0.2690320611000061,0.9959673285484314,0.1562032699584961,0.4725872576236725,-0.25248247385025024,0.9943410754203796,0.15931926667690277,0.4723266363143921,-0.2525523602962494,0.993958055973053,0.16258302330970764,0.4723559021949768,-0.25260284543037415,0.9938826560974121,0.1469627320766449,0.47392311692237854,-0.2517366409301758,0.9932607412338257,0.1436440646648407,0.47443851828575134,-0.2518041431903839,0.9923936128616333,0.14065027236938477,0.4750733971595764,-0.25190532207489014,0.992215633392334,0.16855448484420776,0.47662419080734253,-0.1556077003479004,0.991450846195221,0.13770616054534912,0.48037150502204895,-0.15505942702293396,0.9916951656341553,0.15832985937595367,0.49618858098983765,-0.2327825278043747,0.9957357048988342,0.14782187342643738,0.497742623090744,-0.23187677562236786,0.9955364465713501,0.20076942443847656,0.542769730091095,-0.08934208005666733,0.9966564178466797,0.11557371914386749,0.5529695749282837,-0.10972068458795547,0.9973262548446655,0.22685077786445618,0.6073928475379944,-0.06601041555404663,0.6421321034431458,0.09645210206508636,0.6354940533638,-0.14090736210346222,0.6589953899383545,0.24221856892108917,0.6623613834381104,-0.15435311198234558,0.4463781416416168,0.1392785608768463,0.6708557605743408,-0.2990904450416565,0.5487960577011108,0.24955758452415466,0.6803280711174011,-0.18232664465904236,0.3885436952114105,0.1523524671792984,0.6864699125289917,-0.33324840664863586,0.48662471771240234,0.2417439967393875,0.6799631714820862,-0.19746416807174683,0.39629122614860535,0.15741011500358582,0.6794399619102478,-0.34139198064804077,0.47201263904571533,0.23617783188819885,0.6742114424705505,-0.16136276721954346,0.3920479714870453,0.15519224107265472,0.6733880639076233,-0.3041529953479767,0.4426470696926117,0.19413818418979645,0.6888853311538696,-0.007835933938622475,0.9913368225097656,0.14456945657730103,0.6906833648681641,0.007945270277559757,0.9909250140190125,0.1963176727294922,0.7975979447364807,-0.056785810738801956,0.6229532361030579,0.13944384455680847,0.7946949005126953,0.05107704922556877,0.6500727534294128,0.19887694716453552,0.8727458119392395,0.2267552614212036,0.30215203762054443,0.15335382521152496,0.8711019158363342,0.26554158329963684,0.3436630368232727,0.19405004382133484,0.8814063668251038,0.2503795921802521,0.3624490797519684,0.15641435980796814,0.8826595544815063,0.2889549136161804,0.3886224329471588,0.19822746515274048,0.9165792465209961,0.15502046048641205,0.30762892961502075,0.1625177264213562,0.9125396013259888,0.18129706382751465,0.3481217324733734
83,0.1304691731929779,0.46693676710128784,-0.22945170104503632,0.9963639974594116,0.1345849335193634,0.45446154475212097,-0.21409153938293457,0.9948910474777222,0.13772712647914886,0.4541111886501312,-0.21418003737926483,0.9945445656776428,0.14069564640522003,0.454068660736084,-0.21424663066864014,0.9944764375686646,0.12496151775121689,0.45627716183662415,-0.21433620154857635,0.9939136505126953,0.1219276636838913,0.4569447636604309,-0.21436521410942078,0.9931287169456482,0.11934665590524673,0.45755672454833984,-0.21445488929748535,0.9929689168930054,0.14714649319648743,0.4587746560573578,-0.14269407093524933,0.992286741733551,0.11922512203454971,0.4617372155189514,-0.11640292406082153,0.9924991726875305,0.13808314502239227,0.4771190285682678,-0.19608107209205627,0.9961593151092529,0.12650799751281738,0.47845110297203064,-0.1969687044620514,0.9959797263145447,0.1867228001356125,0.523809552192688,-0.07859845459461212,0.9969838261604309,0.09888424724340439,0.538743257522583,-0.060662996023893356,0.9975414276123047,0.21795685589313507,0.5905004739761353,-0.07583649456501007,0.6759184002876282,0.08332996070384979,0.6195071935653687,-0.09804470837116241,0.6805281639099121,0.22189739346504211,0.6551303863525391,-0.18270280957221985,0.4951133131980896,0.10939554870128632,0.6666427254676819,-0.25447458028793335,0.5668094158172607,0.22565749287605286,0.6726668477058411,-0.21415653824806213,0.43878471851348877,0.11427143961191177,0.6774552464485168,-0.2897031903266907,0.5077833533287048,0.21551494300365448,0.6676499843597412,-0.22992101311683655,0.4464237689971924,0.11921276897192001,0.6683362722396851,-0.3038683533668518,0.4959712326526642,0.21306166052818298,0.662024736404419,-0.1903233528137207,0.44156861305236816,0.11710312217473984,0.66285640001297,-0.26326191425323486,0.46825623512268066,0.18319031596183777,0.6761602759361267,-0.006104193162173033,0.991997241973877,0.1326945424079895,0.6837976574897766,0.00623114500194788,0.9916385412216187,0.1999559998512268,0.7827014923095703,-0.1151513010263443,0.6257367730140686,0.13103392720222473,0.7638447880744934,-0.1969134360551834,0.6576957106590271,0.20200888812541962,0.865199625492096,0.11974360048770905,0.30849316716194153,0.14975318312644958,0.8612682223320007,0.0013126576086506248,0.3691454827785492,0.19860950112342834,0.8745573163032532,0.14026695489883423,0.36196285486221313,0.15576240420341492,0.8722602128982544,0.017590386793017387,0.3981052339076996,0.2133796662092209,0.8997518420219421,0.04040508717298508,0.3051055669784546,0.15141195058822632,0.8994792699813843,-0.09124624729156494,0.3659656047821045
84,0.11245165020227432,0.4496079087257385,-0.2907203435897827,0.9967042207717896,0.11770866066217422,0.4380340278148651,-0.275604784488678,0.99534010887146,0.12101058661937714,0.43805158138275146,-0.2756653428077698,0.9950123429298401,0.1243535652756691,0.43831831216812134,-0.2757403254508972,0.9949206709861755,0.10890587419271469,0.4390887916088104,-0.2728142738342285,0.9944751262664795,0.10619813203811646,0.43974238634109497,-0.27282917499542236,0.9937665462493896,0.10374047607183456,0.4404345154762268,-0.2728978395462036,0.9936156868934631,0.13043159246444702,0.4449305236339569,-0.1809152066707611,0.9929552674293518,0.10505527257919312,0.44544118642807007,-0.16633431613445282,0.9932023286819458,0.11935301870107651,0.4609960913658142,-0.2543518543243408,0.9965336918830872,0.10892124474048615,0.46150922775268555,-0.251240074634552,0.9963749051094055,0.16986308991909027,0.511403501033783,-0.11504759639501572,0.9972702860832214,0.0783943459391594,0.5249022841453552,-0.07738686352968216,0.9977647066116333,0.20816318690776825,0.5627462267875671,-0.07928834110498428,0.7065015435218811,0.05883709713816643,0.606042742729187,-0.0920405238866806,0.7101262211799622,0.20175135135650635,0.6433576345443726,-0.16211754083633423,0.535008430480957,0.0955674946308136,0.6601388454437256,-0.2272576093673706,0.6039015650749207,0.2021748572587967,0.6676149368286133,-0.1925050914287567,0.4763965606689453,0.10652431100606918,0.674777090549469,-0.25879794359207153,0.5465306043624878,0.19558337330818176,0.6624831557273865,-0.2088814228773117,0.4839189946651459,0.11111786216497421,0.6637886762619019,-0.2731313705444336,0.5360389351844788,0.1940912902355194,0.6606342792510986,-0.16894666850566864,0.47783902287483215,0.10734401643276215,0.6572704911231995,-0.23439495265483856,0.5087061524391174,0.17002439498901367,0.6738495230674744,-0.011286243796348572,0.9926910996437073,0.11872599273920059,0.6833094954490662,0.011392196640372276,0.9922502636909485,0.19836410880088806,0.7876942157745361,-0.06305336207151413,0.6247992515563965,0.12095693498849869,0.7834933400154114,0.02672894299030304,0.6470372676849365,0.2128250151872635,0.8767974972724915,0.16569331288337708,0.3057476878166199,0.14193840324878693,0.8696151971817017,0.2768844664096832,0.3620341718196869,0.21075239777565002,0.8898519277572632,0.18210835754871368,0.351421982049942,0.14936530590057373,0.8809269070625305,0.2986770570278168,0.3906959295272827,0.22159048914909363,0.9177161455154419,0.08170685917139053,0.29958540201187134,0.13726499676704407,0.9124310612678528,0.20868296921253204,0.3563633859157562
85,0.09690295159816742,0.44326135516166687,-0.4128447473049164,0.9969791173934937,0.10125565528869629,0.4298330247402191,-0.39385369420051575,0.9957244992256165,0.10537983477115631,0.4298534691333771,-0.39398762583732605,0.9954153299331665,0.10945316404104233,0.43001365661621094,-0.3941664695739746,0.9953307509422302,0.090999536216259,0.4311901032924652,-0.39070117473602295,0.9949172139167786,0.08773793280124664,0.4321204125881195,-0.3907429575920105,0.9942448735237122,0.08467097580432892,0.433023601770401,-0.3908121883869171,0.9940847158432007,0.11663009226322174,0.43614986538887024,-0.27038007974624634,0.9935842156410217,0.0832158699631691,0.4406340420246124,-0.2551558315753937,0.9937463998794556,0.10499775409698486,0.45663967728614807,-0.3658534586429596,0.9968690872192383,0.09372106939554214,0.4573966860771179,-0.3617747128009796,0.9967204332351685,0.15755970776081085,0.5026389956474304,-0.20047183334827423,0.9975364208221436,0.059470225125551224,0.5220775008201599,-0.15425412356853485,0.9978746175765991,0.19842363893985748,0.5703778862953186,-0.25724902749061584,0.7352350354194641,0.05695383623242378,0.6097062230110168,-0.17658421397209167,0.733119010925293,0.18542936444282532,0.6432325839996338,-0.4317016005516052,0.5774934887886047,0.07966232299804688,0.6597058176994324,-0.36143726110458374,0.6253184676170349,0.17999714612960815,0.6658288836479187,-0.48764991760253906,0.5211005806922913,0.08914972096681595,0.6769124269485474,-0.4082203805446625,0.5690546035766602,0.16879302263259888,0.6595519781112671,-0.5009176135063171,0.5282267332077026,0.0946764349937439,0.6677576303482056,-0.4286774694919586,0.5606192350387573,0.16927926242351532,0.6563344597816467,-0.4398465156555176,0.5206378698348999,0.09388268738985062,0.6627317667007446,-0.3734155297279358,0.5321536064147949,0.1588849127292633,0.6724091172218323,-0.012569489888846874,0.9932827949523926,0.10750256478786469,0.6832120418548584,0.012735389173030853,0.9927042722702026,0.19359348714351654,0.7994343638420105,-0.09282375872135162,0.5964821577072144,0.10732083022594452,0.8022716045379639,-0.06068773195147514,0.631016731262207,0.2149675190448761,0.8955308794975281,0.18106210231781006,0.2846311330795288,0.13099102675914764,0.89894700050354,0.20683498680591583,0.3456035256385803,0.21427643299102783,0.9103676080703735,0.20216865837574005,0.32832053303718567,0.1380639523267746,0.9114657044410706,0.22665651142597198,0.3706745207309723,0.22596514225006104,0.9357448816299438,0.08291490375995636,0.27640143036842346,0.1308620125055313,0.9448837041854858,0.19874735176563263,0.33559131622314453
86,0.06656987220048904,0.44377365708351135,-0.34926217794418335,0.9969337582588196,0.07114274799823761,0.42891034483909607,-0.3336114287376404,0.9955321550369263,0.07436762005090714,0.4285684823989868,-0.33373740315437317,0.9952760934829712,0.07759465277194977,0.42849454283714294,-0.33386749029159546,0.9952484369277954,0.06247951462864876,0.4307207465171814,-0.32953503727912903,0.9944053292274475,0.05991926044225693,0.43135866522789,-0.3295518755912781,0.9934869408607483,0.057663582265377045,0.43198350071907043,-0.3296492397785187,0.9931057095527649,0.08600445091724396,0.434295654296875,-0.22579579055309296,0.9937224984169006,0.05965214967727661,0.4384838342666626,-0.20846085250377655,0.9922982454299927,0.07469965517520905,0.45571261644363403,-0.3078863024711609,0.9971013069152832,0.06398846209049225,0.45721831917762756,-0.3028854727745056,0.9968807101249695,0.13333478569984436,0.4964950382709503,-0.1610797792673111,0.9977735280990601,0.03749389201402664,0.5199030637741089,-0.12620404362678528,0.9978281259536743,0.1760084480047226,0.5648866891860962,-0.1592720001935959,0.7610090970993042,0.03274936601519585,0.6066372394561768,-0.09918005764484406,0.7455586194992065,0.1661745011806488,0.6521653532981873,-0.2791009247303009,0.6168673038482666,0.07068531215190887,0.6659927368164062,-0.2650511860847473,0.6369280815124512,0.16287747025489807,0.6760513186454773,-0.3229040503501892,0.5627160668373108,0.07431610673666,0.6863973140716553,-0.38866126537323,0.5808994174003601,0.15295079350471497,0.6715903878211975,-0.3424347937107086,0.5695733428001404,0.07991151511669159,0.6802749633789062,-0.32106274366378784,0.5744999647140503,0.15211209654808044,0.6659731268882751,-0.2879047989845276,0.5613604187965393,0.08038053661584854,0.6733255982398987,-0.3167099356651306,0.546241819858551,0.13929447531700134,0.6724568009376526,-0.010795827023684978,0.9937962293624878,0.08455793559551239,0.6839025616645813,0.010981746949255466,0.9929447770118713,0.1708909124135971,0.7962819337844849,-0.053487379103899,0.5769906044006348,0.09466546028852463,0.802939772605896,-0.03713633120059967,0.6190403699874878,0.19980348646640778,0.888479471206665,0.20109741389751434,0.2728825807571411,0.12091263383626938,0.8932806253433228,0.23760659992694855,0.3318220376968384,0.20047643780708313,0.9027606248855591,0.2198994904756546,0.312490314245224,0.12676382064819336,0.9022003412246704,0.2601650655269623,0.3501259386539459,0.21694418787956238,0.9251865744590759,0.10084518045186996,0.26284587383270264,0.13004925847053528,0.9384792447090149,0.1467636674642563,0.31973281502723694
87,0.049844540655612946,0.44667431712150574,-0.37393850088119507,0.9970375895500183,0.0533616840839386,0.4333908259868622,-0.3583011031150818,0.9954538941383362,0.056750547140836716,0.4332229793071747,-0.35837921500205994,0.9953498244285583,0.06004942208528519,0.4332999587059021,-0.3584764003753662,0.9952860474586487,0.04385177418589592,0.4345703423023224,-0.3567257523536682,0.9941301941871643,0.04064353555440903,0.4350919723510742,-0.3567519783973694,0.9933007955551147,0.037705399096012115,0.4356977343559265,-0.3568461239337921,0.9926078915596008,0.0674564391374588,0.4390489459037781,-0.2531008720397949,0.9937672019004822,0.03833777457475662,0.44145339727401733,-0.24746248126029968,0.9914182424545288,0.05813831090927124,0.45852166414260864,-0.3333698809146881,0.9972816705703735,0.046797893941402435,0.4601110517978668,-0.3320309519767761,0.9969867467880249,0.10910403728485107,0.5043491721153259,-0.18346542119979858,0.9979856014251709,0.01970120519399643,0.5146247148513794,-0.1658845692873001,0.9978852868080139,0.1520569771528244,0.5693031549453735,-0.1547613888978958,0.7840391397476196,0.02043246477842331,0.6010305881500244,-0.1164887547492981,0.7589367032051086,0.14990322291851044,0.6574056148529053,-0.23990972340106964,0.6516324877738953,0.04996747896075249,0.6760116815567017,-0.2082277238368988,0.6473953723907471,0.150088369846344,0.6869662404060364,-0.2742827534675598,0.5979802012443542,0.05890168622136116,0.6974908113479614,-0.2543284595012665,0.588623046875,0.1401825100183487,0.6833165287971497,-0.29387784004211426,0.6048261523246765,0.06748015433549881,0.6905390024185181,-0.2702155113220215,0.5842609405517578,0.13726644217967987,0.6747199296951294,-0.2482471466064453,0.596161961555481,0.0673345997929573,0.6845150589942932,-0.22848255932331085,0.5564618110656738,0.11539401113986969,0.6714944839477539,-0.00950315035879612,0.9941881895065308,0.06340266019105911,0.6807260513305664,0.009694444015622139,0.9930136799812317,0.14282801747322083,0.7807633876800537,-0.022123966366052628,0.5575445294380188,0.07685811072587967,0.7940419912338257,-0.012674622237682343,0.5976452827453613,0.17375388741493225,0.8847917914390564,0.18429996073246002,0.2696625888347626,0.10618646442890167,0.8865095973014832,0.23571744561195374,0.31884950399398804,0.17619885504245758,0.8944609761238098,0.1992758959531784,0.30389460921287537,0.1123432144522667,0.8896110653877258,0.25637614727020264,0.3328385353088379,0.18995735049247742,0.9182084202766418,0.0899910107254982,0.2574883699417114,0.10869957506656647,0.9225332736968994,0.14642249047756195,0.3074630796909332
88,0.030165042728185654,0.45903193950653076,-0.3417167067527771,0.9969838261604309,0.03543715178966522,0.4387192726135254,-0.3310745358467102,0.9951989650726318,0.03902699798345566,0.4373328387737274,-0.3312009274959564,0.9952395558357239,0.04229019954800606,0.43608513474464417,-0.33134517073631287,0.9951670169830322,0.025238806381821632,0.43927228450775146,-0.324267715215683,0.9936454892158508,0.02212519384920597,0.43762972950935364,-0.32424023747444153,0.9927984476089478,0.019237183034420013,0.4365667998790741,-0.324346661567688,0.9916067719459534,0.048697493970394135,0.4435068368911743,-0.23803198337554932,0.9940668940544128,0.019539829343557358,0.449474960565567,-0.2081971913576126,0.9898555278778076,0.037947770208120346,0.46940410137176514,-0.30439502000808716,0.997472882270813,0.026753714308142662,0.4727226495742798,-0.29531559348106384,0.9971119165420532,0.09536924213171005,0.518720805644989,-0.18411478400230408,0.998174250125885,0.004132327623665333,0.5319001078605652,-0.10924927145242691,0.9976637959480286,0.14244891703128815,0.5753097534179688,-0.1618887037038803,0.805341899394989,0.015772150829434395,0.6253306865692139,-0.03318153694272041,0.7608445286750793,0.1416126787662506,0.6902729868888855,-0.23810537159442902,0.6843211650848389,0.03444439172744751,0.7060840129852295,-0.13762131333351135,0.6458563804626465,0.14130690693855286,0.7145124673843384,-0.2770405411720276,0.6317126750946045,0.03712405264377594,0.7271026968955994,-0.1650228202342987,0.584558367729187,0.13172343373298645,0.7145225405693054,-0.2947658896446228,0.6388716101646423,0.04282118007540703,0.7237615585327148,-0.20135006308555603,0.5849151015281677,0.1283750832080841,0.7075792551040649,-0.24488374590873718,0.6295419931411743,0.044983603060245514,0.7164891362190247,-0.15418624877929688,0.5578983426094055,0.10395783185958862,0.703179121017456,-0.028000393882393837,0.9926188588142395,0.04845830053091049,0.7119319438934326,0.0283957626670599,0.9873284101486206,0.12348632514476776,0.8274134397506714,-0.07257777452468872,0.558437168598175,0.06091807037591934,0.8357797861099243,0.040752872824668884,0.579643726348877,0.13316765427589417,0.9214648604393005,0.199028879404068,0.2603834569454193,0.08950175344944,0.9338003993034363,0.30233532190322876,0.3025694489479065,0.13429175317287445,0.9330005049705505,0.2211965024471283,0.2900039255619049,0.0954069197177887,0.945499062538147,0.325221449136734,0.32044586539268494,0.1360209733247757,0.9688690304756165,0.10734117031097412,0.24188195168972015,0.09690524637699127,0.9779497981071472,0.20831680297851562,0.2879379689693451
89
90
91
92
93
94
95
96
97
98
99
