frame,NOSE.x,NOSE.y,NOSE.z,NOSE.v,LEFT_EYE_INNER.x,LEFT_EYE_INNER.y,LEFT_EYE_INNER.z,LEFT_EYE_INNER.v,LEFT_EYE.x,LEFT_EYE.y,LEFT_EYE.z,LEFT_EYE.v,LEFT_EYE_OUTER.x,LEFT_EYE_OUTER.y,LEFT_EYE_OUTER.z,LEFT_EYE_OUTER.v,RIGHT_EYE_INNER.x,RIGHT_EYE_INNER.y,RIGHT_EYE_INNER.z,RIGHT_EYE_INNER.v,RIGHT_EYE.x,RIGHT_EYE.y,RIGHT_EYE.z,RIGHT_EYE.v,RIGHT_EYE_OUTER.x,RIGHT_EYE_OUTER.y,RIGHT_EYE_OUTER.z,RIGHT_EYE_OUTER.v,LEFT_EAR.x,LEFT_EAR.y,LEFT_EAR.z,LEFT_EAR.v,RIGHT_EAR.x,RIGHT_EAR.y,RIGHT_EAR.z,RIGHT_EAR.v,MOUTH_LEFT.x,MOUTH_LEFT.y,MOUTH_LEFT.z,MOUTH_LEFT.v,MOUTH_RIGHT.x,MOUTH_RIGHT.y,MOUTH_RIGHT.z,MOUTH_RIGHT.v,LEFT_SHOULDER.x,LEFT_SHOULDER.y,LEFT_SHOULDER.z,LEFT_SHOULDER.v,RIGHT_SHOULDER.x,RIGHT_SHOULDER.y,RIGHT_SHOULDER.z,RIGHT_SHOULDER.v,LEFT_ELBOW.x,LEFT_ELBOW.y,LEFT_ELBOW.z,LEFT_ELBOW.v,RIGHT_ELBOW.x,RIGHT_ELBOW.y,RIGHT_ELBOW.z,RIGHT_ELBOW.v,LEFT_WRIST.x,LEFT_WRIST.y,LEFT_WRIST.z,LEFT_WRIST.v,RIGHT_WRIST.x,RIGHT_WRIST.y,RIGHT_WRIST.z,RIGHT_WRIST.v,LEFT_PINKY.x,LEFT_PINKY.y,LEFT_PINKY.z,LEFT_PINKY.v,RIGHT_PINKY.x,RIGHT_PINKY.y,RIGHT_PINKY.z,RIGHT_PINKY.v,LEFT_INDEX.x,LEFT_INDEX.y,LEFT_INDEX.z,LEFT_INDEX.v,RIGHT_INDEX.x,RIGHT_INDEX.y,RIGHT_INDEX.z,RIGHT_INDEX.v,LEFT_THUMB.x,LEFT_THUMB.y,LEFT_THUMB.z,LEFT_THUMB.v,RIGHT_THUMB.x,RIGHT_THUMB.y,RIGHT_THUMB.z,RIGHT_THUMB.v,LEFT_HIP.x,LEFT_HIP.y,LEFT_HIP.z,LEFT_HIP.v,RIGHT_HIP.x,RIGHT_HIP.y,RIGHT_HIP.z,RIGHT_HIP.v,LEFT_KNEE.x,LEFT_KNEE.y,LEFT_KNEE.z,LEFT_KNEE.v,RIGHT_KNEE.x,RIGHT_KNEE.y,RIGHT_KNEE.z,RIGHT_KNEE.v,LEFT_ANKLE.x,LEFT_ANKLE.y,LEFT_ANKLE.z,LEFT_ANKLE.v,RIGHT_ANKLE.x,RIGHT_ANKLE.y,RIGHT_ANKLE.z,RIGHT_ANKLE.v,LEFT_HEEL.x,LEFT_HEEL.y,LEFT_HEEL.z,LEFT_HEEL.v,RIGHT_HEEL.x,RIGHT_HEEL.y,RIGHT_HEEL.z,RIGHT_HEEL.v,LEFT_FOOT_INDEX.x,LEFT_FOOT_INDEX.y,LEFT_FOOT_INDEX.z,LEFT_FOOT_INDEX.v,RIGHT_FOOT_INDEX.x,RIGHT_FOOT_INDEX.y,RIGHT_FOOT_INDEX.z,RIGHT_FOOT_INDEX.v
0
1
2
3
4
5
6
7
8
9
10
11
12
13
14
15
16
17
18
19
20
21
22
23
24
25
26
27
28
29
30
31
32
33
34
35
36
37
38
39
40
41
42
43
44
45,0.12927164137363434,0.3539217710494995,0.10986286401748657,0.9974542260169983,0.12025461345911026,0.3371214270591736,0.09140199422836304,0.9964463114738464,0.11732257902622223,0.3363364338874817,0.09136438369750977,0.9958814382553101,0.11456044763326645,0.33565303683280945,0.09132186323404312,0.9958043694496155,0.1297290176153183,0.34036940336227417,0.08593034744262695,0.9976490139961243,0.13235707581043243,0.34167516231536865,0.08590943366289139,0.9975329637527466,0.13463324308395386,0.34268057346343994,0.08580801635980606,0.9978621602058411,0.1113719567656517,0.34237706661224365,0.018524818122386932,0.9950137734413147,0.1369284689426422,0.3523821234703064,-0.006148832384496927,0.9979037046432495,0.11792570352554321,0.35797759890556335,0.08841454982757568,0.9956294298171997,0.12779533863067627,0.3616160452365875,0.08127492666244507,0.9962273836135864,0.08471047133207321,0.38066330552101135,0.008623026311397552,0.9975243210792542,0.15162476897239685,0.401980996131897,-0.05800405144691467,0.9995651841163635,0.09890204668045044,0.46524345874786377,0.03269103169441223,0.26777383685112,0.1635243147611618,0.4888388514518738,-0.0671396479010582,0.9219071865081787,0.11405859887599945,0.5046048164367676,0.06641428172588348,0.12739624083042145,0.17152664065361023,0.5475434064865112,-0.007820355705916882,0.7038995027542114,0.11577552556991577,0.5134680271148682,0.08269400149583817,0.1399485170841217,0.17442792654037476,0.5656983852386475,0.002239563502371311,0.6335405707359314,0.12044135481119156,0.5101359486579895,0.07982014119625092,0.1382191926240921,0.17321808636188507,0.5652394890785217,0.011759128421545029,0.6061058640480042,0.12248967587947845,0.5083359479904175,0.06701779365539551,0.1291235387325287,0.1688104271888733,0.5593605637550354,-0.0020181643776595592,0.5297468900680542,0.08458968251943588,0.5522794127464294,0.017508704215288162,0.998306393623352,0.12579849362373352,0.556223452091217,-0.017926214262843132,0.9980864524841309,0.07646898180246353,0.6485198736190796,0.10505930334329605,0.7139928340911865,0.10886569321155548,0.6628618240356445,0.031202461570501328,0.7536100149154663,0.07827753573656082,0.7339127063751221,-0.03311970457434654,0.8947363495826721,0.09455046057701111,0.7546929121017456,-0.09670563042163849,0.9155422449111938,0.08094694465398788,0.7430113554000854,-0.0474599190056324,0.9444212913513184,0.09275020658969879,0.76275634765625,-0.1085204929113388,0.9309016466140747,0.07698792219161987,0.7749716639518738,-0.07649503648281097,0.8746176958084106,0.08610208332538605,0.8008657097816467,-0.14350123703479767,0.8629093766212463
46,0.12274251878261566,0.34916332364082336,0.1677992045879364,0.9961186051368713,0.11763668060302734,0.33700549602508545,0.14672905206680298,0.9948329925537109,0.11459225416183472,0.3362913727760315,0.1467084139585495,0.9939031600952148,0.11169411242008209,0.33564168214797974,0.14666375517845154,0.9938437342643738,0.1272442489862442,0.339560866355896,0.1387205272912979,0.9966458082199097,0.13035568594932556,0.34053075313568115,0.13868072628974915,0.9964861869812012,0.1328199803829193,0.34117695689201355,0.1385229080915451,0.9970436692237854,0.10862080752849579,0.3421648442745209,0.0660516694188118,0.992735743522644,0.13559739291667938,0.34933310747146606,0.031050628051161766,0.9971305131912231,0.11649475991725922,0.3570360839366913,0.1438576728105545,0.9943124651908875,0.12611913681030273,0.35973864793777466,0.13360223174095154,0.9954956769943237,0.0842982605099678,0.38061290979385376,0.06444579362869263,0.9972466826438904,0.15133799612522125,0.39927005767822266,-0.05131758376955986,0.9995246529579163,0.10449224710464478,0.4555758833885193,0.07857541739940643,0.25880658626556396,0.16193431615829468,0.4815216064453125,-0.06740406155586243,0.9254500865936279,0.12515084445476532,0.49233895540237427,0.09124026447534561,0.12273851037025452,0.17363014817237854,0.5451825261116028,-0.021018076688051224,0.6992552876472473,0.12691326439380646,0.5036817193031311,0.10162520408630371,0.1342053860425949,0.1772526204586029,0.5602748394012451,-0.01944662258028984,0.6273220181465149,0.13412430882453918,0.4992765188217163,0.09552544355392456,0.13254544138908386,0.1754438579082489,0.5590683221817017,-0.014068777672946453,0.6007048487663269,0.13623973727226257,0.49611997604370117,0.08879855275154114,0.12351521104574203,0.17146944999694824,0.5545128583908081,-0.01748642325401306,0.5242348909378052,0.08432115614414215,0.5534096956253052,0.038290150463581085,0.9980694055557251,0.12548990547657013,0.5564210414886475,-0.03854550048708916,0.998065710067749,0.07948889583349228,0.6462582945823669,0.13734126091003418,0.7125157117843628,0.10886330902576447,0.6664833426475525,-0.01897793635725975,0.770687997341156,0.07429517805576324,0.7315663695335388,0.12978041172027588,0.8856788277626038,0.0943860411643982,0.7777574062347412,-0.07192696630954742,0.9197933077812195,0.07236477732658386,0.742577850818634,0.12673768401145935,0.9386951923370361,0.08922546356916428,0.7925052642822266,-0.07752307504415512,0.9343875646591187,0.07597389072179794,0.7600213885307312,0.08989913016557693,0.8514707088470459,0.0976848378777504,0.8109108805656433,-0.1321948766708374,0.8626334071159363
47,0.12998013198375702,0.3726940453052521,0.20766274631023407,0.9926047325134277,0.1271158754825592,0.3635311424732208,0.18519839644432068,0.9910468459129333,0.12448469549417496,0.36325162649154663,0.1852191686630249,0.989702045917511,0.12184415012598038,0.3630323112010956,0.1851799488067627,0.9896285533905029,0.1345250904560089,0.3639443814754486,0.18005777895450592,0.9943832755088806,0.13701190054416656,0.3639465868473053,0.18003368377685547,0.9943246841430664,0.13807229697704315,0.36287862062454224,0.17988654971122742,0.995303213596344,0.11694612354040146,0.35870078206062317,0.10266599804162979,0.9885528087615967,0.14226189255714417,0.36601927876472473,0.08141987025737762,0.9954356551170349,0.1230078935623169,0.37472495436668396,0.18382051587104797,0.9898203015327454,0.13086417317390442,0.37655097246170044,0.1774977445602417,0.9922928214073181,0.09011051803827286,0.3919063210487366,0.10400442779064178,0.9966473579406738,0.16217949986457825,0.40976861119270325,-0.0034206353593617678,0.9995099902153015,0.10410390794277191,0.45951366424560547,0.1774580478668213,0.23911429941654205,0.18737950921058655,0.4858025312423706,0.02969982847571373,0.9314521551132202,0.12416211515665054,0.49330630898475647,0.2689083218574524,0.11362507939338684,0.2087143361568451,0.542899489402771,0.1454266458749771,0.7053967118263245,0.12572450935840607,0.5048352479934692,0.28884148597717285,0.125055730342865,0.219728022813797,0.5524624586105347,0.15609796345233917,0.6307992339134216,0.13208377361297607,0.5007902979850769,0.2864550054073334,0.12342548370361328,0.21838465332984924,0.5506076216697693,0.15833896398544312,0.6052937507629395,0.1340528130531311,0.49795833230018616,0.2709410488605499,0.11518038064241409,0.21352240443229675,0.5493726134300232,0.1502871811389923,0.531726598739624,0.08612239360809326,0.5600778460502625,0.037639252841472626,0.9978036880493164,0.1279357373714447,0.5671548247337341,-0.03795051947236061,0.9980302453041077,0.08196277916431427,0.6462991833686829,0.1496669352054596,0.712509036064148,0.1097448468208313,0.6726072430610657,0.020000619813799858,0.7838500142097473,0.07427825033664703,0.7316044569015503,0.2028438299894333,0.8783203363418579,0.09052301198244095,0.7783037424087524,0.058904655277729034,0.920865535736084,0.0723639503121376,0.7446972727775574,0.2073124647140503,0.9326460361480713,0.08403079211711884,0.7914878726005554,0.06240687891840935,0.9343990087509155,0.07598809897899628,0.7510381937026978,0.19762161374092102,0.8282697200775146,0.09721853584051132,0.8095938563346863,0.032701946794986725,0.8506309390068054
48,0.14609140157699585,0.37612831592559814,0.17281098663806915,0.9841009378433228,0.14386090636253357,0.3677353262901306,0.14954927563667297,0.9833992123603821,0.1402602195739746,0.36679747700691223,0.14955803751945496,0.9803757667541504,0.13751092553138733,0.36610862612724304,0.14950136840343475,0.9808981418609619,0.15149804949760437,0.3682080805301666,0.1438654363155365,0.9890452027320862,0.15342719852924347,0.36875593662261963,0.1438755840063095,0.9883279204368591,0.15504540503025055,0.3689267337322235,0.14375540614128113,0.9906038045883179,0.131549671292305,0.3669925630092621,0.06836814433336258,0.9818522334098816,0.15514090657234192,0.3746933341026306,0.04387342184782028,0.9906749725341797,0.13946843147277832,0.38275086879730225,0.14929991960525513,0.9816450476646423,0.1465693861246109,0.38510623574256897,0.14219430088996887,0.9865171313285828,0.09481363743543625,0.4095759093761444,0.07091788202524185,0.9961426258087158,0.17296913266181946,0.42236068844795227,-0.031813982874155045,0.9995158910751343,0.10071869194507599,0.47355520725250244,0.14770309627056122,0.22713623940944672,0.1990533322095871,0.4952835738658905,-0.006246120668947697,0.9374743103981018,0.12366250902414322,0.5001234412193298,0.24492037296295166,0.10412029922008514,0.22724434733390808,0.5759315490722656,0.04759506508708,0.7227758169174194,0.12519170343875885,0.5101996660232544,0.2632860243320465,0.11463402956724167,0.23401889204978943,0.5945068001747131,0.024853873997926712,0.6470310091972351,0.13033798336982727,0.5071283578872681,0.2580392360687256,0.11306963860988617,0.23159313201904297,0.5939182043075562,0.024771515280008316,0.6217751502990723,0.13232573866844177,0.5044138431549072,0.24564047157764435,0.10585092753171921,0.2268076241016388,0.5874330401420593,0.04509802535176277,0.5492461919784546,0.08945749700069427,0.5715582966804504,0.04534764215350151,0.9972966909408569,0.1314258873462677,0.5828705430030823,-0.04544823244214058,0.9979104995727539,0.08479831367731094,0.6477088332176208,0.20921142399311066,0.6805803775787354,0.10976757854223251,0.6938077807426453,0.04565540701150894,0.7895944118499756,0.07446376979351044,0.7334178686141968,0.3731769919395447,0.8378981351852417,0.08519633114337921,0.8027870059013367,0.16336414217948914,0.9193831086158752,0.07179146260023117,0.7489367127418518,0.3889843821525574,0.9007078409194946,0.07544436305761337,0.8195466995239258,0.1754365861415863,0.9308108687400818,0.07721144706010818,0.7526767253875732,0.38484445214271545,0.7817773222923279,0.09558767080307007,0.8242136240005493,0.14027445018291473,0.8360352516174316
49,0.15709304809570312,0.3886145353317261,0.25268274545669556,0.9855126738548279,0.15430283546447754,0.37968355417251587,0.23718607425689697,0.9848307967185974,0.15144780278205872,0.3784940540790558,0.23717880249023438,0.9821302890777588,0.14888939261436462,0.37771809101104736,0.23714454472064972,0.9825893044471741,0.16109642386436462,0.3814252018928528,0.23258492350578308,0.9899557828903198,0.1632731854915619,0.38167279958724976,0.23258991539478302,0.9893252849578857,0.1655004322528839,0.3819023370742798,0.2324950397014618,0.991385281085968,0.14263348281383514,0.3792445957660675,0.16400155425071716,0.9835384488105774,0.1668723225593567,0.3849183917045593,0.14421281218528748,0.9915052056312561,0.1521858125925064,0.39463913440704346,0.22927574813365936,0.9831297993659973,0.15903261303901672,0.3968595564365387,0.2236064374446869,0.9874966740608215,0.10799713432788849,0.4220394790172577,0.13882163166999817,0.9964354634284973,0.18405550718307495,0.42985397577285767,0.0448191836476326,0.9995601177215576,0.0973353162407875,0.4949212074279785,0.17737507820129395,0.27670520544052124,0.21422751247882843,0.5004432797431946,0.020590074360370636,0.9436174631118774,0.11098434031009674,0.5253204703330994,0.26443034410476685,0.10522571206092834,0.2447977513074875,0.5811558365821838,0.062316037714481354,0.7480496168136597,0.1132638081908226,0.5318195819854736,0.28824543952941895,0.11182592064142227,0.25027525424957275,0.5943700075149536,0.0685393363237381,0.6761341094970703,0.12022186815738678,0.532325804233551,0.28914299607276917,0.1103353276848793,0.24883635342121124,0.5943195223808289,0.07864050567150116,0.6530185341835022,0.12138571590185165,0.5297614932060242,0.2682321071624756,0.10476555675268173,0.2442869395017624,0.5903795957565308,0.06891435384750366,0.5853824019432068,0.10101624578237534,0.5709217190742493,0.03922918438911438,0.9974656105041504,0.14431855082511902,0.5777789354324341,-0.03902491182088852,0.9980306625366211,0.08930238336324692,0.6573213934898376,0.10496239364147186,0.6764335036277771,0.11899106204509735,0.6915472745895386,0.007576127536594868,0.7895265817642212,0.08191687613725662,0.736980140209198,-0.08021445572376251,0.8319557309150696,0.08739008009433746,0.7899165749549866,-0.19811514019966125,0.9185169339179993,0.0818304568529129,0.7487651705741882,-0.10321570932865143,0.9021841287612915,0.07588279992341995,0.8058367371559143,-0.21988603472709656,0.9335122108459473,0.08119329810142517,0.7783020734786987,-0.12623563408851624,0.7861936092376709,0.08909939229488373,0.8296775221824646,-0.25695377588272095,0.8434513211250305
50,0.16170872747898102,0.38388791680336,0.1960841864347458,0.986419677734375,0.15938130021095276,0.37651166319847107,0.17638741433620453,0.9858536124229431,0.1569346934556961,0.37588536739349365,0.17637623846530914,0.9833813309669495,0.15403679013252258,0.37535080313682556,0.17633287608623505,0.9837805032730103,0.16630426049232483,0.3782889246940613,0.17303308844566345,0.9905343651771545,0.16868063807487488,0.3789439797401428,0.17303058505058289,0.9899964332580566,0.17114272713661194,0.3795563876628876,0.1729392111301422,0.9918931722640991,0.1493595689535141,0.3780258595943451,0.12029726803302765,0.9848676919937134,0.17396463453769684,0.38255974650382996,0.08422678709030151,0.9920763969421387,0.15757277607917786,0.3910507559776306,0.17218174040317535,0.9841338396072388,0.16423586010932922,0.39356574416160583,0.16810473799705505,0.9880794882774353,0.11642295122146606,0.4214267432689667,0.03204021230340004,0.9966742992401123,0.19312909245491028,0.43154799938201904,0.024865632876753807,0.9995493292808533,0.09425681829452515,0.4898611605167389,0.1133546456694603,0.3436916470527649,0.2205466479063034,0.49890217185020447,0.03386179730296135,0.9490610361099243,0.10338983684778214,0.5262002348899841,0.22539813816547394,0.10391062498092651,0.2423909455537796,0.576030433177948,0.09009499102830887,0.7594181299209595,0.10485253483057022,0.5358108282089233,0.2446448802947998,0.10622173547744751,0.2444051206111908,0.5936866402626038,0.10172382742166519,0.6813491582870483,0.10996152460575104,0.5346174836158752,0.24993351101875305,0.10466072708368301,0.24674856662750244,0.5924708247184753,0.10363873094320297,0.6584119200706482,0.11092942953109741,0.5311816334724426,0.23156467080116272,0.10039637237787247,0.2449735701084137,0.586445152759552,0.09401382505893707,0.5916482210159302,0.1072474867105484,0.5715345740318298,-0.02317962422966957,0.9975061416625977,0.1488218605518341,0.5783640146255493,0.023203257471323013,0.9978348016738892,0.09220962226390839,0.6775146722793579,0.008780831471085548,0.6819679737091064,0.12348270416259766,0.6904813647270203,0.07708001881837845,0.7506267428398132,0.08284404128789902,0.7767183780670166,0.005922071635723114,0.8118245601654053,0.09292107075452805,0.7861559987068176,0.0895584374666214,0.8665144443511963,0.08534242957830429,0.7941917181015015,0.002630659844726324,0.8954194784164429,0.08891231566667557,0.8029665350914001,0.09099642187356949,0.90657639503479,0.075644850730896,0.7961437702178955,-0.014541687443852425,0.7518953084945679,0.08851630985736847,0.8128533959388733,0.07764235883951187,0.7888792157173157
51,0.15902487933635712,0.3838607668876648,0.13020643591880798,0.9876262545585632,0.1560385823249817,0.37578317523002625,0.10624676942825317,0.9871516823768616,0.15347862243652344,0.37534603476524353,0.10626866668462753,0.9849012494087219,0.15073665976524353,0.3749985694885254,0.10617087781429291,0.98525470495224,0.163078173995018,0.37676191329956055,0.10992612689733505,0.991392195224762,0.1654038429260254,0.3770187497138977,0.10993635654449463,0.9909053444862366,0.16780374944210052,0.3772215247154236,0.10988680273294449,0.9926219582557678,0.14675620198249817,0.3782558739185333,0.02859286032617092,0.9862958788871765,0.1715141236782074,0.38005825877189636,0.04790721833705902,0.9928046464920044,0.15525490045547485,0.3909507393836975,0.10772880166769028,0.9854421019554138,0.16233623027801514,0.3925541341304779,0.11301791667938232,0.9890167713165283,0.11971800029277802,0.42476755380630493,0.0015377659583464265,0.9968671798706055,0.19602593779563904,0.4337258040904999,0.005697411019355059,0.9995559453964233,0.09359431266784668,0.4943434000015259,0.09280543029308319,0.40195029973983765,0.2242402732372284,0.49911293387413025,0.004783653654158115,0.9540740847587585,0.10456974804401398,0.5281992554664612,0.2332855463027954,0.09868481755256653,0.24609950184822083,0.5802159905433655,0.06304831802845001,0.7733768224716187,0.10646703094244003,0.5375789999961853,0.256536066532135,0.09887033700942993,0.2505156993865967,0.5976089239120483,0.07264788448810577,0.6902909874916077,0.11187185347080231,0.5354769825935364,0.2584710717201233,0.09731613099575043,0.24845130741596222,0.5976085662841797,0.0759081020951271,0.6676045060157776,0.11285455524921417,0.5322665572166443,0.23853528499603271,0.0940108522772789,0.2457723319530487,0.5908353328704834,0.06712783128023148,0.6013529896736145,0.11050564050674438,0.571841835975647,-0.015261858701705933,0.9972022175788879,0.15165594220161438,0.5783201456069946,0.015285030007362366,0.997163712978363,0.0970592275261879,0.6788164377212524,0.02041461691260338,0.6737769246101379,0.1265963762998581,0.6894159913063049,0.06313379108905792,0.7170847654342651,0.08232252299785614,0.7805482745170593,0.04265696555376053,0.7698802947998047,0.09354868531227112,0.7890836596488953,0.10301418602466583,0.8141199946403503,0.08433399349451065,0.7993824481964111,0.05551275610923767,0.8703213334083557,0.0892966240644455,0.8076929450035095,0.1078893393278122,0.8765317797660828,0.07323130965232849,0.7941684126853943,0.05345679074525833,0.6984547972679138,0.08963406085968018,0.8082084059715271,0.09702730178833008,0.7293959856033325
52,0.1843784749507904,0.38559815287590027,0.3100520372390747,0.9888019561767578,0.181142196059227,0.376526802778244,0.2959325611591339,0.9883706569671631,0.17851775884628296,0.37580636143684387,0.29591843485832214,0.9863519668579102,0.17593598365783691,0.37524792551994324,0.2959021031856537,0.9866628050804138,0.18877992033958435,0.37815162539482117,0.29327255487442017,0.992183268070221,0.19145211577415466,0.3785551190376282,0.2932712435722351,0.9917510747909546,0.1940605640411377,0.37888675928115845,0.29320698976516724,0.9932931661605835,0.17173796892166138,0.3781355023384094,0.22024409472942352,0.9876018762588501,0.19681337475776672,0.38196229934692383,0.20905883610248566,0.9934625625610352,0.18004779517650604,0.3924403488636017,0.2847406268119812,0.9867690205574036,0.18785232305526733,0.394243448972702,0.2812787890434265,0.989973247051239,0.14034993946552277,0.4264659583568573,0.17453089356422424,0.9971169829368591,0.2175993025302887,0.43777480721473694,0.10867323726415634,0.9995956420898438,0.10427504777908325,0.49579399824142456,0.1731061190366745,0.44755253195762634,0.23429706692695618,0.5120630860328674,0.08234398066997528,0.9578671455383301,0.10195068269968033,0.5430219769477844,0.22898587584495544,0.12833833694458008,0.24854421615600586,0.5946099758148193,0.14211204648017883,0.7856217622756958,0.09818580001592636,0.559268057346344,0.24491798877716064,0.12056935578584671,0.2509837746620178,0.6118217706680298,0.15225888788700104,0.7022730112075806,0.10689528286457062,0.5622801184654236,0.24559052288532257,0.11852635443210602,0.2460971623659134,0.6132356524467468,0.15846824645996094,0.6801629066467285,0.10935097932815552,0.5576369166374207,0.23131950199604034,0.11391870677471161,0.24391290545463562,0.6073323488235474,0.14743095636367798,0.6161267757415771,0.13312789797782898,0.5675979852676392,0.012546162120997906,0.9974340200424194,0.17401179671287537,0.5771761536598206,-0.012666493654251099,0.9974184036254883,0.12170495837926865,0.6723750233650208,0.062406025826931,0.6921859383583069,0.15310600399971008,0.6877878904342651,-0.07304053008556366,0.740303099155426,0.10686489194631577,0.7639182806015015,-0.07415850460529327,0.7780039310455322,0.11806120723485947,0.786293625831604,-0.2938852608203888,0.828355073928833,0.10431526601314545,0.7839707732200623,-0.09532072395086288,0.8772141337394714,0.10846233367919922,0.8048571348190308,-0.3188357353210449,0.8864471316337585,0.10502662509679794,0.7856744527816772,-0.1343194842338562,0.7059422731399536,0.121973417699337,0.814710795879364,-0.3823154866695404,0.7468623518943787
53,0.19727233052253723,0.38504263758659363,0.23128393292427063,0.9897412657737732,0.19459673762321472,0.3756793737411499,0.21348032355308533,0.9893409013748169,0.19200655817985535,0.37488481402397156,0.21345429122447968,0.9875547885894775,0.18946829438209534,0.37426692247390747,0.21341779828071594,0.987826943397522,0.20228548347949982,0.37785154581069946,0.2106008231639862,0.9927220940589905,0.2048773318529129,0.37849390506744385,0.21060550212860107,0.9923578500747681,0.2073330581188202,0.3790321946144104,0.21054789423942566,0.9937030076980591,0.18490758538246155,0.3773179054260254,0.13454903662204742,0.9886772632598877,0.2099241465330124,0.3826662003993988,0.12205936759710312,0.9939081072807312,0.1924225389957428,0.3916412591934204,0.2062205970287323,0.9878126978874207,0.2001665085554123,0.3940085172653198,0.20247146487236023,0.9905922412872314,0.15418671071529388,0.42305171489715576,0.10428234189748764,0.9973832368850708,0.22514095902442932,0.44368302822113037,0.040354326367378235,0.9996160268783569,0.12036838382482529,0.49195626378059387,0.10997007042169571,0.5008065104484558,0.24260325729846954,0.5192131996154785,0.044888101518154144,0.9613140225410461,0.10887236893177032,0.5444344878196716,0.14463719725608826,0.17469032108783722,0.2512391209602356,0.6025031805038452,0.0923546627163887,0.7820064425468445,0.0988314151763916,0.5592555403709412,0.15385013818740845,0.14951948821544647,0.2560087740421295,0.6209169030189514,0.10231783241033554,0.6904832720756531,0.10890760272741318,0.561543881893158,0.15408489108085632,0.14750492572784424,0.24900440871715546,0.6221233606338501,0.10641907155513763,0.6670577526092529,0.11044372618198395,0.5566982626914978,0.145577535033226,0.1403145045042038,0.246746227145195,0.6170830130577087,0.09713131934404373,0.6033571362495422,0.14628514647483826,0.5672823190689087,0.027962472289800644,0.997664213180542,0.1860383152961731,0.5766867399215698,-0.02804039977490902,0.9976216554641724,0.149688258767128,0.6710435748100281,0.017093513160943985,0.6942384839057922,0.1677229106426239,0.6873213052749634,-0.09497803449630737,0.7600070238113403,0.13268893957138062,0.7678092122077942,-0.0624312162399292,0.7820905447006226,0.11655750125646591,0.7738407850265503,-0.1828400045633316,0.8400147557258606,0.1307598054409027,0.7888953685760498,-0.07400144636631012,0.8779305815696716,0.10601609945297241,0.784194827079773,-0.19252356886863708,0.8917273283004761,0.1371004730463028,0.803180992603302,-0.12253499031066895,0.7111257314682007,0.11262334883213043,0.8121169805526733,-0.246058389544487,0.762275218963623
54,0.2247040569782257,0.3988528549671173,0.1578942984342575,0.9906550645828247,0.22269229590892792,0.3897518217563629,0.13697335124015808,0.9903128743171692,0.22028496861457825,0.3888888359069824,0.13696785271167755,0.9887155294418335,0.21766433119773865,0.38806062936782837,0.13694266974925995,0.9889561533927917,0.22885017096996307,0.39172083139419556,0.13006959855556488,0.9933455586433411,0.2307916134595871,0.39233726263046265,0.13003501296043396,0.9930213093757629,0.23260188102722168,0.3929084837436676,0.12998464703559875,0.994213342666626,0.21215231716632843,0.38979434967041016,0.0580245666205883,0.9897058010101318,0.23307843506336212,0.3960053324699402,0.028375739231705666,0.9944396018981934,0.2197256088256836,0.4048793911933899,0.13416600227355957,0.9888799786567688,0.22635135054588318,0.40689000487327576,0.12545588612556458,0.9913748502731323,0.17602668702602386,0.4349195063114166,0.05418779328465462,0.997619092464447,0.24233663082122803,0.4566706120967865,-0.05619224160909653,0.9996160268783569,0.1439208686351776,0.49384069442749023,0.07316787540912628,0.5480424761772156,0.25471895933151245,0.5298207998275757,-0.00442662974819541,0.9636527299880981,0.14480385184288025,0.5435920357704163,0.13232456147670746,0.17756438255310059,0.2528988718986511,0.5938419103622437,0.1261235773563385,0.7234950661659241,0.14418040215969086,0.5560041069984436,0.1442425549030304,0.14617890119552612,0.2548186779022217,0.616768479347229,0.14470085501670837,0.6346383094787598,0.14954175055027008,0.5581951141357422,0.14341382682323456,0.14372722804546356,0.25161343812942505,0.6082454323768616,0.1499587595462799,0.6134223341941833,0.1500018835067749,0.5539157390594482,0.13289698958396912,0.1364073008298874,0.24985742568969727,0.6035348773002625,0.13268984854221344,0.5559489727020264,0.168410986661911,0.576255202293396,0.05501232296228409,0.9978792071342468,0.20434632897377014,0.5857763290405273,-0.05522022768855095,0.9978172779083252,0.1680804342031479,0.6821640729904175,0.05222168564796448,0.7047433853149414,0.20931176841259003,0.6910015344619751,-0.04487268254160881,0.7825527191162109,0.14791014790534973,0.7708091735839844,0.0004298523999750614,0.794929563999176,0.1604871302843094,0.7599838972091675,-0.10846666246652603,0.8527514934539795,0.13726402819156647,0.7950540781021118,-0.004294659476727247,0.8816874027252197,0.1492280513048172,0.7664652466773987,-0.09898301213979721,0.8981602191925049,0.15106016397476196,0.7987620234489441,-0.025868859142065048,0.7185930609703064,0.16288897395133972,0.8038691878318787,-0.09365325421094894,0.7768844962120056
55,0.23997926712036133,0.4084916114807129,0.08206240832805634,0.9914073348045349,0.23807962238788605,0.3984214961528778,0.06056830286979675,0.9911467432975769,0.23569560050964355,0.39756569266319275,0.060569047927856445,0.9897003769874573,0.2331976443529129,0.3967994749546051,0.06050803139805794,0.9899059534072876,0.24412810802459717,0.40021079778671265,0.05773650482296944,0.9939021468162537,0.24603641033172607,0.4008069634437561,0.057766735553741455,0.9936007261276245,0.24779780209064484,0.40147164463996887,0.057737987488508224,0.9946527481079102,0.22761163115501404,0.39830270409584045,-0.01585913822054863,0.990590512752533,0.24847403168678284,0.404864102602005,-0.025464704260230064,0.9948689937591553,0.23475337028503418,0.41435250639915466,0.0600627064704895,0.98959881067276,0.241481751203537,0.41664573550224304,0.057370394468307495,0.9918423891067505,0.1879153549671173,0.44130799174308777,-0.0023888663854449987,0.9977368116378784,0.2554383873939514,0.4660108685493469,-0.09569281339645386,0.9995830655097961,0.15986867249011993,0.49725717306137085,0.06544606387615204,0.5850439667701721,0.258543461561203,0.5589333176612854,-0.0827150046825409,0.9660503268241882,0.16178448498249054,0.5418738126754761,0.137395977973938,0.16877882182598114,0.2629067599773407,0.6218364834785461,-0.008579468354582787,0.7064461708068848,0.16109329462051392,0.5535944104194641,0.17789168655872345,0.1377609372138977,0.2649044990539551,0.6410630345344543,0.00010980295337503776,0.6135470271110535,0.16715919971466064,0.5555757880210876,0.16464075446128845,0.1353084295988083,0.2633860409259796,0.6399379968643188,0.006477098912000656,0.5931470394134521,0.168447345495224,0.5519595742225647,0.13801775872707367,0.1287253499031067,0.26101890206336975,0.6329174637794495,-0.003227547975257039,0.5356079339981079,0.1787412464618683,0.5860536098480225,0.04875391721725464,0.9980512261390686,0.21619446575641632,0.5993728637695312,-0.04899455979466438,0.9979555606842041,0.1773202270269394,0.6805098056793213,0.12877558171749115,0.7039288282394409,0.22808904945850372,0.6929078698158264,0.03662166744470596,0.79763263463974,0.15681540966033936,0.7666953206062317,0.10016675293445587,0.8034608364105225,0.18778161704540253,0.7560120820999146,0.014114992693066597,0.8624316453933716,0.1494295597076416,0.7875398993492126,0.09771151840686798,0.8836639523506165,0.17726477980613708,0.7617501020431519,0.01536927092820406,0.9031330347061157,0.16490215063095093,0.7912864089012146,0.0929386168718338,0.7252036333084106,0.19221507012844086,0.7874196171760559,0.02503989264369011,0.7886298894882202
56,0.23790928721427917,0.4153198301792145,0.05093533918261528,0.9921411871910095,0.23692123591899872,0.4057241380214691,0.03242906928062439,0.9919288158416748,0.2347133606672287,0.4045065939426422,0.03241944685578346,0.9906015396118164,0.23249927163124084,0.40341916680336,0.032342419028282166,0.9907892346382141,0.24257853627204895,0.40790483355522156,0.02944912388920784,0.9944392442703247,0.24454781413078308,0.4084825813770294,0.02950551174581051,0.9941550493240356,0.2463071346282959,0.4089661240577698,0.029477182775735855,0.9950986504554749,0.22568576037883759,0.4044904112815857,-0.030774373561143875,0.9914190173149109,0.24594394862651825,0.4122958183288574,-0.04203558340668678,0.9952941536903381,0.23229679465293884,0.4206499755382538,0.03363700583577156,0.9902785420417786,0.23846766352653503,0.42347192764282227,0.030478784814476967,0.9923040866851807,0.18476347625255585,0.44566214084625244,-0.006847043987363577,0.9978111386299133,0.2554665207862854,0.46949344873428345,-0.10915683209896088,0.9995949268341064,0.16094103455543518,0.5087628960609436,0.07524420320987701,0.6013990044593811,0.26044419407844543,0.5641911625862122,-0.11756367981433868,0.9686391353607178,0.17164072394371033,0.5434278249740601,0.17843666672706604,0.15647372603416443,0.26541927456855774,0.6390907764434814,-0.07818657159805298,0.723515510559082,0.1724475473165512,0.5528430938720703,0.21040229499340057,0.12772426009178162,0.2681361436843872,0.6599456071853638,-0.0756559818983078,0.6315528750419617,0.1789214015007019,0.5538092255592346,0.20103546977043152,0.1254555583000183,0.266654908657074,0.660430371761322,-0.06983204185962677,0.6117466688156128,0.18012204766273499,0.5509561896324158,0.1795334666967392,0.12009571492671967,0.2633821964263916,0.6532569527626038,-0.07424405962228775,0.5521539449691772,0.17785319685935974,0.5879934430122375,0.04527643322944641,0.9981909990310669,0.21775881946086884,0.6035534739494324,-0.04547889530658722,0.9980232119560242,0.178568497300148,0.6830869913101196,0.13184091448783875,0.7021394371986389,0.2297777682542801,0.6914522647857666,0.04721632972359657,0.7981561422348022,0.1582469642162323,0.7729653120040894,0.11624805629253387,0.8066450357437134,0.18597964942455292,0.7528821229934692,0.04031949117779732,0.8657786846160889,0.14951889216899872,0.7855857014656067,0.11431311070919037,0.8804777264595032,0.1746407151222229,0.7596124410629272,0.04145071655511856,0.8995146155357361,0.1694391369819641,0.7946687936782837,0.10895230621099472,0.7313693165779114,0.19179745018482208,0.7819870710372925,0.04633375257253647,0.7963920831680298
57,0.27305296063423157,0.43547821044921875,0.13182733952999115,0.9926467537879944,0.2720484137535095,0.4270603060722351,0.11536948382854462,0.9925994277000427,0.269747257232666,0.42513173818588257,0.11537797749042511,0.9914153814315796,0.2676594853401184,0.4233531653881073,0.11535658687353134,0.9915743470191956,0.27643299102783203,0.43014296889305115,0.1087290421128273,0.9948685169219971,0.27757924795150757,0.4306206703186035,0.10869742929935455,0.9946287274360657,0.27823594212532043,0.4308736026287079,0.10853757709264755,0.9954690933227539,0.2621668577194214,0.42638999223709106,0.0590825192630291,0.9921586513519287,0.2768220603466034,0.43191826343536377,0.03132207319140434,0.9956653118133545,0.26607024669647217,0.4400871992111206,0.11745081096887589,0.9910085201263428,0.27103158831596375,0.4432721436023712,0.10824165493249893,0.9928517937660217,0.22108194231987,0.45284268260002136,0.04035376012325287,0.9978623390197754,0.27467310428619385,0.47527816891670227,-0.009068669751286507,0.9995867013931274,0.1951267272233963,0.5118401050567627,0.12492384016513824,0.5935025811195374,0.2708737254142761,0.5490864515304565,0.055810797959566116,0.9231258034706116,0.20825009047985077,0.5420688986778259,0.242923304438591,0.1422753632068634,0.2632790803909302,0.5762332677841187,0.19056221842765808,0.6560271978378296,0.2095743864774704,0.5508851408958435,0.257582426071167,0.11624380946159363,0.2619367241859436,0.5830910205841064,0.21207351982593536,0.5728396773338318,0.21414008736610413,0.5525897145271301,0.25670716166496277,0.11413603276014328,0.26120397448539734,0.5798685550689697,0.21239261329174042,0.5549817085266113,0.21469740569591522,0.5488484501838684,0.24572539329528809,0.10949286073446274,0.2603006958961487,0.575611412525177,0.1960558146238327,0.5017737150192261,0.20609088242053986,0.5902692079544067,0.027188297361135483,0.9983493089675903,0.24727380275726318,0.5972680449485779,-0.027325406670570374,0.998138964176178,0.18194471299648285,0.6880044937133789,0.0122752133756876,0.7318339347839355,0.29053664207458496,0.6434323787689209,0.0871308445930481,0.8133469223976135,0.15592624247074127,0.7863225340843201,0.01415984146296978,0.8243764638900757,0.3085724115371704,0.6853703260421753,0.15887853503227234,0.8542590141296387,0.15133488178253174,0.8056851625442505,0.018443578854203224,0.8913885951042175,0.30351492762565613,0.6982154846191406,0.1696963906288147,0.8918396830558777,0.15307441353797913,0.7952924370765686,0.019002120941877365,0.7215657830238342,0.3315720856189728,0.6840711236000061,0.19501207768917084,0.7406457662582397
58,0.2924460172653198,0.4501338303089142,0.12977181375026703,0.9932606220245361,0.29102540016174316,0.4399062991142273,0.11424882709980011,0.9932651519775391,0.2888762950897217,0.4380023777484894,0.11424659192562103,0.9922040104866028,0.286652535200119,0.43601322174072266,0.11423162370920181,0.9923456907272339,0.2958035171031952,0.4427967965602875,0.10666189342737198,0.9953123331069946,0.2967885136604309,0.4429326355457306,0.10665985196828842,0.9950931668281555,0.2976890802383423,0.4429796636104584,0.10653980821371078,0.9958483576774597,0.28112369775772095,0.43269917368888855,0.057953596115112305,0.992875874042511,0.29663485288619995,0.4426083564758301,0.024130523204803467,0.996038019657135,0.28580936789512634,0.453203022480011,0.11436287313699722,0.9917532205581665,0.290916383266449,0.45572027564048767,0.10395731031894684,0.9934208989143372,0.2316771000623703,0.4583626687526703,0.044650476425886154,0.9980255365371704,0.2913687825202942,0.47991082072257996,-0.028359130024909973,0.9996104836463928,0.20001120865345,0.5182104706764221,0.09303943812847137,0.6087575554847717,0.29433372616767883,0.5543875098228455,0.008223514072597027,0.925154983997345,0.2192472219467163,0.5531830191612244,0.14354412257671356,0.1317927986383438,0.29910585284233093,0.5934051871299744,0.12714724242687225,0.6118780374526978,0.22333018481731415,0.5623489618301392,0.15015290677547455,0.10750842094421387,0.2999466061592102,0.5946107506752014,0.14359033107757568,0.5312401652336121,0.2288055717945099,0.562265157699585,0.1490991711616516,0.10545061528682709,0.3019220232963562,0.5821765065193176,0.14800423383712769,0.5152086019515991,0.2278025895357132,0.559153139591217,0.1443994790315628,0.10143033415079117,0.3000470697879791,0.5770224332809448,0.13402557373046875,0.46702441573143005,0.21591727435588837,0.6025025844573975,0.03172730654478073,0.998461902141571,0.2534591555595398,0.6040247082710266,-0.03187602013349533,0.9982366561889648,0.18830494582653046,0.6934419274330139,0.03686663508415222,0.758279025554657,0.31097114086151123,0.6481374502182007,0.05382419750094414,0.8284511566162109,0.15720506012439728,0.7876229882240295,0.03379485383629799,0.8388388156890869,0.29164764285087585,0.7221338152885437,0.12221161276102066,0.8563905954360962,0.15408700704574585,0.8051811456680298,0.042156122624874115,0.8993625640869141,0.281799852848053,0.7307416796684265,0.13229981064796448,0.8891147971153259,0.15064184367656708,0.7950150370597839,0.0444982573390007,0.7166249752044678,0.3044116199016571,0.7432591915130615,0.16056910157203674,0.7226915955543518
59,0.3292578458786011,0.47893205285072327,-0.3130505681037903,0.9933636784553528,0.3304659128189087,0.46937820315361023,-0.31262680888175964,0.9927985668182373,0.33046844601631165,0.46791303157806396,-0.3126518130302429,0.9916931390762329,0.3318765461444855,0.459227055311203,-0.3126767873764038,0.9919121861457825,0.3292750418186188,0.4717051386833191,-0.3278156816959381,0.9951444268226624,0.3283126950263977,0.4717419445514679,-0.3279236853122711,0.9947953224182129,0.327409565448761,0.47176095843315125,-0.3280717432498932,0.9955376982688904,0.3271263539791107,0.4545680582523346,-0.25895795226097107,0.991780698299408,0.3199753165245056,0.46886366605758667,-0.3273252844810486,0.995668888092041,0.3244476318359375,0.4817233085632324,-0.286141961812973,0.9915485382080078,0.3230871558189392,0.48371806740760803,-0.30622202157974243,0.9933008551597595,0.2918505370616913,0.4741589426994324,-0.14956657588481903,0.9979945421218872,0.3004413843154907,0.4991055428981781,-0.2879294753074646,0.9996383786201477,0.24900087714195251,0.5221864581108093,-0.06987439841032028,0.5769492387771606,0.2943139970302582,0.5675280690193176,-0.27621960639953613,0.9295061826705933,0.24564579129219055,0.5588973164558411,-0.07378140836954117,0.12742657959461212,0.30769792199134827,0.6213818192481995,-0.2625831067562103,0.6405380964279175,0.24224853515625,0.5706408619880676,-0.08026104420423508,0.1061483696103096,0.3108730912208557,0.6401527523994446,-0.28065377473831177,0.5656120777130127,0.2487635612487793,0.569616436958313,-0.10126284509897232,0.10445813834667206,0.3139479458332062,0.6344801187515259,-0.29190438985824585,0.5504805445671082,0.25012144446372986,0.5654045939445496,-0.08229775726795197,0.10064519941806793,0.31112006306648254,0.6261953711509705,-0.2658073306083679,0.5011981725692749,0.2731594741344452,0.5956180095672607,0.03997232764959335,0.9983029365539551,0.25836998224258423,0.6013110280036926,-0.03988289460539818,0.99831223487854,0.3070772886276245,0.6796296238899231,0.01357252337038517,0.7753990292549133,0.2614873945713043,0.6746410727500916,0.003860789816826582,0.8418263792991638,0.3174853026866913,0.757742702960968,0.10642524063587189,0.8514729142189026,0.1828203797340393,0.7676684260368347,0.09943928569555283,0.8688731789588928,0.3110629916191101,0.7718738913536072,0.11288414150476456,0.9014644026756287,0.17378856241703033,0.7795141935348511,0.10462073981761932,0.8851079940795898,0.34498992562294006,0.7805104851722717,0.049300916492938995,0.7409875988960266,0.1754065454006195,0.7886571884155273,0.06773330271244049,0.7458530068397522
60,0.35800114274024963,0.49439737200737,0.1865541934967041,0.9843276739120483,0.35747644305229187,0.48463869094848633,0.18027512729167938,0.9875905513763428,0.3558160364627838,0.4826522767543793,0.18024861812591553,0.9870643615722656,0.35414618253707886,0.48019275069236755,0.18028967082500458,0.9847748279571533,0.3602607548236847,0.4881114661693573,0.16631770133972168,0.9897602796554565,0.36050114035606384,0.4883439838886261,0.16627860069274902,0.9900883436203003,0.3608070909976959,0.4886079430580139,0.16614437103271484,0.9905747175216675,0.34490102529525757,0.47267571091651917,0.1479208618402481,0.9875203371047974,0.3535623550415039,0.48409566283226013,0.08458579331636429,0.9928925037384033,0.35070398449897766,0.4933946430683136,0.17839840054512024,0.9869913458824158,0.3530350923538208,0.496505469083786,0.15967945754528046,0.9903790950775146,0.29053860902786255,0.47664445638656616,0.10698726028203964,0.9981203675270081,0.346149742603302,0.5054393410682678,0.032714031636714935,0.9996411204338074,0.23825958371162415,0.5163658261299133,0.09186090528964996,0.617313027381897,0.3385220170021057,0.5606607794761658,0.07195905596017838,0.8981462121009827,0.22510890662670135,0.5377172231674194,0.022126615047454834,0.1636980026960373,0.33833739161491394,0.5712209343910217,0.2319166362285614,0.5833037495613098,0.22017395496368408,0.5414420962333679,0.09401525557041168,0.12698741257190704,0.33720213174819946,0.5730425715446472,0.25528088212013245,0.5140884518623352,0.2226828634738922,0.5365250706672668,0.003318601753562689,0.12350711971521378,0.3375394344329834,0.567679762840271,0.2659701406955719,0.5001885890960693,0.22533071041107178,0.535380482673645,-0.07889606058597565,0.11456672102212906,0.33754879236221313,0.5649880170822144,0.24211546778678894,0.4569034278392792,0.26065218448638916,0.6065873503684998,0.04012414067983627,0.9984431862831116,0.3013753890991211,0.6114311218261719,-0.040194880217313766,0.9984433650970459,0.2229110300540924,0.6898062229156494,0.031527820974588394,0.7978237271308899,0.3675215542316437,0.6893218755722046,0.008293107151985168,0.8573490381240845,0.2673838138580322,0.7715891599655151,0.07631660252809525,0.8661642670631409,0.4163402020931244,0.7700015306472778,0.07505828142166138,0.8815814256668091,0.2505658268928528,0.7856258153915405,0.07744263857603073,0.9111368656158447,0.41565585136413574,0.78453528881073,0.08227377384901047,0.8960395455360413,0.20441901683807373,0.7917084097862244,0.053797610104084015,0.760650634765625,0.4485901892185211,0.7883802652359009,0.07731711864471436,0.7647277116775513
61,0.3586033880710602,0.47726044058799744,0.20660236477851868,0.984439492225647,0.3592749834060669,0.4677886664867401,0.1891980767250061,0.9878941178321838,0.3576144576072693,0.4662085771560669,0.18912145495414734,0.9873380064964294,0.3559102416038513,0.46456703543663025,0.18908438086509705,0.9851803779602051,0.3637676537036896,0.47123652696609497,0.18797151744365692,0.9901339411735535,0.365194171667099,0.47198012471199036,0.18800298869609833,0.9904490113258362,0.36668041348457336,0.47275131940841675,0.18790072202682495,0.9909476637840271,0.35183340311050415,0.46304991841316223,0.11927828937768936,0.9881142973899841,0.3661878705024719,0.4740435481071472,0.11322230100631714,0.9931831955909729,0.3530200123786926,0.4797045886516571,0.18491724133491516,0.986802339553833,0.3573751747608185,0.48311755061149597,0.1829952895641327,0.9903037548065186,0.3071914315223694,0.4655178189277649,0.0782749205827713,0.998267412185669,0.36969101428985596,0.5104696750640869,0.056411951780319214,0.9996712803840637,0.2605259418487549,0.4800594449043274,0.07295362651348114,0.6527392864227295,0.39212262630462646,0.5679675340652466,0.03859138488769531,0.9080178737640381,0.22564513981342316,0.4620666801929474,0.056476496160030365,0.24089273810386658,0.4236120283603668,0.6534221172332764,0.11057212203741074,0.6215204000473022,0.21373426914215088,0.46735236048698425,0.0455181710422039,0.20420321822166443,0.4380101263523102,0.6713569164276123,0.07428253442049026,0.5549356937408447,0.21718589961528778,0.464573472738266,0.05012093856930733,0.2006685435771942,0.4416029453277588,0.6711059212684631,0.0919247567653656,0.541849672794342,0.22024822235107422,0.4649805724620819,0.05449127405881882,0.18389423191547394,0.43607592582702637,0.6675947904586792,0.12050993740558624,0.499443918466568,0.2779237926006317,0.6130157113075256,0.01036191824823618,0.9985924363136292,0.31475064158439636,0.6128109097480774,-0.010594939813017845,0.9985748529434204,0.22264686226844788,0.6909431219100952,-0.017338166013360023,0.8179539442062378,0.36880406737327576,0.6784135103225708,0.10946353524923325,0.8680546879768372,0.22092929482460022,0.7724147439002991,0.0017407300183549523,0.8792513012886047,0.4172378480434418,0.7429497241973877,0.20632584393024445,0.8898113369941711,0.21849019825458527,0.7854897379875183,0.005495442543178797,0.9198424816131592,0.4226294159889221,0.7597148418426514,0.21730050444602966,0.903901994228363,0.15465344488620758,0.7863529920578003,-0.03367536514997482,0.7773687243461609,0.4522759020328522,0.7562735676765442,0.21124064922332764,0.7541828155517578
62,0.3685726821422577,0.47500482201576233,0.12528619170188904,0.9859569072723389,0.3712533414363861,0.4684375524520874,0.11813251674175262,0.9890755414962769,0.370487242937088,0.46723809838294983,0.11807076632976532,0.9885611534118652,0.3696388006210327,0.4660574793815613,0.11824778467416763,0.9866337180137634,0.37349265813827515,0.4711737036705017,0.12832418084144592,0.9910984039306641,0.37427791953086853,0.4718509614467621,0.12822172045707703,0.9913697242736816,0.3751015067100525,0.47256994247436523,0.1280636042356491,0.9918341636657715,0.3671022057533264,0.46546295285224915,0.0766495019197464,0.9892591834068298,0.3743986487388611,0.4739755690097809,0.05617322400212288,0.9938412308692932,0.36391979455947876,0.47785696387290955,0.12417606264352798,0.988090455532074,0.3664601147174835,0.4806002676486969,0.14267806708812714,0.9912468194961548,0.3291853368282318,0.4761813282966614,0.0592917874455452,0.9984269738197327,0.36036890745162964,0.5047577023506165,0.017987018451094627,0.9997013807296753,0.29516664147377014,0.4857599139213562,0.028133098036050797,0.6810747385025024,0.3384801745414734,0.5433153510093689,0.003452954813838005,0.9158769845962524,0.25980451703071594,0.4880248010158539,-0.052209388464689255,0.3044925928115845,0.3389964699745178,0.592198371887207,-0.015543274581432343,0.6545675992965698,0.24959397315979004,0.4978286027908325,-0.07286503911018372,0.26471102237701416,0.3497747778892517,0.6051720380783081,-0.0318230465054512,0.5902255773544312,0.24946507811546326,0.5025959610939026,-0.07456133514642715,0.260824978351593,0.3491780459880829,0.6028409600257874,-0.03819888457655907,0.5787362456321716,0.25403690338134766,0.5005342960357666,-0.05503638833761215,0.23915384709835052,0.3434057831764221,0.5996934175491333,-0.018591400235891342,0.5378897786140442,0.2823328673839569,0.6072443723678589,0.027858540415763855,0.9986730813980103,0.30019819736480713,0.6099399924278259,-0.027859071269631386,0.9986575245857239,0.22833681106567383,0.6918311715126038,0.00520026870071888,0.8334660530090332,0.34737008810043335,0.6798647046089172,0.011753694154322147,0.877966582775116,0.1945142149925232,0.77218097448349,0.011015055701136589,0.889568030834198,0.3735484182834625,0.7654588222503662,0.06867820769548416,0.8981423377990723,0.18178826570510864,0.7765042781829834,0.01085955835878849,0.9267350435256958,0.37138548493385315,0.7829854488372803,0.0700322836637497,0.9092592597007751,0.164839506149292,0.7828391790390015,-0.03487149253487587,0.7928957343101501,0.4005058705806732,0.7765055894851685,0.025375446304678917,0.7692238092422485
63,0.41291218996047974,0.489068865776062,0.16723254323005676,0.9870462417602539,0.41218504309654236,0.4797509014606476,0.15305599570274353,0.990009069442749,0.41145119071006775,0.4782966673374176,0.15296021103858948,0.9895486235618591,0.41060781478881836,0.4767109751701355,0.1529543697834015,0.9878258109092712,0.41669631004333496,0.4855074882507324,0.14974910020828247,0.9918628334999084,0.4172387719154358,0.486623078584671,0.14973023533821106,0.992108166217804,0.41751590371131897,0.4874821901321411,0.14961977303028107,0.9925549030303955,0.4057484567165375,0.4744667708873749,0.09650814533233643,0.9901596307754517,0.4157712459564209,0.4908542335033417,0.07555478811264038,0.9943470358848572,0.40623003244400024,0.4893161356449127,0.15040306746959686,0.9887479543685913,0.4071986675262451,0.4946959614753723,0.14596447348594666,0.9917405843734741,0.3567448854446411,0.48505744338035583,0.06951053440570831,0.9984514713287354,0.4021119177341461,0.536585807800293,0.020579883828759193,0.9997162818908691,0.3089597821235657,0.46071046590805054,0.05072847008705139,0.711642324924469,0.4336715340614319,0.57499760389328,0.006837376859039068,0.9240739345550537,0.27649977803230286,0.43003660440444946,0.047099173069000244,0.3719828128814697,0.4817735254764557,0.6241799592971802,0.016724342480301857,0.6850783824920654,0.26694411039352417,0.4188518524169922,0.038837116211652756,0.3347240388393402,0.49277299642562866,0.6416469812393188,0.008827751502394676,0.6216508150100708,0.26855629682540894,0.41850394010543823,0.039305005222558975,0.33107879757881165,0.4995191991329193,0.6348982453346252,0.014314418658614159,0.6110478639602661,0.2717764377593994,0.4229792654514313,0.04727478697896004,0.30814141035079956,0.4940659999847412,0.6270301938056946,0.01824135333299637,0.5703914761543274,0.31201043725013733,0.6160988211631775,0.028471961617469788,0.9987491965293884,0.34494760632514954,0.6192886829376221,-0.028508508577942848,0.9987391233444214,0.24587197601795197,0.6897013783454895,0.021549925208091736,0.8497794270515442,0.402052640914917,0.6821063160896301,0.03144524618983269,0.8892244696617126,0.18854306638240814,0.7491544485092163,0.05684703588485718,0.8998708724975586,0.4346340298652649,0.76630699634552,0.09214527159929276,0.9072738289833069,0.1803266555070877,0.7587470412254333,0.06240112707018852,0.9336841106414795,0.43546876311302185,0.7838811874389648,0.09814359247684479,0.9174454212188721,0.16686788201332092,0.7533740997314453,0.029696807265281677,0.807981014251709,0.4806007742881775,0.7854483723640442,0.08324792236089706,0.784992516040802
64,0.45452970266342163,0.4978647530078888,0.255104124546051,0.9881700873374939,0.45687445998191833,0.491364061832428,0.24184629321098328,0.9908913373947144,0.4561079144477844,0.49065378308296204,0.2417851686477661,0.9904797077178955,0.45528048276901245,0.4897848963737488,0.2418086975812912,0.9889253973960876,0.46020326018333435,0.49514034390449524,0.23535248637199402,0.9925969243049622,0.4604712426662445,0.49574345350265503,0.23531746864318848,0.9928176403045654,0.4606822431087494,0.49617835879325867,0.23520727455615997,0.9932377338409424,0.44995036721229553,0.48757046461105347,0.18061292171478271,0.9910005927085876,0.4577532708644867,0.49702003598213196,0.15108972787857056,0.9948443174362183,0.44961896538734436,0.5001495480537415,0.23508253693580627,0.9895411729812622,0.4511656165122986,0.50260329246521,0.22649195790290833,0.9923640489578247,0.40161556005477905,0.4838791489601135,0.15296265482902527,0.9984760880470276,0.45058315992355347,0.5280982851982117,0.066208615899086,0.999739408493042,0.359195351600647,0.45126578211784363,0.1272638589143753,0.7392107248306274,0.4705575406551361,0.5706878304481506,0.04451905936002731,0.9313231706619263,0.3288235366344452,0.41928812861442566,0.08715134859085083,0.43313783407211304,0.5208157896995544,0.61184161901474,0.05439426749944687,0.7137048244476318,0.3157404065132141,0.41257965564727783,0.05106271058320999,0.398359090089798,0.5331340432167053,0.6218544840812683,0.03378501534461975,0.6532114744186401,0.3157758116722107,0.4124457538127899,0.039933495223522186,0.39489099383354187,0.5384563207626343,0.6122045516967773,0.053390342742204666,0.6432408690452576,0.3203851878643036,0.416522353887558,0.08449490368366241,0.37166184186935425,0.533105731010437,0.606210470199585,0.0619649700820446,0.6040271520614624,0.34965306520462036,0.6124388575553894,0.05473392456769943,0.9988540410995483,0.38067662715911865,0.6195831298828125,-0.054786115884780884,0.9988507032394409,0.29088297486305237,0.6887296438217163,0.05199524760246277,0.8641971945762634,0.4438038766384125,0.6753740310668945,-0.00766100874170661,0.9000509977340698,0.22204697132110596,0.7366558313369751,0.08116474002599716,0.9092286229133606,0.4822446405887604,0.7714194059371948,0.014741368591785431,0.9162737131118774,0.21077385544776917,0.7321285605430603,0.08480875194072723,0.9399802684783936,0.47770610451698303,0.792733907699585,0.01647133007645607,0.9253312945365906,0.2029266059398651,0.7368733882904053,0.055661410093307495,0.8241460919380188,0.5194036364555359,0.7855489253997803,-0.00844413973391056,0.8047380447387695
65,0.48329171538352966,0.5030189752578735,0.12226124107837677,0.9893196225166321,0.4859960079193115,0.49432119727134705,0.11126977205276489,0.9917780160903931,0.48486095666885376,0.49263447523117065,0.11117496341466904,0.9914073944091797,0.48366379737854004,0.49093884229660034,0.11120263487100601,0.9900107383728027,0.48854774236679077,0.49837401509284973,0.10130556672811508,0.9933228492736816,0.4889964461326599,0.4992283284664154,0.10128146409988403,0.9935227036476135,0.4894724488258362,0.5001236796379089,0.10119123756885529,0.9939035177230835,0.47630470991134644,0.4876655638217926,0.07599164545536041,0.9918774366378784,0.48407894372940063,0.5004302859306335,0.02855425700545311,0.9953503012657166,0.4756670594215393,0.5053215622901917,0.11225299537181854,0.9905374050140381,0.47764521837234497,0.5086914300918579,0.09866001456975937,0.993091881275177,0.41991153359413147,0.4848112165927887,0.12912891805171967,0.9986077547073364,0.4669276177883148,0.5427471399307251,-0.0416119359433651,0.9997641444206238,0.38287216424942017,0.4507121443748474,0.11566130816936493,0.7645025253295898,0.4901221692562103,0.6073349714279175,-0.04335443675518036,0.9380903244018555,0.3447352945804596,0.42110636830329895,0.1412542164325714,0.4882705509662628,0.5372102856636047,0.6834912896156311,0.004794876091182232,0.7405232787132263,0.3336017429828644,0.41231563687324524,0.13704845309257507,0.45557931065559387,0.5387818217277527,0.6937057971954346,-0.011289123445749283,0.6837531328201294,0.334343820810318,0.4108106195926666,0.1319412887096405,0.4522782266139984,0.547315776348114,0.688525915145874,-0.002398527693003416,0.6746890544891357,0.3380866050720215,0.41557735204696655,0.14167296886444092,0.42858952283859253,0.543207585811615,0.6796025633811951,0.010972043499350548,0.6371470093727112,0.36291733384132385,0.6096476912498474,0.06394654512405396,0.9989609718322754,0.3917079269886017,0.6175417304039001,-0.06418479233980179,0.9989592432975769,0.3048188090324402,0.6797966361045837,0.09469922631978989,0.8768483400344849,0.45403021574020386,0.6733434796333313,-0.00731749227270484,0.9092844724655151,0.24313387274742126,0.7319437265396118,0.1591280847787857,0.9172215461730957,0.4549664556980133,0.7702174782752991,0.1009969487786293,0.9238753318786621,0.22724828124046326,0.7346542477607727,0.1667873114347458,0.9455274343490601,0.45076555013656616,0.7904022336006165,0.10958127677440643,0.9319319128990173,0.22756333649158478,0.7395774126052856,0.14986827969551086,0.8368818163871765,0.4851546883583069,0.7897492051124573,0.10851132869720459,0.820370078086853
66,0.4869440197944641,0.495740681886673,0.3237524628639221,0.9902154803276062,0.488712877035141,0.48826083540916443,0.30762046575546265,0.9925200343132019,0.48699918389320374,0.48599717020988464,0.3075491786003113,0.9921694993972778,0.48522505164146423,0.4837302565574646,0.3074973523616791,0.9909303188323975,0.4931674599647522,0.49450647830963135,0.3082849383354187,0.993916392326355,0.49454036355018616,0.4964926838874817,0.3083264231681824,0.9940811991691589,0.49593931436538696,0.49857282638549805,0.30829355120658875,0.9944472908973694,0.4786941111087799,0.4827880561351776,0.22599121928215027,0.992625892162323,0.49342265725135803,0.5034224987030029,0.2288701832294464,0.9957337975502014,0.4792971611022949,0.49656057357788086,0.2954382300376892,0.9912859201431274,0.48352736234664917,0.5024163126945496,0.29600685834884644,0.993614137172699,0.43118247389793396,0.48071298003196716,0.15217554569244385,0.9987287521362305,0.48262137174606323,0.5453261733055115,0.15857188403606415,0.9997768998146057,0.3841053247451782,0.4456118941307068,0.12647637724876404,0.7874482274055481,0.49941134452819824,0.6095724701881409,0.12166883051395416,0.9437313079833984,0.3471498191356659,0.42958134412765503,0.12176571786403656,0.5372161865234375,0.5323423147201538,0.6964870095252991,0.10117506980895996,0.7632219791412354,0.33543094992637634,0.42269033193588257,0.13514406979084015,0.5051321387290955,0.5412957668304443,0.7144120931625366,0.08635914325714111,0.7083112001419067,0.33769655227661133,0.4233459532260895,0.11214710772037506,0.5018882155418396,0.5465908646583557,0.7111485600471497,0.09340675175189972,0.6998764276504517,0.34279459714889526,0.4282122254371643,0.12403331696987152,0.4764549434185028,0.5408303141593933,0.7043949961662292,0.10422376543283463,0.662743866443634,0.37359127402305603,0.6034497022628784,-0.0038775824941694736,0.999057412147522,0.4139872193336487,0.6155369877815247,0.0038185943849384785,0.9990277290344238,0.3193507790565491,0.6764165163040161,-0.022656526416540146,0.8889046311378479,0.45971250534057617,0.6738109588623047,0.10443224757909775,0.9080719351768494,0.2513725757598877,0.740693986415863,-0.011573279276490211,0.9250209927558899,0.45934349298477173,0.7714189291000366,0.18942593038082123,0.9245333075523376,0.24086077511310577,0.744454562664032,-0.011425770819187164,0.9505233764648438,0.45390525460243225,0.7897294759750366,0.19767561554908752,0.9335766434669495,0.22950641810894012,0.7476442456245422,-0.05914591997861862,0.8483512997627258,0.4677886366844177,0.7896555066108704,0.18825070559978485,0.8161422610282898
67,0.4947836399078369,0.4928111433982849,0.311271607875824,0.9883795976638794,0.49765029549598694,0.48640209436416626,0.2984318137168884,0.9917547702789307,0.49603334069252014,0.48445144295692444,0.2983641028404236,0.9909961223602295,0.4943714737892151,0.4825071394443512,0.29832619428634644,0.9901847243309021,0.5021456480026245,0.49148866534233093,0.297458291053772,0.9931967854499817,0.5036531090736389,0.49301424622535706,0.29749053716659546,0.9930040240287781,0.5051974058151245,0.4946088194847107,0.29741233587265015,0.9937410354614258,0.4887741506099701,0.4815177917480469,0.2301880419254303,0.9921460747718811,0.503753662109375,0.49842455983161926,0.22560659050941467,0.9946719408035278,0.4872146546840668,0.4937167465686798,0.2882702946662903,0.9898895025253296,0.49167853593826294,0.49850407242774963,0.2867756485939026,0.9921783208847046,0.440089613199234,0.4802495241165161,0.1682276874780655,0.9987619519233704,0.4924622178077698,0.5323681235313416,0.15161725878715515,0.9997779130935669,0.38848069310188293,0.4499884247779846,0.13396836817264557,0.8050780892372131,0.4928891062736511,0.5953041315078735,0.09442852437496185,0.9442142844200134,0.3487400710582733,0.43195104598999023,0.11386741697788239,0.5797212719917297,0.5081290006637573,0.6664174199104309,0.08507489413022995,0.7681621313095093,0.33491259813308716,0.4234265387058258,0.10508120059967041,0.5485865473747253,0.5112305879592896,0.6843999624252319,0.05074074864387512,0.7105880975723267,0.33959266543388367,0.4255034029483795,0.10644610971212387,0.5453228950500488,0.5168687105178833,0.681452751159668,0.06621898710727692,0.7013296484947205,0.3446766138076782,0.43040525913238525,0.11604607105255127,0.5163978934288025,0.5152207612991333,0.6732473969459534,0.09637969732284546,0.6617282629013062,0.3800111711025238,0.5924180746078491,0.009938834235072136,0.9991442561149597,0.4166015684604645,0.6092349290847778,-0.010053781792521477,0.9990763664245605,0.3210344910621643,0.6748893857002258,-0.02392682060599327,0.899041473865509,0.46267327666282654,0.669940173625946,0.08342723548412323,0.9068988561630249,0.24690088629722595,0.7441644072532654,-0.025303944945335388,0.9315350651741028,0.4612380564212799,0.7712172269821167,0.15276578068733215,0.9201874732971191,0.2376614511013031,0.7493162751197815,-0.026981446892023087,0.9546946883201599,0.45979776978492737,0.7886932492256165,0.15889179706573486,0.9310111999511719,0.2350403368473053,0.7717199921607971,-0.07810325175523758,0.856677234172821,0.47952842712402344,0.7890092730522156,0.1431298702955246,0.8019238114356995
68,0.5078785419464111,0.5101116895675659,0.33756378293037415,0.9891514778137207,0.5120817422866821,0.5030074715614319,0.32820767164230347,0.9923015832901001,0.5109297633171082,0.5006769895553589,0.32815274596214294,0.9915702939033508,0.5097184181213379,0.4983593225479126,0.32812538743019104,0.9908843040466309,0.5151907801628113,0.5084496140480042,0.3214977979660034,0.9936870336532593,0.5161270499229431,0.5097047686576843,0.32152438163757324,0.9935038089752197,0.5170966386795044,0.511049211025238,0.3214316964149475,0.9942211508750916,0.5044056177139282,0.49225053191185,0.2753095030784607,0.9927899241447449,0.5046069622039795,0.5146568417549133,0.2453499138355255,0.9950681924819946,0.5004528760910034,0.5078119039535522,0.3202614188194275,0.9905787706375122,0.5032607316970825,0.5126748085021973,0.3110133409500122,0.992723286151886,0.4511070251464844,0.47865191102027893,0.2340368777513504,0.9988552927970886,0.49960857629776,0.5363059639930725,0.1495550572872162,0.9997983574867249,0.40179529786109924,0.4552280604839325,0.2678680419921875,0.8049708604812622,0.5038235187530518,0.6096523404121399,0.06468845158815384,0.9492357969284058,0.37584972381591797,0.44624465703964233,0.31006765365600586,0.6021232008934021,0.528251051902771,0.7101055383682251,0.007721184752881527,0.7898796200752258,0.36797410249710083,0.44110503792762756,0.30453670024871826,0.5703232288360596,0.5365747213363647,0.7317630052566528,-0.01604321226477623,0.7369847893714905,0.3722518980503082,0.44296225905418396,0.308307021856308,0.5668030381202698,0.5444020628929138,0.7360288500785828,-0.00803278386592865,0.7285434603691101,0.3738479018211365,0.4460147023200989,0.31307128071784973,0.533341646194458,0.5375654697418213,0.7271558046340942,0.011534435674548149,0.6912954449653625,0.387434720993042,0.582246720790863,0.013832157477736473,0.9992275834083557,0.4334539473056793,0.5966736674308777,-0.014338148757815361,0.9991621375083923,0.34643158316612244,0.6661772131919861,-0.009412380866706371,0.908849835395813,0.4679919183254242,0.6712318062782288,0.0699101909995079,0.9128889441490173,0.2776937484741211,0.7402743697166443,-0.052514322102069855,0.9378153085708618,0.45777860283851624,0.7708492875099182,0.11767737567424774,0.9249875545501709,0.2635737657546997,0.7455758452415466,-0.06020555645227432,0.9588130116462708,0.44978800415992737,0.7880216240882874,0.12354955822229385,0.935310959815979,0.2606242001056671,0.7747976779937744,-0.11416095495223999,0.8674206137657166,0.47985878586769104,0.7889283895492554,0.11095808446407318,0.8117448091506958
69
