frame,NOSE.x,NOSE.y,NOSE.z,NOSE.v,LEFT_EYE_INNER.x,LEFT_EYE_INNER.y,LEFT_EYE_INNER.z,LEFT_EYE_INNER.v,LEFT_EYE.x,LEFT_EYE.y,LEFT_EYE.z,LEFT_EYE.v,LEFT_EYE_OUTER.x,LEFT_EYE_OUTER.y,LEFT_EYE_OUTER.z,LEFT_EYE_OUTER.v,RIGHT_EYE_INNER.x,RIGHT_EYE_INNER.y,RIGHT_EYE_INNER.z,RIGHT_EYE_INNER.v,RIGHT_EYE.x,RIGHT_EYE.y,RIGHT_EYE.z,RIGHT_EYE.v,RIGHT_EYE_OUTER.x,RIGHT_EYE_OUTER.y,RIGHT_EYE_OUTER.z,RIGHT_EYE_OUTER.v,LEFT_EAR.x,LEFT_EAR.y,LEFT_EAR.z,LEFT_EAR.v,RIGHT_EAR.x,RIGHT_EAR.y,RIGHT_EAR.z,RIGHT_EAR.v,MOUTH_LEFT.x,MOUTH_LEFT.y,MOUTH_LEFT.z,MOUTH_LEFT.v,MOUTH_RIGHT.x,MOUTH_RIGHT.y,MOUTH_RIGHT.z,MOUTH_RIGHT.v,LEFT_SHOULDER.x,LEFT_SHOULDER.y,LEFT_SHOULDER.z,LEFT_SHOULDER.v,RIGHT_SHOULDER.x,RIGHT_SHOULDER.y,RIGHT_SHOULDER.z,RIGHT_SHOULDER.v,LEFT_ELBOW.x,LEFT_ELBOW.y,LEFT_ELBOW.z,LEFT_ELBOW.v,RIGHT_ELBOW.x,RIGHT_ELBOW.y,RIGHT_ELBOW.z,RIGHT_ELBOW.v,LEFT_WRIST.x,LEFT_WRIST.y,LEFT_WRIST.z,LEFT_WRIST.v,RIGHT_WRIST.x,RIGHT_WRIST.y,RIGHT_WRIST.z,RIGHT_WRIST.v,LEFT_PINKY.x,LEFT_PINKY.y,LEFT_PINKY.z,LEFT_PINKY.v,RIGHT_PINKY.x,RIGHT_PINKY.y,RIGHT_PINKY.z,RIGHT_PINKY.v,LEFT_INDEX.x,LEFT_INDEX.y,LEFT_INDEX.z,LEFT_INDEX.v,RIGHT_INDEX.x,RIGHT_INDEX.y,RIGHT_INDEX.z,RIGHT_INDEX.v,LEFT_THUMB.x,LEFT_THUMB.y,LEFT_THUMB.z,LEFT_THUMB.v,RIGHT_THUMB.x,RIGHT_THUMB.y,RIGHT_THUMB.z,RIGHT_THUMB.v,LEFT_HIP.x,LEFT_HIP.y,LEFT_HIP.z,LEFT_HIP.v,RIGHT_HIP.x,RIGHT_HIP.y,RIGHT_HIP.z,RIGHT_HIP.v,LEFT_KNEE.x,LEFT_KNEE.y,LEFT_KNEE.z,LEFT_KNEE.v,RIGHT_KNEE.x,RIGHT_KNEE.y,RIGHT_KNEE.z,RIGHT_KNEE.v,LEFT_ANKLE.x,LEFT_ANKLE.y,LEFT_ANKLE.z,LEFT_ANKLE.v,RIGHT_ANKLE.x,RIGHT_ANKLE.y,RIGHT_ANKLE.z,RIGHT_ANKLE.v,LEFT_HEEL.x,LEFT_HEEL.y,LEFT_HEEL.z,LEFT_HEEL.v,RIGHT_HEEL.x,RIGHT_HEEL.y,RIGHT_HEEL.z,RIGHT_HEEL.v,LEFT_FOOT_INDEX.x,LEFT_FOOT_INDEX.y,LEFT_FOOT_INDEX.z,LEFT_FOOT_INDEX.v,RIGHT_FOOT_INDEX.x,RIGHT_FOOT_INDEX.y,RIGHT_FOOT_INDEX.z,RIGHT_FOOT_INDEX.v
0
1
2
3
4
5
6
7
8
9
10
11
12
13
14
15
16
17
18
19
20
21
22
23
24
25
26
27
28
29
30
31
32
33
34
35
36
37
38
39
40
41
42
43
44
45
46
47
48
49
50
51
52
53
54
55
56
57
58
59
60
61
62
63
64
65
66
67
68
69
70
71
72
73
74
75
76
77
78
79
80
81
82
83
84
85
86
87
88
89
90
91
92
93
94
95
96
97
98
99
100
101
102
103
104
105
106
107
108
109
110
111
112
113
114
115
116
117
118
119
120
121
122
123
124
125
126
127
128
129
130
131
132
133
134,0.5051325559616089,0.37816116213798523,-0.13632984459400177,1.0,0.5045652985572815,0.37665972113609314,-0.14072448015213013,1.0,0.5045245289802551,0.3757563829421997,-0.140712171792984,0.9997350573539734,0.504508912563324,0.37491586804389954,-0.14066939055919647,1.0,0.5041646361351013,0.37921246886253357,-0.1417718529701233,1.0,0.5038884878158569,0.38001886010169983,-0.14178691804409027,0.9999750852584839,0.5035779476165771,0.380841463804245,-0.1418190598487854,1.0,0.5021122097969055,0.37420451641082764,-0.128406822681427,0.9998981952667236,0.5009103417396545,0.3823755383491516,-0.1337289661169052,0.9999674558639526,0.5033950209617615,0.3778715133666992,-0.12805679440498352,0.9993917942047119,0.5032166838645935,0.3804871141910553,-0.12956774234771729,0.9997841715812683,0.4963330328464508,0.3648947477340698,-0.09705472737550735,0.9996318817138672,0.4953208565711975,0.3955546021461487,-0.10473527014255524,0.9989812970161438,0.49762433767318726,0.3602338135242462,-0.07420791685581207,0.985458254814148,0.4968704283237457,0.41206538677215576,-0.1005031019449234,0.9991034865379333,0.506412148475647,0.3551639914512634,-0.0803024098277092,0.9211732745170593,0.5025192499160767,0.4194928705692291,-0.1150498241186142,0.9934254884719849,0.5086391568183899,0.35165026783943176,-0.09123749285936356,0.8414399027824402,0.5036191344261169,0.42187759280204773,-0.12712204456329346,0.9826464653015137,0.5085946917533875,0.3541482090950012,-0.09312650561332703,0.8463824391365051,0.5043199062347412,0.4191717505455017,-0.13050240278244019,0.9789324402809143,0.5080623030662537,0.3564411699771881,-0.08162771165370941,0.6607702374458313,0.5042868256568909,0.41757792234420776,-0.1173640713095665,0.9582390785217285,0.4841289520263672,0.3846963942050934,0.00726372841745615,0.9998741149902344,0.48325687646865845,0.39974308013916016,-0.007269912865012884,0.9992833733558655,0.48701897263526917,0.39654186367988586,0.09269878268241882,0.31757795810699463,0.48634153604507446,0.41018474102020264,0.07298659533262253,0.6303649544715881,0.4859943389892578,0.40732261538505554,0.1857037991285324,0.7558355927467346,0.4882385730743408,0.4196810722351074,0.1603458672761917,0.9006233811378479,0.48430949449539185,0.40830639004707336,0.19574818015098572,0.6858727931976318,0.4878402352333069,0.4212636649608612,0.16991451382637024,0.7226758003234863,0.4907885491847992,0.41143396496772766,0.18802529573440552,0.5058543682098389,0.4924895167350769,0.4222116768360138,0.16012321412563324,0.6724541783332825
135
136
137
138
139
140
141
142
143
144
145
146
147
148
149
150
151
152,0.5134052038192749,0.30592453479766846,-0.12380822002887726,1.0,0.5134672522544861,0.3029037415981293,-0.12464509904384613,1.0,0.5140182971954346,0.3024727702140808,-0.12464898824691772,0.9999966621398926,0.5145773887634277,0.30203649401664734,-0.12467412650585175,1.0,0.5119839310646057,0.3038249611854553,-0.1210268884897232,1.0,0.5115033388137817,0.3040328919887543,-0.12098746001720428,0.9999922513961792,0.5110197067260742,0.3042905032634735,-0.1209864616394043,1.0,0.5159879922866821,0.3015148937702179,-0.10581503808498383,0.9999990463256836,0.511314868927002,0.30450740456581116,-0.08801253139972687,0.9999923706054688,0.5153095722198486,0.30692100524902344,-0.11523739993572235,0.9999877214431763,0.5135871171951294,0.3080589473247528,-0.11003229767084122,0.999913215637207,0.5231730341911316,0.30982154607772827,-0.08535940200090408,0.9999932050704956,0.5126144886016846,0.313833087682724,-0.0599902868270874,0.9999514818191528,0.5226441025733948,0.3126562833786011,-0.0961531549692154,0.981751024723053,0.5145581364631653,0.3215223550796509,-0.0827760249376297,0.7764458656311035,0.5141395926475525,0.31598156690597534,-0.11554116010665894,0.7740836143493652,0.521027684211731,0.315186470746994,-0.13150933384895325,0.6655230522155762,0.5123113989830017,0.31720077991485596,-0.12462891638278961,0.5032532811164856,0.5228913426399231,0.31467562913894653,-0.13965417444705963,0.6480397582054138,0.5110732913017273,0.3167545199394226,-0.1262107491493225,0.5300346612930298,0.5231816172599792,0.3134986460208893,-0.1414833962917328,0.6260575652122498,0.5121449828147888,0.31631267070770264,-0.11667559295892715,0.4857577085494995,0.522763192653656,0.3135010898113251,-0.1329576075077057,0.5910316705703735,0.5273209810256958,0.35575369000434875,-0.013983805663883686,0.9999814033508301,0.5192829370498657,0.3550103008747101,0.01394437812268734,0.9999847412109375,0.5205610990524292,0.38987892866134644,-0.022435473278164864,0.9989677667617798,0.5071015357971191,0.3842828869819641,0.0026543117128312588,0.9968186616897583,0.5263015627861023,0.41717129945755005,0.0002802642702590674,0.994491696357727,0.501693844795227,0.41411226987838745,0.027063827961683273,0.9893492460250854,0.5273516178131104,0.4203410744667053,0.0005706610390916467,0.7386906147003174,0.5026325583457947,0.41881096363067627,0.02784809097647667,0.874116837978363,0.5238721966743469,0.4276490807533264,-0.03530137985944748,0.9769089818000793,0.4945695996284485,0.42245692014694214,-0.001973687903955579,0.9745033979415894
153,0.5126301050186157,0.31084293127059937,-0.037254951894283295,1.0,0.5137931704521179,0.30706173181533813,-0.03801345080137253,1.0,0.5144815444946289,0.3067876100540161,-0.03800043836236,0.9999998807907104,0.5151885151863098,0.3064974844455719,-0.038014791905879974,1.0,0.5122035145759583,0.3072613775730133,-0.034179653972387314,1.0,0.5117568969726562,0.307097464799881,-0.034174710512161255,0.9999995231628418,0.5113131999969482,0.306972861289978,-0.03420909494161606,1.0,0.5176680684089661,0.30511951446533203,-0.025354474782943726,1.0,0.5122743844985962,0.3055424988269806,-0.00818920973688364,0.9999994039535522,0.514664351940155,0.31228694319725037,-0.031867533922195435,0.9999992847442627,0.5129803419113159,0.31240859627723694,-0.026864584535360336,0.9999951124191284,0.5278626084327698,0.3123675286769867,-0.022881025448441505,0.9999853372573853,0.5081746578216553,0.31617262959480286,-0.0023191983345896006,0.9999678134918213,0.5382768511772156,0.3149263262748718,-0.06917165219783783,0.9915135502815247,0.5036709904670715,0.3223370909690857,-0.03872550278902054,0.6794729828834534,0.536460816860199,0.31339186429977417,-0.12613952159881592,0.9291582703590393,0.5065003037452698,0.31548601388931274,-0.09266676008701324,0.36458683013916016,0.5376492142677307,0.3125315308570862,-0.13923566043376923,0.7489476799964905,0.5072292685508728,0.3137097656726837,-0.10697521269321442,0.23140661418437958,0.5350276827812195,0.31250283122062683,-0.13932938873767853,0.7929084300994873,0.5076305270195007,0.31223785877227783,-0.10790948569774628,0.23487816751003265,0.5346749424934387,0.3136632740497589,-0.12669458985328674,0.7407696843147278,0.507752001285553,0.31348928809165955,-0.09511543810367584,0.2170356810092926,0.5256271362304688,0.3602549433708191,-0.010141999460756779,0.9999938011169434,0.513205885887146,0.3610832989215851,0.010147311724722385,0.9999935626983643,0.5258501768112183,0.39067211747169495,-0.016849346458911896,0.9987080097198486,0.5020986199378967,0.3892836272716522,-0.008318886160850525,0.9961799383163452,0.5280560255050659,0.42039138078689575,-0.0033890833146870136,0.9923295378684998,0.4966563284397125,0.41738811135292053,0.0072072469629347324,0.9858818054199219,0.5280846953392029,0.42462030053138733,-0.003418888431042433,0.8253334164619446,0.49807626008987427,0.4218202829360962,0.007030431181192398,0.795915961265564,0.5273523330688477,0.4310999810695648,-0.03059745393693447,0.9732102155685425,0.4902626574039459,0.42647409439086914,-0.017999794334173203,0.961879312992096
154,0.5126520991325378,0.3105120360851288,-0.13277451694011688,1.0,0.5133118033409119,0.30823659896850586,-0.1335241198539734,1.0,0.5139276385307312,0.308143675327301,-0.13353218138217926,0.9997503161430359,0.514555811882019,0.3080376386642456,-0.1335603892803192,1.0,0.5117811560630798,0.3081555962562561,-0.13135701417922974,1.0,0.5113421082496643,0.3079710304737091,-0.1313314586877823,0.9995682835578918,0.5109207034111023,0.3078480362892151,-0.13133946061134338,1.0,0.516416609287262,0.30758950114250183,-0.11413941532373428,0.9998593330383301,0.5115308165550232,0.3072148859500885,-0.10149288177490234,0.9998587369918823,0.5146746635437012,0.3120594918727875,-0.12376610189676285,0.9995637536048889,0.5131367444992065,0.3120698034763336,-0.12003143876791,0.9982377290725708,0.5250583291053772,0.31549254059791565,-0.08302946388721466,0.9997866749763489,0.5124772191047668,0.3152935206890106,-0.08350591361522675,0.9996373653411865,0.5338433980941772,0.31383246183395386,-0.08499775826931,0.988229513168335,0.5150853991508484,0.31858834624290466,-0.11136063188314438,0.9825656414031982,0.5313554406166077,0.31641584634780884,-0.09037821739912033,0.7760828137397766,0.5235057473182678,0.31475672125816345,-0.14604535698890686,0.7149344086647034,0.5306761264801025,0.3176940083503723,-0.09339913725852966,0.5131590962409973,0.5259696245193481,0.3134079575538635,-0.1535664200782776,0.5323106646537781,0.528635561466217,0.31647440791130066,-0.0959852933883667,0.6021445393562317,0.5254276990890503,0.3123043179512024,-0.15389010310173035,0.5737732648849487,0.5291227102279663,0.3159259557723999,-0.09109222143888474,0.5987271070480347,0.5247282385826111,0.3134838342666626,-0.14674632251262665,0.5574982166290283,0.523898720741272,0.35981354117393494,-0.009151648730039597,0.9999864101409912,0.5153886675834656,0.35881179571151733,0.009180208668112755,0.9999587535858154,0.522031307220459,0.38904714584350586,-0.014631815254688263,0.9999123811721802,0.5061829686164856,0.3880159556865692,0.01203591376543045,0.9976906776428223,0.524347186088562,0.4204886257648468,-0.002197596011683345,0.9973176121711731,0.5025835037231445,0.41697826981544495,0.035050880163908005,0.9601991772651672,0.5242239236831665,0.42480602860450745,-0.0013782208552584052,0.6422692537307739,0.5042465329170227,0.42089763283729553,0.03534755855798721,0.4420687258243561,0.5222002267837524,0.42920082807540894,-0.039689190685749054,0.9694967269897461,0.4967217445373535,0.42563575506210327,0.002998999785631895,0.8467773795127869
155,0.5145939588546753,0.31691598892211914,-0.0616164430975914,1.0,0.5151315331459045,0.3134593665599823,-0.06050361320376396,1.0,0.5158023834228516,0.3132406175136566,-0.060501981526613235,0.9999998807907104,0.5164951682090759,0.31301307678222656,-0.06050524115562439,1.0,0.5133277177810669,0.31357383728027344,-0.05881435424089432,1.0,0.5127090811729431,0.3133936822414398,-0.058807022869586945,0.9999997615814209,0.5120953321456909,0.313247948884964,-0.058828048408031464,1.0,0.5179321765899658,0.31220531463623047,-0.040092892944812775,0.9999998807907104,0.5118836760520935,0.31223827600479126,-0.03126596659421921,0.9999998807907104,0.5163165330886841,0.31838157773017883,-0.053296010941267014,0.9999995231628418,0.5142789483070374,0.3185461163520813,-0.050605930387973785,0.999997615814209,0.5261776447296143,0.31911006569862366,-0.03310955688357353,0.9999947547912598,0.5097707509994507,0.3205529451370239,-0.02383207157254219,0.9999629259109497,0.5403968691825867,0.3140944540500641,-0.08087398111820221,0.999299168586731,0.506255030632019,0.32033413648605347,-0.06012318655848503,0.9805841445922852,0.5364055633544922,0.3183237612247467,-0.13789118826389313,0.9817313551902771,0.5117005705833435,0.31662359833717346,-0.10662039369344711,0.6921014785766602,0.5361163020133972,0.31849461793899536,-0.1510917842388153,0.8913071155548096,0.5128957033157349,0.3152427077293396,-0.1214911937713623,0.432009756565094,0.5337812304496765,0.3173571527004242,-0.15273521840572357,0.9165352582931519,0.5138581991195679,0.31454330682754517,-0.12071050703525543,0.43932026624679565,0.5340608358383179,0.3182888925075531,-0.14049282670021057,0.9009060859680176,0.5136516690254211,0.3155638575553894,-0.10848166048526764,0.4272423982620239,0.5241984724998474,0.36237990856170654,-0.009632991626858711,0.9999922513961792,0.5135821104049683,0.3638961613178253,0.00962716806679964,0.9999890327453613,0.5261768102645874,0.3915688693523407,-0.019281812012195587,0.9997428059577942,0.5064343214035034,0.39081433415412903,0.012879572808742523,0.9958481788635254,0.5296531915664673,0.4222138226032257,-0.015336294658482075,0.9975347518920898,0.5039008855819702,0.41794469952583313,0.039898891001939774,0.9736402630805969,0.5294498205184937,0.42629334330558777,-0.016277898102998734,0.905297577381134,0.5052840709686279,0.42193540930747986,0.04092855751514435,0.7480913400650024,0.5296130776405334,0.4311496615409851,-0.047417186200618744,0.9850999712944031,0.4995505213737488,0.4266171455383301,0.015926543623209,0.920425295829773
156,0.5155733823776245,0.3204188942909241,-0.11170810461044312,1.0,0.5152690410614014,0.31756269931793213,-0.11190952360630035,1.0,0.5159366726875305,0.3173806965351105,-0.11191701889038086,0.9999995231628418,0.5166689157485962,0.3171926438808441,-0.11193159967660904,1.0,0.513532817363739,0.31786027550697327,-0.10875407606363297,1.0,0.5130027532577515,0.3178304135799408,-0.10871094465255737,0.9999991655349731,0.5124670267105103,0.31785041093826294,-0.10870466381311417,1.0,0.5182352066040039,0.3172775208950043,-0.08788041770458221,0.9999997615814209,0.513091504573822,0.3180170953273773,-0.0708993524312973,0.9999995231628418,0.5174981355667114,0.3222401738166809,-0.10269491374492645,0.9999970197677612,0.5156286358833313,0.3225293457508087,-0.09751392900943756,0.9999860525131226,0.5258761644363403,0.32615435123443604,-0.06590151786804199,0.9999618530273438,0.512611985206604,0.3280339539051056,-0.07482967525720596,0.9997441172599792,0.5362454652786255,0.31867435574531555,-0.08490375429391861,0.995859682559967,0.5114619135856628,0.3212535083293915,-0.1172393187880516,0.9966247081756592,0.5321869850158691,0.3202270567417145,-0.12608522176742554,0.7871600985527039,0.5184838771820068,0.316743940114975,-0.15483607351779938,0.7716216444969177,0.5309522747993469,0.319601833820343,-0.13677604496479034,0.3480837941169739,0.5203221440315247,0.3153546154499054,-0.1686515361070633,0.4430166184902191,0.5294176340103149,0.3190322816371918,-0.13983584940433502,0.4188615083694458,0.520864725112915,0.314856618642807,-0.1675432324409485,0.4642612338066101,0.5301328301429749,0.3202330470085144,-0.12859567999839783,0.40537938475608826,0.5204005241394043,0.3157510459423065,-0.156175896525383,0.4551883041858673,0.5239601731300354,0.3675314784049988,-0.004149028565734625,0.9999936819076538,0.5144776105880737,0.3679441213607788,0.004140760749578476,0.9999797344207764,0.5260472893714905,0.3942306935787201,-0.01252321619540453,0.9999085664749146,0.5047390460968018,0.39454203844070435,0.0032321407925337553,0.999666690826416,0.5296921730041504,0.4240153729915619,0.009155801497399807,0.9980921149253845,0.5014051198959351,0.4207915961742401,0.032814543694257736,0.9904835224151611,0.5292508602142334,0.428108811378479,0.009657689370214939,0.8417996764183044,0.50307697057724,0.4241088032722473,0.03338266536593437,0.7235842347145081,0.5303877592086792,0.4324386715888977,-0.024315321817994118,0.9825102686882019,0.4966071546077728,0.43071475625038147,0.0047209607437253,0.9499514698982239
157,0.5156450271606445,0.32023486495018005,-0.08729071170091629,1.0,0.5166101455688477,0.31721919775009155,-0.08499522507190704,1.0,0.5173296928405762,0.3170599639415741,-0.08499301970005035,1.0,0.5180865526199341,0.3169020116329193,-0.08498664200305939,1.0,0.5147168636322021,0.31755173206329346,-0.08262021839618683,1.0,0.5141335129737854,0.3175690472126007,-0.08261756598949432,1.0,0.5135490894317627,0.31764039397239685,-0.08262468129396439,1.0,0.520039439201355,0.3177601397037506,-0.06098278611898422,1.0,0.514085590839386,0.3185262382030487,-0.04925406351685524,1.0,0.5176644921302795,0.32282745838165283,-0.0782095342874527,1.0,0.5154523253440857,0.3231564164161682,-0.07461217045783997,1.0,0.5276127457618713,0.32986539602279663,-0.05739524960517883,0.9999926090240479,0.5112457871437073,0.3302616775035858,-0.0399332195520401,0.9999755620956421,0.5391010046005249,0.31968680024147034,-0.1051626056432724,0.9971164464950562,0.5023697018623352,0.31982937455177307,-0.08022710680961609,0.9900025129318237,0.5348187685012817,0.32026103138923645,-0.15431345999240875,0.817162811756134,0.5090950727462769,0.31738409399986267,-0.12155508995056152,0.5273446440696716,0.5342525243759155,0.3194572329521179,-0.16720105707645416,0.33978891372680664,0.5099865198135376,0.3154248893260956,-0.1368999183177948,0.1803484857082367,0.5326263904571533,0.3196187913417816,-0.1677156239748001,0.41408199071884155,0.5121500492095947,0.31877565383911133,-0.1338481605052948,0.1964305192232132,0.5330272912979126,0.32128220796585083,-0.15675517916679382,0.4041968584060669,0.511792778968811,0.320293128490448,-0.12309098243713379,0.1885511726140976,0.5242701172828674,0.37332865595817566,-0.007417074404656887,0.9999992847442627,0.5128132700920105,0.3724816143512726,0.007387994788587093,0.999998927116394,0.5287408828735352,0.3956542909145355,-0.046936649829149246,0.9999638795852661,0.5030089020729065,0.3953571915626526,-0.00958971120417118,0.9996021389961243,0.529899537563324,0.42413049936294556,-0.02216454967856407,0.9988237023353577,0.500821590423584,0.41839584708213806,0.03509974479675293,0.9848463535308838,0.5284024477005005,0.4287318289279938,-0.02155134081840515,0.9235668182373047,0.5022482872009277,0.4217764437198639,0.03810269013047218,0.7627196907997131,0.5312442183494568,0.4320894181728363,-0.05787283182144165,0.9922237396240234,0.49643072485923767,0.42664235830307007,0.010686596855521202,0.9523262977600098
158,0.5191558599472046,0.3228500187397003,-0.12283994257450104,1.0,0.5202678442001343,0.3198451101779938,-0.11734167486429214,1.0,0.5208814740180969,0.3198472559452057,-0.11732500791549683,0.9999994039535522,0.5215181112289429,0.31983646750450134,-0.11722234636545181,1.0,0.5183998346328735,0.31963837146759033,-0.12296594679355621,1.0,0.5177716016769409,0.31939536333084106,-0.12297670543193817,0.9999992847442627,0.5171438455581665,0.3192094564437866,-0.1229729875922203,1.0,0.5222617387771606,0.3197222650051117,-0.0925440788269043,0.9999997615814209,0.5163390636444092,0.31891366839408875,-0.09594875574111938,0.9999997615814209,0.5200858116149902,0.32492315769195557,-0.1023002415895462,0.9999988079071045,0.5180799961090088,0.32452499866485596,-0.11195638030767441,0.9999951124191284,0.5273231267929077,0.3281143307685852,-0.06390538066625595,0.9999728202819824,0.5114192366600037,0.32920441031455994,-0.08546657860279083,0.9998922348022461,0.539943277835846,0.32166004180908203,-0.06998560577630997,0.9969246983528137,0.5080578327178955,0.3290554881095886,-0.12715153396129608,0.9991006851196289,0.5361424684524536,0.32283005118370056,-0.09338512271642685,0.8039799928665161,0.5147342681884766,0.32535356283187866,-0.15948450565338135,0.9249638319015503,0.5349937677383423,0.32203930616378784,-0.09943457692861557,0.40807244181632996,0.5162864923477173,0.3231683373451233,-0.1707918494939804,0.6995801329612732,0.5330106019973755,0.3221201002597809,-0.10193139314651489,0.4552929997444153,0.5171159505844116,0.3239048421382904,-0.16866476833820343,0.7198116183280945,0.533554196357727,0.32291024923324585,-0.09526072442531586,0.4237724542617798,0.51676344871521,0.3250406086444855,-0.1596159040927887,0.6663403511047363,0.5242863893508911,0.3677552044391632,0.0026251222006976604,0.9999992847442627,0.5139530301094055,0.3675108253955841,-0.0026267641223967075,0.9999974966049194,0.5286091566085815,0.3934703767299652,-0.03236723691225052,0.999904990196228,0.5078418850898743,0.3917505443096161,-0.018421795219182968,0.999656081199646,0.529668927192688,0.4227432608604431,-0.00858366210013628,0.997748076915741,0.5007696747779846,0.4183219373226166,0.01395765133202076,0.9877724051475525,0.5283294916152954,0.4274619221687317,-0.008299256674945354,0.8587853312492371,0.5013381242752075,0.42220643162727356,0.0157131589949131,0.6593821048736572,0.5314879417419434,0.43045318126678467,-0.05306931585073471,0.9812594056129456,0.49593186378479004,0.42714112997055054,-0.011984688229858875,0.945192277431488
159,0.5202722549438477,0.32668429613113403,-0.08300210535526276,1.0,0.5212408900260925,0.32429203391075134,-0.07996480911970139,1.0,0.5217945575714111,0.32438477873802185,-0.0799490362405777,0.9999996423721313,0.5223802328109741,0.3244798481464386,-0.07993477582931519,1.0,0.519538164138794,0.3239244818687439,-0.08080166578292847,1.0,0.51893550157547,0.32366958260536194,-0.08079656213521957,0.9999990463256836,0.5183271169662476,0.3234723210334778,-0.08082149177789688,1.0,0.5228684544563293,0.3253229260444641,-0.05378354340791702,0.9999997615814209,0.5173212289810181,0.32401731610298157,-0.05664382502436638,0.9999988079071045,0.52097487449646,0.3293525278568268,-0.07235236465930939,0.9999984502792358,0.5190092921257019,0.32878178358078003,-0.07328276336193085,0.9999932050704956,0.5263585448265076,0.33629006147384644,-0.042011525481939316,0.9999438524246216,0.5122357606887817,0.33464911580085754,-0.057773686945438385,0.9992176294326782,0.5360828638076782,0.3275894224643707,-0.0793144553899765,0.9876563549041748,0.5098447203636169,0.3245050311088562,-0.10801739990711212,0.9975199103355408,0.5328086614608765,0.3256304860115051,-0.1256478726863861,0.8702399730682373,0.5190695524215698,0.3206924796104431,-0.14136500656604767,0.8835362792015076,0.5321305394172668,0.3242739140987396,-0.13669566810131073,0.5688921809196472,0.5210085511207581,0.3190278112888336,-0.1541103571653366,0.6114531755447388,0.5312047600746155,0.324719101190567,-0.13760751485824585,0.622344434261322,0.5218720436096191,0.32005664706230164,-0.14990732073783875,0.601674497127533,0.5316580533981323,0.32616299390792847,-0.12799248099327087,0.5882188081741333,0.5212746858596802,0.3214969038963318,-0.14115212857723236,0.5579657554626465,0.5238925814628601,0.37816208600997925,0.0010861860355362296,0.9999974966049194,0.5135984420776367,0.37794262170791626,-0.0011074995854869485,0.9999896287918091,0.5282493233680725,0.40040984749794006,-0.036811258643865585,0.9996447563171387,0.5043069124221802,0.4017108976840973,-0.02590506337583065,0.9993299245834351,0.5257410407066345,0.42750176787376404,0.0011765890521928668,0.9955131411552429,0.5003662705421448,0.4239298105239868,0.02506202459335327,0.9803891777992249,0.5239695310592651,0.43119919300079346,0.003933285363018513,0.9015673995018005,0.5013428926467896,0.42718014121055603,0.02858644165098667,0.7145548462867737,0.5267146825790405,0.43698644638061523,-0.03467283397912979,0.9801387786865234,0.49552449584007263,0.43352481722831726,0.002206792589277029,0.9443629384040833
160,0.5206636190414429,0.32841750979423523,-0.059289079159498215,1.0,0.5218920111656189,0.3258611559867859,-0.05559863522648811,1.0,0.5226261615753174,0.3259068429470062,-0.055586449801921844,0.9999998807907104,0.5233861804008484,0.3259488046169281,-0.05558989197015762,1.0,0.519658088684082,0.3256380259990692,-0.05589880421757698,1.0,0.518897533416748,0.32546302676200867,-0.055890243500471115,0.9999998807907104,0.5181299448013306,0.3253322243690491,-0.055920787155628204,1.0,0.5244615077972412,0.3268857002258301,-0.029711902141571045,0.9999998807907104,0.517159104347229,0.3260762393474579,-0.03136706352233887,0.9999997615814209,0.5218299031257629,0.33144453167915344,-0.04959060996770859,0.9999991655349731,0.5193504095077515,0.33112627267837524,-0.049853481352329254,0.9999971389770508,0.529464602470398,0.33879354596138,-0.023988552391529083,0.9999511241912842,0.5117772817611694,0.33787304162979126,-0.034364547580480576,0.9995681643486023,0.537101686000824,0.3322528004646301,-0.058429695665836334,0.9850008487701416,0.5066087245941162,0.33929404616355896,-0.08208432048559189,0.9845437407493591,0.536457359790802,0.3263685405254364,-0.1054658442735672,0.8986099362373352,0.5078557729721069,0.3263567090034485,-0.1281912624835968,0.9212490320205688,0.5372830629348755,0.32508304715156555,-0.11653053760528564,0.6219732761383057,0.5076563954353333,0.3214152157306671,-0.14299876987934113,0.7562710046768188,0.5357116460800171,0.3251381516456604,-0.11791274696588516,0.6715768575668335,0.5084918737411499,0.32137760519981384,-0.14139403402805328,0.766086995601654,0.5354686379432678,0.32650473713874817,-0.10792301595211029,0.6929689049720764,0.5091170072555542,0.3237873911857605,-0.129686638712883,0.7577849626541138,0.5261158347129822,0.38063111901283264,0.0025337510742247105,0.9999765157699585,0.5134726166725159,0.3789689838886261,-0.002519417554140091,0.999967098236084,0.5316089391708374,0.40062057971954346,-0.03707581385970116,0.9997414946556091,0.5018190741539001,0.4013125002384186,-0.015685131773352623,0.9988548755645752,0.5301390886306763,0.4277534782886505,-0.0023408476263284683,0.9887968301773071,0.4957704544067383,0.42210865020751953,0.019691037014126778,0.9619108438491821,0.52790367603302,0.43217742443084717,0.0010362761095166206,0.8448387980461121,0.49627605080604553,0.42611873149871826,0.02153417095541954,0.4883742928504944,0.5306954383850098,0.43560922145843506,-0.03246302902698517,0.965172529220581,0.491801917552948,0.4299722909927368,-0.0059481835924088955,0.8973494172096252
161,0.5204514265060425,0.3320942223072052,-0.060893792659044266,1.0,0.5216112732887268,0.3287487328052521,-0.05733545869588852,1.0,0.5224243402481079,0.32871773838996887,-0.0573001503944397,0.9999997615814209,0.5232654809951782,0.3286767303943634,-0.05727753788232803,1.0,0.519177258014679,0.32843777537345886,-0.05951406806707382,1.0,0.5182861089706421,0.3281121850013733,-0.05950483679771423,0.9999997615814209,0.5173947811126709,0.32782676815986633,-0.059539616107940674,1.0,0.5241622924804688,0.3282667100429535,-0.03135882690548897,0.9999998807907104,0.515884518623352,0.3272034227848053,-0.03835742548108101,0.9999991655349731,0.5215263962745667,0.334450900554657,-0.04966279864311218,0.9999992847442627,0.518864095211029,0.33400505781173706,-0.05197436362504959,0.9999973773956299,0.5289120674133301,0.3367353081703186,-0.016632724553346634,0.999994158744812,0.5101901292800903,0.3356148302555084,-0.039806950837373734,0.999927282333374,0.5381060242652893,0.33352869749069214,-0.03869422525167465,0.993631899356842,0.5063863396644592,0.3392595052719116,-0.08523006737232208,0.9905385971069336,0.5371270179748535,0.3307439088821411,-0.08197196573019028,0.9326889514923096,0.5088930726051331,0.32986676692962646,-0.1277063637971878,0.8975754380226135,0.5380913019180298,0.32961490750312805,-0.09479567408561707,0.7352249026298523,0.5090020895004272,0.3265027403831482,-0.14127860963344574,0.7080777883529663,0.5361563563346863,0.3295304477214813,-0.09595517814159393,0.7571527361869812,0.5094813108444214,0.3255406618118286,-0.1402921974658966,0.7172501087188721,0.5355731248855591,0.3306787312030792,-0.08478571474552155,0.7683630585670471,0.5100988149642944,0.3273128271102905,-0.12886705994606018,0.7011488676071167,0.5253202319145203,0.37897396087646484,0.006336632184684277,0.9999977350234985,0.5126949548721313,0.3780572712421417,-0.006286994554102421,0.9999927282333374,0.5324504375457764,0.39904457330703735,-0.033412668853998184,0.9996281862258911,0.5051512122154236,0.39971837401390076,-0.020351476967334747,0.9987432360649109,0.5289347767829895,0.4264167547225952,0.000680360069964081,0.9924893379211426,0.49811211228370667,0.42146408557891846,0.019583242014050484,0.9652642607688904,0.5262256860733032,0.4311617314815521,0.0024692981969565153,0.9069463610649109,0.4982669949531555,0.42528191208839417,0.02201765403151512,0.5435994863510132,0.5333042740821838,0.43487265706062317,-0.025873582810163498,0.9756538271903992,0.4943641126155853,0.43060699105262756,-0.002392158843576908,0.9103268384933472
162,0.5169733762741089,0.33295777440071106,-0.056596994400024414,1.0,0.518419623374939,0.32972103357315063,-0.05789164826273918,1.0,0.5192875266075134,0.3296150267124176,-0.057873986661434174,0.9999926090240479,0.5201874375343323,0.3294984996318817,-0.05785612016916275,1.0,0.5163767337799072,0.3297201097011566,-0.05477917939424515,1.0,0.5156999826431274,0.32953354716300964,-0.05476171895861626,0.9999794960021973,0.5150154829025269,0.3293951153755188,-0.05479167029261589,1.0,0.522682785987854,0.32946518063545227,-0.0465209074318409,0.9999880790710449,0.5154095888137817,0.32927078008651733,-0.032018162310123444,0.999956488609314,0.5189903974533081,0.3356650173664093,-0.05133949965238571,0.9999735355377197,0.5167232751846313,0.3356049358844757,-0.04691510647535324,0.9998917579650879,0.5300287008285522,0.33857235312461853,-0.03894240781664848,0.999950647354126,0.5119244456291199,0.3381161093711853,-0.01950140669941902,0.9993854761123657,0.5363609194755554,0.3349984586238861,-0.05303028225898743,0.9117483496665955,0.5053848624229431,0.34150436520576477,-0.03223569691181183,0.9051452875137329,0.5354726910591125,0.33557575941085815,-0.07173223793506622,0.7300923466682434,0.5085710287094116,0.33271047472953796,-0.06115233898162842,0.7228913903236389,0.5362032651901245,0.3354545831680298,-0.08033178746700287,0.48868054151535034,0.5089559555053711,0.3296201527118683,-0.07108866423368454,0.5303512811660767,0.5347048044204712,0.33565154671669006,-0.08288295567035675,0.5123574137687683,0.510071873664856,0.3284163475036621,-0.07146963477134705,0.5080778002738953,0.5343610644340515,0.336396187543869,-0.07372889667749405,0.5328649282455444,0.5106404423713684,0.33010244369506836,-0.06273940950632095,0.5158209800720215,0.5256344079971313,0.38334932923316956,-0.002231723628938198,0.9999492168426514,0.5135473012924194,0.3814678490161896,0.0023245993070304394,0.9998830556869507,0.5302435159683228,0.4039050340652466,-0.020609991624951363,0.9847822785377502,0.5030795931816101,0.40179961919784546,-0.0011014146730303764,0.9831194281578064,0.5285704731941223,0.42578551173210144,0.021807698532938957,0.9783657789230347,0.500530481338501,0.4222813844680786,0.044700637459754944,0.943239688873291,0.5262454152107239,0.42964139580726624,0.024400988593697548,0.7975149750709534,0.5020333528518677,0.42592060565948486,0.047768689692020416,0.7532922029495239,0.5325037837028503,0.4350247085094452,0.0011040829122066498,0.9564718008041382,0.495103120803833,0.4315328299999237,0.02928995154798031,0.9094232320785522
163,0.5192224979400635,0.33789774775505066,-0.054060954600572586,1.0,0.5202072262763977,0.3353445827960968,-0.051690585911273956,1.0,0.5208332538604736,0.33542317152023315,-0.05167006701231003,0.9999991655349731,0.5214879512786865,0.33549991250038147,-0.05166211724281311,1.0,0.5183011293411255,0.3349154591560364,-0.05298928543925285,1.0,0.5175954103469849,0.33460280299186707,-0.05298898369073868,0.999998927116394,0.5168888568878174,0.33433181047439575,-0.05302039533853531,1.0,0.5221186876296997,0.3356952667236328,-0.029423227533698082,0.9999995231628418,0.5156282186508179,0.33419135212898254,-0.035548098385334015,0.9999980926513672,0.5199979543685913,0.34030601382255554,-0.04531431943178177,0.999997615814209,0.5178807973861694,0.3397088348865509,-0.04694169759750366,0.9999918937683105,0.5265021324157715,0.34418246150016785,-0.025098731741309166,0.9999475479125977,0.5095168948173523,0.342427134513855,-0.03991224244236946,0.999634861946106,0.5346633195877075,0.33922258019447327,-0.057258933782577515,0.9853863716125488,0.507975161075592,0.341192364692688,-0.08897916972637177,0.984183669090271,0.5358102321624756,0.337088018655777,-0.09547100961208344,0.8965274095535278,0.5112341046333313,0.33395710587501526,-0.12252124398946762,0.8170257210731506,0.5370355844497681,0.3360852003097534,-0.10566487163305283,0.6668555736541748,0.5114191770553589,0.33094093203544617,-0.1339748501777649,0.575796365737915,0.535454273223877,0.3359072804450989,-0.10691221058368683,0.7060496211051941,0.5120708346366882,0.33048662543296814,-0.13156715035438538,0.5814438462257385,0.5348297953605652,0.33721017837524414,-0.09804647415876389,0.7292798757553101,0.5125001072883606,0.33239656686782837,-0.1229567751288414,0.5664584636688232,0.5224882364273071,0.3832240402698517,0.002845306880772114,0.9999741315841675,0.5108718276023865,0.3826657235622406,-0.0028446337673813105,0.9999351501464844,0.5299497842788696,0.3995291590690613,-0.033204011619091034,0.9994353652000427,0.5040938854217529,0.4012438952922821,-0.02510729804635048,0.990964412689209,0.52750164270401,0.4271564781665802,-0.0077443853951990604,0.9889981150627136,0.5040885806083679,0.4243818521499634,0.006403382867574692,0.8833554983139038,0.5249583125114441,0.43183067440986633,-0.00671202689409256,0.9102915525436401,0.505275547504425,0.42809396982192993,0.007791553623974323,0.4131799638271332,0.5324496626853943,0.4354100823402405,-0.03288811817765236,0.9643151164054871,0.501858115196228,0.4331251084804535,-0.013830244541168213,0.7418590188026428
164,0.5196861028671265,0.3381558358669281,-0.05658251792192459,1.0,0.5194052457809448,0.33614298701286316,-0.05663726478815079,1.0,0.5196347832679749,0.33586058020591736,-0.056620191782712936,0.9999982118606567,0.5198971033096313,0.33558252453804016,-0.056610606610774994,1.0,0.5189361572265625,0.33689290285110474,-0.057701338082551956,1.0,0.518741250038147,0.33709633350372314,-0.05768489092588425,0.9999961853027344,0.5185409784317017,0.33735010027885437,-0.057697735726833344,1.0,0.5201696157455444,0.3363243043422699,-0.04257058724761009,0.9999995231628418,0.5185793042182922,0.3386918008327484,-0.047526247799396515,0.9999916553497314,0.5207685232162476,0.33958709239959717,-0.05019506812095642,0.9999957084655762,0.5198451280593872,0.3404735326766968,-0.051365625113248825,0.999988317489624,0.5216338038444519,0.3447361886501312,-0.01703888177871704,0.9999178647994995,0.519788920879364,0.3471643030643463,-0.04733802005648613,0.9982784986495972,0.531112790107727,0.3395795226097107,0.001430020434781909,0.9301778674125671,0.5251671075820923,0.3381170630455017,-0.051640987396240234,0.999882698059082,0.5307847261428833,0.3409971594810486,0.004074434284120798,0.8253360390663147,0.5329617261886597,0.33623072504997253,-0.048894207924604416,0.9919103980064392,0.530707061290741,0.34130966663360596,-0.0007363128243014216,0.6699447631835938,0.5352245569229126,0.33670100569725037,-0.05425219610333443,0.9712186455726624,0.5296424627304077,0.34278708696365356,-0.0029613287188112736,0.6820846796035767,0.5348687171936035,0.3366083800792694,-0.05446150153875351,0.9686194658279419,0.5298789739608765,0.34350186586380005,0.0030040270648896694,0.659462034702301,0.5339008569717407,0.3370949327945709,-0.048787616193294525,0.9575057029724121,0.5213488936424255,0.3861309587955475,0.011061782948672771,0.9999997615814209,0.519670844078064,0.38777366280555725,-0.01101974118500948,0.9999979734420776,0.5253689289093018,0.4058886766433716,0.03759697079658508,0.9782413244247437,0.5256646871566772,0.41225844621658325,0.008095904253423214,0.9993624091148376,0.5225664377212524,0.4257754683494568,0.08004827052354813,0.9906989932060242,0.5184792280197144,0.42453986406326294,0.06038782000541687,0.9949888586997986,0.5206842422485352,0.4291285276412964,0.08392079174518585,0.9602016806602478,0.5171334743499756,0.4255810081958771,0.0656806081533432,0.9353171586990356,0.5261584520339966,0.4332883954048157,0.07633350789546967,0.9805428981781006,0.5167223215103149,0.43314260244369507,0.06126371771097183,0.9864304065704346
165,0.5204363465309143,0.3393048346042633,-0.041914477944374084,1.0,0.5207002758979797,0.3371657431125641,-0.04087597131729126,1.0,0.5210142731666565,0.3371705412864685,-0.04085461050271988,0.9999996423721313,0.5213605761528015,0.3371676206588745,-0.04083957523107529,1.0,0.5197389721870422,0.33722439408302307,-0.04372376203536987,1.0,0.5193184614181519,0.3371600806713104,-0.04370199516415596,0.9999995231628418,0.5188987255096436,0.3371368646621704,-0.04370977357029915,1.0,0.5211681127548218,0.3380295932292938,-0.023659171536564827,0.9999998807907104,0.5180220603942871,0.33797529339790344,-0.03763987869024277,0.9999986886978149,0.5209983587265015,0.34127670526504517,-0.03457894176244736,0.9999980926513672,0.5196114778518677,0.3412240147590637,-0.03819090873003006,0.9999961853027344,0.5206769704818726,0.34571924805641174,0.0015726698329672217,0.9999812841415405,0.5168471336364746,0.3472902178764343,-0.04708324745297432,0.9992509484291077,0.5308317542076111,0.3385666012763977,0.008710755966603756,0.9563513398170471,0.5226947069168091,0.34057560563087463,-0.052936285734176636,0.9976028800010681,0.5331794023513794,0.3387540876865387,-0.007438034750521183,0.8793710470199585,0.5325472354888916,0.33756905794143677,-0.049664177000522614,0.9399979114532471,0.5337842106819153,0.3392602205276489,-0.012859280221164227,0.7767613530158997,0.5351486802101135,0.3375277519226074,-0.05529739335179329,0.8390923142433167,0.5327889323234558,0.3399924337863922,-0.01539615262299776,0.7898716926574707,0.5347230434417725,0.33707207441329956,-0.054386965930461884,0.8390193581581116,0.5327246785163879,0.3405601680278778,-0.009135878644883633,0.7850885391235352,0.5335856080055237,0.33802175521850586,-0.04901055246591568,0.8111650347709656,0.5207093954086304,0.38699838519096375,0.015083086676895618,0.9999979734420776,0.5174368619918823,0.38948437571525574,-0.01503000408411026,0.9999759197235107,0.5293417572975159,0.4026564061641693,0.01367981918156147,0.9473651647567749,0.5259109735488892,0.41006797552108765,-0.010756513103842735,0.9896939396858215,0.5261812210083008,0.4271698296070099,0.035898640751838684,0.9493116736412048,0.5176454186439514,0.4274599850177765,0.026801947504281998,0.9377615451812744,0.523833692073822,0.4310477375984192,0.03755009174346924,0.8825579881668091,0.5152844786643982,0.428960919380188,0.032027021050453186,0.7410324811935425,0.5320261716842651,0.4355616271495819,0.027679303660988808,0.9382614493370056,0.5180836319923401,0.43768584728240967,0.017414860427379608,0.9144219756126404
166,0.5239132642745972,0.3395013213157654,-0.04320502653717995,1.0,0.5234604477882385,0.33817973732948303,-0.045718081295490265,1.0,0.5231668949127197,0.3382386565208435,-0.0456816628575325,0.999998927116394,0.5229167342185974,0.33829861879348755,-0.045615047216415405,1.0,0.5243114233016968,0.3381863534450531,-0.04629962891340256,1.0,0.524616539478302,0.3381520211696625,-0.04625948518514633,0.9999986886978149,0.5249185562133789,0.3381649851799011,-0.04623671621084213,1.0,0.5227887630462646,0.34027349948883057,-0.050701625645160675,0.9999974966049194,0.5257166624069214,0.3400152921676636,-0.05120120197534561,0.9999920129776001,0.5239032506942749,0.3420047461986542,-0.0401940681040287,0.9999574422836304,0.5247244238853455,0.34192976355552673,-0.0410999171435833,0.9999604225158691,0.5175317525863647,0.34930795431137085,-0.03500490263104439,0.9978429079055786,0.532891571521759,0.34934136271476746,-0.04627036675810814,0.9981411695480347,0.510374903678894,0.3436872363090515,-0.02527914009988308,0.9370428323745728,0.540078341960907,0.3442382514476776,-0.03000367246568203,0.9841150045394897,0.5082871913909912,0.3354131281375885,-0.03507841005921364,0.9664035439491272,0.5381572842597961,0.33556535840034485,-0.013096293434500694,0.9562432765960693,0.5071194171905518,0.333684504032135,-0.04230770096182823,0.9562018513679504,0.5383895635604858,0.3336539566516876,-0.016061564907431602,0.9317915439605713,0.5083645582199097,0.3331940770149231,-0.04334357753396034,0.9572173953056335,0.5369762182235718,0.33343273401260376,-0.019064513966441154,0.9233025312423706,0.5094468593597412,0.33402901887893677,-0.036150358617305756,0.9354076981544495,0.5362766981124878,0.3342357277870178,-0.013927780091762543,0.9022099375724792,0.5229892134666443,0.38520532846450806,0.009616320952773094,0.9999607801437378,0.5298915505409241,0.38516107201576233,-0.009535825811326504,0.9999521970748901,0.5275650024414062,0.4045315980911255,0.016584809869527817,0.7932033538818359,0.5323941707611084,0.4050796926021576,-0.012194931507110596,0.9782100319862366,0.5277045369148254,0.42595812678337097,0.04017668589949608,0.7246192693710327,0.5327429175376892,0.42848750948905945,0.002926406916230917,0.9337935447692871,0.5267845988273621,0.4300217926502228,0.04173498973250389,0.7810729742050171,0.5314823389053345,0.4325959086418152,0.0031940131448209286,0.8035644888877869,0.531936526298523,0.43032875657081604,0.029565732926130295,0.627694308757782,0.5373243689537048,0.4339159429073334,-0.014204554259777069,0.786271870136261
167,0.5203384160995483,0.34240493178367615,-0.04505852237343788,1.0,0.5211613774299622,0.3407040238380432,-0.04446127265691757,1.0,0.5217146277427673,0.3408314883708954,-0.04444053769111633,1.0,0.5222965478897095,0.3409581482410431,-0.04440271481871605,1.0,0.5196040272712708,0.3404020071029663,-0.04592984914779663,1.0,0.5190261602401733,0.3402235209941864,-0.045905258506536484,1.0,0.5184570550918579,0.34010037779808044,-0.045888371765613556,1.0,0.52289217710495,0.34241607785224915,-0.02876119688153267,1.0,0.5176228880882263,0.3414253890514374,-0.045000672340393066,1.0,0.5213189125061035,0.34516283869743347,-0.039337120950222015,1.0,0.519284188747406,0.3447379767894745,-0.04106387495994568,0.9999998807907104,0.5261908173561096,0.35245072841644287,-0.011476061306893826,0.9999226331710815,0.5136666297912598,0.35135701298713684,-0.04307248443365097,0.9996082186698914,0.5354276895523071,0.345363587141037,-0.026967208832502365,0.9961498975753784,0.5205894708633423,0.341434121131897,-0.0689060240983963,0.999871015548706,0.5364065170288086,0.3392748534679413,-0.03943296894431114,0.9826565980911255,0.5322560667991638,0.3377998471260071,-0.07979287207126617,0.9963175058364868,0.537103533744812,0.3381178677082062,-0.060734570026397705,0.9475975036621094,0.5345238447189331,0.33772581815719604,-0.08918113261461258,0.9781516194343567,0.5354689359664917,0.3376789391040802,-0.05606396868824959,0.9564741253852844,0.5359205603599548,0.33747196197509766,-0.08722981810569763,0.9772168397903442,0.5351953506469727,0.3388915956020355,-0.043548550456762314,0.9553021192550659,0.5346437096595764,0.3387543559074402,-0.0795924961566925,0.9737644791603088,0.5249180793762207,0.38911503553390503,0.008125701919198036,0.9999949932098389,0.5166463851928711,0.39069435000419617,-0.00808531790971756,0.9999831914901733,0.5317815542221069,0.395528644323349,-0.04537998512387276,0.999439537525177,0.5223971605300903,0.4042613208293915,-0.041940174996852875,0.9990801811218262,0.530999481678009,0.42600032687187195,-0.024538453668355942,0.9973932504653931,0.5278640985488892,0.4264463186264038,-0.011167321354150772,0.9926899075508118,0.5291019678115845,0.431073933839798,-0.023568326607346535,0.986214816570282,0.5278077721595764,0.42963358759880066,-0.009494047611951828,0.9464707374572754,0.5360044836997986,0.4345763921737671,-0.048638857901096344,0.9960416555404663,0.5331913232803345,0.435597687959671,-0.031069258227944374,0.9920905828475952
168,0.5223754644393921,0.3392230272293091,-0.03444818779826164,1.0,0.5224902629852295,0.3376120924949646,-0.03435106575489044,1.0,0.5225358009338379,0.33770567178726196,-0.03432180732488632,0.9999995231628418,0.5226158499717712,0.337798535823822,-0.034294456243515015,1.0,0.5222054123878479,0.3375743329524994,-0.03806808963418007,1.0,0.5220099687576294,0.33751195669174194,-0.03804255276918411,0.9999995231628418,0.5218063592910767,0.3374941945075989,-0.03803899139165878,1.0,0.5220905542373657,0.33954936265945435,-0.022118594497442245,0.9999998807907104,0.5210899114608765,0.3391323387622833,-0.03536400943994522,0.9999979734420776,0.522377610206604,0.3418840765953064,-0.028895657509565353,0.9999970197677612,0.521797239780426,0.3416973650455475,-0.034029699862003326,0.9999953508377075,0.5193197131156921,0.3487604260444641,-0.0018352484330534935,0.9999008178710938,0.520906388759613,0.34992706775665283,-0.042518846690654755,0.9990142583847046,0.5242937207221985,0.3413366973400116,0.003376821056008339,0.9180467128753662,0.5280636548995972,0.3432365953922272,-0.05449597164988518,0.9968269467353821,0.5273007154464722,0.3368607461452484,-0.014436876401305199,0.9286717176437378,0.5319115519523621,0.3372510075569153,-0.05424634739756584,0.9682465195655823,0.5279401540756226,0.33612576127052307,-0.020389355719089508,0.9110027551651001,0.5329315066337585,0.3361547291278839,-0.06098442152142525,0.9317355751991272,0.5272155404090881,0.33604860305786133,-0.023837370797991753,0.914208710193634,0.5323465466499329,0.33597463369369507,-0.06074501946568489,0.9268704056739807,0.5272982120513916,0.3367808163166046,-0.01666945032775402,0.9008775949478149,0.531654953956604,0.3370414674282074,-0.05449254438281059,0.918111264705658,0.5200520753860474,0.38945236802101135,0.01539359986782074,0.9999954700469971,0.5199621319770813,0.3906915783882141,-0.015359131619334221,0.9999876022338867,0.5299437642097473,0.4007261395454407,0.016545426100492477,0.9597129225730896,0.5297096967697144,0.4005822241306305,-0.023233875632286072,0.9978158473968506,0.5253297090530396,0.42364102602005005,0.04533669352531433,0.9725993275642395,0.5272656679153442,0.4244970679283142,0.0011142285075038671,0.9937918782234192,0.5225378274917603,0.42743295431137085,0.04758559912443161,0.9580821394920349,0.5253086686134338,0.42799466848373413,0.0032164789736270905,0.9692827463150024,0.5311577320098877,0.4305432438850403,0.036377307027578354,0.9738561511039734,0.5308765172958374,0.4333890676498413,-0.007936670444905758,0.9904174208641052
169
170
171
172
173
174
175
176
177
178
179
180
181
182
183
184
185
186
187
188
189
190
191
192
193
194
195
196
197
198
199
200
201
202
203
204
205
206
207
208
209
210
211
212
213
214
215
216
217
218
219
220
221
222
223
224
225
226
227
228
229
230
231
232
233
234
235
236
237
238
239
240
241
242
243
244
245
246
247
248
249
250
251
