frame,NOSE.x,NOSE.y,NOSE.z,NOSE.v,LEFT_EYE_INNER.x,LEFT_EYE_INNER.y,LEFT_EYE_INNER.z,LEFT_EYE_INNER.v,LEFT_EYE.x,LEFT_EYE.y,LEFT_EYE.z,LEFT_EYE.v,LEFT_EYE_OUTER.x,LEFT_EYE_OUTER.y,LEFT_EYE_OUTER.z,LEFT_EYE_OUTER.v,RIGHT_EYE_INNER.x,RIGHT_EYE_INNER.y,RIGHT_EYE_INNER.z,RIGHT_EYE_INNER.v,RIGHT_EYE.x,RIGHT_EYE.y,RIGHT_EYE.z,RIGHT_EYE.v,RIGHT_EYE_OUTER.x,RIGHT_EYE_OUTER.y,RIGHT_EYE_OUTER.z,RIGHT_EYE_OUTER.v,LEFT_EAR.x,LEFT_EAR.y,LEFT_EAR.z,LEFT_EAR.v,RIGHT_EAR.x,RIGHT_EAR.y,RIGHT_EAR.z,RIGHT_EAR.v,MOUTH_LEFT.x,MOUTH_LEFT.y,MOUTH_LEFT.z,MOUTH_LEFT.v,MOUTH_RIGHT.x,MOUTH_RIGHT.y,MOUTH_RIGHT.z,MOUTH_RIGHT.v,LEFT_SHOULDER.x,LEFT_SHOULDER.y,LEFT_SHOULDER.z,LEFT_SHOULDER.v,RIGHT_SHOULDER.x,RIGHT_SHOULDER.y,RIGHT_SHOULDER.z,RIGHT_SHOULDER.v,LEFT_ELBOW.x,LEFT_ELBOW.y,LEFT_ELBOW.z,LEFT_ELBOW.v,RIGHT_ELBOW.x,RIGHT_ELBOW.y,RIGHT_ELBOW.z,RIGHT_ELBOW.v,LEFT_WRIST.x,LEFT_WRIST.y,LEFT_WRIST.z,LEFT_WRIST.v,RIGHT_WRIST.x,RIGHT_WRIST.y,RIGHT_WRIST.z,RIGHT_WRIST.v,LEFT_PINKY.x,LEFT_PINKY.y,LEFT_PINKY.z,LEFT_PINKY.v,RIGHT_PINKY.x,RIGHT_PINKY.y,RIGHT_PINKY.z,RIGHT_PINKY.v,LEFT_INDEX.x,LEFT_INDEX.y,LEFT_INDEX.z,LEFT_INDEX.v,RIGHT_INDEX.x,RIGHT_INDEX.y,RIGHT_INDEX.z,RIGHT_INDEX.v,LEFT_THUMB.x,LEFT_THUMB.y,LEFT_THUMB.z,LEFT_THUMB.v,RIGHT_THUMB.x,RIGHT_THUMB.y,RIGHT_THUMB.z,RIGHT_THUMB.v,LEFT_HIP.x,LEFT_HIP.y,LEFT_HIP.z,LEFT_HIP.v,RIGHT_HIP.x,RIGHT_HIP.y,RIGHT_HIP.z,RIGHT_HIP.v,LEFT_KNEE.x,LEFT_KNEE.y,LEFT_KNEE.z,LEFT_KNEE.v,RIGHT_KNEE.x,RIGHT_KNEE.y,RIGHT_KNEE.z,RIGHT_KNEE.v,LEFT_ANKLE.x,LEFT_ANKLE.y,LEFT_ANKLE.z,LEFT_ANKLE.v,RIGHT_ANKLE.x,RIGHT_ANKLE.y,RIGHT_ANKLE.z,RIGHT_ANKLE.v,LEFT_HEEL.x,LEFT_HEEL.y,LEFT_HEEL.z,LEFT_HEEL.v,RIGHT_HEEL.x,RIGHT_HEEL.y,RIGHT_HEEL.z,RIGHT_HEEL.v,LEFT_FOOT_INDEX.x,LEFT_FOOT_INDEX.y,LEFT_FOOT_INDEX.z,LEFT_FOOT_INDEX.v,RIGHT_FOOT_INDEX.x,RIGHT_FOOT_INDEX.y,RIGHT_FOOT_INDEX.z,RIGHT_FOOT_INDEX.v
0,,,,,,,,,,,,,,,,,,,,,,,,,,,,,,,,,,,,,,,,,,,,,,,,,,,,,,,,,,,,,,,,,,,,,,,,,,,,,,,,,,,,,,,,,,,,,,,,,,,,,,,,,,,,,,,,,,,,,,,,,,,,,,,,,,,,
1,,,,,,,,,,,,,,,,,,,,,,,,,,,,,,,,,,,,,,,,,,,,,,,,,,,,,,,,,,,,,,,,,,,,,,,,,,,,,,,,,,,,,,,,,,,,,,,,,,,,,,,,,,,,,,,,,,,,,,,,,,,,,,,,,,,,
2,,,,,,,,,,,,,,,,,,,,,,,,,,,,,,,,,,,,,,,,,,,,,,,,,,,,,,,,,,,,,,,,,,,,,,,,,,,,,,,,,,,,,,,,,,,,,,,,,,,,,,,,,,,,,,,,,,,,,,,,,,,,,,,,,,,,
3,-0.32381920697581257,0.49985517712443245,0.377513720681251,0.9959266004167939,-0.38747669654560035,0.4710192983073523,0.3857627873323744,0.9953071026737423,-0.3837967353632736,0.4646532527663136,0.3850234551580376,1.0320573530964956,-0.36953237077274065,0.4494257750957357,0.3251618504539676,1.0239724831016825,-0.4143777405781781,0.4819271304809885,0.39816001921158345,1.0008928797680186,-0.41870602011303926,0.4804677709990076,0.4275976899405515,0.966403709520399,-0.38491230431360507,0.46249805524186804,0.3644797967031965,1.0069415308888447,-0.41038389562614896,0.4844993690134372,0.36134693666233625,1.035583099993057,-0.4796632810726307,0.5226751454501141,0.443227602275769,1.0233223298183443,-0.40730133764275966,0.41941792176502574,0.391761302644289,0.9821148851137254,-0.4122242181657093,0.44422495315599253,0.35799557717055963,0.9715761440988517,-0.3266453793543564,0.43379482733685226,0.30500138543540445,0.9726181053365057,-0.4251964392989143,0.5637955990242769,0.40069776309500843,0.977133933278094,-0.3386133719477592,0.43951725990966256,0.25473262766474647,0.9952848787643802,-0.5599184360911932,0.6319663946489735,0.46790984153760545,0.9615765232006829,-0.4301637562271271,0.3815441095969503,0.39656254753157283,0.9942822082211793,-0.581476781695027,0.7261368964785619,0.5530049428504278,0.6694957291233221,-0.4771563554659429,0.3570743506009457,0.4146387698916917,1.0016438660283853,-0.5845139378362061,0.7351588627267004,0.6157323206210793,0.6231880075995453,-0.43764138288249355,0.3947248916688005,0.47698454236929366,0.9670685949850334,-0.591108774102215,0.7379763361588642,0.656038650064164,0.5916090532982154,-0.3742821239658629,0.36488662015194084,0.39724431513753433,0.940919350159757,-0.543605423002391,0.6584975339858581,0.594086772031791,0.37671103847091447,0.1450735665350513,0.5505117717150505,-0.06617763812217334,1.031008534758068,-0.12318914005206621,0.5912360576426601,0.05301041028915288,1.0442981414333308,0.10997285098138088,0.6117855017917618,-0.17685429890782925,0.020549568040267915,-0.08640991804004267,0.6739662727260076,0.08926433799257112,0.8818471961512457,0.218805804494759,0.6777973982489695,-0.2808815530837192,0.22773127728377418,0.1198917897872713,0.689441904688865,-0.10950433092832274,0.4683639031310662,0.2612801661459443,0.6042070812084019,-0.21903299919333752,0.4673650614074016,0.0464067975451999,0.6786632594503632,-0.08536941210654475,0.5025547019040799,0.1750522801113152,0.6600500037189554,-0.1718343478316536,0.4201104195132082,-0.007728253513250041,0.6959397617660033,-0.07131211441044669,0.5169148112348616
4,-0.2990020361913618,0.5003658995231904,0.3532917932178191,0.9959266004167939,-0.3607824235608336,0.4711926584166815,0.3597075216298724,0.9953071026737423,-0.356967920279877,0.4652809492804432,0.3588364516442565,1.032006808357726,-0.34260144887703065,0.45059456257513636,0.2988748050520213,1.0239724831016825,-0.37849828115980916,0.4821727612221079,0.3631387793028022,1.0008928797680186,-0.38274866922685385,0.4810127958708338,0.3925003499030172,0.9663181172505013,-0.3490077708041948,0.46329872443513587,0.32943396580222367,1.0069415308888447,-0.40227510859608745,0.4893638828874912,0.35343211707425354,1.0354784342368315,-0.3945922678711168,0.5288916714816081,0.3601858873448141,1.0230689504734043,-0.382807595027568,0.4219301681353413,0.36785286004644546,0.9819823243837451,-0.3546515581865321,0.4460816378407459,0.3017982204647102,0.9711383479829765,-0.31649656307612,0.44064989792782516,0.295091989103628,0.9726125024998967,-0.27444703850390473,0.5844205942559053,0.25353672510458486,0.9760937130174739,-0.2939879423694405,0.4578996005792945,0.2111651267235207,0.9366705055572879,-0.33347866892749845,0.655073386893694,0.24686835658508338,0.8107769507328789,-0.29452692926610435,0.4035268390319173,0.26414093675022365,0.8085517509152712,-0.31368193408586614,0.7386831973666235,0.29159432375132627,0.43315928927537595,-0.32417594806830996,0.3765506749207852,0.2652837579912117,0.7687557634969522,-0.2886260705386096,0.749353887693894,0.3268987826930111,0.43034218621893,-0.27151933265878503,0.42002333808565534,0.3148001988485727,0.7486584606695427,-0.2900614272709587,0.7508601781502887,0.36216916054172515,0.42555963246462775,-0.22917489895447804,0.38881961356395867,0.2555747600331906,0.5734071240550208,-0.2696687489754558,0.6687775470702697,0.3266820745012366,0.26963734400336986,0.08345061454765276,0.5677827539805229,-0.006017896560803523,1.0309877923416861,-0.06154646670428184,0.6167640713488673,-0.0071606438397054575,1.044109611941906,0.09395731833395393,0.5676965420978531,-0.1611940979912792,0.2807417052518291,0.06561738955965032,0.6438877424144231,-0.05911802783176683,0.5593066745295416,0.2623105075094591,0.6704061242735971,-0.3232806317424238,0.6872735219565494,0.32113121745191986,0.6798010322103799,-0.3058885547606138,0.612731478776513,0.31611584343151805,0.6089964932300389,-0.2724892489305181,0.8953743032267832,0.2538913901029967,0.6726726350225678,-0.28784561204945835,0.6965093484914517,0.2764467572807872,0.6437228610035013,-0.27072630557698063,0.5132796914591615,0.24183419610056997,0.7069608990035521,-0.31485024916396237,0.4634499813131392
5,-0.2909355388805077,0.49393667431681526,0.3454166560305247,0.9959266004167939,-0.3667366727665442,0.4687616233748725,0.36552020150431336,0.9953071026737423,-0.3629846102008202,0.463460951254549,0.36471045725383283,1.0320573530964956,-0.3486423822904902,0.44939215807608235,0.3047728332311749,1.0239724831016825,-0.382043500867449,0.4779928662979441,0.3665991036250692,1.0008928797680186,-0.3863049471372422,0.47615689486794993,0.39597126656407294,0.966403709520399,-0.352406576426951,0.4576661451085062,0.332750959614086,1.0069415308888447,-0.4045279448029565,0.48999649678481483,0.35563302437778366,1.035583099993057,-0.4134824861329014,0.522914517703532,0.37862470218870536,1.0233224490276338,-0.3760019535466229,0.4157717268301807,0.3612092285026449,0.9821140506486987,-0.36239903116808875,0.4393100733571033,0.3093595940973625,0.9715732830759025,-0.30647991779183814,0.44455313789326406,0.28531820819882675,0.9726177477086371,-0.29900862253505983,0.5752526846337129,0.2775065224093798,0.9761821663103207,-0.30790676145386164,0.45600947768882205,0.22475596332775152,0.9584405656196966,-0.3781950733990611,0.6476127331118031,0.2904981329289173,0.9287018197933953,-0.32862267554713137,0.3945434653899495,0.29743553899010583,0.8527516348531069,-0.4122026805206311,0.7415892814272924,0.38771323730142165,0.6828552757846991,-0.36830115485727827,0.36903926778386803,0.30837016993637817,0.827583342518406,-0.40967076495973787,0.7541396042275549,0.4449992567811194,0.6434906013075836,-0.3197577788736675,0.40855331826830305,0.3619012819984228,0.7616030397939934,-0.40270827569882106,0.7567291494980976,0.472070395454277,0.5932731553756996,-0.2655610163072855,0.37425498019451287,0.29110529535611884,0.5831752524501014,-0.36789871717950523,0.673400483319049,0.42251222951871736,0.37062921893661266,0.07372462294142267,0.555186921632653,0.0034751520965615873,1.0309091142105826,-0.05135348134747755,0.6060676602160548,-0.017112590244421053,1.0422772459522212,0.0784772331491663,0.5069642072456344,-0.1460561925224053,0.11456228668798642,0.09826750179220767,0.686015828504511,-0.09099924415336513,0.2670130216374288,0.17512653416712348,0.499413124004661,-0.2381424953582173,0.08793988549386098,0.39333190598207646,0.6647823306570352,-0.37639055427774504,-0.009062195528568386,0.22282588841621012,0.4278866773940861,-0.1813855397058195,0.3150700978091502,0.3351446035029956,0.6539424118437043,-0.36718535863629753,0.1939977577722287,0.22811709879680542,0.4193254997249673,-0.223522497252286,0.0925254301442926,0.37346439033517254,0.6610414210639464,-0.4433741158369162,0.023532316338211217
6,-0.5053196679078273,0.49347587080805677,0.5546822588184264,0.9959266004167939,-0.5793080692339252,0.4685959820670416,0.5730171612279643,0.9953071026737423,-0.575561886992928,0.4619173399664784,0.572213379239076,1.0320573530964956,-0.5611597575272171,0.44653697638205164,0.5122175262376715,1.0239724831016825,-0.5909112408959195,0.4820857086384134,0.5704803723536375,1.0008928797680186,-0.5951268575597399,0.4818402573519282,0.5998077177370482,0.966403709520399,-0.5611090052843449,0.46497772767381385,0.5364706738483794,1.0069415308888447,-0.5933953175067627,0.4842910805822696,0.5399932800583269,1.035583099993057,-0.5827091745970924,0.5307796188025462,0.5438118732229058,1.0233224490276338,-0.5803513339950699,0.4104849438502155,0.56068051384986,0.9821151235323047,-0.5623213529716127,0.4377608294301014,0.5045088927658484,0.9715770977731681,-0.4863356537810969,0.43513447153050155,0.4608820669388109,0.9726210855687445,-0.4045052131888838,0.5824990001129915,0.3804900902250897,0.9742074644289119,-0.4560581338713092,0.4640770855684607,0.3693709092089428,0.9901113148071659,-0.44470985624901177,0.6591520731310292,0.355424661055612,0.8970827478329462,-0.44259689615685666,0.4200482928893392,0.40868665031784324,0.9306145532300295,-0.4680739538961953,0.7425706719035192,0.4422674236672687,0.4541113351928868,-0.48107230079138125,0.39549762058805205,0.41844469233912107,0.8980278072019388,-0.4693332385623075,0.756015481607926,0.5032545398004765,0.38347982240362233,-0.4292890429000317,0.4347616593899766,0.46881500330519654,0.8501705947447075,-0.46376703748706666,0.7541461226121112,0.5316879972825997,0.32771652190325684,-0.3775174778609077,0.4048921848415771,0.4003876551400759,0.6545282707339454,-0.4244255816591625,0.6697384931533386,0.4777058638435778,0.13227835071151506,0.04490733725586561,0.5416109505060966,0.0316038125703613,1.0310099652695426,-0.022216384243517247,0.5980505374705409,-0.04555879981989671,1.0442704848781548,0.03490936406838852,0.4865633254783615,-0.10351937001167791,0.3772249954472942,0.28078346330929255,0.6460281452083074,-0.26914574831255617,0.1035089985325227,0.20721891340849538,0.4741837593711008,-0.2694466210908788,0.43575607710753517,0.7019736320825669,0.6579668375501931,-0.6776628738068983,-0.009848943311990883,0.2613953532307173,0.4067773646213352,-0.21901140481450138,0.6896770647815013,0.6538985733792972,0.6528622564710846,-0.6783293105726054,0.1109865478074765,0.21647010173784992,0.3758652200218271,-0.21212638524860572,0.23846372974060231,0.6444368918251641,0.6554279748282896,-0.7078754100422866,0.025569599371343812
7,,,,,,,,,,,,,,,,,,,,,,,,,,,,,,,,,,,,,,,,,,,,,,,,,,,,,,,,,,,,,,,,,,,,,,,,,,,,,,,,,,,,,,,,,,,,,,,,,,,,,,,,,,,,,,,,,,,,,,,,,,,,,,,,,,,,
8,,,,,,,,,,,,,,,,,,,,,,,,,,,,,,,,,,,,,,,,,,,,,,,,,,,,,,,,,,,,,,,,,,,,,,,,,,,,,,,,,,,,,,,,,,,,,,,,,,,,,,,,,,,,,,,,,,,,,,,,,,,,,,,,,,,,
9,-0.3636956742665286,0.49190504999964607,0.41644439489018387,0.9959266004167939,-0.43999957834841613,0.465125382415705,0.43703840700207486,0.9953071026737423,-0.43620464018360006,0.4593328229643726,0.436186655822605,1.0320573530964956,-0.42188158049007135,0.4447551551311361,0.3762676125156107,1.0239724831016825,-0.44916054464917543,0.4762671628200846,0.43211813741216143,1.0008928797680186,-0.45339260041720436,0.4750397250109248,0.4614617017393769,0.966403709520399,-0.41945901705348093,0.4571566744072886,0.39820712171394784,1.0069415308888447,-0.4712430518393484,0.4839508870722141,0.42075880137585614,1.035583099993057,-0.4572346892580992,0.5234479196696269,0.42133626665907925,1.0233223298183443,-0.44643828152775933,0.411563936932262,0.4299677624313393,0.9821145274858569,-0.4271311124351754,0.4362341160588245,0.3725504737884587,0.9715759056802725,-0.38511627352544386,0.44932723152119375,0.36208337894502635,0.9726178669179267,-0.29301626547905524,0.5701213207649996,0.2716542108146153,0.9772695338449581,-0.3652626229847985,0.45464503796294625,0.2807552262485696,0.99218144372486,-0.31222033696377827,0.6506420199732228,0.22607455222914064,0.9669764655987542,-0.350553162004943,0.3724807167193715,0.3188512866760136,0.9580650551488221,-0.2852652903825242,0.7336832617396398,0.26379237980432696,0.8024559294330755,-0.3847223466415874,0.34193578410695763,0.32440664285787846,0.9414235648771095,-0.2622810922571713,0.7487173696923376,0.30111362268072345,0.8128055818144806,-0.3301361021114391,0.37957717586183937,0.37203913628244617,0.9004433575201286,-0.25901455732664663,0.7464006182328388,0.33179367234777546,0.7892008349144264,-0.2825965589720577,0.3455276871799865,0.30774168133026253,0.7955417142039466,-0.23823253206902764,0.6630295731513549,0.29592911813930967,0.622619418025663,0.026503202670801314,0.555490786111718,0.049572907970927546,1.030986242620922,-0.004397390336094695,0.5892138508593654,-0.06295318643410484,1.0440883926883662,0.03565290489233525,0.4583700006740555,-0.10424957076839347,0.3960567253362103,0.15230573567248368,0.5613492568873846,-0.14372647793389826,0.2127530061497579,0.18433996682583212,0.4820909413493265,-0.24712148773201606,0.34420238905821876,0.40410397312090585,0.5558588358412088,-0.38686478596665946,0.14556328174072342,0.23852534893288246,0.4177401787139713,-0.19669682927865728,0.6670601419261241,0.33979659967302983,0.550277179185318,-0.3716835238413625,0.41318120274903525,0.20024784608067617,0.3973516513820718,-0.1962964921589165,0.1445902736201112,0.3380335087907279,0.5392735425315367,-0.40873781559080835,0.13701283584156632
10,-0.46313699698124466,0.49382011743395704,0.5135120624531829,0.9959266004167939,-0.5369948428372784,0.4699303214473059,0.5317185973878769,0.9953071026737423,-0.533242671847133,0.4634771637179279,0.530908887303111,1.0320571146779165,-0.5188517870820977,0.44832806615522974,0.47092394581494007,1.0239724831016825,-0.5464329902531461,0.4822345414364176,0.5270686213702058,1.0008928797680186,-0.5506641202033901,0.481703643506103,0.5564110824633737,0.9664027558460826,-0.5166893675427742,0.46449013187722876,0.4931160995087687,1.0069415308888447,-0.5558355806561188,0.4853716531874027,0.5033340415094463,1.0355823847373198,-0.5402324772057605,0.5300925858645428,0.502352937232847,1.0233176806560518,-0.541957507593511,0.4099354784323536,0.5232084558436327,0.9821107127885913,-0.5217741424166666,0.4365364308171253,0.4649349263211386,0.9715441960092521,-0.4615954237724964,0.43032711851078725,0.4367373250457303,0.9726158403600043,-0.3641142239156851,0.572923513929825,0.3410658576894671,0.9696908628664119,-0.46198132625514987,0.431733548953089,0.3751620221805098,0.9255014295914066,-0.37368051023593296,0.6349190895418568,0.2860920340980989,0.4055384713570397,-0.4717171435826726,0.367882516398174,0.43712188836269794,0.6898071987798037,-0.3481907956022167,0.7126300071353002,0.32524511318368,0.11388411871072443,-0.5107919693604734,0.3389991228635189,0.4474654003018647,0.6293980178495218,-0.33414974123792396,0.7258324047494055,0.37129316246260213,0.15938122195644444,-0.45189682452852853,0.38293732810640724,0.4908923759355954,0.5646156492758049,-0.32747235416120724,0.7235246535912677,0.3986441582849618,0.12135661391852323,-0.402088564329008,0.3498931015610137,0.4243807819706341,0.27195225216209173,-0.30161170524801123,0.6386909701316406,0.35782380330601604,0.024534796894242854,0.03874025766796731,0.5225320997599419,0.03762906452756727,1.0310011437821158,-0.016718935111668644,0.5722448853289699,-0.05091832404682922,1.0437382750049555,0.012432262153595719,0.4580777889030441,-0.0815724928939534,0.2012720244656963,0.24522733545474124,0.6164359887980901,-0.23442456276326412,0.0581121257364045,0.13463611895916172,0.462623915354072,-0.19859232796452977,0.5029769735900028,0.6367681952685003,0.6454591604719461,-0.6139904039101474,0.012222483422337414,0.18438513445292148,0.3977570659019291,-0.14383666818683338,0.6632531336596751,0.5813837187434472,0.6410318073667756,-0.607520899527087,0.10361154590012778,0.09173096184351169,0.3759842206951211,-0.09035537628202629,0.2181146444096391,0.5337009254974088,0.6560771886191832,-0.5997518502940098,0.023074537765175016
11,-0.1912156575035687,0.49202306719630134,0.24807534014918423,0.9959266004167939,-0.27580474730732957,0.4664553706569007,0.2767569589636221,0.9953071026737423,-0.271969430629749,0.4611341945387745,0.2758655392382323,1.0320573530964956,-0.25744615001970267,0.4471250954120504,0.21575081387778447,1.0239724831016825,-0.28201943237031707,0.4769624211990671,0.2689615146534296,1.0008928797680186,-0.2863476293645768,0.4757701203280024,0.29839914500068476,0.966403709520399,-0.25261246185335784,0.45791252090768525,0.23533846283163223,1.0069415308888447,-0.36529274203946793,0.48981458340896034,0.3173324861981164,1.035583099993057,-0.3322801502072278,0.5268438645033824,0.2993609151322036,1.0233224490276338,-0.2955921297429459,0.4159414510561787,0.28271637267933325,0.9821151235323047,-0.26970234028246487,0.4392645056061726,0.2188744719656422,0.9715769785638785,-0.30272320963417065,0.4453446279712365,0.2816473607767585,0.9726092838490791,-0.22479945887930944,0.5830899205612947,0.20506933636245012,0.9768939053735836,-0.24464825182225133,0.44634258778289254,0.16300957748991773,0.9911078448631658,-0.20587693586544178,0.6459212128977223,0.12227530074002038,0.9772802609364312,-0.17916531393796883,0.3742145860335653,0.15150750357263537,0.8991832955052675,-0.16441395274648352,0.7293396924609228,0.14581964734993882,0.9596956049549261,-0.19238103273196638,0.3423551027829525,0.13660481242211622,0.9084933695455362,-0.13952690459131484,0.7442220469880224,0.1812825339391142,1.034898329502774,-0.13309742439583228,0.39124281812334455,0.17964945891447048,0.8716873946714653,-0.13749035958282663,0.7459340926781818,0.21315984558501636,1.019338779135923,-0.10548105583704617,0.3587960685371795,0.13480125736356852,0.7727129564410377,-0.11952994415517912,0.6614101745574523,0.18004867629389795,0.9746903456455972,0.03707253831144591,0.519908213889962,0.03925514878233444,1.0310042432236441,-0.015273673559917239,0.5803877738749599,-0.05232292683733173,1.0441747598186457,-0.013930686179738992,0.4600534444587692,-0.05584193855558636,0.9687055783997937,0.19447077537894972,0.6768315276050054,-0.18488182052151728,1.0195070438876044,0.06489131823913336,0.4456200215018381,-0.13051239965107697,0.9895765381423101,0.5281062638464804,0.7230029555807412,-0.5079193496489655,0.9313132983108148,0.11298764971268661,0.3761128014423191,-0.0741440217947523,1.0239142826846386,0.47258222223558105,0.7151205596365204,-0.5013128920366986,0.9451060763395046,0.04882127682584142,0.3572333445068429,-0.04846614090633976,0.9955417664065188,0.4814624258212799,0.7509961549125181,-0.5487595449950281,0.9463858271650373
12,-0.2695508460577857,0.48687468620150465,0.3245449099338435,0.9959266004167939,-0.3503400930158777,0.4614121322554877,0.3495166479113673,0.9953071026737423,-0.3465639967054395,0.4552468947626972,0.3486832150819799,1.0320573530964956,-0.33209107074672595,0.44041847018889063,0.2886178121048159,1.0239724831016825,-0.36160057869875367,0.4730601051056223,0.34664642927453687,1.0008928797680186,-0.3658146102298302,0.4719961926394038,0.37597248561940355,0.966403709520399,-0.3319217024611755,0.4542926116211863,0.31275767801651444,1.0069415308888447,-0.4168223137146768,0.48097137008918184,0.3676357799799318,1.035583099993057,-0.40349136422088133,0.5211605616240489,0.36887573740965957,1.0233224490276338,-0.365960402613005,0.4075364510847889,0.35140998564667625,0.9821151235323047,-0.3473520582844622,0.4328346545510273,0.2946752823460011,0.9715769785638785,-0.34171133883278665,0.43627771841961593,0.31971108739043513,0.9726198934758491,-0.300518491218511,0.5721240964340975,0.2789882147733778,0.9771919882021053,-0.3166066597678072,0.44069200785354073,0.23325131475476527,0.9923402304985418,-0.29099989037429236,0.6337457721094533,0.20538638228217312,0.9050179737965385,-0.24747960044499567,0.3680817449233358,0.2182285984142289,0.988403044479114,-0.23996932828558337,0.7228631709689184,0.21961519287914255,0.7570002352344671,-0.19523223880042928,0.3388217394406674,0.1394293461731915,0.9983606037755776,-0.21584415188122935,0.7364069839882971,0.25582672316478033,0.7356184609000214,-0.22336591742604867,0.38140992928171547,0.267808481171647,0.9610787454176202,-0.21273755402156336,0.7404499885216876,0.28666166184614034,0.6899433657371803,-0.17469198139163988,0.3469133461594024,0.2024034016273051,0.9178372726565527,-0.19367723600770453,0.6559414483993102,0.25247535882350436,0.49739071500365983,0.06517027270638964,0.5042904856566245,0.011834351471087155,1.0310080579209098,-0.04384849560601421,0.5690423873698329,-0.024427868373908725,1.0441983632579768,0.009679059310913875,0.4520682101982101,-0.07888479645802675,0.895969613147871,0.16331430939297023,0.6619447907351934,-0.15447427513100198,0.6853772931589972,0.13364174287548652,0.4484264167941202,-0.1976223487278101,0.9434664445487124,0.4859130021476159,0.719040498400718,-0.46673792990134094,0.6639446240325555,0.18362856348074805,0.3785174316264927,-0.14309926251086802,0.9851136258891366,0.42878475945231104,0.7134454903043976,-0.4585648229869969,0.8821988574063993,0.11263278687379563,0.3659766306396554,-0.1107545522125171,0.9131263644709412,0.4196161094026807,0.7481828156791197,-0.48839436180372503,0.7342544461301863
13,-0.29182732122928623,0.4911447629532136,0.34629000978698987,0.9959266004167939,-0.4203430587183501,0.4645727579516699,0.417850935221555,0.9953071026737423,-0.4166827877234152,0.4571716479517841,0.4171308685142833,1.0320573530964956,-0.40199457298505475,0.44121174840620625,0.35685561098022484,1.0239724831016825,-0.43074580917784366,0.4798595645630197,0.4141425592388454,1.0008928797680186,-0.4349667027389279,0.4801194116526179,0.44347496867215597,0.966403709520399,-0.4011528183310152,0.46370630099610993,0.38033697071469025,1.0069415308888447,-0.5239694834893046,0.4812802413584079,0.47222927228510997,1.035583099993057,-0.5081975792331834,0.5321175642638194,0.471083770231123,1.0233224490276338,-0.4363547110324836,0.4096536676718555,0.4201256176965932,0.9821148851137254,-0.4150093351512064,0.4391329283528309,0.36071811365786877,0.9715763825174308,-0.4398718253598889,0.43898907410580373,0.41553163627532813,0.9726082109654731,-0.3870113855903365,0.581813427488785,0.36341749870823253,0.9771354829988583,-0.41938681762393004,0.44137337835029056,0.33357864877587645,0.9952676530220401,-0.384198820023621,0.6512949888567372,0.2963570779923258,0.9632744807163993,-0.4215178712402099,0.374333795323116,0.38811319632431024,0.9903390033414186,-0.32115934339918356,0.737025830613999,0.2988545147447802,0.8881641303646246,-0.45525667958201105,0.3438304965550778,0.39324941820654535,0.9993213114400675,-0.3091287614436795,0.7512861510682226,0.34686914625014525,0.9158728606764801,-0.4144866495978842,0.38979007411623395,0.4543675780162723,0.9626427712965262,-0.31153261960868117,0.7525976535454914,0.3830842538634631,0.889235429450254,-0.3563709827963802,0.35515967856640007,0.3797458023762537,0.9217973456507851,-0.2789804396771141,0.6671277501075317,0.3357301367345704,0.7632519878155495,0.057525824753684396,0.5154502334955985,0.019296550839766093,1.0310093692230948,-0.03613652936874996,0.5745075372492885,-0.031955855785202505,1.0442710809246027,0.10916285934291717,0.4527338748710617,-0.17600195659422338,0.8987367587815686,0.24351254385457832,0.6625879844569647,-0.23276318624388498,0.7395135097994696,0.2969968264863262,0.45339893428450717,-0.35708608436393474,0.8853805857268436,0.6552278290627965,0.6961595865736306,-0.6320168456288885,0.4000643115897759,0.35529207761355824,0.3830830580093204,-0.3106745103480318,0.9364879778674386,0.6090009987390579,0.6859181579984894,-0.6344867337353707,0.7785292736089444,0.3008063307599279,0.373319267224891,-0.29444422853527336,0.8486419470324342,0.6253162762397303,0.7238853398643004,-0.6891877487094747,0.5372397566846907
14,-0.2591665027394019,0.48530547471850294,0.3144119090231649,0.9959266004167939,-0.34965603583842253,0.4585513775271704,0.3488526569170634,0.9953071026737423,-0.345924268049661,0.4516968123175526,0.3480624939239508,1.0320573530964956,-0.33155529579144216,0.4362671258895742,0.28809858664352184,1.0239724831016825,-0.35505502891482016,0.4721984901630716,0.34026050604940494,1.0008928797680186,-0.3592856078982192,0.4722833082132868,0.36960245354882265,0.966403709520399,-0.3254893996946127,0.45575450494126984,0.306481779967979,1.0069415308888447,-0.45028432643382155,0.47759411131156343,0.40030256916574225,1.035583099993057,-0.4147551760899997,0.5244689770369518,0.3798729440024633,1.0233224490276338,-0.3667661340293459,0.40570244596737254,0.35219970709230775,0.9821151235323047,-0.34089307658529183,0.4338880474381428,0.28837316784134426,0.9715770977731681,-0.37602946429528306,0.43618217217404104,0.35321191744323066,0.9726135753835027,-0.33084683410547244,0.5791381922173311,0.3085922223047706,0.9773244893274411,-0.3921310379481927,0.44172373445228036,0.30697156345387355,0.9945991273262393,-0.33650111528737536,0.6339301888803883,0.24978889635743856,0.9728442448536675,-0.3949656505521548,0.3756687307498281,0.36218634128128685,0.9543095452954592,-0.25635557689822286,0.7080051039332433,0.23558137744444604,0.9353539024936833,-0.4091368199428217,0.3449201290662167,0.34821854203958014,0.9426918921132852,-0.24474890676378963,0.7194846888947607,0.2840092121861571,0.9872816093031889,-0.4022984733540495,0.39777119565630353,0.4424598251814459,0.9045046392011894,-0.2422301853781919,0.721578621543996,0.31541931390574063,0.9659587070190712,-0.3202893449340527,0.3642456019997039,0.34451602987753605,0.7984678254252601,-0.21374220229530813,0.6374203183143188,0.272032473897706,0.882175413489988,0.05925736615137818,0.5015437248114402,0.017605429242476593,1.0310102036881215,-0.037856912457794344,0.5625423220431423,-0.030277197292105082,1.04430100245628,0.13186462325246187,0.4449085002677902,-0.19816104104779034,0.960931463791029,0.2271081714389961,0.6763638099574529,-0.21675032806400552,0.9807439380183112,0.2789438190119242,0.451611450592338,-0.3394660120913988,0.9795389371481998,0.6073995112526696,0.7225074621687234,-0.5853344401575188,0.7859162908454522,0.3335136779638008,0.38369373739736673,-0.2894167168094798,1.0049317530444406,0.5581054695368861,0.7142708358206025,-0.5848104943884503,0.8864106408155178,0.2787057140830992,0.37045723099671113,-0.272876417318175,0.9789948017611328,0.5718839097953982,0.7527549091659056,-0.6370404892448056,0.8420453930906355
15,-0.3387587994382788,0.48436884733050245,0.3920988196882922,0.9959266004167939,-0.42478076223662464,0.4515208606643012,0.42218065643596114,0.9953071026737423,-0.42097256482181844,0.4430538706042194,0.42131536035458034,1.0320573530964956,-0.40656264985746515,0.42608063249281514,0.36131099506408704,1.0239724831016825,-0.43241441324244,0.4692961015903787,0.4157715352960485,1.0008928797680186,-0.4366894738334644,0.4707554027491145,0.44515774066964,0.966403709520399,-0.40287077580831937,0.45552633836106965,0.38201594099255004,1.0069415308888447,-0.49736695420168964,0.4637712577463474,0.446257062351997,1.035583099993057,-0.4545366879823623,0.5258169062762248,0.4187064826593292,1.0233224490276338,-0.4322720468391913,0.4045293371512257,0.4161349688163194,0.9821151235323047,-0.41004772137623097,0.4373295302205067,0.355872119437805,0.9715772169824577,-0.36640642372999555,0.42724409806210256,0.34380820647191496,0.9726101183141059,-0.3541878882832078,0.5803518023896028,0.33137737878155477,0.9772685801706416,-0.2399145183547449,0.45939371020987924,0.15836333985237724,0.8891187544205081,-0.32824509188671147,0.6491839115480824,0.2417313877242257,0.9714576620022577,-0.17700039615012486,0.44875341297600907,0.14936916304668893,0.3905590398480715,-0.27795985122824074,0.7184464071864172,0.2566587504429717,0.9418617164241949,-0.19799090713035528,0.4311116938645718,0.1420507669308272,0.4008936581273843,-0.27351207669166094,0.7336690446305395,0.3120731512723972,1.005104411369992,-0.16314876027497627,0.49504621434832013,0.20895858327228112,0.37154830723288185,-0.28651024793775176,0.7302072283402606,0.35862762200303017,0.9864102527344032,-0.11559112772825506,0.45694575558895256,0.14464901354914608,0.22021366216003174,-0.23515753167036305,0.6431427814452697,0.2929211067979262,0.920599726558378,0.06662716252501075,0.5028988364104087,0.010407339533766855,1.0310103228974112,-0.04481929144895222,0.5676812557017421,-0.023483296074182855,1.0443033866420708,0.07863401370904463,0.4563367074268326,-0.14620554680004447,0.967204852653639,0.25455649702732086,0.6733447154902898,-0.24354765507077925,0.9526399903788458,0.24873485424945097,0.4393172177470316,-0.309973341595455,0.9876882033911808,0.7327582809626002,0.700190469885856,-0.70772739360971,0.7808006626029595,0.30763052337529756,0.3638445562221348,-0.26414700721700696,1.016184394722297,0.6908836920741224,0.6918667015470734,-0.7144474270959538,0.8007091156041837,0.24536881292358215,0.3564650406356881,-0.2403263732662359,0.9871373326792543,0.68374748289847,0.7350289050422179,-0.746263625621906,0.709446933370024
16,-0.24713863047674048,0.48733969183771986,0.30266568675917377,0.9959266004167939,-0.3321807478058552,0.4584597353858283,0.3317898678408808,0.9953071026737423,-0.32839224841782927,0.451692461178484,0.33094428538465587,1.0320573530964956,-0.3139772223937677,0.4363424661605703,0.2709353912277673,1.0239724831016825,-0.34037143998206765,0.4713186958038645,0.325922938276813,1.0008928797680186,-0.3446305572354219,0.4707429453783564,0.3552928395613674,0.966403709520399,-0.3108103134494492,0.45358614756898596,0.2921488000114386,1.0069415308888447,-0.4120593726204208,0.47384697591079133,0.3629850794488484,1.035583099993057,-0.3902656766357877,0.5183967240481364,0.35596394129142156,1.0233224490276338,-0.3468108800075287,0.4068066816164814,0.33271472294619786,0.9821151235323047,-0.3247821663809944,0.4334476883225422,0.27264103555012276,0.9715772169824577,-0.3181052904115038,0.43179774391133047,0.2966616036667361,0.9726134561742131,-0.2912765958805771,0.5653274979996492,0.2699632657465581,0.9773933922968013,-0.25943705084113977,0.4522022608061164,0.17742849613721823,0.974321269545783,-0.2741749774172074,0.6243935649256154,0.18894630099260964,0.9752459544102471,-0.21157650552082163,0.41309338451836747,0.18312502889036322,0.8054452760388674,-0.21811748186398358,0.7061198686236425,0.19824545085527054,0.9510941778766789,-0.22437604678805795,0.38880419779371,0.1678270986680798,0.7999598083158304,-0.2030655890662203,0.7201400419640661,0.24330916500142832,1.0211920626227384,-0.179825268266823,0.46171142268801124,0.22525763070764132,0.7739822688627495,-0.20378071867859357,0.7236056563035175,0.27787365373998096,1.0042635127746864,-0.14653680518280268,0.42151749979252007,0.17487011049307216,0.6292453513270545,-0.17498302927385112,0.6380911685912658,0.23418408755399606,0.9477459467655922,0.058511718335828106,0.49571597007549356,0.01833114048609691,1.0310103228974112,-0.036985488793614754,0.5510128167903041,-0.031127547335371528,1.0443064860835993,0.07734614457328065,0.4356584554450973,-0.14495220016799576,0.9690264898072644,0.262809710233337,0.650226159944483,-0.25160157477422745,1.0339821510805975,0.21241965848391953,0.43920948235160007,-0.2745302036965085,0.9909157353011234,0.6880449633377912,0.702256903315574,-0.6640629353816874,0.9526990276237115,0.26701492444579367,0.3698488897182285,-0.22450681891724233,1.0252667120745922,0.6451785287293341,0.693969076577591,-0.6698136758436372,0.9466877451932646,0.21367954185816726,0.358594416570289,-0.20939781080335695,1.0005169065012758,0.6548765559794866,0.7360723439536558,-0.7180594677175676,0.9672879243902265
17,-0.33389650723781705,0.48675452323763746,0.38734855827215686,0.9959266004167939,-0.4177174986695202,0.4573237602633765,0.41528189996798315,0.9953071026737423,-0.41392859356178063,0.4505362800814533,0.4144356738364754,1.0320573530964956,-0.3994505612669537,0.43547429470709437,0.3543650458535769,1.0239724831016825,-0.42902393764045027,0.4710792639458017,0.4124574210111017,1.0008928797680186,-0.4333594655439448,0.4709036693029932,0.44190243149742586,0.966403709520399,-0.39955359940886115,0.45416154100732514,0.3787729517066325,1.0069415308888447,-0.47496920648018753,0.47247913872016334,0.42439008245395554,1.035583099993057,-0.4684672187767299,0.5196447857050884,0.43229911523470554,1.0233224490276338,-0.4244424165273214,0.4062463681532703,0.4084886073588343,0.9821151235323047,-0.40630732288380905,0.4346958393864612,0.3522169858441272,0.9715772169824577,-0.3240551646341714,0.43198111760098196,0.3024616785113473,0.9726115488255803,-0.34367713964366403,0.5653243389534761,0.32111632501934684,0.9773814713678464,-0.18476404639558236,0.46684962542251046,0.1045213777740524,0.8600235219337833,-0.3287550126456453,0.6259918634752675,0.24222638559393367,0.9748104828755181,-0.09815831356300035,0.4501813018462484,0.07240704629749382,0.6364463789632143,-0.3043558257609266,0.707230303155808,0.28242358514312893,0.9563489829647221,-0.10760112230838148,0.4306327705438015,0.053820063391677914,0.6981913146634866,-0.30897022105021016,0.7224738022256018,0.3466833422596218,1.0306024439398773,-0.0749401858840817,0.48990400243425763,0.12285618586270414,0.6796138706732048,-0.3142744227222418,0.7245323297158405,0.38572619395950586,1.0149735733711522,-0.03638142473057162,0.45102153073543694,0.0673295464037234,0.5422782406932044,-0.2658437847168442,0.6387126662223388,0.3228723075448758,0.9657050646549964,0.06322186389355426,0.49602588442600315,0.01372926070342596,1.0310103228974112,-0.04150968987787152,0.5500646261012172,-0.026711682094950683,1.044306843711468,0.06107532941710941,0.4341356163757309,-0.12907355951258165,0.9691587525140211,0.2524764807590123,0.623022778882929,-0.24152000990016464,1.033750289012421,0.21491721292993,0.4380458506739725,-0.27696917824461037,0.9906857805815801,0.7216962338622195,0.6349542590627969,-0.6969201313984004,0.940860233869134,0.27168265194553526,0.3679460412360966,-0.22906442715199027,1.0240542343905712,0.6806962301792614,0.6187129673399201,-0.7044941316912978,0.9277071825063442,0.2221807760450118,0.3639357676025461,-0.21769378112528534,0.9998225123896425,0.6965266133256725,0.6717697802863585,-0.7587212299426145,0.9567175174764693
18,-0.08069082138763228,0.4882597789367952,0.14018183810420876,0.9959266004167939,-0.16429944213800496,0.4570420985144904,0.16790751603684273,0.9953071026737423,-0.16054699358239508,0.4497201136805439,0.16709700246633474,1.0320573530964956,-0.14612015009937768,0.43389155296972864,0.10707647004955081,1.0239724831016825,-0.17957866783388338,0.4706086554729776,0.16896075535120533,1.0008928797680186,-0.18394866358453804,0.4700523659639887,0.19843931011450044,0.966403709520399,-0.15021231561753487,0.45286961033181855,0.13537758300367914,1.0069415308888447,-0.25028653696561953,0.4702528456331577,0.20506581573892485,1.035583099993057,-0.26403605510906075,0.516331631722926,0.23274261422777368,1.0233224490276338,-0.18426859125988396,0.4083084206415974,0.1740432982103564,0.9821151235323047,-0.1719941545701016,0.4365524048619251,0.12349213479469928,0.9715772169824577,-0.14035476176670486,0.43411114918667526,0.12314274566667618,0.9725716137135809,-0.21149504686965515,0.5572601881432344,0.19208738636519734,0.9773818289957149,-0.014069380977607092,0.47181078822806766,-0.062102987193158085,0.7873534198143375,-0.21856838951122695,0.6188089077333851,0.13466897412209375,0.9764981883923333,0.03738868346614781,0.45411505938981217,-0.05991073383567741,0.6695207579304995,-0.19722854929086991,0.7065917585963293,0.17785092235760305,0.9567199622738042,0.03612054357935773,0.4359913771207211,-0.08647931992095045,0.7500995096822549,-0.20141751373817016,0.7216302176880957,0.24169605174229314,1.0310485251013763,0.06816885357453854,0.49244110394144447,-0.016845554688968367,0.7338558259535087,-0.20617394549198953,0.7292822834626361,0.2802034790720976,1.0156400725090307,0.09850297548776193,0.4526618505596557,-0.06434269513057585,0.6453183994418311,-0.15884285252851743,0.6442896940200378,0.21842209360163792,0.9692818797833229,0.08251366304700257,0.49724292186534946,-0.005100039258350404,1.031004481642223,-0.06110226552729556,0.5409532812869167,-0.007584156863097307,1.0442863397136652,0.1130258642920261,0.4576488142745956,-0.17977428991287467,0.9681563812028332,0.16034526645852837,0.6417360743426763,-0.1515831482377354,1.0383507543101202,0.21660254277872248,0.45408873883849277,-0.278610255232679,0.9898281889525516,0.564032972855508,0.6760199519644082,-0.5430097802730058,0.956501386727868,0.26814964986898737,0.3790649002887546,-0.22561219757504525,1.0224039009860302,0.5212684045046627,0.662770038548874,-0.548860128309756,0.9395914546048856,0.22024505825613927,0.3826331784244607,-0.21580124348719223,0.9968360216631716,0.6699308552937533,0.7260661546073424,-0.7327563273208775,0.9664698506406845
19,-0.18753252909303714,0.48950211854784864,0.24446775225658662,0.9959266004167939,-0.2552030400083196,0.4524046783370307,0.2566364148153626,0.9953071026737423,-0.251385429887461,0.4457766107775593,0.25576189895571116,1.0319584093861685,-0.23700041751852466,0.43044452695540064,0.19578180503124612,1.0239724831016825,-0.2800370214802851,0.4635214843952494,0.26701818335558575,1.0008928797680186,-0.2843823465733716,0.4618431076460413,0.296473448997685,0.9663081036701793,-0.2507109338303213,0.44358097150163367,0.23347587957921528,1.0069415308888447,-0.25245724741889164,0.46378669534934425,0.2071777206791193,1.0354333731253813,-0.3380478160595213,0.5031647868781078,0.3049875445146926,1.0224646189800264,-0.2654142874239667,0.4138612489535175,0.2532450699353258,0.9813106396417712,-0.26957894784950653,0.4397223586850147,0.21874248364664683,0.9708330529924369,-0.08766987534187107,0.4360981594272301,0.07170337487829698,0.9718381189549751,-0.29224428250915735,0.5621080127167513,0.27090906581569835,0.9770481621942623,0.0258868390282289,0.5063518884916632,-0.10112172710319439,0.08369087532543067,-0.3414298040506009,0.6383648340563222,0.25460449935496404,0.9475212711254876,0.04290165981053809,0.5004816913745229,-0.06532122931820136,0.1103167159726443,-0.3115155461943547,0.7186746929759069,0.28941652935813605,0.9182499920475166,0.04430075496273392,0.4783151452596066,-0.09449848549161345,0.1267790195604135,-0.31461539161746765,0.7251089235711218,0.3521970590836088,0.9712588079039581,0.07351317532355528,0.5319067101540604,-0.02209634130419303,0.10651032357695225,-0.3149657888377019,0.7277004953995868,0.38640360789826295,0.9514030739509862,0.10066928501089167,0.496393331396524,-0.06648997267962832,0.05157430775224447,-0.26977501975808715,0.6489461280791808,0.3267117694667328,0.8643599427944924,0.15272420224862635,0.5039202514056021,-0.07364373196501783,1.0304585627007254,-0.13087199859334447,0.5471987155711269,0.06052213691398033,1.0432890944019282,0.22301377311941592,0.5392781203525528,-0.28719911180625546,-0.015696547301514686,-0.057878257907017,0.6348252138041937,0.06142456718414067,0.49678500824116567,0.42290345411949765,0.5774389120734323,-0.48007738402647177,0.05398153984223437,0.23384561481344152,0.675774559641868,-0.2207076075111249,0.19326994534927452,0.47738990223592,0.5000302618839085,-0.4299485291228409,0.13791529602320426,0.1724138237222961,0.6676271614469758,-0.20833476406610638,0.07183417890431638,0.4322404517403683,0.5458964993473123,-0.4228520785586649,0.0859411732568567,0.15144504142124826,0.7144830647788512,-0.2266563166667525,0.1750980878881514
20,0.08535583350490239,0.479237096031598,-0.0219061638989125,0.9959266004167939,0.012263271802461515,0.4471346442622473,-0.004447420998261072,0.9953071026737423,0.016006938783005204,0.4408078185774708,-0.005249384700062414,1.0320573530964956,0.030339113656452546,0.42586212186506855,-0.06517755910139596,1.0239724831016825,0.0014087061120744253,0.4585354664528208,-0.007713624054523154,1.0008928797680186,-0.0029381752984418835,0.4573724910669855,0.021742141462074035,0.966403709520399,0.03075222523001294,0.43958296015100196,-0.041274955790048085,1.0069415308888447,-0.07251264620625265,0.4653941432119693,0.031528493570659295,1.0355829807837675,-0.06799645229001622,0.5030539520411479,0.04137456624195311,1.0233222106090547,-0.023106183077821377,0.4013463001086079,0.016724254413235485,0.982112858555803,-0.005743325866775579,0.4277363116555195,-0.03879437892500536,0.9715719717737175,-0.046528598879950686,0.43107754098850937,0.031558347416471705,0.9725949787343329,-0.054110568106698245,0.5578263726639558,0.038451413060357806,0.9773800408563715,-0.06600564092249422,0.46104791791633065,-0.011386523898528355,0.9134505029060733,-0.08274680782788194,0.626431447730486,0.0020862923171036593,0.9327555316845697,-0.057603371434263265,0.4165982270381276,0.03285207288200031,0.7718819601704897,-0.016230252853576765,0.7088317011469885,0.0011716768411350418,0.8927437340366522,-0.05841429220529492,0.3862918322141049,0.005840000430614306,0.715986937012272,0.01142310702291819,0.718620302336228,0.03393165416720623,0.9266443736617096,-0.012375932967467626,0.44522951651239784,0.0618161297442216,0.6872623386907829,0.01689699230724513,0.7231359120980426,0.06245513015120144,0.9017525836670204,0.007462486403921567,0.41234631191486504,0.024561520055568692,0.49260444499313116,0.02990649109028902,0.6427757360427429,0.0341780968261437,0.7759255446202065,0.10898623239070455,0.49546539214885776,-0.030939037762689865,1.0309459498810538,-0.08777038337375405,0.5435226587092494,0.018447903239401438,1.0440717033878288,0.16971590600469394,0.4838806694286331,-0.23512220128689637,0.15902550394643972,0.04100455956686333,0.6366398176097356,-0.03508487065846253,0.6315927439226996,0.33085643463777037,0.5055247458613503,-0.39016695312978994,0.48016824298773836,0.2911002615802907,0.6918483230123819,-0.2765885270591602,0.4676009040732964,0.41764073967139154,0.4299097782470524,-0.37156850855538426,0.7448744825175547,0.22264536846595928,0.6888714489378205,-0.2573497715123658,0.6623005739248014,0.3073473579718619,0.46086481113396394,-0.30086196007692506,0.5462804586901491,0.18064854412131706,0.7321075621924864,-0.2551351695763955,0.48563858519116043
21,,,,,,,,,,,,,,,,,,,,,,,,,,,,,,,,,,,,,,,,,,,,,,,,,,,,,,,,,,,,,,,,,,,,,,,,,,,,,,,,,,,,,,,,,,,,,,,,,,,,,,,,,,,,,,,,,,,,,,,,,,,,,,,,,,,,
22,-0.04510945935062077,0.6580222413143434,0.1055466107904425,0.9959266004167939,-0.10528511020440502,0.6370225851458838,0.1104008664995818,0.9953071026737423,-0.10151443525130446,0.6322323374010944,0.10957209560142016,1.0320567570500478,-0.08717043837875696,0.6184657993762839,0.04963201488690585,1.0239724831016825,-0.10587117536987181,0.6418402531349497,0.0971125863528733,1.0008928797680186,-0.11023795671656743,0.638736639922195,0.12658836107854646,0.9664031134739512,-0.07662389102043397,0.6188808245881052,0.0636463109365907,1.0069415308888447,-0.14996416239501703,0.6469138005853977,0.10723050483476297,1.0355795237143706,-0.09482069219043852,0.6668662615447033,0.06766187665989547,1.0233213761440278,-0.14197625124531715,0.5672164003683888,0.13285172401961076,0.9820848443727586,-0.11045157609413275,0.5884625310711842,0.06350996145728423,0.9715207117792105,-0.1733451138272937,0.5987913619228051,0.1554073999425603,0.9708282970631903,0.004789956619825052,0.6178434815811922,-0.01894966039895798,0.9693226253709896,-0.22282501799284424,0.6702028516073555,0.1416931391650954,0.9958235855438602,-0.033483873469935886,0.6453528230051442,-0.04589151464668658,0.9297395962635797,-0.22143771576082855,0.6617827081820791,0.19274760025708118,0.9948182923962894,-0.033194975639272685,0.720321032869248,0.017871741565977,0.9206323896991889,-0.24506381735096766,0.6475935285146115,0.1879986482311315,1.0037585196157268,0.0034318996583417166,0.7216535827088476,0.04188040783046512,0.9780484921996124,-0.17424107574181513,0.6910022358956376,0.21978541414540081,0.967504185729052,-0.004782258061073526,0.7357768651620075,0.0837681808448617,0.9576778337204261,-0.14904374548065683,0.6476342166542449,0.17730389731750645,0.9448187456256079,0.004707268692883196,0.6607056476562072,0.05892245105097041,0.9131993926769996,0.01004419952328988,0.5160132291678245,0.06563178887237243,1.0309740832733878,0.011654097948399084,0.4901853231227015,-0.07859956954624767,1.0442719153896296,-0.10537512964484078,0.5072832709091172,0.033368204552034285,0.9574677782784862,0.10445777362282824,0.47151718939776055,-0.09700213462045845,0.4087261491312872,-0.02913162945938869,0.4881314846671213,-0.03883596624339108,0.8550467091170414,0.2984195563059425,0.4637734445581735,-0.28372823792069607,0.14346817847686852,0.014863161060749336,0.4053522175647556,0.021531424584853683,0.8381634405902171,0.22628493321736048,0.45091337532179254,-0.2609134282674259,0.30213718328835715,-0.042888402891778935,0.4285471727367471,0.040931946734785535,0.8566284329905336,0.204060718294692,0.464138371118115,-0.2779978253499238,0.3635511959604323
23,-0.0594575791987101,0.6664959952434816,0.11955278044012724,0.9959266004167939,-0.13007735106666754,0.6450236742419532,0.13460092002726814,0.9953071026737423,-0.12625920114145145,0.6400763086535358,0.133725223695282,1.0320573530964956,-0.11186075866204104,0.6261919322460043,0.07373142775005542,1.0239724831016825,-0.13239946261905533,0.6503592469894725,0.12300859271633809,1.0008928797680186,-0.13675668848732492,0.6474483951979213,0.1524754031159208,0.966403709520399,-0.10319376358443651,0.6277796788437815,0.08958363052701426,1.0069415308888447,-0.20148937352443802,0.6548511127115574,0.15752343315030665,1.0355828615744778,-0.15557361440213777,0.6762111969618786,0.12696663445821404,1.0233223298183443,-0.16348404139408965,0.5760543982817494,0.1538454278946178,0.982113454602251,-0.1348598131848346,0.5977439279370289,0.08733660636145699,0.9715744751687981,-0.21151070933147376,0.6087974916644738,0.1926578696054257,0.9716407083714789,-0.04698655529825353,0.6334977474617769,0.031596264115685384,0.9763017928323847,-0.2242666339511973,0.6809499862928718,0.14309641840801568,0.9963293905594242,-0.04784094986110911,0.6601296489099904,-0.0318732092719717,0.8902986067692559,-0.23648708378012104,0.6672293210170095,0.20743486162043953,0.9963283760716738,-0.01889845151080485,0.7348950837725683,0.003917622247403312,0.9327082311260382,-0.26157279069389927,0.6497963969762204,0.2041098923820878,1.0077426132818033,0.017808417708010713,0.7362833043503881,0.027847988020719895,1.0073915607993134,-0.20549275672784367,0.6956342320504227,0.2502883320910684,0.9719694080877556,0.005196447826807872,0.7500512835160419,0.07402761062655557,0.9916856810295387,-0.1551247984615046,0.6534867371200958,0.18323680836147146,0.9506780014163184,0.018052693625056463,0.6739102818458129,0.04589531032619723,0.9474094189411904,0.010799153795237486,0.5316254439715202,0.06489169648742159,1.0309762290405995,0.010801524370035419,0.5085706142222499,-0.07776418962307469,1.0442957572475398,-0.013642655341895168,0.5033051973121628,-0.0561842550860886,0.9568568902741834,0.1289176442826627,0.47389764989847777,-0.120878690494097,0.4435198240771185,0.09580539144689468,0.4757135125792612,-0.16079341465546718,0.8974203067389592,0.33799617489049794,0.4413862380037606,-0.322359240787006,0.4738785248656853,0.14261763283960363,0.3935638195373356,-0.10317472605291304,0.9295515469363475,0.26752100655695915,0.42381945819036865,-0.30116408099289893,0.5488790741956449,0.10103521462372614,0.4092843522544931,-0.09955896036026449,0.8387611658587282,0.24461618293064327,0.4411835495315061,-0.31758588924717684,0.5183233882001936
24,0.000719656369723376,0.6640735432705202,0.06080556422067683,0.9959266004167939,-0.06888583698520818,0.6447247569484046,0.07486344036832912,0.9953071026737423,-0.06508099893209096,0.6401135615565204,0.07400091509462839,1.032057233887206,-0.05075168121122913,0.6265493216960776,0.014074775060965036,1.0239724831016825,-0.07043307672944224,0.6496613958084422,0.06251443380926304,1.0008928797680186,-0.07482549282053151,0.6467509016447597,0.09201555911725681,0.966403709520399,-0.041297252594024586,0.6270942850335093,0.02915761191947144,1.0069415308888447,-0.14706550541939137,0.6567068437219944,0.10439339401985206,1.0355827423651882,-0.10297948599429738,0.6768701859145153,0.07562176554823567,1.0233223298183443,-0.10567463001461724,0.5742954652144276,0.09741067413231652,0.9821122625093555,-0.07609540707341031,0.5952559704594593,0.02996921115742155,0.9715728062387443,-0.17600172245131082,0.6088377247996972,0.1579943515512011,0.9717687391484563,-0.01132723992428166,0.6299345221924593,-0.0032149132491576075,0.9770529305658443,-0.20720553510707182,0.6781438592214912,0.12644131499593284,0.9963550205566778,-0.03202207845309968,0.6517677728990956,-0.04731183900979809,0.9552516955296317,-0.2187061760772861,0.6642376446864431,0.19007868062038658,0.9965622646977725,-0.034279230608096914,0.7234617804163976,0.018940174770026807,0.953557101403443,-0.24819329962547154,0.6467187707478879,0.1910501081153746,1.0084243116040996,-0.004947814499590759,0.7243503352570654,0.050071120008178725,1.0312713868681913,-0.18043960685339167,0.6934132437768021,0.2258331364992493,0.9727291288900626,-0.01869554279908176,0.7386314508095905,0.09735947830548305,1.0164633914673133,-0.14743490471831858,0.6515501822113433,0.17573063063978514,0.9521874890452551,-0.0002794872179805036,0.6630483486144592,0.06380009490983386,0.972485152602842,0.008460572274309727,0.5230069103602226,0.06717367058799889,1.0309826663422355,0.013202836851587213,0.4972750572001552,-0.0801085951301578,1.044299691154095,-0.01589774123441043,0.5090710526245102,-0.05398718627186095,0.966901226593153,0.12493829393490408,0.46418423856730096,-0.11698365697208687,0.8100552492632758,0.06803497855487747,0.4887726220286478,-0.1336840986527365,0.9612320261565312,0.28162771486479615,0.44190306987860806,-0.2673118022771354,0.7503729682822808,0.11276390107337615,0.4079662388660251,-0.07403079455231736,0.9878858379176403,0.20670839929957027,0.42649362057821655,-0.2417766024841465,0.7977852097547269,0.0722184576646529,0.4245922257419656,-0.07142566358386214,0.9548421652331178,0.1842494769816643,0.44364915526728493,-0.2586310772741271,0.8403640056661665
25,-0.06488306900489993,0.6698365375599183,0.12483979251478039,0.9959266004167939,-0.14040658742615947,0.6492967312259009,0.14467421082739884,0.9953071026737423,-0.13664090198086631,0.6449496440150165,0.14384968487843489,1.0320571146779165,-0.1223346349336831,0.6316752615421164,0.08394582382335947,1.0239724831016825,-0.14740334279195494,0.6530171373092967,0.13764491347769756,1.0008928797680186,-0.15172036206893447,0.64958098978334,0.167072375207689,0.9664035903111095,-0.11812278924888388,0.62941874697046,0.10414668098502046,1.0069415308888447,-0.20472321638696778,0.6618730763079014,0.16066975037176867,1.035579404505081,-0.17842531326351194,0.6783421226172436,0.1492626361078545,1.0233208993068696,-0.16624743171800466,0.5815964381529652,0.15653399623151004,0.9821011760454272,-0.14545730192818834,0.6012387270741444,0.09767224660106813,0.9715656536813713,-0.20813171364290972,0.6200762997813867,0.18934803416928905,0.9644135259831731,-0.08148550648426983,0.635667118113022,0.0652626786112609,0.9695319568834407,-0.2636126097067957,0.7011246088285774,0.1814973070377033,0.9961380596496952,-0.13098672815921417,0.6566647116999074,0.04928819832809372,0.9296457189480584,-0.3173514559300611,0.677273180498821,0.2863689229252022,0.9959883315732302,-0.1494789295478066,0.7310505245799108,0.13139116363198267,0.9527090465175786,-0.349023393603445,0.6543609802777646,0.28947455126439636,1.0073691901822857,-0.12859148326732806,0.7282467504906774,0.1707655187995092,1.0297418124739652,-0.28357357663252364,0.6986396770539323,0.326506645372199,0.9718327942419304,-0.14105204144309916,0.7427122232094928,0.21679762516502216,1.0140702053749366,-0.24815895031079807,0.6588268960594573,0.2740509225269192,0.9499167904978919,-0.1140844944899333,0.6690277673690368,0.17489024077435442,0.9707011259800697,0.02940616743071597,0.5252591314677055,0.046718704583567715,1.0308987430023915,-0.0070557175475470385,0.5025642541682338,-0.06034032070545948,1.0442521266475642,-0.01812605489264336,0.5011873250740037,-0.051811759358065694,0.958680077148573,0.01858746933863621,0.4675239464187109,-0.013160287054025013,0.9706465535654913,0.04953539523325221,0.4973979505694498,-0.11562207834342514,0.9551890688506228,0.12852259318531706,0.4493330272684396,-0.11783853944453922,0.91305049475628,0.0931358176694144,0.4197723394729435,-0.054868514181656836,0.9942195466807626,0.04877173999075533,0.43324164122717285,-0.08758715950436452,0.9118955007589078,0.059494320265580034,0.4368245889659952,-0.05899509841563512,0.920194044829828,0.02231380888510332,0.4553448382697568,-0.10053098836706982,0.9389768506101669
26,-0.020708041932963273,0.6630636617740907,0.0817212771967551,0.9959266004167939,-0.08633529529477853,0.6435538833064368,0.09189679724569398,0.9953071026737423,-0.08254316995299826,0.6391682318903827,0.09104686001244253,1.032057233887206,-0.06821734236344329,0.6258282843082297,0.03112430763379922,1.0239724831016825,-0.0912385228658745,0.6475412585937815,0.08282323046914376,1.0008928797680186,-0.0956289980138271,0.6442408904486232,0.11232222944798373,0.9664035903111095,-0.06209087148259872,0.6242240829689951,0.04945439368698988,1.0069415308888447,-0.1421600729361277,0.6550978163362827,0.09960522389300017,1.0355821463187407,-0.1289644045144627,0.6725578494696606,0.10098548658984267,1.0233222106090547,-0.11953155106690345,0.5730591456724965,0.11093605553265945,0.9821125009279346,-0.094195637753269,0.5932527179532032,0.04763596831550715,0.9715734022851921,-0.14913919584028507,0.6088360558696435,0.13176910782667717,0.9724810146535223,-0.025112405197318888,0.6217549767899324,0.01023679579765275,0.9772316252908809,-0.18408215839800268,0.6812468174238533,0.10386680309515281,0.995060169253577,-0.059603619973294664,0.6252642099718495,-0.02038684415561546,0.9262969511906425,-0.20135638176424844,0.6646451020381277,0.17314106951106112,0.9923202617337525,-0.12558910733249917,0.6853392456645055,0.10807955396211125,0.9283412372219244,-0.22618297615559874,0.6464555566365597,0.1695638323536158,1.00203135582407,-0.04527624041401595,0.6808315535950781,0.08944600538621068,1.0166705734793668,-0.16384057116247158,0.6916357736649552,0.20962891497092448,0.9670566144514335,-0.06988608394662757,0.6965481874123737,0.14733810855657153,1.0015041157448095,-0.13277585246484444,0.6496538008331695,0.16141972095088192,0.9417612657672094,-0.058425016786548344,0.6223957755057861,0.12056735974159766,0.9528520978695656,0.028620925592094434,0.512306416309243,0.047492560901490025,1.0310010245728263,-0.007013557286953256,0.4877989617621516,-0.06037664325926883,1.0442995719448054,0.040070073930067875,0.4752572780387863,-0.10860292459679322,0.9667370754014416,0.1346331155862251,0.45438872183794615,-0.12644013174488233,0.9298488431467902,0.13722291391070554,0.458002230802833,-0.2012042483787365,0.9853861528006657,0.33871374444819025,0.43977604832747585,-0.32302813225784427,0.9015243869681939,0.18284526117562191,0.3773668831683933,-0.1424243224818511,1.0113079003146435,0.26950910362334857,0.4243941363729705,-0.3030722938200729,0.9006897083318448,0.1267668905696146,0.3924867202755044,-0.12465318040470588,0.9913749845042055,0.24279640855131,0.442939651378201,-0.31577147282908263,0.9470495844892561
27,,,,,,,,,,,,,,,,,,,,,,,,,,,,,,,,,,,,,,,,,,,,,,,,,,,,,,,,,,,,,,,,,,,,,,,,,,,,,,,,,,,,,,,,,,,,,,,,,,,,,,,,,,,,,,,,,,,,,,,,,,,,,,,,,,,,
28,,,,,,,,,,,,,,,,,,,,,,,,,,,,,,,,,,,,,,,,,,,,,,,,,,,,,,,,,,,,,,,,,,,,,,,,,,,,,,,,,,,,,,,,,,,,,,,,,,,,,,,,,,,,,,,,,,,,,,,,,,,,,,,,,,,,
29,-0.21856874305376292,0.4842415020069398,0.27478177390479386,0.9959266004167939,-0.27743648315415237,0.4530683164519599,0.27835415442465783,0.9953071026737423,-0.2736435684595511,0.4487001888014698,0.27750273088304206,1.0320573530964956,-0.2592063973108847,0.4358162465541707,0.21747067103753223,1.0239724831016825,-0.29189869490974624,0.4580068328583078,0.2786130890100836,1.0008928797680186,-0.296283257076882,0.4547081336432032,0.3081069305326989,0.966403709520399,-0.26264766567511405,0.43497942521409705,0.24514451869910397,1.0069415308888447,-0.27273149127383417,0.4745409527899112,0.22697699184373796,1.035583099993057,-0.2777142468956229,0.49663277346181756,0.24610699255649146,1.0233224490276338,-0.2905388977826917,0.4101882319285236,0.277786780311789,0.9821151235323047,-0.27606334654689024,0.430599778395174,0.22509074250012673,0.9715770977731681,-0.12462965660832853,0.44797834860760427,0.10779192511491624,0.9726191782201117,-0.21042171015317152,0.5407290783333589,0.1910455441035439,0.9765921270570858,-0.03456147966840173,0.5479713085432381,-0.04211274285352569,0.022052736137140965,-0.2640744064107785,0.6197301571230336,0.17909816708473755,0.9618284124295037,-0.01017991837281228,0.5242587590358083,-0.013513454813665372,0.08313767595790049,-0.2896771974431793,0.7121910189265295,0.268105085837431,0.913328794156281,-0.020084021807195963,0.5029664938504574,-0.03166092194119583,0.18222317072351468,-0.29085838958393867,0.7256379743981481,0.3290145911137989,0.9501371867720612,0.02426570926730401,0.54742436218882,0.025963944313326555,0.10028537838938364,-0.2802302323143586,0.7336905833855792,0.3525037426819432,0.9043508693420692,0.05484338872788307,0.5098065222381988,-0.021768637489110086,0.042290638459317666,-0.24244209408339026,0.6509308435409118,0.3000387326216508,0.769755271793058,0.07747657254541943,0.5154624822500999,-0.0001852696202136253,1.031000309317089,-0.055601688272390995,0.5489234355723476,-0.012952666144000733,1.043960540725323,-0.09354255146739326,0.4679339831607803,0.02187439029727682,0.957911832882063,0.127477131961109,0.6586523493670904,-0.11946987184596713,0.566706173945893,-0.04882972971754778,0.42427649227744224,-0.01949856822569398,0.9666989641753301,0.3837554037698474,0.6780085417280496,-0.3670219351417789,0.3764898997207268,-0.003136685298278978,0.3409360474445164,0.039217562246114515,0.9995050481608653,0.31940954944932065,0.672581559125351,-0.3518055877517947,0.6558837166822171,-0.07454176392485445,0.3487685014720987,0.07195822378750967,0.9441863448633973,0.29702873533122853,0.6804846946082579,-0.3687462247627033,0.508164134126097
30,-0.2815015824192074,0.47604774089663404,0.33621539485907737,0.9959266004167939,-0.3573791192583197,0.4469272797030738,0.356392442779674,0.9953071026737423,-0.3536586455844345,0.44204598586339,0.3556122203075518,1.0320573530964956,-0.33925956919343,0.42863433389357203,0.29561788578381515,1.0239724831016825,-0.35851888533447107,0.4549356141292887,0.3436451071030395,1.0008928797680186,-0.3628415871132172,0.4535737082415156,0.37307785262541004,0.966403709520399,-0.3291569435920001,0.4356948299630137,0.3100669275878963,1.0069415308888447,-0.40556058905780723,0.46974081193221473,0.3566415905224697,1.035583099993057,-0.3550401898635325,0.5044435151247966,0.32158685243073637,1.0233222106090547,-0.37023881150670535,0.4011362533404194,0.3555879306870019,0.9821142890672778,-0.3396199609693148,0.4245108957104664,0.28713164253369644,0.9715700644250846,-0.2629202024252365,0.44918602811772085,0.2427863171601064,0.9725887798512763,-0.24384976164998906,0.5493569698738863,0.22367651101123626,0.9728558098993403,-0.15806396709620946,0.5137398544092505,0.07845094932155405,0.48078989342235445,-0.28244040961592565,0.6228422944406911,0.19702931175157773,0.9611299055973809,-0.11489582748108292,0.4785295093200032,0.08873228174452388,0.5152384860684694,-0.2953408300920832,0.7061708305949255,0.2736383003750854,0.9233622824299018,-0.1362584619299035,0.45625665832113005,0.08177605683694444,0.5470082459111978,-0.3003184335295033,0.7217545529770971,0.33825573837606054,0.978950608498288,-0.09402127371495385,0.5077164034905473,0.14146278874018403,0.43217245965483314,-0.2955735446115834,0.7243852254525348,0.36748868457281186,0.9463370963775914,-0.05028068145311498,0.46926982055896904,0.08087942785270974,0.30108950592338324,-0.25360931655779767,0.6393308855979492,0.31094543860145396,0.8585322178608681,0.0500829656613163,0.5134991946581657,0.026557254845741347,1.0310097268509635,-0.028098437911023146,0.545164349440298,-0.03980139778301714,1.044278710319134,-0.08970730284590289,0.4666839545505508,0.018129532593095188,0.9675891834031506,0.15532759479841002,0.6250810464763128,-0.1466718498611033,0.6421848469271552,-0.017053726544508402,0.4293098959124674,-0.050522755605864236,0.9871545034018621,0.4539895319811259,0.6407652946958841,-0.4355877786507312,0.45125918802219467,0.028982754283785772,0.3574944859840214,0.00785676383399201,1.0144469193270946,0.3906340633211571,0.6384953317083588,-0.42133867894106547,0.4294898084199643,-0.07473859325328469,0.3418674160953592,0.07214289850369579,0.9857743532671754,0.3419017291429044,0.6566536847434508,-0.4125534688793131,0.4564969504884779
31,-0.0618837930300187,0.47546266170351875,0.1218371829881581,0.9959266004167939,-0.1431804588915396,0.4453375940245917,0.1473039367032801,0.9953071026737423,-0.1393728364518781,0.4405782512881184,0.14643892048560392,1.0320573530964956,-0.12492566271345276,0.42722602514914143,0.08639792897460524,1.0239724831016825,-0.1487993892289221,0.4547316768371897,0.1389282079298971,1.0008928797680186,-0.1530335875967359,0.4534785196238093,0.16827422782379353,0.966403709520399,-0.11923020224492346,0.43556244804696753,0.10514710347518251,1.0069415308888447,-0.2791119279850578,0.46936536227477454,0.233211429671028,1.035583099993057,-0.2181360902871406,0.504420179906367,0.18794803574697105,1.0233224490276338,-0.17290999589616593,0.401848201019939,0.16296790862528598,0.9821151235323047,-0.1477268926494279,0.4255310292057972,0.09981681488992619,0.9715772169824577,-0.1703602383473479,0.44630873310047836,0.15243733153845543,0.9726178669179267,-0.17680192548627058,0.5566442337441255,0.1582271986450805,0.9773849284372431,-0.1106158033871295,0.5135197940607399,0.03214395164240514,0.6736690039970767,-0.19945709062636713,0.6308128063539906,0.11603063044097275,0.9728076476017753,-0.04972512391578722,0.4648280108115499,0.025125975644463984,0.490332953469974,-0.14454487443863134,0.7155788277262731,0.1264584715537529,0.9526586805927434,-0.0651032535073867,0.4437516634518978,0.01232996695541803,0.4503689703603555,-0.13004526089880233,0.727954687731278,0.1720650964683535,1.0312257893149384,-0.02063079045522364,0.49082173514986427,0.069836845597267,0.38760490446570045,-0.1286969179241401,0.7377529975548908,0.2046133511763691,1.013999514266233,0.014289505633211068,0.45097745310062554,0.01786251428897643,0.3287104771262336,-0.10187704199206499,0.6535580374686767,0.16285254094538115,0.9702859796292091,0.05892989299448233,0.5128582659128958,0.017922368326811315,1.0310104421067008,-0.03717227835321163,0.549470248583517,-0.030946272812004218,1.04430624766502,-0.029765922083402997,0.4571878319519027,-0.04038294244315604,0.9692897039185926,0.21823832386286085,0.6295146187686407,-0.20811303669660236,1.0134739213480841,0.03314645207618273,0.43933012215262535,-0.09951715083754442,0.9912374215689762,0.5917746362102139,0.6828764530668557,-0.5701234133739345,0.9532087665458308,0.08220541456453319,0.3670956021644413,-0.044087047741351665,1.0261372975161815,0.5391086518025159,0.6816808041967621,-0.5663087751767398,0.9445949665105559,0.027770874746485666,0.3568250526901315,-0.027913569500812058,1.001238659144861,0.5619709729282115,0.7120840970359312,-0.6274159109590349,0.9570852185300887
32,,,,,,,,,,,,,,,,,,,,,,,,,,,,,,,,,,,,,,,,,,,,,,,,,,,,,,,,,,,,,,,,,,,,,,,,,,,,,,,,,,,,,,,,,,,,,,,,,,,,,,,,,,,,,,,,,,,,,,,,,,,,,,,,,,,,
33,,,,,,,,,,,,,,,,,,,,,,,,,,,,,,,,,,,,,,,,,,,,,,,,,,,,,,,,,,,,,,,,,,,,,,,,,,,,,,,,,,,,,,,,,,,,,,,,,,,,,,,,,,,,,,,,,,,,,,,,,,,,,,,,,,,,
34,-0.2626705817979552,0.46764372440188307,0.31783800950309127,0.9959266004167939,-0.32990710878787777,0.4426747267169287,0.32957899244672817,0.9953071026737423,-0.3262107700279733,0.4396523229338551,0.3288222724678301,1.0320573530964956,-0.3117918654801059,0.42797188787153834,0.2688084594033892,1.0239724831016825,-0.3294508636778276,0.4460785427295999,0.31527362066539716,1.0008928797680186,-0.3337028273706236,0.442881290619903,0.34463721590419394,0.966403709520399,-0.2999410986155736,0.42320577933625886,0.2815509405667489,1.0069415308888447,-0.35609372349639185,0.4727208951593723,0.30835611007973546,1.0355829807837675,-0.2962772645203209,0.4879272170691479,0.264226877614232,1.0233220913997652,-0.34630096486008477,0.3939380090071522,0.33222579335013647,0.9821135738115405,-0.31323402133020584,0.4125352794938068,0.26137972555232813,0.9715675610300041,-0.29458709763378904,0.45511806117970205,0.27369872503476356,0.9726203703130071,-0.1824400314613901,0.517729136030655,0.16373558006218358,0.9755400454721553,-0.3435553388300363,0.47556811602309634,0.25952996491680186,0.9024771089889898,-0.21422224713978888,0.5076657061438008,0.1304827377158777,0.4611837881962579,-0.3669885435795716,0.3911134266993825,0.334844212147121,0.8400886280705752,-0.20968963051319972,0.5426320766085668,0.19012282497657595,0.2913997148620764,-0.4046219690232302,0.35782524991582604,0.34377713070999294,0.727985113586979,-0.18648401405162307,0.5361689349579931,0.2272369224076728,0.3270360417429931,-0.33702548061673954,0.39862261820459755,0.378710527840941,0.6968008699941887,-0.19896304667750506,0.5467403766289874,0.27328762695928105,0.2622256204330725,-0.295591684451715,0.3671277845978179,0.32037626953516424,0.5215726599818397,-0.1728095245737321,0.47235884446788323,0.23217533020589978,0.14803853404586556,0.05428515689589078,0.5142305734518821,0.022449762131405513,1.0310099652695426,-0.03191621305126573,0.5243660239016628,-0.03608027112271471,1.0442658357158625,-0.044817558847443414,0.4713222687976822,-0.025684397754930602,0.9582027631532116,0.07828236053300203,0.5560819944285833,-0.07144987030536165,0.9654651813998114,0.04261946389216153,0.43697615591651084,-0.10877612907384664,0.98425849252616,0.34966155993683623,0.6048961731443704,-0.3337290367825984,0.7891211133857354,0.08758235083609635,0.3566540604926884,-0.04934876354414129,1.0196730545810007,0.2838384188714881,0.6016724166311493,-0.317070438785384,0.8498403898275113,0.0035463846361838414,0.3743104626651834,-0.004280911695382646,0.9858208448901002,0.23320240518827193,0.6252819124541746,-0.3064193421679359,0.7782392169050276
35,,,,,,,,,,,,,,,,,,,,,,,,,,,,,,,,,,,,,,,,,,,,,,,,,,,,,,,,,,,,,,,,,,,,,,,,,,,,,,,,,,,,,,,,,,,,,,,,,,,,,,,,,,,,,,,,,,,,,,,,,,,,,,,,,,,,
36,-0.32918952027039805,0.45512174220888985,0.3827634356362051,0.9959266004167939,-0.37638618595408424,0.4295781259459784,0.3749432062051772,0.9953071026737423,-0.37266577095875497,0.4279331258990192,0.37416267019425536,1.0320573530964956,-0.35830990118498474,0.4175533237903463,0.31421008713349624,1.0239724831016825,-0.38725899135913056,0.4278596081936197,0.3716982263803043,1.0008928797680186,-0.3917064410260268,0.4228310927801661,0.4012533185147697,0.9664035903111095,-0.35819013566650443,0.4013478918297739,0.33840731682751907,1.0069415308888447,-0.34486481793504253,0.46590418015731233,0.29738779151294253,1.035583099993057,-0.3378191461695339,0.46238939839887505,0.3047763985635551,1.0233222106090547,-0.39604424840821517,0.3880302052332722,0.3807746504903048,0.9821104743700122,-0.37728214523028797,0.400164216261385,0.32389424529627686,0.9715658920999505,-0.2537484154121206,0.5209653388209985,0.2338185535525903,0.9725480102742499,-0.26905106413911406,0.4664073613095093,0.2482888780154196,0.9747862255296811,-0.26297806377913396,0.6238027814169258,0.18084092266685461,0.9396392937042606,-0.38054458289708165,0.48065016912025643,0.29282944040050896,0.9557618516842645,-0.38531983467974107,0.5898259544513051,0.352680510869561,0.9745797140767397,-0.4771534317651037,0.5085473989123388,0.45117300359199275,0.9236886774646917,-0.43487528816670223,0.5671639745290158,0.37324155001849557,0.9745428261419108,-0.4755404380147203,0.49564910139323476,0.5093572586932325,0.9778109676901825,-0.3915020429602296,0.6040864448609391,0.43182019105894986,0.9461375895071282,-0.4894569567458557,0.5075895127431079,0.5568091991607568,0.9673907086097999,-0.3264459120103609,0.5621527517914214,0.3504307861547229,0.9048658118373084,-0.4455400515482701,0.44096770066905505,0.49835878013950885,0.9155532993084694,0.07238844588047799,0.5721705499056633,0.004764833779044759,1.0310007861542472,-0.04969678298370305,0.5189986852442836,-0.01872145948482667,1.044267504645916,0.19400157963791362,0.5397330826061234,-0.25886824978051615,0.9058163600694102,0.16067081480608403,0.49349810089106194,-0.15187460597343524,1.0381793313517462,0.4741717037734786,0.5014511856234659,-0.5301246700636941,0.6898427801695927,0.592817012410104,0.4587376567373574,-0.5711042274121447,0.48738487776714406,0.5383934299431299,0.4170193201400577,-0.4895039274679615,0.6303916028788829,0.5465512641202346,0.44239074558393854,-0.5735435245947681,0.6286737791097379,0.47202760350299044,0.4395630051609109,-0.46168236623476266,0.835261777163965,0.5337650732507714,0.449554813273953,-0.5998288317059111,0.7887544299177229
37,,,,,,,,,,,,,,,,,,,,,,,,,,,,,,,,,,,,,,,,,,,,,,,,,,,,,,,,,,,,,,,,,,,,,,,,,,,,,,,,,,,,,,,,,,,,,,,,,,,,,,,,,,,,,,,,,,,,,,,,,,,,,,,,,,,,
38,,,,,,,,,,,,,,,,,,,,,,,,,,,,,,,,,,,,,,,,,,,,,,,,,,,,,,,,,,,,,,,,,,,,,,,,,,,,,,,,,,,,,,,,,,,,,,,,,,,,,,,,,,,,,,,,,,,,,,,,,,,,,,,,,,,,
39,,,,,,,,,,,,,,,,,,,,,,,,,,,,,,,,,,,,,,,,,,,,,,,,,,,,,,,,,,,,,,,,,,,,,,,,,,,,,,,,,,,,,,,,,,,,,,,,,,,,,,,,,,,,,,,,,,,,,,,,,,,,,,,,,,,,
40,0.10459428218716595,0.49335931392519844,-0.040674221597334144,0.9959266004167939,0.06297713526940703,0.4604629282874396,-0.053938296104503236,0.9953071026737423,0.06685238684906823,0.4553796939112568,-0.05486899812299929,1.0320518694691765,0.08125462608175221,0.44160269527128804,-0.11486585309004732,1.0239724831016825,0.028879079421619755,0.4660484829151468,-0.03451361741157173,1.0008928797680186,0.024477815701869805,0.4623000368528895,-0.005003926521377287,0.9664014445438973,0.05799247128772446,0.44200267031030366,-0.0678486307284013,1.0069415308888447,0.09672011306808322,0.4756901601435031,-0.13365646019849195,1.0355813118537138,-0.00515234896233642,0.49704768139409905,-0.019953386307803894,1.0233195880046846,0.03762667240971744,0.41732430861729014,-0.042550933856413634,0.9820890166978931,0.024079533508273493,0.43748661826181223,-0.06789482477724898,0.9715563553567863,0.19461561722088444,0.45426485049206466,-0.20383710623162507,0.9725096248830145,-0.037797062846931795,0.532622787039261,0.0225408095077927,0.9773548876962763,0.2311261442196805,0.5530671480436653,-0.30149030616184036,0.07183411822103386,-0.1440080009950148,0.6145005051950856,0.061891898578919975,0.9709245580593865,0.20950786184646697,0.5465849900386159,-0.2279948573870118,0.1399054898192706,-0.10385235831664547,0.7101900910014196,0.08670912390764271,0.9579921638118901,0.2144268944457765,0.5220831935460446,-0.26061305939570034,0.18622951182325376,-0.09042772412816596,0.7134296914506079,0.13335782065427676,1.0313327200476654,0.2556826821276605,0.566699252611641,-0.1999679395481308,0.17901035874369264,-0.06892424000758751,0.7180880543366596,0.14623315317492844,1.0158619806015294,0.27053895098900965,0.5334362472175994,-0.23235413006011466,0.11925205148517365,-0.0503399799469536,0.6419608809440185,0.11251478553279404,0.969316867709806,0.15264035915318136,0.5190339627627188,-0.07355519906680014,1.0309457114624747,-0.1313524923550263,0.5214793709551906,0.060996389822362544,1.044024496509167,0.07337435776333442,0.591279239012526,-0.14112872963633144,0.6624508338700695,-0.18453629347738254,0.6036455472850286,0.18508459744355327,1.025481634665955,0.13582806879189727,0.6392758700049509,-0.19982037266823308,0.6431191163626774,0.08568575511965407,0.6039023252973855,-0.0760377368589672,0.7420003038306817,0.17805566646075482,0.5617396658756078,-0.13772210918886835,0.6693397215655589,0.02541142997506631,0.5847973284162751,-0.06479414899939634,0.6221293679273343,0.13246398700920298,0.6140958358760904,-0.13018168619140172,0.7433591039194887,0.042016451991378205,0.6332915846190916,-0.11977479133482521,0.8005097175649702
41,,,,,,,,,,,,,,,,,,,,,,,,,,,,,,,,,,,,,,,,,,,,,,,,,,,,,,,,,,,,,,,,,,,,,,,,,,,,,,,,,,,,,,,,,,,,,,,,,,,,,,,,,,,,,,,,,,,,,,,,,,,,,,,,,,,,
42,,,,,,,,,,,,,,,,,,,,,,,,,,,,,,,,,,,,,,,,,,,,,,,,,,,,,,,,,,,,,,,,,,,,,,,,,,,,,,,,,,,,,,,,,,,,,,,,,,,,,,,,,,,,,,,,,,,,,,,,,,,,,,,,,,,,
43,,,,,,,,,,,,,,,,,,,,,,,,,,,,,,,,,,,,,,,,,,,,,,,,,,,,,,,,,,,,,,,,,,,,,,,,,,,,,,,,,,,,,,,,,,,,,,,,,,,,,,,,,,,,,,,,,,,,,,,,,,,,,,,,,,,,
44,,,,,,,,,,,,,,,,,,,,,,,,,,,,,,,,,,,,,,,,,,,,,,,,,,,,,,,,,,,,,,,,,,,,,,,,,,,,,,,,,,,,,,,,,,,,,,,,,,,,,,,,,,,,,,,,,,,,,,,,,,,,,,,,,,,,
45,,,,,,,,,,,,,,,,,,,,,,,,,,,,,,,,,,,,,,,,,,,,,,,,,,,,,,,,,,,,,,,,,,,,,,,,,,,,,,,,,,,,,,,,,,,,,,,,,,,,,,,,,,,,,,,,,,,,,,,,,,,,,,,,,,,,
46,,,,,,,,,,,,,,,,,,,,,,,,,,,,,,,,,,,,,,,,,,,,,,,,,,,,,,,,,,,,,,,,,,,,,,,,,,,,,,,,,,,,,,,,,,,,,,,,,,,,,,,,,,,,,,,,,,,,,,,,,,,,,,,,,,,,
47,,,,,,,,,,,,,,,,,,,,,,,,,,,,,,,,,,,,,,,,,,,,,,,,,,,,,,,,,,,,,,,,,,,,,,,,,,,,,,,,,,,,,,,,,,,,,,,,,,,,,,,,,,,,,,,,,,,,,,,,,,,,,,,,,,,,
48,,,,,,,,,,,,,,,,,,,,,,,,,,,,,,,,,,,,,,,,,,,,,,,,,,,,,,,,,,,,,,,,,,,,,,,,,,,,,,,,,,,,,,,,,,,,,,,,,,,,,,,,,,,,,,,,,,,,,,,,,,,,,,,,,,,,
49,,,,,,,,,,,,,,,,,,,,,,,,,,,,,,,,,,,,,,,,,,,,,,,,,,,,,,,,,,,,,,,,,,,,,,,,,,,,,,,,,,,,,,,,,,,,,,,,,,,,,,,,,,,,,,,,,,,,,,,,,,,,,,,,,,,,
50,,,,,,,,,,,,,,,,,,,,,,,,,,,,,,,,,,,,,,,,,,,,,,,,,,,,,,,,,,,,,,,,,,,,,,,,,,,,,,,,,,,,,,,,,,,,,,,,,,,,,,,,,,,,,,,,,,,,,,,,,,,,,,,,,,,,
51,,,,,,,,,,,,,,,,,,,,,,,,,,,,,,,,,,,,,,,,,,,,,,,,,,,,,,,,,,,,,,,,,,,,,,,,,,,,,,,,,,,,,,,,,,,,,,,,,,,,,,,,,,,,,,,,,,,,,,,,,,,,,,,,,,,,
52,,,,,,,,,,,,,,,,,,,,,,,,,,,,,,,,,,,,,,,,,,,,,,,,,,,,,,,,,,,,,,,,,,,,,,,,,,,,,,,,,,,,,,,,,,,,,,,,,,,,,,,,,,,,,,,,,,,,,,,,,,,,,,,,,,,,
53,,,,,,,,,,,,,,,,,,,,,,,,,,,,,,,,,,,,,,,,,,,,,,,,,,,,,,,,,,,,,,,,,,,,,,,,,,,,,,,,,,,,,,,,,,,,,,,,,,,,,,,,,,,,,,,,,,,,,,,,,,,,,,,,,,,,
54,,,,,,,,,,,,,,,,,,,,,,,,,,,,,,,,,,,,,,,,,,,,,,,,,,,,,,,,,,,,,,,,,,,,,,,,,,,,,,,,,,,,,,,,,,,,,,,,,,,,,,,,,,,,,,,,,,,,,,,,,,,,,,,,,,,,
55,,,,,,,,,,,,,,,,,,,,,,,,,,,,,,,,,,,,,,,,,,,,,,,,,,,,,,,,,,,,,,,,,,,,,,,,,,,,,,,,,,,,,,,,,,,,,,,,,,,,,,,,,,,,,,,,,,,,,,,,,,,,,,,,,,,,
56,,,,,,,,,,,,,,,,,,,,,,,,,,,,,,,,,,,,,,,,,,,,,,,,,,,,,,,,,,,,,,,,,,,,,,,,,,,,,,,,,,,,,,,,,,,,,,,,,,,,,,,,,,,,,,,,,,,,,,,,,,,,,,,,,,,,
57,,,,,,,,,,,,,,,,,,,,,,,,,,,,,,,,,,,,,,,,,,,,,,,,,,,,,,,,,,,,,,,,,,,,,,,,,,,,,,,,,,,,,,,,,,,,,,,,,,,,,,,,,,,,,,,,,,,,,,,,,,,,,,,,,,,,
58,,,,,,,,,,,,,,,,,,,,,,,,,,,,,,,,,,,,,,,,,,,,,,,,,,,,,,,,,,,,,,,,,,,,,,,,,,,,,,,,,,,,,,,,,,,,,,,,,,,,,,,,,,,,,,,,,,,,,,,,,,,,,,,,,,,,
59,,,,,,,,,,,,,,,,,,,,,,,,,,,,,,,,,,,,,,,,,,,,,,,,,,,,,,,,,,,,,,,,,,,,,,,,,,,,,,,,,,,,,,,,,,,,,,,,,,,,,,,,,,,,,,,,,,,,,,,,,,,,,,,,,,,,
60,,,,,,,,,,,,,,,,,,,,,,,,,,,,,,,,,,,,,,,,,,,,,,,,,,,,,,,,,,,,,,,,,,,,,,,,,,,,,,,,,,,,,,,,,,,,,,,,,,,,,,,,,,,,,,,,,,,,,,,,,,,,,,,,,,,,
61,,,,,,,,,,,,,,,,,,,,,,,,,,,,,,,,,,,,,,,,,,,,,,,,,,,,,,,,,,,,,,,,,,,,,,,,,,,,,,,,,,,,,,,,,,,,,,,,,,,,,,,,,,,,,,,,,,,,,,,,,,,,,,,,,,,,
62,,,,,,,,,,,,,,,,,,,,,,,,,,,,,,,,,,,,,,,,,,,,,,,,,,,,,,,,,,,,,,,,,,,,,,,,,,,,,,,,,,,,,,,,,,,,,,,,,,,,,,,,,,,,,,,,,,,,,,,,,,,,,,,,,,,,
63,,,,,,,,,,,,,,,,,,,,,,,,,,,,,,,,,,,,,,,,,,,,,,,,,,,,,,,,,,,,,,,,,,,,,,,,,,,,,,,,,,,,,,,,,,,,,,,,,,,,,,,,,,,,,,,,,,,,,,,,,,,,,,,,,,,,
64,,,,,,,,,,,,,,,,,,,,,,,,,,,,,,,,,,,,,,,,,,,,,,,,,,,,,,,,,,,,,,,,,,,,,,,,,,,,,,,,,,,,,,,,,,,,,,,,,,,,,,,,,,,,,,,,,,,,,,,,,,,,,,,,,,,,
65,,,,,,,,,,,,,,,,,,,,,,,,,,,,,,,,,,,,,,,,,,,,,,,,,,,,,,,,,,,,,,,,,,,,,,,,,,,,,,,,,,,,,,,,,,,,,,,,,,,,,,,,,,,,,,,,,,,,,,,,,,,,,,,,,,,,
66,,,,,,,,,,,,,,,,,,,,,,,,,,,,,,,,,,,,,,,,,,,,,,,,,,,,,,,,,,,,,,,,,,,,,,,,,,,,,,,,,,,,,,,,,,,,,,,,,,,,,,,,,,,,,,,,,,,,,,,,,,,,,,,,,,,,
