frame,NOSE.x,NOSE.y,NOSE.z,NOSE.v,LEFT_EYE_INNER.x,LEFT_EYE_INNER.y,LEFT_EYE_INNER.z,LEFT_EYE_INNER.v,LEFT_EYE.x,LEFT_EYE.y,LEFT_EYE.z,LEFT_EYE.v,LEFT_EYE_OUTER.x,LEFT_EYE_OUTER.y,LEFT_EYE_OUTER.z,LEFT_EYE_OUTER.v,RIGHT_EYE_INNER.x,RIGHT_EYE_INNER.y,RIGHT_EYE_INNER.z,RIGHT_EYE_INNER.v,RIGHT_EYE.x,RIGHT_EYE.y,RIGHT_EYE.z,RIGHT_EYE.v,RIGHT_EYE_OUTER.x,RIGHT_EYE_OUTER.y,RIGHT_EYE_OUTER.z,RIGHT_EYE_OUTER.v,LEFT_EAR.x,LEFT_EAR.y,LEFT_EAR.z,LEFT_EAR.v,RIGHT_EAR.x,RIGHT_EAR.y,RIGHT_EAR.z,RIGHT_EAR.v,MOUTH_LEFT.x,MOUTH_LEFT.y,MOUTH_LEFT.z,MOUTH_LEFT.v,MOUTH_RIGHT.x,MOUTH_RIGHT.y,MOUTH_RIGHT.z,MOUTH_RIGHT.v,LEFT_SHOULDER.x,LEFT_SHOULDER.y,LEFT_SHOULDER.z,LEFT_SHOULDER.v,RIGHT_SHOULDER.x,RIGHT_SHOULDER.y,RIGHT_SHOULDER.z,RIGHT_SHOULDER.v,LEFT_ELBOW.x,LEFT_ELBOW.y,LEFT_ELBOW.z,LEFT_ELBOW.v,RIGHT_ELBOW.x,RIGHT_ELBOW.y,RIGHT_ELBOW.z,RIGHT_ELBOW.v,LEFT_WRIST.x,LEFT_WRIST.y,LEFT_WRIST.z,LEFT_WRIST.v,RIGHT_WRIST.x,RIGHT_WRIST.y,RIGHT_WRIST.z,RIGHT_WRIST.v,LEFT_PINKY.x,LEFT_PINKY.y,LEFT_PINKY.z,LEFT_PINKY.v,RIGHT_PINKY.x,RIGHT_PINKY.y,RIGHT_PINKY.z,RIGHT_PINKY.v,LEFT_INDEX.x,LEFT_INDEX.y,LEFT_INDEX.z,LEFT_INDEX.v,RIGHT_INDEX.x,RIGHT_INDEX.y,RIGHT_INDEX.z,RIGHT_INDEX.v,LEFT_THUMB.x,LEFT_THUMB.y,LEFT_THUMB.z,LEFT_THUMB.v,RIGHT_THUMB.x,RIGHT_THUMB.y,RIGHT_THUMB.z,RIGHT_THUMB.v,LEFT_HIP.x,LEFT_HIP.y,LEFT_HIP.z,LEFT_HIP.v,RIGHT_HIP.x,RIGHT_HIP.y,RIGHT_HIP.z,RIGHT_HIP.v,LEFT_KNEE.x,LEFT_KNEE.y,LEFT_KNEE.z,LEFT_KNEE.v,RIGHT_KNEE.x,RIGHT_KNEE.y,RIGHT_KNEE.z,RIGHT_KNEE.v,LEFT_ANKLE.x,LEFT_ANKLE.y,LEFT_ANKLE.z,LEFT_ANKLE.v,RIGHT_ANKLE.x,RIGHT_ANKLE.y,RIGHT_ANKLE.z,RIGHT_ANKLE.v,LEFT_HEEL.x,LEFT_HEEL.y,LEFT_HEEL.z,LEFT_HEEL.v,RIGHT_HEEL.x,RIGHT_HEEL.y,RIGHT_HEEL.z,RIGHT_HEEL.v,LEFT_FOOT_INDEX.x,LEFT_FOOT_INDEX.y,LEFT_FOOT_INDEX.z,LEFT_FOOT_INDEX.v,RIGHT_FOOT_INDEX.x,RIGHT_FOOT_INDEX.y,RIGHT_FOOT_INDEX.z,RIGHT_FOOT_INDEX.v
0,,,,,,,,,,,,,,,,,,,,,,,,,,,,,,,,,,,,,,,,,,,,,,,,,,,,,,,,,,,,,,,,,,,,,,,,,,,,,,,,,,,,,,,,,,,,,,,,,,,,,,,,,,,,,,,,,,,,,,,,,,,,,,,,,,,,
1,,,,,,,,,,,,,,,,,,,,,,,,,,,,,,,,,,,,,,,,,,,,,,,,,,,,,,,,,,,,,,,,,,,,,,,,,,,,,,,,,,,,,,,,,,,,,,,,,,,,,,,,,,,,,,,,,,,,,,,,,,,,,,,,,,,,
2,,,,,,,,,,,,,,,,,,,,,,,,,,,,,,,,,,,,,,,,,,,,,,,,,,,,,,,,,,,,,,,,,,,,,,,,,,,,,,,,,,,,,,,,,,,,,,,,,,,,,,,,,,,,,,,,,,,,,,,,,,,,,,,,,,,,
3,,,,,,,,,,,,,,,,,,,,,,,,,,,,,,,,,,,,,,,,,,,,,,,,,,,,,,,,,,,,,,,,,,,,,,,,,,,,,,,,,,,,,,,,,,,,,,,,,,,,,,,,,,,,,,,,,,,,,,,,,,,,,,,,,,,,
4,,,,,,,,,,,,,,,,,,,,,,,,,,,,,,,,,,,,,,,,,,,,,,,,,,,,,,,,,,,,,,,,,,,,,,,,,,,,,,,,,,,,,,,,,,,,,,,,,,,,,,,,,,,,,,,,,,,,,,,,,,,,,,,,,,,,
5,,,,,,,,,,,,,,,,,,,,,,,,,,,,,,,,,,,,,,,,,,,,,,,,,,,,,,,,,,,,,,,,,,,,,,,,,,,,,,,,,,,,,,,,,,,,,,,,,,,,,,,,,,,,,,,,,,,,,,,,,,,,,,,,,,,,
6,,,,,,,,,,,,,,,,,,,,,,,,,,,,,,,,,,,,,,,,,,,,,,,,,,,,,,,,,,,,,,,,,,,,,,,,,,,,,,,,,,,,,,,,,,,,,,,,,,,,,,,,,,,,,,,,,,,,,,,,,,,,,,,,,,,,
7,,,,,,,,,,,,,,,,,,,,,,,,,,,,,,,,,,,,,,,,,,,,,,,,,,,,,,,,,,,,,,,,,,,,,,,,,,,,,,,,,,,,,,,,,,,,,,,,,,,,,,,,,,,,,,,,,,,,,,,,,,,,,,,,,,,,
8,,,,,,,,,,,,,,,,,,,,,,,,,,,,,,,,,,,,,,,,,,,,,,,,,,,,,,,,,,,,,,,,,,,,,,,,,,,,,,,,,,,,,,,,,,,,,,,,,,,,,,,,,,,,,,,,,,,,,,,,,,,,,,,,,,,,
9,,,,,,,,,,,,,,,,,,,,,,,,,,,,,,,,,,,,,,,,,,,,,,,,,,,,,,,,,,,,,,,,,,,,,,,,,,,,,,,,,,,,,,,,,,,,,,,,,,,,,,,,,,,,,,,,,,,,,,,,,,,,,,,,,,,,
10,,,,,,,,,,,,,,,,,,,,,,,,,,,,,,,,,,,,,,,,,,,,,,,,,,,,,,,,,,,,,,,,,,,,,,,,,,,,,,,,,,,,,,,,,,,,,,,,,,,,,,,,,,,,,,,,,,,,,,,,,,,,,,,,,,,,
11,,,,,,,,,,,,,,,,,,,,,,,,,,,,,,,,,,,,,,,,,,,,,,,,,,,,,,,,,,,,,,,,,,,,,,,,,,,,,,,,,,,,,,,,,,,,,,,,,,,,,,,,,,,,,,,,,,,,,,,,,,,,,,,,,,,,
12,,,,,,,,,,,,,,,,,,,,,,,,,,,,,,,,,,,,,,,,,,,,,,,,,,,,,,,,,,,,,,,,,,,,,,,,,,,,,,,,,,,,,,,,,,,,,,,,,,,,,,,,,,,,,,,,,,,,,,,,,,,,,,,,,,,,
13,,,,,,,,,,,,,,,,,,,,,,,,,,,,,,,,,,,,,,,,,,,,,,,,,,,,,,,,,,,,,,,,,,,,,,,,,,,,,,,,,,,,,,,,,,,,,,,,,,,,,,,,,,,,,,,,,,,,,,,,,,,,,,,,,,,,
14,,,,,,,,,,,,,,,,,,,,,,,,,,,,,,,,,,,,,,,,,,,,,,,,,,,,,,,,,,,,,,,,,,,,,,,,,,,,,,,,,,,,,,,,,,,,,,,,,,,,,,,,,,,,,,,,,,,,,,,,,,,,,,,,,,,,
15,0.2327249843778392,0.3433238398783183,0.03610804238092936,0.9964737751585917,0.1877154042698533,0.3890049817898639,0.025172017891016578,1.0027032976134524,0.2531033610448647,0.33856914127272064,0.0703981438451803,0.9508568002242737,0.24131177891783215,0.32148967130780326,0.0194115519167659,1.0300974460676302,0.2004208730834753,0.3956711520498291,0.09707241628550112,1.0015819923608407,0.17356058837217167,0.40915106700231674,0.07786284233665682,1.0401856559378122,0.2225618726787591,0.37306274547609897,0.06284984289606309,0.9566041000810617,0.20321664702288486,0.3688412284296939,0.03812589541766157,1.0059376169701417,0.26948863840965676,0.38740613487081715,-0.05979684343744801,0.9992528737726791,0.22762991550599043,0.36746345729787616,0.03529728826781541,0.9652404448024033,0.25442330803766133,0.32932043066561983,0.07110819694828543,0.9817673345786169,0.2757818838215472,0.3848615119516652,0.05858262467154231,0.969367391540212,0.27299709210551004,0.42741875246470407,-0.1566643912926341,1.04049566485504,0.28124084486356343,0.5123970161541809,0.008481271867759037,0.9835247771057245,0.29321371812791464,0.4570903721792721,-0.16966878643219435,0.9549232195845313,0.22741866458793952,0.5044866994524493,0.0561482375840732,1.0272451258802533,0.3238906493552338,0.5425829791885587,-0.05672062707586742,0.9622003110638601,0.22492938287930037,0.51266786175561,0.10664860181452579,0.9859073661340648,0.30616605712377104,0.4864058227031267,-0.07902150987529095,0.9438055759886214,0.2016244442268386,0.57536869918961,0.11254766190166143,1.0075697948385438,0.30404519146724623,0.5673387796334947,-0.07110631905889242,0.9644802233369245,0.2131865050448961,0.5058639657442328,0.023121795656270566,0.9783383236461668,0.2590485063210182,0.49758675861722945,-0.028886086548779957,0.9863707704247054,0.4439066879893477,0.4759425028196323,-0.24271951652762583,0.9819329989900809,0.4254394619104611,0.43353382735613494,-0.3271724719924069,1.001586448991183,0.33268996598542966,0.514999225089722,-0.19303532033801046,0.9599567535627971,0.42677473095808416,0.5156181329437474,-0.37021389259562537,0.8086254549017373,0.4531228272313187,0.5217890142321556,-0.3633791750874329,0.5844152558023132,0.5453597124665892,0.5237833206265357,-0.5559886434690509,0.39328381383245437,0.4512734230845879,0.5726935349966868,-0.4399772163075321,0.7244519061637328,0.5282230931586714,0.5274162748047609,-0.5743358174902615,0.3674823592180828,0.44968320898732583,0.5070823413695116,-0.39802231491720713,0.6456848189420052,0.5321504027198267,0.532198788710166,-0.5564275438866324,0.5307413370441678
16,,,,,,,,,,,,,,,,,,,,,,,,,,,,,,,,,,,,,,,,,,,,,,,,,,,,,,,,,,,,,,,,,,,,,,,,,,,,,,,,,,,,,,,,,,,,,,,,,,,,,,,,,,,,,,,,,,,,,,,,,,,,,,,,,,,,
17,,,,,,,,,,,,,,,,,,,,,,,,,,,,,,,,,,,,,,,,,,,,,,,,,,,,,,,,,,,,,,,,,,,,,,,,,,,,,,,,,,,,,,,,,,,,,,,,,,,,,,,,,,,,,,,,,,,,,,,,,,,,,,,,,,,,
18,,,,,,,,,,,,,,,,,,,,,,,,,,,,,,,,,,,,,,,,,,,,,,,,,,,,,,,,,,,,,,,,,,,,,,,,,,,,,,,,,,,,,,,,,,,,,,,,,,,,,,,,,,,,,,,,,,,,,,,,,,,,,,,,,,,,
19,,,,,,,,,,,,,,,,,,,,,,,,,,,,,,,,,,,,,,,,,,,,,,,,,,,,,,,,,,,,,,,,,,,,,,,,,,,,,,,,,,,,,,,,,,,,,,,,,,,,,,,,,,,,,,,,,,,,,,,,,,,,,,,,,,,,
20,,,,,,,,,,,,,,,,,,,,,,,,,,,,,,,,,,,,,,,,,,,,,,,,,,,,,,,,,,,,,,,,,,,,,,,,,,,,,,,,,,,,,,,,,,,,,,,,,,,,,,,,,,,,,,,,,,,,,,,,,,,,,,,,,,,,
21,,,,,,,,,,,,,,,,,,,,,,,,,,,,,,,,,,,,,,,,,,,,,,,,,,,,,,,,,,,,,,,,,,,,,,,,,,,,,,,,,,,,,,,,,,,,,,,,,,,,,,,,,,,,,,,,,,,,,,,,,,,,,,,,,,,,
22,,,,,,,,,,,,,,,,,,,,,,,,,,,,,,,,,,,,,,,,,,,,,,,,,,,,,,,,,,,,,,,,,,,,,,,,,,,,,,,,,,,,,,,,,,,,,,,,,,,,,,,,,,,,,,,,,,,,,,,,,,,,,,,,,,,,
23,,,,,,,,,,,,,,,,,,,,,,,,,,,,,,,,,,,,,,,,,,,,,,,,,,,,,,,,,,,,,,,,,,,,,,,,,,,,,,,,,,,,,,,,,,,,,,,,,,,,,,,,,,,,,,,,,,,,,,,,,,,,,,,,,,,,
24,,,,,,,,,,,,,,,,,,,,,,,,,,,,,,,,,,,,,,,,,,,,,,,,,,,,,,,,,,,,,,,,,,,,,,,,,,,,,,,,,,,,,,,,,,,,,,,,,,,,,,,,,,,,,,,,,,,,,,,,,,,,,,,,,,,,
25,,,,,,,,,,,,,,,,,,,,,,,,,,,,,,,,,,,,,,,,,,,,,,,,,,,,,,,,,,,,,,,,,,,,,,,,,,,,,,,,,,,,,,,,,,,,,,,,,,,,,,,,,,,,,,,,,,,,,,,,,,,,,,,,,,,,
26,,,,,,,,,,,,,,,,,,,,,,,,,,,,,,,,,,,,,,,,,,,,,,,,,,,,,,,,,,,,,,,,,,,,,,,,,,,,,,,,,,,,,,,,,,,,,,,,,,,,,,,,,,,,,,,,,,,,,,,,,,,,,,,,,,,,
27,,,,,,,,,,,,,,,,,,,,,,,,,,,,,,,,,,,,,,,,,,,,,,,,,,,,,,,,,,,,,,,,,,,,,,,,,,,,,,,,,,,,,,,,,,,,,,,,,,,,,,,,,,,,,,,,,,,,,,,,,,,,,,,,,,,,
28,,,,,,,,,,,,,,,,,,,,,,,,,,,,,,,,,,,,,,,,,,,,,,,,,,,,,,,,,,,,,,,,,,,,,,,,,,,,,,,,,,,,,,,,,,,,,,,,,,,,,,,,,,,,,,,,,,,,,,,,,,,,,,,,,,,,
29,,,,,,,,,,,,,,,,,,,,,,,,,,,,,,,,,,,,,,,,,,,,,,,,,,,,,,,,,,,,,,,,,,,,,,,,,,,,,,,,,,,,,,,,,,,,,,,,,,,,,,,,,,,,,,,,,,,,,,,,,,,,,,,,,,,,
30,,,,,,,,,,,,,,,,,,,,,,,,,,,,,,,,,,,,,,,,,,,,,,,,,,,,,,,,,,,,,,,,,,,,,,,,,,,,,,,,,,,,,,,,,,,,,,,,,,,,,,,,,,,,,,,,,,,,,,,,,,,,,,,,,,,,
31,,,,,,,,,,,,,,,,,,,,,,,,,,,,,,,,,,,,,,,,,,,,,,,,,,,,,,,,,,,,,,,,,,,,,,,,,,,,,,,,,,,,,,,,,,,,,,,,,,,,,,,,,,,,,,,,,,,,,,,,,,,,,,,,,,,,
32,,,,,,,,,,,,,,,,,,,,,,,,,,,,,,,,,,,,,,,,,,,,,,,,,,,,,,,,,,,,,,,,,,,,,,,,,,,,,,,,,,,,,,,,,,,,,,,,,,,,,,,,,,,,,,,,,,,,,,,,,,,,,,,,,,,,
33,,,,,,,,,,,,,,,,,,,,,,,,,,,,,,,,,,,,,,,,,,,,,,,,,,,,,,,,,,,,,,,,,,,,,,,,,,,,,,,,,,,,,,,,,,,,,,,,,,,,,,,,,,,,,,,,,,,,,,,,,,,,,,,,,,,,
34,,,,,,,,,,,,,,,,,,,,,,,,,,,,,,,,,,,,,,,,,,,,,,,,,,,,,,,,,,,,,,,,,,,,,,,,,,,,,,,,,,,,,,,,,,,,,,,,,,,,,,,,,,,,,,,,,,,,,,,,,,,,,,,,,,,,
35,,,,,,,,,,,,,,,,,,,,,,,,,,,,,,,,,,,,,,,,,,,,,,,,,,,,,,,,,,,,,,,,,,,,,,,,,,,,,,,,,,,,,,,,,,,,,,,,,,,,,,,,,,,,,,,,,,,,,,,,,,,,,,,,,,,,
36,,,,,,,,,,,,,,,,,,,,,,,,,,,,,,,,,,,,,,,,,,,,,,,,,,,,,,,,,,,,,,,,,,,,,,,,,,,,,,,,,,,,,,,,,,,,,,,,,,,,,,,,,,,,,,,,,,,,,,,,,,,,,,,,,,,,
37,,,,,,,,,,,,,,,,,,,,,,,,,,,,,,,,,,,,,,,,,,,,,,,,,,,,,,,,,,,,,,,,,,,,,,,,,,,,,,,,,,,,,,,,,,,,,,,,,,,,,,,,,,,,,,,,,,,,,,,,,,,,,,,,,,,,
38,,,,,,,,,,,,,,,,,,,,,,,,,,,,,,,,,,,,,,,,,,,,,,,,,,,,,,,,,,,,,,,,,,,,,,,,,,,,,,,,,,,,,,,,,,,,,,,,,,,,,,,,,,,,,,,,,,,,,,,,,,,,,,,,,,,,
39,,,,,,,,,,,,,,,,,,,,,,,,,,,,,,,,,,,,,,,,,,,,,,,,,,,,,,,,,,,,,,,,,,,,,,,,,,,,,,,,,,,,,,,,,,,,,,,,,,,,,,,,,,,,,,,,,,,,,,,,,,,,,,,,,,,,
40,,,,,,,,,,,,,,,,,,,,,,,,,,,,,,,,,,,,,,,,,,,,,,,,,,,,,,,,,,,,,,,,,,,,,,,,,,,,,,,,,,,,,,,,,,,,,,,,,,,,,,,,,,,,,,,,,,,,,,,,,,,,,,,,,,,,
41,,,,,,,,,,,,,,,,,,,,,,,,,,,,,,,,,,,,,,,,,,,,,,,,,,,,,,,,,,,,,,,,,,,,,,,,,,,,,,,,,,,,,,,,,,,,,,,,,,,,,,,,,,,,,,,,,,,,,,,,,,,,,,,,,,,,
42,,,,,,,,,,,,,,,,,,,,,,,,,,,,,,,,,,,,,,,,,,,,,,,,,,,,,,,,,,,,,,,,,,,,,,,,,,,,,,,,,,,,,,,,,,,,,,,,,,,,,,,,,,,,,,,,,,,,,,,,,,,,,,,,,,,,
43,,,,,,,,,,,,,,,,,,,,,,,,,,,,,,,,,,,,,,,,,,,,,,,,,,,,,,,,,,,,,,,,,,,,,,,,,,,,,,,,,,,,,,,,,,,,,,,,,,,,,,,,,,,,,,,,,,,,,,,,,,,,,,,,,,,,
44,,,,,,,,,,,,,,,,,,,,,,,,,,,,,,,,,,,,,,,,,,,,,,,,,,,,,,,,,,,,,,,,,,,,,,,,,,,,,,,,,,,,,,,,,,,,,,,,,,,,,,,,,,,,,,,,,,,,,,,,,,,,,,,,,,,,
45,,,,,,,,,,,,,,,,,,,,,,,,,,,,,,,,,,,,,,,,,,,,,,,,,,,,,,,,,,,,,,,,,,,,,,,,,,,,,,,,,,,,,,,,,,,,,,,,,,,,,,,,,,,,,,,,,,,,,,,,,,,,,,,,,,,,
46,,,,,,,,,,,,,,,,,,,,,,,,,,,,,,,,,,,,,,,,,,,,,,,,,,,,,,,,,,,,,,,,,,,,,,,,,,,,,,,,,,,,,,,,,,,,,,,,,,,,,,,,,,,,,,,,,,,,,,,,,,,,,,,,,,,,
47,,,,,,,,,,,,,,,,,,,,,,,,,,,,,,,,,,,,,,,,,,,,,,,,,,,,,,,,,,,,,,,,,,,,,,,,,,,,,,,,,,,,,,,,,,,,,,,,,,,,,,,,,,,,,,,,,,,,,,,,,,,,,,,,,,,,
48,,,,,,,,,,,,,,,,,,,,,,,,,,,,,,,,,,,,,,,,,,,,,,,,,,,,,,,,,,,,,,,,,,,,,,,,,,,,,,,,,,,,,,,,,,,,,,,,,,,,,,,,,,,,,,,,,,,,,,,,,,,,,,,,,,,,
49,,,,,,,,,,,,,,,,,,,,,,,,,,,,,,,,,,,,,,,,,,,,,,,,,,,,,,,,,,,,,,,,,,,,,,,,,,,,,,,,,,,,,,,,,,,,,,,,,,,,,,,,,,,,,,,,,,,,,,,,,,,,,,,,,,,,
50,,,,,,,,,,,,,,,,,,,,,,,,,,,,,,,,,,,,,,,,,,,,,,,,,,,,,,,,,,,,,,,,,,,,,,,,,,,,,,,,,,,,,,,,,,,,,,,,,,,,,,,,,,,,,,,,,,,,,,,,,,,,,,,,,,,,
51,,,,,,,,,,,,,,,,,,,,,,,,,,,,,,,,,,,,,,,,,,,,,,,,,,,,,,,,,,,,,,,,,,,,,,,,,,,,,,,,,,,,,,,,,,,,,,,,,,,,,,,,,,,,,,,,,,,,,,,,,,,,,,,,,,,,
52,,,,,,,,,,,,,,,,,,,,,,,,,,,,,,,,,,,,,,,,,,,,,,,,,,,,,,,,,,,,,,,,,,,,,,,,,,,,,,,,,,,,,,,,,,,,,,,,,,,,,,,,,,,,,,,,,,,,,,,,,,,,,,,,,,,,
53,,,,,,,,,,,,,,,,,,,,,,,,,,,,,,,,,,,,,,,,,,,,,,,,,,,,,,,,,,,,,,,,,,,,,,,,,,,,,,,,,,,,,,,,,,,,,,,,,,,,,,,,,,,,,,,,,,,,,,,,,,,,,,,,,,,,
54,,,,,,,,,,,,,,,,,,,,,,,,,,,,,,,,,,,,,,,,,,,,,,,,,,,,,,,,,,,,,,,,,,,,,,,,,,,,,,,,,,,,,,,,,,,,,,,,,,,,,,,,,,,,,,,,,,,,,,,,,,,,,,,,,,,,
55,,,,,,,,,,,,,,,,,,,,,,,,,,,,,,,,,,,,,,,,,,,,,,,,,,,,,,,,,,,,,,,,,,,,,,,,,,,,,,,,,,,,,,,,,,,,,,,,,,,,,,,,,,,,,,,,,,,,,,,,,,,,,,,,,,,,
56,,,,,,,,,,,,,,,,,,,,,,,,,,,,,,,,,,,,,,,,,,,,,,,,,,,,,,,,,,,,,,,,,,,,,,,,,,,,,,,,,,,,,,,,,,,,,,,,,,,,,,,,,,,,,,,,,,,,,,,,,,,,,,,,,,,,
57,,,,,,,,,,,,,,,,,,,,,,,,,,,,,,,,,,,,,,,,,,,,,,,,,,,,,,,,,,,,,,,,,,,,,,,,,,,,,,,,,,,,,,,,,,,,,,,,,,,,,,,,,,,,,,,,,,,,,,,,,,,,,,,,,,,,
58,,,,,,,,,,,,,,,,,,,,,,,,,,,,,,,,,,,,,,,,,,,,,,,,,,,,,,,,,,,,,,,,,,,,,,,,,,,,,,,,,,,,,,,,,,,,,,,,,,,,,,,,,,,,,,,,,,,,,,,,,,,,,,,,,,,,
59,,,,,,,,,,,,,,,,,,,,,,,,,,,,,,,,,,,,,,,,,,,,,,,,,,,,,,,,,,,,,,,,,,,,,,,,,,,,,,,,,,,,,,,,,,,,,,,,,,,,,,,,,,,,,,,,,,,,,,,,,,,,,,,,,,,,
60,,,,,,,,,,,,,,,,,,,,,,,,,,,,,,,,,,,,,,,,,,,,,,,,,,,,,,,,,,,,,,,,,,,,,,,,,,,,,,,,,,,,,,,,,,,,,,,,,,,,,,,,,,,,,,,,,,,,,,,,,,,,,,,,,,,,
61,,,,,,,,,,,,,,,,,,,,,,,,,,,,,,,,,,,,,,,,,,,,,,,,,,,,,,,,,,,,,,,,,,,,,,,,,,,,,,,,,,,,,,,,,,,,,,,,,,,,,,,,,,,,,,,,,,,,,,,,,,,,,,,,,,,,
62,,,,,,,,,,,,,,,,,,,,,,,,,,,,,,,,,,,,,,,,,,,,,,,,,,,,,,,,,,,,,,,,,,,,,,,,,,,,,,,,,,,,,,,,,,,,,,,,,,,,,,,,,,,,,,,,,,,,,,,,,,,,,,,,,,,,
63,,,,,,,,,,,,,,,,,,,,,,,,,,,,,,,,,,,,,,,,,,,,,,,,,,,,,,,,,,,,,,,,,,,,,,,,,,,,,,,,,,,,,,,,,,,,,,,,,,,,,,,,,,,,,,,,,,,,,,,,,,,,,,,,,,,,
64,0.4124209742721383,0.3184865844004131,-0.2740521266885497,0.9964737751585917,0.3668720836643102,0.3686076464989551,-0.2871763656491238,1.0027032976134524,0.429804589982493,0.31851894343298376,-0.24040791403148176,0.9508569194335632,0.4155368924742737,0.30188355787396537,-0.28982408411171495,1.0300974460676302,0.36994252041134434,0.37447740929775386,-0.19085115279005194,1.0015819923608407,0.34450378873377824,0.3874556617574894,-0.21094600602534658,1.0401856559378122,0.39488649051597063,0.35084958448443027,-0.22680027941126457,0.9566041000810617,0.36030234296870384,0.3502346252840945,-0.24951226600320428,1.005937855388721,0.37604401173522367,0.3642424884112377,-0.23185359084966942,0.9992527545633896,0.3955244350363144,0.3389532742019441,-0.2628840484002801,0.9652403255931138,0.4087355284787472,0.29970675697863863,-0.19460760080886882,0.9817669769507484,0.4195393664027526,0.3461062738954823,-0.24919716889595467,0.9693107671276754,0.3001041471975465,0.3902735848755164,-0.1911983920241496,1.0404665777883897,0.41488985228840836,0.3965356002911438,-0.3086183923743877,0.36026326577988843,0.2733085760738651,0.3745393994791531,-0.12355139608395879,0.8950282405844397,0.3862392575356111,0.3262247339392198,-0.2934174347946504,0.1136195279264568,0.3268327572180218,0.4283259117466183,-0.04084293150509363,0.6078451546421986,0.4034068772329195,0.3217909308035378,-0.2784870405213231,0.10642810688151665,0.30649634793476394,0.3713102669208086,-0.05242436275768673,0.582123816631169,0.3833450611397158,0.3842741516794628,-0.2701165219164896,0.12424152094614108,0.32420558202919336,0.44753845042512064,-0.08004308504210639,0.5755615255029097,0.3791531998519502,0.31861984848425345,-0.3299891740805489,0.08801021438179293,0.27016695747435643,0.3768226223028373,-0.02776246552304279,0.45677095481763447,0.42354405647048604,0.43092982014331704,-0.3005085419436148,0.9819511188020928,0.3171631279512718,0.38703204183939605,-0.1875352464670538,1.0016504643796718,0.3744083410596117,0.4719981991745761,-0.36895740978678193,0.22985996634851782,0.3371305006714296,0.46634249627077373,-0.22550474490385608,0.9829716634741249,0.3945317813939071,0.49667781580686265,-0.36746238420353616,0.7645350682908691,0.3544624870028448,0.5046272818653967,-0.26004816289444854,0.992682844041042,0.3751410126485697,0.5562208377386912,-0.41916860919845705,0.7847868866515563,0.31952313221805706,0.5173828461357851,-0.2579941025923258,0.9997579405779461,0.3884378216198995,0.4707691652144213,-0.38376560233481344,0.7373618886060067,0.3406734792310397,0.5079321284966956,-0.2520347848983353,0.9804897935222867
65,0.41560725073717475,0.31038750526833303,-0.28517710903963284,0.9964737751585917,0.3737172906559535,0.3617856266835101,-0.30422234194476605,1.0027032976134524,0.43713136179037454,0.31222752416532934,-0.2577635295383807,0.950856681014984,0.42334689046777585,0.2960819099724304,-0.3074566608095081,1.0300974460676302,0.3769490198873852,0.36575084226780086,-0.2094958123382315,1.0015819923608407,0.3512194911651189,0.37806429432203414,-0.22937350430809877,1.0401850598913644,0.4012944439423015,0.34073858037027926,-0.24498863942720306,0.9566041000810617,0.37787490750000313,0.3428238605898807,-0.28350020191438663,1.0059376169701417,0.39579402893112947,0.35141056206541255,-0.2740396927676716,0.9992467940989119,0.4028371992955357,0.3300554034229067,-0.28024505171917463,0.9652311464778184,0.4164219523102078,0.2889162003094034,-0.21407274867154283,0.9817579170447426,0.44540512700552565,0.3403060863077443,-0.2911772342106646,0.9692264265553182,0.3201119514071668,0.3677758415073676,-0.23605094074018315,1.040486724158324,0.4532464803474171,0.41712015377129213,-0.35808867245915765,0.09933416556445343,0.29125809272243464,0.3511014226419949,-0.16906205085782947,0.9504920314779945,0.4173631490580781,0.3637687758112444,-0.32385501171031805,0.4064523793363689,0.3447445341434708,0.4032357239586086,-0.09157002484400574,0.9459052952519397,0.4399194253932584,0.362360415037394,-0.31613255047394345,0.40002613291873285,0.3238785904813992,0.3423093885867632,-0.10427908431180652,0.9161594516256758,0.4175140062866214,0.4248051611151165,-0.30429508696982555,0.4428071429182251,0.3445908914037306,0.42050494260117655,-0.1369512961882498,0.9321942350060837,0.4098609886254237,0.35828265666410886,-0.35959413694318276,0.35965209465561193,0.28838832401533426,0.3526880459821891,-0.07982197580588711,0.9294849319160995,0.4272635299747601,0.4211530192724216,-0.30088161106050365,0.9818164123049005,0.3180042940710684,0.373484382919108,-0.19003149347638504,1.0016197083829677,0.3575108289825653,0.469652488181763,-0.32888577051972073,0.4023620370138773,0.32906303723086144,0.4630608135410526,-0.215314999556254,0.982676560877842,0.3578976228636447,0.4979691504359215,-0.2956156882742351,0.7753337013894714,0.3462755193243115,0.5016483609288123,-0.24612408951985532,0.9879104789478108,0.3366476779907498,0.5555405103232249,-0.3442496268847807,0.8034563130927489,0.31218733975307844,0.5116748669335146,-0.2445021910866233,0.9822915742869,0.3433046440593251,0.47675871675861076,-0.2992975316912979,0.7959451481885262,0.32975697271707993,0.5086570997910986,-0.2322010098402417,0.9760652811359647
66,0.425096893747036,0.3058944773428417,-0.3095416122699668,0.9964737751585917,0.3760031148081602,0.3565234902241595,-0.3167515470277131,1.0027032976134524,0.43878474631983116,0.30662391269606054,-0.26987967305131805,0.9446298433799438,0.424361908206681,0.29016135080456845,-0.319165551174497,1.0300974460676302,0.3838356387810512,0.361780487472345,-0.22819092100942853,1.0015819923608407,0.35888589946205235,0.3747275369005406,-0.2485994727294275,1.0351495402914497,0.40975117256548854,0.3380312777999362,-0.2647644646107133,0.9566041000810617,0.357039599005119,0.3387281274241397,-0.25536466954949427,0.9992829967995486,0.39233003912686804,0.3515515270503063,-0.270320438581383,0.9911938489618881,0.4040478563682339,0.326000201415613,-0.28987088131881134,0.9339623710147141,0.42292330095373865,0.2862909733349161,-0.23114849226116432,0.94317642652808,0.40356053680176224,0.3388395736276906,-0.22731391369583048,0.9624810285107321,0.32692920873231457,0.37627212599223087,-0.24439952819882912,1.039793224116362,0.3924222740243356,0.4226157914265503,-0.2600892628391129,0.009294644108688629,0.31141179547006537,0.3635131660444759,-0.20485168348554128,0.29988304486185974,0.33997208328399203,0.3737566665316118,-0.19726686944495803,0.044159488899421596,0.37769330780353644,0.41681181429445463,-0.1432549160956808,0.02979846024427223,0.3551890830195676,0.37506404238534025,-0.17659508485769632,0.019148094214337545,0.3605280812688072,0.3624951273887193,-0.1609971453020268,0.0062746784308858675,0.3355524293709796,0.4388334122862285,-0.1700208651619224,0.04050642188381748,0.37526142105724525,0.4384940714292253,-0.1853811472913762,0.02586953548501876,0.33319806138900093,0.37085810422346555,-0.23408546118811488,0.018788294979312826,0.3186973880133396,0.364872159246273,-0.1284677472392911,0.03272310101996023,0.41357036019215093,0.4194759531846988,-0.27848868792270737,0.9816416514864189,0.3333440095171935,0.3748072782075754,-0.2135706583008634,1.0014840482114589,0.3485990768714122,0.46814854378479026,-0.31768366715937557,0.08146675259958591,0.3455035264766308,0.4626213782974461,-0.247658818616362,0.8108361911764566,0.3494442452430116,0.5007421969294518,-0.2801450803783998,0.406267999427954,0.35617080695782727,0.5051950161068823,-0.26401967475660437,0.7899814542514607,0.33003563353785054,0.5603615128065929,-0.32962056165798853,0.5226652092528746,0.3219125942412064,0.5177550771424074,-0.26037335447303955,0.7534825752253155,0.3372543719967651,0.475429950412633,-0.28829315771766906,0.21796561332410058,0.3367752268547252,0.5085461159425269,-0.24544002625353323,0.419753763182092
67,0.40286895546054646,0.2935649585478282,-0.2759108825231509,0.9964737751585917,0.36452593040724185,0.3443418803551562,-0.30276838985692556,1.0027032976134524,0.4273108378634557,0.29445175016325414,-0.25586551078573905,0.9505789829749756,0.4126857974667759,0.2780150566875946,-0.30473564371904893,1.0300974460676302,0.3611493153702448,0.34990265267543946,-0.19340146158495977,1.0015819923608407,0.33627922821939293,0.3630672888593876,-0.21384848583196236,1.0400889772039865,0.387223773511822,0.3265984512809238,-0.2300566265862008,0.9566041000810617,0.33373923745156536,0.3275254046362826,-0.21855837925351246,1.005725484039386,0.37330406367027913,0.3413780572684307,-0.24109621150420626,0.9991670430842026,0.39442769125148036,0.31406884164769916,-0.278956128527287,0.9635842701426743,0.4021541569688696,0.27475157371104525,-0.1994552008665387,0.9803427835684853,0.39139911952837925,0.3297577927171987,-0.2082362582944805,0.9638021058575338,0.3105164417066129,0.37095869973605106,-0.2174285937051142,1.0400610873899827,0.37658559959474086,0.41802927361572884,-0.23001685420188817,0.04719296481338723,0.29296932700798056,0.36645420822930563,-0.15998158885836405,0.6901679705610938,0.3100114797392167,0.3339626685286058,-0.13212141913851785,0.2079573787355541,0.3383211965785953,0.3982011878353329,-0.06965997467502803,0.23558208072099493,0.3231274527716875,0.32665383535218284,-0.10519778942451974,0.23979390189780544,0.31923196585989744,0.3338265151469743,-0.08316250492852899,0.24709880413803537,0.30318401428764347,0.3887096313204235,-0.09720558726674275,0.29467294115316467,0.33053561554080946,0.40998949116990213,-0.10385128828903731,0.2807219049126997,0.30400802738667687,0.3235944223348852,-0.16817859713039793,0.22169757645664492,0.2770642485844256,0.3419020788706016,-0.052287596503165557,0.24048413166413862,0.409062214522058,0.4139672025075901,-0.27449983270095074,0.9819146407594901,0.3330566820858414,0.3707006075895181,-0.21445926337526353,1.001632821404818,0.34160270406839566,0.46389611000793485,-0.3083914149178657,0.8319979193915019,0.34320746097360455,0.4607757204719761,-0.24641755779288388,0.9814194393148843,0.3410290833974532,0.49698930968045885,-0.2639256039592341,0.938478111045996,0.3571880359938912,0.5045779292195227,-0.2647097977950872,0.9821640547496602,0.32123005297106355,0.5565642200972423,-0.3123265221953525,0.8986787862372801,0.3235100204738381,0.517441795129468,-0.26135331576178245,0.9389079759592631,0.3203235263366952,0.4701231700743456,-0.25864930438233685,0.707476596552784,0.33351729862804663,0.5045903344827185,-0.240034592123055,0.8413304717373136
68,0.36868659848596724,0.2954668533556438,-0.21215315485743186,0.9964737751585917,0.3175003366330103,0.3460153403618701,-0.215562916838576,1.0027032976134524,0.38025796759547426,0.2961742051879733,-0.1686451410519075,0.9503365112800292,0.365839026145118,0.27978474839329825,-0.21792430874539181,1.0300974460676302,0.32672343339813503,0.3514203359430328,-0.1294668969363223,1.0015819923608407,0.30185668146641,0.3645487027006352,-0.14991662283002596,1.0400554793936225,0.35282913501759394,0.32804228439364047,-0.16616400344228707,0.9566041000810617,0.299067641256305,0.3293809568327853,-0.15490806935080054,1.0055470277329288,0.3431744128087155,0.342742526796629,-0.18547619358129316,0.9991607249918564,0.3494807013480687,0.3159530934806612,-0.1956868910317212,0.9621902963153122,0.3704237254047818,0.2764473556572275,-0.14055533668926515,0.9787781616431313,0.3574269008784483,0.3306794891416829,-0.14727224877773948,0.9662782616154377,0.30403748411791215,0.3718509812683387,-0.20372767232200742,1.0399920056066878,0.3461488661150545,0.40962057815636294,-0.17863865020624697,0.39276231091347913,0.2886828285179803,0.3675676825983547,-0.14933955358313195,0.8160383771887488,0.28549509003033574,0.3443488374853624,-0.09520399745576827,0.2548561460876583,0.3336278133167644,0.40853839157640653,-0.0611240993498037,0.45188307487878615,0.2971325451960142,0.3411607714254861,-0.06750222182731261,0.23120345697535827,0.31492320987885375,0.3466008336036241,-0.07563487460692002,0.4218300885179945,0.27744095156635923,0.40376394664902154,-0.059380444303935395,0.285113816444989,0.3247341597381662,0.4236061722688401,-0.09384007332967487,0.45314920155118843,0.27943321029369134,0.33721196770117245,-0.1314839884446418,0.2178039775424985,0.2716686449818223,0.3546760993040275,-0.04282448802428594,0.39640068838010395,0.4036532469879763,0.4126858218542087,-0.26458202498925326,0.9819543374529105,0.34033110375374964,0.36936287074450164,-0.2256457097659071,1.0016421197294032,0.3357557326245783,0.4637762450672915,-0.29800897982433466,0.9120414736975321,0.34886236028367223,0.4605708593078831,-0.2571927179842146,0.9695994806280557,0.3413530603696215,0.49615246046781236,-0.26380886262447034,0.9853672969514528,0.3683087576931125,0.502927774628916,-0.28515014066132816,0.9719388779384419,0.3232099751127727,0.55547679295796,-0.3135579178991434,0.9824933476043152,0.3351854077980027,0.5157236316391726,-0.2824331040120415,0.9421618531221966,0.3157253013674409,0.4685842973555346,-0.2515559625696607,0.8683899447507211,0.34026659089557554,0.5023413916306982,-0.2543622467670277,0.8117659718822721
69,0.3215518509014695,0.28286258695053823,-0.13893882759398452,0.9964737751585917,0.269393346430315,0.3346849742272266,-0.1403183431817156,1.0027032976134524,0.33218222789782087,0.28511736476820404,-0.09342963233086658,0.950856681014984,0.31781209390283083,0.2690067683041107,-0.14275112698347997,1.0300974460676302,0.2816475014630796,0.33940436738186036,-0.059627723086420725,1.0015819923608407,0.25707518439160093,0.3523705200987065,-0.08028946599763612,1.0401855367285227,0.3083670549662957,0.3157078184131107,-0.09677147654748557,0.9566041000810617,0.2531586016527501,0.3200338458460757,-0.08152255558399883,1.0059376169701417,0.30955784571577655,0.3311286213667889,-0.1339388412345835,0.9992527545633896,0.30309619446872393,0.3042976138110903,-0.1226507030807567,0.9652334114543197,0.3278580977454032,0.26415908327639864,-0.07419932725199288,0.981755413649662,0.31940396366672197,0.3274620006143849,-0.08337669756983862,0.9666305846707052,0.29677332779202525,0.3593876202434821,-0.19271922570114147,1.0404523918829331,0.3099652204312187,0.40938549743736885,-0.119457654873947,0.4646585361274837,0.2990047313826853,0.3400106671793484,-0.1628237593220227,0.9283340643873877,0.2513270969855648,0.3587223187590135,-0.04499191110184934,0.4193833387994884,0.3399554945980372,0.373758306489584,-0.06946341855590725,0.6895584138623219,0.2611564756435234,0.3601444037516122,-0.014960654298083968,0.32886668071879693,0.3212237908710332,0.3086181909530199,-0.08484152298984815,0.5600698596456953,0.24063610648777115,0.4238955644335216,-0.0066430239563428535,0.3998693873335083,0.32962011996764273,0.387497022812816,-0.10035393453183264,0.5844971558244124,0.24486653432173833,0.3553066563551183,-0.08222097093353799,0.3300059960418729,0.27651801968461,0.32046303320295333,-0.049652999642010476,0.5492209477127609,0.39504577723829354,0.40608028610858804,-0.24723246535180823,0.9819620860567313,0.3516226576380275,0.35982705145243316,-0.2447717310823805,1.001653325402621,0.3229444169228814,0.45669706101196317,-0.27398309691608325,0.8842619541395792,0.3583404200402934,0.4551835232921818,-0.2694978542679659,0.9104403805723611,0.3417872890456466,0.48894914973973924,-0.26226110416367626,0.9601950633699096,0.3927512437119401,0.49538868113450074,-0.3189179903062717,0.9172150787097736,0.32485017934019295,0.5484230600859508,-0.31291895000767167,0.8491924471450255,0.3608146878599398,0.5080144860932131,-0.3173159872256398,0.7340655277247051,0.30005741573701106,0.458064912017705,-0.2248865379943411,0.8347631499356576,0.35350253332367804,0.49022698599867925,-0.2703962648728374,0.7151512534450772
70,,,,,,,,,,,,,,,,,,,,,,,,,,,,,,,,,,,,,,,,,,,,,,,,,,,,,,,,,,,,,,,,,,,,,,,,,,,,,,,,,,,,,,,,,,,,,,,,,,,,,,,,,,,,,,,,,,,,,,,,,,,,,,,,,,,,
71,,,,,,,,,,,,,,,,,,,,,,,,,,,,,,,,,,,,,,,,,,,,,,,,,,,,,,,,,,,,,,,,,,,,,,,,,,,,,,,,,,,,,,,,,,,,,,,,,,,,,,,,,,,,,,,,,,,,,,,,,,,,,,,,,,,,
72,,,,,,,,,,,,,,,,,,,,,,,,,,,,,,,,,,,,,,,,,,,,,,,,,,,,,,,,,,,,,,,,,,,,,,,,,,,,,,,,,,,,,,,,,,,,,,,,,,,,,,,,,,,,,,,,,,,,,,,,,,,,,,,,,,,,
73,,,,,,,,,,,,,,,,,,,,,,,,,,,,,,,,,,,,,,,,,,,,,,,,,,,,,,,,,,,,,,,,,,,,,,,,,,,,,,,,,,,,,,,,,,,,,,,,,,,,,,,,,,,,,,,,,,,,,,,,,,,,,,,,,,,,
74,,,,,,,,,,,,,,,,,,,,,,,,,,,,,,,,,,,,,,,,,,,,,,,,,,,,,,,,,,,,,,,,,,,,,,,,,,,,,,,,,,,,,,,,,,,,,,,,,,,,,,,,,,,,,,,,,,,,,,,,,,,,,,,,,,,,
75,,,,,,,,,,,,,,,,,,,,,,,,,,,,,,,,,,,,,,,,,,,,,,,,,,,,,,,,,,,,,,,,,,,,,,,,,,,,,,,,,,,,,,,,,,,,,,,,,,,,,,,,,,,,,,,,,,,,,,,,,,,,,,,,,,,,
76,,,,,,,,,,,,,,,,,,,,,,,,,,,,,,,,,,,,,,,,,,,,,,,,,,,,,,,,,,,,,,,,,,,,,,,,,,,,,,,,,,,,,,,,,,,,,,,,,,,,,,,,,,,,,,,,,,,,,,,,,,,,,,,,,,,,
77,,,,,,,,,,,,,,,,,,,,,,,,,,,,,,,,,,,,,,,,,,,,,,,,,,,,,,,,,,,,,,,,,,,,,,,,,,,,,,,,,,,,,,,,,,,,,,,,,,,,,,,,,,,,,,,,,,,,,,,,,,,,,,,,,,,,
78,,,,,,,,,,,,,,,,,,,,,,,,,,,,,,,,,,,,,,,,,,,,,,,,,,,,,,,,,,,,,,,,,,,,,,,,,,,,,,,,,,,,,,,,,,,,,,,,,,,,,,,,,,,,,,,,,,,,,,,,,,,,,,,,,,,,
79,,,,,,,,,,,,,,,,,,,,,,,,,,,,,,,,,,,,,,,,,,,,,,,,,,,,,,,,,,,,,,,,,,,,,,,,,,,,,,,,,,,,,,,,,,,,,,,,,,,,,,,,,,,,,,,,,,,,,,,,,,,,,,,,,,,,
80,,,,,,,,,,,,,,,,,,,,,,,,,,,,,,,,,,,,,,,,,,,,,,,,,,,,,,,,,,,,,,,,,,,,,,,,,,,,,,,,,,,,,,,,,,,,,,,,,,,,,,,,,,,,,,,,,,,,,,,,,,,,,,,,,,,,
81,,,,,,,,,,,,,,,,,,,,,,,,,,,,,,,,,,,,,,,,,,,,,,,,,,,,,,,,,,,,,,,,,,,,,,,,,,,,,,,,,,,,,,,,,,,,,,,,,,,,,,,,,,,,,,,,,,,,,,,,,,,,,,,,,,,,
82,,,,,,,,,,,,,,,,,,,,,,,,,,,,,,,,,,,,,,,,,,,,,,,,,,,,,,,,,,,,,,,,,,,,,,,,,,,,,,,,,,,,,,,,,,,,,,,,,,,,,,,,,,,,,,,,,,,,,,,,,,,,,,,,,,,,
83,,,,,,,,,,,,,,,,,,,,,,,,,,,,,,,,,,,,,,,,,,,,,,,,,,,,,,,,,,,,,,,,,,,,,,,,,,,,,,,,,,,,,,,,,,,,,,,,,,,,,,,,,,,,,,,,,,,,,,,,,,,,,,,,,,,,
84,,,,,,,,,,,,,,,,,,,,,,,,,,,,,,,,,,,,,,,,,,,,,,,,,,,,,,,,,,,,,,,,,,,,,,,,,,,,,,,,,,,,,,,,,,,,,,,,,,,,,,,,,,,,,,,,,,,,,,,,,,,,,,,,,,,,
85,,,,,,,,,,,,,,,,,,,,,,,,,,,,,,,,,,,,,,,,,,,,,,,,,,,,,,,,,,,,,,,,,,,,,,,,,,,,,,,,,,,,,,,,,,,,,,,,,,,,,,,,,,,,,,,,,,,,,,,,,,,,,,,,,,,,
86,,,,,,,,,,,,,,,,,,,,,,,,,,,,,,,,,,,,,,,,,,,,,,,,,,,,,,,,,,,,,,,,,,,,,,,,,,,,,,,,,,,,,,,,,,,,,,,,,,,,,,,,,,,,,,,,,,,,,,,,,,,,,,,,,,,,
87,,,,,,,,,,,,,,,,,,,,,,,,,,,,,,,,,,,,,,,,,,,,,,,,,,,,,,,,,,,,,,,,,,,,,,,,,,,,,,,,,,,,,,,,,,,,,,,,,,,,,,,,,,,,,,,,,,,,,,,,,,,,,,,,,,,,
88,,,,,,,,,,,,,,,,,,,,,,,,,,,,,,,,,,,,,,,,,,,,,,,,,,,,,,,,,,,,,,,,,,,,,,,,,,,,,,,,,,,,,,,,,,,,,,,,,,,,,,,,,,,,,,,,,,,,,,,,,,,,,,,,,,,,
89,,,,,,,,,,,,,,,,,,,,,,,,,,,,,,,,,,,,,,,,,,,,,,,,,,,,,,,,,,,,,,,,,,,,,,,,,,,,,,,,,,,,,,,,,,,,,,,,,,,,,,,,,,,,,,,,,,,,,,,,,,,,,,,,,,,,
90,,,,,,,,,,,,,,,,,,,,,,,,,,,,,,,,,,,,,,,,,,,,,,,,,,,,,,,,,,,,,,,,,,,,,,,,,,,,,,,,,,,,,,,,,,,,,,,,,,,,,,,,,,,,,,,,,,,,,,,,,,,,,,,,,,,,
91,,,,,,,,,,,,,,,,,,,,,,,,,,,,,,,,,,,,,,,,,,,,,,,,,,,,,,,,,,,,,,,,,,,,,,,,,,,,,,,,,,,,,,,,,,,,,,,,,,,,,,,,,,,,,,,,,,,,,,,,,,,,,,,,,,,,
92,,,,,,,,,,,,,,,,,,,,,,,,,,,,,,,,,,,,,,,,,,,,,,,,,,,,,,,,,,,,,,,,,,,,,,,,,,,,,,,,,,,,,,,,,,,,,,,,,,,,,,,,,,,,,,,,,,,,,,,,,,,,,,,,,,,,
93,,,,,,,,,,,,,,,,,,,,,,,,,,,,,,,,,,,,,,,,,,,,,,,,,,,,,,,,,,,,,,,,,,,,,,,,,,,,,,,,,,,,,,,,,,,,,,,,,,,,,,,,,,,,,,,,,,,,,,,,,,,,,,,,,,,,
94,,,,,,,,,,,,,,,,,,,,,,,,,,,,,,,,,,,,,,,,,,,,,,,,,,,,,,,,,,,,,,,,,,,,,,,,,,,,,,,,,,,,,,,,,,,,,,,,,,,,,,,,,,,,,,,,,,,,,,,,,,,,,,,,,,,,
95,,,,,,,,,,,,,,,,,,,,,,,,,,,,,,,,,,,,,,,,,,,,,,,,,,,,,,,,,,,,,,,,,,,,,,,,,,,,,,,,,,,,,,,,,,,,,,,,,,,,,,,,,,,,,,,,,,,,,,,,,,,,,,,,,,,,
96,,,,,,,,,,,,,,,,,,,,,,,,,,,,,,,,,,,,,,,,,,,,,,,,,,,,,,,,,,,,,,,,,,,,,,,,,,,,,,,,,,,,,,,,,,,,,,,,,,,,,,,,,,,,,,,,,,,,,,,,,,,,,,,,,,,,
97,,,,,,,,,,,,,,,,,,,,,,,,,,,,,,,,,,,,,,,,,,,,,,,,,,,,,,,,,,,,,,,,,,,,,,,,,,,,,,,,,,,,,,,,,,,,,,,,,,,,,,,,,,,,,,,,,,,,,,,,,,,,,,,,,,,,
98,,,,,,,,,,,,,,,,,,,,,,,,,,,,,,,,,,,,,,,,,,,,,,,,,,,,,,,,,,,,,,,,,,,,,,,,,,,,,,,,,,,,,,,,,,,,,,,,,,,,,,,,,,,,,,,,,,,,,,,,,,,,,,,,,,,,
99,,,,,,,,,,,,,,,,,,,,,,,,,,,,,,,,,,,,,,,,,,,,,,,,,,,,,,,,,,,,,,,,,,,,,,,,,,,,,,,,,,,,,,,,,,,,,,,,,,,,,,,,,,,,,,,,,,,,,,,,,,,,,,,,,,,,
100,,,,,,,,,,,,,,,,,,,,,,,,,,,,,,,,,,,,,,,,,,,,,,,,,,,,,,,,,,,,,,,,,,,,,,,,,,,,,,,,,,,,,,,,,,,,,,,,,,,,,,,,,,,,,,,,,,,,,,,,,,,,,,,,,,,,
101,,,,,,,,,,,,,,,,,,,,,,,,,,,,,,,,,,,,,,,,,,,,,,,,,,,,,,,,,,,,,,,,,,,,,,,,,,,,,,,,,,,,,,,,,,,,,,,,,,,,,,,,,,,,,,,,,,,,,,,,,,,,,,,,,,,,
102,,,,,,,,,,,,,,,,,,,,,,,,,,,,,,,,,,,,,,,,,,,,,,,,,,,,,,,,,,,,,,,,,,,,,,,,,,,,,,,,,,,,,,,,,,,,,,,,,,,,,,,,,,,,,,,,,,,,,,,,,,,,,,,,,,,,
