frame,NOSE.x,NOSE.y,NOSE.z,NOSE.v,LEFT_EYE_INNER.x,LEFT_EYE_INNER.y,LEFT_EYE_INNER.z,LEFT_EYE_INNER.v,LEFT_EYE.x,LEFT_EYE.y,LEFT_EYE.z,LEFT_EYE.v,LEFT_EYE_OUTER.x,LEFT_EYE_OUTER.y,LEFT_EYE_OUTER.z,LEFT_EYE_OUTER.v,RIGHT_EYE_INNER.x,RIGHT_EYE_INNER.y,RIGHT_EYE_INNER.z,RIGHT_EYE_INNER.v,RIGHT_EYE.x,RIGHT_EYE.y,RIGHT_EYE.z,RIGHT_EYE.v,RIGHT_EYE_OUTER.x,RIGHT_EYE_OUTER.y,RIGHT_EYE_OUTER.z,RIGHT_EYE_OUTER.v,LEFT_EAR.x,LEFT_EAR.y,LEFT_EAR.z,LEFT_EAR.v,RIGHT_EAR.x,RIGHT_EAR.y,RIGHT_EAR.z,RIGHT_EAR.v,MOUTH_LEFT.x,MOUTH_LEFT.y,MOUTH_LEFT.z,MOUTH_LEFT.v,MOUTH_RIGHT.x,MOUTH_RIGHT.y,MOUTH_RIGHT.z,MOUTH_RIGHT.v,LEFT_SHOULDER.x,LEFT_SHOULDER.y,LEFT_SHOULDER.z,LEFT_SHOULDER.v,RIGHT_SHOULDER.x,RIGHT_SHOULDER.y,RIGHT_SHOULDER.z,RIGHT_SHOULDER.v,LEFT_ELBOW.x,LEFT_ELBOW.y,LEFT_ELBOW.z,LEFT_ELBOW.v,RIGHT_ELBOW.x,RIGHT_ELBOW.y,RIGHT_ELBOW.z,RIGHT_ELBOW.v,LEFT_WRIST.x,LEFT_WRIST.y,LEFT_WRIST.z,LEFT_WRIST.v,RIGHT_WRIST.x,RIGHT_WRIST.y,RIGHT_WRIST.z,RIGHT_WRIST.v,LEFT_PINKY.x,LEFT_PINKY.y,LEFT_PINKY.z,LEFT_PINKY.v,RIGHT_PINKY.x,RIGHT_PINKY.y,RIGHT_PINKY.z,RIGHT_PINKY.v,LEFT_INDEX.x,LEFT_INDEX.y,LEFT_INDEX.z,LEFT_INDEX.v,RIGHT_INDEX.x,RIGHT_INDEX.y,RIGHT_INDEX.z,RIGHT_INDEX.v,LEFT_THUMB.x,LEFT_THUMB.y,LEFT_THUMB.z,LEFT_THUMB.v,RIGHT_THUMB.x,RIGHT_THUMB.y,RIGHT_THUMB.z,RIGHT_THUMB.v,LEFT_HIP.x,LEFT_HIP.y,LEFT_HIP.z,LEFT_HIP.v,RIGHT_HIP.x,RIGHT_HIP.y,RIGHT_HIP.z,RIGHT_HIP.v,LEFT_KNEE.x,LEFT_KNEE.y,LEFT_KNEE.z,LEFT_KNEE.v,RIGHT_KNEE.x,RIGHT_KNEE.y,RIGHT_KNEE.z,RIGHT_KNEE.v,LEFT_ANKLE.x,LEFT_ANKLE.y,LEFT_ANKLE.z,LEFT_ANKLE.v,RIGHT_ANKLE.x,RIGHT_ANKLE.y,RIGHT_ANKLE.z,RIGHT_ANKLE.v,LEFT_HEEL.x,LEFT_HEEL.y,LEFT_HEEL.z,LEFT_HEEL.v,RIGHT_HEEL.x,RIGHT_HEEL.y,RIGHT_HEEL.z,RIGHT_HEEL.v,LEFT_FOOT_INDEX.x,LEFT_FOOT_INDEX.y,LEFT_FOOT_INDEX.z,LEFT_FOOT_INDEX.v,RIGHT_FOOT_INDEX.x,RIGHT_FOOT_INDEX.y,RIGHT_FOOT_INDEX.z,RIGHT_FOOT_INDEX.v
0,,,,,,,,,,,,,,,,,,,,,,,,,,,,,,,,,,,,,,,,,,,,,,,,,,,,,,,,,,,,,,,,,,,,,,,,,,,,,,,,,,,,,,,,,,,,,,,,,,,,,,,,,,,,,,,,,,,,,,,,,,,,,,,,,,,,
1,,,,,,,,,,,,,,,,,,,,,,,,,,,,,,,,,,,,,,,,,,,,,,,,,,,,,,,,,,,,,,,,,,,,,,,,,,,,,,,,,,,,,,,,,,,,,,,,,,,,,,,,,,,,,,,,,,,,,,,,,,,,,,,,,,,,
2,,,,,,,,,,,,,,,,,,,,,,,,,,,,,,,,,,,,,,,,,,,,,,,,,,,,,,,,,,,,,,,,,,,,,,,,,,,,,,,,,,,,,,,,,,,,,,,,,,,,,,,,,,,,,,,,,,,,,,,,,,,,,,,,,,,,
3,,,,,,,,,,,,,,,,,,,,,,,,,,,,,,,,,,,,,,,,,,,,,,,,,,,,,,,,,,,,,,,,,,,,,,,,,,,,,,,,,,,,,,,,,,,,,,,,,,,,,,,,,,,,,,,,,,,,,,,,,,,,,,,,,,,,
4,,,,,,,,,,,,,,,,,,,,,,,,,,,,,,,,,,,,,,,,,,,,,,,,,,,,,,,,,,,,,,,,,,,,,,,,,,,,,,,,,,,,,,,,,,,,,,,,,,,,,,,,,,,,,,,,,,,,,,,,,,,,,,,,,,,,
5,,,,,,,,,,,,,,,,,,,,,,,,,,,,,,,,,,,,,,,,,,,,,,,,,,,,,,,,,,,,,,,,,,,,,,,,,,,,,,,,,,,,,,,,,,,,,,,,,,,,,,,,,,,,,,,,,,,,,,,,,,,,,,,,,,,,
6,,,,,,,,,,,,,,,,,,,,,,,,,,,,,,,,,,,,,,,,,,,,,,,,,,,,,,,,,,,,,,,,,,,,,,,,,,,,,,,,,,,,,,,,,,,,,,,,,,,,,,,,,,,,,,,,,,,,,,,,,,,,,,,,,,,,
7,,,,,,,,,,,,,,,,,,,,,,,,,,,,,,,,,,,,,,,,,,,,,,,,,,,,,,,,,,,,,,,,,,,,,,,,,,,,,,,,,,,,,,,,,,,,,,,,,,,,,,,,,,,,,,,,,,,,,,,,,,,,,,,,,,,,
8,,,,,,,,,,,,,,,,,,,,,,,,,,,,,,,,,,,,,,,,,,,,,,,,,,,,,,,,,,,,,,,,,,,,,,,,,,,,,,,,,,,,,,,,,,,,,,,,,,,,,,,,,,,,,,,,,,,,,,,,,,,,,,,,,,,,
9,,,,,,,,,,,,,,,,,,,,,,,,,,,,,,,,,,,,,,,,,,,,,,,,,,,,,,,,,,,,,,,,,,,,,,,,,,,,,,,,,,,,,,,,,,,,,,,,,,,,,,,,,,,,,,,,,,,,,,,,,,,,,,,,,,,,
10,,,,,,,,,,,,,,,,,,,,,,,,,,,,,,,,,,,,,,,,,,,,,,,,,,,,,,,,,,,,,,,,,,,,,,,,,,,,,,,,,,,,,,,,,,,,,,,,,,,,,,,,,,,,,,,,,,,,,,,,,,,,,,,,,,,,
11,,,,,,,,,,,,,,,,,,,,,,,,,,,,,,,,,,,,,,,,,,,,,,,,,,,,,,,,,,,,,,,,,,,,,,,,,,,,,,,,,,,,,,,,,,,,,,,,,,,,,,,,,,,,,,,,,,,,,,,,,,,,,,,,,,,,
12,,,,,,,,,,,,,,,,,,,,,,,,,,,,,,,,,,,,,,,,,,,,,,,,,,,,,,,,,,,,,,,,,,,,,,,,,,,,,,,,,,,,,,,,,,,,,,,,,,,,,,,,,,,,,,,,,,,,,,,,,,,,,,,,,,,,
13,,,,,,,,,,,,,,,,,,,,,,,,,,,,,,,,,,,,,,,,,,,,,,,,,,,,,,,,,,,,,,,,,,,,,,,,,,,,,,,,,,,,,,,,,,,,,,,,,,,,,,,,,,,,,,,,,,,,,,,,,,,,,,,,,,,,
14,,,,,,,,,,,,,,,,,,,,,,,,,,,,,,,,,,,,,,,,,,,,,,,,,,,,,,,,,,,,,,,,,,,,,,,,,,,,,,,,,,,,,,,,,,,,,,,,,,,,,,,,,,,,,,,,,,,,,,,,,,,,,,,,,,,,
15,,,,,,,,,,,,,,,,,,,,,,,,,,,,,,,,,,,,,,,,,,,,,,,,,,,,,,,,,,,,,,,,,,,,,,,,,,,,,,,,,,,,,,,,,,,,,,,,,,,,,,,,,,,,,,,,,,,,,,,,,,,,,,,,,,,,
16,,,,,,,,,,,,,,,,,,,,,,,,,,,,,,,,,,,,,,,,,,,,,,,,,,,,,,,,,,,,,,,,,,,,,,,,,,,,,,,,,,,,,,,,,,,,,,,,,,,,,,,,,,,,,,,,,,,,,,,,,,,,,,,,,,,,
17,,,,,,,,,,,,,,,,,,,,,,,,,,,,,,,,,,,,,,,,,,,,,,,,,,,,,,,,,,,,,,,,,,,,,,,,,,,,,,,,,,,,,,,,,,,,,,,,,,,,,,,,,,,,,,,,,,,,,,,,,,,,,,,,,,,,
18,,,,,,,,,,,,,,,,,,,,,,,,,,,,,,,,,,,,,,,,,,,,,,,,,,,,,,,,,,,,,,,,,,,,,,,,,,,,,,,,,,,,,,,,,,,,,,,,,,,,,,,,,,,,,,,,,,,,,,,,,,,,,,,,,,,,
19,,,,,,,,,,,,,,,,,,,,,,,,,,,,,,,,,,,,,,,,,,,,,,,,,,,,,,,,,,,,,,,,,,,,,,,,,,,,,,,,,,,,,,,,,,,,,,,,,,,,,,,,,,,,,,,,,,,,,,,,,,,,,,,,,,,,
20,,,,,,,,,,,,,,,,,,,,,,,,,,,,,,,,,,,,,,,,,,,,,,,,,,,,,,,,,,,,,,,,,,,,,,,,,,,,,,,,,,,,,,,,,,,,,,,,,,,,,,,,,,,,,,,,,,,,,,,,,,,,,,,,,,,,
21,,,,,,,,,,,,,,,,,,,,,,,,,,,,,,,,,,,,,,,,,,,,,,,,,,,,,,,,,,,,,,,,,,,,,,,,,,,,,,,,,,,,,,,,,,,,,,,,,,,,,,,,,,,,,,,,,,,,,,,,,,,,,,,,,,,,
22,,,,,,,,,,,,,,,,,,,,,,,,,,,,,,,,,,,,,,,,,,,,,,,,,,,,,,,,,,,,,,,,,,,,,,,,,,,,,,,,,,,,,,,,,,,,,,,,,,,,,,,,,,,,,,,,,,,,,,,,,,,,,,,,,,,,
23,,,,,,,,,,,,,,,,,,,,,,,,,,,,,,,,,,,,,,,,,,,,,,,,,,,,,,,,,,,,,,,,,,,,,,,,,,,,,,,,,,,,,,,,,,,,,,,,,,,,,,,,,,,,,,,,,,,,,,,,,,,,,,,,,,,,
24,,,,,,,,,,,,,,,,,,,,,,,,,,,,,,,,,,,,,,,,,,,,,,,,,,,,,,,,,,,,,,,,,,,,,,,,,,,,,,,,,,,,,,,,,,,,,,,,,,,,,,,,,,,,,,,,,,,,,,,,,,,,,,,,,,,,
25,,,,,,,,,,,,,,,,,,,,,,,,,,,,,,,,,,,,,,,,,,,,,,,,,,,,,,,,,,,,,,,,,,,,,,,,,,,,,,,,,,,,,,,,,,,,,,,,,,,,,,,,,,,,,,,,,,,,,,,,,,,,,,,,,,,,
26,,,,,,,,,,,,,,,,,,,,,,,,,,,,,,,,,,,,,,,,,,,,,,,,,,,,,,,,,,,,,,,,,,,,,,,,,,,,,,,,,,,,,,,,,,,,,,,,,,,,,,,,,,,,,,,,,,,,,,,,,,,,,,,,,,,,
27,,,,,,,,,,,,,,,,,,,,,,,,,,,,,,,,,,,,,,,,,,,,,,,,,,,,,,,,,,,,,,,,,,,,,,,,,,,,,,,,,,,,,,,,,,,,,,,,,,,,,,,,,,,,,,,,,,,,,,,,,,,,,,,,,,,,
28,,,,,,,,,,,,,,,,,,,,,,,,,,,,,,,,,,,,,,,,,,,,,,,,,,,,,,,,,,,,,,,,,,,,,,,,,,,,,,,,,,,,,,,,,,,,,,,,,,,,,,,,,,,,,,,,,,,,,,,,,,,,,,,,,,,,
29,,,,,,,,,,,,,,,,,,,,,,,,,,,,,,,,,,,,,,,,,,,,,,,,,,,,,,,,,,,,,,,,,,,,,,,,,,,,,,,,,,,,,,,,,,,,,,,,,,,,,,,,,,,,,,,,,,,,,,,,,,,,,,,,,,,,
30,,,,,,,,,,,,,,,,,,,,,,,,,,,,,,,,,,,,,,,,,,,,,,,,,,,,,,,,,,,,,,,,,,,,,,,,,,,,,,,,,,,,,,,,,,,,,,,,,,,,,,,,,,,,,,,,,,,,,,,,,,,,,,,,,,,,
31,,,,,,,,,,,,,,,,,,,,,,,,,,,,,,,,,,,,,,,,,,,,,,,,,,,,,,,,,,,,,,,,,,,,,,,,,,,,,,,,,,,,,,,,,,,,,,,,,,,,,,,,,,,,,,,,,,,,,,,,,,,,,,,,,,,,
32,,,,,,,,,,,,,,,,,,,,,,,,,,,,,,,,,,,,,,,,,,,,,,,,,,,,,,,,,,,,,,,,,,,,,,,,,,,,,,,,,,,,,,,,,,,,,,,,,,,,,,,,,,,,,,,,,,,,,,,,,,,,,,,,,,,,
33,,,,,,,,,,,,,,,,,,,,,,,,,,,,,,,,,,,,,,,,,,,,,,,,,,,,,,,,,,,,,,,,,,,,,,,,,,,,,,,,,,,,,,,,,,,,,,,,,,,,,,,,,,,,,,,,,,,,,,,,,,,,,,,,,,,,
34,,,,,,,,,,,,,,,,,,,,,,,,,,,,,,,,,,,,,,,,,,,,,,,,,,,,,,,,,,,,,,,,,,,,,,,,,,,,,,,,,,,,,,,,,,,,,,,,,,,,,,,,,,,,,,,,,,,,,,,,,,,,,,,,,,,,
35,,,,,,,,,,,,,,,,,,,,,,,,,,,,,,,,,,,,,,,,,,,,,,,,,,,,,,,,,,,,,,,,,,,,,,,,,,,,,,,,,,,,,,,,,,,,,,,,,,,,,,,,,,,,,,,,,,,,,,,,,,,,,,,,,,,,
36,,,,,,,,,,,,,,,,,,,,,,,,,,,,,,,,,,,,,,,,,,,,,,,,,,,,,,,,,,,,,,,,,,,,,,,,,,,,,,,,,,,,,,,,,,,,,,,,,,,,,,,,,,,,,,,,,,,,,,,,,,,,,,,,,,,,
37,,,,,,,,,,,,,,,,,,,,,,,,,,,,,,,,,,,,,,,,,,,,,,,,,,,,,,,,,,,,,,,,,,,,,,,,,,,,,,,,,,,,,,,,,,,,,,,,,,,,,,,,,,,,,,,,,,,,,,,,,,,,,,,,,,,,
38,,,,,,,,,,,,,,,,,,,,,,,,,,,,,,,,,,,,,,,,,,,,,,,,,,,,,,,,,,,,,,,,,,,,,,,,,,,,,,,,,,,,,,,,,,,,,,,,,,,,,,,,,,,,,,,,,,,,,,,,,,,,,,,,,,,,
39,,,,,,,,,,,,,,,,,,,,,,,,,,,,,,,,,,,,,,,,,,,,,,,,,,,,,,,,,,,,,,,,,,,,,,,,,,,,,,,,,,,,,,,,,,,,,,,,,,,,,,,,,,,,,,,,,,,,,,,,,,,,,,,,,,,,
40,,,,,,,,,,,,,,,,,,,,,,,,,,,,,,,,,,,,,,,,,,,,,,,,,,,,,,,,,,,,,,,,,,,,,,,,,,,,,,,,,,,,,,,,,,,,,,,,,,,,,,,,,,,,,,,,,,,,,,,,,,,,,,,,,,,,
41,,,,,,,,,,,,,,,,,,,,,,,,,,,,,,,,,,,,,,,,,,,,,,,,,,,,,,,,,,,,,,,,,,,,,,,,,,,,,,,,,,,,,,,,,,,,,,,,,,,,,,,,,,,,,,,,,,,,,,,,,,,,,,,,,,,,
42,,,,,,,,,,,,,,,,,,,,,,,,,,,,,,,,,,,,,,,,,,,,,,,,,,,,,,,,,,,,,,,,,,,,,,,,,,,,,,,,,,,,,,,,,,,,,,,,,,,,,,,,,,,,,,,,,,,,,,,,,,,,,,,,,,,,
43,,,,,,,,,,,,,,,,,,,,,,,,,,,,,,,,,,,,,,,,,,,,,,,,,,,,,,,,,,,,,,,,,,,,,,,,,,,,,,,,,,,,,,,,,,,,,,,,,,,,,,,,,,,,,,,,,,,,,,,,,,,,,,,,,,,,
44,,,,,,,,,,,,,,,,,,,,,,,,,,,,,,,,,,,,,,,,,,,,,,,,,,,,,,,,,,,,,,,,,,,,,,,,,,,,,,,,,,,,,,,,,,,,,,,,,,,,,,,,,,,,,,,,,,,,,,,,,,,,,,,,,,,,
45,,,,,,,,,,,,,,,,,,,,,,,,,,,,,,,,,,,,,,,,,,,,,,,,,,,,,,,,,,,,,,,,,,,,,,,,,,,,,,,,,,,,,,,,,,,,,,,,,,,,,,,,,,,,,,,,,,,,,,,,,,,,,,,,,,,,
46,,,,,,,,,,,,,,,,,,,,,,,,,,,,,,,,,,,,,,,,,,,,,,,,,,,,,,,,,,,,,,,,,,,,,,,,,,,,,,,,,,,,,,,,,,,,,,,,,,,,,,,,,,,,,,,,,,,,,,,,,,,,,,,,,,,,
47,,,,,,,,,,,,,,,,,,,,,,,,,,,,,,,,,,,,,,,,,,,,,,,,,,,,,,,,,,,,,,,,,,,,,,,,,,,,,,,,,,,,,,,,,,,,,,,,,,,,,,,,,,,,,,,,,,,,,,,,,,,,,,,,,,,,
48,,,,,,,,,,,,,,,,,,,,,,,,,,,,,,,,,,,,,,,,,,,,,,,,,,,,,,,,,,,,,,,,,,,,,,,,,,,,,,,,,,,,,,,,,,,,,,,,,,,,,,,,,,,,,,,,,,,,,,,,,,,,,,,,,,,,
49,,,,,,,,,,,,,,,,,,,,,,,,,,,,,,,,,,,,,,,,,,,,,,,,,,,,,,,,,,,,,,,,,,,,,,,,,,,,,,,,,,,,,,,,,,,,,,,,,,,,,,,,,,,,,,,,,,,,,,,,,,,,,,,,,,,,
50,,,,,,,,,,,,,,,,,,,,,,,,,,,,,,,,,,,,,,,,,,,,,,,,,,,,,,,,,,,,,,,,,,,,,,,,,,,,,,,,,,,,,,,,,,,,,,,,,,,,,,,,,,,,,,,,,,,,,,,,,,,,,,,,,,,,
51,,,,,,,,,,,,,,,,,,,,,,,,,,,,,,,,,,,,,,,,,,,,,,,,,,,,,,,,,,,,,,,,,,,,,,,,,,,,,,,,,,,,,,,,,,,,,,,,,,,,,,,,,,,,,,,,,,,,,,,,,,,,,,,,,,,,
52,,,,,,,,,,,,,,,,,,,,,,,,,,,,,,,,,,,,,,,,,,,,,,,,,,,,,,,,,,,,,,,,,,,,,,,,,,,,,,,,,,,,,,,,,,,,,,,,,,,,,,,,,,,,,,,,,,,,,,,,,,,,,,,,,,,,
53,,,,,,,,,,,,,,,,,,,,,,,,,,,,,,,,,,,,,,,,,,,,,,,,,,,,,,,,,,,,,,,,,,,,,,,,,,,,,,,,,,,,,,,,,,,,,,,,,,,,,,,,,,,,,,,,,,,,,,,,,,,,,,,,,,,,
54,,,,,,,,,,,,,,,,,,,,,,,,,,,,,,,,,,,,,,,,,,,,,,,,,,,,,,,,,,,,,,,,,,,,,,,,,,,,,,,,,,,,,,,,,,,,,,,,,,,,,,,,,,,,,,,,,,,,,,,,,,,,,,,,,,,,
55,,,,,,,,,,,,,,,,,,,,,,,,,,,,,,,,,,,,,,,,,,,,,,,,,,,,,,,,,,,,,,,,,,,,,,,,,,,,,,,,,,,,,,,,,,,,,,,,,,,,,,,,,,,,,,,,,,,,,,,,,,,,,,,,,,,,
56,,,,,,,,,,,,,,,,,,,,,,,,,,,,,,,,,,,,,,,,,,,,,,,,,,,,,,,,,,,,,,,,,,,,,,,,,,,,,,,,,,,,,,,,,,,,,,,,,,,,,,,,,,,,,,,,,,,,,,,,,,,,,,,,,,,,
57,,,,,,,,,,,,,,,,,,,,,,,,,,,,,,,,,,,,,,,,,,,,,,,,,,,,,,,,,,,,,,,,,,,,,,,,,,,,,,,,,,,,,,,,,,,,,,,,,,,,,,,,,,,,,,,,,,,,,,,,,,,,,,,,,,,,
58,,,,,,,,,,,,,,,,,,,,,,,,,,,,,,,,,,,,,,,,,,,,,,,,,,,,,,,,,,,,,,,,,,,,,,,,,,,,,,,,,,,,,,,,,,,,,,,,,,,,,,,,,,,,,,,,,,,,,,,,,,,,,,,,,,,,
59,,,,,,,,,,,,,,,,,,,,,,,,,,,,,,,,,,,,,,,,,,,,,,,,,,,,,,,,,,,,,,,,,,,,,,,,,,,,,,,,,,,,,,,,,,,,,,,,,,,,,,,,,,,,,,,,,,,,,,,,,,,,,,,,,,,,
60,,,,,,,,,,,,,,,,,,,,,,,,,,,,,,,,,,,,,,,,,,,,,,,,,,,,,,,,,,,,,,,,,,,,,,,,,,,,,,,,,,,,,,,,,,,,,,,,,,,,,,,,,,,,,,,,,,,,,,,,,,,,,,,,,,,,
61,,,,,,,,,,,,,,,,,,,,,,,,,,,,,,,,,,,,,,,,,,,,,,,,,,,,,,,,,,,,,,,,,,,,,,,,,,,,,,,,,,,,,,,,,,,,,,,,,,,,,,,,,,,,,,,,,,,,,,,,,,,,,,,,,,,,
62,,,,,,,,,,,,,,,,,,,,,,,,,,,,,,,,,,,,,,,,,,,,,,,,,,,,,,,,,,,,,,,,,,,,,,,,,,,,,,,,,,,,,,,,,,,,,,,,,,,,,,,,,,,,,,,,,,,,,,,,,,,,,,,,,,,,
63,,,,,,,,,,,,,,,,,,,,,,,,,,,,,,,,,,,,,,,,,,,,,,,,,,,,,,,,,,,,,,,,,,,,,,,,,,,,,,,,,,,,,,,,,,,,,,,,,,,,,,,,,,,,,,,,,,,,,,,,,,,,,,,,,,,,
64,,,,,,,,,,,,,,,,,,,,,,,,,,,,,,,,,,,,,,,,,,,,,,,,,,,,,,,,,,,,,,,,,,,,,,,,,,,,,,,,,,,,,,,,,,,,,,,,,,,,,,,,,,,,,,,,,,,,,,,,,,,,,,,,,,,,
65,,,,,,,,,,,,,,,,,,,,,,,,,,,,,,,,,,,,,,,,,,,,,,,,,,,,,,,,,,,,,,,,,,,,,,,,,,,,,,,,,,,,,,,,,,,,,,,,,,,,,,,,,,,,,,,,,,,,,,,,,,,,,,,,,,,,
66,,,,,,,,,,,,,,,,,,,,,,,,,,,,,,,,,,,,,,,,,,,,,,,,,,,,,,,,,,,,,,,,,,,,,,,,,,,,,,,,,,,,,,,,,,,,,,,,,,,,,,,,,,,,,,,,,,,,,,,,,,,,,,,,,,,,
67,,,,,,,,,,,,,,,,,,,,,,,,,,,,,,,,,,,,,,,,,,,,,,,,,,,,,,,,,,,,,,,,,,,,,,,,,,,,,,,,,,,,,,,,,,,,,,,,,,,,,,,,,,,,,,,,,,,,,,,,,,,,,,,,,,,,
68,,,,,,,,,,,,,,,,,,,,,,,,,,,,,,,,,,,,,,,,,,,,,,,,,,,,,,,,,,,,,,,,,,,,,,,,,,,,,,,,,,,,,,,,,,,,,,,,,,,,,,,,,,,,,,,,,,,,,,,,,,,,,,,,,,,,
69,,,,,,,,,,,,,,,,,,,,,,,,,,,,,,,,,,,,,,,,,,,,,,,,,,,,,,,,,,,,,,,,,,,,,,,,,,,,,,,,,,,,,,,,,,,,,,,,,,,,,,,,,,,,,,,,,,,,,,,,,,,,,,,,,,,,
70,,,,,,,,,,,,,,,,,,,,,,,,,,,,,,,,,,,,,,,,,,,,,,,,,,,,,,,,,,,,,,,,,,,,,,,,,,,,,,,,,,,,,,,,,,,,,,,,,,,,,,,,,,,,,,,,,,,,,,,,,,,,,,,,,,,,
71,,,,,,,,,,,,,,,,,,,,,,,,,,,,,,,,,,,,,,,,,,,,,,,,,,,,,,,,,,,,,,,,,,,,,,,,,,,,,,,,,,,,,,,,,,,,,,,,,,,,,,,,,,,,,,,,,,,,,,,,,,,,,,,,,,,,
72,,,,,,,,,,,,,,,,,,,,,,,,,,,,,,,,,,,,,,,,,,,,,,,,,,,,,,,,,,,,,,,,,,,,,,,,,,,,,,,,,,,,,,,,,,,,,,,,,,,,,,,,,,,,,,,,,,,,,,,,,,,,,,,,,,,,
73,,,,,,,,,,,,,,,,,,,,,,,,,,,,,,,,,,,,,,,,,,,,,,,,,,,,,,,,,,,,,,,,,,,,,,,,,,,,,,,,,,,,,,,,,,,,,,,,,,,,,,,,,,,,,,,,,,,,,,,,,,,,,,,,,,,,
74,,,,,,,,,,,,,,,,,,,,,,,,,,,,,,,,,,,,,,,,,,,,,,,,,,,,,,,,,,,,,,,,,,,,,,,,,,,,,,,,,,,,,,,,,,,,,,,,,,,,,,,,,,,,,,,,,,,,,,,,,,,,,,,,,,,,
75,,,,,,,,,,,,,,,,,,,,,,,,,,,,,,,,,,,,,,,,,,,,,,,,,,,,,,,,,,,,,,,,,,,,,,,,,,,,,,,,,,,,,,,,,,,,,,,,,,,,,,,,,,,,,,,,,,,,,,,,,,,,,,,,,,,,
76,-0.48056287759139393,0.36490820526713147,0.05847944932992691,0.9776718615121368,-0.4212824398810486,0.4077774236090087,0.051709827322413644,1.0035706081437634,-0.4937696035849449,0.36138790625119416,0.061478873012601035,1.0453479934600685,-0.49070187716715835,0.41581601615132546,0.05778170936432728,1.0173265177829451,-0.47162944709974575,0.410482002862632,-0.01569246155017442,1.0224581630607792,-0.5121655844697314,0.36765457677764235,-0.01791031540919922,0.9904991649449914,-0.44199059186298073,0.4180194735389279,0.005256461697838782,1.031976124322184,-0.4767247769007018,0.35806374816583325,0.11139190899290069,0.9983314882714523,-0.4799953309283705,0.33137036936358644,-0.002617629514752671,1.026439013295495,-0.4461198188931671,0.41526135217138127,-0.006315793312482942,1.035695963447563,-0.5232476283960155,0.36605987421345754,-0.025059939940693873,0.9649634262651452,-0.4811230547867116,0.4246729220638441,0.19260924880327643,0.9872510499471119,-0.4933882774473313,0.41784354541219104,-0.11921150085461449,0.9682474754911256,-0.548088390834388,0.5645388145753939,0.23895048854553888,0.2785756879449027,-0.5165934103997869,0.5748034755584968,-0.08381401442448203,0.0026478216675708726,-0.5369132415285,0.6016748269874314,0.2198654326670517,0.4095130887782243,-0.5169675239572251,0.6656275805380851,0.038055408068331645,-0.0019353926709091522,-0.48396279034408085,0.6851010074681833,0.21595829353699528,0.38554366433161763,-0.43128162307360146,0.6315684456492414,0.014417130500493505,-0.003483647597474951,-0.5220299282362122,0.6912972753579395,0.2795994030528619,0.3780294219052987,-0.44486007914678927,0.6952624932678053,0.08475661424591284,-0.012918062866474157,-0.5203318580880053,0.6480221727240146,0.17698607892690615,0.2097112099089696,-0.49856849868475406,0.686308758209446,-0.006849481677725276,0.025807638029966266,-0.4976370823247109,0.6732187228519558,0.05017299164923988,0.9729749972693921,-0.4978620552118013,0.6781464611155779,-0.04116444938117117,0.9315982789395206,-0.5968042332245956,0.6790301513602889,0.08962645174593628,0.13520006843981264,-0.4373897750342871,0.6572390154788992,-0.009900356449457762,0.12699150660594527,-0.5780022433525945,0.6896781041125232,-0.009986938711275784,0.1399636212728178,-0.3825836815210264,0.6656744581815524,0.037291034351312535,0.25523484296200244,-0.5946602435412902,0.6821352620404739,-0.0026951744204153014,0.16690787459065506,-0.36530293318952267,0.6902603086612363,-0.011656179800729288,0.40182815752646306,-0.6800754140551475,0.6982716346299533,0.03137455113694481,0.19222275091556879,-0.4115556476168523,0.6733194545580484,0.05232867089320682,0.3214258253579102
77,-0.5080911206213933,0.33342577695482983,0.14705138753747315,0.9776718615121368,-0.43892853285711586,0.38127067183326707,0.13786775737135232,1.0035706081437634,-0.5090728277520572,0.33549526113057343,0.1476094972596928,1.0453981805709691,-0.503693859531557,0.3906031918066904,0.1437895067217169,1.0173265177829451,-0.4931232778304807,0.38588304675453877,0.11293657255650301,1.0224581630607792,-0.5337216902789437,0.3450316934577876,0.1105936890356156,0.9906096123517601,-0.46358131582283746,0.3972894549232053,0.13371430959100314,1.031976124322184,-0.47909209693223026,0.33999424247430493,0.15499907680808672,0.9984420548875107,-0.49539198455619166,0.3183860041387483,0.23460880017508523,1.029155614190423,-0.4701828097535652,0.3824051858086189,0.061663303938289095,1.037758105342857,-0.5514882489831433,0.33556405178380055,0.09829240495869433,0.9725385805696496,-0.4551146353211193,0.3947005476246046,0.09758641542783407,0.992445892762511,-0.5319669768911973,0.38711124155438764,0.20566869269184412,1.0209937714200807,-0.5050409842284579,0.4441628535101015,0.07108030611198483,0.16740049356223516,-0.5737335941856269,0.48476905029986017,0.25444646501118595,0.34758668380506735,-0.4968271606504601,0.3537959774810531,0.10864569027859006,0.15590647132751015,-0.5982681586070683,0.49692408408193883,0.3351635931618948,0.332010054908117,-0.4374726847185832,0.40683642531104824,0.11170600506698225,0.1997911682083037,-0.5205902235401352,0.447909637179469,0.3395007477604644,0.3993310349756052,-0.4813104278298461,0.40284363680432006,0.19237062924908258,0.18379220459820794,-0.5333306308894266,0.5052564755828688,0.3978660618856101,0.3832355249814739,-0.4829901613527874,0.3690968730795444,0.07602580800539575,0.08463735975409291,-0.5831974027425246,0.5015789734823495,0.2829209964030577,0.34930126213601587,-0.476882689297176,0.6438641505558133,-0.0809808324528421,0.995858948933363,-0.5255950247388816,0.6422751341922075,0.09012784813463957,0.9491541714070194,-0.571177835486845,0.7016297292640364,-0.10559526247787406,0.7390848622578097,-0.5615802012531679,0.6129218892047903,0.05652426813426481,0.8886949531133993,-0.5345660933753559,0.71544638414182,-0.13353635876459846,0.8812299165866531,-0.5683373632200498,0.597063074743442,0.06294189716104945,0.8170128817021605,-0.5513794854806393,0.7116572637837906,-0.11565936153613296,0.9099434741800029,-0.5524079928942303,0.6206913170001646,0.01004355450089741,0.9087158914627729,-0.6329120314565335,0.7037736797845249,-0.07728349197359471,0.8674316175117908,-0.6505450255177199,0.5772718147112467,0.07588131625664676,0.7823130786423645
78,-0.48427920857075696,0.34431187986964007,0.16257815014096955,0.9776718615121368,-0.42120360815299523,0.3897057125456237,0.14767415370209402,1.0035706081437634,-0.4932469529586614,0.34376001137280665,0.1573726613536784,1.045494859304795,-0.4897120443418137,0.3986904096144602,0.1535225949937951,1.0173265177829451,-0.471743634647367,0.3930319086396096,0.1007042849862283,1.0224581630607792,-0.5121113077482035,0.3509263246051722,0.0983870601492318,0.9907130860150903,-0.44177396766808236,0.4019562005858945,0.1215132173493271,1.031976124322184,-0.4749489181317137,0.34324168233560254,0.1619339559378556,0.998537541528441,-0.4795960474440805,0.3171035207994386,0.14238042604720574,1.0296733997395868,-0.4522234042954572,0.3923240543503364,0.08010464719505861,1.039131694381706,-0.5296246366160577,0.34445429316830684,0.08888842355903705,0.9740435382455835,-0.4792348263194963,0.4094379152546095,0.13353064152545607,0.9962554640286855,-0.5066011937773512,0.3884453723183952,0.0906062762581308,1.0278534315687011,-0.540488452433468,0.5295845051118929,0.1418823000415224,0.05889172600211077,-0.5169773604565862,0.5208640138504279,0.14966246780708556,0.14425206917055347,-0.530286319934816,0.5495032390434006,0.15075476369619878,0.06452276641186734,-0.5348546432523759,0.6264591630843193,0.2719967771201936,0.22188552650006654,-0.47399628484397305,0.6265235891408517,0.1471486989087868,0.0877305244757559,-0.4490935444349054,0.5928549308444013,0.2769591780040135,0.27917689259584444,-0.5136398112211833,0.6314530795151966,0.2220181085205113,0.07558265794279143,-0.472563615064439,0.6597672716529677,0.33736223275322075,0.2629567790918102,-0.5142455980410642,0.5893586256849827,0.11444914787277143,-0.008264985828749998,-0.5260616495090397,0.6517471241457253,0.2234311726080787,0.25960244082978723,-0.5011484869723576,0.6468006329853176,-0.039331682146175155,0.9966399485938549,-0.5101016876707688,0.6482518111331255,0.04871253768419555,0.9542981118557804,-0.6280049351285728,0.6561363053252852,-0.05648742820584342,0.40879740574535844,-0.4749220737831043,0.649772878069689,0.027464747750157142,0.7629547230299337,-0.6955956295954713,0.6559337093333178,-0.13118504728078173,0.8611883912227309,-0.42047808273392956,0.6184658509847445,0.05322690800549918,0.8958123082577942,-0.7253631404719019,0.647333540467598,-0.1197095087756655,0.8691427835290629,-0.3976141155124242,0.6329690989635129,0.0006799041749390236,0.936837660891026,-0.8105446008090316,0.6441152716195468,-0.08501562947795398,0.8711314566269336,-0.4797567537823427,0.6169242814852335,0.05031291101877096,0.9070585072045287
79,-0.4867674715803122,0.33888738035792126,0.08654294078934399,0.9776718615121368,-0.4222119225927414,0.3827464828379058,0.07801327327533086,1.0035706081437634,-0.493382909907686,0.33706712502026764,0.08774811594012641,1.04502648600615,-0.48898567706671825,0.39236638660611367,0.08396081541221499,1.0173265177829451,-0.4754065523951715,0.3852552012287972,0.03340126476299288,1.0224581630607792,-0.5162928769067407,0.3427700846187525,0.031079576005284815,0.9897698425115198,-0.4464733312628954,0.393468201146655,0.05418221102882097,1.031976124322184,-0.4711724973156006,0.34102579025911023,0.12475892879033822,0.9980205904443039,-0.48390041721818067,0.31083081739024354,0.13235569988753376,1.019200327210748,-0.45215414430725853,0.3863226116795142,0.016238741080777067,1.035195224826805,-0.5312492621287161,0.3378498005039696,0.026628601763271042,0.9664998551935203,-0.46225819674377217,0.4122435952911543,0.11182359931910732,0.9718006915563039,-0.5224624858554069,0.37448909375584943,0.10550042821347115,1.017209770546515,-0.5271783621808659,0.5256182332346041,0.11186732978259181,0.23410741919280456,-0.5553461623519266,0.4530904631016028,0.1545973999047698,0.15747792261369928,-0.5178521879835938,0.5504233559447983,0.13364586710415582,0.25138831408378143,-0.5605142220824961,0.49307559098272624,0.23439608493017722,0.07389003219397905,-0.46292048060760677,0.6318303098744943,0.13401769858066545,0.24077480041522048,-0.4771239104015122,0.44879485556135074,0.21486936973939041,0.07878918375309005,-0.5006418162459817,0.6367183750207203,0.2102915479077188,0.22693702671887445,-0.48799797916292076,0.5138449088485548,0.28008413512106317,0.07392189988419914,-0.5009098730188527,0.5917192080366672,0.09854355203216746,0.0878861109175755,-0.540702458186675,0.5106296109659463,0.18276616049058608,0.10177972757390497,-0.48311683084938745,0.6330091910678982,-0.0640898584401827,0.9892163092963696,-0.5167667740185055,0.6316903029544145,0.07338320150597918,0.9488070935604924,-0.5738021321479977,0.6836604189803756,-0.14210723071860581,0.12013223030743123,-0.4536328298361317,0.6456813172290823,0.05804527836815495,0.8699162117536886,-0.5769360348241293,0.6943707181910449,-0.26513053072346787,0.29544059373356457,-0.36864646118447,0.6147455078717989,0.00556250394716477,0.8716094250142332,-0.5820544637124413,0.6886324067395706,-0.2552027612008425,0.45546377981354785,-0.3487359649684359,0.6197908696315427,-0.058126787863305586,0.9343116756500897,-0.6700747092463352,0.6994971061265354,-0.2608404497302291,0.34998512936977716,-0.40515553628431333,0.603667850859318,-0.05607346382666938,0.8171612322335206
80,-0.5061238886086012,0.35430287003153577,-0.019123093767591942,0.9776718615121368,-0.43635702294987977,0.40741577242683397,-0.022371546900344107,1.0035706081437634,-0.50591276746409,0.36229645985150544,-0.012748340322035583,1.0449589539436195,-0.4999813147303228,0.4180852543848917,-0.016622218111787372,1.0173265177829451,-0.4924743605080171,0.40879569805496907,-0.05505339685819717,1.0224581630607792,-0.5344840604870107,0.36611755180281935,-0.05739331118959762,0.9901712201894374,-0.4657366014126825,0.4166943728786038,-0.0340775714056144,1.031976124322184,-0.477676098200787,0.363916417643296,0.034828448378884005,0.9981585751969592,-0.501750313700983,0.3325489618070526,0.07306549071678298,1.0284898899129267,-0.4691675902921905,0.4005381406445106,-0.08872012664534816,1.0354171329193038,-0.553324095412652,0.35013196340870906,-0.06158637585289295,0.9703901907533655,-0.4662721855807279,0.4096249844322371,0.0015294653723332205,0.9952333635800771,-0.5469363029611122,0.37505301330006946,0.06288170255373861,1.0262657426458193,-0.5013146329545788,0.451828189642151,-0.03354602604284361,0.4276970916390555,-0.5707505410723551,0.4511259536144507,0.10620910744544673,0.477626137311537,-0.4842149756737664,0.37202751839940335,-0.04892822353642327,0.21071669729110262,-0.5556193422971962,0.45980114902525243,0.15814414706895671,0.09623988153727885,-0.41271621054189706,0.42896235490508816,-0.07072705804762855,0.2347559680892851,-0.46702136035743863,0.40610651561269656,0.13039730719185913,0.08588902081783305,-0.4648818479872667,0.4277867501313465,0.0027858868809146273,0.24006384704472583,-0.47674034044095903,0.4725988224895308,0.18738393005034668,0.08730992266461754,-0.48398899875168483,0.3910576978075565,-0.08818571989012525,0.0982604781546666,-0.5310120539787992,0.47160558576414874,0.10224103402798224,0.12029598497918598,-0.4944772762732837,0.6380748110134243,-0.08335642485149554,0.992482643830061,-0.5415578215148139,0.6386455689532549,0.0924100961749027,0.949469539582526,-0.593985906647001,0.6842211794784224,-0.14095749159274834,0.12164262690720085,-0.6104795598696923,0.6479472474048635,0.07081088640286615,0.7784625402983053,-0.5294033537950066,0.6988044096926623,-0.14733477973062173,0.4146779272697127,-0.5602743090031663,0.6365200978872103,0.056186594877641924,0.6765584701955076,-0.5419973647415721,0.6890695472043533,-0.128759225783198,0.5603708156411845,-0.5348456454188475,0.6454584178111692,-0.005632531254337918,0.663332509619206,-0.6226470674507719,0.7143898630654697,-0.13264980885247643,0.5502575404777942,-0.6266317799544981,0.6708596900774576,-0.002504516075248941,0.6264317333703003
81,,,,,,,,,,,,,,,,,,,,,,,,,,,,,,,,,,,,,,,,,,,,,,,,,,,,,,,,,,,,,,,,,,,,,,,,,,,,,,,,,,,,,,,,,,,,,,,,,,,,,,,,,,,,,,,,,,,,,,,,,,,,,,,,,,,,
82,,,,,,,,,,,,,,,,,,,,,,,,,,,,,,,,,,,,,,,,,,,,,,,,,,,,,,,,,,,,,,,,,,,,,,,,,,,,,,,,,,,,,,,,,,,,,,,,,,,,,,,,,,,,,,,,,,,,,,,,,,,,,,,,,,,,
83,,,,,,,,,,,,,,,,,,,,,,,,,,,,,,,,,,,,,,,,,,,,,,,,,,,,,,,,,,,,,,,,,,,,,,,,,,,,,,,,,,,,,,,,,,,,,,,,,,,,,,,,,,,,,,,,,,,,,,,,,,,,,,,,,,,,
84,,,,,,,,,,,,,,,,,,,,,,,,,,,,,,,,,,,,,,,,,,,,,,,,,,,,,,,,,,,,,,,,,,,,,,,,,,,,,,,,,,,,,,,,,,,,,,,,,,,,,,,,,,,,,,,,,,,,,,,,,,,,,,,,,,,,
85,,,,,,,,,,,,,,,,,,,,,,,,,,,,,,,,,,,,,,,,,,,,,,,,,,,,,,,,,,,,,,,,,,,,,,,,,,,,,,,,,,,,,,,,,,,,,,,,,,,,,,,,,,,,,,,,,,,,,,,,,,,,,,,,,,,,
86,,,,,,,,,,,,,,,,,,,,,,,,,,,,,,,,,,,,,,,,,,,,,,,,,,,,,,,,,,,,,,,,,,,,,,,,,,,,,,,,,,,,,,,,,,,,,,,,,,,,,,,,,,,,,,,,,,,,,,,,,,,,,,,,,,,,
87,,,,,,,,,,,,,,,,,,,,,,,,,,,,,,,,,,,,,,,,,,,,,,,,,,,,,,,,,,,,,,,,,,,,,,,,,,,,,,,,,,,,,,,,,,,,,,,,,,,,,,,,,,,,,,,,,,,,,,,,,,,,,,,,,,,,
88,,,,,,,,,,,,,,,,,,,,,,,,,,,,,,,,,,,,,,,,,,,,,,,,,,,,,,,,,,,,,,,,,,,,,,,,,,,,,,,,,,,,,,,,,,,,,,,,,,,,,,,,,,,,,,,,,,,,,,,,,,,,,,,,,,,,
89,,,,,,,,,,,,,,,,,,,,,,,,,,,,,,,,,,,,,,,,,,,,,,,,,,,,,,,,,,,,,,,,,,,,,,,,,,,,,,,,,,,,,,,,,,,,,,,,,,,,,,,,,,,,,,,,,,,,,,,,,,,,,,,,,,,,
90,,,,,,,,,,,,,,,,,,,,,,,,,,,,,,,,,,,,,,,,,,,,,,,,,,,,,,,,,,,,,,,,,,,,,,,,,,,,,,,,,,,,,,,,,,,,,,,,,,,,,,,,,,,,,,,,,,,,,,,,,,,,,,,,,,,,
91,,,,,,,,,,,,,,,,,,,,,,,,,,,,,,,,,,,,,,,,,,,,,,,,,,,,,,,,,,,,,,,,,,,,,,,,,,,,,,,,,,,,,,,,,,,,,,,,,,,,,,,,,,,,,,,,,,,,,,,,,,,,,,,,,,,,
92,,,,,,,,,,,,,,,,,,,,,,,,,,,,,,,,,,,,,,,,,,,,,,,,,,,,,,,,,,,,,,,,,,,,,,,,,,,,,,,,,,,,,,,,,,,,,,,,,,,,,,,,,,,,,,,,,,,,,,,,,,,,,,,,,,,,
93,,,,,,,,,,,,,,,,,,,,,,,,,,,,,,,,,,,,,,,,,,,,,,,,,,,,,,,,,,,,,,,,,,,,,,,,,,,,,,,,,,,,,,,,,,,,,,,,,,,,,,,,,,,,,,,,,,,,,,,,,,,,,,,,,,,,
94,,,,,,,,,,,,,,,,,,,,,,,,,,,,,,,,,,,,,,,,,,,,,,,,,,,,,,,,,,,,,,,,,,,,,,,,,,,,,,,,,,,,,,,,,,,,,,,,,,,,,,,,,,,,,,,,,,,,,,,,,,,,,,,,,,,,
95,,,,,,,,,,,,,,,,,,,,,,,,,,,,,,,,,,,,,,,,,,,,,,,,,,,,,,,,,,,,,,,,,,,,,,,,,,,,,,,,,,,,,,,,,,,,,,,,,,,,,,,,,,,,,,,,,,,,,,,,,,,,,,,,,,,,
