frame,NOSE.x,NOSE.y,NOSE.z,NOSE.v,LEFT_EYE_INNER.x,LEFT_EYE_INNER.y,LEFT_EYE_INNER.z,LEFT_EYE_INNER.v,LEFT_EYE.x,LEFT_EYE.y,LEFT_EYE.z,LEFT_EYE.v,LEFT_EYE_OUTER.x,LEFT_EYE_OUTER.y,LEFT_EYE_OUTER.z,LEFT_EYE_OUTER.v,RIGHT_EYE_INNER.x,RIGHT_EYE_INNER.y,RIGHT_EYE_INNER.z,RIGHT_EYE_INNER.v,RIGHT_EYE.x,RIGHT_EYE.y,RIGHT_EYE.z,RIGHT_EYE.v,RIGHT_EYE_OUTER.x,RIGHT_EYE_OUTER.y,RIGHT_EYE_OUTER.z,RIGHT_EYE_OUTER.v,LEFT_EAR.x,LEFT_EAR.y,LEFT_EAR.z,LEFT_EAR.v,RIGHT_EAR.x,RIGHT_EAR.y,RIGHT_EAR.z,RIGHT_EAR.v,MOUTH_LEFT.x,MOUTH_LEFT.y,MOUTH_LEFT.z,MOUTH_LEFT.v,MOUTH_RIGHT.x,MOUTH_RIGHT.y,MOUTH_RIGHT.z,MOUTH_RIGHT.v,LEFT_SHOULDER.x,LEFT_SHOULDER.y,LEFT_SHOULDER.z,LEFT_SHOULDER.v,RIGHT_SHOULDER.x,RIGHT_SHOULDER.y,RIGHT_SHOULDER.z,RIGHT_SHOULDER.v,LEFT_ELBOW.x,LEFT_ELBOW.y,LEFT_ELBOW.z,LEFT_ELBOW.v,RIGHT_ELBOW.x,RIGHT_ELBOW.y,RIGHT_ELBOW.z,RIGHT_ELBOW.v,LEFT_WRIST.x,LEFT_WRIST.y,LEFT_WRIST.z,LEFT_WRIST.v,RIGHT_WRIST.x,RIGHT_WRIST.y,RIGHT_WRIST.z,RIGHT_WRIST.v,LEFT_PINKY.x,LEFT_PINKY.y,LEFT_PINKY.z,LEFT_PINKY.v,RIGHT_PINKY.x,RIGHT_PINKY.y,RIGHT_PINKY.z,RIGHT_PINKY.v,LEFT_INDEX.x,LEFT_INDEX.y,LEFT_INDEX.z,LEFT_INDEX.v,RIGHT_INDEX.x,RIGHT_INDEX.y,RIGHT_INDEX.z,RIGHT_INDEX.v,LEFT_THUMB.x,LEFT_THUMB.y,LEFT_THUMB.z,LEFT_THUMB.v,RIGHT_THUMB.x,RIGHT_THUMB.y,RIGHT_THUMB.z,RIGHT_THUMB.v,LEFT_HIP.x,LEFT_HIP.y,LEFT_HIP.z,LEFT_HIP.v,RIGHT_HIP.x,RIGHT_HIP.y,RIGHT_HIP.z,RIGHT_HIP.v,LEFT_KNEE.x,LEFT_KNEE.y,LEFT_KNEE.z,LEFT_KNEE.v,RIGHT_KNEE.x,RIGHT_KNEE.y,RIGHT_KNEE.z,RIGHT_KNEE.v,LEFT_ANKLE.x,LEFT_ANKLE.y,LEFT_ANKLE.z,LEFT_ANKLE.v,RIGHT_ANKLE.x,RIGHT_ANKLE.y,RIGHT_ANKLE.z,RIGHT_ANKLE.v,LEFT_HEEL.x,LEFT_HEEL.y,LEFT_HEEL.z,LEFT_HEEL.v,RIGHT_HEEL.x,RIGHT_HEEL.y,RIGHT_HEEL.z,RIGHT_HEEL.v,LEFT_FOOT_INDEX.x,LEFT_FOOT_INDEX.y,LEFT_FOOT_INDEX.z,LEFT_FOOT_INDEX.v,RIGHT_FOOT_INDEX.x,RIGHT_FOOT_INDEX.y,RIGHT_FOOT_INDEX.z,RIGHT_FOOT_INDEX.v
0,0.38413020968437195,0.349609375,-0.018546927720308304,1.0,0.37915128469467163,0.34171998500823975,-0.03268526867032051,1.0,0.3769954442977905,0.34165626764297485,-0.03257102519273758,0.9999916553497314,0.3750208616256714,0.34162071347236633,-0.032574497163295746,1.0,0.3837047815322876,0.3432134985923767,-0.04653336852788925,1.0,0.3848288655281067,0.3438571095466614,-0.04663027450442314,0.9999958276748657,0.38583970069885254,0.3447880148887634,-0.04667290672659874,1.0,0.3702208399772644,0.3502621650695801,-0.04320589825510979,0.9999958276748657,0.38592255115509033,0.35562342405319214,-0.10784868150949478,0.999991774559021,0.3820762634277344,0.36083126068115234,-0.014980340376496315,0.9998732805252075,0.3864268660545349,0.36221015453338623,-0.03413531184196472,0.9999294281005859,0.34800925850868225,0.39713847637176514,0.06880499422550201,0.999559223651886,0.4000398516654968,0.42610540986061096,-0.13190141320228577,0.9997897744178772,0.3499220311641693,0.36544767022132874,0.2670156955718994,0.019682494923472404,0.4526359438896179,0.49541160464286804,-0.05001579597592354,0.9479706287384033,0.37544482946395874,0.3156701922416687,0.40559348464012146,0.20871803164482117,0.4801042079925537,0.4883043169975281,0.028733987361192703,0.8440635800361633,0.381797730922699,0.3065977096557617,0.41616517305374146,0.30823493003845215,0.49167290329933167,0.4929903745651245,0.013465766794979572,0.7623184323310852,0.38362234830856323,0.3113211989402771,0.4043200612068176,0.334380179643631,0.4895355701446533,0.4843001067638397,-0.0015096957795321941,0.7502028346061707,0.3835393190383911,0.31736841797828674,0.40052279829978943,0.30870574712753296,0.4815109372138977,0.48238199949264526,0.027626419439911842,0.6679389476776123,0.35964906215667725,0.5882961750030518,0.06500948965549469,0.9999408721923828,0.3915225863456726,0.5843420028686523,-0.06501573324203491,0.9998676776885986,0.31094351410865784,0.6923710107803345,0.022036025300621986,0.9073397517204285,0.417698472738266,0.6869586706161499,-0.08015233278274536,0.9483610391616821,0.26634594798088074,0.8097295761108398,-0.005656462162733078,0.9207717180252075,0.4473087191581726,0.8081668615341187,-0.08706561475992203,0.9465695023536682,0.2569192051887512,0.8345726728439331,-0.0092698959633708,0.9138456583023071,0.4467805027961731,0.8321257829666138,-0.09470664709806442,0.9138095378875732,0.2749432623386383,0.8239799737930298,-0.0778646394610405,0.6409550309181213,0.4694635272026062,0.8332412242889404,-0.17755086719989777,0.6333316564559937
1,0.3848279118537903,0.3554603159427643,0.1783512532711029,1.0,0.37866300344467163,0.3482104539871216,0.17598724365234375,1.0,0.3764529526233673,0.34843605756759644,0.17613378167152405,0.9999933242797852,0.37435442209243774,0.34868505597114563,0.1760842353105545,1.0,0.38328102231025696,0.3482700288295746,0.1548549234867096,1.0,0.3843459188938141,0.3483690619468689,0.1547536551952362,0.9999935626983643,0.38531121611595154,0.348638117313385,0.15457460284233093,1.0,0.36860066652297974,0.35528215765953064,0.16459263861179352,0.9999954700469971,0.3840666711330414,0.35651081800460815,0.06716891378164291,0.9999892711639404,0.3829907178878784,0.3659840226173401,0.1787247508764267,0.9999616146087646,0.3867805600166321,0.36604103446006775,0.15073207020759583,0.9999635219573975,0.34190407395362854,0.4068683981895447,0.25562286376953125,0.9998224377632141,0.39892998337745667,0.41553744673728943,-0.04644980654120445,0.9999885559082031,0.34819257259368896,0.4105636775493622,0.45490017533302307,0.007565843407064676,0.4384935796260834,0.48110586404800415,-0.050616078078746796,0.9973894953727722,0.38904112577438354,0.3503877520561218,0.605292558670044,0.06769876182079315,0.47822436690330505,0.4857635796070099,-0.04873669147491455,0.9902542233467102,0.3994271159172058,0.3361550271511078,0.6322771310806274,0.16003303229808807,0.49156755208969116,0.48891550302505493,-0.07244528830051422,0.9846746921539307,0.4011004567146301,0.3364478647708893,0.6145539283752441,0.17424480617046356,0.4924074113368988,0.48005732893943787,-0.07952030748128891,0.9836345911026001,0.40036439895629883,0.3438025414943695,0.5994533896446228,0.17392633855342865,0.48379167914390564,0.4782729148864746,-0.04703392833471298,0.9692142009735107,0.34708163142204285,0.5905553698539734,0.08680503070354462,0.999984860420227,0.39129430055618286,0.5836515426635742,-0.08695248514413834,0.9999802112579346,0.31280022859573364,0.7006237506866455,0.038836829364299774,0.9909204244613647,0.42228689789772034,0.6851483583450317,-0.12441109120845795,0.9990811347961426,0.26681023836135864,0.8222959637641907,-0.0521087720990181,0.9946669340133667,0.44445356726646423,0.8189290165901184,-0.19323857128620148,0.9984361529350281,0.2568334639072418,0.8446999192237854,-0.06154753640294075,0.9953150749206543,0.4389682412147522,0.8447583913803101,-0.2037011831998825,0.9976174235343933,0.2750333249568939,0.8423788547515869,-0.10946784913539886,0.9428794384002686,0.4616457521915436,0.8473062515258789,-0.2545318007469177,0.976836085319519
2,0.39511409401893616,0.32064586877822876,-0.1371227651834488,1.0,0.3929523825645447,0.3119809031486511,-0.11670533567667007,1.0,0.3933025300502777,0.31218141317367554,-0.11666498333215714,0.9999996423721313,0.3937304615974426,0.31235089898109436,-0.11668281257152557,1.0,0.3899696469306946,0.31281372904777527,-0.14526979625225067,1.0,0.3878846764564514,0.31321850419044495,-0.14523068070411682,0.9999995231628418,0.38582843542099,0.31381121277809143,-0.14530059695243835,1.0,0.38896748423576355,0.3217633366584778,-0.001017764676362276,0.9999992847442627,0.3798384964466095,0.323386549949646,-0.14514704048633575,0.999994158744812,0.39652949571609497,0.33410030603408813,-0.09645707905292511,0.9999767541885376,0.39177680015563965,0.3347095549106598,-0.1339416652917862,0.999970555305481,0.36984533071517944,0.3867385685443878,0.13938874006271362,0.9992014765739441,0.38370460271835327,0.3920392692089081,-0.2335175722837448,0.9986972212791443,0.38705939054489136,0.42663654685020447,0.33852842450141907,0.07282792031764984,0.41983288526535034,0.4512999951839447,-0.3178277015686035,0.9948784112930298,0.4303317666053772,0.4058019816875458,0.4542599618434906,0.3078279495239258,0.47547394037246704,0.4725833237171173,-0.3738035261631012,0.9931394457817078,0.4417570233345032,0.3984932005405426,0.481297105550766,0.40801098942756653,0.48679405450820923,0.48566919565200806,-0.4227129817008972,0.9866342544555664,0.4398554265499115,0.39478403329849243,0.4483413100242615,0.4169616103172302,0.49361467361450195,0.476633220911026,-0.4173756539821625,0.9844059944152832,0.437155544757843,0.40069156885147095,0.4437859058380127,0.4085058867931366,0.48774296045303345,0.47623664140701294,-0.37104228138923645,0.9742053747177124,0.3696349561214447,0.5833236575126648,0.11082865297794342,0.9994180202484131,0.3741130232810974,0.5874941945075989,-0.11068572103977203,0.9997205138206482,0.3995708227157593,0.7050718069076538,0.14181986451148987,0.19554804265499115,0.42090877890586853,0.7019347548484802,-0.1161840409040451,0.9575754404067993,0.41083478927612305,0.8241694569587708,0.261482298374176,0.30324116349220276,0.4379847049713135,0.8299435377120972,-0.05289345234632492,0.8979380130767822,0.4059600830078125,0.8485843539237976,0.26918724179267883,0.4012574851512909,0.4317172169685364,0.8538219332695007,-0.04981745406985283,0.7910750508308411,0.44321680068969727,0.8423774838447571,0.20124085247516632,0.3781479299068451,0.4691270887851715,0.8575595617294312,-0.1388349086046219,0.8580938577651978
3,0.3955342173576355,0.31948456168174744,-0.11502796411514282,1.0,0.3933573365211487,0.3080485463142395,-0.10303433239459991,1.0,0.3933391273021698,0.30809059739112854,-0.1029401645064354,0.9999947547912598,0.3933897614479065,0.30807405710220337,-0.10293005406856537,1.0,0.39156875014305115,0.30861711502075195,-0.12814132869243622,1.0,0.38989749550819397,0.30873915553092957,-0.12807060778141022,0.9999949932098389,0.38823696970939636,0.3089776337146759,-0.1281207650899887,1.0,0.3873475193977356,0.3169548809528351,-0.021392006427049637,0.999991774559021,0.3814809322357178,0.3180239796638489,-0.13796491920948029,0.9999665021896362,0.39492183923721313,0.33358219265937805,-0.08104215562343597,0.9998646974563599,0.3914504051208496,0.3343378007411957,-0.11323843896389008,0.9998503923416138,0.3593979775905609,0.3848685026168823,0.125541090965271,0.9992799162864685,0.38709285855293274,0.3910307288169861,-0.2060542106628418,0.9995304346084595,0.3794742524623871,0.4532431960105896,0.3086073696613312,0.018766241148114204,0.42316144704818726,0.4516507685184479,-0.2649281322956085,0.9768428802490234,0.4338797628879547,0.4561096727848053,0.4043530821800232,0.1680881679058075,0.47618475556373596,0.4736337661743164,-0.29843711853027344,0.9572539925575256,0.44945359230041504,0.45621687173843384,0.4126410484313965,0.2735137641429901,0.48770827054977417,0.487735390663147,-0.34028100967407227,0.9326531291007996,0.45057663321495056,0.4515320062637329,0.3709672689437866,0.28568410873413086,0.4926922917366028,0.4779617190361023,-0.34102481603622437,0.9257408380508423,0.4462137222290039,0.45497116446495056,0.40032705664634705,0.26713576912879944,0.48601096868515015,0.4758593440055847,-0.29712507128715515,0.88972407579422,0.3643559217453003,0.5872064828872681,0.09472714364528656,0.999631404876709,0.3786839544773102,0.5898173451423645,-0.09442490339279175,0.9997791647911072,0.35295629501342773,0.7091484665870667,0.11579251289367676,0.34710943698883057,0.40452200174331665,0.6978276968002319,-0.10098259150981903,0.8730044364929199,0.33394816517829895,0.8248357176780701,0.21886274218559265,0.5548211336135864,0.42395585775375366,0.8245912790298462,0.00561367254704237,0.8920800685882568,0.3256937861442566,0.8490425944328308,0.22565531730651855,0.5828684568405151,0.4213154911994934,0.8505290746688843,0.00896380189806223,0.8186953663825989,0.3529019355773926,0.8435404300689697,0.15936321020126343,0.4823213517665863,0.44663429260253906,0.849212646484375,-0.06813175231218338,0.7851396799087524
4,0.3947048783302307,0.31890109181404114,-0.058377206325531006,1.0,0.3919813930988312,0.3096860945224762,-0.06105963513255119,1.0,0.3915659487247467,0.3097456693649292,-0.06096971780061722,0.9999843835830688,0.3912094235420227,0.3098164498806,-0.06097171828150749,1.0,0.39175713062286377,0.31022387742996216,-0.07630916684865952,1.0,0.3907718062400818,0.3104104697704315,-0.07634641230106354,0.9999901056289673,0.3897075355052948,0.3107524812221527,-0.0764252170920372,1.0,0.3857709765434265,0.3183731138706207,0.01700747013092041,0.9999834299087524,0.3839244246482849,0.32034385204315186,-0.09345906972885132,0.999971866607666,0.3942359983921051,0.33172595500946045,-0.04261366277933121,0.9998972415924072,0.39201492071151733,0.33224931359291077,-0.06402445584535599,0.9999276399612427,0.3573261499404907,0.38330116868019104,0.16988429427146912,0.999350368976593,0.38988953828811646,0.38995376229286194,-0.16536056995391846,0.999941349029541,0.3710562586784363,0.41938525438308716,0.39010098576545715,0.0018136667786166072,0.4240497052669525,0.45770516991615295,-0.21864327788352966,0.9021385908126831,0.4171735346317291,0.3885974586009979,0.5443655252456665,0.03398600593209267,0.4762021601200104,0.4728129506111145,-0.2760865092277527,0.7037623524665833,0.4323856830596924,0.3816395699977875,0.566535472869873,0.09068085998296738,0.48778146505355835,0.48786208033561707,-0.31564608216285706,0.693432629108429,0.43019065260887146,0.3810073733329773,0.5374637842178345,0.09909763187170029,0.49343618750572205,0.4771190285682678,-0.3220997154712677,0.6938817501068115,0.42662400007247925,0.38687336444854736,0.5348433256149292,0.09186571836471558,0.4862126410007477,0.4743465483188629,-0.27736514806747437,0.5628935098648071,0.36259350180625916,0.5875661373138428,0.09250044077634811,0.99974125623703,0.38138893246650696,0.5878328680992126,-0.09243344515562057,0.9999065399169922,0.33185896277427673,0.7055636644363403,0.131540909409523,0.37155890464782715,0.41604557633399963,0.6957741975784302,-0.05660971999168396,0.5070095062255859,0.2930862605571747,0.8257386088371277,0.17139598727226257,0.4683324694633484,0.4319090247154236,0.8273844122886658,-0.014361308887600899,0.76503986120224,0.2849482595920563,0.8503827452659607,0.17416507005691528,0.5861638784408569,0.42727819085121155,0.8554385900497437,-0.015161266550421715,0.6806913018226624,0.3023313581943512,0.8413286209106445,0.12743274867534637,0.24298378825187683,0.45398497581481934,0.8490176796913147,-0.07615697383880615,0.45220232009887695
5,0.3944803774356842,0.3158632516860962,0.025648489594459534,1.0,0.3912127614021301,0.307455450296402,0.024658869951963425,1.0,0.39025217294692993,0.3076266050338745,0.024831073358654976,0.9999996423721313,0.3893091082572937,0.3078228831291199,0.024882134050130844,1.0,0.3919540047645569,0.3079579174518585,0.001973051344975829,1.0,0.39092326164245605,0.3081572949886322,0.0019257409730926156,0.9999996423721313,0.38996270298957825,0.30850669741630554,0.0018445964669808745,1.0,0.3839516043663025,0.3178768754005432,0.041584257036447525,0.9999995231628418,0.386391818523407,0.3197479844093323,-0.05943228676915169,0.9999983310699463,0.39357855916023254,0.330158531665802,0.03824649751186371,0.9999949932098389,0.39217525720596313,0.33035099506378174,0.008847767487168312,0.9999959468841553,0.3486960530281067,0.38515985012054443,0.17330273985862732,0.9996129870414734,0.39633071422576904,0.3921111226081848,-0.15205730497837067,0.9999778270721436,0.366683691740036,0.44788888096809387,0.38646960258483887,0.0029086689464747906,0.4297959804534912,0.4666709005832672,-0.19146443903446198,0.9935910701751709,0.41902288794517517,0.4324200749397278,0.5237773656845093,0.1332658976316452,0.47580304741859436,0.47218069434165955,-0.23930664360523224,0.9276021718978882,0.4368988871574402,0.42775681614875793,0.5434359312057495,0.2709547281265259,0.48801344633102417,0.4838905334472656,-0.275141179561615,0.9189133048057556,0.437904417514801,0.4272327423095703,0.5115342140197754,0.29136037826538086,0.49229344725608826,0.47202757000923157,-0.27818456292152405,0.9144887328147888,0.43302640318870544,0.4335784316062927,0.5127203464508057,0.29074984788894653,0.4847056269645691,0.46880292892456055,-0.23922517895698547,0.8634527921676636,0.35355252027511597,0.5862223505973816,0.09037845581769943,0.9999339580535889,0.38587266206741333,0.5871009230613708,-0.09027803689241409,0.9999814033508301,0.33178192377090454,0.6998960971832275,0.14066006243228912,0.913722038269043,0.42346563935279846,0.6964473724365234,-0.03177865222096443,0.991018533706665,0.2907882630825043,0.8192968368530273,0.15391051769256592,0.9687382578849792,0.44010740518569946,0.8299188613891602,0.02954614721238613,0.9968035221099854,0.2806146442890167,0.8432106375694275,0.15648691356182098,0.9620307683944702,0.4377477169036865,0.8558434247970581,0.03292226791381836,0.9843195080757141,0.2906491756439209,0.8374455571174622,0.13622282445430756,0.8128129243850708,0.45686793327331543,0.8562412858009338,-0.001191471004858613,0.9388576745986938
6,0.3951990008354187,0.38192984461784363,-0.1643572747707367,1.0,0.3914003074169159,0.3713388442993164,-0.18451207876205444,1.0,0.38993561267852783,0.3702835440635681,-0.18435868620872498,0.9998902082443237,0.38877999782562256,0.36921054124832153,-0.18423700332641602,1.0,0.3943183720111847,0.3742866516113281,-0.19657689332962036,1.0,0.394633024930954,0.3747134804725647,-0.19663463532924652,0.999966025352478,0.3950226306915283,0.37548813223838806,-0.1965012401342392,1.0,0.38374045491218567,0.3718321621417999,-0.19972842931747437,0.9999555349349976,0.391576886177063,0.38120946288108826,-0.25327417254447937,0.9999599456787109,0.39351266622543335,0.3888877034187317,-0.1614605188369751,0.9994657635688782,0.39437371492385864,0.39119598269462585,-0.1774866282939911,0.999705970287323,0.3504205346107483,0.3950805962085724,-0.05663958936929703,0.9992616772651672,0.3999299108982086,0.4284830093383789,-0.2588813900947571,0.9999200105667114,0.36542007327079773,0.3801751434803009,0.13101860880851746,0.16214869916439056,0.4403410851955414,0.481268972158432,-0.2017854005098343,0.9846832156181335,0.4054529070854187,0.3971008360385895,0.24007591605186462,0.6961302757263184,0.47927266359329224,0.48191946744918823,-0.13870801031589508,0.9813069105148315,0.42040395736694336,0.3877725303173065,0.26100730895996094,0.7074628472328186,0.4908270835876465,0.49045875668525696,-0.15233585238456726,0.9683670997619629,0.4193382263183594,0.38834190368652344,0.2394963502883911,0.7330869436264038,0.485938161611557,0.480024129152298,-0.1622508466243744,0.9690247774124146,0.41602739691734314,0.3850117027759552,0.23415490984916687,0.7212114334106445,0.4794619083404541,0.47758573293685913,-0.13736429810523987,0.9449244141578674,0.3504636883735657,0.5890599489212036,0.08484144508838654,0.9999949932098389,0.38628050684928894,0.5894953608512878,-0.0852263942360878,0.9999974966049194,0.31782761216163635,0.7005708813667297,0.09429987519979477,0.9963580965995789,0.42223629355430603,0.693673849105835,-0.05536261945962906,0.9985124468803406,0.27605709433555603,0.8138751983642578,0.10946226119995117,0.996268630027771,0.4428248405456543,0.8250597715377808,-0.03592599183320999,0.9979678988456726,0.26390811800956726,0.8337942361831665,0.10790242999792099,0.9948701858520508,0.43942776322364807,0.8483669757843018,-0.0424039252102375,0.9934616088867188,0.28345468640327454,0.8357177972793579,0.03195369988679886,0.9514528512954712,0.46575483679771423,0.8561650514602661,-0.1253729611635208,0.9443632960319519
7,0.3942941427230835,0.32267746329307556,-0.2756022810935974,1.0,0.3947480618953705,0.3121853470802307,-0.24694833159446716,1.0,0.39654672145843506,0.312466561794281,-0.24693092703819275,1.0,0.39858493208885193,0.31268101930618286,-0.24686260521411896,1.0,0.38894233107566833,0.31231629848480225,-0.2674367427825928,1.0,0.387088805437088,0.31237921118736267,-0.2674104571342468,1.0,0.3860625624656677,0.3126136362552643,-0.26752811670303345,1.0,0.39857977628707886,0.3207285702228546,-0.09866935759782791,1.0,0.3836071491241455,0.3205341100692749,-0.187357097864151,0.9999996423721313,0.39773765206336975,0.33853501081466675,-0.21754030883312225,0.9999998807907104,0.39078766107559204,0.3388172686100006,-0.24343881011009216,0.9999983310699463,0.40730515122413635,0.39350754022598267,0.0829005241394043,0.9998764991760254,0.3659818768501282,0.3962583839893341,-0.250555157661438,0.9954236149787903,0.4248993396759033,0.45788437128067017,0.17262201011180878,0.10166531056165695,0.39331871271133423,0.4759308993816376,-0.3587445616722107,0.9932249188423157,0.4546419084072113,0.5024563074111938,0.012370388954877853,0.47288450598716736,0.46432310342788696,0.4930344820022583,-0.4134623408317566,0.9853810667991638,0.4653400778770447,0.5130212903022766,-0.006165137980133295,0.4326130747795105,0.4772189259529114,0.5034055113792419,-0.46673956513404846,0.9551201462745667,0.4692073464393616,0.5078921318054199,-0.05644172430038452,0.47781607508659363,0.4850970208644867,0.49252504110336304,-0.46055397391319275,0.948394775390625,0.46332240104675293,0.505504310131073,-0.013920379802584648,0.4041185975074768,0.47693580389022827,0.49104180932044983,-0.41094303131103516,0.9271311163902283,0.39078691601753235,0.5830200910568237,0.07059508562088013,0.9999608993530273,0.3611745536327362,0.5798341035842896,-0.07027881592512131,0.9999514818191528,0.43584853410720825,0.6911522746086121,-0.09952843934297562,0.9063496589660645,0.3205406665802002,0.6849467754364014,-0.1708480566740036,0.9624471068382263,0.43382248282432556,0.8149786591529846,0.06306967884302139,0.865347146987915,0.2987629175186157,0.8140398263931274,0.021482331678271294,0.8477087616920471,0.42580872774124146,0.8387292623519897,0.07009437680244446,0.7047668695449829,0.296636164188385,0.837103545665741,0.03003540076315403,0.325131893157959,0.4561477601528168,0.8460609912872314,-0.059566568583250046,0.8349462151527405,0.29900845885276794,0.8403204083442688,-0.1270727515220642,0.8775686621665955
8,0.3942416310310364,0.32002031803131104,-0.2921335995197296,1.0,0.3945765197277069,0.3083323538303375,-0.26547881960868835,1.0,0.3966280221939087,0.3085159957408905,-0.2654854953289032,1.0,0.3989764153957367,0.3086414635181427,-0.26541537046432495,1.0,0.3881389796733856,0.30835506319999695,-0.28987184166908264,1.0,0.38519778847694397,0.30841168761253357,-0.28979137539863586,1.0,0.3824918866157532,0.3086032271385193,-0.2898102104663849,1.0,0.39836978912353516,0.3156578838825226,-0.12072573602199554,1.0,0.3774927854537964,0.31566473841667175,-0.2253543585538864,0.999998927116394,0.3980402648448944,0.33600881695747375,-0.2357187569141388,0.9999998807907104,0.3904007375240326,0.3365385830402374,-0.2659624218940735,0.9999985694885254,0.40633624792099,0.3921521306037903,0.05961478874087334,0.9999715089797974,0.35943007469177246,0.38985252380371094,-0.30280596017837524,0.9979840517044067,0.42718297243118286,0.4598289728164673,0.07126839458942413,0.15291740000247955,0.38570278882980347,0.4752368628978729,-0.4298466145992279,0.997462272644043,0.461395800113678,0.49645742774009705,-0.1565166413784027,0.7672275304794312,0.45658984780311584,0.49581366777420044,-0.5073729753494263,0.9964891672134399,0.47383689880371094,0.5081809163093567,-0.19129504263401031,0.7801726460456848,0.47084909677505493,0.5064883828163147,-0.566977858543396,0.9893345236778259,0.4745902419090271,0.5011045932769775,-0.23383548855781555,0.804812490940094,0.4793238639831543,0.49639061093330383,-0.560682475566864,0.9870824813842773,0.4675425887107849,0.49815818667411804,-0.18075129389762878,0.7460927367210388,0.472850501537323,0.4952126741409302,-0.5053895711898804,0.98023521900177,0.38446515798568726,0.5773431658744812,0.08966917544603348,0.9999901056289673,0.3531428873538971,0.5780750513076782,-0.0894291028380394,0.9999669790267944,0.4319743514060974,0.6847286224365234,-0.004814757965505123,0.7088494896888733,0.3802381157875061,0.6882714629173279,-0.1601591259241104,0.9937605261802673,0.4351804256439209,0.814096987247467,0.13631632924079895,0.7428057789802551,0.38461822271347046,0.8131779432296753,-0.007153211627155542,0.9553152322769165,0.42628997564315796,0.8391401767730713,0.14142249524593353,0.6651687622070312,0.37810254096984863,0.8366971611976624,-0.0025106663815677166,0.7566803097724915,0.47143372893333435,0.8444257974624634,0.02285192348062992,0.6939424276351929,0.4122947156429291,0.8425805568695068,-0.14402922987937927,0.9338419437408447
9,0.39212703704833984,0.3152291178703308,-0.23176109790802002,1.0,0.3929828107357025,0.30423504114151,-0.2061072289943695,1.0,0.3951655626296997,0.30440738797187805,-0.20611953735351562,1.0,0.3974895775318146,0.30451223254203796,-0.2061290293931961,1.0,0.38538697361946106,0.3044031262397766,-0.22956421971321106,1.0,0.3822703957557678,0.3045184910297394,-0.22949063777923584,1.0,0.37925946712493896,0.30474770069122314,-0.2295881062746048,1.0,0.39657026529312134,0.3116074204444885,-0.06794827431440353,1.0,0.373312771320343,0.3119244873523712,-0.17204836010932922,0.999996542930603,0.3961443603038788,0.32960572838783264,-0.17633824050426483,0.9999997615814209,0.3873727023601532,0.3300855755805969,-0.2062348574399948,0.9999966621398926,0.4069441854953766,0.38673409819602966,0.09028615057468414,0.999923586845398,0.3540872037410736,0.3811565637588501,-0.24284346401691437,0.995840847492218,0.42849355936050415,0.4633088707923889,0.1353563517332077,0.11992046236991882,0.3687966465950012,0.46872493624687195,-0.4296844005584717,0.9313951134681702,0.4641183912754059,0.4964357018470764,-0.06310861557722092,0.7604340314865112,0.424618661403656,0.4735255539417267,-0.59211266040802,0.9508589506149292,0.4780007004737854,0.5074988007545471,-0.0942431166768074,0.7397980690002441,0.4351443350315094,0.47528454661369324,-0.6569132804870605,0.9164579510688782,0.4788302779197693,0.5005150437355042,-0.13662759959697723,0.7701359391212463,0.44060707092285156,0.464596688747406,-0.650497317314148,0.9024345874786377,0.4717153012752533,0.4985346496105194,-0.08697740733623505,0.6768538355827332,0.43750888109207153,0.48009711503982544,-0.5921834111213684,0.8496914505958557,0.3872494101524353,0.572296679019928,0.09488227963447571,0.9999483823776245,0.3520476222038269,0.5754980444908142,-0.09468165785074234,0.9999361038208008,0.44339150190353394,0.6785503625869751,-0.051023028790950775,0.5055452585220337,0.38091936707496643,0.6910614371299744,-0.19775205850601196,0.9488483667373657,0.44846850633621216,0.8093094229698181,0.05020378902554512,0.5305066704750061,0.38502857089042664,0.8099557161331177,-0.09274718165397644,0.7836379408836365,0.43847012519836426,0.8376283645629883,0.05154652148485184,0.5126586556434631,0.38177064061164856,0.8338327407836914,-0.09353072941303253,0.2963338792324066,0.49047937989234924,0.8343886733055115,-0.0701250210404396,0.5033473968505859,0.4220908284187317,0.8351396918296814,-0.24320396780967712,0.7264182567596436
10,0.38812604546546936,0.31760215759277344,-0.23888380825519562,1.0,0.3925279676914215,0.3053830862045288,-0.2162339687347412,1.0,0.3956424593925476,0.3054529130458832,-0.21615123748779297,0.999998927116394,0.39884546399116516,0.30541133880615234,-0.2161780148744583,1.0,0.38257089257240295,0.3055402934551239,-0.22515413165092468,1.0,0.3790128827095032,0.3053703308105469,-0.2251446694135666,0.9999971389770508,0.37546414136886597,0.30534812808036804,-0.22535419464111328,1.0,0.4009932577610016,0.31185248494148254,-0.0783829391002655,0.9999994039535522,0.3693358898162842,0.3117745816707611,-0.1251448094844818,0.9999512434005737,0.3933083117008209,0.3314932584762573,-0.18571490049362183,0.9999861717224121,0.381511926651001,0.3315291404724121,-0.1976630985736847,0.9999440908432007,0.41923651099205017,0.3802434504032135,0.07184857875108719,0.9995361566543579,0.35124143958091736,0.38050368428230286,-0.20132136344909668,0.9911578297615051,0.44803375005722046,0.4427606165409088,0.19030506908893585,0.45500448346138,0.35238128900527954,0.4707358181476593,-0.37324243783950806,0.7556970119476318,0.47159042954444885,0.4876426160335541,0.1146186962723732,0.9087597727775574,0.3937876522541046,0.4477616548538208,-0.6067147850990295,0.8879448771476746,0.48322242498397827,0.5008545517921448,0.10209634155035019,0.8553636074066162,0.4017161726951599,0.4510093629360199,-0.6597880125045776,0.8731992840766907,0.4802367091178894,0.49717459082603455,0.06279806047677994,0.878963053226471,0.40538397431373596,0.4398658871650696,-0.6610526442527771,0.8759442567825317,0.474452406167984,0.49628832936286926,0.09593632072210312,0.845238447189331,0.4062984883785248,0.4441322386264801,-0.6106094121932983,0.8296012878417969,0.4032231867313385,0.5748178958892822,0.05449232459068298,0.9934048056602478,0.3545836806297302,0.577852189540863,-0.05425863713026047,0.9974979758262634,0.4487481117248535,0.6700918078422546,-0.19689446687698364,0.38025304675102234,0.36282169818878174,0.6835295557975769,-0.20203527808189392,0.35888826847076416,0.4400920271873474,0.8036385178565979,-0.045938607305288315,0.23686563968658447,0.37935763597488403,0.8069037199020386,-0.0625714436173439,0.26045751571655273,0.42966777086257935,0.8242591619491577,-0.039998866617679596,0.16512946784496307,0.3813430666923523,0.8253119587898254,-0.05890359356999397,0.056306637823581696,0.46066659688949585,0.8436664938926697,-0.18042637407779694,0.2244509905576706,0.39813685417175293,0.8440792560577393,-0.19259808957576752,0.28031328320503235
11,0.3857978582382202,0.32193949818611145,-0.36391758918762207,1.0,0.3904602527618408,0.30957308411598206,-0.33870232105255127,1.0,0.3928424119949341,0.3096424639225006,-0.33860987424850464,1.0,0.3958805203437805,0.3095957338809967,-0.3386382758617401,1.0,0.37888115644454956,0.30976971983909607,-0.3405084013938904,1.0,0.3746134042739868,0.30970603227615356,-0.34046414494514465,0.9999998807907104,0.3704583942890167,0.30978360772132874,-0.3404407799243927,1.0,0.3990437686443329,0.31704607605934143,-0.1894756555557251,1.0,0.3642211854457855,0.3169502019882202,-0.19518548250198364,0.9999995231628418,0.39163708686828613,0.33813905715942383,-0.3088717460632324,0.9999998807907104,0.37745341658592224,0.3382013738155365,-0.30983591079711914,0.9999995231628418,0.4283590316772461,0.3901321589946747,-0.13621971011161804,0.9999916553497314,0.3356548845767975,0.3935348689556122,-0.1770348846912384,0.9988435506820679,0.4838448166847229,0.44286856055259705,-0.35043230652809143,0.9750158190727234,0.31825336813926697,0.47898703813552856,-0.41586771607398987,0.8399548530578613,0.5127591490745544,0.4791780710220337,-0.670214056968689,0.9099188446998596,0.3343885838985443,0.4818657636642456,-0.7105523347854614,0.7062237858772278,0.5300604701042175,0.4898572862148285,-0.7385350465774536,0.7751882076263428,0.3327839970588684,0.48563888669013977,-0.7774848937988281,0.5291863083839417,0.515173614025116,0.4862154722213745,-0.745461106300354,0.8088845014572144,0.34406155347824097,0.4784044623374939,-0.7700565457344055,0.508872389793396,0.5076475143432617,0.48701369762420654,-0.6823195219039917,0.7139708995819092,0.34546950459480286,0.48310309648513794,-0.713477373123169,0.4018618166446686,0.4127264618873596,0.5941861271858215,0.00020373865845613182,0.9999164342880249,0.3522568345069885,0.5921226739883423,0.00013902454520575702,0.9998244643211365,0.4634787440299988,0.6721274256706238,-0.3167575001716614,0.8306789994239807,0.30559688806533813,0.6774168014526367,-0.3073583245277405,0.761163592338562,0.45498719811439514,0.803977370262146,-0.03967983275651932,0.37794578075408936,0.32083508372306824,0.7846277356147766,-0.017588045448064804,0.1989319771528244,0.44571226835250854,0.8241837024688721,-0.020579293370246887,0.16154959797859192,0.32727476954460144,0.801164984703064,0.01524470467120409,0.08412975817918777,0.4729117453098297,0.8476868867874146,-0.17646023631095886,0.3001948297023773,0.31769534945487976,0.8269858956336975,-0.10218954086303711,0.15222863852977753
12,0.3838985860347748,0.32619988918304443,-0.3921836018562317,1.0,0.38979440927505493,0.3136678636074066,-0.36823323369026184,1.0,0.3925994336605072,0.31453999876976013,-0.3680937886238098,1.0,0.3960697054862976,0.3153229355812073,-0.36793461441993713,1.0,0.37837040424346924,0.3116704523563385,-0.3714415431022644,1.0,0.3744127154350281,0.3106326162815094,-0.37135154008865356,0.9999998807907104,0.37054574489593506,0.30981317162513733,-0.3713532090187073,1.0,0.3995038866996765,0.3243316113948822,-0.19499997794628143,1.0,0.364376962184906,0.31721439957618713,-0.2171827256679535,0.9999995231628418,0.39053109288215637,0.3442955017089844,-0.33128097653388977,0.9999994039535522,0.3746770918369293,0.34156668186187744,-0.3339489996433258,0.9999983310699463,0.42393675446510315,0.3934355676174164,-0.10910268127918243,0.9999313354492188,0.3319653868675232,0.39253151416778564,-0.1986003816127777,0.9982132911682129,0.4852234721183777,0.4393225610256195,-0.2109697163105011,0.9903826117515564,0.31699466705322266,0.4112268388271332,-0.5365537405014038,0.9949524402618408,0.5181306600570679,0.4515400230884552,-0.40920156240463257,0.9710003733634949,0.3589298725128174,0.3805713653564453,-0.7980931401252747,0.8780883550643921,0.5300129055976868,0.4489635229110718,-0.4582565724849701,0.9107539653778076,0.3656906187534332,0.36511585116386414,-0.8661956787109375,0.5825955271720886,0.5195438265800476,0.442485511302948,-0.46669450402259827,0.9130134582519531,0.37208858132362366,0.36819109320640564,-0.8388161659240723,0.5481382608413696,0.5131453275680542,0.4480847120285034,-0.4198393225669861,0.8194145560264587,0.3709668219089508,0.3805403411388397,-0.7962633967399597,0.37452855706214905,0.4071081280708313,0.5976126790046692,-0.0003892147506121546,0.9993501305580139,0.34967514872550964,0.5980287790298462,0.0007238918915390968,0.998021125793457,0.4505915641784668,0.6705794930458069,-0.4125373363494873,0.9968230724334717,0.3092387318611145,0.6765232086181641,-0.3351594805717468,0.9030861258506775,0.44159865379333496,0.8069626688957214,-0.20647327601909637,0.9908802509307861,0.33042341470718384,0.7786526083946228,-0.017422301694750786,0.6565136909484863,0.4329322874546051,0.826960563659668,-0.19415901601314545,0.9477433562278748,0.3396036624908447,0.7913582921028137,0.005506336223334074,0.4312460124492645,0.45844846963882446,0.8597942590713501,-0.38755881786346436,0.9714833498001099,0.3237075209617615,0.8282579183578491,-0.12135205417871475,0.5998373031616211
13,0.37873575091362,0.3310564160346985,-0.48059144616127014,1.0,0.3881160020828247,0.3192096948623657,-0.45921117067337036,1.0,0.3920288681983948,0.31963568925857544,-0.4591697156429291,1.0,0.3941027522087097,0.32003268599510193,-0.45919308066368103,1.0,0.3751007616519928,0.3186446726322174,-0.45085030794143677,1.0,0.3710678219795227,0.3182111978530884,-0.4506531357765198,1.0,0.3670937716960907,0.31803378462791443,-0.45054110884666443,1.0,0.3982313275337219,0.32951971888542175,-0.3067604899406433,1.0,0.36369916796684265,0.32660621404647827,-0.26389649510383606,1.0,0.3882160782814026,0.34866005182266235,-0.4231022298336029,1.0,0.3712988495826721,0.34750571846961975,-0.4096599519252777,1.0,0.432259738445282,0.4005083739757538,-0.2522546648979187,0.9999994039535522,0.33126315474510193,0.40586012601852417,-0.20238511264324188,0.9997910857200623,0.4837499260902405,0.4420876204967499,-0.5061307549476624,0.9979836940765381,0.3164673447608948,0.4400099217891693,-0.44588595628738403,0.9862942099571228,0.4946800172328949,0.4301758408546448,-0.8127424120903015,0.9753108620643616,0.3571452796459198,0.4003838300704956,-0.7194579839706421,0.8938071727752686,0.5036908388137817,0.4189029932022095,-0.8903153538703918,0.8798890709877014,0.3668522536754608,0.38231930136680603,-0.7886406183242798,0.6973221302032471,0.4965077340602875,0.41369524598121643,-0.882110595703125,0.8934194445610046,0.3704668879508972,0.37225547432899475,-0.7753645181655884,0.6757969260215759,0.4908526837825775,0.4221702814102173,-0.8185911178588867,0.8396663069725037,0.3693198561668396,0.3833431899547577,-0.7207931876182556,0.5877307653427124,0.41394534707069397,0.6158676743507385,-0.03929678350687027,0.9999996423721313,0.3511718511581421,0.6153405904769897,0.039944104850292206,0.9999942779541016,0.44691699743270874,0.6733470559120178,-0.4459505081176758,0.9995143413543701,0.31135615706443787,0.6738329529762268,-0.23325955867767334,0.9886351823806763,0.4390076994895935,0.8054363131523132,-0.12309042364358902,0.9832066297531128,0.32952815294265747,0.7675670981407166,0.20753183960914612,0.5606728792190552,0.4330193102359772,0.8163784742355347,-0.09907255321741104,0.8812479376792908,0.3382109999656677,0.7745760679244995,0.24279241263866425,0.43139293789863586,0.45808225870132446,0.8446548581123352,-0.27811023592948914,0.9662055373191833,0.32495349645614624,0.8205784559249878,0.11029471457004547,0.64728182554245
14
15
16
17
18
19
20
21
22
23
24
25
26
27
28
29
30
31
32,0.330467164516449,0.3612511456012726,-0.2182079553604126,1.0,0.3265288770198822,0.3522249460220337,-0.2521861791610718,1.0,0.3231640160083771,0.35177862644195557,-0.2520107626914978,0.9993557333946228,0.31990915536880493,0.3512660264968872,-0.2519112825393677,1.0,0.33584627509117126,0.35499411821365356,-0.2462759017944336,1.0,0.33912527561187744,0.3562050461769104,-0.24603477120399475,0.9992842078208923,0.34228986501693726,0.3576853573322296,-0.2459448128938675,1.0,0.31815218925476074,0.3613712191581726,-0.29463255405426025,0.9997146725654602,0.3486635088920593,0.36982280015945435,-0.26972025632858276,0.9996077418327332,0.3273676037788391,0.3716985583305359,-0.22143474221229553,0.9979000091552734,0.3371213674545288,0.37439432740211487,-0.2146584540605545,0.994728147983551,0.29073798656463623,0.4135584235191345,-0.21754519641399384,0.9993959665298462,0.3854351043701172,0.42500197887420654,-0.15670117735862732,0.9995555281639099,0.2620227336883545,0.45874500274658203,-0.06282366067171097,0.7909912467002869,0.41220635175704956,0.4806833863258362,-0.014764698222279549,0.5296392440795898,0.2625729441642761,0.45488718152046204,0.06323914229869843,0.728499174118042,0.3984377086162567,0.4966143071651459,0.1167297214269638,0.5037349462509155,0.2599634826183319,0.45475584268569946,0.06226096302270889,0.6966493129730225,0.39999958872795105,0.5038996934890747,0.13312210142612457,0.501259446144104,0.268472820520401,0.4522402882575989,0.0509318932890892,0.7182594537734985,0.3909975290298462,0.5044043064117432,0.10701972246170044,0.4907914698123932,0.2745627760887146,0.45620089769363403,0.06157604977488518,0.646697998046875,0.38700151443481445,0.5016536116600037,0.11259415000677109,0.41323068737983704,0.3388616144657135,0.580852210521698,-0.010651490651071072,0.9999974966049194,0.39363399147987366,0.5718432068824768,0.010889389552175999,0.9999949932098389,0.31826484203338623,0.7145281434059143,-0.0051161497831344604,0.9929627776145935,0.4327488839626312,0.6801874041557312,-0.010594270192086697,0.9740458130836487,0.3222738802433014,0.8267718553543091,0.04174497351050377,0.9938621520996094,0.4711906313896179,0.8046541810035706,0.06496864557266235,0.9610065817832947,0.3262260854244232,0.8438775539398193,0.04296891763806343,0.9872450232505798,0.4755259156227112,0.8239326477050781,0.06348572671413422,0.8768296241760254,0.31779104471206665,0.8570796251296997,-0.05151395872235298,0.9587841629981995,0.48076528310775757,0.8418684005737305,-0.02296951785683632,0.8197440505027771
33,0.32825881242752075,0.35694465041160583,-0.025449980050325394,1.0,0.32736316323280334,0.3518475890159607,-0.040129367262125015,1.0,0.32530686259269714,0.35144346952438354,-0.04009164869785309,0.999957799911499,0.322596937417984,0.3509559631347656,-0.04008787125349045,1.0,0.3303142189979553,0.3544984459877014,-0.023199720308184624,1.0,0.3313288688659668,0.35555896162986755,-0.022980114445090294,0.999937891960144,0.3323013186454773,0.3567827045917511,-0.022936668246984482,1.0,0.3183702826499939,0.35954180359840393,-0.05566609650850296,0.999981164932251,0.33365893363952637,0.3671387732028961,0.024085398763418198,0.9999381303787231,0.3257770538330078,0.36791345477104187,-0.025839582085609436,0.9994747042655945,0.3279157876968384,0.37024033069610596,-0.0029299529269337654,0.9993663430213928,0.2911071479320526,0.40990158915519714,-0.08897927403450012,0.9999560117721558,0.3646388351917267,0.4199468195438385,0.1484515517950058,0.9999443292617798,0.23975031077861786,0.4600316286087036,0.02685145102441311,0.9371572732925415,0.33881646394729614,0.4686662256717682,0.27673059701919556,0.0843232199549675,0.24039320647716522,0.4489787518978119,0.2608032822608948,0.5751476883888245,0.30828234553337097,0.45569896697998047,0.39118367433547974,0.11400866508483887,0.2396138459444046,0.4475979804992676,0.2547610402107239,0.5189154744148254,0.2993921935558319,0.45713841915130615,0.42386412620544434,0.18561099469661713,0.24342067539691925,0.4481661021709442,0.2679697871208191,0.5127144455909729,0.3020757734775543,0.4581702649593353,0.4064132571220398,0.18589089810848236,0.2501206398010254,0.45145586133003235,0.26754361391067505,0.5256783962249756,0.30227863788604736,0.45751431584358215,0.38928425312042236,0.18900452554225922,0.34000447392463684,0.5816946625709534,-0.07586833834648132,0.999974250793457,0.3819049596786499,0.5868602991104126,0.07621918618679047,0.9999825954437256,0.3035404086112976,0.7104541659355164,-0.08716894686222076,0.9994992017745972,0.40911945700645447,0.682471513748169,0.10963080078363419,0.9746798276901245,0.2851637899875641,0.8231227397918701,-0.04749316722154617,0.9980725049972534,0.46478262543678284,0.797215461730957,0.1621565818786621,0.9764477610588074,0.28856900334358215,0.8460533022880554,-0.043924279510974884,0.9919156432151794,0.4766813814640045,0.8146292567253113,0.162684366106987,0.9563525319099426,0.2699283957481384,0.8442350029945374,-0.10777056217193604,0.9870737791061401,0.4556337893009186,0.8388378024101257,0.11735604703426361,0.9264766573905945
34
35
36,0.3199441432952881,0.36721983551979065,-0.1140521913766861,1.0,0.31740960478782654,0.36028674244880676,-0.1354949027299881,1.0,0.31612348556518555,0.36022651195526123,-0.13545477390289307,0.9991115927696228,0.3149759769439697,0.36009520292282104,-0.13546539843082428,1.0,0.3207521438598633,0.3614968955516815,-0.12398862838745117,1.0,0.3220290243625641,0.36203667521476746,-0.1238739937543869,0.9990251064300537,0.32338446378707886,0.36274367570877075,-0.12384204566478729,1.0,0.3163141906261444,0.3690757751464844,-0.1632474958896637,0.9972079396247864,0.328582763671875,0.37288540601730347,-0.10349688678979874,0.9987173080444336,0.32115575671195984,0.3785460293292999,-0.11719869077205658,0.9941137433052063,0.3240499794483185,0.3798389732837677,-0.10043063014745712,0.9928004741668701,0.29852786660194397,0.4340387284755707,-0.157166987657547,0.9989678859710693,0.3681787848472595,0.412558376789093,-0.02597605623304844,0.9995949864387512,0.2502787113189697,0.4575253427028656,-0.14240993559360504,0.9789522886276245,0.4277661442756653,0.4223705530166626,0.049921665340662,0.9329054355621338,0.23452547192573547,0.46976712346076965,-0.09829296916723251,0.8829044103622437,0.47715887427330017,0.413512259721756,0.06825347989797592,0.938731849193573,0.23149237036705017,0.47680437564849854,-0.11635376513004303,0.7663583755493164,0.49047940969467163,0.4193316102027893,0.06578908115625381,0.9290278553962708,0.23255331814289093,0.4746514558792114,-0.12471064180135727,0.7818167805671692,0.4916229844093323,0.4149131178855896,0.05534634739160538,0.9249746203422546,0.23918506503105164,0.4725615084171295,-0.10330948978662491,0.7152307033538818,0.4831109941005707,0.4145292639732361,0.06641125679016113,0.8805831074714661,0.3651999831199646,0.6057010889053345,-0.05803446099162102,0.9998701810836792,0.3948061466217041,0.5825908184051514,0.057946283370256424,0.9999086856842041,0.40278735756874084,0.7214133143424988,-0.10620317608118057,0.8548750281333923,0.4112294316291809,0.6929370760917664,0.01241679210215807,0.6917330622673035,0.45296186208724976,0.8178090453147888,-0.06127730756998062,0.81756192445755,0.4612535536289215,0.7990373969078064,0.04931284114718437,0.7562608122825623,0.4605613648891449,0.831081748008728,-0.06356660276651382,0.7358405590057373,0.46955713629722595,0.8124144077301025,0.04575613513588905,0.7910149693489075,0.4671027660369873,0.84771329164505,-0.17556314170360565,0.7235016226768494,0.4612511694431305,0.842002272605896,-0.04459737241268158,0.7599570155143738
37
38,0.3043936491012573,0.3654211163520813,-0.2187236249446869,1.0,0.30966827273368835,0.3541776239871979,-0.2209673374891281,1.0,0.31232142448425293,0.3548195958137512,-0.22110776603221893,0.9999997615814209,0.3149794936180115,0.3553585410118103,-0.22119884192943573,1.0,0.30394142866134644,0.3524540066719055,-0.19794221222400665,1.0,0.3021000623703003,0.35163578391075134,-0.19769902527332306,0.9999992847442627,0.3003629446029663,0.35089731216430664,-0.19761499762535095,1.0,0.32176485657691956,0.36228373646736145,-0.17793141305446625,0.999998927116394,0.30403319001197815,0.35513633489608765,-0.0770978331565857,0.9999985694885254,0.3106834590435028,0.3791668713092804,-0.19902507960796356,0.9999892711639404,0.30185824632644653,0.376669704914093,-0.1707981675863266,0.9999771118164062,0.32287949323654175,0.41834449768066406,-0.2686241567134857,0.9999005794525146,0.31753063201904297,0.4042986035346985,0.07590438425540924,0.9999523162841797,0.24848899245262146,0.45207780599594116,-0.39624616503715515,0.9996192455291748,0.26612335443496704,0.4480842351913452,0.035213273018598557,0.2749650776386261,0.19114916026592255,0.47934621572494507,-0.4149928092956543,0.9865358471870422,0.2317780703306198,0.46596115827560425,-0.15370428562164307,0.298053115606308,0.1773865520954132,0.48256170749664307,-0.46319779753685,0.9513842463493347,0.21809761226177216,0.4702802300453186,-0.18730571866035461,0.3744824528694153,0.17992299795150757,0.4818897545337677,-0.44472113251686096,0.9520682692527771,0.22380538284778595,0.4648169279098511,-0.21487244963645935,0.38635963201522827,0.1882440447807312,0.483753502368927,-0.4105362296104431,0.9212654232978821,0.22872158885002136,0.4666685163974762,-0.17098480463027954,0.3699447810649872,0.38899946212768555,0.5771909356117249,-0.12151642143726349,0.9999868869781494,0.3807148039340973,0.5628532767295837,0.12178609520196915,0.9999831914901733,0.37972337007522583,0.7238069772720337,-0.23414376378059387,0.9977326393127441,0.3784489631652832,0.681472897529602,0.07372478395700455,0.11965995281934738,0.4822145402431488,0.803502082824707,-0.21186098456382751,0.9618439078330994,0.4507969915866852,0.7729498744010925,0.1503351479768753,0.1482822746038437,0.505976140499115,0.8007513880729675,-0.21144089102745056,0.9356496334075928,0.46979960799217224,0.7783395051956177,0.1529110223054886,0.2613077461719513,0.4815446436405182,0.8738195896148682,-0.2797040343284607,0.9189208745956421,0.43892425298690796,0.8327560424804688,0.1022668108344078,0.2040896713733673
39,0.3009736239910126,0.3696506917476654,-0.4779549539089203,1.0,0.30594557523727417,0.3594236969947815,-0.4826893210411072,1.0,0.30846887826919556,0.3593153655529022,-0.4827784597873688,1.0,0.3110934793949127,0.35910579562187195,-0.48278871178627014,1.0,0.3008950352668762,0.359493613243103,-0.455131858587265,1.0,0.29920703172683716,0.35927411913871765,-0.45484480261802673,0.9999997615814209,0.297639399766922,0.3591729700565338,-0.4546380639076233,1.0,0.31941547989845276,0.36318454146385193,-0.42442917823791504,0.9999997615814209,0.3006626069545746,0.3630537986755371,-0.29761096835136414,0.9999996423721313,0.30780771374702454,0.38126474618911743,-0.4501352906227112,0.9999995231628418,0.2990960478782654,0.38087397813796997,-0.41418570280075073,0.9999988079071045,0.3298651874065399,0.41585397720336914,-0.45565494894981384,0.9999902248382568,0.31673941016197205,0.4045940935611725,-0.14332681894302368,0.9999909400939941,0.2548961043357849,0.4496176838874817,-0.6272110939025879,0.9999345541000366,0.3075249493122101,0.4424091577529907,-0.1649523824453354,0.7426960468292236,0.1928580403327942,0.48002517223358154,-0.6841470003128052,0.9962971806526184,0.3405334949493408,0.4497470557689667,-0.31550687551498413,0.5151973962783813,0.18033453822135925,0.48426517844200134,-0.7435564398765564,0.9796935319900513,0.3481689989566803,0.4613725543022156,-0.33585232496261597,0.5492164492607117,0.17954899370670319,0.4838598072528839,-0.7267933487892151,0.9810617566108704,0.35423392057418823,0.4496558904647827,-0.36212095618247986,0.5506675839424133,0.18750451505184174,0.48458656668663025,-0.6819559335708618,0.9607277512550354,0.3493819236755371,0.44988247752189636,-0.32813921570777893,0.5559433102607727,0.39360785484313965,0.5701801776885986,-0.11744852364063263,0.9999951124191284,0.3758031725883484,0.5612838864326477,0.11776664108037949,0.9999878406524658,0.3786802887916565,0.7175104022026062,-0.2846064865589142,0.9997760653495789,0.35522598028182983,0.6902096271514893,0.05538977310061455,0.8279719948768616,0.47556620836257935,0.8065393567085266,-0.16622163355350494,0.9920309782028198,0.4359413981437683,0.7626511454582214,0.273639440536499,0.5481466054916382,0.49885645508766174,0.8090892434120178,-0.1588132679462433,0.9152397513389587,0.45532193779945374,0.766667902469635,0.2920896112918854,0.5272789001464844,0.47645577788352966,0.872712254524231,-0.25852733850479126,0.9742966294288635,0.43285804986953735,0.8201578855514526,0.23937074840068817,0.5564703941345215
40,0.29767805337905884,0.3681882619857788,-0.13925428688526154,1.0,0.2983647286891937,0.3604983985424042,-0.16062358021736145,1.0,0.29882529377937317,0.3610587418079376,-0.1606638878583908,0.9999860525131226,0.2993999123573303,0.3615170419216156,-0.16068413853645325,1.0,0.2988661825656891,0.3587227761745453,-0.13290813565254211,1.0,0.2991569936275482,0.35783201456069946,-0.1328035295009613,0.99998939037323,0.29828906059265137,0.3570309579372406,-0.13266810774803162,1.0,0.30522334575653076,0.3685932755470276,-0.25500646233558655,0.9998939037322998,0.3053745627403259,0.36215418577194214,-0.06662377715110779,0.9999867677688599,0.30210843682289124,0.3807315230369568,-0.14919397234916687,0.9998440742492676,0.29943713545799255,0.3787080943584442,-0.10979604721069336,0.9998317956924438,0.301771342754364,0.4245566129684448,-0.2439550906419754,0.9999706745147705,0.35517868399620056,0.4032124876976013,0.032532282173633575,0.9999738931655884,0.2289901077747345,0.45451804995536804,-0.3103097379207611,0.9993008375167847,0.41446542739868164,0.4147712290287018,0.0867585763335228,0.786600649356842,0.17593982815742493,0.4790741503238678,-0.3185561001300812,0.9870599508285522,0.47203072905540466,0.4133729934692383,0.044874392449855804,0.6078558564186096,0.16559907793998718,0.48643815517425537,-0.3523772358894348,0.9610245227813721,0.487598180770874,0.42283204197883606,0.045085418969392776,0.5903701186180115,0.16309013962745667,0.48420485854148865,-0.3432677090167999,0.9607990980148315,0.4894431233406067,0.4162157475948334,0.02829619124531746,0.5748181343078613,0.1710161417722702,0.48334842920303345,-0.31613755226135254,0.9135769605636597,0.479935884475708,0.4137822091579437,0.04010755196213722,0.461317777633667,0.37839484214782715,0.574178159236908,-0.12050093710422516,0.9999769926071167,0.3880307674407959,0.5585163235664368,0.1205708235502243,0.9999655485153198,0.37180790305137634,0.714836061000824,-0.25785163044929504,0.9578855633735657,0.3613666892051697,0.6630922555923462,0.17241892218589783,0.006956419907510281,0.46554893255233765,0.8070085048675537,-0.2560965418815613,0.9161883592605591,0.4244014322757721,0.7579549551010132,0.2505544126033783,0.02051973156630993,0.4882046580314636,0.8081417679786682,-0.25627443194389343,0.806714653968811,0.43837475776672363,0.7663177251815796,0.25499480962753296,0.061768971383571625,0.46694856882095337,0.8690345883369446,-0.3184715807437897,0.7470171451568604,0.42189663648605347,0.8047274947166443,0.2214077264070511,0.0316840223968029
41,0.30137062072753906,0.36331707239151,-0.4051719307899475,1.0,0.3007137179374695,0.3585057556629181,-0.43358707427978516,1.0,0.2999410033226013,0.359164834022522,-0.43350106477737427,0.9990591406822205,0.29948675632476807,0.3596478998661041,-0.4332316815853119,1.0,0.30363163352012634,0.35768526792526245,-0.42097893357276917,1.0,0.3044036030769348,0.3575485050678253,-0.42077556252479553,0.999388575553894,0.3051243722438812,0.35763606429100037,-0.4206732213497162,1.0,0.30315712094306946,0.3718753457069397,-0.430346816778183,0.9916817545890808,0.3087659776210785,0.36968520283699036,-0.36632901430130005,0.999213695526123,0.3021028935909271,0.37849825620651245,-0.39225998520851135,0.9885194897651672,0.30376312136650085,0.3768148422241211,-0.374610960483551,0.9954385161399841,0.2720023989677429,0.44143497943878174,-0.36718064546585083,0.9990087151527405,0.3449651002883911,0.40738216042518616,-0.22348351776599884,0.9983106851577759,0.2052813321352005,0.48189577460289,-0.3911714553833008,0.9984797835350037,0.40917515754699707,0.41324394941329956,-0.0978192612528801,0.9321397542953491,0.16619162261486053,0.4976177513599396,-0.4520125389099121,0.9958755373954773,0.4542619287967682,0.40613874793052673,-0.03304719179868698,0.9610801339149475,0.15812447667121887,0.5032773017883301,-0.49757519364356995,0.9901448488235474,0.4663303792476654,0.41364607214927673,-0.02938009425997734,0.9503584504127502,0.16039709746837616,0.5023394823074341,-0.5058228373527527,0.9906262159347534,0.46752017736434937,0.40839871764183044,-0.04773741215467453,0.9468036890029907,0.1680518090724945,0.5022886991500854,-0.45855098962783813,0.977544903755188,0.45891085267066956,0.40610477328300476,-0.034801967442035675,0.9114876985549927,0.3493828773498535,0.6108443140983582,-0.054266951978206635,0.9999717473983765,0.37619954347610474,0.5879865884780884,0.05452844500541687,0.9998800754547119,0.37042945623397827,0.719539225101471,-0.1441079080104828,0.857855498790741,0.3797188699245453,0.6822995543479919,-0.08307619392871857,0.8159863352775574,0.42382413148880005,0.8162590861320496,-0.017988823354244232,0.8082598447799683,0.4515078067779541,0.7849245071411133,0.10774682462215424,0.7214510440826416,0.43393391370773315,0.835352897644043,-0.009521313942968845,0.843521773815155,0.4658275544643402,0.7984399795532227,0.12197808176279068,0.798569917678833,0.43806320428848267,0.8443974256515503,-0.11219519376754761,0.631022572517395,0.4564855694770813,0.8314744830131531,0.02620011195540428,0.5699208378791809
42,0.30190742015838623,0.38569146394729614,-0.5455160140991211,1.0,0.30525046586990356,0.37455934286117554,-0.5613563656806946,1.0,0.30808156728744507,0.37455517053604126,-0.5613993406295776,0.9999996423721313,0.31099414825439453,0.37438884377479553,-0.5613502264022827,1.0,0.29948344826698303,0.37342846393585205,-0.5367002487182617,1.0,0.29743078351020813,0.37264570593833923,-0.5364261269569397,0.9999991655349731,0.2954721450805664,0.372065931558609,-0.5363452434539795,1.0,0.3191840648651123,0.37810277938842773,-0.5269003510475159,0.9999973773956299,0.2983284592628479,0.3750106394290924,-0.40962833166122437,0.9999983310699463,0.3095831274986267,0.39750829339027405,-0.5243051648139954,0.999990701675415,0.3012128472328186,0.3962315618991852,-0.4909380376338959,0.9999833106994629,0.3200536370277405,0.4327413737773895,-0.5090725421905518,0.9998146891593933,0.320952832698822,0.40208375453948975,-0.20731942355632782,0.9998749494552612,0.2501494884490967,0.4731329083442688,-0.5335906744003296,0.999573290348053,0.2902834117412567,0.4366035461425781,-0.035588353872299194,0.535957396030426,0.18676039576530457,0.5088699460029602,-0.577274739742279,0.993137001991272,0.27292734384536743,0.4695814847946167,0.002956137992441654,0.5332915186882019,0.17297989130020142,0.5201016664505005,-0.6370435357093811,0.9771034717559814,0.26739779114723206,0.4758948087692261,0.0026074969209730625,0.617100179195404,0.16967955231666565,0.5132110714912415,-0.6358586549758911,0.9787315130233765,0.27387815713882446,0.47472062706947327,-0.038875676691532135,0.6194239258766174,0.1775386929512024,0.5124935507774353,-0.5799901485443115,0.9558109641075134,0.27481403946876526,0.47667887806892395,-0.011921154335141182,0.6441529989242554,0.38028964400291443,0.5916431546211243,-0.08665169030427933,0.9999449253082275,0.3755410611629486,0.5773614645004272,0.08687210083007812,0.999942421913147,0.384544312953949,0.712421715259552,-0.10304880142211914,0.9989653825759888,0.38871315121650696,0.6785264611244202,0.19632606208324432,0.6164405345916748,0.45327648520469666,0.7908246517181396,0.085608571767807,0.9904847145080566,0.44317570328712463,0.7759479880332947,0.4404788911342621,0.6321215629577637,0.4687095582485199,0.796387255191803,0.10293197631835938,0.9760214686393738,0.4580002427101135,0.7870080471038818,0.4598204493522644,0.690263032913208,0.4530717432498932,0.8431457281112671,0.04036819934844971,0.982055127620697,0.43740934133529663,0.8253323435783386,0.40651553869247437,0.7118278741836548
43
44,0.3022225797176361,0.3848404884338379,-0.08298199623823166,1.0,0.3009072542190552,0.3773685693740845,-0.09970217198133469,1.0,0.3014802634716034,0.3765493631362915,-0.09954682737588882,0.9989625215530396,0.30215346813201904,0.3756617307662964,-0.09940871596336365,1.0,0.30087053775787354,0.3789694011211395,-0.07888616621494293,1.0,0.3010489344596863,0.3795715570449829,-0.0788399875164032,0.9989398121833801,0.30136775970458984,0.38030916452407837,-0.07895269989967346,1.0,0.30879390239715576,0.3822150230407715,-0.11563201248645782,0.9900074005126953,0.3095375597476959,0.38812506198883057,-0.02145792916417122,0.9976673126220703,0.3094288408756256,0.395376056432724,-0.08396755903959274,0.9889920949935913,0.3080040216445923,0.398312509059906,-0.057116858661174774,0.9872433543205261,0.30270877480506897,0.44484424591064453,-0.13754038512706757,0.996733546257019,0.37096473574638367,0.40673816204071045,0.06613606959581375,0.9989147186279297,0.271922767162323,0.457768976688385,-0.1840948462486267,0.8954876065254211,0.41560906171798706,0.41470927000045776,0.2063184231519699,0.1784256249666214,0.2574003338813782,0.4715771973133087,-0.16814497113227844,0.6410925388336182,0.41287583112716675,0.4172627329826355,0.3559292256832123,0.06855121999979019,0.25545957684516907,0.47557008266448975,-0.19311340153217316,0.48897963762283325,0.413261353969574,0.4214375615119934,0.38426345586776733,0.09266037493944168,0.257676362991333,0.47836989164352417,-0.1868455410003662,0.48281970620155334,0.40884536504745483,0.4255387485027313,0.37249526381492615,0.09167984127998352,0.26419973373413086,0.47863176465034485,-0.16799163818359375,0.4262935519218445,0.40600091218948364,0.4274282157421112,0.35709235072135925,0.08782447129487991,0.3869703710079193,0.599656879901886,-0.06712829321622849,0.9998944997787476,0.4139508605003357,0.5730664134025574,0.06736139208078384,0.9999145269393921,0.39195525646209717,0.709140419960022,-0.14869582653045654,0.5314919948577881,0.4186766743659973,0.6859543323516846,0.03278214484453201,0.08487361669540405,0.45077306032180786,0.7951480150222778,-0.16287201642990112,0.3803950250148773,0.456699937582016,0.783728837966919,-0.0002895052602980286,0.08770345151424408,0.46446317434310913,0.8084927201271057,-0.16748392581939697,0.6914132237434387,0.46715402603149414,0.7974337935447693,-0.009076708927750587,0.2147727608680725,0.45645737648010254,0.8251367211341858,-0.23390689492225647,0.335294634103775,0.450313001871109,0.8262335062026978,-0.07303719222545624,0.11585517227649689
45,0.30263274908065796,0.38521140813827515,-0.0448044016957283,1.0,0.29987668991088867,0.3752293586730957,-0.06136736273765564,1.0,0.3005015552043915,0.3745476007461548,-0.06127021834254265,0.9999535083770752,0.30122634768486023,0.37382227182388306,-0.061271242797374725,1.0,0.3000216484069824,0.3758259415626526,-0.0389263778924942,1.0,0.30031007528305054,0.37590184807777405,-0.03890473395586014,0.9999443292617798,0.30074748396873474,0.3761190176010132,-0.038970209658145905,1.0,0.30784866213798523,0.37911999225616455,-0.09677718579769135,0.9994664788246155,0.30887824296951294,0.3819332420825958,0.01328145433217287,0.9998667240142822,0.3097514510154724,0.3949638903141022,-0.05445466190576553,0.9979674220085144,0.30801400542259216,0.3971254229545593,-0.023063432425260544,0.996802568435669,0.3069845736026764,0.4408257305622101,-0.17151664197444916,0.9993773102760315,0.3704083263874054,0.40153011679649353,0.09501887857913971,0.9995526671409607,0.2649487853050232,0.4591350555419922,-0.33460232615470886,0.9246621131896973,0.41935595870018005,0.4249308407306671,0.21345369517803192,0.06452055275440216,0.2358931303024292,0.4837498664855957,-0.4655287265777588,0.764670193195343,0.43255814909935,0.4239977300167084,0.33738431334495544,0.0483444407582283,0.23251302540302277,0.49242153763771057,-0.5132187008857727,0.6177734136581421,0.4366912245750427,0.4269046485424042,0.3677508533000946,0.07608722895383835,0.23177067935466766,0.4914105236530304,-0.5022405385971069,0.6306586861610413,0.43151888251304626,0.4293767511844635,0.3481476902961731,0.07480429112911224,0.2377123087644577,0.4899379312992096,-0.4682256281375885,0.4849913418292999,0.4272329807281494,0.4318569302558899,0.334492027759552,0.06359632313251495,0.38897326588630676,0.6037177443504333,-0.09410785883665085,0.9999120235443115,0.41610127687454224,0.5757426023483276,0.0940268486738205,0.99993896484375,0.39860963821411133,0.7108917236328125,-0.18079590797424316,0.7799297571182251,0.42106765508651733,0.688004195690155,0.1306811273097992,0.022223498672246933,0.46032166481018066,0.8027330040931702,-0.17642202973365784,0.7370537519454956,0.4551209807395935,0.7848641872406006,0.13079850375652313,0.06205357611179352,0.475433349609375,0.8128547072410583,-0.1778710037469864,0.8357731103897095,0.46466103196144104,0.7991975545883179,0.1249515637755394,0.17955240607261658,0.461811363697052,0.8406336903572083,-0.2456209659576416,0.549444854259491,0.44473862648010254,0.8252594470977783,0.0683346539735794,0.10868129134178162
46,0.3317583203315735,0.3930162787437439,-0.1912270039319992,1.0,0.3331388831138611,0.38183459639549255,-0.18848149478435516,1.0,0.33583953976631165,0.3808949887752533,-0.18844462931156158,0.999972939491272,0.3385750353336334,0.37992510199546814,-0.188430517911911,1.0,0.32631415128707886,0.38442113995552063,-0.1770819127559662,1.0,0.32363107800483704,0.3853333592414856,-0.1770641803741455,0.9999637603759766,0.32100629806518555,0.38641640543937683,-0.17717128992080688,1.0,0.3434526324272156,0.3864867091178894,-0.1440705507993698,0.9999172687530518,0.32114699482917786,0.3944309651851654,-0.09123079478740692,0.9999409914016724,0.3397516906261444,0.40409553050994873,-0.17390397191047668,0.9997871518135071,0.33024460077285767,0.4078437089920044,-0.15794610977172852,0.9996473789215088,0.35959649085998535,0.4409582018852234,-0.15625111758708954,0.9982593655586243,0.3653448224067688,0.4504278302192688,-0.029696214944124222,0.9984180927276611,0.3627413511276245,0.4473284184932709,-0.20855219662189484,0.6273999214172363,0.344227135181427,0.4568020701408386,-0.008683041669428349,0.44764357805252075,0.33246904611587524,0.42423784732818604,-0.1963353455066681,0.7334550619125366,0.33066779375076294,0.41178062558174133,0.015177766792476177,0.5316272377967834,0.32376039028167725,0.4088560938835144,-0.22063741087913513,0.5764023065567017,0.327658087015152,0.4019654095172882,0.011246792040765285,0.5515846014022827,0.3243861794471741,0.40976211428642273,-0.21993835270404816,0.5452253222465515,0.3256227374076843,0.4039157032966614,0.0012698998907580972,0.5333483815193176,0.32825303077697754,0.4185419976711273,-0.19814170897006989,0.5788882970809937,0.3278958201408386,0.4074639678001404,0.010188126936554909,0.5763503909111023,0.41836613416671753,0.619382917881012,-0.0554347038269043,0.999754011631012,0.4049927294254303,0.6234691143035889,0.05547397583723068,0.9997950196266174,0.4323902130126953,0.7237120866775513,-0.00945708341896534,0.923623263835907,0.422659307718277,0.7224931716918945,0.12390396744012833,0.5312501788139343,0.4552299976348877,0.8145810961723328,0.11611054837703705,0.8390347957611084,0.450519859790802,0.8023005723953247,0.2637791633605957,0.5553761720657349,0.46083855628967285,0.8240646719932556,0.12659522891044617,0.7514773011207581,0.459280401468277,0.8118789792060852,0.27468591928482056,0.5313184857368469,0.45662492513656616,0.8643721342086792,0.07208571583032608,0.8129189014434814,0.44468235969543457,0.8472386598587036,0.222345232963562,0.6361029744148254
47,0.33906954526901245,0.4231070578098297,0.004360930062830448,1.0,0.3399304449558258,0.41270387172698975,-0.01402321644127369,1.0,0.3407685160636902,0.4120829999446869,-0.013994361273944378,0.9996951818466187,0.34166663885116577,0.4114001989364624,-0.014157813973724842,1.0,0.3405471742153168,0.41295841336250305,0.015152603387832642,1.0,0.34136825799942017,0.4127019941806793,0.015240025706589222,0.9995088577270508,0.3422240912914276,0.4126017987728119,0.015275168232619762,1.0,0.34832215309143066,0.41581618785858154,-0.06363707035779953,0.9999115467071533,0.34954679012298584,0.4170580804347992,0.06691757589578629,0.9998013377189636,0.3434416651725769,0.43427377939224243,-0.01204791571944952,0.9992308616638184,0.34320268034935,0.43487977981567383,0.02601044252514839,0.9987403750419617,0.35944700241088867,0.45726364850997925,-0.16531793773174286,0.9995898604393005,0.3760366141796112,0.46891462802886963,0.1665240377187729,0.9975605010986328,0.3560464084148407,0.4723110795021057,-0.3147309720516205,0.883650004863739,0.38458251953125,0.4563935697078705,0.2910025715827942,0.017300337553024292,0.34674301743507385,0.4268743395805359,-0.3451029062271118,0.7646790742874146,0.36673375964164734,0.4122805595397949,0.36214032769203186,0.07221023738384247,0.3454647958278656,0.4083942174911499,-0.3677365779876709,0.6935423612594604,0.36536478996276855,0.4026249051094055,0.38547855615615845,0.1085638627409935,0.34667032957077026,0.40969404578208923,-0.35600513219833374,0.6574677228927612,0.3627454340457916,0.40087616443634033,0.37100711464881897,0.103756383061409,0.34675586223602295,0.4189528822898865,-0.34063342213630676,0.6115572452545166,0.3629169464111328,0.4045265018939972,0.35748571157455444,0.10436356067657471,0.41347140073776245,0.6201769113540649,-0.11600366979837418,0.9999524354934692,0.41863974928855896,0.621325671672821,0.11601091921329498,0.9999641180038452,0.39201414585113525,0.7233952879905701,-0.1115678995847702,0.9854481816291809,0.4041648507118225,0.7215819954872131,0.13320180773735046,0.036169588565826416,0.42678380012512207,0.8215913772583008,-0.08383414894342422,0.9698560833930969,0.4484836161136627,0.809203028678894,0.15093524754047394,0.13539764285087585,0.44108304381370544,0.8336735367774963,-0.08155348151922226,0.9483898878097534,0.46054381132125854,0.8208760023117065,0.14928320050239563,0.3261859118938446,0.41134971380233765,0.8638115525245667,-0.12134827673435211,0.9207100868225098,0.4346378445625305,0.8484485149383545,0.11879689991474152,0.20254309475421906
48
49
50
51
52
53
54
55
56
57
58
59,0.5284737348556519,0.8201637864112854,-0.068360835313797,1.0,0.5345157980918884,0.8344814777374268,-0.049069374799728394,1.0,0.5318876504898071,0.8409095406532288,-0.049073684960603714,0.9999995231628418,0.529248058795929,0.847518265247345,-0.048993438482284546,1.0,0.5412841439247131,0.8180469274520874,-0.05075790360569954,1.0,0.5441434979438782,0.8117937445640564,-0.05077142268419266,0.9999983310699463,0.5469603538513184,0.8054123520851135,-0.05088713765144348,1.0,0.519942045211792,0.8514535427093506,0.057245977222919464,0.9999996423721313,0.5444563627243042,0.7933337092399597,0.0601426437497139,0.9999933242797852,0.5113406777381897,0.8221490383148193,-0.029657822102308273,0.9999974966049194,0.5207237601280212,0.8001226186752319,-0.02790403924882412,0.9999794960021973,0.46180763840675354,0.840041995048523,0.1140807718038559,0.999919056892395,0.5211089253425598,0.7346601486206055,0.04530525952577591,0.9988797307014465,0.3985203504562378,0.8222680687904358,0.009620304219424725,0.13707950711250305,0.473929226398468,0.6789084672927856,-0.05756073445081711,0.4575961232185364,0.41217708587646484,0.8392243981361389,-0.21439453959465027,0.34267470240592957,0.47379881143569946,0.7763910889625549,-0.2043878138065338,0.5162054300308228,0.4107936918735504,0.8450499773025513,-0.2686746120452881,0.4159594774246216,0.4692867398262024,0.7986268997192383,-0.2407166063785553,0.4985557794570923,0.42461833357810974,0.8475238084793091,-0.2706545889377594,0.4663529694080353,0.47964319586753845,0.8115392327308655,-0.2358599603176117,0.5060282349586487,0.42525941133499146,0.8402379751205444,-0.22272881865501404,0.4181080162525177,0.477531373500824,0.8054110407829285,-0.20414061844348907,0.5352904200553894,0.3697977662086487,0.7106922268867493,0.02541276440024376,0.9997588992118835,0.40620431303977966,0.6464406251907349,-0.02499357797205448,0.9982323050498962,0.36243635416030884,0.7815773487091064,-0.1746015101671219,0.19870395958423615,0.42401939630508423,0.6951237320899963,-0.22125808894634247,0.7482067942619324,0.32416659593582153,0.6834480166435242,-0.08648314327001572,0.045072779059410095,0.37033554911613464,0.6149480938911438,-0.06390006840229034,0.03920383378863335,0.32317104935646057,0.6612637042999268,-0.07951811701059341,0.08244460076093674,0.3614600896835327,0.6019309759140015,-0.04786260053515434,0.10520553588867188,0.2995575964450836,0.6587218046188354,-0.16452638804912567,0.09645485132932663,0.3402665853500366,0.5930172204971313,-0.09257980436086655,0.09810244292020798
60,0.5411071181297302,0.8262954354286194,-0.4467249810695648,1.0,0.550724983215332,0.8400421142578125,-0.43658018112182617,1.0,0.5488360524177551,0.8463940024375916,-0.43645328283309937,1.0,0.5468929409980774,0.8528740406036377,-0.43647271394729614,1.0,0.5557270646095276,0.8235994577407837,-0.43747156858444214,1.0,0.558318555355072,0.8166646361351013,-0.4373835027217865,1.0,0.5608236193656921,0.8096486926078796,-0.4373958706855774,1.0,0.540641188621521,0.8507620692253113,-0.3303769528865814,1.0,0.5601046681404114,0.7931772470474243,-0.33354613184928894,0.9999997615814209,0.5270385146141052,0.827604353427887,-0.40272969007492065,1.0,0.535271406173706,0.8041937351226807,-0.40176743268966675,0.9999997615814209,0.4903651177883148,0.8411422967910767,-0.2546682059764862,0.9999994039535522,0.5312594771385193,0.7281836867332458,-0.24820713698863983,0.9989829659461975,0.41565006971359253,0.8078246712684631,-0.22848796844482422,0.9978018403053284,0.47234731912612915,0.6580102443695068,-0.25219908356666565,0.9731140732765198,0.3944774270057678,0.7149929404258728,-0.27571991086006165,0.9993025064468384,0.46405869722366333,0.756189227104187,-0.3158102333545685,0.9750610589981079,0.38099151849746704,0.6958256959915161,-0.30451759696006775,0.9986673593521118,0.4535485804080963,0.7795931100845337,-0.34277763962745667,0.9694759845733643,0.39720040559768677,0.7006762623786926,-0.3238152861595154,0.9987302422523499,0.47124814987182617,0.7889912724494934,-0.342823326587677,0.9681636095046997,0.402110755443573,0.6961867809295654,-0.2816498577594757,0.9977635145187378,0.47277721762657166,0.7819712162017822,-0.31756120920181274,0.960595428943634,0.39108726382255554,0.7072080969810486,0.0018852906068786979,0.9999992847442627,0.4149013161659241,0.6584603190422058,-0.0016941161593422294,0.9999936819076538,0.39120399951934814,0.7419115900993347,0.181922048330307,0.31524214148521423,0.46314898133277893,0.6668221950531006,0.06879982352256775,0.9226589202880859,0.3905129134654999,0.6813991069793701,0.5215848684310913,0.08800084888935089,0.4091995358467102,0.6416022181510925,0.39432981610298157,0.2309645414352417,0.3937308192253113,0.670802116394043,0.5579068064689636,0.18022574484348297,0.4017389714717865,0.6408703923225403,0.43037232756614685,0.4110777974128723,0.38025861978530884,0.667303204536438,0.5444979071617126,0.19540145993232727,0.3908756375312805,0.6237685084342957,0.426707923412323,0.41189509630203247
61
62,0.5426576733589172,0.8254085183143616,-0.3836362063884735,1.0,0.549429714679718,0.8437715172767639,-0.36817413568496704,1.0,0.5463880300521851,0.8519229888916016,-0.3681681752204895,0.9999996423721313,0.5433698892593384,0.8602354526519775,-0.36807066202163696,1.0,0.5571064352989197,0.8234437108039856,-0.36418217420578003,1.0,0.5601943731307983,0.8157948851585388,-0.36415353417396545,0.9999957084655762,0.563167929649353,0.8080366253852844,-0.3640943467617035,1.0,0.5306535959243774,0.8688642382621765,-0.25200337171554565,0.9999986886978149,0.5579508543014526,0.7963045239448547,-0.2299191653728485,0.9999512434005737,0.5217013955116272,0.8312285542488098,-0.3375251591205597,0.9999958276748657,0.5323271751403809,0.803996205329895,-0.330282986164093,0.9999722242355347,0.46019649505615234,0.8751329779624939,-0.16275915503501892,0.999968409538269,0.5209882259368896,0.7357302904129028,-0.17290732264518738,0.9989795088768005,0.3726019561290741,0.8626148700714111,-0.2545098662376404,0.667210578918457,0.4557840824127197,0.6807859539985657,-0.22281518578529358,0.7763899564743042,0.3948139250278473,0.8466364145278931,-0.47725430130958557,0.5069801211357117,0.4117043614387512,0.7513225674629211,-0.37391388416290283,0.5468299984931946,0.39624372124671936,0.8404085636138916,-0.5416545867919922,0.42881283164024353,0.3888101577758789,0.7624818682670593,-0.41348057985305786,0.4148414134979248,0.4112771153450012,0.8454633355140686,-0.5430172085762024,0.46208804845809937,0.400399386882782,0.7821923494338989,-0.4238620698451996,0.43347740173339844,0.40951117873191833,0.8426074981689453,-0.4853735864162445,0.4189265966415405,0.4058028757572174,0.7790433168411255,-0.3799150288105011,0.4829271733760834,0.3582518696784973,0.7595457434654236,-0.010262753814458847,0.9999010562896729,0.39384883642196655,0.681161642074585,0.010907978750765324,0.9996646642684937,0.3776615858078003,0.7551103234291077,-0.29272085428237915,0.40942904353141785,0.4206560254096985,0.6180643439292908,-0.25716888904571533,0.8351409435272217,0.303729772567749,0.6742477416992188,-0.023449482396245003,0.20286758244037628,0.3551204204559326,0.5234254598617554,-0.008340224623680115,0.40149304270744324,0.2910030782222748,0.6590502858161926,-0.0011616639094427228,0.2561330497264862,0.3377608060836792,0.5193015336990356,0.013568389229476452,0.47550511360168457,0.2733004093170166,0.6355252861976624,-0.1112515777349472,0.16000527143478394,0.33254289627075195,0.45989543199539185,-0.08008982241153717,0.3531765341758728
63,0.542402446269989,0.8259938359260559,-0.32542431354522705,1.0,0.5498107671737671,0.8454435467720032,-0.30924826860427856,1.0,0.547014594078064,0.8545277714729309,-0.30924278497695923,0.9999992847442627,0.544226348400116,0.8637644648551941,-0.30912548303604126,1.0,0.5569505095481873,0.8227845430374146,-0.30394527316093445,1.0,0.5597783923149109,0.8144596815109253,-0.3039093613624573,0.9999939203262329,0.5624921917915344,0.8060083985328674,-0.3038525879383087,1.0,0.5304394960403442,0.8752867579460144,-0.1889491230249405,0.9999977350234985,0.5561368465423584,0.7947953939437866,-0.15852966904640198,0.9999239444732666,0.5203859806060791,0.8340746164321899,-0.2783421576023102,0.9999924898147583,0.5299623012542725,0.804205060005188,-0.2686067223548889,0.9999328851699829,0.4583866596221924,0.8792752027511597,-0.10176046192646027,0.9999901056289673,0.515346884727478,0.7377614974975586,-0.10876568406820297,0.9996141195297241,0.3766099512577057,0.8627094030380249,-0.17402280867099762,0.4534827768802643,0.44391775131225586,0.6991461515426636,-0.1517496258020401,0.7807923555374146,0.3880639374256134,0.8359681367874146,-0.38447076082229614,0.2211250513792038,0.41917890310287476,0.7821367383003235,-0.3070400357246399,0.4753400385379791,0.3942442536354065,0.8300074934959412,-0.45106273889541626,0.2162083238363266,0.40291285514831543,0.8010188341140747,-0.3554069399833679,0.3892112672328949,0.4036182463169098,0.8329030275344849,-0.459675133228302,0.24971748888492584,0.41974982619285583,0.8140089511871338,-0.3672170042991638,0.42588528990745544,0.4025149941444397,0.8309711813926697,-0.3967014253139496,0.24578674137592316,0.42270922660827637,0.8080559372901917,-0.3153294622898102,0.46075502038002014,0.3506299555301666,0.7547715306282043,-0.013415944762527943,0.9999703168869019,0.3873392641544342,0.6768292188644409,0.013952630572021008,0.9997772574424744,0.3723907768726349,0.7675105929374695,-0.3491799235343933,0.5244094133377075,0.435581773519516,0.6365588307380676,-0.27439025044441223,0.897901713848114,0.29866915941238403,0.6942842602729797,-0.0873960480093956,0.3566593527793884,0.3667777478694916,0.5570740103721619,-0.03763972222805023,0.3873787224292755,0.286085844039917,0.679362952709198,-0.065330371260643,0.3825485110282898,0.3481496274471283,0.5541589856147766,-0.015907106921076775,0.5702584385871887,0.26510700583457947,0.6620281934738159,-0.18294216692447662,0.2973034381866455,0.3415781557559967,0.5029505491256714,-0.10642661154270172,0.436172217130661
64,0.538190484046936,0.8317831754684448,-0.21265475451946259,1.0,0.545723557472229,0.8496962189674377,-0.19285565614700317,1.0,0.5428032279014587,0.8580148816108704,-0.1928567737340927,0.9999986886978149,0.5399039387702942,0.8665199279785156,-0.19273892045021057,1.0,0.5533243417739868,0.8276578783988953,-0.19433283805847168,1.0,0.5564252734184265,0.819271981716156,-0.19435842335224152,0.9999955892562866,0.5594215393066406,0.8107911348342896,-0.19437620043754578,1.0,0.5272074341773987,0.873421311378479,-0.07246580719947815,0.9999966621398926,0.5549970269203186,0.7951382398605347,-0.07462897151708603,0.9999767541885376,0.5167807936668396,0.8363837599754333,-0.16678301990032196,0.9999926090240479,0.5268567800521851,0.807581901550293,-0.16673369705677032,0.9999737739562988,0.4579966068267822,0.870373010635376,-0.0005823140381835401,0.9999866485595703,0.5167946219444275,0.7282916307449341,-0.04154076427221298,0.9996649026870728,0.373812198638916,0.8491575717926025,-0.06292122602462769,0.5321776866912842,0.454333633184433,0.6687425971031189,-0.08639968931674957,0.9063363671302795,0.39573293924331665,0.8223631978034973,-0.25347813963890076,0.6314748525619507,0.42003917694091797,0.7528257966041565,-0.20047828555107117,0.810395359992981,0.3959922194480896,0.817254900932312,-0.30439406633377075,0.6356832981109619,0.399201899766922,0.7717480063438416,-0.23294110596179962,0.7205845713615417,0.4142366945743561,0.8214830160140991,-0.3037402629852295,0.6706876158714294,0.4148554801940918,0.7915602326393127,-0.23702220618724823,0.7549394369125366,0.41329818964004517,0.8189423084259033,-0.2586301863193512,0.6043156981468201,0.4184510111808777,0.7839936017990112,-0.201508566737175,0.7580105662345886,0.34866267442703247,0.7500810027122498,0.0015140604227781296,0.9999730587005615,0.3851615786552429,0.6652820110321045,-0.0011238384759053588,0.9997708201408386,0.33047324419021606,0.7995401620864868,-0.3150956332683563,0.6515700221061707,0.41617006063461304,0.6271833777427673,-0.3268725275993347,0.9092724919319153,0.25422272086143494,0.7353343963623047,-0.10987548530101776,0.5226951241493225,0.3418051600456238,0.596006453037262,-0.08455422520637512,0.3201630413532257,0.2455856055021286,0.7157798409461975,-0.09247471392154694,0.43577301502227783,0.32733267545700073,0.5976240038871765,-0.060609955340623856,0.5056682229042053,0.21496692299842834,0.7214521765708923,-0.20927563309669495,0.48441916704177856,0.30532166361808777,0.5668099522590637,-0.13788765668869019,0.4402436316013336
65,0.5334270596504211,0.8329334855079651,-0.31947192549705505,1.0,0.5422629117965698,0.8497191071510315,-0.3101364076137543,1.0,0.5398077964782715,0.8580468893051147,-0.3101944327354431,1.0,0.5373610854148865,0.8665369749069214,-0.3101978003978729,1.0,0.5482317209243774,0.8287665843963623,-0.30517640709877014,1.0,0.5507980585098267,0.8204828500747681,-0.3051541745662689,0.9999998807907104,0.5532773733139038,0.8121011257171631,-0.3051277995109558,1.0,0.5252514481544495,0.8739645481109619,-0.21554842591285706,1.0,0.5477253794670105,0.7989828586578369,-0.1893797367811203,0.9999992847442627,0.5126708149909973,0.8389936685562134,-0.28253963589668274,0.9999998807907104,0.5211560130119324,0.8105075359344482,-0.2732788026332855,0.9999984502792358,0.44325047731399536,0.8793143033981323,-0.06044536083936691,0.999993085861206,0.5063912272453308,0.735390841960907,-0.11506440490484238,0.9996639490127563,0.3459770977497101,0.8701231479644775,-0.18750669062137604,0.9956728219985962,0.44476836919784546,0.6637617349624634,-0.1215941309928894,0.9455891847610474,0.3693271577358246,0.8400657176971436,-0.3489440083503723,0.9790911078453064,0.42072993516921997,0.7167622447013855,-0.2954212427139282,0.9157401919364929,0.37096142768859863,0.8267624378204346,-0.4060969948768616,0.9607668519020081,0.3995055556297302,0.7261875867843628,-0.3384285569190979,0.9042493104934692,0.39081835746765137,0.8332148194313049,-0.4106047749519348,0.9646235108375549,0.4172004163265228,0.7446505427360535,-0.3520895540714264,0.9098151922225952,0.3899300694465637,0.8321859836578369,-0.35605400800704956,0.9595944881439209,0.4188973903656006,0.7452611327171326,-0.30447134375572205,0.9158505797386169,0.32988694310188293,0.7461893558502197,-0.03164951875805855,0.9999970197677612,0.369736909866333,0.6710843443870544,0.03211995214223862,0.9999896287918091,0.3166860044002533,0.7159721255302429,-0.12337561696767807,0.9825102686882019,0.39051392674446106,0.5886146426200867,-0.043918389827013016,0.9666458964347839,0.26248183846473694,0.7116498351097107,0.19491687417030334,0.7981046438217163,0.34401971101760864,0.5471002459526062,0.29027774930000305,0.649544894695282,0.25537192821502686,0.7017384171485901,0.22686512768268585,0.7517673969268799,0.3307304382324219,0.560429036617279,0.32436785101890564,0.7701563239097595,0.23288962244987488,0.674278974533081,0.1918550431728363,0.7286537885665894,0.32423195242881775,0.5167099237442017,0.29949063062667847,0.7053644061088562
66,0.510735034942627,0.8071454763412476,-0.39820438623428345,1.0,0.5208938121795654,0.8290322422981262,-0.3969639539718628,1.0,0.5178830623626709,0.8374324440956116,-0.39692914485931396,0.9999998807907104,0.5148707628250122,0.8459653258323669,-0.39692139625549316,1.0,0.528810977935791,0.8095349669456482,-0.390270859003067,1.0,0.5323886275291443,0.8022573590278625,-0.3902393579483032,0.9999992847442627,0.5358493328094482,0.7948725819587708,-0.3901691436767578,1.0,0.5061208605766296,0.8568978905677795,-0.31175047159194946,0.9999998807907104,0.5352998375892639,0.7872090935707092,-0.2785569429397583,0.9999985694885254,0.49213939905166626,0.8143455386161804,-0.359825998544693,0.9999997615814209,0.5031617283821106,0.7876936197280884,-0.34890398383140564,0.9999973773956299,0.44113054871559143,0.8709243535995483,-0.22211501002311707,0.9999988079071045,0.5034765005111694,0.7178949117660522,-0.21541504561901093,0.9998928308486938,0.34400755167007446,0.8905054926872253,-0.22084465622901917,0.8730735182762146,0.42485809326171875,0.6537116765975952,-0.21282322704792023,0.8453239798545837,0.3097791075706482,0.8502224683761597,-0.3176136910915375,0.4399784505367279,0.39450058341026306,0.7602613568305969,-0.30384010076522827,0.7602406144142151,0.291002094745636,0.839258074760437,-0.3501148521900177,0.36960962414741516,0.3739260733127594,0.7882254123687744,-0.33775895833969116,0.7290241718292236,0.3098803162574768,0.8366513848304749,-0.36836540699005127,0.4544382393360138,0.393966943025589,0.7994319200515747,-0.3416423201560974,0.7428314685821533,0.31589359045028687,0.836774468421936,-0.32756826281547546,0.45394372940063477,0.3976218104362488,0.7922593951225281,-0.30770841240882874,0.7213516235351562,0.32536911964416504,0.7292217016220093,-0.020912323147058487,0.9999935626983643,0.36264505982398987,0.6516523361206055,0.021396454423666,0.9999756813049316,0.3237963020801544,0.7293696999549866,-0.14655259251594543,0.565368115901947,0.38803568482398987,0.6140576004981995,-0.10055097192525864,0.8949598073959351,0.2836912274360657,0.7088391780853271,0.1499844491481781,0.1503676027059555,0.32715925574302673,0.607295572757721,0.1892770230770111,0.17574195563793182,0.2791738510131836,0.7069161534309387,0.18256951868534088,0.3029157519340515,0.31696316599845886,0.6135650873184204,0.22132501006126404,0.36366593837738037,0.2520540952682495,0.687230110168457,0.16904810070991516,0.14994508028030396,0.3081910312175751,0.5800837278366089,0.21398332715034485,0.1980896294116974
67,0.5181300640106201,0.8110837936401367,-0.6361764669418335,1.0,0.5264263153076172,0.8327259421348572,-0.6440318822860718,1.0,0.5230052471160889,0.8401852250099182,-0.6440212726593018,1.0,0.5195819735527039,0.8477487564086914,-0.6440286636352539,1.0,0.5354211926460266,0.8162384629249573,-0.6316515803337097,1.0,0.5394570827484131,0.810217559337616,-0.631589949131012,1.0,0.54334956407547,0.8040381669998169,-0.6315523386001587,1.0,0.5118592381477356,0.8598899245262146,-0.5636084675788879,1.0,0.5446352362632751,0.8001734018325806,-0.5032029151916504,1.0,0.5012656450271606,0.8169201612472534,-0.5960074663162231,0.9999998807907104,0.5137816071510315,0.7944687008857727,-0.5775820016860962,0.9999996423721313,0.4456271529197693,0.8735538125038147,-0.44824156165122986,0.9999842643737793,0.5185588002204895,0.7398683428764343,-0.3582785427570343,0.9993651509284973,0.3467310965061188,0.8751736283302307,-0.4050547480583191,0.9982775449752808,0.45320242643356323,0.6747692227363586,-0.21623344719409943,0.9807867407798767,0.3461132049560547,0.8348314762115479,-0.4082636833190918,0.9831727743148804,0.4043128490447998,0.7359727025032043,-0.1947033554315567,0.9008627533912659,0.34202873706817627,0.8192611336708069,-0.4508230686187744,0.9677426218986511,0.38252267241477966,0.7510415315628052,-0.20339946448802948,0.8615847826004028,0.3581499755382538,0.8247555494308472,-0.4595211446285248,0.9687410593032837,0.3952903747558594,0.7682453393936157,-0.21255365014076233,0.8534442186355591,0.35837289690971375,0.8277003765106201,-0.4171788692474365,0.9561896920204163,0.4016377031803131,0.7631111145019531,-0.19619466364383698,0.844248354434967,0.3317181468009949,0.7435239553451538,-0.034662120044231415,0.9999964237213135,0.3764808773994446,0.6773809790611267,0.035175871104002,0.9999923706054688,0.3139854669570923,0.6800612807273865,0.06479302793741226,0.9945154786109924,0.3701208233833313,0.6027241349220276,0.16707997024059296,0.9959940910339355,0.283924400806427,0.7010303139686584,0.4679749011993408,0.6559695601463318,0.3248036801815033,0.5563442707061768,0.5695956945419312,0.7107772827148438,0.28321409225463867,0.6580254435539246,0.511317253112793,0.5962138175964355,0.3160697817802429,0.5595995187759399,0.6105269193649292,0.706250786781311,0.2562478184700012,0.624951958656311,0.49940434098243713,0.700366735458374,0.29959696531295776,0.5043573975563049,0.5936771035194397,0.7599376440048218
68,0.5268598794937134,0.8167635798454285,-0.6485167741775513,1.0,0.5323563814163208,0.8385646939277649,-0.6553316116333008,1.0,0.5283688306808472,0.8450575470924377,-0.6551686525344849,1.0,0.5244101285934448,0.8516506552696228,-0.6550740003585815,1.0,0.5428224802017212,0.8241791129112244,-0.6449970006942749,1.0,0.5474962592124939,0.8187123537063599,-0.6449356079101562,1.0,0.5519899725914001,0.813077986240387,-0.6448612213134766,1.0,0.516012966632843,0.8587275147438049,-0.5694119930267334,1.0,0.5544956922531128,0.8058221936225891,-0.51921546459198,1.0,0.5092922449111938,0.8163865208625793,-0.6054686307907104,0.9999998807907104,0.5238842368125916,0.7970183491706848,-0.5903305411338806,0.9999997615814209,0.4669046998023987,0.8528128266334534,-0.41697126626968384,0.9999717473983765,0.5212920308113098,0.7367668151855469,-0.36917024850845337,0.9997979998588562,0.3943327069282532,0.8474063277244568,-0.2942997217178345,0.9884301424026489,0.4529822766780853,0.6673036217689514,-0.21297773718833923,0.9959681034088135,0.37616267800331116,0.8223550319671631,-0.10824749618768692,0.9055156111717224,0.4126713275909424,0.7450118660926819,-0.14088459312915802,0.9755355715751648,0.36750245094299316,0.8121289014816284,-0.1137787252664566,0.8515853881835938,0.3931073248386383,0.7632505297660828,-0.14852586388587952,0.9575663805007935,0.3787793815135956,0.8177473545074463,-0.1309732347726822,0.8567046523094177,0.4056011736392975,0.7745290398597717,-0.1556609869003296,0.9509138464927673,0.3827607333660126,0.8193997740745544,-0.11132242530584335,0.8554174304008484,0.41289424896240234,0.7711004614830017,-0.1416231095790863,0.9508406519889832,0.3622947931289673,0.7226494550704956,-0.03100862167775631,0.999984860420227,0.39671260118484497,0.6667280197143555,0.03169172257184982,0.9999762773513794,0.3443089723587036,0.6037304997444153,0.05082011967897415,0.997192919254303,0.39498189091682434,0.5753255486488342,0.13149194419384003,0.9996422529220581,0.3341534733772278,0.5537136197090149,0.47146639227867126,0.944554328918457,0.3570542633533478,0.51516193151474,0.5314751863479614,0.9866255521774292,0.334134042263031,0.5473701357841492,0.5169754028320312,0.9184312224388123,0.34908586740493774,0.5139029622077942,0.5726308226585388,0.9768384695053101,0.3102986216545105,0.4991648495197296,0.5032334327697754,0.9218548536300659,0.32804185152053833,0.4591183364391327,0.5508116483688354,0.980250358581543
69
70
71
72,0.4091387689113617,0.31240421533584595,-0.1292775422334671,1.0,0.40877389907836914,0.2871665954589844,-0.13764090836048126,1.0,0.4128568768501282,0.28458112478256226,-0.1377532035112381,0.9999916553497314,0.41703683137893677,0.2818182110786438,-0.1379494071006775,1.0,0.39918071031570435,0.29222381114959717,-0.12254025042057037,1.0,0.39500969648361206,0.29381123185157776,-0.12268136441707611,0.9999939203262329,0.3909569978713989,0.29549476504325867,-0.12276013195514679,1.0,0.426436185836792,0.28269702196121216,-0.11022813618183136,0.9999939203262329,0.38916563987731934,0.30302828550338745,-0.040001336485147476,0.9999923706054688,0.42227500677108765,0.3280576765537262,-0.11472676694393158,0.999916672706604,0.40846771001815796,0.3350624442100525,-0.09504196047782898,0.9998912811279297,0.5009691119194031,0.34021636843681335,-0.12593974173069,0.9996992349624634,0.3975829482078552,0.42220163345336914,0.014321002177894115,0.999225378036499,0.5953265428543091,0.367765337228775,-0.144473135471344,0.5591861605644226,0.4276157319545746,0.5449492335319519,0.016941312700510025,0.4370313882827759,0.6125702857971191,0.3437674641609192,-0.2273235321044922,0.2113470882177353,0.4599460959434509,0.6047395467758179,-0.09380379319190979,0.3155871629714966,0.6196228861808777,0.332212895154953,-0.2666318714618683,0.19026567041873932,0.46675339341163635,0.6312604546546936,-0.12608197331428528,0.3255154490470886,0.6036198139190674,0.3287530243396759,-0.27889636158943176,0.21772274374961853,0.4721290171146393,0.6157267689704895,-0.15303722023963928,0.3497280478477478,0.597903311252594,0.339941143989563,-0.23708267509937286,0.23375123739242554,0.4746294617652893,0.6038137674331665,-0.107649065554142,0.35113877058029175,0.6001834869384766,0.6679395437240601,-0.08005572855472565,0.9958178400993347,0.5362027883529663,0.6879687905311584,0.08102386444807053,0.9972949624061584,0.513321042060852,0.8026025295257568,-0.11335475742816925,0.7390949130058289,0.4380517899990082,0.7808900475502014,0.1248389258980751,0.4826204776763916,0.47953900694847107,0.899974524974823,0.09232283383607864,0.23844429850578308,0.4687613844871521,0.8654919266700745,0.26164010167121887,0.20772868394851685,0.48675990104675293,0.9100768566131592,0.11691053211688995,0.3238011300563812,0.484342485666275,0.8780809640884399,0.27268174290657043,0.377021849155426,0.43428125977516174,0.9477462768554688,0.09771728515625,0.15746870636940002,0.4453963339328766,0.9127843379974365,0.23744788765907288,0.1934048980474472
73
74
75
76
77
78,0.41025200486183167,0.24063627421855927,-0.06721371412277222,1.0,0.4090596139431,0.224137082695961,-0.057098500430583954,1.0,0.4134257435798645,0.22055569291114807,-0.05709432438015938,0.9968100190162659,0.4177824854850769,0.21678391098976135,-0.05708659440279007,1.0,0.397527813911438,0.2340676635503769,-0.05477458983659744,1.0,0.3928017020225525,0.23834019899368286,-0.054802168160676956,0.9990366697311401,0.38816720247268677,0.2427295297384262,-0.05505858734250069,1.0,0.4235970377922058,0.22209390997886658,0.00714282039552927,0.9964807629585266,0.3839993178844452,0.2574598491191864,0.01595836877822876,0.9991335272789001,0.42372018098831177,0.2510761022567749,-0.043304216116666794,0.9968420267105103,0.4080500602722168,0.2644309997558594,-0.04070192947983742,0.9971730709075928,0.47664737701416016,0.24566850066184998,0.0002741747593972832,0.9969593286514282,0.3923729658126831,0.36290422081947327,0.03505626693367958,0.9984912872314453,0.5301105380058289,0.26954174041748047,-0.02367115207016468,0.3738566040992737,0.3934862017631531,0.4456406831741333,0.00817245151847601,0.5418962240219116,0.49436259269714355,0.2562871277332306,-0.10696586221456528,0.5570407509803772,0.3514585494995117,0.3882497251033783,0.022143349051475525,0.4973081052303314,0.4869743287563324,0.2567967176437378,-0.1380087286233902,0.5712890028953552,0.3395959734916687,0.369003564119339,0.011291158385574818,0.4716401696205139,0.475835382938385,0.2514561712741852,-0.13482151925563812,0.5971883535385132,0.3345509171485901,0.36238110065460205,0.014871085062623024,0.4806937575340271,0.477922260761261,0.2577696442604065,-0.10983971506357193,0.5892928242683411,0.3438047766685486,0.3651546835899353,0.021537737920880318,0.5415348410606384,0.6063093543052673,0.4163444936275482,-0.022434981539845467,0.9984448552131653,0.5643667578697205,0.4897209405899048,0.02303147315979004,0.9977918863296509,0.6622598171234131,0.5011789798736572,-0.09493488073348999,0.9402351975440979,0.6165326833724976,0.5809162259101868,-0.003303617238998413,0.6014614701271057,0.726833701133728,0.5863617062568665,-0.007115236483514309,0.6973794102668762,0.695074737071991,0.6283349394798279,0.14906318485736847,0.3146694004535675,0.7347059845924377,0.5953245759010315,0.000353313225787133,0.6041309833526611,0.7098053693771362,0.6264517903327942,0.16161812841892242,0.3164215385913849,0.7609893679618835,0.6551302671432495,-0.062021899968385696,0.7277117967605591,0.7312808036804199,0.6828898191452026,0.11720173060894012,0.31140854954719543
79
80
81
82
83
84
85
86
87
88
89
90
91
92
93
94
95
96
97
98
99
100
101
102
103
104
105
