frame,NOSE.x,NOSE.y,NOSE.z,NOSE.v,LEFT_EYE_INNER.x,LEFT_EYE_INNER.y,LEFT_EYE_INNER.z,LEFT_EYE_INNER.v,LEFT_EYE.x,LEFT_EYE.y,LEFT_EYE.z,LEFT_EYE.v,LEFT_EYE_OUTER.x,LEFT_EYE_OUTER.y,LEFT_EYE_OUTER.z,LEFT_EYE_OUTER.v,RIGHT_EYE_INNER.x,RIGHT_EYE_INNER.y,RIGHT_EYE_INNER.z,RIGHT_EYE_INNER.v,RIGHT_EYE.x,RIGHT_EYE.y,RIGHT_EYE.z,RIGHT_EYE.v,RIGHT_EYE_OUTER.x,RIGHT_EYE_OUTER.y,RIGHT_EYE_OUTER.z,RIGHT_EYE_OUTER.v,LEFT_EAR.x,LEFT_EAR.y,LEFT_EAR.z,LEFT_EAR.v,RIGHT_EAR.x,RIGHT_EAR.y,RIGHT_EAR.z,RIGHT_EAR.v,MOUTH_LEFT.x,MOUTH_LEFT.y,MOUTH_LEFT.z,MOUTH_LEFT.v,MOUTH_RIGHT.x,MOUTH_RIGHT.y,MOUTH_RIGHT.z,MOUTH_RIGHT.v,LEFT_SHOULDER.x,LEFT_SHOULDER.y,LEFT_SHOULDER.z,LEFT_SHOULDER.v,RIGHT_SHOULDER.x,RIGHT_SHOULDER.y,RIGHT_SHOULDER.z,RIGHT_SHOULDER.v,LEFT_ELBOW.x,LEFT_ELBOW.y,LEFT_ELBOW.z,LEFT_ELBOW.v,RIGHT_ELBOW.x,RIGHT_ELBOW.y,RIGHT_ELBOW.z,RIGHT_ELBOW.v,LEFT_WRIST.x,LEFT_WRIST.y,LEFT_WRIST.z,LEFT_WRIST.v,RIGHT_WRIST.x,RIGHT_WRIST.y,RIGHT_WRIST.z,RIGHT_WRIST.v,LEFT_PINKY.x,LEFT_PINKY.y,LEFT_PINKY.z,LEFT_PINKY.v,RIGHT_PINKY.x,RIGHT_PINKY.y,RIGHT_PINKY.z,RIGHT_PINKY.v,LEFT_INDEX.x,LEFT_INDEX.y,LEFT_INDEX.z,LEFT_INDEX.v,RIGHT_INDEX.x,RIGHT_INDEX.y,RIGHT_INDEX.z,RIGHT_INDEX.v,LEFT_THUMB.x,LEFT_THUMB.y,LEFT_THUMB.z,LEFT_THUMB.v,RIGHT_THUMB.x,RIGHT_THUMB.y,RIGHT_THUMB.z,RIGHT_THUMB.v,LEFT_HIP.x,LEFT_HIP.y,LEFT_HIP.z,LEFT_HIP.v,RIGHT_HIP.x,RIGHT_HIP.y,RIGHT_HIP.z,RIGHT_HIP.v,LEFT_KNEE.x,LEFT_KNEE.y,LEFT_KNEE.z,LEFT_KNEE.v,RIGHT_KNEE.x,RIGHT_KNEE.y,RIGHT_KNEE.z,RIGHT_KNEE.v,LEFT_ANKLE.x,LEFT_ANKLE.y,LEFT_ANKLE.z,LEFT_ANKLE.v,RIGHT_ANKLE.x,RIGHT_ANKLE.y,RIGHT_ANKLE.z,RIGHT_ANKLE.v,LEFT_HEEL.x,LEFT_HEEL.y,LEFT_HEEL.z,LEFT_HEEL.v,RIGHT_HEEL.x,RIGHT_HEEL.y,RIGHT_HEEL.z,RIGHT_HEEL.v,LEFT_FOOT_INDEX.x,LEFT_FOOT_INDEX.y,LEFT_FOOT_INDEX.z,LEFT_FOOT_INDEX.v,RIGHT_FOOT_INDEX.x,RIGHT_FOOT_INDEX.y,RIGHT_FOOT_INDEX.z,RIGHT_FOOT_INDEX.v
0,,,,,,,,,,,,,,,,,,,,,,,,,,,,,,,,,,,,,,,,,,,,,,,,,,,,,,,,,,,,,,,,,,,,,,,,,,,,,,,,,,,,,,,,,,,,,,,,,,,,,,,,,,,,,,,,,,,,,,,,,,,,,,,,,,,,
1,,,,,,,,,,,,,,,,,,,,,,,,,,,,,,,,,,,,,,,,,,,,,,,,,,,,,,,,,,,,,,,,,,,,,,,,,,,,,,,,,,,,,,,,,,,,,,,,,,,,,,,,,,,,,,,,,,,,,,,,,,,,,,,,,,,,
2,,,,,,,,,,,,,,,,,,,,,,,,,,,,,,,,,,,,,,,,,,,,,,,,,,,,,,,,,,,,,,,,,,,,,,,,,,,,,,,,,,,,,,,,,,,,,,,,,,,,,,,,,,,,,,,,,,,,,,,,,,,,,,,,,,,,
3,,,,,,,,,,,,,,,,,,,,,,,,,,,,,,,,,,,,,,,,,,,,,,,,,,,,,,,,,,,,,,,,,,,,,,,,,,,,,,,,,,,,,,,,,,,,,,,,,,,,,,,,,,,,,,,,,,,,,,,,,,,,,,,,,,,,
4,,,,,,,,,,,,,,,,,,,,,,,,,,,,,,,,,,,,,,,,,,,,,,,,,,,,,,,,,,,,,,,,,,,,,,,,,,,,,,,,,,,,,,,,,,,,,,,,,,,,,,,,,,,,,,,,,,,,,,,,,,,,,,,,,,,,
5,,,,,,,,,,,,,,,,,,,,,,,,,,,,,,,,,,,,,,,,,,,,,,,,,,,,,,,,,,,,,,,,,,,,,,,,,,,,,,,,,,,,,,,,,,,,,,,,,,,,,,,,,,,,,,,,,,,,,,,,,,,,,,,,,,,,
6,,,,,,,,,,,,,,,,,,,,,,,,,,,,,,,,,,,,,,,,,,,,,,,,,,,,,,,,,,,,,,,,,,,,,,,,,,,,,,,,,,,,,,,,,,,,,,,,,,,,,,,,,,,,,,,,,,,,,,,,,,,,,,,,,,,,
7,,,,,,,,,,,,,,,,,,,,,,,,,,,,,,,,,,,,,,,,,,,,,,,,,,,,,,,,,,,,,,,,,,,,,,,,,,,,,,,,,,,,,,,,,,,,,,,,,,,,,,,,,,,,,,,,,,,,,,,,,,,,,,,,,,,,
8,,,,,,,,,,,,,,,,,,,,,,,,,,,,,,,,,,,,,,,,,,,,,,,,,,,,,,,,,,,,,,,,,,,,,,,,,,,,,,,,,,,,,,,,,,,,,,,,,,,,,,,,,,,,,,,,,,,,,,,,,,,,,,,,,,,,
9,,,,,,,,,,,,,,,,,,,,,,,,,,,,,,,,,,,,,,,,,,,,,,,,,,,,,,,,,,,,,,,,,,,,,,,,,,,,,,,,,,,,,,,,,,,,,,,,,,,,,,,,,,,,,,,,,,,,,,,,,,,,,,,,,,,,
10,,,,,,,,,,,,,,,,,,,,,,,,,,,,,,,,,,,,,,,,,,,,,,,,,,,,,,,,,,,,,,,,,,,,,,,,,,,,,,,,,,,,,,,,,,,,,,,,,,,,,,,,,,,,,,,,,,,,,,,,,,,,,,,,,,,,
11,,,,,,,,,,,,,,,,,,,,,,,,,,,,,,,,,,,,,,,,,,,,,,,,,,,,,,,,,,,,,,,,,,,,,,,,,,,,,,,,,,,,,,,,,,,,,,,,,,,,,,,,,,,,,,,,,,,,,,,,,,,,,,,,,,,,
12,,,,,,,,,,,,,,,,,,,,,,,,,,,,,,,,,,,,,,,,,,,,,,,,,,,,,,,,,,,,,,,,,,,,,,,,,,,,,,,,,,,,,,,,,,,,,,,,,,,,,,,,,,,,,,,,,,,,,,,,,,,,,,,,,,,,
13,,,,,,,,,,,,,,,,,,,,,,,,,,,,,,,,,,,,,,,,,,,,,,,,,,,,,,,,,,,,,,,,,,,,,,,,,,,,,,,,,,,,,,,,,,,,,,,,,,,,,,,,,,,,,,,,,,,,,,,,,,,,,,,,,,,,
14,,,,,,,,,,,,,,,,,,,,,,,,,,,,,,,,,,,,,,,,,,,,,,,,,,,,,,,,,,,,,,,,,,,,,,,,,,,,,,,,,,,,,,,,,,,,,,,,,,,,,,,,,,,,,,,,,,,,,,,,,,,,,,,,,,,,
15,,,,,,,,,,,,,,,,,,,,,,,,,,,,,,,,,,,,,,,,,,,,,,,,,,,,,,,,,,,,,,,,,,,,,,,,,,,,,,,,,,,,,,,,,,,,,,,,,,,,,,,,,,,,,,,,,,,,,,,,,,,,,,,,,,,,
16,,,,,,,,,,,,,,,,,,,,,,,,,,,,,,,,,,,,,,,,,,,,,,,,,,,,,,,,,,,,,,,,,,,,,,,,,,,,,,,,,,,,,,,,,,,,,,,,,,,,,,,,,,,,,,,,,,,,,,,,,,,,,,,,,,,,
17,,,,,,,,,,,,,,,,,,,,,,,,,,,,,,,,,,,,,,,,,,,,,,,,,,,,,,,,,,,,,,,,,,,,,,,,,,,,,,,,,,,,,,,,,,,,,,,,,,,,,,,,,,,,,,,,,,,,,,,,,,,,,,,,,,,,
18,,,,,,,,,,,,,,,,,,,,,,,,,,,,,,,,,,,,,,,,,,,,,,,,,,,,,,,,,,,,,,,,,,,,,,,,,,,,,,,,,,,,,,,,,,,,,,,,,,,,,,,,,,,,,,,,,,,,,,,,,,,,,,,,,,,,
19,,,,,,,,,,,,,,,,,,,,,,,,,,,,,,,,,,,,,,,,,,,,,,,,,,,,,,,,,,,,,,,,,,,,,,,,,,,,,,,,,,,,,,,,,,,,,,,,,,,,,,,,,,,,,,,,,,,,,,,,,,,,,,,,,,,,
20,,,,,,,,,,,,,,,,,,,,,,,,,,,,,,,,,,,,,,,,,,,,,,,,,,,,,,,,,,,,,,,,,,,,,,,,,,,,,,,,,,,,,,,,,,,,,,,,,,,,,,,,,,,,,,,,,,,,,,,,,,,,,,,,,,,,
21,,,,,,,,,,,,,,,,,,,,,,,,,,,,,,,,,,,,,,,,,,,,,,,,,,,,,,,,,,,,,,,,,,,,,,,,,,,,,,,,,,,,,,,,,,,,,,,,,,,,,,,,,,,,,,,,,,,,,,,,,,,,,,,,,,,,
22,,,,,,,,,,,,,,,,,,,,,,,,,,,,,,,,,,,,,,,,,,,,,,,,,,,,,,,,,,,,,,,,,,,,,,,,,,,,,,,,,,,,,,,,,,,,,,,,,,,,,,,,,,,,,,,,,,,,,,,,,,,,,,,,,,,,
23,,,,,,,,,,,,,,,,,,,,,,,,,,,,,,,,,,,,,,,,,,,,,,,,,,,,,,,,,,,,,,,,,,,,,,,,,,,,,,,,,,,,,,,,,,,,,,,,,,,,,,,,,,,,,,,,,,,,,,,,,,,,,,,,,,,,
24,,,,,,,,,,,,,,,,,,,,,,,,,,,,,,,,,,,,,,,,,,,,,,,,,,,,,,,,,,,,,,,,,,,,,,,,,,,,,,,,,,,,,,,,,,,,,,,,,,,,,,,,,,,,,,,,,,,,,,,,,,,,,,,,,,,,
25,,,,,,,,,,,,,,,,,,,,,,,,,,,,,,,,,,,,,,,,,,,,,,,,,,,,,,,,,,,,,,,,,,,,,,,,,,,,,,,,,,,,,,,,,,,,,,,,,,,,,,,,,,,,,,,,,,,,,,,,,,,,,,,,,,,,
26,,,,,,,,,,,,,,,,,,,,,,,,,,,,,,,,,,,,,,,,,,,,,,,,,,,,,,,,,,,,,,,,,,,,,,,,,,,,,,,,,,,,,,,,,,,,,,,,,,,,,,,,,,,,,,,,,,,,,,,,,,,,,,,,,,,,
27,,,,,,,,,,,,,,,,,,,,,,,,,,,,,,,,,,,,,,,,,,,,,,,,,,,,,,,,,,,,,,,,,,,,,,,,,,,,,,,,,,,,,,,,,,,,,,,,,,,,,,,,,,,,,,,,,,,,,,,,,,,,,,,,,,,,
28,,,,,,,,,,,,,,,,,,,,,,,,,,,,,,,,,,,,,,,,,,,,,,,,,,,,,,,,,,,,,,,,,,,,,,,,,,,,,,,,,,,,,,,,,,,,,,,,,,,,,,,,,,,,,,,,,,,,,,,,,,,,,,,,,,,,
29,,,,,,,,,,,,,,,,,,,,,,,,,,,,,,,,,,,,,,,,,,,,,,,,,,,,,,,,,,,,,,,,,,,,,,,,,,,,,,,,,,,,,,,,,,,,,,,,,,,,,,,,,,,,,,,,,,,,,,,,,,,,,,,,,,,,
30,,,,,,,,,,,,,,,,,,,,,,,,,,,,,,,,,,,,,,,,,,,,,,,,,,,,,,,,,,,,,,,,,,,,,,,,,,,,,,,,,,,,,,,,,,,,,,,,,,,,,,,,,,,,,,,,,,,,,,,,,,,,,,,,,,,,
31,,,,,,,,,,,,,,,,,,,,,,,,,,,,,,,,,,,,,,,,,,,,,,,,,,,,,,,,,,,,,,,,,,,,,,,,,,,,,,,,,,,,,,,,,,,,,,,,,,,,,,,,,,,,,,,,,,,,,,,,,,,,,,,,,,,,
32,,,,,,,,,,,,,,,,,,,,,,,,,,,,,,,,,,,,,,,,,,,,,,,,,,,,,,,,,,,,,,,,,,,,,,,,,,,,,,,,,,,,,,,,,,,,,,,,,,,,,,,,,,,,,,,,,,,,,,,,,,,,,,,,,,,,
33,,,,,,,,,,,,,,,,,,,,,,,,,,,,,,,,,,,,,,,,,,,,,,,,,,,,,,,,,,,,,,,,,,,,,,,,,,,,,,,,,,,,,,,,,,,,,,,,,,,,,,,,,,,,,,,,,,,,,,,,,,,,,,,,,,,,
34,,,,,,,,,,,,,,,,,,,,,,,,,,,,,,,,,,,,,,,,,,,,,,,,,,,,,,,,,,,,,,,,,,,,,,,,,,,,,,,,,,,,,,,,,,,,,,,,,,,,,,,,,,,,,,,,,,,,,,,,,,,,,,,,,,,,
35,,,,,,,,,,,,,,,,,,,,,,,,,,,,,,,,,,,,,,,,,,,,,,,,,,,,,,,,,,,,,,,,,,,,,,,,,,,,,,,,,,,,,,,,,,,,,,,,,,,,,,,,,,,,,,,,,,,,,,,,,,,,,,,,,,,,
36,,,,,,,,,,,,,,,,,,,,,,,,,,,,,,,,,,,,,,,,,,,,,,,,,,,,,,,,,,,,,,,,,,,,,,,,,,,,,,,,,,,,,,,,,,,,,,,,,,,,,,,,,,,,,,,,,,,,,,,,,,,,,,,,,,,,
37,,,,,,,,,,,,,,,,,,,,,,,,,,,,,,,,,,,,,,,,,,,,,,,,,,,,,,,,,,,,,,,,,,,,,,,,,,,,,,,,,,,,,,,,,,,,,,,,,,,,,,,,,,,,,,,,,,,,,,,,,,,,,,,,,,,,
38,,,,,,,,,,,,,,,,,,,,,,,,,,,,,,,,,,,,,,,,,,,,,,,,,,,,,,,,,,,,,,,,,,,,,,,,,,,,,,,,,,,,,,,,,,,,,,,,,,,,,,,,,,,,,,,,,,,,,,,,,,,,,,,,,,,,
39,,,,,,,,,,,,,,,,,,,,,,,,,,,,,,,,,,,,,,,,,,,,,,,,,,,,,,,,,,,,,,,,,,,,,,,,,,,,,,,,,,,,,,,,,,,,,,,,,,,,,,,,,,,,,,,,,,,,,,,,,,,,,,,,,,,,
40,,,,,,,,,,,,,,,,,,,,,,,,,,,,,,,,,,,,,,,,,,,,,,,,,,,,,,,,,,,,,,,,,,,,,,,,,,,,,,,,,,,,,,,,,,,,,,,,,,,,,,,,,,,,,,,,,,,,,,,,,,,,,,,,,,,,
41,,,,,,,,,,,,,,,,,,,,,,,,,,,,,,,,,,,,,,,,,,,,,,,,,,,,,,,,,,,,,,,,,,,,,,,,,,,,,,,,,,,,,,,,,,,,,,,,,,,,,,,,,,,,,,,,,,,,,,,,,,,,,,,,,,,,
42,,,,,,,,,,,,,,,,,,,,,,,,,,,,,,,,,,,,,,,,,,,,,,,,,,,,,,,,,,,,,,,,,,,,,,,,,,,,,,,,,,,,,,,,,,,,,,,,,,,,,,,,,,,,,,,,,,,,,,,,,,,,,,,,,,,,
43,,,,,,,,,,,,,,,,,,,,,,,,,,,,,,,,,,,,,,,,,,,,,,,,,,,,,,,,,,,,,,,,,,,,,,,,,,,,,,,,,,,,,,,,,,,,,,,,,,,,,,,,,,,,,,,,,,,,,,,,,,,,,,,,,,,,
44,,,,,,,,,,,,,,,,,,,,,,,,,,,,,,,,,,,,,,,,,,,,,,,,,,,,,,,,,,,,,,,,,,,,,,,,,,,,,,,,,,,,,,,,,,,,,,,,,,,,,,,,,,,,,,,,,,,,,,,,,,,,,,,,,,,,
45,,,,,,,,,,,,,,,,,,,,,,,,,,,,,,,,,,,,,,,,,,,,,,,,,,,,,,,,,,,,,,,,,,,,,,,,,,,,,,,,,,,,,,,,,,,,,,,,,,,,,,,,,,,,,,,,,,,,,,,,,,,,,,,,,,,,
46,,,,,,,,,,,,,,,,,,,,,,,,,,,,,,,,,,,,,,,,,,,,,,,,,,,,,,,,,,,,,,,,,,,,,,,,,,,,,,,,,,,,,,,,,,,,,,,,,,,,,,,,,,,,,,,,,,,,,,,,,,,,,,,,,,,,
47,,,,,,,,,,,,,,,,,,,,,,,,,,,,,,,,,,,,,,,,,,,,,,,,,,,,,,,,,,,,,,,,,,,,,,,,,,,,,,,,,,,,,,,,,,,,,,,,,,,,,,,,,,,,,,,,,,,,,,,,,,,,,,,,,,,,
48,,,,,,,,,,,,,,,,,,,,,,,,,,,,,,,,,,,,,,,,,,,,,,,,,,,,,,,,,,,,,,,,,,,,,,,,,,,,,,,,,,,,,,,,,,,,,,,,,,,,,,,,,,,,,,,,,,,,,,,,,,,,,,,,,,,,
49,,,,,,,,,,,,,,,,,,,,,,,,,,,,,,,,,,,,,,,,,,,,,,,,,,,,,,,,,,,,,,,,,,,,,,,,,,,,,,,,,,,,,,,,,,,,,,,,,,,,,,,,,,,,,,,,,,,,,,,,,,,,,,,,,,,,
50,,,,,,,,,,,,,,,,,,,,,,,,,,,,,,,,,,,,,,,,,,,,,,,,,,,,,,,,,,,,,,,,,,,,,,,,,,,,,,,,,,,,,,,,,,,,,,,,,,,,,,,,,,,,,,,,,,,,,,,,,,,,,,,,,,,,
51,,,,,,,,,,,,,,,,,,,,,,,,,,,,,,,,,,,,,,,,,,,,,,,,,,,,,,,,,,,,,,,,,,,,,,,,,,,,,,,,,,,,,,,,,,,,,,,,,,,,,,,,,,,,,,,,,,,,,,,,,,,,,,,,,,,,
52,,,,,,,,,,,,,,,,,,,,,,,,,,,,,,,,,,,,,,,,,,,,,,,,,,,,,,,,,,,,,,,,,,,,,,,,,,,,,,,,,,,,,,,,,,,,,,,,,,,,,,,,,,,,,,,,,,,,,,,,,,,,,,,,,,,,
53,,,,,,,,,,,,,,,,,,,,,,,,,,,,,,,,,,,,,,,,,,,,,,,,,,,,,,,,,,,,,,,,,,,,,,,,,,,,,,,,,,,,,,,,,,,,,,,,,,,,,,,,,,,,,,,,,,,,,,,,,,,,,,,,,,,,
54,,,,,,,,,,,,,,,,,,,,,,,,,,,,,,,,,,,,,,,,,,,,,,,,,,,,,,,,,,,,,,,,,,,,,,,,,,,,,,,,,,,,,,,,,,,,,,,,,,,,,,,,,,,,,,,,,,,,,,,,,,,,,,,,,,,,
55,,,,,,,,,,,,,,,,,,,,,,,,,,,,,,,,,,,,,,,,,,,,,,,,,,,,,,,,,,,,,,,,,,,,,,,,,,,,,,,,,,,,,,,,,,,,,,,,,,,,,,,,,,,,,,,,,,,,,,,,,,,,,,,,,,,,
56,,,,,,,,,,,,,,,,,,,,,,,,,,,,,,,,,,,,,,,,,,,,,,,,,,,,,,,,,,,,,,,,,,,,,,,,,,,,,,,,,,,,,,,,,,,,,,,,,,,,,,,,,,,,,,,,,,,,,,,,,,,,,,,,,,,,
57,,,,,,,,,,,,,,,,,,,,,,,,,,,,,,,,,,,,,,,,,,,,,,,,,,,,,,,,,,,,,,,,,,,,,,,,,,,,,,,,,,,,,,,,,,,,,,,,,,,,,,,,,,,,,,,,,,,,,,,,,,,,,,,,,,,,
58,,,,,,,,,,,,,,,,,,,,,,,,,,,,,,,,,,,,,,,,,,,,,,,,,,,,,,,,,,,,,,,,,,,,,,,,,,,,,,,,,,,,,,,,,,,,,,,,,,,,,,,,,,,,,,,,,,,,,,,,,,,,,,,,,,,,
59,,,,,,,,,,,,,,,,,,,,,,,,,,,,,,,,,,,,,,,,,,,,,,,,,,,,,,,,,,,,,,,,,,,,,,,,,,,,,,,,,,,,,,,,,,,,,,,,,,,,,,,,,,,,,,,,,,,,,,,,,,,,,,,,,,,,
60,,,,,,,,,,,,,,,,,,,,,,,,,,,,,,,,,,,,,,,,,,,,,,,,,,,,,,,,,,,,,,,,,,,,,,,,,,,,,,,,,,,,,,,,,,,,,,,,,,,,,,,,,,,,,,,,,,,,,,,,,,,,,,,,,,,,
61,,,,,,,,,,,,,,,,,,,,,,,,,,,,,,,,,,,,,,,,,,,,,,,,,,,,,,,,,,,,,,,,,,,,,,,,,,,,,,,,,,,,,,,,,,,,,,,,,,,,,,,,,,,,,,,,,,,,,,,,,,,,,,,,,,,,
62,,,,,,,,,,,,,,,,,,,,,,,,,,,,,,,,,,,,,,,,,,,,,,,,,,,,,,,,,,,,,,,,,,,,,,,,,,,,,,,,,,,,,,,,,,,,,,,,,,,,,,,,,,,,,,,,,,,,,,,,,,,,,,,,,,,,
63,,,,,,,,,,,,,,,,,,,,,,,,,,,,,,,,,,,,,,,,,,,,,,,,,,,,,,,,,,,,,,,,,,,,,,,,,,,,,,,,,,,,,,,,,,,,,,,,,,,,,,,,,,,,,,,,,,,,,,,,,,,,,,,,,,,,
64,-0.17882726096203808,0.5635379117517607,-0.17585266796036939,1.027982171877473,-0.21516480338617103,0.5195287441011867,-0.19396767274692767,0.9665401633211249,-0.1465839056827462,0.49342060619657313,-0.151534334424521,1.0146907645422238,-0.2253817357300999,0.5332140065604944,-0.1367547605400694,0.9835112417690395,-0.19381811092967582,0.5463935981429,-0.19574210335411327,1.0127854051285494,-0.1902532531885581,0.49292854040820644,-0.20803016572676894,1.006436103397871,-0.1637924678400356,0.5398975425270713,-0.1566091183381007,1.0416248935571277,-0.15554565791442693,0.5153851756973472,-0.13329969332580263,1.033264179295272,-0.16322348032501344,0.48172228428673985,-0.1338171042801536,1.0385065348796851,-0.18309972104070776,0.48553170696264736,-0.16215328456841008,1.0271568074892117,-0.22755963101577964,0.5614475599824271,-0.2162065379667459,0.9528520171542794,-0.05161762014457754,0.5218106112470347,-0.10484897071850607,1.0144870809210662,-0.20481438675187566,0.5589808047119251,-0.17793319997347948,0.9642851637556846,-0.04373347485496398,0.6473402266339107,-0.03762129015035671,0.9363244992636713,-0.2880800634820644,0.6032617496349337,-0.1672413973924517,0.5894283093687737,-0.03967497325818155,0.5993497979910031,-0.01678354012844458,0.634474061163825,-0.2806539677418193,0.5114748651599531,-0.21274957249753884,0.2217545477445446,-0.014290686059818349,0.5912298035687387,-0.10388657803090398,0.6021742715479304,-0.24237542041178556,0.5647406320584484,-0.197749513615442,0.24202292371667017,-0.04765076592501734,0.5729415310214373,-0.05592624431557726,0.5057773444873974,-0.22136911383245628,0.5043097476369626,-0.22551410410815625,0.18344115983762635,-0.024059326121392804,0.578673186023729,-0.10729804502331625,0.39966205181634606,-0.2853554819043979,0.5693072653434975,-0.17411795522222195,0.1910781381158144,-0.08904704665479306,0.6593182678231193,-0.10514171684372739,1.0287572785849641,-0.1901157261240809,0.6640971920126124,-0.14059431801824673,1.0180463200763359,-0.13430879643820554,0.7841381142221971,-0.12894399560337955,0.9836070561694261,-0.23479968203399426,0.7984788526208793,-0.19203309029272536,0.9376739096258622,-0.04571447991200851,0.8197499290865287,-0.04823120024336267,0.8814040180711031,-0.1329101551537561,0.8227325450722605,-0.1354769238294651,0.9405436092671742,-0.10436963158959756,0.8027088209951705,-0.109741487745663,0.9263916557823253,-0.1201582816328232,0.8388300172606039,-0.10189628310229398,0.9521498812867742,-0.03268231704196403,0.8650909489478871,-0.10822326607592392,0.6827366703104943,-0.11548551347770686,0.8526861728910421,-0.057681565828077104,0.6879810443976275
65,-0.08224934542772908,0.56616790709783,-0.11325979382574138,1.027982171877473,-0.12582056916910225,0.5258758043047389,-0.1361607100207525,0.9665401633211249,-0.057318256036356846,0.5007332616454867,-0.0937982438907721,1.0146759825903195,-0.1361999259407059,0.5415396429473658,-0.07909531471308597,0.9835112417690395,-0.09979775128212486,0.5500782380736251,-0.13477137445323809,1.0127854051285494,-0.09610873877565182,0.4956243392821078,-0.1469499070385024,1.0064253745618115,-0.06955765674673248,0.541634481480471,-0.09543983467710494,1.0416248935571277,-0.09624541732557725,0.5251360783500877,-0.09539852448239403,1.0332310391127768,-0.0830948029278796,0.48252974840951207,-0.08190849079361501,1.0384794743709571,-0.09646465523580264,0.4879640533066415,-0.10619225234858021,1.0266603007982325,-0.13488254720854823,0.560965418010839,-0.1561579225519412,0.9524113600154551,-0.029313588082773116,0.5224495730390268,-0.09150659602160613,1.015574627269638,-0.11538488183480829,0.5473977744880787,-0.11935897347383098,0.9671795057013328,-0.0013513230106068606,0.6191813235119624,-0.00870463311161554,0.8983624798201595,-0.20581088786494028,0.552618424782944,-0.11441060241368585,0.9676936902281486,0.02592137385878725,0.5597922218114987,0.03084088210938399,0.8042583090390386,-0.18967647683738814,0.430766778669322,-0.1568514902067236,0.907659974485191,0.058464710260557926,0.5517929267949044,-0.05075575267471916,0.7462692155481745,-0.14358746913214437,0.47798863458759266,-0.13787815714026264,0.8848750065652191,0.02241579598240204,0.5317600858996722,-0.0044269333333598485,0.6801202748043225,-0.12444792201070763,0.4117338697320706,-0.16708120326607917,0.8132078177861204,0.04250341318443717,0.5365968963699509,-0.05835865521915291,0.55788070382631,-0.19927807585371157,0.4792493558548195,-0.12248998898436678,0.7657157746581347,-0.120443912757925,0.6343640084275199,-0.12700024133741272,1.029777114057071,-0.16296597188038092,0.6331676861875697,-0.12291993166358861,1.0185671454623832,-0.19799471083722708,0.7141262004457994,-0.17419068261294532,0.3158895695494768,-0.255407026992304,0.7210283983858023,-0.20792851423568193,0.6503660511587602,-0.2516481944832373,0.723696149961315,-0.18769019753922517,0.4468215760258914,-0.2672040451332578,0.7178578745667368,-0.2275193673497835,0.668468313818871,-0.3249487766106177,0.7036090061033553,-0.25874223180727374,0.6636256521736217,-0.26668450785898684,0.732469343356185,-0.20184535299644749,0.738624288005982,-0.24595995187652922,0.757742328056316,-0.25163116404822033,0.3958007746291131,-0.25331628707521564,0.7376478375677084,-0.15182667467985736,0.5627513280966632
66,0.09816572241571653,0.5739724796800749,0.003564330666338522,1.027982171877473,0.05653027351148774,0.5356174086328944,-0.018034904083506616,0.9665401633211249,0.1252676277661161,0.5110439115173129,0.024539576120759524,1.014523275490405,0.0464939458599756,0.552385542529275,0.039371682158606945,0.9835112417690395,0.0851472159678077,0.5594730625784774,-0.014987949927417206,1.0127854051285494,0.08883292719823768,0.5051754471655612,-0.02717915596044025,1.006368154102827,0.11531373289509586,0.5513245873955406,0.024277814385617717,1.0416248935571277,0.06803335360880197,0.5395162353439537,0.011167181851540246,1.0330588412940207,0.09205169444432953,0.49618809315514806,0.031562213675819975,1.038453248327256,0.07411512951031786,0.4987142278290414,0.004373205256974605,1.0266011133859705,0.03902927625921869,0.5701569310723624,-0.04349151259500931,0.951712614764753,0.08157263310342983,0.5442795953740793,-0.01975337295260523,1.016340189327133,-0.0033153592353374257,0.5729105294052235,-0.04710017502952353,0.9669767903044518,0.02628303400761509,0.6620923166111751,0.005898063556664383,0.608690522327331,-0.10551593130633816,0.5935066150524142,-0.05022113332976111,0.9953348674055778,0.019387111733769852,0.6237825763494625,0.018866279043348404,0.46312227073566326,-0.07663537981917744,0.5039026910876875,-0.08356607723232798,0.911435392289909,0.05106036350021333,0.6198532056874215,-0.06417736598005602,0.42895032902969615,-0.027250750717517105,0.5677940588010021,-0.06168454933867393,0.8199263285485565,0.024896956171682878,0.6033836496661517,-0.011653206111143972,0.3903173957092449,0.0027221805527044562,0.5081362466222531,-0.08370274894271748,0.7561242110661497,0.03697256530164832,0.6073759815292527,-0.07060083022986205,0.35581592144525226,-0.08004970840612277,0.5713481283806069,-0.044465124822321754,0.739028212192467,-0.11072093792066993,0.6500834221848442,-0.12155726278457363,1.0299015089507173,-0.17985787751841947,0.6591984650724574,-0.1351532398269969,1.0185691720203054,-0.11111460605477007,0.8004411170565172,-0.11595034666383082,1.0057019615458604,-0.19761705589590417,0.7722119797380362,-0.16933388788097575,0.9501448702429278,-0.11418881690777712,0.8564774767320975,-0.09440107560040412,0.9268383738068819,-0.23455695996311743,0.7955916892830759,-0.20485143067602662,0.9174205237683644,-0.17640402447204898,0.8448807164991683,-0.15774389512832146,0.9294422215019298,-0.23150420659775717,0.7814063660421896,-0.1776052894902061,0.8738809360696417,-0.07182139641466238,0.8885029381599232,-0.134121399864332,0.7918674104762048,-0.1827917441399438,0.8369970978979085,-0.10434946794442398,0.624085342035567
67,0.3047951064976478,0.5706997674493925,0.1380803953502827,1.027982171877473,0.25653905670505806,0.5299987171884974,0.1120234538379332,0.9665401633211249,0.32506444140847696,0.5043118649131564,0.15440216784536265,1.0120660144048947,0.2460980713558092,0.5445320941383143,0.1690531775523937,0.9835112417690395,0.2875012527342212,0.5554155359900375,0.11683025246737988,1.0127854051285494,0.29143415274640927,0.5015435573454623,0.10484956121250116,1.0047264633717787,0.3181281894700114,0.548077683976046,0.15649517545280744,1.0416248935571277,0.2154222188953416,0.5283470401687828,0.10634402291794873,1.0280641508757773,0.24718238935175157,0.49118124338937047,0.13237974836781133,1.0377700002841956,0.2612524024473873,0.49612833992010585,0.12596323885316607,1.0112640038202356,0.22890791886157713,0.5663745991288505,0.08009407394246071,0.9404021565814644,0.1839715114502745,0.5365088782300669,0.045206478457652126,1.0100663832320098,0.11535822748319001,0.5722273409668079,0.029982731708571415,0.965380756731301,0.1905301269221456,0.6383113150433345,0.11318727168363577,0.19673930825224248,0.06652775488918916,0.6064162062503817,0.06421704406687495,0.9549263157126152,0.2679830437370626,0.5849796545774594,0.1837390436946526,0.3349659067715825,0.1630743291772485,0.5259065801715498,0.07842923515885437,0.8127072719629131,0.31212559756168995,0.5804815363949716,0.10933143365126632,0.37474234839691417,0.217339301705551,0.5831050019276806,0.1044134327044707,0.6829520534364044,0.28822606116898075,0.5631178510974261,0.16347325616103575,0.3861774358970806,0.2455927864659534,0.5245499352819211,0.08112742888381819,0.6332909591130247,0.2897710566698665,0.5675181767540146,0.09751199086269388,0.34030259074723895,0.15944320782849805,0.5865669227264626,0.11768616365732013,0.596523579719475,-0.12267168409241595,0.6469622249611808,-0.13152756970484225,1.029286985063083,-0.1791934261119752,0.6550660750501796,-0.13596501891438317,1.0171581512645378,-0.11432864006420884,0.7956426451288744,-0.11872507560438961,0.24524815621844498,-0.18441933917637518,0.7881439436586295,-0.16189823110320828,0.18407408710465248,-0.16452786082923082,0.8439674750727042,-0.12697845997887983,0.3700031694440127,-0.24998648114139738,0.8126409422699838,-0.2163099154593712,0.16266145051091804,-0.22906988061149547,0.8305270239675826,-0.19163356760726263,0.2259863114152979,-0.24810350868747855,0.8191663853445578,-0.18979380614707111,0.03494637296930364,-0.06667953232382587,0.8822068399276539,-0.13000888405045297,0.10635081463575066,-0.16311734795163998,0.8387360038045858,-0.0923359954111814,0.0059726922669760055
68,0.4900793955147081,0.5947991174249785,0.2573119358860306,1.027982171877473,0.4328907268282325,0.5453134750124415,0.22486104365728893,0.9665401633211249,0.5003520643177826,0.5180046611434725,0.2662155061087527,1.0143153744894284,0.42045984764154676,0.5565878487998743,0.27994252287430704,0.9835112417690395,0.4702840282729889,0.5753470311797042,0.23486178109834013,1.0127854051285494,0.4753311103002983,0.5223703739043002,0.2239876782262554,1.0061578093114147,0.5033584475758903,0.5700465255287803,0.27688288954436047,1.0416248935571277,0.3199474712393573,0.530199790946981,0.17071281611155664,1.0331334067046347,0.3810997955867952,0.5060664305384183,0.21957375935115794,1.0383394630603797,0.41533475436412315,0.5128805233574533,0.2241877193869177,1.0232645645807337,0.3907941375364459,0.5904217354356132,0.1844968761931748,0.9480055038829476,0.20058694985679834,0.4987281165113169,0.049702728307082465,1.0135644010199432,0.20827127470404241,0.5872161209884754,0.09344822757075608,0.956844358320504,0.03395963084693422,0.5671806816891475,-0.00012070700305044646,0.9719245058440241,0.09052173917723638,0.630105476269913,0.08617192921033084,1.0252373852011407,-0.015230224507957617,0.5267876994878903,-0.012067488577644572,0.8088777286137762,0.08146110328427367,0.5242694193935041,0.026607252578894937,0.9564914373452983,0.04674283804255934,0.5249389481610238,-0.0743578232001067,0.61431639333977,0.1247960127812339,0.5731528143895336,0.04460348625555624,0.759960479625827,0.10706924755978046,0.5062428010295245,0.036291838947511,0.5546089265567944,0.14195235143838913,0.5097918848401791,0.013322376260169029,0.703831864111804,0.019415255926089052,0.509150685985582,-0.08853070661519771,0.5386848491624612,0.06857230744890946,0.5736908889435036,0.05850133408343253,0.703309353950432,-0.1483044153103144,0.6390206809052421,-0.15231239374680805,1.0298694416518281,-0.16323189178824338,0.6641764065855189,-0.12456834141818658,1.0184304720119133,-0.10205594356637719,0.7757647941195055,-0.11702878972844726,1.033663156061089,-0.05353998142092356,0.7962414730699454,-0.0724622827070004,1.0018515419577105,-0.191427468304332,0.8304860369127616,-0.15222889910457854,0.9188559409646275,-0.1629681012414945,0.8239826332871347,-0.15491733390924667,0.8813751512822499,-0.2594132825599871,0.8191275164449996,-0.2189578047461966,0.4635698741470408,-0.1626992050422695,0.8374466530600119,-0.12953730818250175,0.30680374638572744,-0.08346688319217156,0.8793425387229725,-0.15045079045781873,0.8219175093722314,-0.05451871334158041,0.8468775810483907,-0.016777289053450967,0.6932039013960711
69,0.1349789625115584,0.5281834167032378,0.02217005076080141,1.027982171877473,0.06079428489985294,0.48349436867203316,-0.021426852113537107,0.9665401633211249,0.1284258737717035,0.45646045142476827,0.020081412027378332,1.014692314262988,0.04860419231536704,0.4953702725345393,0.0338906298346098,0.9835112417690395,0.09974469540064936,0.5146364520228286,-0.010515192897089812,1.0127854051285494,0.10472047170114884,0.4628435727949862,-0.02147877682765815,1.0064308581891308,0.13250789524863268,0.5115302913693107,0.031218438218655827,1.0416248935571277,-0.044322516940989584,0.4786099145336356,-0.07039334421232414,1.033271570271224,0.020001302912159208,0.4585517832930112,-0.019886106946749745,1.0385016472988136,0.0716010448694558,0.4513756825066232,-0.0035661880145371697,1.0272310748766016,0.04908532230310231,0.5314614168702444,-0.041958407114864156,0.9529340331454903,-0.03651497088080526,0.47801645612618504,-0.10772538609130702,1.0166186026228787,-0.051710007301803605,0.5673563301864735,-0.07928269386255118,0.967042534227639,0.04625698930804174,0.5928868536785884,0.007535317416493631,0.9415581447028193,0.005542036530492629,0.6374611662723544,0.027856482874422165,1.019687119888946,0.21156646108306779,0.5245936525137082,0.13724805813375474,0.9314733368481816,0.18749834238132473,0.5175082261180525,0.09445542070285959,1.0299549964959942,0.2591649028712973,0.5109302473133981,0.06520837049942445,0.8698804273249079,0.26465205280314796,0.5644162635815807,0.1344402697845775,0.9787671040383638,0.22606562180663575,0.49294297822221245,0.11370896130656509,0.7953563187343762,0.2697054318145772,0.49371782344644133,0.09524769583635281,0.9057411677769651,0.23305334927805718,0.503405692298906,0.051558999804349526,0.7514187139467019,0.17454862544964592,0.561237750115226,0.12602598890933675,0.8968679872779161,-0.1481422289186468,0.6320160622605278,-0.15323095621198873,1.0287978097434114,-0.17003191295276315,0.6585864445799037,-0.13001620363240707,1.0175033813670769,-0.07428135037565015,0.7623937437616869,-0.0993704421316603,0.9521137500094531,-0.10302427027036781,0.789763640275756,-0.10595292288224936,0.8606067132566911,-0.14478047684964762,0.8182113543909415,-0.1217022860737188,0.7189429160622837,-0.19689037118140293,0.8185729157273203,-0.1786672196189653,0.573181288844048,-0.21148938358859593,0.804697112735588,-0.18762714296262123,0.29093706069336656,-0.19974230349640457,0.8335563771048117,-0.15544628044468697,0.27385295764938405,-0.06691444788866,0.8658988303031727,-0.14000980555785547,0.6918589823794336,-0.08388351129596722,0.8562346758131002,-0.03765369668807599,0.4412986687281481
70,,,,,,,,,,,,,,,,,,,,,,,,,,,,,,,,,,,,,,,,,,,,,,,,,,,,,,,,,,,,,,,,,,,,,,,,,,,,,,,,,,,,,,,,,,,,,,,,,,,,,,,,,,,,,,,,,,,,,,,,,,,,,,,,,,,,
71,,,,,,,,,,,,,,,,,,,,,,,,,,,,,,,,,,,,,,,,,,,,,,,,,,,,,,,,,,,,,,,,,,,,,,,,,,,,,,,,,,,,,,,,,,,,,,,,,,,,,,,,,,,,,,,,,,,,,,,,,,,,,,,,,,,,
72,,,,,,,,,,,,,,,,,,,,,,,,,,,,,,,,,,,,,,,,,,,,,,,,,,,,,,,,,,,,,,,,,,,,,,,,,,,,,,,,,,,,,,,,,,,,,,,,,,,,,,,,,,,,,,,,,,,,,,,,,,,,,,,,,,,,
73,,,,,,,,,,,,,,,,,,,,,,,,,,,,,,,,,,,,,,,,,,,,,,,,,,,,,,,,,,,,,,,,,,,,,,,,,,,,,,,,,,,,,,,,,,,,,,,,,,,,,,,,,,,,,,,,,,,,,,,,,,,,,,,,,,,,
74,,,,,,,,,,,,,,,,,,,,,,,,,,,,,,,,,,,,,,,,,,,,,,,,,,,,,,,,,,,,,,,,,,,,,,,,,,,,,,,,,,,,,,,,,,,,,,,,,,,,,,,,,,,,,,,,,,,,,,,,,,,,,,,,,,,,
75,,,,,,,,,,,,,,,,,,,,,,,,,,,,,,,,,,,,,,,,,,,,,,,,,,,,,,,,,,,,,,,,,,,,,,,,,,,,,,,,,,,,,,,,,,,,,,,,,,,,,,,,,,,,,,,,,,,,,,,,,,,,,,,,,,,,
76,,,,,,,,,,,,,,,,,,,,,,,,,,,,,,,,,,,,,,,,,,,,,,,,,,,,,,,,,,,,,,,,,,,,,,,,,,,,,,,,,,,,,,,,,,,,,,,,,,,,,,,,,,,,,,,,,,,,,,,,,,,,,,,,,,,,
77,,,,,,,,,,,,,,,,,,,,,,,,,,,,,,,,,,,,,,,,,,,,,,,,,,,,,,,,,,,,,,,,,,,,,,,,,,,,,,,,,,,,,,,,,,,,,,,,,,,,,,,,,,,,,,,,,,,,,,,,,,,,,,,,,,,,
78,,,,,,,,,,,,,,,,,,,,,,,,,,,,,,,,,,,,,,,,,,,,,,,,,,,,,,,,,,,,,,,,,,,,,,,,,,,,,,,,,,,,,,,,,,,,,,,,,,,,,,,,,,,,,,,,,,,,,,,,,,,,,,,,,,,,
79,,,,,,,,,,,,,,,,,,,,,,,,,,,,,,,,,,,,,,,,,,,,,,,,,,,,,,,,,,,,,,,,,,,,,,,,,,,,,,,,,,,,,,,,,,,,,,,,,,,,,,,,,,,,,,,,,,,,,,,,,,,,,,,,,,,,
80,,,,,,,,,,,,,,,,,,,,,,,,,,,,,,,,,,,,,,,,,,,,,,,,,,,,,,,,,,,,,,,,,,,,,,,,,,,,,,,,,,,,,,,,,,,,,,,,,,,,,,,,,,,,,,,,,,,,,,,,,,,,,,,,,,,,
81,-0.038271234857528154,0.8714887660532133,-0.10518405478432867,1.027982171877473,-0.07734789675582007,0.8470144246813258,-0.1254248316717363,0.9665401633211249,-0.009366408625852446,0.8200484567291049,-0.08356078023672579,1.0146902877050656,-0.08863737406748579,0.8589509464675684,-0.06924754329909086,0.9835112417690395,-0.04699371147160214,0.8766958962119002,-0.12045636023400108,1.0127854051285494,-0.04237850816470283,0.8244799730177645,-0.1317812441344617,1.006432407909895,-0.014937097079451851,0.8723733239678062,-0.07943124800613444,1.0416248935571277,-0.04111970603248791,0.824137414447805,-0.0802382155846317,1.0332682324111164,-0.014090965779933948,0.8007404098207974,-0.055345212576639755,1.0385090382747657,-0.052951122218902275,0.7687605215645456,-0.09818261581119687,1.027201272554214,-0.08813223199634855,0.8474439374505363,-0.14557062489327524,0.9529039924045235,-0.006948182015507292,0.7102835974683481,-0.09993542727139149,1.0161126187933807,-0.0380949517333539,0.7788020193878284,-0.08068582587955125,0.966921775217324,-0.05329998274958786,0.8228853826359553,-0.06966737323578068,0.838680289401916,-0.14289741065394718,0.7713973926403048,-0.07635883686747309,0.861144009995147,-0.11847885979148863,0.8408274066717282,-0.0939301530404407,0.8401174766148748,-0.09544471897747517,0.7124109441852217,-0.09202433544714479,0.7643574146325909,-0.08521823475449065,0.8524588418072641,-0.1761196575886437,0.8510904206873346,-0.02689985068730138,0.7737671475423046,-0.0551258888846462,0.7925671409455597,-0.10887934746392804,0.842226852257094,-0.12083235481387605,0.788033470891206,-0.002984699858466111,0.7214230636960751,-0.08230424077003523,0.7227594382695188,-0.09632219589092186,0.8395378610687424,-0.1789875765240351,0.7680107993081826,-0.09891084959238483,0.7815707898758156,-0.05296236935876477,0.7032927838591845,-0.15629911362120247,0.5076177711495353,-0.16684583416270177,1.0298243805403777,-0.21468641723208048,0.5387570283048793,-0.16710139961701773,1.0186105376437797,-0.4358839799894918,0.5173311839186235,-0.34630689772340767,0.9198879027651904,-0.5232007533491698,0.5270404328020011,-0.39173534662630555,0.8535485100363237,-0.6455558707361445,0.42283237733062345,-0.45888669450999575,0.8910871502427341,-0.7274191989139583,0.40454182737511696,-0.535159422322908,1.0109636956509938,-0.7311449911905621,0.3836750254000013,-0.5368543026055372,0.9275453632865978,-0.7450517715251281,0.393924706391387,-0.5212157779494203,0.976622654361878,-0.6532243450789839,0.42756162346265747,-0.5341104800164101,0.8748076313090296,-0.7317375092004041,0.3968171538595174,-0.47210896546315273,0.9280836931326739
82,,,,,,,,,,,,,,,,,,,,,,,,,,,,,,,,,,,,,,,,,,,,,,,,,,,,,,,,,,,,,,,,,,,,,,,,,,,,,,,,,,,,,,,,,,,,,,,,,,,,,,,,,,,,,,,,,,,,,,,,,,,,,,,,,,,,
83,0.19640476633596574,0.4239297669916289,0.055047309522046665,1.027982171877473,0.15674402329395332,0.3860643779036006,0.034727344741356636,0.9665401633211249,0.22567489521417014,0.3603755884773043,0.07752124675734988,1.014526732559802,0.14719170466308745,0.4006811715537806,0.09263239656784211,0.9835112417690395,0.19630253720750554,0.4143127451575179,0.0448087110459944,1.0127854051285494,0.19975340132639433,0.36140525907237575,0.03242806910121023,1.0063062844815502,0.22611234624456863,0.4090718441513693,0.08377898773116443,1.0416248935571277,0.15228277319581093,0.389995122901937,0.05408711259416126,1.0331247044264975,0.22507409290094227,0.35880224797082183,0.10623068905386306,1.0382240684680943,0.1648600614335036,0.34770055547720424,0.05144844576599956,1.026748873300369,0.14345657840713552,0.42370238819707245,0.012456330472743006,0.952364093532148,0.15086403913805452,0.37901275372407006,0.015383301061927222,1.0112479857100372,0.15055936243240695,0.44959275129471926,0.04245271446218613,0.9644456790640646,0.15274482426493824,0.42491786526000924,0.08317014209847873,0.9848816615485223,0.08482185964549077,0.44004846681137105,0.06281454923456643,1.028507951664611,0.24533937051157118,0.3411556196481838,0.16683194601368048,1.003616235884589,0.1694802425435612,0.3322424168204909,0.0633555347579094,1.04573371687487,0.3042778790411736,0.33283675432862636,0.10296673986257232,1.0342488183618952,0.24316572343602005,0.3889560143960185,0.10051769086812797,1.0248494814721405,0.2797556973084184,0.3128228677104326,0.1565626382257315,0.9600003216488049,0.26468514584353686,0.31999060911004606,0.07254857588500135,0.9602778680256835,0.2697848386132181,0.3198699376182725,0.08263231481138689,0.9714699429467935,0.16161355594270996,0.3815968013427956,0.09867842520991629,0.9751963583258897,-0.16935334166313762,0.5175028438576652,-0.1676351724811755,1.0291950747008394,-0.1721989934007816,0.5461430570715113,-0.13797621846056665,1.0182837253764763,-0.35736723860210856,0.6206781575762316,-0.2857690188299634,0.408121081619179,-0.32559759725257154,0.6675104011209403,-0.2625959584625108,0.8367527556036455,-0.521510112597279,0.6568173543375357,-0.3692228579827401,0.4002929088143588,-0.4969503577954751,0.6863884102646738,-0.3848961751185105,0.8182747536954273,-0.6037664786690098,0.6443685457075423,-0.4457876118572176,0.677249664643867,-0.509779982356804,0.6993232003965902,-0.36741003231429065,0.8288200034333807,-0.5070713578677458,0.6853957003440663,-0.4284244713064105,0.3114557617258996,-0.47889329026211913,0.7170876325849508,-0.3073501213335706,0.713693176851546
84,0.16460321082862017,0.41529114661504196,0.034105710239474986,1.027982171877473,0.12390593908393074,0.3779329334494075,0.013112941067728881,0.9665401633211249,0.19301669346323758,0.3527151697284487,0.056065172782080744,1.01446492254317,0.11469782265594956,0.393521789448907,0.0713246374703878,0.9835112417690395,0.16191056451671698,0.4047755549586196,0.02201218832072966,1.0127854051285494,0.16519662489247477,0.35144094198901693,0.009468539360629726,1.0063337026181471,0.19144334241030703,0.39869768553053503,0.06069063826495917,1.0416248935571277,0.1355032642530542,0.38472097610666417,0.0430645215532855,1.0330416751563252,0.20078210615288983,0.34876390191865203,0.08975024884335174,1.0384012730770116,0.13424525077672889,0.3398927046394967,0.03123275045732208,1.0266902819345545,0.11107067446769457,0.4144624165593466,-0.009070890316678189,0.9525519077678355,0.13988781853476445,0.3823311529149729,0.007983640565276916,1.0004713467253568,0.1263130139782126,0.4330578565899005,0.025291923284626462,0.9644406126692588,0.1306853608480031,0.43787913368499704,0.06783765780316767,0.9840354544066463,0.05070837403819318,0.4209332274295809,0.03991413295179573,1.0285424627539361,0.20433585459710815,0.3406428408891811,0.13833223792275237,0.9980011207188787,0.13327661999405005,0.3028530652141218,0.03938003338621256,1.0464343694742047,0.2613716318151591,0.32814506412209865,0.07315884508415707,1.019249071085589,0.2099807686718235,0.355836097480125,0.0784419866934625,1.026615328678256,0.23701047340976977,0.3078768146823259,0.12655053194052027,0.9440993521434948,0.24052866997174516,0.2872507612115628,0.056641063754499406,0.9625618584088315,0.22685172980477936,0.3154161891536881,0.05245700732929165,0.9310989421800393,0.1300431049199363,0.3508546329162819,0.07789913863955053,0.9802110759047777,-0.1616328716498486,0.5141368503579093,-0.16343194104720038,1.0298280760283538,-0.18841512108590108,0.5316653272741481,-0.15030444837148804,1.0185553437427177,-0.3783237217561586,0.5785001823984667,-0.3000566266310113,0.714630486993706,-0.4077063448826356,0.6075246442468558,-0.3176007048676138,0.8701211642836076,-0.6025914856807632,0.5884803906839713,-0.4232000147627101,0.5442835446862461,-0.6761679254004953,0.6322380673233896,-0.5040939507081865,0.5934487158116688,-0.6920229086194385,0.5698982641065902,-0.5046342793010348,0.6667472666297984,-0.7024409290953528,0.6258329979696798,-0.49579407876624365,0.6065083278848272,-0.5876487792504764,0.613389415153484,-0.48120233603167406,0.5468166821551294,-0.6852777554451888,0.6213852228406881,-0.4436880884993988,0.6323717585661761
85,-0.043762318933892826,0.41906954465199875,-0.10404970668012992,1.027982171877473,-0.07981516085241366,0.3779109989401301,-0.12196465687478075,0.9665401633211249,-0.01071470628708275,0.3521192424899844,-0.07903408558655402,1.0146927911001462,-0.0890486696932255,0.3924295343333979,-0.06380131697152965,0.9835112417690395,-0.03977481435943686,0.4054265568888564,-0.11159150806248719,1.0127854051285494,-0.03629777215198057,0.3521008548136477,-0.12396686809854371,1.0064378915372143,-0.00993649313255305,0.39935423069273596,-0.07262598024343692,1.0416248935571277,-0.04475986927923406,0.3800142655296531,-0.07638024086397868,1.0332714510619345,0.03159978988206329,0.346206415622952,-0.022021691536387614,1.0385151179485328,-0.059528091737723096,0.3421881093121194,-0.09724857060774098,1.0271899476717066,-0.08055511811659861,0.4172119192181906,-0.13602857247287897,0.9529171054263743,0.008624869253630508,0.37248476362130223,-0.07883820760336077,1.0141534737242583,0.003910139097068244,0.4338252663913837,-0.05455262474861274,0.966866044874459,0.018758021353765298,0.4327385608986658,-0.006303365832392181,0.9848626476668391,-0.05659942243494492,0.4213835107185366,-0.02974242750381149,1.0288761295553885,0.09156537304593809,0.3292638075620785,0.06330137993917513,1.0063850504483403,0.01933013621788801,0.2915934795951491,-0.034405132558328846,1.0470027593667828,0.1483600921417021,0.31381458759965297,-0.0020654726383506766,1.0403044118524958,0.09413641856071717,0.34835973787433583,0.0035697066864750528,1.0277383397904694,0.11983251078571404,0.2929957402537676,0.04871319582842421,0.9671579454166577,0.11983502754182561,0.27824932736222807,-0.02156390083184003,0.9641242153576841,0.11392802328407048,0.30284700008203286,-0.022513676049824204,0.9952631038621682,0.015366878187205883,0.3437308049820168,0.0034987852116997523,0.9834878412513048,-0.1684379926278842,0.511050939083953,-0.16745424674521223,1.0299645706648897,-0.17923966664782642,0.5348514935606166,-0.14401433835703897,1.0186949378207817,-0.3856478747805997,0.5541848251902147,-0.3031160849320764,0.9665252590464709,-0.3932295702910851,0.5996446717889701,-0.3128654662511075,1.0097635817144854,-0.5918084012749808,0.5602757707994803,-0.4132651276926076,0.8238083478478672,-0.626463963825757,0.6059773337189585,-0.4774470852737904,1.0135095292386402,-0.6808345383138775,0.54300834387191,-0.4942534040730975,0.8419418281112743,-0.6501647420034361,0.6148920289793539,-0.4672355760470784,0.9839101566506965,-0.5958358588704269,0.5747979706611439,-0.48397039745242276,0.8747270458292932,-0.6588675194289488,0.6261646808866476,-0.43408042036846417,0.9467078796484819
86,0.14819485819996273,0.42239789781857895,0.0224980258571063,1.027982171877473,0.0996954498632539,0.3827168618437251,-0.0037223190882740287,0.9665401633211249,0.16861290238983861,0.357431268037012,0.03902865895326124,1.0146309214788691,0.09022076474469594,0.3981953002387782,0.054166320964376555,0.9835112417690395,0.14742917148816845,0.40939452749852134,0.011880480301560116,1.0127854051285494,0.15114841147637867,0.35589504808146993,-0.0002613951785051874,1.0063956914487135,0.1777554246782514,0.40299139552389746,0.051309043231988954,1.0416248935571277,0.07195458131711277,0.3861890683098045,0.0001977868420731041,1.033202071255416,0.18445062166193532,0.35004197451424834,0.07891923523845727,1.0384331019573219,0.11098400058047349,0.34505810276037685,0.015090804146832995,1.0264984741876673,0.09953036747595824,0.41915932217229224,-0.017146798514718724,0.9519422118564278,0.10555296399981387,0.3731079599847513,-0.01566011854111527,1.01490800892247,0.13114360534475902,0.42674864533578066,0.02974407707635921,0.9611910866453942,0.11485859469876593,0.42195521639144845,0.05624981903492617,0.9849251729392083,0.09839486060878672,0.40058885086555496,0.07386703167533926,1.0285818614241327,0.2098488566046682,0.3188131165773525,0.1410629702121095,1.0064810139264286,0.2130987752885098,0.2675804371451979,0.09563352629914659,1.0462351707513653,0.2743520968933719,0.30420384526910177,0.08081204103430038,1.039675225222247,0.296969964502487,0.31389612364894826,0.13975912161452944,1.0253580283013641,0.2553761867624361,0.2819731129000994,0.1382228973919303,0.9663041088802502,0.3224169232762858,0.24365514916246003,0.11469539611065976,0.9609898455075255,0.23786444561098255,0.2906110307769944,0.05926139690705744,0.9939014953569193,0.21025379272791944,0.31165072089655227,0.13464875404732726,0.9773641792563709,-0.17810476290521296,0.49522960138406286,-0.17510455627567828,1.0299677893157075,-0.17419235835519342,0.5138140341871424,-0.14079826523614175,1.0186890965655937,-0.39905716261287927,0.5746413776957079,-0.31524782875835605,0.9417034411715626,-0.42579045731366694,0.5998720635087882,-0.32840917435658074,0.9524062108610614,-0.5878468586569948,0.5905821100633963,-0.41501047939182845,0.8725859877137424,-0.6658328075379641,0.5957524549309641,-0.49461518532398646,0.8375943476018299,-0.6725896452816311,0.5729549094999618,-0.4931887840948391,0.8850607222114634,-0.6876017639632671,0.607793354205184,-0.4829537858646869,0.8110238446427923,-0.5627263496163083,0.6205571717109486,-0.46702296206171545,0.8683457129549951,-0.6647459065326624,0.6176858605627035,-0.42737701353197055,0.7844892493346087
87,,,,,,,,,,,,,,,,,,,,,,,,,,,,,,,,,,,,,,,,,,,,,,,,,,,,,,,,,,,,,,,,,,,,,,,,,,,,,,,,,,,,,,,,,,,,,,,,,,,,,,,,,,,,,,,,,,,,,,,,,,,,,,,,,,,,
88,,,,,,,,,,,,,,,,,,,,,,,,,,,,,,,,,,,,,,,,,,,,,,,,,,,,,,,,,,,,,,,,,,,,,,,,,,,,,,,,,,,,,,,,,,,,,,,,,,,,,,,,,,,,,,,,,,,,,,,,,,,,,,,,,,,,
