frame,NOSE.x,NOSE.y,NOSE.z,NOSE.v,LEFT_EYE_INNER.x,LEFT_EYE_INNER.y,LEFT_EYE_INNER.z,LEFT_EYE_INNER.v,LEFT_EYE.x,LEFT_EYE.y,LEFT_EYE.z,LEFT_EYE.v,LEFT_EYE_OUTER.x,LEFT_EYE_OUTER.y,LEFT_EYE_OUTER.z,LEFT_EYE_OUTER.v,RIGHT_EYE_INNER.x,RIGHT_EYE_INNER.y,RIGHT_EYE_INNER.z,RIGHT_EYE_INNER.v,RIGHT_EYE.x,RIGHT_EYE.y,RIGHT_EYE.z,RIGHT_EYE.v,RIGHT_EYE_OUTER.x,RIGHT_EYE_OUTER.y,RIGHT_EYE_OUTER.z,RIGHT_EYE_OUTER.v,LEFT_EAR.x,LEFT_EAR.y,LEFT_EAR.z,LEFT_EAR.v,RIGHT_EAR.x,RIGHT_EAR.y,RIGHT_EAR.z,RIGHT_EAR.v,MOUTH_LEFT.x,MOUTH_LEFT.y,MOUTH_LEFT.z,MOUTH_LEFT.v,MOUTH_RIGHT.x,MOUTH_RIGHT.y,MOUTH_RIGHT.z,MOUTH_RIGHT.v,LEFT_SHOULDER.x,LEFT_SHOULDER.y,LEFT_SHOULDER.z,LEFT_SHOULDER.v,RIGHT_SHOULDER.x,RIGHT_SHOULDER.y,RIGHT_SHOULDER.z,RIGHT_SHOULDER.v,LEFT_ELBOW.x,LEFT_ELBOW.y,LEFT_ELBOW.z,LEFT_ELBOW.v,RIGHT_ELBOW.x,RIGHT_ELBOW.y,RIGHT_ELBOW.z,RIGHT_ELBOW.v,LEFT_WRIST.x,LEFT_WRIST.y,LEFT_WRIST.z,LEFT_WRIST.v,RIGHT_WRIST.x,RIGHT_WRIST.y,RIGHT_WRIST.z,RIGHT_WRIST.v,LEFT_PINKY.x,LEFT_PINKY.y,LEFT_PINKY.z,LEFT_PINKY.v,RIGHT_PINKY.x,RIGHT_PINKY.y,RIGHT_PINKY.z,RIGHT_PINKY.v,LEFT_INDEX.x,LEFT_INDEX.y,LEFT_INDEX.z,LEFT_INDEX.v,RIGHT_INDEX.x,RIGHT_INDEX.y,RIGHT_INDEX.z,RIGHT_INDEX.v,LEFT_THUMB.x,LEFT_THUMB.y,LEFT_THUMB.z,LEFT_THUMB.v,RIGHT_THUMB.x,RIGHT_THUMB.y,RIGHT_THUMB.z,RIGHT_THUMB.v,LEFT_HIP.x,LEFT_HIP.y,LEFT_HIP.z,LEFT_HIP.v,RIGHT_HIP.x,RIGHT_HIP.y,RIGHT_HIP.z,RIGHT_HIP.v,LEFT_KNEE.x,LEFT_KNEE.y,LEFT_KNEE.z,LEFT_KNEE.v,RIGHT_KNEE.x,RIGHT_KNEE.y,RIGHT_KNEE.z,RIGHT_KNEE.v,LEFT_ANKLE.x,LEFT_ANKLE.y,LEFT_ANKLE.z,LEFT_ANKLE.v,RIGHT_ANKLE.x,RIGHT_ANKLE.y,RIGHT_ANKLE.z,RIGHT_ANKLE.v,LEFT_HEEL.x,LEFT_HEEL.y,LEFT_HEEL.z,LEFT_HEEL.v,RIGHT_HEEL.x,RIGHT_HEEL.y,RIGHT_HEEL.z,RIGHT_HEEL.v,LEFT_FOOT_INDEX.x,LEFT_FOOT_INDEX.y,LEFT_FOOT_INDEX.z,LEFT_FOOT_INDEX.v,RIGHT_FOOT_INDEX.x,RIGHT_FOOT_INDEX.y,RIGHT_FOOT_INDEX.z,RIGHT_FOOT_INDEX.v
0,-0.46313815421741894,0.41039821858368586,0.31335984771561093,0.977880346720298,-0.40101984898011406,0.4056751060067243,0.360135774214968,0.9976220465037643,-0.40009783215205963,0.38615221082484463,0.3468236781342813,0.9793973329023398,-0.4781977367785587,0.32919886983810304,0.33982831302993793,0.9967130996219213,-0.4995460528074616,0.38668248868435157,0.3586242983183689,1.017155497098434,-0.4233722338327544,0.35699239636791374,0.31059418258235577,0.9976388996387513,-0.5045350032951417,0.3673936979116014,0.3136728431246746,1.0101508847856042,-0.37423621273307967,0.31822166674810354,0.3056314826822978,1.0406823668400231,-0.48796684200103546,0.36014665630856924,0.36458523167418655,1.049100764938339,-0.38688685247386306,0.37413314790775654,0.33523195177600057,0.971517394320491,-0.47719315890996444,0.4211120307581463,0.3287631287246712,0.9721328344166321,-0.3567737328404626,0.4040119883462723,0.35714038812726423,0.9723310751268325,-0.540269926492873,0.3808955243942418,0.3546983933866036,0.9594370990217588,-0.1472189270877983,0.40146994140832987,0.29126154276350513,0.07488729606287338,-0.6935905200912508,0.41013201408902183,0.26632769840968534,0.8991722366665226,-0.07196189550901819,0.34439146677650406,0.3355810744872505,0.032997388544007814,-0.8553975014981275,0.32189260673366976,0.29366832526550884,0.48013429482062214,-0.10987145390287048,0.3755706395429017,0.3584956516400524,0.028041935525197494,-0.8582535536719597,0.36031552149915047,0.2522753817334001,0.4421339905009711,-0.056762421078653355,0.3066249910135622,0.32841328157389515,0.00621498009263852,-0.7973507963504244,0.3180118842239731,0.25141281640283814,0.43221581963218947,-0.08653079613427671,0.3721533394679923,0.37962856743802237,-0.016107385641804875,-0.7627832987162598,0.3685974579651327,0.2932793170588074,0.29828477082011384,-0.322309847713676,0.5778787702815386,0.31430979929862074,1.019785991109449,-0.44574226316199594,0.590116586128364,0.3340938598615901,1.021561675125645,-0.29745519021678657,0.6573595204454622,0.2930304396226332,0.6194035362561273,-0.49586106806412555,0.6811295904586598,0.35030391795725985,0.9725693957607842,-0.26329635809848395,0.7368076162655501,0.285969366770435,0.6809849446122225,-0.45514183800282915,0.7930055625080007,0.25618347207408254,0.9143306880909202,-0.17641909383995372,0.8171095153038058,0.18785249945922253,0.8130213959706677,-0.4884321815473327,0.8585046582120148,0.3063715057907734,0.9756528803930558,-0.2516685619859189,0.8155643318381319,0.21790987813511592,0.6773529958157043,-0.5616492592266474,0.8225873963023931,0.30684224747308814,0.9574725700360313
1,-0.4525757067187952,0.39762652273140625,0.3071236646334029,0.977880346720298,-0.3938813263945498,0.39379104252443975,0.35494216532160267,0.9976220465037643,-0.39290969286859057,0.37405515014445523,0.34159536276649477,0.979412949319271,-0.4709919283131119,0.31685033716140626,0.33455526011685316,0.9967130996219213,-0.49128271601369355,0.3753711960360361,0.3538771412960791,1.017155497098434,-0.41537563467054345,0.34571823741329344,0.30608240218798183,0.9976429527545961,-0.49669865295742993,0.35619470041404283,0.3093816782251881,1.0101508847856042,-0.3773060653582223,0.30518777006345693,0.30073157155762026,1.0406841549793664,-0.48426674076523313,0.34770025280515127,0.36105154349014523,1.0491073214492643,-0.3789722207787369,0.3596170029168355,0.32870287367446566,0.9716930492086442,-0.46856104378942715,0.40671351553368945,0.32281922573121785,0.9722365464985413,-0.3543847086946275,0.3876573976918992,0.35398098770575287,0.9732933921167313,-0.5405708820677677,0.36217081464502,0.34789720273442465,0.9596306353033446,-0.12168251609195266,0.39328410771577915,0.29586185351913385,0.11098117741660928,-0.6946720046062141,0.3957626753381826,0.2657669644112916,0.9923426411007267,-0.019209373204022516,0.35165178934730484,0.346228348127879,0.06457108274333141,-0.8399442853943431,0.31741173815571266,0.29484612349362205,0.6957867606409347,-0.051975148173324916,0.3856808091920259,0.3713050235412722,0.05237822141434619,-0.840228162093747,0.3594118554797108,0.25379907532834367,0.6211808299766028,0.0002138305129285728,0.32214142115310396,0.3414990547527139,0.03445902472435812,-0.781022376222395,0.3171209139938705,0.25274217645216185,0.611054787909167,-0.034550642019681096,0.3872838891372581,0.3910749823457087,0.018326137551196928,-0.7472107320077186,0.3664612274963827,0.2946601787103637,0.5034374910330502,-0.32631683541964446,0.5696026653544756,0.3134258106021888,1.0198026804099858,-0.4388471656634899,0.5790623683129649,0.33278289484537704,1.02156835084586,-0.2759611822638276,0.654030779848691,0.2928847314921947,0.9076117228825618,-0.4718146525135306,0.686144248432903,0.34753808997934316,0.9951158063213921,-0.23462325074365914,0.7364943342526107,0.28535930831311246,0.8897245829407747,-0.4255474016387596,0.78840819665183,0.2545139571943137,0.9545108347851036,-0.14795829347977263,0.8167375823204074,0.188010920258641,0.9694529517186535,-0.4591755150205562,0.8497576169865815,0.3054503701952657,1.0217135617361341,-0.21907314763579602,0.8161708687033663,0.2144408872845938,0.8736929010776977,-0.5235536990741272,0.8211552755023748,0.3027790739811186,1.0323585940342916
2,-0.6309358402684889,0.4277778005119391,0.2914110187596366,0.977880346720298,-0.5701539821727691,0.42356606598482793,0.33981580715047527,0.9976220465037643,-0.5695810139034548,0.40410781204020724,0.3267582478563561,0.9794130685285606,-0.6479746357315063,0.34722525156913636,0.32004073521300025,0.9967130996219213,-0.6664310455275478,0.40454024887531526,0.3380538857192286,1.017155497098434,-0.5903230577034423,0.37468752528560784,0.2900967042923936,0.9976429527545961,-0.6714463916359338,0.38507014077315843,0.29324507152295076,1.0101508847856042,-0.5165227980697595,0.33515889280515615,0.2897351359115122,1.0406841549793664,-0.6184589885410332,0.37544701961080007,0.3482227432409464,1.0491074406585539,-0.5437476029470316,0.3905367633824574,0.31418934701460394,0.971696029440883,-0.6310406188347493,0.43690603972840686,0.30802284079471537,0.9722407188236754,-0.48582767770755586,0.42428516716211406,0.35055556938312643,0.9733737391778885,-0.6356631412451175,0.3873497537491002,0.3322434458489215,0.9596667557180784,-0.4523363499869645,0.39744230654924473,0.2956208156978063,0.5757748148115145,-0.8070326244493212,0.3974993758730031,0.24672388579808313,1.0361087224338872,-0.5340243262494031,0.3541935400167842,0.31447970235267036,0.462516926380321,-1.00989367388437,0.32930042099796725,0.27973785308544546,0.9916003211267747,-0.5970484934236872,0.3887939895909669,0.3333570013646872,0.3492896473028846,-1.0222630786222837,0.3730744619574482,0.23617145777042614,0.966914174531504,-0.5364714112243805,0.32145450742438997,0.3014068223727601,0.3506366164058386,-0.9609600436928425,0.3352553589458816,0.2361578199752496,0.9648107388369013,-0.5474442534623253,0.3867571926937003,0.3548180362727677,0.28634724054587735,-0.9164870854217475,0.3832947414715262,0.2786571026582015,0.8777331429457395,-0.3333115710226385,0.5842885345713945,0.31362957979356426,1.0198041109214604,-0.4267616248346009,0.5922353524361949,0.32860437252634667,1.0215691853108868,-0.30861283360279995,0.6566598215204439,0.29091959732141753,0.9886444162686395,-0.5772177009585727,0.6783120789001271,0.34476188088622195,0.9981607692043877,-0.2403207806963026,0.7393012957890182,0.2842594346947525,0.9673857395951325,-0.5505898141826432,0.8021437890170949,0.24536241625073,0.9606860547977684,-0.1500071237165989,0.8228996893112216,0.1872007966546723,1.0298270924580943,-0.5868768657440117,0.8721461348431794,0.2948487243519256,1.0322256157026566,-0.2607045544388637,0.8135901663985262,0.21146092230773986,1.0215475868610837,-0.6781358558135556,0.8294614807750493,0.29092654093151643,1.045467801187612
3,-0.4638939705310949,0.41239390130005554,0.3033881555537027,0.977880346720298,-0.4198583593906461,0.4088762926636762,0.3497430521697395,0.9976220465037643,-0.41869585981004065,0.38922575413501004,0.3363821873608349,0.9793881537870446,-0.4963754919971268,0.33217287339149354,0.3293693618012769,0.9967130996219213,-0.5058898082215134,0.39024002171009314,0.3498836290256584,1.017155497098434,-0.4302539641713679,0.36069706345928343,0.3023808622221195,0.9976360386158022,-0.5116324244968199,0.37131234567771476,0.3060113377349604,1.0101508847856042,-0.4158609166230073,0.32004154556470815,0.2948151591186567,1.0406783137241784,-0.48349555644375497,0.36282916334668563,0.36000585374017,1.0490993344268642,-0.4030270440777746,0.3754706463341939,0.3240338182888486,0.9715821845693617,-0.47436741790050097,0.42251250149178887,0.3201894124226228,0.9721631135761779,-0.3874676875230349,0.40562027067392437,0.34979684211385725,0.9731003326723037,-0.5578100351221082,0.3767602733490148,0.3496678064712753,0.9594921737135313,-0.3603803927555481,0.40568357256143656,0.28536358355111113,0.14458021881894928,-0.7517448390536575,0.4009821646741964,0.2801442713386189,1.0344381830547673,-0.48767327619827916,0.3702017084757228,0.3100362886101808,0.1330564619623866,-0.8990601844269815,0.34296874952160317,0.3013878368466707,0.8759546740778243,-0.5645109054769754,0.4111014749329927,0.3299956943856894,0.1124789183952995,-0.892627867655866,0.38815810277127566,0.25678763084095607,0.7308148121581519,-0.49722181713878105,0.3432278159399387,0.29815987287226087,0.10578578716217862,-0.8350524128697431,0.353458468448674,0.2555017978309795,0.7287571528307368,-0.49974581899150106,0.405940500579824,0.35134298043449064,0.05877506021512402,-0.8044861781249641,0.40060428794216824,0.29846664952359436,0.6610818820929257,-0.30946779518537704,0.5706898540751787,0.3088107170740299,1.019800773061353,-0.44193053781747693,0.5839628833924632,0.32691275147920495,1.0215650129857525,-0.3438397623161298,0.6439974107843599,0.30659188552774136,0.3299864184220361,-0.5762475561236071,0.6654163159797475,0.3571454803781282,0.9978731171887016,-0.3071868172448894,0.7363936024029403,0.30293733814566964,0.7044710223977144,-0.5388030926143749,0.7895655400394338,0.25291466201182455,0.9597696929889914,-0.21924354283034486,0.8210318585578952,0.20303322915443375,0.8055363638890637,-0.5680736932548172,0.8580575041669098,0.3003677201996658,1.0288906166181837,-0.3033831610074349,0.8180265997138033,0.23798505316742377,0.610883147659729,-0.6328615929454191,0.8248650685931951,0.30445409546730023,1.0404920054417623
4,-0.48563040531539764,0.37986615653000544,0.29450193830175964,0.977880346720298,-0.4349681401199232,0.3795798945008344,0.3408191401158405,0.9976220465037643,-0.43403436379195476,0.3610475391081546,0.3276311878010542,0.9783525230840722,-0.5121002699992521,0.30516264118133424,0.3207916051340895,0.9967130996219213,-0.5201187620004576,0.36039681053608186,0.3411288258550216,1.017155497098434,-0.4451111790858917,0.33195421363247063,0.29391048260856817,0.9973405187870057,-0.527344455841428,0.3436886922658495,0.2977989938821144,1.0101508847856042,-0.44772227712003226,0.30477298134046504,0.2867741243801776,1.0400879893223227,-0.4969537766465999,0.34718014267484115,0.3537607682897944,1.048858472057327,-0.4260692976076861,0.35145036191990253,0.31707981097850907,0.9641401870412858,-0.49663218010448956,0.3983187973635235,0.31300282084642156,0.9679766621410889,-0.4741647951142792,0.4084864494249161,0.3384047705877259,0.9701418561288773,-0.583724706858449,0.3819628945705571,0.3527871131926944,0.9590884714544675,-0.5356265945790741,0.40656661537378397,0.26193634825341916,0.05933248239474158,-0.8135197120356489,0.40694435768643394,0.28402567808712775,1.0134979388569216,-0.7523053053792058,0.3699001685778041,0.2853788423016422,0.060905002208873314,-0.9792027313403815,0.34628986072384316,0.29587805037524,0.6001195176370895,-0.8353637174704,0.40712265627797867,0.30601565836014566,0.0927295973518081,-0.9782212361206967,0.3878351052012379,0.25119342621621404,0.5107568478332006,-0.7720579027907399,0.3359473768015261,0.27562966146667295,0.09987819945513592,-0.9120284240246347,0.3542243583317154,0.24995842645149824,0.502979586397784,-0.7714388422523274,0.4007526017055411,0.3291652121520496,0.05532861534608252,-0.8837422594084181,0.4033323925335379,0.2927645155062066,0.42941972789523286,-0.3171143945603726,0.5646114916102739,0.29951155056363243,1.019718518651563,-0.4228601766431664,0.5817616242562632,0.3275309171193993,1.02144365792899,-0.3278665631039176,0.6559859910112581,0.287335316872359,0.2761853586991357,-0.5333808758032503,0.6600256719062612,0.3506965189212715,0.9561803238194084,-0.3289999451825923,0.7469058947880416,0.28837470739432886,0.8054389660660799,-0.46801566970398956,0.7838763363002675,0.2534306454106541,0.9113486081081625,-0.24897144556168227,0.830038835639194,0.1915592169419486,0.9421578987134351,-0.49918826578922215,0.8526955895322053,0.30243740710714323,0.9951425859556473,-0.31392395199436296,0.8241056774344454,0.22096511542747604,0.5416941952137451,-0.5412473885497379,0.8138748661662847,0.3053633203078151,0.8479300213795675
5,-0.5343415599080084,0.40565359945259766,0.2884387321240423,0.977880346720298,-0.47686403973716524,0.4048620092450208,0.3356994603491476,0.9976220465037643,-0.47614101382689367,0.38651284872805813,0.3225547975083973,0.9793913724378623,-0.5543180533579262,0.33079764522491334,0.3157570411706329,0.9967130996219213,-0.566422467298056,0.38395709610431916,0.33490904727736254,1.017155497098434,-0.49072487825905087,0.35453564192188414,0.28727861355937523,0.9976194685245545,-0.572275716756617,0.36522134702811754,0.29074751221448947,1.0101508847856042,-0.4479325710453121,0.3255984865971178,0.28424932455034685,1.0406796250263635,-0.521280471731123,0.36228476432362966,0.3471143885015465,1.0490343653640593,-0.45760000823451846,0.3746481022362935,0.3118454562783177,0.9713088972730666,-0.5361471575341434,0.4198496937887707,0.30669591607072283,0.9720741834461729,-0.4238015725009024,0.4250025090619858,0.3417628438805978,0.9729486984559953,-0.5710500448178901,0.3865871719238439,0.34221395257160525,0.9596526890219116,-0.3394457341344047,0.41958003786295023,0.2804961119495321,0.9099493882329928,-0.7267227537884827,0.3999765747121907,0.2753834112416208,1.03682445500835,-0.3953906958328496,0.38404572168983414,0.3195707494778809,0.7800556646310535,-0.8923091524062532,0.36306010436855746,0.3107336743859873,0.9947123988397872,-0.4548366230570956,0.4234707798283937,0.3417986381616439,0.6605100547888465,-0.891119273193062,0.4170173902716572,0.27205156875125147,0.9450150704131568,-0.4015574897775523,0.354357463433301,0.31220225523639455,0.6473235637515723,-0.8310826089325362,0.3811314447040909,0.27195007446752406,0.9343896606317929,-0.41341426871915427,0.4170185304508109,0.36447049879866067,0.6002909246469821,-0.8032387537166059,0.4241749745209189,0.3119427595855669,0.8736551719641416,-0.30438138339358956,0.5704290241496416,0.29838172892523956,1.0197988657127202,-0.42377096003674125,0.5792495268975596,0.3193406388480452,1.0215637016835675,-0.3219835666665075,0.6491555371385774,0.30180775249025765,0.929137403901391,-0.5540754612162366,0.6535903372237966,0.34821094483771775,0.9981965319912529,-0.2548487581521534,0.7579615431149154,0.31375673408785587,0.9388721888367709,-0.48528849609653013,0.7814025647281545,0.252686651593111,0.960756745906472,-0.1664217582237571,0.8409889241401706,0.2160704084373343,0.8855398638738049,-0.5162805438295739,0.8493576698201386,0.30206286399730964,1.0297540495024,-0.2727327673179793,0.8375808571066866,0.25000112581010814,0.9835459303287961,-0.6076038928473774,0.8050580279018194,0.30286255020679825,1.0456417275410663
6,-0.5113455737789391,0.41333386654816345,0.2840161240092948,0.977880346720298,-0.4568470492134629,0.4137934374390668,0.3318215275023189,0.9976220465037643,-0.4560033752392522,0.39548293053424105,0.31859981890263767,0.9793877961591758,-0.5340552167440428,0.33975878633437995,0.31173020903627263,0.9967130996219213,-0.545874399497367,0.39221910453289277,0.3315083840533214,1.017155497098434,-0.4704701966827235,0.36242226029766234,0.28408264320197685,0.9976301973606141,-0.5523270604956245,0.3727844313920549,0.2877422209329468,1.0101508847856042,-0.4395195783028592,0.33227769368368093,0.2799160558538261,1.040677598468441,-0.5107349829530783,0.36669091847936086,0.3441924173898945,1.0490491473159633,-0.43749288212811066,0.3809090635304677,0.3070045338193144,0.9709541304273636,-0.5161701287809395,0.4253146052496471,0.30259605309956195,0.9719317283451597,-0.4065826030085863,0.42095824450700836,0.33843240231876787,0.9722604436227738,-0.5584053787276766,0.3869474521991887,0.3400335426053924,0.9595796137274167,-0.30766569861132254,0.41981783059328165,0.28525760412737977,0.705137636390494,-0.6646707084063787,0.4008025460771657,0.2827537705186968,1.0342326662395818,-0.36134131893311094,0.3992718772093196,0.3284448166521979,0.691667340847179,-0.7515513672322857,0.38038371753536654,0.3301438908140087,0.9605406387575423,-0.41385948815321383,0.4418897475522401,0.3515571989199884,0.6280420338728614,-0.7616371872378956,0.43786786987447085,0.2927097182145983,0.8970894789443458,-0.36612261330396667,0.37403709919646944,0.3222802924231206,0.6252775937884986,-0.7005646354644295,0.3973046584244125,0.29399321211080603,0.8861672380320003,-0.38125524506168385,0.4362655855045219,0.37375617010645945,0.566794842817911,-0.6623897630863076,0.4388154846031637,0.33409026499550176,0.8261593299841611,-0.2944392032275155,0.5721886128680559,0.29110349862178975,1.019785395063001,-0.41452920370261304,0.581434752384315,0.3119769112733458,1.0215511847081649,-0.2841882731831959,0.650696376810666,0.29725788205830855,0.9125686835606621,-0.528933895900804,0.6495017566154286,0.3501308279045193,0.9981307284634209,-0.18865540845303694,0.7565781193096786,0.30626515024478984,0.9469718640152985,-0.4539847420436587,0.7756497628330129,0.25875559219306454,0.9605446129757164,-0.09573743792880529,0.8377365966980014,0.20867217165942217,0.9514330966962231,-0.4814308674298091,0.8439823441403596,0.3094817770674942,1.0306161710844313,-0.18134517885536575,0.8380517338004122,0.24158744297066861,0.9913780402569274,-0.5618839933804962,0.7957140461589605,0.30971278775000116,1.0451112462025656
7,-0.2526007512538073,0.40873107666931824,0.301109550199045,0.977880346720298,-0.20228840133729625,0.4063411879120893,0.3493157711514922,0.9976220465037643,-0.2015587585270115,0.3877061039141391,0.33625652262358074,0.9794111611799278,-0.27982766543939974,0.33170286096511725,0.32950913786494074,0.9967130996219213,-0.28959610691791426,0.38590965486019385,0.34813938621159624,1.017155497098434,-0.21384594692695305,0.35634047056568297,0.3004037737491237,0.9976421182895693,-0.29544183190870454,0.3668314472974352,0.30385547165089666,1.0101508847856042,-0.23376532078781895,0.32608259552198354,0.2919649146209475,1.0406824860493127,-0.30041280704225826,0.36275745895902084,0.35611905920278364,1.049103983589157,-0.20029163189261728,0.3769760808472859,0.3219573906809552,0.9716714723272354,-0.2771840217038444,0.42202979327607537,0.3174340628628149,0.9722330894291441,-0.28181244074251793,0.4256779488965806,0.3426307167704251,0.9712410849878249,-0.41947459512659113,0.3827815941688695,0.3499339630622491,0.9596774845541379,-0.27138853166282306,0.43783115890710916,0.27345910550401453,0.09385870012359479,-0.5522016341198392,0.4150991373590566,0.2793689308094232,1.032034804568134,-0.4344824559916305,0.40086031119026133,0.30724325242048656,0.3051742540322986,-0.6585512887992797,0.38089569163166476,0.31229905323775164,0.9433892234094895,-0.5009616058466974,0.44351051705297256,0.33048733805853264,0.3830089187243171,-0.6521634383044733,0.43777834369801827,0.27166748957362263,0.8941641425834144,-0.4398480600141789,0.370888603045499,0.3011600036354062,0.3990798742145239,-0.5910910838998104,0.39793754054263764,0.27167026517696324,0.8872215249887874,-0.45199231838917703,0.4323441661224265,0.3522048004954309,0.3382675055052126,-0.5658078133400622,0.4402760964233847,0.31245960549314505,0.8104688840841977,-0.2935717533331045,0.570926484514937,0.28976351155867525,1.0197895673881352,-0.4170271697445941,0.5712821144257884,0.31456120768104745,1.0215640593114361,-0.28781837648181696,0.6557019748789034,0.2899160448011559,0.9393817138035822,-0.5030802019649014,0.6483531155059621,0.34851942453605605,0.9981761472027397,-0.24559176770990027,0.7519424276669173,0.2934507485130605,0.9436738794152315,-0.46646832195773846,0.769777632439031,0.2605723105736707,0.9606829553562402,-0.15955168026632527,0.8313197990600619,0.1960888938814214,0.9947762830747021,-0.5000864447635291,0.8370516948598115,0.31167533184275087,1.0317585537061964,-0.20918206859095298,0.8391277168478976,0.22990460498825363,0.9066046189693908,-0.5606639907032654,0.7985900894786626,0.314062139179681,1.0439761949521078
8,-0.3555569778404466,0.41136139984093384,0.29130695436493675,0.977880346720298,-0.29485106046619863,0.40856640811548894,0.339172587887887,0.9976220465037643,-0.29395736558615676,0.39001545607363924,0.3259645522340374,0.9794130685285606,-0.372065250347962,0.33404919780670045,0.31909233923114455,0.9967130996219213,-0.3886977516200094,0.3872198841616465,0.3384018383608483,1.017155497098434,-0.3131212173162518,0.35706541205776365,0.2908121821491276,0.9976429527545961,-0.3948548818628791,0.3669519380868486,0.2943205291995008,1.0101508847856042,-0.28008617389831025,0.3268723570652575,0.28674380381442394,1.0406841549793664,-0.370484847458898,0.36031527784863876,0.34904536174812495,1.0491073214492643,-0.28635242841624997,0.3788163444524037,0.3143597110666935,0.971696267859462,-0.3695763286673618,0.4230622947351971,0.3089010135773417,0.9722416724979918,-0.2799301532278024,0.42765634626596527,0.3431274616189394,0.9731352609941422,-0.4849315688950728,0.3777553430912175,0.3447732910834913,0.9596814184606932,-0.2495270037224204,0.45753708031862345,0.2777262122963392,0.5118128320844637,-0.6709496435986465,0.4162693851522542,0.26310197645240097,1.0365671417568547,-0.3848659540647564,0.4171626881758113,0.31401831822363646,0.89494200811021,-0.8432165610475617,0.39089890074573946,0.29832610987852765,1.0097004636057174,-0.4475000579551973,0.4585360433381441,0.3413279275548336,0.8916428005316444,-0.848369907149023,0.44924994303845706,0.2580724906861701,0.9971430873618568,-0.3886204214738157,0.38370753557876314,0.31220863397726356,0.8830708414882361,-0.7830752653159093,0.410885785352742,0.25900451611704733,1.0001674988619258,-0.40481887919893034,0.445138213716497,0.36148910146153984,0.8383705917383517,-0.7513052575333894,0.45326272662472444,0.29972237748723723,0.9576496797537535,-0.2840530144582265,0.5730493039386125,0.29282670372394765,1.0198022035728276,-0.4281521139190305,0.5751477140580515,0.312559411743329,1.0215682316365704,-0.2912588125540263,0.6677558221918306,0.28912870403474794,0.994526202615075,-0.5324597549123441,0.6524334110687062,0.34589446001086277,0.9981998698513603,-0.25486277224821796,0.763379188092485,0.29026115084031856,0.9670472448174532,-0.49612577022167925,0.7775587803958791,0.2598367657159697,0.9607873826938866,-0.16782863659439015,0.8420365949813876,0.19180930482562783,1.0174182994855296,-0.5301010399428379,0.8463634304898469,0.31121382593016705,1.032949454508809,-0.2508517979379816,0.8481305812087069,0.22750688384030773,1.0178260516552429,-0.6029797937917881,0.7990848676349431,0.31309017877650586,1.0458498669606222
9,-0.49114259977880903,0.4152515565868445,0.28272501666018096,0.977880346720298,-0.43393064126730724,0.4136132824002332,0.3299751409222956,0.9976220465037643,-0.433069209056544,0.39524883329188565,0.31679112339601007,0.9794128301099814,-0.5111990260868461,0.33948165453849677,0.309961352058314,0.9967130996219213,-0.5251204406837099,0.3926663181826426,0.32918163134305606,1.017155497098434,-0.44938244855365483,0.3630154755247894,0.2814807448980228,0.9976428335453066,-0.530871122911326,0.37344774168143785,0.28487594457298365,1.0101508847856042,-0.4045486038559293,0.3344765686340899,0.27858097765746154,1.0406841549793664,-0.48372960068721893,0.36971072820226125,0.34139329146998276,1.0491072022399746,-0.41394688400144997,0.3838000378136861,0.30648518461537244,0.9716926915807753,-0.49393025091496356,0.4287922680513897,0.3012124917751053,0.9722391691029113,-0.36928179436660963,0.4337092277452286,0.33712259518052534,0.9730354232141433,-0.531067137843789,0.400639026534287,0.33877212460339307,0.9595957069815062,-0.352611697027981,0.46146797683923807,0.2711482098460252,0.9741837641866671,-0.6405144645735629,0.4532460504106618,0.2710764023065068,1.0371356508587224,-0.5128061250398936,0.42021519104637095,0.31308334114981373,0.9145884142839161,-0.702605636563085,0.3947260553821226,0.3100335854867561,1.0125558837183273,-0.5710875575273079,0.4580160822194459,0.33845088827198594,0.8867001449682899,-0.7010378710135481,0.44287996484898867,0.2724131157890526,0.9974839067206824,-0.5210631339365397,0.38811631233886446,0.3082590547819691,0.8684939891666114,-0.6381479014731473,0.4020544631595962,0.2715280332015183,1.0000903108469417,-0.5334367816003278,0.45072778829192117,0.35888015629784553,0.814676672556528,-0.6099332133347125,0.4479416113693686,0.31170811820484623,0.9639735537504879,-0.2867313632859212,0.5833196014659258,0.2948731334873978,1.0198027996192753,-0.4290159446181112,0.5912057418023448,0.313388446965553,1.021567039543675,-0.3096350202080066,0.6691133775812349,0.2949126782321479,0.9985740732510614,-0.5426930769531946,0.6658920206496999,0.3469065703039399,0.9981989161770439,-0.25886883219473417,0.7804154472668319,0.2966023027303296,0.9691592161957797,-0.49086492025212103,0.7947215802310842,0.2569055377004681,0.9607764154392477,-0.1700365359851509,0.8627915283386264,0.1980843126732745,1.021544192601527,-0.5216823657220532,0.8647019319432465,0.3066552034174887,1.0327778527365006,-0.2720161667099392,0.8621171687331209,0.24075820731965805,1.02910104507489,-0.6029590609687979,0.8091110245372564,0.30832867366049693,1.0458038521748556
10,-0.2981358501953119,0.4506759380813666,0.28325713881411785,0.977880346720298,-0.2332392702240833,0.45138644452677434,0.33165438777141076,0.9976220465037643,-0.2324719091042869,0.4335704177550052,0.3184980624531383,0.979412949319271,-0.3107929517430832,0.37827787078796266,0.3116907553973809,0.9967130996219213,-0.32599030488996145,0.42867709017246497,0.33052124571317126,1.017155497098434,-0.2501305053799511,0.39812284971607353,0.28268927241269043,0.9976429527545961,-0.33146080076004214,0.4076333002389482,0.2859404189609168,1.0101508847856042,-0.21802299730150748,0.37415105932432124,0.27974319440839607,1.0406841549793664,-0.3062876327176923,0.40177436140576767,0.3407061794619701,1.0491073214492643,-0.22907219984069022,0.41943026394894,0.30656089540271186,0.9716913802785904,-0.3121049461769927,0.4619286060469189,0.3005731505097524,0.9722380962193053,-0.22621715528995814,0.47066798180788116,0.3342777297934265,0.9693413657495438,-0.39217971147078273,0.4142365447399297,0.3374007295381637,0.9596687822760007,-0.1527112328119547,0.47000401762216654,0.2809828461363426,0.8443871996076571,-0.4925489149254856,0.4290495746664144,0.27924045918985163,1.0367175242756228,-0.21019855263015447,0.4107820705572505,0.32579183061444295,0.8590691910707202,-0.5822838066888264,0.39352078986011935,0.32477782615235073,1.012884484124974,-0.2554743606340723,0.4417804922383668,0.34983474127468944,0.820085815153379,-0.5916877511019605,0.44535692526959725,0.28769127655259863,0.9991828179107154,-0.2011548257001955,0.3702164116640444,0.32164126102028806,0.8039819151729285,-0.5257378848521633,0.405303452741658,0.2887777550746742,1.0003869631639888,-0.2292117623892343,0.4339989698753257,0.37210035632911564,0.7749910059954013,-0.4922952458854212,0.4506619971592398,0.3288021524103177,0.962693663213226,-0.29026554175043173,0.5900895566241594,0.29028606322904427,1.0197292474876225,-0.41626535293806793,0.5867762226258616,0.31087484950570077,1.0215162563863263,-0.3293007978509702,0.6785895028215608,0.2952319065436482,0.9799865435917902,-0.5082312532620351,0.6732914604614064,0.34217525262857285,0.9979562656681633,-0.31054971878900506,0.7731747346241622,0.31054492550834467,0.9521669452492769,-0.4483309635843983,0.7817637092708486,0.2649073862904605,0.9595204859691856,-0.22775048459175284,0.8505556484405551,0.21494722844572287,0.9893298490537059,-0.4795494545997049,0.8466118030446259,0.3203297240827862,1.0279077360258377,-0.3204750023539776,0.8555135701384554,0.24584891374154735,0.9932694148449401,-0.5495458824210995,0.7919293300296575,0.3118047693666119,1.0419275237065329
11,-0.06485951915800024,0.41551465148888306,0.30938343260838624,0.977880346720298,-0.014687242541835718,0.41539212341890996,0.35373506381400965,0.9976220465037643,-0.012891096189684967,0.3976014286211703,0.33980613532912046,0.9793930413679162,-0.09014370827669368,0.34233111418662904,0.3322047089455926,0.9967130996219213,-0.10035723284834275,0.39447660065143836,0.35592970149235076,1.017155497098434,-0.025765277668756213,0.36540362502468254,0.3090591515555738,0.9976056402469667,-0.10835954928405224,0.37622451346526664,0.31322550944385064,1.0101508847856042,-0.08035117135897815,0.34521652095991084,0.2930084811178645,1.0406706843296472,-0.12903694975511387,0.37840978768865036,0.3656343723178339,1.0490402066192472,-0.02752648033831516,0.3867237648492085,0.32995236087778335,0.9715457065267593,-0.09933125284060271,0.4316723048822918,0.32742448259204365,0.9719754185497801,-0.17382555019191037,0.45851164430826274,0.33248641681611457,0.9731551689454971,-0.25971575468261476,0.4027386299488225,0.3682872968227365,0.9596751003683471,-0.12084205879428203,0.49538120177476963,0.2424192055915109,0.15827910217361307,-0.37049800834850277,0.4323098593286611,0.2987204999378325,1.0207715532635075,-0.2245816032478186,0.4891593174139399,0.27823942627667214,0.07137999326221611,-0.5468252231498416,0.39068298292004067,0.33809528256847293,0.9983177049883163,-0.28275219673235613,0.5311084236424807,0.30080254046275146,0.05776964034821459,-0.5570002192960688,0.43802066638135256,0.3006744165218977,0.9758533215270484,-0.22961901186055578,0.4648020091791507,0.27641109123721147,0.03327893098890172,-0.4917663321449518,0.3971855981464737,0.3015564867293665,0.9753182032457759,-0.24862278816840566,0.5240285075530906,0.32808658836859134,0.006837066599258222,-0.45857850521243193,0.4451704126198263,0.3410083918005299,0.9054565149283138,-0.32696999376286917,0.5723857254283281,0.2873690717183365,1.0197567848335087,-0.3944016553807497,0.5711014527474741,0.3256057844789595,1.0215416479650008,-0.33062842498672523,0.6653064885240755,0.2801940529042493,0.964116687711053,-0.47830129950176786,0.6698792137573049,0.35813805818546135,0.9972935216229057,-0.38246379332034924,0.7568097429592757,0.28159707592547667,0.8963623349968965,-0.47308710198015747,0.76442138024558,0.2634542565322566,0.9522059231716392,-0.30781308272059876,0.8385376831237826,0.18732207914223262,1.008360062409724,-0.5036881379389312,0.8283866100209443,0.31534475882263957,1.0278559991941725,-0.34845712852870303,0.8345157478537569,0.2120149991163733,0.7201171826748352,-0.5776220259460663,0.7812128917362005,0.3113269675905957,0.9836286974888815
12,,,,,,,,,,,,,,,,,,,,,,,,,,,,,,,,,,,,,,,,,,,,,,,,,,,,,,,,,,,,,,,,,,,,,,,,,,,,,,,,,,,,,,,,,,,,,,,,,,,,,,,,,,,,,,,,,,,,,,,,,,,,,,,,,,,,
13,,,,,,,,,,,,,,,,,,,,,,,,,,,,,,,,,,,,,,,,,,,,,,,,,,,,,,,,,,,,,,,,,,,,,,,,,,,,,,,,,,,,,,,,,,,,,,,,,,,,,,,,,,,,,,,,,,,,,,,,,,,,,,,,,,,,
14,,,,,,,,,,,,,,,,,,,,,,,,,,,,,,,,,,,,,,,,,,,,,,,,,,,,,,,,,,,,,,,,,,,,,,,,,,,,,,,,,,,,,,,,,,,,,,,,,,,,,,,,,,,,,,,,,,,,,,,,,,,,,,,,,,,,
15,,,,,,,,,,,,,,,,,,,,,,,,,,,,,,,,,,,,,,,,,,,,,,,,,,,,,,,,,,,,,,,,,,,,,,,,,,,,,,,,,,,,,,,,,,,,,,,,,,,,,,,,,,,,,,,,,,,,,,,,,,,,,,,,,,,,
16,,,,,,,,,,,,,,,,,,,,,,,,,,,,,,,,,,,,,,,,,,,,,,,,,,,,,,,,,,,,,,,,,,,,,,,,,,,,,,,,,,,,,,,,,,,,,,,,,,,,,,,,,,,,,,,,,,,,,,,,,,,,,,,,,,,,
17,,,,,,,,,,,,,,,,,,,,,,,,,,,,,,,,,,,,,,,,,,,,,,,,,,,,,,,,,,,,,,,,,,,,,,,,,,,,,,,,,,,,,,,,,,,,,,,,,,,,,,,,,,,,,,,,,,,,,,,,,,,,,,,,,,,,
18,,,,,,,,,,,,,,,,,,,,,,,,,,,,,,,,,,,,,,,,,,,,,,,,,,,,,,,,,,,,,,,,,,,,,,,,,,,,,,,,,,,,,,,,,,,,,,,,,,,,,,,,,,,,,,,,,,,,,,,,,,,,,,,,,,,,
19,,,,,,,,,,,,,,,,,,,,,,,,,,,,,,,,,,,,,,,,,,,,,,,,,,,,,,,,,,,,,,,,,,,,,,,,,,,,,,,,,,,,,,,,,,,,,,,,,,,,,,,,,,,,,,,,,,,,,,,,,,,,,,,,,,,,
20,,,,,,,,,,,,,,,,,,,,,,,,,,,,,,,,,,,,,,,,,,,,,,,,,,,,,,,,,,,,,,,,,,,,,,,,,,,,,,,,,,,,,,,,,,,,,,,,,,,,,,,,,,,,,,,,,,,,,,,,,,,,,,,,,,,,
21,,,,,,,,,,,,,,,,,,,,,,,,,,,,,,,,,,,,,,,,,,,,,,,,,,,,,,,,,,,,,,,,,,,,,,,,,,,,,,,,,,,,,,,,,,,,,,,,,,,,,,,,,,,,,,,,,,,,,,,,,,,,,,,,,,,,
22,,,,,,,,,,,,,,,,,,,,,,,,,,,,,,,,,,,,,,,,,,,,,,,,,,,,,,,,,,,,,,,,,,,,,,,,,,,,,,,,,,,,,,,,,,,,,,,,,,,,,,,,,,,,,,,,,,,,,,,,,,,,,,,,,,,,
23,,,,,,,,,,,,,,,,,,,,,,,,,,,,,,,,,,,,,,,,,,,,,,,,,,,,,,,,,,,,,,,,,,,,,,,,,,,,,,,,,,,,,,,,,,,,,,,,,,,,,,,,,,,,,,,,,,,,,,,,,,,,,,,,,,,,
24,,,,,,,,,,,,,,,,,,,,,,,,,,,,,,,,,,,,,,,,,,,,,,,,,,,,,,,,,,,,,,,,,,,,,,,,,,,,,,,,,,,,,,,,,,,,,,,,,,,,,,,,,,,,,,,,,,,,,,,,,,,,,,,,,,,,
25,,,,,,,,,,,,,,,,,,,,,,,,,,,,,,,,,,,,,,,,,,,,,,,,,,,,,,,,,,,,,,,,,,,,,,,,,,,,,,,,,,,,,,,,,,,,,,,,,,,,,,,,,,,,,,,,,,,,,,,,,,,,,,,,,,,,
26,,,,,,,,,,,,,,,,,,,,,,,,,,,,,,,,,,,,,,,,,,,,,,,,,,,,,,,,,,,,,,,,,,,,,,,,,,,,,,,,,,,,,,,,,,,,,,,,,,,,,,,,,,,,,,,,,,,,,,,,,,,,,,,,,,,,
27,,,,,,,,,,,,,,,,,,,,,,,,,,,,,,,,,,,,,,,,,,,,,,,,,,,,,,,,,,,,,,,,,,,,,,,,,,,,,,,,,,,,,,,,,,,,,,,,,,,,,,,,,,,,,,,,,,,,,,,,,,,,,,,,,,,,
28,,,,,,,,,,,,,,,,,,,,,,,,,,,,,,,,,,,,,,,,,,,,,,,,,,,,,,,,,,,,,,,,,,,,,,,,,,,,,,,,,,,,,,,,,,,,,,,,,,,,,,,,,,,,,,,,,,,,,,,,,,,,,,,,,,,,
29,,,,,,,,,,,,,,,,,,,,,,,,,,,,,,,,,,,,,,,,,,,,,,,,,,,,,,,,,,,,,,,,,,,,,,,,,,,,,,,,,,,,,,,,,,,,,,,,,,,,,,,,,,,,,,,,,,,,,,,,,,,,,,,,,,,,
30,,,,,,,,,,,,,,,,,,,,,,,,,,,,,,,,,,,,,,,,,,,,,,,,,,,,,,,,,,,,,,,,,,,,,,,,,,,,,,,,,,,,,,,,,,,,,,,,,,,,,,,,,,,,,,,,,,,,,,,,,,,,,,,,,,,,
31,,,,,,,,,,,,,,,,,,,,,,,,,,,,,,,,,,,,,,,,,,,,,,,,,,,,,,,,,,,,,,,,,,,,,,,,,,,,,,,,,,,,,,,,,,,,,,,,,,,,,,,,,,,,,,,,,,,,,,,,,,,,,,,,,,,,
32,,,,,,,,,,,,,,,,,,,,,,,,,,,,,,,,,,,,,,,,,,,,,,,,,,,,,,,,,,,,,,,,,,,,,,,,,,,,,,,,,,,,,,,,,,,,,,,,,,,,,,,,,,,,,,,,,,,,,,,,,,,,,,,,,,,,
33,,,,,,,,,,,,,,,,,,,,,,,,,,,,,,,,,,,,,,,,,,,,,,,,,,,,,,,,,,,,,,,,,,,,,,,,,,,,,,,,,,,,,,,,,,,,,,,,,,,,,,,,,,,,,,,,,,,,,,,,,,,,,,,,,,,,
34,,,,,,,,,,,,,,,,,,,,,,,,,,,,,,,,,,,,,,,,,,,,,,,,,,,,,,,,,,,,,,,,,,,,,,,,,,,,,,,,,,,,,,,,,,,,,,,,,,,,,,,,,,,,,,,,,,,,,,,,,,,,,,,,,,,,
35,,,,,,,,,,,,,,,,,,,,,,,,,,,,,,,,,,,,,,,,,,,,,,,,,,,,,,,,,,,,,,,,,,,,,,,,,,,,,,,,,,,,,,,,,,,,,,,,,,,,,,,,,,,,,,,,,,,,,,,,,,,,,,,,,,,,
36,,,,,,,,,,,,,,,,,,,,,,,,,,,,,,,,,,,,,,,,,,,,,,,,,,,,,,,,,,,,,,,,,,,,,,,,,,,,,,,,,,,,,,,,,,,,,,,,,,,,,,,,,,,,,,,,,,,,,,,,,,,,,,,,,,,,
37,,,,,,,,,,,,,,,,,,,,,,,,,,,,,,,,,,,,,,,,,,,,,,,,,,,,,,,,,,,,,,,,,,,,,,,,,,,,,,,,,,,,,,,,,,,,,,,,,,,,,,,,,,,,,,,,,,,,,,,,,,,,,,,,,,,,
38,,,,,,,,,,,,,,,,,,,,,,,,,,,,,,,,,,,,,,,,,,,,,,,,,,,,,,,,,,,,,,,,,,,,,,,,,,,,,,,,,,,,,,,,,,,,,,,,,,,,,,,,,,,,,,,,,,,,,,,,,,,,,,,,,,,,
39,,,,,,,,,,,,,,,,,,,,,,,,,,,,,,,,,,,,,,,,,,,,,,,,,,,,,,,,,,,,,,,,,,,,,,,,,,,,,,,,,,,,,,,,,,,,,,,,,,,,,,,,,,,,,,,,,,,,,,,,,,,,,,,,,,,,
40,,,,,,,,,,,,,,,,,,,,,,,,,,,,,,,,,,,,,,,,,,,,,,,,,,,,,,,,,,,,,,,,,,,,,,,,,,,,,,,,,,,,,,,,,,,,,,,,,,,,,,,,,,,,,,,,,,,,,,,,,,,,,,,,,,,,
41,,,,,,,,,,,,,,,,,,,,,,,,,,,,,,,,,,,,,,,,,,,,,,,,,,,,,,,,,,,,,,,,,,,,,,,,,,,,,,,,,,,,,,,,,,,,,,,,,,,,,,,,,,,,,,,,,,,,,,,,,,,,,,,,,,,,
42,,,,,,,,,,,,,,,,,,,,,,,,,,,,,,,,,,,,,,,,,,,,,,,,,,,,,,,,,,,,,,,,,,,,,,,,,,,,,,,,,,,,,,,,,,,,,,,,,,,,,,,,,,,,,,,,,,,,,,,,,,,,,,,,,,,,
43,,,,,,,,,,,,,,,,,,,,,,,,,,,,,,,,,,,,,,,,,,,,,,,,,,,,,,,,,,,,,,,,,,,,,,,,,,,,,,,,,,,,,,,,,,,,,,,,,,,,,,,,,,,,,,,,,,,,,,,,,,,,,,,,,,,,
44,-0.25952469636286557,0.36438277716599177,0.3002648148511279,0.977880346720298,-0.2120236795605865,0.36043237920389837,0.3445879832994265,0.9976220465037643,-0.2105497949854262,0.34200722276484713,0.33080841265823546,0.9793521525816001,-0.2880084221693129,0.28615641869483827,0.3233737858670928,0.9967130996219213,-0.2985839530318795,0.3408232412382914,0.34652455422807854,1.017155497098434,-0.2238698355715543,0.31214320923221733,0.2996690882494763,0.9976154154087099,-0.30647365584669045,0.32352345746169603,0.30390409031758414,1.0101508847856042,-0.2696338708538489,0.2877670907326311,0.2849356420658079,1.04063539837994,-0.3202003912773061,0.32790346411267685,0.35693038972449764,1.049067624755844,-0.21577991128411528,0.33682686896374103,0.3212252916127259,0.9711929662389786,-0.2877021073073015,0.3830081522600689,0.3183219668618623,0.9714643087208313,-0.33418900880409946,0.40826728314607696,0.32947899300224115,0.9733829182931839,-0.4164164849387695,0.3821694842693486,0.36206813936948623,0.9591377644956968,-0.2619748505169903,0.41303503063409885,0.2244471956455187,0.9949830433996185,-0.5478553494654631,0.4506378405622579,0.27176585580817286,0.7053644559238773,-0.3613792269346727,0.36755541125930735,0.22586416190340294,0.9049042092286792,-0.7239176019142822,0.41899667930447054,0.29015136517838785,0.46826110918600916,-0.43281519430723875,0.4066773797791841,0.23767256057266495,0.8657405292608924,-0.7249589797426104,0.46963219835423775,0.2453781123760843,0.4579552387938941,-0.3709831867899072,0.3318158510465975,0.20991135049778273,0.8387764245837867,-0.6717475335880044,0.4324868662472122,0.2466823532341782,0.47328240660347237,-0.37365356953849,0.394424763999929,0.26690632671187803,0.7072698775316562,-0.6372533812057919,0.477350215276,0.2893438905330272,0.36587950763461274,-0.31981135629215357,0.5802118152873369,0.2948042349092974,1.019803157247144,-0.4263184811264134,0.5882814187203745,0.3369714943584312,1.021565966660069,-0.28548988063889263,0.6619922914606294,0.2752900902931213,0.9360589336712886,-0.45085575719185317,0.6597666897247121,0.3707633876650269,0.9913371102612116,-0.2733907292527072,0.7452302890141158,0.27307020458932174,0.9379679267708834,-0.39286799029412234,0.7531786329387563,0.26981965876696556,0.9404249459224938,-0.1922819396316064,0.8291653891746554,0.1774646547160459,1.0130046351445567,-0.4249827657110664,0.812857215871164,0.32053744094209935,1.021318442545918,-0.22945732423889045,0.8029853676047335,0.20443736655666825,0.8193896722225646,-0.44408546594433085,0.772582377591303,0.3189583045552374,0.9434962345105185
45,-0.29174827966397643,0.38035324568711,0.3076601381462331,0.977880346720298,-0.24085415039918506,0.37631758328066534,0.3522697549780811,0.9976220465037643,-0.23931160155879083,0.35745147167956576,0.3384270264186717,0.979412949319271,-0.31681447639284765,0.30111277378974793,0.33093485643450393,0.9967130996219213,-0.3321298648818182,0.3577708087012125,0.35342112639452755,1.017155497098434,-0.25708325302084845,0.3293595042361083,0.30631525222426365,0.9976428335453066,-0.339227570178143,0.341004724913936,0.310299151927688,1.0101508847856042,-0.2797343046800888,0.30163077347951833,0.2935397450255458,1.0406841549793664,-0.3508684932032323,0.34545396235982345,0.36274995512008823,1.0491072022399746,-0.24087332670437378,0.3516295334820973,0.32884314725683034,0.971690426604274,-0.3195159521077439,0.3992697894709148,0.32544058455981334,0.9722264137089294,-0.3201724092082366,0.4220192369863328,0.3376338339512439,0.9733831567117629,-0.4392969209573114,0.3936182848331609,0.3643496017228282,0.9595475464285276,-0.20256786585258013,0.42036914375513157,0.22401771919207095,1.0272804162176117,-0.5700369598613751,0.446485304170046,0.28239350999789364,1.0212570330952029,-0.262441142202492,0.3766576365629573,0.21307946514049284,0.9813468681298937,-0.7433709063978168,0.39783920597874123,0.3114401858667476,0.9315411909349715,-0.32591844808349113,0.41611333148893137,0.2220214914693038,0.9474297678091712,-0.7407977041015948,0.4442614813055927,0.2640860260077967,0.8549939369903052,-0.2647868901708123,0.3416771713037844,0.19457318116662264,0.9219824821323097,-0.688047287122105,0.4026494367237442,0.26854616938592585,0.8500405648104121,-0.2716890818243626,0.4030920542106528,0.25197619411065175,0.8265942040468539,-0.6549277389952677,0.44905940707516384,0.31126815507233324,0.7345273214316098,-0.31626785444321626,0.5907973617808672,0.30084512194338714,1.0197980312476933,-0.43840961506581144,0.5954278368150095,0.33737730564771695,1.021556191498326,-0.2756021848717071,0.6657038130861482,0.2779517333107489,0.8553056668599176,-0.48667918188108267,0.6608622230956838,0.36973820730540435,0.9956170813839531,-0.23454681934256955,0.7419944124539046,0.2726880958253943,0.8889662330452973,-0.4229502946992336,0.7613234884380239,0.26893738167660153,0.9493629604297874,-0.14807412185389446,0.8251388570014987,0.17579471065663782,0.9662129624379527,-0.45169414392937046,0.824884598721811,0.31834770957546016,1.0257371136770521,-0.19790432402420163,0.8013654325690279,0.2051497846809205,0.8230622720150451,-0.49175161872605394,0.77813604036825,0.3193877703701127,1.0117877198201193
46,-0.6216946803123649,0.38569924588165955,0.2896740200459264,0.977880346720298,-0.5398142827437356,0.3849463688908643,0.3373057743630409,0.9976220465037643,-0.5399848525785168,0.36704007088458285,0.32478717899099774,0.9794130685285606,-0.6190029606145345,0.31163484133659247,0.3186164035142509,0.9967130996219213,-0.6331851285059409,0.36396411872356665,0.3313208072635447,1.017155497098434,-0.5590565299947682,0.33463236953151854,0.2847545166705508,0.9976429527545961,-0.6398952249633565,0.34541776340613883,0.28746062448748116,1.0101508847856042,-0.43847844154434357,0.31105841034131954,0.2922637401400293,1.0406841549793664,-0.5487387089085825,0.34662781623403005,0.34444310667686273,1.0491074406585539,-0.5243652237609429,0.3581534704690205,0.31676448956657305,0.9716976983709366,-0.6117705459628184,0.40360629559922595,0.30664801094149235,0.9722420301258605,-0.37336785886238333,0.44332405299394695,0.36764612651798273,0.9733904284784257,-0.5780280444782984,0.3912135950443425,0.3316848190174968,0.959681776088562,-0.15720763433051876,0.43490179923265543,0.3188179264422396,0.40027722331600046,-0.7079113528505706,0.4147830837301351,0.21553313932394141,1.0369617245052678,-0.05962032280416348,0.381579400698318,0.36450404321264884,0.2786897049867358,-0.9220619969583345,0.37204261374317604,0.22598356900822283,0.9740056856401719,-0.09050002472060356,0.4146552528661134,0.3902833551252,0.14322832878615338,-0.940774315656036,0.4147410292830402,0.17885302677605708,0.8637455081687415,-0.0399968984118385,0.3463857892294283,0.357988267632074,0.14855660503804072,-0.8903523479250331,0.3779912037964218,0.18060638926219935,0.8742167451731135,-0.0763244881696095,0.4132785178050895,0.40842793243680614,0.12366889450801263,-0.8381646681705035,0.428300390799758,0.22637561752353003,0.737365933034393,-0.32739807413892763,0.5953164667384477,0.3279082067501545,1.0197945741782963,-0.44247809343822697,0.5992349642907481,0.3218335868804557,1.0215681124272808,-0.4113550192902081,0.6525532999139986,0.3494786428057438,0.9951223086674738,-0.5440648258094123,0.6921128787467763,0.3047856453213659,0.9981992738049126,-0.347472908881213,0.7410776930172591,0.3686944384142,0.9602526133362825,-0.4042598123063834,0.7462114460109609,0.1763731718406474,0.9607528119999168,-0.25869985249972965,0.8264786502067599,0.271630597059058,1.0061116559995067,-0.4336752294827476,0.7963815383809296,0.22621237252274856,1.0175589391813553,-0.37861146564037096,0.8138569567885409,0.3081346239281952,1.0312552761463623,-0.5362565740879356,0.772870029606989,0.20342978701036515,1.045760519598104
47,-0.5291374874397886,0.40169343705139826,0.2980118060204401,0.977880346720298,-0.4555172188351853,0.39846890445337957,0.3439437486620962,0.9976220465037643,-0.4548791102207736,0.3797412544420932,0.3308790880462088,0.979410803552059,-0.533224935374252,0.32356894291816596,0.3241610615069546,0.9967130996219213,-0.554853311891428,0.3787868700072123,0.3407438779696195,1.017155497098434,-0.4783013614124455,0.34940791393650206,0.29234653529301896,0.9976409261966738,-0.5588834131216907,0.3601147786916307,0.29489504129441946,1.0101508847856042,-0.3931067203376391,0.3193106734104723,0.29256028725979766,1.040683916560787,-0.5122546644816043,0.35928307441274093,0.34701666886750826,1.0490979039153898,-0.44401829997501274,0.3707804760461079,0.3221632895752155,0.9716844661397965,-0.5355481462265363,0.4170883298056164,0.31376792339133386,0.9722335662663025,-0.35975473358568877,0.43495523304193584,0.3537279525886035,0.9733872098276077,-0.5600290864872928,0.3962242893097081,0.33619631812310014,0.9596760540426635,-0.13423412560234937,0.44876157787530985,0.2794695211131214,0.04635419125573488,-0.7177638438228363,0.4159129791788198,0.22583992581600704,1.0226145884846074,-0.06765918815952818,0.39296412626899674,0.3195610236457567,0.013931668282001815,-0.9284932255945989,0.37078275036655856,0.25578850192951,0.8221576078661239,-0.10662871901434981,0.4207858886044862,0.3434013628808765,0.007939535891000195,-0.9392413936806532,0.4153874714579517,0.21204466381704534,0.7493101930366004,-0.05899477566727444,0.3500154438753481,0.31248549800459574,-0.015370740265777881,-0.8701299972025921,0.37902731133655243,0.21504791064282724,0.7835108735910823,-0.08629117709531463,0.4152953899726768,0.36380683948803927,-0.038801686734802075,-0.8362124746204505,0.4287538927395315,0.2578208942511451,0.5991973596548764,-0.32411984024850893,0.5950983137385698,0.321299521181426,1.0197697786460698,-0.4415176214776827,0.6046451586877207,0.32502053695998556,1.021559886986302,-0.4150303981236986,0.6392733254533968,0.34047618934549145,0.482214624818139,-0.5096437990575459,0.6991272725532338,0.32026428787667427,0.9903152482311821,-0.3769237685204951,0.7393964248020797,0.36907875134303114,0.9583225553338105,-0.35195928445966596,0.7294179565547841,0.18440961074849557,0.9531190067249534,-0.2923985662726326,0.826326837176517,0.2739759305347944,1.0047542794240367,-0.3755741052392163,0.7741369061368195,0.23205145266739519,1.0119156906233107,-0.4019376030160422,0.8135750268187533,0.3145007284574228,1.0233735155491333,-0.44353104934789317,0.7653923288966924,0.21371931889380696,1.0359270645123495
48,,,,,,,,,,,,,,,,,,,,,,,,,,,,,,,,,,,,,,,,,,,,,,,,,,,,,,,,,,,,,,,,,,,,,,,,,,,,,,,,,,,,,,,,,,,,,,,,,,,,,,,,,,,,,,,,,,,,,,,,,,,,,,,,,,,,
49,,,,,,,,,,,,,,,,,,,,,,,,,,,,,,,,,,,,,,,,,,,,,,,,,,,,,,,,,,,,,,,,,,,,,,,,,,,,,,,,,,,,,,,,,,,,,,,,,,,,,,,,,,,,,,,,,,,,,,,,,,,,,,,,,,,,
50,,,,,,,,,,,,,,,,,,,,,,,,,,,,,,,,,,,,,,,,,,,,,,,,,,,,,,,,,,,,,,,,,,,,,,,,,,,,,,,,,,,,,,,,,,,,,,,,,,,,,,,,,,,,,,,,,,,,,,,,,,,,,,,,,,,,
51,,,,,,,,,,,,,,,,,,,,,,,,,,,,,,,,,,,,,,,,,,,,,,,,,,,,,,,,,,,,,,,,,,,,,,,,,,,,,,,,,,,,,,,,,,,,,,,,,,,,,,,,,,,,,,,,,,,,,,,,,,,,,,,,,,,,
52,,,,,,,,,,,,,,,,,,,,,,,,,,,,,,,,,,,,,,,,,,,,,,,,,,,,,,,,,,,,,,,,,,,,,,,,,,,,,,,,,,,,,,,,,,,,,,,,,,,,,,,,,,,,,,,,,,,,,,,,,,,,,,,,,,,,
53,,,,,,,,,,,,,,,,,,,,,,,,,,,,,,,,,,,,,,,,,,,,,,,,,,,,,,,,,,,,,,,,,,,,,,,,,,,,,,,,,,,,,,,,,,,,,,,,,,,,,,,,,,,,,,,,,,,,,,,,,,,,,,,,,,,,
54,-0.8809798963647673,0.6448136007305213,0.244543981115415,0.977880346720298,-0.824152681205486,0.6738445984898633,0.2919592618119868,0.9976220465037643,-0.8220660005653413,0.659822884195206,0.2776910995177047,0.9770220878080406,-0.8987335055815268,0.6084147421258533,0.2696926913562416,0.9967130996219213,-0.8936759356142789,0.6447670540854289,0.296712485596527,1.017155497098434,-0.8202357877355866,0.6135801699293915,0.2507896827898005,0.9911173766399417,-0.9041296846685851,0.6222034947217516,0.255991288575575,1.0101508847856042,-0.7565742500117888,0.6121470712967486,0.241743770741318,1.03849654530682,-0.7305421019529499,0.619406684909262,0.3265509380835282,1.0421091997108305,-0.7841703226842595,0.6060586056237447,0.2674576458195127,0.9705874426527054,-0.8368476668399345,0.6414067149298229,0.269972680497027,0.9691948022663633,-0.753133265485662,0.6552705404207048,0.29345836606193143,0.9729627651521621,-0.6286154812405744,0.5723242155429997,0.3427816166876013,0.9578910737455748,-0.6830111962208096,0.5365613355943498,0.20911929015075667,1.0060678980024325,-0.5822777177867573,0.4779592388204671,0.25089742820421723,0.8698082468365055,-0.739813826279662,0.3980567471186061,0.23922802758083525,0.6494683252298084,-0.6942062060499959,0.3616775746329923,0.267313969119522,0.5445030196436202,-0.8255935485230185,0.4078465844910982,0.25514756085222196,0.4070131396868415,-0.6923804464437818,0.3902072210516865,0.22434458926556683,0.43114247677187567,-0.7758532878014532,0.34013883502677644,0.23061084759667078,0.4426523298591314,-0.6648305062476562,0.3526537759418838,0.22384634014846377,0.46139724043525954,-0.7589619432283267,0.4097083187923331,0.2858397830643688,0.3720484677339877,-0.6145272242080759,0.4058962267239065,0.2653518045675484,0.42186474976298494,-0.3929587672225785,0.4937103063361498,0.27823628666887784,1.017520418561536,-0.31604977595924044,0.47759979549993076,0.3252672467287886,1.0149158764424788,-0.5198448315157082,0.4508197107416352,0.27523857514613576,0.66675149911242,-0.31706278563832485,0.4349400259921833,0.3361886738611882,0.1778858350317574,-0.22746510873501233,0.3477195518334059,0.3056151435090619,0.241199553519922,0.08409418877577038,0.35073966451872757,0.25836988127839133,0.023978394241928748,-0.11713810255150872,0.40275766455574363,0.21288175168059856,0.36073217229970816,0.08241500649721525,0.38729319499904785,0.31333921935820014,0.17257504852869857,-0.2246065408996563,0.3453595314707766,0.2334718424735628,0.4737437378792266,0.018830318634826725,0.2885568694259434,0.29538282483929706,0.17660155126867422
55,,,,,,,,,,,,,,,,,,,,,,,,,,,,,,,,,,,,,,,,,,,,,,,,,,,,,,,,,,,,,,,,,,,,,,,,,,,,,,,,,,,,,,,,,,,,,,,,,,,,,,,,,,,,,,,,,,,,,,,,,,,,,,,,,,,,
56,,,,,,,,,,,,,,,,,,,,,,,,,,,,,,,,,,,,,,,,,,,,,,,,,,,,,,,,,,,,,,,,,,,,,,,,,,,,,,,,,,,,,,,,,,,,,,,,,,,,,,,,,,,,,,,,,,,,,,,,,,,,,,,,,,,,
57,,,,,,,,,,,,,,,,,,,,,,,,,,,,,,,,,,,,,,,,,,,,,,,,,,,,,,,,,,,,,,,,,,,,,,,,,,,,,,,,,,,,,,,,,,,,,,,,,,,,,,,,,,,,,,,,,,,,,,,,,,,,,,,,,,,,
58,,,,,,,,,,,,,,,,,,,,,,,,,,,,,,,,,,,,,,,,,,,,,,,,,,,,,,,,,,,,,,,,,,,,,,,,,,,,,,,,,,,,,,,,,,,,,,,,,,,,,,,,,,,,,,,,,,,,,,,,,,,,,,,,,,,,
59,,,,,,,,,,,,,,,,,,,,,,,,,,,,,,,,,,,,,,,,,,,,,,,,,,,,,,,,,,,,,,,,,,,,,,,,,,,,,,,,,,,,,,,,,,,,,,,,,,,,,,,,,,,,,,,,,,,,,,,,,,,,,,,,,,,,
60,,,,,,,,,,,,,,,,,,,,,,,,,,,,,,,,,,,,,,,,,,,,,,,,,,,,,,,,,,,,,,,,,,,,,,,,,,,,,,,,,,,,,,,,,,,,,,,,,,,,,,,,,,,,,,,,,,,,,,,,,,,,,,,,,,,,
61,,,,,,,,,,,,,,,,,,,,,,,,,,,,,,,,,,,,,,,,,,,,,,,,,,,,,,,,,,,,,,,,,,,,,,,,,,,,,,,,,,,,,,,,,,,,,,,,,,,,,,,,,,,,,,,,,,,,,,,,,,,,,,,,,,,,
62,-0.7701414154443946,0.3565526937957831,0.18114811499612568,0.977880346720298,-0.7034277643372966,0.3566587495385236,0.2309788073930994,0.9976220465037643,-0.705603272594226,0.33920872508799776,0.22006846293631038,0.979412949319271,-0.7867298820830871,0.2842581299680317,0.21550834342114966,0.9967130996219213,-0.7742327903059081,0.33566764808147675,0.2254619660323402,1.017155497098434,-0.6960893712646501,0.30678278471363213,0.17592426536509406,0.9976428335453066,-0.775305149826182,0.31800093811164415,0.17752952749087117,1.0101508847856042,-0.6239481886648356,0.2893602036781878,0.19411114388854947,1.0406840357700768,-0.6197103307139562,0.3240931775907653,0.24232733885629956,1.0491073214492643,-0.6771707092946644,0.3313372215752827,0.2125801684667401,0.9716943605108291,-0.7315943095252815,0.3763942420618572,0.20117535719126733,0.9722391691029113,-0.5719818429044227,0.41717066735475616,0.2747783391071811,0.9733473939248977,-0.5424827155761609,0.3692098251697698,0.24513436846787584,0.959016707462158,-0.5018798106662666,0.4617438271352586,0.2122638647706462,0.9369982144506441,-0.4685487549184489,0.4379867845110036,0.15145033414170805,0.9945768020008426,-0.6419576426614664,0.4333685950437922,0.23361119255447918,0.5971375332795825,-0.5608723499200271,0.44405718397938204,0.17594546534133024,0.6914051039942062,-0.7242522913249739,0.4724734570306184,0.2522623627360492,0.47049280162836987,-0.5630449011718822,0.5066494543757374,0.13132184781604117,0.4651004051909888,-0.6801417535289146,0.40096471936897005,0.22101136901286567,0.4901733548015295,-0.5352403015342265,0.468475375902211,0.13469154692716961,0.46408228067077895,-0.6623200016565205,0.4623976326808829,0.27480823749728706,0.4144949618364657,-0.485722272871596,0.50715259726834,0.1795589805286593,0.41190052208659333,-0.2841845235164313,0.5313382119433733,0.25733813307108777,1.0198032764564335,-0.31180779728841607,0.5319082993661265,0.25943765648380235,1.0215658474507796,-0.33745985630054925,0.5957653322321138,0.2589234639680743,0.9582513522465753,-0.42522497711768725,0.6152041115234181,0.26940959414908155,0.988295544842968,-0.20779161294137036,0.6635718660671859,0.26919608977319714,0.8580426280800875,-0.22529438078270272,0.6791860825656789,0.16821656882795333,0.8907119303661581,-0.11552273645921154,0.739741315478519,0.17228506848056366,0.755426679421748,-0.25067626024247863,0.731060033311197,0.22073047281213648,0.6354217598066603,-0.24684227229330266,0.7500004146780977,0.1993016244805394,0.8647681784061889,-0.3486381659454582,0.7121585265781194,0.1998766202316398,0.925822682474233
63,-0.6747289271162448,0.35380825753174494,0.18908398860435646,0.977880346720298,-0.6101217511729295,0.35502671475992864,0.23949334591071642,0.9976220465037643,-0.6122940862088654,0.33820846974169955,0.2285517705607616,0.9794130685285606,-0.6934239383851625,0.28394985474525336,0.22397344615019044,0.9967130996219213,-0.682893773938069,0.3324846706435038,0.23415593105268767,1.017155497098434,-0.6049519427373051,0.30321437384021904,0.18473422607063308,0.9976429527545961,-0.6843367864918515,0.31432082813392204,0.18642528460623722,1.0101508847856042,-0.5421128957956999,0.28979251616674373,0.20126578454950622,1.0406841549793664,-0.5450399900648965,0.32072405484715866,0.2498877099992106,1.0491073214492643,-0.5864261255534038,0.3292011401181447,0.2195651744800895,0.9716974599523573,-0.6425257603490132,0.3725652396814861,0.20832015076018268,0.9722415532887023,-0.5004682197056579,0.4125031170293625,0.277531878129267,0.9733278436014113,-0.528329626520966,0.3648666135189214,0.2496352275180644,0.9574719934881591,-0.46979303695727903,0.42662289288728794,0.21071236123295994,0.5594682953031527,-0.581886679623672,0.4079824917844869,0.1714018864496587,0.8939404389713627,-0.6101288113089293,0.35942599336303666,0.22641094298259168,0.5937894211732593,-0.6782410877936383,0.3210098619445462,0.21890064775954146,0.6666710837610519,-0.6854702621800957,0.39072890537198807,0.24333714864580946,0.556045345030088,-0.6857875120672989,0.360211094161504,0.18185424165175673,0.5476785874114478,-0.6281425673965668,0.31746567518905366,0.21273252026397665,0.5652127415507971,-0.629800973750205,0.3172329409237259,0.18147823224931997,0.5649024346224238,-0.6234978613953001,0.380345789276113,0.2662683552081032,0.5144358578707064,-0.5928836470753407,0.3661479752857657,0.2223394505827444,0.5360343771910397,-0.2720641815173436,0.5372549266116472,0.25473214404618494,1.0198035148750129,-0.31627471188283024,0.5401430982743601,0.25597715604356686,1.0215637016835675,-0.3636931092709033,0.5914757051569185,0.2584736099023792,0.9603317331631708,-0.41894987592307326,0.6227224029968068,0.2691514473205755,0.9865258233349421,-0.2548504634222591,0.6597361283619552,0.27355983735333017,0.8068197076623018,-0.20066730097230423,0.6752816207050222,0.16809530770222256,0.7940698533970115,-0.16362875950461683,0.7345930834953341,0.1779072782164264,0.6511637313855542,-0.22092813603781813,0.7225218467610566,0.22019135534733503,0.5161333152876173,-0.2745118171464384,0.7510266874518404,0.20381371826231995,0.7766571354298095,-0.291113997719121,0.7134033695842534,0.20245335018092048,0.8255516959172262
64,-0.46110396662803466,0.3491783177372046,0.20479455678128552,0.977880346720298,-0.3929933045563805,0.35228642101870244,0.25545828021628103,0.9976220465037643,-0.39483282338262543,0.33610928355967745,0.24422444827166817,0.9794038894132652,-0.47556176180141274,0.28243720807014344,0.2393549854158728,0.9967130996219213,-0.473013191133792,0.32789076185673005,0.25023016890815425,1.017155497098434,-0.39545228037348157,0.29776788021457823,0.20106773512705986,0.9976400917316469,-0.4752724289049492,0.30777111213813346,0.20303067116959456,1.0101508847856042,-0.3243355941024204,0.2881139599629015,0.2164717150785875,1.0406783137241784,-0.36314434628102543,0.3110105839113372,0.2649811144038443,1.0491021954498136,-0.3734163355375577,0.3256248614316212,0.23435942937388934,0.9716396434469253,-0.44086996003004125,0.3665395677225628,0.2236979827743038,0.9722023334324401,-0.30161772882553056,0.40607606739252167,0.2839847406497926,0.9733069819757402,-0.373229747171853,0.3452022663471379,0.2641036179551177,0.9588310389936827,-0.18290446408764552,0.40464168337076273,0.18921572902685066,0.7545801660688387,-0.3746402447699382,0.36531173520604143,0.150392655359955,0.9979390404079777,-0.2266491865494093,0.3384968356291194,0.17745555497089968,0.5717558489762988,-0.48522952033755845,0.320848333357205,0.1487337120623542,0.8965591057070053,-0.29767174862058315,0.3722612108510377,0.1853157850165886,0.4836788987734504,-0.48332534130531585,0.36193345977925606,0.09780371703674202,0.8463155603156531,-0.23218537776837767,0.29405681522086824,0.15461960057831853,0.4839633256763159,-0.44766525263304735,0.32505959702686,0.10012405047544168,0.8687958815447261,-0.23203273357237225,0.3586427844390769,0.21231024883648328,0.3501004878069247,-0.40204112411016524,0.3763076465923758,0.1470273840041005,0.8039213734602658,-0.23468060745140112,0.5414721936480852,0.25204688496331085,1.0197906402717412,-0.3461150689908048,0.5376552600060801,0.25315228061136513,1.0215031433644757,-0.3629015001049697,0.5887774624925813,0.25974825652188005,0.5644429873784113,-0.4890724370767065,0.6011760391662404,0.26749296204992906,0.9778886930744743,-0.25933291129804215,0.6577667908985763,0.26196689244563015,0.7223039572541292,-0.31534560045965876,0.6754293806194204,0.15624706232591293,0.8561819463688133,-0.16993623058283408,0.7344153424446139,0.16393097798890707,0.7832790358556164,-0.3366321602085592,0.726909106244394,0.206503850528364,0.7185943195448194,-0.2759869928193128,0.7398291800704012,0.19251991734700763,0.8482659768490295,-0.4118034795385848,0.7116306082393438,0.19259433386384922,0.9265187455159201
65,-0.412353286716058,0.34322363491020874,0.2101627977984409,0.977880346720298,-0.3431887701672362,0.3461667227326459,0.25688136664241074,0.9976220465037643,-0.34355322366816066,0.32873902022158846,0.24452061502668587,0.9794130685285606,-0.423314660703063,0.27385103978095887,0.23880649452822003,0.9967130996219213,-0.43403061530065135,0.32495776629894507,0.2537593849755232,1.017155497098434,-0.3573077227864447,0.2958067681921783,0.2052562683099263,0.9976429527545961,-0.43789835341629363,0.30668365519652885,0.20785474421551806,1.0101508847856042,-0.3023885738506104,0.27825442784505794,0.21509054663010532,1.0406841549793664,-0.37863486323548357,0.3109822419027465,0.26515803575881836,1.0491074406585539,-0.3337833073881443,0.3168028971677052,0.23759316034126185,0.9716974599523573,-0.41467527519911396,0.3622865080969372,0.2297497667355573,0.9722415532887023,-0.26545841649095053,0.39811831087320415,0.279976109531415,0.9731029552766739,-0.4390573304076821,0.3487521401760259,0.26751698256735934,0.9581984548986816,-0.09019677537005463,0.39425369647234043,0.2158799528496971,0.22799513849334577,-0.5881789298872203,0.3463623159460164,0.179149289581574,0.9657358429287296,-0.042986761290341506,0.3174918905893702,0.24675544007239966,0.14094617232911252,-0.7568238785319309,0.27123178791843844,0.20776371321923534,0.6981975897081649,-0.08389852084184266,0.3421661402505281,0.2661498500192355,0.1123132472851463,-0.7695242148842759,0.3068547446932728,0.16584914553501628,0.5843899225936378,-0.030977618955482414,0.2711222890158054,0.23560404704154747,0.10230616485773902,-0.7045238372611063,0.2712375862713211,0.1649570477485025,0.5695194104067256,-0.05625771753052612,0.3381835497245689,0.28817016573319476,0.07830159399760613,-0.6660624079257511,0.32385514195751863,0.20755257653407616,0.48069197115657014,-0.22803587885032472,0.5451003283755632,0.2500962504358531,1.0197974352012456,-0.3557957113085938,0.5471186298524241,0.25724969121357427,1.0215631056371197,-0.29103171234659564,0.5981790223222933,0.25953027265820794,0.4665468286831902,-0.436380336355417,0.6187951125572011,0.26498467237203555,0.9883839981358149,-0.22167064142118,0.6565457897503524,0.2631985880378804,0.6269184058014925,-0.2826453649270798,0.6777643925784963,0.15788207167383958,0.9305152564960716,-0.13193796398871044,0.7308647533599887,0.1665578849331689,0.6959658606542004,-0.30701356933812535,0.7292782716649262,0.20745682045503114,0.8916294643507277,-0.24319587574427629,0.7337542150702486,0.19353765218107408,0.7686878752140502,-0.39114411768498686,0.7035783187534124,0.1917583818520351,0.9943644476872456
66,,,,,,,,,,,,,,,,,,,,,,,,,,,,,,,,,,,,,,,,,,,,,,,,,,,,,,,,,,,,,,,,,,,,,,,,,,,,,,,,,,,,,,,,,,,,,,,,,,,,,,,,,,,,,,,,,,,,,,,,,,,,,,,,,,,,
67,,,,,,,,,,,,,,,,,,,,,,,,,,,,,,,,,,,,,,,,,,,,,,,,,,,,,,,,,,,,,,,,,,,,,,,,,,,,,,,,,,,,,,,,,,,,,,,,,,,,,,,,,,,,,,,,,,,,,,,,,,,,,,,,,,,,
68,,,,,,,,,,,,,,,,,,,,,,,,,,,,,,,,,,,,,,,,,,,,,,,,,,,,,,,,,,,,,,,,,,,,,,,,,,,,,,,,,,,,,,,,,,,,,,,,,,,,,,,,,,,,,,,,,,,,,,,,,,,,,,,,,,,,
69,,,,,,,,,,,,,,,,,,,,,,,,,,,,,,,,,,,,,,,,,,,,,,,,,,,,,,,,,,,,,,,,,,,,,,,,,,,,,,,,,,,,,,,,,,,,,,,,,,,,,,,,,,,,,,,,,,,,,,,,,,,,,,,,,,,,
70,,,,,,,,,,,,,,,,,,,,,,,,,,,,,,,,,,,,,,,,,,,,,,,,,,,,,,,,,,,,,,,,,,,,,,,,,,,,,,,,,,,,,,,,,,,,,,,,,,,,,,,,,,,,,,,,,,,,,,,,,,,,,,,,,,,,
71,,,,,,,,,,,,,,,,,,,,,,,,,,,,,,,,,,,,,,,,,,,,,,,,,,,,,,,,,,,,,,,,,,,,,,,,,,,,,,,,,,,,,,,,,,,,,,,,,,,,,,,,,,,,,,,,,,,,,,,,,,,,,,,,,,,,
72,,,,,,,,,,,,,,,,,,,,,,,,,,,,,,,,,,,,,,,,,,,,,,,,,,,,,,,,,,,,,,,,,,,,,,,,,,,,,,,,,,,,,,,,,,,,,,,,,,,,,,,,,,,,,,,,,,,,,,,,,,,,,,,,,,,,
73,,,,,,,,,,,,,,,,,,,,,,,,,,,,,,,,,,,,,,,,,,,,,,,,,,,,,,,,,,,,,,,,,,,,,,,,,,,,,,,,,,,,,,,,,,,,,,,,,,,,,,,,,,,,,,,,,,,,,,,,,,,,,,,,,,,,
74,,,,,,,,,,,,,,,,,,,,,,,,,,,,,,,,,,,,,,,,,,,,,,,,,,,,,,,,,,,,,,,,,,,,,,,,,,,,,,,,,,,,,,,,,,,,,,,,,,,,,,,,,,,,,,,,,,,,,,,,,,,,,,,,,,,,
75,,,,,,,,,,,,,,,,,,,,,,,,,,,,,,,,,,,,,,,,,,,,,,,,,,,,,,,,,,,,,,,,,,,,,,,,,,,,,,,,,,,,,,,,,,,,,,,,,,,,,,,,,,,,,,,,,,,,,,,,,,,,,,,,,,,,
76,,,,,,,,,,,,,,,,,,,,,,,,,,,,,,,,,,,,,,,,,,,,,,,,,,,,,,,,,,,,,,,,,,,,,,,,,,,,,,,,,,,,,,,,,,,,,,,,,,,,,,,,,,,,,,,,,,,,,,,,,,,,,,,,,,,,
77,,,,,,,,,,,,,,,,,,,,,,,,,,,,,,,,,,,,,,,,,,,,,,,,,,,,,,,,,,,,,,,,,,,,,,,,,,,,,,,,,,,,,,,,,,,,,,,,,,,,,,,,,,,,,,,,,,,,,,,,,,,,,,,,,,,,
78,,,,,,,,,,,,,,,,,,,,,,,,,,,,,,,,,,,,,,,,,,,,,,,,,,,,,,,,,,,,,,,,,,,,,,,,,,,,,,,,,,,,,,,,,,,,,,,,,,,,,,,,,,,,,,,,,,,,,,,,,,,,,,,,,,,,
79,,,,,,,,,,,,,,,,,,,,,,,,,,,,,,,,,,,,,,,,,,,,,,,,,,,,,,,,,,,,,,,,,,,,,,,,,,,,,,,,,,,,,,,,,,,,,,,,,,,,,,,,,,,,,,,,,,,,,,,,,,,,,,,,,,,,
80,,,,,,,,,,,,,,,,,,,,,,,,,,,,,,,,,,,,,,,,,,,,,,,,,,,,,,,,,,,,,,,,,,,,,,,,,,,,,,,,,,,,,,,,,,,,,,,,,,,,,,,,,,,,,,,,,,,,,,,,,,,,,,,,,,,,
81,,,,,,,,,,,,,,,,,,,,,,,,,,,,,,,,,,,,,,,,,,,,,,,,,,,,,,,,,,,,,,,,,,,,,,,,,,,,,,,,,,,,,,,,,,,,,,,,,,,,,,,,,,,,,,,,,,,,,,,,,,,,,,,,,,,,
82,,,,,,,,,,,,,,,,,,,,,,,,,,,,,,,,,,,,,,,,,,,,,,,,,,,,,,,,,,,,,,,,,,,,,,,,,,,,,,,,,,,,,,,,,,,,,,,,,,,,,,,,,,,,,,,,,,,,,,,,,,,,,,,,,,,,
83,,,,,,,,,,,,,,,,,,,,,,,,,,,,,,,,,,,,,,,,,,,,,,,,,,,,,,,,,,,,,,,,,,,,,,,,,,,,,,,,,,,,,,,,,,,,,,,,,,,,,,,,,,,,,,,,,,,,,,,,,,,,,,,,,,,,
84,,,,,,,,,,,,,,,,,,,,,,,,,,,,,,,,,,,,,,,,,,,,,,,,,,,,,,,,,,,,,,,,,,,,,,,,,,,,,,,,,,,,,,,,,,,,,,,,,,,,,,,,,,,,,,,,,,,,,,,,,,,,,,,,,,,,
85,,,,,,,,,,,,,,,,,,,,,,,,,,,,,,,,,,,,,,,,,,,,,,,,,,,,,,,,,,,,,,,,,,,,,,,,,,,,,,,,,,,,,,,,,,,,,,,,,,,,,,,,,,,,,,,,,,,,,,,,,,,,,,,,,,,,
86,,,,,,,,,,,,,,,,,,,,,,,,,,,,,,,,,,,,,,,,,,,,,,,,,,,,,,,,,,,,,,,,,,,,,,,,,,,,,,,,,,,,,,,,,,,,,,,,,,,,,,,,,,,,,,,,,,,,,,,,,,,,,,,,,,,,
87,,,,,,,,,,,,,,,,,,,,,,,,,,,,,,,,,,,,,,,,,,,,,,,,,,,,,,,,,,,,,,,,,,,,,,,,,,,,,,,,,,,,,,,,,,,,,,,,,,,,,,,,,,,,,,,,,,,,,,,,,,,,,,,,,,,,
88,,,,,,,,,,,,,,,,,,,,,,,,,,,,,,,,,,,,,,,,,,,,,,,,,,,,,,,,,,,,,,,,,,,,,,,,,,,,,,,,,,,,,,,,,,,,,,,,,,,,,,,,,,,,,,,,,,,,,,,,,,,,,,,,,,,,
89,,,,,,,,,,,,,,,,,,,,,,,,,,,,,,,,,,,,,,,,,,,,,,,,,,,,,,,,,,,,,,,,,,,,,,,,,,,,,,,,,,,,,,,,,,,,,,,,,,,,,,,,,,,,,,,,,,,,,,,,,,,,,,,,,,,,
