frame,NOSE.x,NOSE.y,NOSE.z,NOSE.v,LEFT_EYE_INNER.x,LEFT_EYE_INNER.y,LEFT_EYE_INNER.z,LEFT_EYE_INNER.v,LEFT_EYE.x,LEFT_EYE.y,LEFT_EYE.z,LEFT_EYE.v,LEFT_EYE_OUTER.x,LEFT_EYE_OUTER.y,LEFT_EYE_OUTER.z,LEFT_EYE_OUTER.v,RIGHT_EYE_INNER.x,RIGHT_EYE_INNER.y,RIGHT_EYE_INNER.z,RIGHT_EYE_INNER.v,RIGHT_EYE.x,RIGHT_EYE.y,RIGHT_EYE.z,RIGHT_EYE.v,RIGHT_EYE_OUTER.x,RIGHT_EYE_OUTER.y,RIGHT_EYE_OUTER.z,RIGHT_EYE_OUTER.v,LEFT_EAR.x,LEFT_EAR.y,LEFT_EAR.z,LEFT_EAR.v,RIGHT_EAR.x,RIGHT_EAR.y,RIGHT_EAR.z,RIGHT_EAR.v,MOUTH_LEFT.x,MOUTH_LEFT.y,MOUTH_LEFT.z,MOUTH_LEFT.v,MOUTH_RIGHT.x,MOUTH_RIGHT.y,MOUTH_RIGHT.z,MOUTH_RIGHT.v,LEFT_SHOULDER.x,LEFT_SHOULDER.y,LEFT_SHOULDER.z,LEFT_SHOULDER.v,RIGHT_SHOULDER.x,RIGHT_SHOULDER.y,RIGHT_SHOULDER.z,RIGHT_SHOULDER.v,LEFT_ELBOW.x,LEFT_ELBOW.y,LEFT_ELBOW.z,LEFT_ELBOW.v,RIGHT_ELBOW.x,RIGHT_ELBOW.y,RIGHT_ELBOW.z,RIGHT_ELBOW.v,LEFT_WRIST.x,LEFT_WRIST.y,LEFT_WRIST.z,LEFT_WRIST.v,RIGHT_WRIST.x,RIGHT_WRIST.y,RIGHT_WRIST.z,RIGHT_WRIST.v,LEFT_PINKY.x,LEFT_PINKY.y,LEFT_PINKY.z,LEFT_PINKY.v,RIGHT_PINKY.x,RIGHT_PINKY.y,RIGHT_PINKY.z,RIGHT_PINKY.v,LEFT_INDEX.x,LEFT_INDEX.y,LEFT_INDEX.z,LEFT_INDEX.v,RIGHT_INDEX.x,RIGHT_INDEX.y,RIGHT_INDEX.z,RIGHT_INDEX.v,LEFT_THUMB.x,LEFT_THUMB.y,LEFT_THUMB.z,LEFT_THUMB.v,RIGHT_THUMB.x,RIGHT_THUMB.y,RIGHT_THUMB.z,RIGHT_THUMB.v,LEFT_HIP.x,LEFT_HIP.y,LEFT_HIP.z,LEFT_HIP.v,RIGHT_HIP.x,RIGHT_HIP.y,RIGHT_HIP.z,RIGHT_HIP.v,LEFT_KNEE.x,LEFT_KNEE.y,LEFT_KNEE.z,LEFT_KNEE.v,RIGHT_KNEE.x,RIGHT_KNEE.y,RIGHT_KNEE.z,RIGHT_KNEE.v,LEFT_ANKLE.x,LEFT_ANKLE.y,LEFT_ANKLE.z,LEFT_ANKLE.v,RIGHT_ANKLE.x,RIGHT_ANKLE.y,RIGHT_ANKLE.z,RIGHT_ANKLE.v,LEFT_HEEL.x,LEFT_HEEL.y,LEFT_HEEL.z,LEFT_HEEL.v,RIGHT_HEEL.x,RIGHT_HEEL.y,RIGHT_HEEL.z,RIGHT_HEEL.v,LEFT_FOOT_INDEX.x,LEFT_FOOT_INDEX.y,LEFT_FOOT_INDEX.z,LEFT_FOOT_INDEX.v,RIGHT_FOOT_INDEX.x,RIGHT_FOOT_INDEX.y,RIGHT_FOOT_INDEX.z,RIGHT_FOOT_INDEX.v
0,,,,,,,,,,,,,,,,,,,,,,,,,,,,,,,,,,,,,,,,,,,,,,,,,,,,,,,,,,,,,,,,,,,,,,,,,,,,,,,,,,,,,,,,,,,,,,,,,,,,,,,,,,,,,,,,,,,,,,,,,,,,,,,,,,,,
1,,,,,,,,,,,,,,,,,,,,,,,,,,,,,,,,,,,,,,,,,,,,,,,,,,,,,,,,,,,,,,,,,,,,,,,,,,,,,,,,,,,,,,,,,,,,,,,,,,,,,,,,,,,,,,,,,,,,,,,,,,,,,,,,,,,,
2,,,,,,,,,,,,,,,,,,,,,,,,,,,,,,,,,,,,,,,,,,,,,,,,,,,,,,,,,,,,,,,,,,,,,,,,,,,,,,,,,,,,,,,,,,,,,,,,,,,,,,,,,,,,,,,,,,,,,,,,,,,,,,,,,,,,
3,0.7453373217249872,0.5043323700143216,0.6120957345338397,1.0047193051946663,0.7921138821278854,0.45033666227339875,0.6792306081179486,0.9638369699674598,0.7650033315302912,0.41397480845813545,0.6016894420804972,1.0459039651829738,0.7539812182639516,0.4673562462688222,0.6214625033125245,1.0140971667420493,0.8441700968698151,0.4769078351530004,0.6764656592995014,1.021283396759453,0.8444270590041184,0.5084869845817509,0.625180241041719,1.0213555437128394,0.8145750478642165,0.48679203873432286,0.6934643229085987,0.965235919923375,0.73567553717627,0.4544338902588155,0.6545019357146986,1.034106682618995,0.8266142867889733,0.47024303057953587,0.7141889875887869,0.9512927768162343,0.7420086540792964,0.49539375043360456,0.581291747450926,0.976224767914608,0.8091125203982317,0.48960652283304096,0.6693800081329844,1.0115213909343188,0.7101121313967254,0.46670079066980474,0.47972088368089244,0.9908328700148339,0.8143701753843631,0.5280215936816347,0.7078965137711842,1.0130212180820046,0.6042897646625186,0.4367142829135404,0.46180346862562266,0.9917595195989678,0.7954142729351085,0.5991302823486224,0.7874050688933173,0.9870600920075244,0.5911829657745212,0.4044705064695915,0.5442662201221883,0.9733041888365614,0.8464881794624803,0.7023045415221654,0.8692632680628888,0.7157782540544186,0.5055043940756336,0.3709404525599457,0.6195041344540444,0.9736854333849939,0.7708203524535286,0.6925743047373566,0.8849665012501787,0.5891610741275631,0.5223685344439258,0.4330955231091218,0.661265371876727,0.9730049031320939,0.8063781897124911,0.7119178573558084,0.9265265589408544,0.6147518306068949,0.5525721920826604,0.4376245673798178,0.5365246480197366,0.9460578429832376,0.7611880976497496,0.6757119282116877,0.8696377394522911,0.3595761780053399,0.5006534682023539,0.5469936047661963,0.11832041261593014,0.9640809295637556,0.5723208329386379,0.6369034384136539,0.2621419260891973,1.0345197165915039,0.5526887872629073,0.6134743164908713,0.0364195806896743,0.03182354085651719,0.6619599365761649,0.6606212182275488,0.23058094037158747,0.813839976235442,0.5408339840784833,0.6051233948012349,-0.1055228457515062,0.23049171018984208,0.6083450145591858,0.6912433329564868,0.0915467577924216,0.5262353980477276,0.4854127086293642,0.639247221570479,-0.07599072008228457,0.4089207427886516,0.5848756522813368,0.6890149966609521,0.15487915383182324,0.56657833063885,0.5597144172624304,0.6883357882350941,-0.03540668084553331,0.40514214042975333,0.63333348181668,0.6170288719459129,0.23022926462990828,0.5571259906616091
4,0.7314064068511406,0.5048430924130796,0.5839469870958375,1.0047193051946663,0.7792884735934676,0.45051002238272797,0.6497084366367815,0.9638369699674598,0.7528276073403172,0.4146025049722651,0.572268472621371,1.045853420444204,0.7424071621437165,0.46852503374822285,0.5921563487620266,1.0140971667420493,0.8280684978938476,0.4771534658941198,0.6371831364141921,1.021283396759453,0.8284136607392344,0.5090320094535771,0.5858555405797052,1.021269951442942,0.798662336200759,0.4875927079275907,0.654224391892759,0.965235919923375,0.7320208922083742,0.4592984041328695,0.6456185692711833,1.0340020168627695,0.7979749995662092,0.47645955661102996,0.6243872960516811,0.9510393974712942,0.7320092243129521,0.4979059968039201,0.5548222334910062,0.9760922071846276,0.7863760737336675,0.4914632075177943,0.6074318112421973,1.0110835948184436,0.7112788539011341,0.47355586126077764,0.4706117650559561,0.9908272671782249,0.7767249533234908,0.5486465889132631,0.553350519205267,1.0119809978213845,0.6005444259881368,0.4550966235831724,0.4186434721361664,0.9331451463918756,0.7247587499370944,0.6222372745933429,0.5503246952204406,0.8362605195397205,0.5803251096408093,0.42645323590455847,0.41326756502027767,0.7875737315306534,0.7628449607783738,0.7148508424102269,0.588855188840402,0.4794418142064724,0.49487636959337095,0.39041677687978515,0.4723213037454439,0.7407973308535609,0.6777792112404946,0.7067693297045502,0.5749240604473664,0.3963152527469479,0.5093265722764247,0.45839396952597666,0.5009136381938412,0.7545947688166031,0.7108232169580976,0.7248016993472329,0.6107658360615119,0.44870240977330716,0.5444529331956997,0.46155756079183563,0.39760320590077836,0.5785456168785014,0.6733502280936327,0.6859919412960993,0.5820018977166672,0.2525024835377953,0.5098122956958188,0.5642645870316687,0.1793150833439766,0.9640601871473737,0.5495366305806434,0.6624314521198612,0.19636020389091854,1.0343311871000793,0.5122655548301506,0.5693853567969626,0.037291594357877655,0.29201567806807843,0.5791159645637581,0.6305426879159644,0.05901805239483642,0.491299454613738,0.40977720473259965,0.5977321208258626,-0.1921878127195389,0.6900339548626173,0.44657672970534446,0.6816024604780017,-0.1537883246829995,0.6706029736931743,0.3445159033305259,0.6440366335921159,-0.17672551997814356,0.8369299846080333,0.41377285870676,0.6830243722331567,-0.09957942874681482,0.7605329772262218,0.3817497434272814,0.67200864551964,-0.19277666235841,0.4983114123757067,0.4271524921376995,0.6280500091834618,-0.07596598466187791,0.5036611607398866
5,0.7305083787713154,0.49841386720670444,0.5760680297875878,1.0047193051946663,0.7804963913410273,0.44807898734091894,0.6557150058594249,0.9638369699674598,0.7534140832323292,0.41278250694637086,0.5781161081690269,1.0459039651829738,0.7423886831121078,0.46732262924916884,0.5978149997503319,1.0140971667420493,0.8298231918547614,0.47297357096995596,0.6411219040125017,1.021283396759453,0.8305187575963656,0.5041761084506932,0.5899273111102652,1.0213555437128394,0.8010694243077352,0.481960128600961,0.6582541764663795,0.965235919923375,0.729673065098497,0.4599310180301931,0.6469095696547629,1.034106682618995,0.8056948113479311,0.47048240283295384,0.6448040769577631,0.9512928960255238,0.730289343014484,0.49174755549875954,0.5478380632765167,0.9762239334495812,0.7911970445711862,0.48469164303415174,0.616384527809815,1.0115185299113696,0.7011720652576882,0.47745910122621654,0.45768113421334794,0.9908325123869652,0.7950992744545812,0.5394786792910707,0.5828146667763736,1.0120694511142314,0.5983004255699422,0.4532065006926999,0.4309110346033338,0.9549152064542842,0.7740474553942499,0.614776620811452,0.6095091016512055,0.9541853886002368,0.5709051626096281,0.4174698622625907,0.4419454082921273,0.831773615468489,0.884710773418518,0.7177569264708958,0.7238969519459245,0.7291378007157956,0.48609887452924677,0.382905369742868,0.5106295031850292,0.7996249098750148,0.815972649049439,0.7115550462382111,0.7368028044760017,0.6094636678356015,0.5027063493679529,0.44692394970862437,0.5438341804112169,0.7675393479410538,0.8491348070949364,0.7306706706950418,0.7648105267441871,0.616415932684379,0.5354662347096776,0.44699292742238983,0.4285805596300118,0.5883137452735819,0.8035528344984564,0.6906148775448786,0.7196886517799973,0.3534943584710381,0.5146949175442472,0.5516687546837988,0.19014480841829395,0.9639815090162702,0.549718524101535,0.6517350409870487,0.18686499729818393,1.0324988211103943,0.4710112461093371,0.5086530219447438,0.037370614598011234,0.1258362595042357,0.5851861323774784,0.6726707740060522,0.030523565164296572,0.19900580172162516,0.38103168386403385,0.42673912055692637,-0.12048792878140205,0.09070031839992886,0.462754697349937,0.6665837589246569,-0.2158354002247884,0.04880929938809295,0.3088290835763039,0.4629268177561631,-0.10172880576774457,0.2566257791904002,0.42889788073300383,0.6642941490542932,-0.17048436440786682,0.2580213865069988,0.35167642769718294,0.447611284241106,-0.1579786067702884,0.07755715106083771,0.44048398704314945,0.582130531243856,-0.19474156814449106,0.06374349576495862
6,0.810523185233443,0.49795306369794595,0.805118290527118,1.0047193051946663,0.8584456829177919,0.4479133460330881,0.8823424256894732,0.9638369699674598,0.8309841445229526,0.41123889565830024,0.8046163209234478,1.0459039651829738,0.8195205393477178,0.46446744755513814,0.8241056761690339,1.0140971667420493,0.9071813299210437,0.47706641331042526,0.8640691875638385,1.021283396759453,0.908000730745469,0.5098594709346714,0.8128749555141834,1.0213555437128394,0.8786921774243194,0.48927171116626866,0.8811390420650869,0.965235919923375,0.7964171965317794,0.4542256018276479,0.8473860878815094,1.034106682618995,0.8673924889389552,0.47834750393196807,0.8250956475440427,0.9512928960255238,0.8051064868635772,0.4864607725187943,0.7656587934152461,0.9762250063331872,0.8654362095388598,0.48314239910714984,0.8298513341679064,1.0115223446086352,0.7644111941134429,0.46804043486345404,0.6484799751727048,0.9908358502470727,0.8245922221933016,0.5467249947703493,0.6920699919227576,1.0100947492328225,0.6522910276471672,0.4612741085723386,0.5887411219824945,0.9865859556417534,0.7991844776372915,0.6263159608306781,0.6806832633511192,0.9225663166397877,0.6167357963583625,0.4429746897619804,0.5648687591440273,0.9096365338454117,0.8766272133735925,0.7187383169471226,0.7734633389285454,0.5003938601239833,0.5353203337620867,0.409363722547052,0.633611332615786,0.8700693745585475,0.8085952271121474,0.7134309236185822,0.790171667172861,0.3494528889316402,0.5477557379947485,0.47313229083029784,0.6623175602300609,0.8561069028917679,0.8433632920525798,0.7280876438090554,0.8200508417221668,0.35085929921193626,0.5791155304441248,0.47763013206945404,0.5488482627318321,0.6596667635574259,0.7965555914878745,0.6869528873791682,0.7702500297105334,0.11514349024594049,0.5264769810154641,0.5380927835572424,0.2212927709628728,0.9640823600752302,0.5470353866410894,0.6437179182415348,0.15860152687248644,1.034492060036328,0.4715615746560108,0.488252140177471,0.07842066543436146,0.3884989682635435,0.49682318010566817,0.6326830907098486,-0.17156274525203802,0.03550177861671906,0.3312562045459465,0.4015097559233662,-0.16800402811700527,0.4385165100136031,0.34681553530298703,0.6597682658178149,-0.5458520262930283,0.04802255160467045,0.25543079842430294,0.4418175049834122,-0.1565869376579427,0.6312327461627513,0.3105971288074289,0.6632139936816736,-0.5108106372092591,0.17501017654224663,0.3093726868125904,0.4041510045379658,-0.1618614889878651,0.22349545065714743,0.33659363345652643,0.5765170850081993,-0.48521563026567255,0.06578077879809122
7,,,,,,,,,,,,,,,,,,,,,,,,,,,,,,,,,,,,,,,,,,,,,,,,,,,,,,,,,,,,,,,,,,,,,,,,,,,,,,,,,,,,,,,,,,,,,,,,,,,,,,,,,,,,,,,,,,,,,,,,,,,,,,,,,,,,
8,,,,,,,,,,,,,,,,,,,,,,,,,,,,,,,,,,,,,,,,,,,,,,,,,,,,,,,,,,,,,,,,,,,,,,,,,,,,,,,,,,,,,,,,,,,,,,,,,,,,,,,,,,,,,,,,,,,,,,,,,,,,,,,,,,,,
9,0.7494516474468383,0.49638224288953525,0.6509313452343785,1.0047193051946663,0.8001414163023998,0.44444274638175146,0.7312954114437521,0.9638369699674598,0.7733090277174165,0.4086543786561945,0.6537437713940707,1.0459039651829738,0.762513548345868,0.4626856263042226,0.6735411055010546,1.0140971667420493,0.8472522352650018,0.47124786749209646,0.710163249930692,1.021283396759453,0.8477821268353166,0.503058938593668,0.6588831129343633,1.0213555437128394,0.818150053088555,0.4814506578997434,0.7271130014548683,0.965235919923375,0.7485243718310812,0.4538854083175924,0.7160717422156904,1.034106682618995,0.8152194497220951,0.47101580479904875,0.6891677890584378,0.9512927768162343,0.7498742469354731,0.48753976560084084,0.6207466958066881,0.9762244102867395,0.8079653701456184,0.48161568573587293,0.6829580476588303,1.0115211525157397,0.7197194273757593,0.48223319485414623,0.5379165439669586,0.9908326315962549,0.7980523182799825,0.5343473154223574,0.578228597993684,1.0131568186488686,0.5977469976386518,0.4518420609668241,0.48450501843513505,0.9886560845594476,0.7906373498346108,0.6178059076728717,0.5534448172980249,0.9924600344055957,0.5638863977338655,0.3954071135920127,0.46005516676854724,0.9370870357642043,0.8616258280774395,0.7098509067832433,0.5967773388268337,0.8487384543641721,0.47962672562300274,0.3558018860659576,0.5237640107601811,0.9134651322337183,0.7866307017918968,0.7061328117029938,0.5883134730745582,0.7787786483424984,0.4940243482501136,0.41794780730216063,0.5505283593375867,0.9063796656671891,0.8191146844815262,0.720342139429783,0.6195498737710826,0.8123436122231058,0.5288286286115644,0.4182656344078635,0.44223329234859493,0.8006802070274271,0.7770651801035393,0.6802439673771845,0.5888191387642986,0.6054845575600885,0.5258514494647046,0.5519726191628638,0.23833303656113083,0.9640586374266096,0.5418085756617326,0.6348812316303593,0.1400618188675838,1.0343099678465393,0.4788536921178166,0.46005881537316495,0.0802754489653599,0.4073306981524596,0.5293152572028423,0.5480042023889258,-0.03970634897365546,0.14474578623395426,0.35277724848470343,0.4094169379015919,-0.13901656057493175,0.3469628219642867,0.3890017051179002,0.5576602641088305,-0.25174911391181254,0.20343477665738474,0.28008633416605705,0.4527803190760483,-0.12651085853840585,0.6086158233073741,0.353800314243019,0.560628916395907,-0.20112931458948963,0.4772048314838054,0.3240879283668885,0.4256374358982105,-0.14149845890138768,0.12962199453665632,0.3656166082148395,0.46036265271144644,-0.18771669419573428,0.17722401526831372
10,0.785613744139833,0.4982973103238462,0.7568421528671173,1.0047193051946663,0.8350814091789305,0.44924768541335236,0.8344846264128831,0.9638369699674598,0.8077588795536064,0.41279871940974977,0.7568015552282491,1.0459037267643945,0.7964104932709988,0.46625853732831624,0.7763417794963531,1.0140971667420493,0.8827583809242233,0.47721524610842947,0.8138105421799734,1.021283396759453,0.883630216770378,0.5097228570888462,0.7626492093227397,1.021354590038523,0.8543543154864536,0.4887841153696836,0.8309651416351732,0.965235919923375,0.7759805476102952,0.455306174432781,0.8050106557189731,1.034105967363258,0.8453466948654479,0.4776604709939646,0.7775459835510861,0.9512881276539418,0.7820325781982418,0.48591130710093244,0.7215781834588584,0.9762205955894738,0.8414511764479762,0.4819180004941737,0.7834324333305406,1.0114894428447192,0.7469375522581656,0.46323308184373974,0.6191635117647813,0.9908306050383324,0.8053961778058109,0.5371495085871828,0.6474736257136006,1.0055781476703225,0.638478900804816,0.4289305719569669,0.5894619082493744,0.9219760704259942,0.7712011787487182,0.6020829772415057,0.6042792668887935,0.4310220401638812,0.6100184839498223,0.3908089132708152,0.5898264943519761,0.6688291793951858,0.8343215963835073,0.6887976521789037,0.6462323259432244,0.16016664364182095,0.5282087156951871,0.35286522482251886,0.6589932005124057,0.6014395852061305,0.7674943444676443,0.6832478467600617,0.6490137997307145,0.1253542884844623,0.5401310738935279,0.4213079595467285,0.6808504280528118,0.5705519574228654,0.7980833430695177,0.6974661747882119,0.6763883429836925,0.14449939122720265,0.5733829631426175,0.42263104878889074,0.5698844842207453,0.2770907449855723,0.7514479028750828,0.6559053643574702,0.6392899644241488,0.007399936428668298,0.5194899585747222,0.5190139328110877,0.2246308960040699,0.9640735385878034,0.5335397281691815,0.6179122660999637,0.14872292264807827,1.0339598501631286,0.468924752023312,0.4597666036021536,0.09857660915204755,0.2125459972819456,0.4861142510260529,0.6030909342996313,-0.1419664859035616,-0.009895094179399133,0.350714685143611,0.3899499119063374,-0.09312670905682802,0.5057374064960707,0.33024489236713256,0.6472605887395678,-0.4905024447505894,0.07009397833899875,0.2787271837412515,0.43279720626400614,-0.07621445540580862,0.6048088150409251,0.2949716683090877,0.6513835445773645,-0.4482755759345586,0.1676351746348979,0.33864110911310225,0.40427000521125983,-0.03463929997800138,0.20314636532618421,0.32393684924056393,0.5771662987990929,-0.385798281868092,0.06328571719192241
11,0.6972280450753413,0.4965002600861905,0.47090454151092964,1.0047193051946663,0.7506089117241963,0.44577273462294714,0.5599801802531763,0.9638369699674598,0.7241973594816176,0.4104557502305964,0.4825379564029814,1.0459039651829738,0.713741475822016,0.4650555665851369,0.5022663760451501,1.0140971667420493,0.7953117869230885,0.471943125871079,0.5352423068955724,1.021283396759453,0.7954997729507621,0.5037893339107457,0.4839326712360367,1.0213555437128394,0.7655655664581917,0.48220650440014007,0.5522428925997515,0.965235919923375,0.7186235901122129,0.4597491046543386,0.606248192258311,1.034106682618995,0.7757250869205057,0.47441174963280425,0.5581647653228833,0.9512928960255238,0.7051775544243128,0.4919172797247575,0.4636421223930904,0.9762250063331872,0.7593621784889001,0.484646075283221,0.518313186459122,1.0115222253993457,0.7063448580809575,0.47825059130418895,0.4559684907110975,0.9908240485274072,0.7670634169131075,0.5473159152186525,0.5034102794474865,1.0127811901774941,0.5716095023439973,0.4435396107867704,0.36224674028484516,0.9875824856977534,0.742113707465843,0.6130851005973712,0.43673507270005196,1.0027638297432728,0.5821013401013506,0.3971409829062065,0.30570440101051494,0.8782052761206497,0.8281514944541655,0.7055073375045262,0.4717291173857352,1.0059781298860226,0.4983515460195415,0.35622120474195246,0.34994176974980085,0.8805349369021449,0.7540549076819677,0.7016374889986786,0.4617952481058855,1.000871396030792,0.5155164553817596,0.4296134495636659,0.3732694688299411,0.8776237028185258,0.7927645287519745,0.719875613875126,0.49636394457466015,1.0424815564446024,0.5547469252195109,0.4315340157650565,0.28520718792007166,0.7778514492645182,0.7532393914439667,0.6786245687832819,0.46916275138024355,0.9575554851800226,0.523230408249111,0.5163900469411078,0.22750393251445603,0.9640766380293317,0.5224454370293813,0.6260551546459537,0.14348483498308853,1.0343963349768188,0.48385201382303444,0.4617422591578787,0.12852366679943808,0.979979551216043,0.508455096705697,0.6634864731065466,-0.08654880041593688,0.9514998239718007,0.3761984785737319,0.3729460180541035,-0.018802111905139772,0.9923369710483779,0.3648311676293974,0.724804383848363,-0.3764961558187532,0.9891847932274761,0.3056981141599383,0.41115294180439615,0.00018047246462528062,0.9654699640658885,0.3283742664337916,0.7254722968471093,-0.33455266329676026,1.0091297050742747,0.34772523458518834,0.38551912902298163,0.00878013925074126,0.9805734873230639,0.3416746957996443,0.6720852650924278,-0.33060179055549427,0.9865970065917847
12,0.718449581880521,0.49135187909139383,0.5517934176428331,1.0047193051946663,0.7717179481848989,0.4407294962215342,0.6372662348142358,0.9638369699674598,0.7450189358039521,0.40456845045451906,0.5597789429378198,1.0459039651829738,0.734290245352905,0.4583489413619771,0.5794591087097242,1.0140971667420493,0.8184824596103115,0.4680408097776342,0.6179817791482302,1.021283396759453,0.8188582279277224,0.500015406222147,0.5666307997574452,1.0213555437128394,0.7891247164356394,0.4785865951136411,0.6348633325881455,0.965235919923375,0.7309664914352372,0.4509058913345601,0.6588917565393562,1.034106682618995,0.7957654395933755,0.46872844675347075,0.6319594733312209,0.9512928960255238,0.7221477606380422,0.48351227975336775,0.5355718516349137,0.9762250063331872,0.7797356608498615,0.47821622422807575,0.5982624372760517,1.0115222253993457,0.7098171305164441,0.4691836817525684,0.4937463247435305,0.9908346581541773,0.7821569873341858,0.5363500910914553,0.579701111798574,1.0130792730060159,0.5961135385466206,0.4378890308574186,0.4383043412377896,0.9888148713331294,0.738750697424699,0.6009096598091022,0.5153854316120644,0.93050154260338,0.5426721938018673,0.391008141795977,0.3559694939222542,0.9674250250944961,0.7807091952598331,0.6990308160125218,0.5259804078586661,0.8032827601655637,0.42838868299649924,0.35268784139966736,0.3281302607843465,0.9704021711321863,0.6983843354774508,0.6938224259989533,0.5138813134139089,0.7015915274280392,0.4707483667170071,0.41978056072203673,0.44225446253335005,0.9670150535646806,0.7330372606887712,0.7143915097186319,0.5460267795401951,0.7130861430458597,0.5056711746789943,0.4196512933872794,0.332937056711813,0.9229757654800332,0.6956609810980798,0.6731558426251398,0.5185461593618212,0.4802558545380853,0.5022958790283479,0.5007723187077704,0.1938276116930085,0.9640804527265974,0.5288656166321111,0.6147097681408268,0.17252888612706466,1.0344199384161499,0.4695617653138832,0.45375702489731956,0.10138147075911105,0.9072435859641204,0.5287381257690272,0.6485997362367346,-0.05023204567261882,0.6173700732431935,0.35221059084616274,0.3757524133463856,-0.09167066314461211,0.9462268774547803,0.38822548361894926,0.7208419266683398,-0.3287403439896841,0.7218161189492168,0.2808997530050992,0.41355757198856974,-0.07474460425909646,0.9266693072703867,0.35108184070198106,0.7237972275149865,-0.28553279331500464,0.9462224861411693,0.324650541884616,0.39426241515579413,-0.05913715788817173,0.8981580853874863,0.37251557476940844,0.6692719258590294,-0.2618094491005442,0.7744656255569338
13,0.7259293129079757,0.49562195584310276,0.5753017689676473,1.0047193051946663,0.7932530954322677,0.4438901219177164,0.7104510039204923,0.9638369699674598,0.7660720201180907,0.40649320364360597,0.6329036211426418,1.0459039651829738,0.7547584349078971,0.45914221957929274,0.6521771923123444,1.0140971667420493,0.841243145500848,0.4748402692350316,0.6907910833447509,1.021283396759453,0.8422135275025626,0.5081386252353611,0.6396546397285966,1.0213555437128394,0.8130704878739745,0.48800028448856475,0.7081679308651866,0.965235919923375,0.763213496340376,0.4512147626037862,0.7706588303714201,1.034106682618995,0.8318770355145767,0.47968544939324126,0.7427899626293374,0.9512928960255238,0.7449517660732529,0.48562949634043434,0.6095676876366942,0.976224767914608,0.8034346709910876,0.48451449802987934,0.6700047467677764,1.011521629352898,0.7401196060125591,0.4718950374387562,0.5964052508634676,0.9908229756438013,0.811951525070478,0.5460394221461428,0.6712405374141507,1.013022767802769,0.6325822762269269,0.4385704013541684,0.5474535872987443,0.9917422938566278,0.7787915276012456,0.6184588765563861,0.6167996589092152,0.9887580495232409,0.6049246093115572,0.3972601921957572,0.5409674564167043,0.9693609839568007,0.8320134045133556,0.7131934756576024,0.6200747272393303,0.9344466552957211,0.5188461316650148,0.35769659851407776,0.6036361597838542,0.9713628787966763,0.758884138550176,0.7087015930788788,0.622536044071417,0.881845927204498,0.5395657087390793,0.4281607055565553,0.645569729853592,0.9685790794435867,0.7934016822897231,0.7265391747424356,0.6598017724902125,0.9123782067589334,0.5716358380725488,0.42789762579427704,0.5263996073460478,0.9269358384742656,0.7476908140803962,0.6843421443333613,0.6167517309297187,0.7461171273499749,0.5046920662622871,0.5119320665467444,0.20183509600118527,0.9640817640287824,0.5262414333705095,0.6201749180202824,0.1643782907596456,1.0344926560827759,0.4471587804710192,0.4544226895701712,0.000246190151477893,0.9100107315978179,0.5081534712862089,0.6492429299585059,-0.13264517127273656,0.6715062898836659,0.3063980033991544,0.38072493083677256,-0.2608965063217394,0.8881410186329115,0.3362917783210825,0.6979610148412524,-0.5056974118250985,0.4579358065064372,0.23447296444297386,0.41812319837139744,-0.2519769542563057,0.8780436592486887,0.29826899056586614,0.6962698952090783,-0.47302076066847865,0.8425529023437145,0.26963210509480007,0.40160505174102973,-0.25485929726408746,0.8336736679489793,0.30331172223956865,0.6449744500442101,-0.47893241285255245,0.5774509361114382
14,0.7087218425353592,0.4897826676083921,0.5386506220279784,1.0047193051946663,0.7650567614884666,0.43786874149321686,0.6342934769737197,0.9638369699674598,0.7383748432145193,0.40101836800937446,0.556853738408258,1.0459039651829738,0.72764387783421,0.4541975970626607,0.5766305945995037,1.0140971667420493,0.8102951633304166,0.46717919483508347,0.6089780785905264,1.021283396759453,0.8111252452359902,0.5003025217960301,0.5578016161571703,1.0213555437128394,0.7818683698971699,0.48004848843372466,0.6262916440458282,0.965235919923375,0.7371106627577644,0.4475286325569417,0.692422362826169,1.034106682618995,0.795982896054413,0.47203686216637364,0.6425986517620101,0.9512928960255238,0.716911919121427,0.48167827463595136,0.534495037383977,0.9762250063331872,0.7727687156657449,0.4792696171151912,0.5897670131241941,1.0115223446086352,0.7190802217765605,0.4690881355069935,0.5291713315293001,0.9908283400618308,0.7938732621859724,0.5433641868746889,0.6122431020393907,1.0132117741313518,0.6259277702185423,0.4389207574561582,0.5195645103252466,0.991073768160827,0.77691481164928,0.6010940765800372,0.5714124914337472,0.998327813660509,0.6097368392963066,0.3985951276224693,0.5177512537700719,0.9333315259108413,0.8362920977549657,0.6841727489768468,0.5607999375971967,0.9816364274247799,0.5224782087090445,0.3587862310252167,0.5616566238540526,0.9147334594698939,0.7643289102370825,0.6769001309054169,0.56406689379343,0.9532546758312068,0.553159238321318,0.43614182709662486,0.6388972095929879,0.9104409473482499,0.7969325853825742,0.6955201427409402,0.5960464749844198,0.9891014843277506,0.5746409074670874,0.4369835492275809,0.4936143631410708,0.8036063182487406,0.752541371163682,0.6546347125401484,0.5572696382063661,0.8650405530244134,0.5056268621516229,0.498025557862586,0.20053843261691243,0.9640825984938092,0.5279979722135754,0.6082097028141361,0.1666063931292554,1.0345225776144533,0.43754714800132144,0.4465973149668997,-0.024407106862866956,0.9722054366072783,0.514021841722053,0.6630187554589941,-0.11520754856622231,0.9127367181025074,0.3164140281967251,0.37893744714460337,-0.24046123218912896,0.9822993700542677,0.3609840884562637,0.7243088904363452,-0.4522028418077545,0.8437877857621136,0.24369267046162643,0.41873387775944376,-0.22832674260829575,0.9464874344256906,0.3243571343338861,0.7246225730311914,-0.41616128635603616,0.9504342695502879,0.2867028353280682,0.39874301551284985,-0.22815924250621253,0.964026522677678,0.33935148569576096,0.6738440193458153,-0.4162110915066612,0.882256572517383
15,0.7471447660659869,0.48884604022039163,0.6267384758577731,1.0047193051946663,0.7983918970161957,0.43083822463034765,0.7164110897684444,0.9638369699674598,0.7725877100866153,0.3923754262960413,0.6392068614605358,1.0459039651829738,0.7626869455488585,0.44401110366590163,0.6592358725919298,1.0140971667420493,0.8415043947262986,0.4642768062623906,0.6924473121502451,1.021283396759453,0.8409129463605375,0.49877461633185777,0.6408150622879063,1.0213555437128394,0.8102293030159037,0.47982032185352447,0.7087846646254348,0.965235919923375,0.7615691914425664,0.4337057789917257,0.7451358153120644,1.034106682618995,0.8076913287253346,0.47338479140564665,0.6840029711169481,0.9512928960255238,0.7527954629708768,0.4805051658198045,0.6084841191704518,0.9762250063331872,0.8064574515528034,0.4827110998975551,0.6664097034344023,1.0115224638179248,0.7333737066873673,0.46015006139505504,0.5251493338575535,0.9908248829924341,0.8002149627225842,0.5445777970469606,0.6363515197771025,1.0131558649745522,0.6136313586109258,0.4565907332137571,0.3725141490590994,0.8855933952550958,0.771434780286676,0.6163477992477313,0.5617522066017611,0.9969412308090992,0.6243731459499363,0.47167980984865027,0.3184682921324437,0.3695810204634536,0.8633787996557813,0.6946140522300206,0.5905398799498344,0.9881442413552914,0.5518802276124151,0.4449777958235718,0.3739364106600263,0.372935225483993,0.7965019567853288,0.6910844866411957,0.6023004660994348,0.97107747789801,0.5691431676873253,0.5334168457886415,0.42021934097299346,0.37748461537994243,0.8384142572067883,0.7041487495372049,0.6520894089514084,1.0095530300430826,0.5944317820647943,0.5296837028168295,0.3085770532635752,0.2253521549835123,0.786945268512691,0.6603571756710993,0.5893932344464822,0.9034648660928034,0.5101687989826182,0.4993806694615545,0.19521669175481354,0.9640827177030988,0.5344523740611037,0.613348636472736,0.1753945195270836,1.0345249618002441,0.4646341998174173,0.45802552212594205,0.03499177311499016,0.9784788254698883,0.5112290822900768,0.659999660991831,-0.14192567347621796,0.8846327704630422,0.31918047916640996,0.36664321429929697,-0.21116341879614592,0.9904486362972487,0.3608353121503636,0.7019918981534777,-0.5698149293329655,0.8386721575196209,0.24558497840344465,0.39888469658421183,-0.20339155374320556,0.9577400761035471,0.32430332367022624,0.7022184387576623,-0.5406980161032908,0.8647327443389538,0.2835717485617528,0.38475082515182685,-0.1979920840461495,0.9721690535957994,0.34968660185198835,0.6561180152221275,-0.5174984252111535,0.7496581127967714
16,0.7137048836597483,0.49181688472760904,0.5291149669213807,1.0047193051946663,0.7666526786126412,0.43777709935187475,0.618463884902282,0.9638369699674598,0.7400222551290847,0.40101401687030586,0.540988966043773,1.0459039651829738,0.72933014306213,0.4542729373336568,0.5607362312757589,1.0140971667420493,0.8126321383217544,0.46629940047587637,0.5960258626016569,1.021283396759453,0.8133066673863186,0.4987621589610997,0.5448217232380392,1.0213555437128394,0.7838765528753426,0.4778801310614408,0.6132285812444194,0.965235919923375,0.7317226837696653,0.4437814971561696,0.6546897742229432,1.034106682618995,0.7940515612829018,0.4659646091775583,0.618956758268067,0.9512928960255238,0.7200517608021756,0.48278251028506025,0.5168800984529838,0.9762250063331872,0.7768396425163266,0.47882925799959064,0.576083113477776,1.0115224638179248,0.7130863806141665,0.46470370724428295,0.4727530024791092,0.9908282208525413,0.7850697382250797,0.529553492657007,0.5720535616414506,1.013280677100712,0.605934340577998,0.4493992838099943,0.3881283833960983,0.9707959103803706,0.7614150060820657,0.5915574526252643,0.5075391895832747,1.0007295232170887,0.6282232145364334,0.43601978139100867,0.3522408041345928,0.7844672566542495,0.8405224906005198,0.6822875136672459,0.5264212265923927,0.9973767028077755,0.5254434649490827,0.40267029975270996,0.3894278547194564,0.7720013756724391,0.7692537340974592,0.6775554839747223,0.5267003267415961,0.9871651291507564,0.539856525125906,0.5000820541283325,0.42560875122760605,0.7799185770098099,0.8069316009923746,0.6975471775004617,0.5634884227617116,1.0274062900833658,0.5815131037772722,0.49425544702039703,0.33307632535424936,0.6343838441505351,0.7631354598738611,0.6553055628170954,0.5246294083660937,0.9306110863000177,0.5095659362367342,0.4921978031266394,0.20261627480808797,0.9640827177030988,0.5272130392849048,0.596680197561298,0.1655144741428796,1.0345280612417724,0.4715893941228947,0.43734727014420677,0.03863367456631356,0.9803004626235137,0.5042990268690124,0.6368811054460242,-0.15209079685882046,0.9659749311647938,0.34133755463026094,0.36653547890386545,-0.1693529946635416,0.9936761682071913,0.3454547345169393,0.7040583315831958,-0.5332661280704767,1.0105705225403727,0.27051115433241874,0.4048890300803055,-0.15657914147092325,0.9668223934558421,0.3073575963932793,0.7043208137881799,-0.5037668384119216,1.0107113739280347,0.3024530603925376,0.38688020108642773,-0.1616662384772263,0.9855486274178208,0.32179590542394987,0.6571614541335655,-0.5001846805339506,1.0074991038169738
17,0.7522931737415359,0.49123171612752664,0.6239804940733876,1.0047193051946663,0.8028439947177278,0.43664112422942297,0.7113453703059808,0.9638369699674598,0.7766382653631442,0.39985783577327516,0.6340187038082544,1.0459039651829738,0.7663204088953184,0.45340476588018086,0.6538378630354574,1.0140971667420493,0.848109874666982,0.46605996861781357,0.6915795237488899,1.021283396759453,0.847915866979568,0.4989228828857365,0.6401430742208956,1.0213555437128394,0.8175897941922499,0.47845552449977996,0.7082498513451736,0.965235919923375,0.76005369955639,0.4424136599655416,0.7236010777659594,1.034106682618995,0.8219830457757367,0.46721267083451024,0.7020686243593844,0.9512928960255238,0.7561648680161046,0.48222219682184914,0.6023207930782817,0.9762250063331872,0.8119904845413974,0.48007740906350965,0.6648384304359454,1.0115224638179248,0.7285910127927927,0.46488708093393444,0.4837589787715481,0.9908263135039085,0.7984440288847272,0.5295503336108339,0.6258748753044528,1.013268756171757,0.6071746051501056,0.4640466484263883,0.31853495763555,0.856498162768371,0.7763399426349525,0.5931557511749164,0.5639470945626819,1.0002940516823597,0.5991114580693085,0.4731076987188896,0.23569009983229408,0.6154683595785965,0.8748140468514389,0.6833979481994115,0.6192957871655574,1.0026315078958186,0.5164612780979314,0.44449887250280146,0.27677411548803815,0.6702328820200953,0.812091127484181,0.679889244236258,0.6410085468396685,0.9965755104678953,0.5359567953600318,0.528274633874579,0.32588390887099355,0.6855501788202653,0.8534422391633394,0.6984738509127847,0.6833857703844202,1.0381163506798317,0.5664717312430844,0.523759477963314,0.224509747924964,0.547416733516685,0.8025207478189075,0.6559270604481684,0.6236214984724119,0.9485702041894218,0.5149983276051797,0.492507717477149,0.20010036193925054,0.9640827177030988,0.5294477153262073,0.5957320068722111,0.17053930157818373,1.034528418869641,0.4840111291326589,0.43582443107484037,0.058239570475602825,0.9804327253302704,0.5166540460876184,0.6096777243844702,-0.13807644977893027,0.9657430690966174,0.34220748318913996,0.3653718472262379,-0.1713907183388465,0.9934462134876479,0.3489631240304406,0.6367556873304187,-0.5635960515385549,0.9987317287857953,0.2710421641966874,0.4029861815981736,-0.16077064207485678,0.9656099157718211,0.3125554802029484,0.629064704550509,-0.5352557966341751,0.9917308112411143,0.2953468197877151,0.3922215521186848,-0.17212561371897706,0.9848542333061876,0.31675078077131297,0.5928588904662682,-0.5410093011663263,0.9969286969032167
18,0.6688444956237791,0.49273697182668436,0.35732204832804293,1.0047193051946663,0.7199397216013453,0.43635946248053686,0.44467829456357155,0.9638369699674598,0.6935307058243344,0.39904166937236574,0.3673146711922363,1.0459039651829738,0.6830107976811375,0.45182202414281514,0.38711112142242077,1.0140971667420493,0.7670593107241228,0.4655893601449895,0.4292868360280968,1.021283396759453,0.7670508103120801,0.498071579546732,0.3779476331851162,1.0213555437128394,0.7369320319640575,0.47716359382427337,0.4461921517731515,0.965235919923375,0.686499068485176,0.440187366878536,0.4871538713113751,1.034106682618995,0.7563737690343706,0.46389951685234776,0.48739373325204116,0.9512928960255238,0.6763920575575488,0.4842842493101762,0.34916994324088896,0.9762250063331872,0.7348730498216417,0.4819339745389735,0.4181129559350802,1.0115224638179248,0.6676920857834888,0.46701711251962774,0.29017366818460455,0.9907863783919091,0.7538414028973703,0.5214861828005922,0.4863061638446172,1.0132691137996255,0.5522470148774435,0.4690078112319455,0.13923610454055013,0.7838280606489252,0.7378705883590366,0.585972795433034,0.4471519819329427,1.001981757199175,0.5605886223647034,0.47704145626245337,0.09509360161532388,0.6485427385458816,0.8401535054622357,0.6827594036399327,0.5067026887044133,1.0030024872049006,0.47850474834202633,0.44985747907972107,0.1287096999915249,0.7221410770388637,0.776163995393822,0.6790456596987519,0.5275732075959628,0.9970215916293942,0.49884122057812613,0.5308117353817657,0.1786883216589415,0.7397921341005692,0.8185677009388787,0.7032238046595803,0.5698051215892124,1.03878284981771,0.5303207276917873,0.5253997977875328,0.08536471023193162,0.6504568922653117,0.7694151820179507,0.6615040882458674,0.5116910886897463,0.9521470193177484,0.5045418536367112,0.4937247549164953,0.17834921641954288,0.9640768764479107,0.5320734680502904,0.5866206620579105,0.1898319457395569,1.0345079148718386,0.4483924178173739,0.45933762897370506,-0.0029447479548444233,0.9794303540190825,0.5419044032372052,0.6283910198442175,-0.04283982735371513,0.9703435343943166,0.33469085849370417,0.38141473539075815,-0.17560184117541772,0.9925886218586195,0.38828861159241523,0.67782138023203,-0.4019782650576034,1.0143728816445292,0.2662196679810748,0.41410504065083165,-0.15914519209708625,0.9639595823672801,0.35045097339634806,0.6731217757594629,-0.37248368560927136,1.0036150833396558,0.29086074149875196,0.41091896294059943,-0.17188034039373282,0.9818677425797168,0.3195895444435834,0.647155264787252,-0.5150746039626167,1.0066810300674318
19,0.7171194482672392,0.4939793114377378,0.47441206367182664,1.0047193051946663,0.7612980358636439,0.43172204230307715,0.5444010740732483,0.9638369699674598,0.7355448995727875,0.3950981664693812,0.4672058851462117,1.0458050214726466,0.7257163351515639,0.44837499812848713,0.4872835179694258,1.0140971667420493,0.8087277400264552,0.45850218906726126,0.5380784890245948,1.021283396759453,0.8073504284035368,0.4898623212287846,0.48623709896663864,1.02125993786262,0.7759300509569649,0.4678749549940885,0.5540869843498339,0.965235919923375,0.6992816937780468,0.4337212165947225,0.49366315343443085,1.0339569557513193,0.7835916383529338,0.45073267200752964,0.5663267221683755,0.9504350659779164,0.7178827182064789,0.48983707762209633,0.4397881923072228,0.9754205224426538,0.7791170301062272,0.4851039283620631,0.5251111984724686,1.010778299827904,0.6692359956060392,0.4690041227601826,0.24130671643729223,0.9900528836333032,0.7833423272925206,0.5263340073741091,0.5723564943605831,1.0129354469981728,0.5656310192105836,0.5035489114955412,0.10644970182547013,0.08016551616001827,0.7708814761057956,0.6055287217559711,0.573923035456658,0.9730048399323291,0.6085295847252856,0.5234080882471641,0.10670179163418173,0.08933869658802643,0.8703399026270081,0.6948423380195103,0.6244442470147534,0.9645325169786131,0.5342280458398432,0.49218124721860657,0.14054021964771596,0.09882058691702215,0.8084895966794998,0.682524365581778,0.6450420730943326,0.937231874431976,0.5552840043649878,0.5702773415943818,0.19343010923611167,0.11244663172401279,0.8493178286891168,0.701642016596531,0.6825906800831156,0.9745458512596656,0.5855934221033139,0.569131278624401,0.10267729785793331,0.056712800575725024,0.8004075523750086,0.6661605223050104,0.6265685975719861,0.8472250823289178,0.4945741477539791,0.500402084456748,0.10901811650683312,0.9635309575064132,0.5540867406015617,0.5928660963421207,0.2629653244289773,1.0335106695601013,0.5152989348043665,0.5409669350516623,-0.08267446092419392,-0.004422574485265408,0.6329855083845372,0.6214801593057349,0.1936839156190707,0.42877778832536206,0.4151006799546043,0.5047649086256978,-0.3409269502162957,0.056741972748302255,0.5146130332595608,0.6775759879094897,-0.048121798206109685,0.2511414402659358,0.34560094994930973,0.5350704022459856,-0.3275867458577918,0.07947097740445427,0.48089845401497133,0.6779788986575647,0.00032166159025078314,0.1358578076390865,0.4123476480887285,0.574182283863451,-0.3281696671904079,0.07097289417340182,0.5245989400682138,0.6355721749587608,0.042903868150066485,0.2153092673148988
20,0.6168080269595377,0.48371428892148716,0.183393870074355,1.0047193051946663,0.6673271983180215,0.42645200822829377,0.26068667109297794,0.9638369699674598,0.6409592744059068,0.3901293742692927,0.1833456641572098,1.0459039651829738,0.6305610516597138,0.44379259303815505,0.20327348051946026,1.0140971667420493,0.7135215523437348,0.45351617112483267,0.24082200678051155,1.021283396759453,0.7138934674961104,0.4853917046497288,0.1895942639699636,1.0213555437128394,0.6841702261278461,0.4638769436434568,0.25802030007156623,0.965235919923375,0.6336502366929544,0.4353286644573476,0.30194371772787904,1.0341065634097055,0.6986231904180559,0.45062183717056975,0.28333870921351867,0.9512926576069446,0.6239049397203,0.4773221287771867,0.1796644391585066,0.9762227413566856,0.6814096398165673,0.47311788133256794,0.24349391030159206,1.0115172186091845,0.6298958020536912,0.46398350432146185,0.18895676658705157,0.990809743412661,0.710757140045437,0.5220523673213137,0.3236343342446449,1.0132673256602822,0.536964839609879,0.4582449409202085,0.18259293692258446,0.909925143740661,0.6938804708178943,0.5935953354301349,0.3043845628144042,0.9582391004914113,0.5295925326343882,0.4395246239107688,0.1733281695139124,0.7509039407858719,0.7766689629200393,0.6849993461905919,0.3147464786838641,0.9390262589677487,0.4425062712426139,0.40015793417310486,0.2047647764829891,0.6880285043688807,0.7060768604885123,0.6760357443468842,0.3034448800698934,0.8926174401897274,0.4603763521931697,0.4836001479527191,0.2407605118376108,0.6931986468378434,0.741039278138966,0.6970774332949868,0.33347864613539036,0.9248953609756998,0.5002023179885257,0.48508425914274206,0.1602007120641679,0.4977429378166117,0.700917499377344,0.6599901302685725,0.31071155558888097,0.7587906841546319,0.4920447910371209,0.4919472252000036,0.1491498693399297,0.9640183446867414,0.5409003122369964,0.5891900394802433,0.2179301868504258,1.0342932785460022,0.4467436656080724,0.4855694841277426,-0.056685044233293624,0.170299476762689,0.5746282365339969,0.6232947631112769,0.08052908460914887,0.5635855240068959,0.34467045563120646,0.43285074241361576,-0.2792552116467387,0.4829286758938063,0.4816733189167356,0.6936497512800036,-0.11334266686007508,0.5254723989899578,0.26943043839953135,0.46494991860912943,-0.2982125317653451,0.6864301638988047,0.4325835979411937,0.6992231861484094,-0.06369395614786051,0.7263242026595714,0.32358911403862234,0.48915059565010266,-0.24210972842159204,0.5313121796066942,0.4666897569698206,0.6531966723723961,-0.004749678623646766,0.5258497646179079
21,,,,,,,,,,,,,,,,,,,,,,,,,,,,,,,,,,,,,,,,,,,,,,,,,,,,,,,,,,,,,,,,,,,,,,,,,,,,,,,,,,,,,,,,,,,,,,,,,,,,,,,,,,,,,,,,,,,,,,,,,,,,,,,,,,,,
22,0.4898202018031496,0.6624994342042325,0.2613000110966692,1.0047193051946663,0.5286114040521268,0.6163399491119304,0.32237497083409905,0.9638369699674598,0.502995198969983,0.5815538930929164,0.245271719835105,1.045903369136526,0.49322143732619467,0.6363962705493703,0.2654069961895032,1.0140971667420493,0.5688151491862216,0.6368209578069616,0.29078405369102844,1.021283396759453,0.5681919285920157,0.6667558535049382,0.23922669897953203,1.0213549476663917,0.5375796794996289,0.64317480808056,0.3074131894625056,0.965235919923375,0.4915366573610886,0.616848321830776,0.3248404917325826,1.0341031063403088,0.5310529709782328,0.6144341466741251,0.24984858467310395,0.9512918231419178,0.5044646549648709,0.6431922290369676,0.2493381707453789,0.9761947271736412,0.5557086584938143,0.6338441007482326,0.29769575628927664,1.0114659586146777,0.573703701368129,0.6316973252557576,0.2882179445225141,0.9890430617415185,0.5289307765605662,0.58206947623855,0.20476319544697694,1.0052099101749001,0.587902405019865,0.6673998746112333,0.3474832896594878,0.9922982263784478,0.48858247451338355,0.6125167107047931,0.18633693294168185,0.9552231650704213,0.6373894740036942,0.6847091050547203,0.364696506938839,0.9738402730116715,0.542165072173014,0.6964886779128514,0.24858501949050205,0.9669149146302854,0.5714052069163826,0.6614596304736114,0.42491412524554717,0.9758000869723354,0.45457257976151216,0.6790690247195038,0.22291842883642357,0.9440215587276303,0.5743984861826108,0.729372867335959,0.4324608238831946,0.9734404938761124,0.489389434521857,0.7097183863589517,0.2657377414073157,0.9808206110291056,0.6052640951792108,0.720372163882122,0.3437395871369289,0.9499572384490884,0.4585200733219189,0.6779200418820368,0.24950976633667238,0.896064532211425,0.5442701106563407,0.5124950622189703,0.2602141944891274,0.9640464780790754,0.49830174343256706,0.5358527038936953,0.10978256079149273,1.034493490547803,0.6055088427420566,0.5089720856082266,0.2568562146465777,0.9687417510947355,0.5149642351933286,0.45817213489930164,0.0001424059222367366,0.3407189292154836,0.5857123675894891,0.4154574812193867,0.14269640828548757,0.8578071420231093,0.4706517469148064,0.4655748728257952,-0.12406390563245973,0.20133967339352984,0.5246372878496615,0.4403923579268326,0.16882399618777227,0.7797191219714671,0.4500764671992629,0.46126511253238156,-0.06098501029285662,0.3661608120231273,0.5912156880320429,0.4568329572528858,0.18000029232883907,0.8416601539070787,0.4741786587987398,0.3852274812980248,-0.024084410132798426,0.4037623753871797
23,0.4941148036185348,0.6709731881333707,0.27625852211022717,1.0047193051946663,0.5383114088904699,0.6243410382079997,0.34901962143309806,0.9638369699674598,0.5136792865382539,0.5893978643453578,0.27221625448914316,1.0459039651829738,0.5048622838117747,0.6441224034190908,0.2926353152328201,1.0140971667420493,0.5768378152286705,0.6453399516614843,0.31846972005219726,1.021283396759453,0.575588261346261,0.6754676087806645,0.26668420257433556,1.0213555437128394,0.5443813209897611,0.6520736623362363,0.33471052451532834,0.965235919923375,0.5143583468978656,0.6247856339569356,0.3811472932891334,1.034106444200416,0.549711022920281,0.6237790820913004,0.3133518539710882,0.9512927768162343,0.513482309655988,0.6520302269503282,0.27266389474371927,0.9762233374031336,0.5628174590797582,0.6431254976140773,0.32307343271272804,1.0115197220042653,0.5946450260748647,0.6417034549974263,0.33133816851230713,0.989855473049807,0.5386444328755174,0.5977237421191347,0.2567181642679697,1.0121890776362954,0.5951610469113645,0.6781470092967496,0.35137557255618546,0.9928040313940119,0.4870594793378187,0.6272935366096393,0.19926782277428207,0.9157821755760974,0.6478024091755892,0.6901557178896507,0.38245391155760816,0.9753503566870559,0.5349964599995481,0.7110627288161717,0.23266905911030947,0.9789907560571347,0.5836903154690747,0.6636624989352203,0.4446955471672615,0.9797841806384119,0.44774546873882165,0.6936987463610443,0.20704696834973907,0.9733646273273312,0.5905467635531069,0.7340048634907441,0.46741980545235573,0.977905716234816,0.4858552045577429,0.7239928047129861,0.2551429288485202,1.014828458338218,0.612601181522639,0.7262246843479728,0.3520101346612971,0.955816494239799,0.454129915734685,0.6911246760716425,0.23545812889173978,0.9302745584756158,0.5494146866651812,0.528107277022666,0.2613066862086984,0.9640486238462872,0.49319541938967715,0.5542379949932438,0.1087950026180391,1.0345173324057129,0.5886726415569329,0.5049940120112723,0.1649382804104838,0.9681308630904327,0.5069958422560945,0.46055259540001886,-0.025584528741390992,0.3755126041613149,0.544846562337973,0.4030395091315266,0.01122984063965924,0.9001807396450271,0.4546718497514355,0.4431876662713823,-0.16677098932689288,0.5317500197823467,0.4801798193024619,0.42860395989941263,0.03345825866817652,0.8711072283175975,0.4331605181226176,0.43417119540095767,-0.1055759075596799,0.6129027029304149,0.543566088468081,0.43757013677063183,0.028354145108770358,0.8237928867752733,0.46055329231057907,0.3622726597114159,-0.06688541473693331,0.5585345676269411
24,0.4832205367737675,0.6685507361604093,0.2160122652115987,1.0047193051946663,0.5273839645897034,0.6240421209144511,0.28781057443435826,0.9638369699674598,0.5024531328769835,0.5894351172483424,0.21091515004291927,1.0459038459736842,0.4933504857694127,0.644479792869164,0.2312990664571115,1.0140971667420493,0.5661493594059364,0.644642100480454,0.25661764742195936,1.021283396759453,0.564973208260298,0.6747701152275029,0.2048908201436108,1.0213555437128394,0.5338326900841351,0.6513882685259641,0.272972915159795,0.965235919923375,0.5035971818893203,0.6266413649673727,0.326343061019424,1.0341063249911264,0.5411485471886037,0.6244380710439371,0.26103301957783626,0.9512927768162343,0.5014624678471172,0.6502712938830064,0.2142442318111985,0.976222145310238,0.5512092016574268,0.6406375401365078,0.2639022313937644,1.0115180530742114,0.585381771710365,0.6417436881326497,0.2947963284371807,0.9899835038267845,0.5309033589349322,0.5941605168498171,0.22056807478206383,1.0129402153697549,0.5911036131432145,0.675340882225369,0.333955864066744,0.9928296613912654,0.4767663698594082,0.6189316605987445,0.18083072282704937,0.9807352643364733,0.6408249529664887,0.6871640415590843,0.3633372361833837,0.9755842453131547,0.5253020186159024,0.6996294254600011,0.24370015387954397,0.9998396263345395,0.578242240106793,0.6605848727068878,0.43024171684021106,0.9804658789607082,0.43871265145099025,0.6817657772677216,0.22522623131627845,0.9972444533962093,0.5815426249895265,0.7317838752171235,0.44077401400704824,0.978665437037123,0.4770849175247806,0.7125729720065347,0.2744791724022957,1.0396061687759928,0.6095320071834975,0.7242881294392204,0.3437245023370347,0.9573259818687356,0.44331283888115347,0.6802627428402888,0.24886411873314945,0.9553502921372674,0.5516130280130659,0.5194887434113684,0.26426914835629384,0.9640550611479232,0.4930292131177757,0.542942437971149,0.10648491101813465,1.034521266312268,0.5966781437485317,0.5107598673236197,0.1698548094347839,0.9781751994094023,0.4901380807676491,0.45083918406884205,-0.02775255494557923,0.742048029347472,0.5518911470490712,0.4160986185809132,0.03973805301733812,0.9639924590625991,0.43315904339653694,0.44370449814622975,-0.12143826307137828,0.8082444631989422,0.4862231258712028,0.44300637922810215,0.06356976011440874,0.9294415192988903,0.40987706331737545,0.43684535778880557,-0.056695195725988565,0.861808838489497,0.5465086878843697,0.4528780102581043,0.056408009724234966,0.9398738861496629,0.4326624083343729,0.36473826544719473,-0.020035354628359384,0.880575185092914
25,0.5114794567203489,0.6743137304498075,0.2874236997653725,1.0047193051946663,0.5581727423474928,0.6286140951919474,0.3656572551958913,0.9638369699674598,0.5336313657733408,0.5942711997068385,0.2889348477038341,1.0459037267643945,0.5249170595530055,0.6496057327152028,0.3094762908464177,1.0140971667420493,0.5984514846589347,0.6479978419813085,0.34010445717254595,1.021283396759453,0.597361963804054,0.6776002033660832,0.288337242165437,1.0213554245035499,0.566315282159481,0.6537127304629148,0.3563871584223235,0.965235919923375,0.5332631431497528,0.6318075975532796,0.39079618298323127,1.0341029871310192,0.575570056648217,0.6259100077466654,0.3438319621213057,0.9512913463047596,0.5296872950581109,0.657572266821544,0.2809267298731097,0.9762110588463098,0.5819181935421536,0.6466202967511928,0.3396964389400104,1.0115109005168383,0.6131384417345404,0.6529822631143392,0.3346416404857648,0.9826282906615013,0.5667157660727502,0.5998931127703798,0.2988951845073973,1.0054192416873513,0.6195951274843909,0.6983216318324552,0.3968251250824812,0.9926127004842829,0.5167615709585625,0.6238285993995563,0.2876360073067279,0.9551292877548999,0.6773561114000075,0.7001995773714622,0.46863068675965486,0.9750103121886123,0.5653143437917388,0.7072181696235142,0.36573647472099435,0.9989915714486751,0.6129293281083514,0.6682270822367645,0.5369386803214866,0.9794107575388943,0.4800854429440157,0.6856621925013336,0.35565734125192544,0.9957148790019832,0.6167531906107205,0.7370103084942536,0.5498147305555224,0.9777691023889908,0.5176575614711111,0.716653744406437,0.40342315632621206,1.037212982683616,0.6452686105317497,0.7315648432873344,0.45068932025570624,0.9550552833213725,0.4818615390672456,0.6862421615948664,0.36908027977111063,0.9535662655144952,0.5600198984392767,0.5217409645188513,0.24756881358357208,0.9639711378080792,0.5119079784430886,0.5482316349392277,0.13209027011884805,1.0344737018057373,0.5969688393089394,0.5028761397731131,0.17204623300726485,0.9699540499648223,0.5097192531655989,0.454178891920252,0.07883497548309742,0.9026393336496876,0.5517214536141325,0.4247239471217152,0.057027361842673645,0.9579495017566907,0.4498136068227663,0.4511344555360613,0.027970668499831243,0.9709219896729413,0.48869889670245564,0.45481247983502054,0.08284321294769705,0.9357752280620126,0.42833859713614675,0.44359337843776186,0.09787709317432193,0.9759191294936779,0.5337199075347033,0.4651103734821339,0.06386479130494727,0.9052257657463731,0.44040953078757394,0.3764339484496666,0.13453736989760745,0.9791880300369143
26,0.4918845465017874,0.6675408546639798,0.23913911267086954,1.0047193051946663,0.5330166565494472,0.6228712472724833,0.3061457848710728,0.9638369699674598,0.5077837392178567,0.5884897875822047,0.22915655953595068,1.0459038459736842,0.4983721315369202,0.6437587554813161,0.24943562010597803,1.0140971667420493,0.5737589008443239,0.6425219632657934,0.27879191511046614,1.021283396759453,0.5729795670959986,0.6722601040313664,0.22720214428515678,1.0213554245035499,0.5422441753153875,0.6485180664614499,0.2954167526369114,0.965235919923375,0.501521426529909,0.625032337581661,0.3210163375991121,1.0341057289446787,0.5522104576740782,0.6201257345990824,0.28927278420453423,0.9512926576069446,0.5078332458450566,0.6490349743410753,0.22946871448032363,0.9762223837288172,0.5602321162622416,0.6386342876302517,0.28403422597025185,1.0115186491206591,0.5823435177737091,0.641742019202596,0.2685416418675406,0.9906957793318505,0.5434744628198206,0.5859809714472902,0.23789523223433523,1.0131189100947915,0.5879924745230192,0.6784438404277311,0.3111822015712293,0.9915348100881646,0.4836704213400508,0.5924280976714984,0.2091126305072336,0.951780519997484,0.6378691955539462,0.6875714989107689,0.34603235289913054,0.9713422423491347,0.5429628098269242,0.661506890708109,0.33551036783259525,0.9746237621530209,0.5725312711147794,0.6603216585955597,0.4076019841617411,0.9740729231806788,0.4377747305186078,0.6382469956057343,0.2627175175237168,0.9826436400073848,0.577913755095385,0.7300064051052766,0.4239376102126095,0.972992922598494,0.4785404645943657,0.6704897086093179,0.32299448279707704,1.0246468930534889,0.6072337219665408,0.7223917480610466,0.32917306578233413,0.94689975859069,0.4478790093898256,0.6396101697316157,0.30499038185166044,0.935717237403991,0.5476821330803371,0.5087882493603888,0.24398728007756876,0.964073419378514,0.5036041784597923,0.5334663425331454,0.12914460029319536,1.0345211471029785,0.5486528169700814,0.4769460927378958,0.10056111131865622,0.9780110482176909,0.47471960356552373,0.44104366733948724,-0.0422403478795337,0.8618416232309865,0.49880825070990265,0.38532822735509836,-0.043723351502539524,0.9881465857067335,0.40028534707704183,0.44157747659509755,-0.18647789972336695,0.9593958818848553,0.4350102616307309,0.4124070235304703,-0.020075021166862567,0.9528635816958935,0.37680438645714276,0.43474587358355954,-0.12716362739322812,0.9647133370666149,0.49433359571730323,0.42077250479164313,-0.013006927103036421,0.9764067054207506,0.39588668734935073,0.3640287615581108,-0.0878106242305867,0.9872607639160036
27,,,,,,,,,,,,,,,,,,,,,,,,,,,,,,,,,,,,,,,,,,,,,,,,,,,,,,,,,,,,,,,,,,,,,,,,,,,,,,,,,,,,,,,,,,,,,,,,,,,,,,,,,,,,,,,,,,,,,,,,,,,,,,,,,,,,
28,,,,,,,,,,,,,,,,,,,,,,,,,,,,,,,,,,,,,,,,,,,,,,,,,,,,,,,,,,,,,,,,,,,,,,,,,,,,,,,,,,,,,,,,,,,,,,,,,,,,,,,,,,,,,,,,,,,,,,,,,,,,,,,,,,,,
29,0.6964290981126066,0.48871869489682895,0.49627633962521533,1.0047193051946663,0.7436383917630021,0.43238568041800635,0.5590708873214256,0.9638369699674598,0.7196331814640424,0.39802174449329164,0.48251058998996316,1.0459039651829738,0.7115907054318382,0.4537467177272572,0.5031643973450293,1.0140971667420493,0.7849587850328325,0.4529875375303197,0.5408836619003456,1.021283396759453,0.7831232906234287,0.4827273472259465,0.48891871484792354,1.0213555437128394,0.7513877602505472,0.45927340870655187,0.5566918970494097,0.965235919923375,0.6912630948527485,0.4444754740352895,0.5098697884279257,1.034106682618995,0.7395881960910018,0.44420065859123936,0.4943464338078649,0.9512928960255238,0.6981599433263064,0.48616406059710243,0.45644726239162864,0.9762250063331872,0.7494933472853473,0.4759813480722224,0.5208246092198259,1.0115223446086352,0.6638130268024284,0.48088431194055675,0.2740692662129493,0.9908339428984398,0.7433738630445074,0.5049550729907167,0.48163621107071414,1.0124794118609963,0.5815035548571625,0.5451683315471159,0.1686924530079498,0.018527376971728564,0.7382918949078418,0.5868940448226825,0.4899744509800586,0.9873119812363452,0.6394151587458236,0.5471851559084495,0.16729030409897536,0.062159656573282616,0.8527468044522808,0.6883586639701329,0.597807327765164,0.9596113190873775,0.5754056337562357,0.5168325958094574,0.21533070234706891,0.15426473808012336,0.7870579990772995,0.6830534164088043,0.6152624792903293,0.916110253300079,0.5931758146456343,0.5857949936291413,0.252875051220549,0.10622168653644418,0.8254375718405238,0.7076321045825235,0.6416585510672801,0.9274936466507486,0.6206166882256124,0.5825444694660759,0.1579096086707631,0.04742913128279822,0.7776793347160378,0.6681452377667414,0.5929817573394194,0.7526204113274835,0.5099522314933282,0.5119443153012457,0.18496644575339624,0.9640727041227766,0.5287526927464873,0.5945908163433414,0.18351137500764134,1.034182115883496,0.5045831248205958,0.46962279785988975,0.21043815839530866,0.9691858056983124,0.5029027322052614,0.6453072948686316,-0.02566612390203165,0.4986989540300893,0.40503955213186155,0.3516024888297077,0.09793787470875878,0.9694593970813979,0.4307128463217922,0.6798099699956713,-0.21806855152922405,0.4343613946373881,0.33227058385018293,0.3759761878065934,0.11838027679440737,0.9410607295421153,0.39977501951691635,0.6829332963359399,-0.1659205193065459,0.7199073454169872,0.3823132555446295,0.3770542859882374,0.1365735711923117,0.9292180657799424,0.43954767917818577,0.6015738047881676,-0.1233887712506201,0.5483753135528444
30,0.7141979078099843,0.4805249337865232,0.5615126966510613,1.0047193051946663,0.766060977644403,0.42624464366912024,0.6418875479658279,0.9638369699674598,0.7412428423681695,0.39136754155521186,0.5651106805948874,1.0459039651829738,0.7322880182428462,0.4465648050666585,0.585480912653216,1.0140971667420493,0.8056763210722526,0.44991631880130056,0.6106099586021321,1.021283396759453,0.8050401769416033,0.4815929218242589,0.5590067436460981,1.0213555437128394,0.7743709643947213,0.4599888134554685,0.6271071111988522,0.965235919923375,0.7290689821179881,0.439675333177593,0.6476665569473607,1.034106682618995,0.7682569665010368,0.45201140025421843,0.5768952055451997,0.9512926576069446,0.7208534330742691,0.47711208200899824,0.5391311106736458,0.9762241718681604,0.7702450861780522,0.46989246538751483,0.5876898895976567,1.0115153112605517,0.7058187584133062,0.48209199145067333,0.4184575637761331,0.9908035445296045,0.754089161067492,0.5135829645312441,0.5167347544929937,1.008743094703251,0.6106363925131483,0.5109368774131284,0.29470747209009607,0.47726453425694204,0.7389040780964898,0.59000618214034,0.5074121281156396,0.9866134744042224,0.627081052206023,0.5014559061926445,0.26117504125158375,0.4942604666838516,0.8466192698430706,0.6823384756385289,0.6009741263201248,0.9696448073609983,0.5565586063846195,0.47012276028013,0.3176817514043922,0.5190498132678065,0.7786373134476963,0.6791699949877533,0.6211869606104489,0.9449236750263058,0.5755276397399762,0.5460870349308686,0.35762678862898833,0.43810876780189373,0.817510533783127,0.698326746649479,0.653273059011345,0.9694798736862709,0.6017223465997461,0.5420077677868461,0.24988118841779086,0.3062279987468638,0.7713713521021265,0.6565452798237787,0.6012466069296807,0.8413973573952935,0.5151096657096095,0.5099810277093115,0.21246083599898255,0.9640821216566512,0.5221501280996778,0.5908317302112919,0.15540840109841997,1.0345002854773073,0.5051718068551936,0.46837276924966026,0.20704753084209668,0.9788631562193999,0.5207438777383664,0.611735991977854,-0.04553999274082351,0.5741776270113514,0.4049345633892169,0.35663589246473276,0.06810195908428138,0.9899149363079299,0.4192352062190842,0.6425667229635058,-0.28795021399522014,0.509130682938856,0.3343951708531205,0.3925346263460984,0.08900258889761935,0.9560026007083446,0.38879917871388875,0.6488470689189477,-0.23655533629369085,0.4935134371547344,0.3951765964598417,0.3701532006114979,0.141260018737134,0.9708060741837206,0.43243263594815756,0.5777427949233604,-0.16796024706112106,0.4967081299152253
31,0.6389288823174448,0.47993985459340793,0.3292152795490171,1.0047193051946663,0.6928812132751286,0.4246549579906382,0.41540331971465205,0.9638369699674598,0.66755997176429,0.38989980697994026,0.3383686500173432,1.0459039651829738,0.6580862310918199,0.4451564963222279,0.35851216848924516,1.0140971667420493,0.7352235856612902,0.44971238150920156,0.38928063457517,1.021283396759453,0.7351296024692332,0.4814977332065526,0.3377841655618677,1.0213555437128394,0.7049178733450011,0.45985643153942235,0.4059332866977208,0.965235919923375,0.6827726651600539,0.4392998835201528,0.5128818405707304,1.034106682618995,0.7229409310380773,0.45198806503578887,0.4326485738131164,0.9512928960255238,0.6515423670080857,0.47782402968851784,0.32982118209536554,0.9762250063331872,0.7042867764604117,0.47091259888284565,0.384650927557581,1.0115224638179248,0.6694473032912763,0.47921469643343084,0.3189267450391688,0.9908326315962549,0.732969753106679,0.5208702284014833,0.4464667709016198,1.0132722132411538,0.5786574904060778,0.5107168170646177,0.2390192724223978,0.6701436448316644,0.7021502880318526,0.5979766940536395,0.4167283693940079,0.9982912164086168,0.5883209623166504,0.4877544076841911,0.18649359218755607,0.4693549340853561,0.7632326655059828,0.6917464727698766,0.4303760777019183,0.9989412055238399,0.512411563356586,0.45761776541089777,0.2355027967619687,0.4224105377169642,0.6856209700489162,0.6853701297419342,0.4289532213059662,0.9971988558429562,0.527023773701684,0.5291923665901855,0.2718268344409753,0.39354121261276104,0.7260076091424482,0.711694518751835,0.4647542221705281,1.0371422915749124,0.557673118604242,0.5237154003285026,0.173911824345275,0.33384896994971414,0.6860998500114,0.6707724316945063,0.42911081978774906,0.9531511191636346,0.5104076749917136,0.5093400989640418,0.20251870393583832,0.9640828369123884,0.529093261895821,0.5951376293545109,0.16634767643017284,1.0345278228231933,0.48661547543341904,0.4588766466510122,0.14434091558792836,0.9805636767348419,0.5529889908938299,0.6161695642701819,-0.09325193199838547,0.9454667014322804,0.37379564952872313,0.3666561187048908,0.01012692723231741,0.9939978544750441,0.4368050154763078,0.6846778813344775,-0.4110144924427641,1.011080261462492,0.3005805925039371,0.40213574252651835,0.027256689433624717,0.9676929788974314,0.4027120569778893,0.692032541407351,-0.3709239295551493,1.008618595245326,0.3474192551980121,0.3851108372062702,0.02841387986947707,0.986270380061406,0.4317155355916722,0.6331732072158409,-0.37458963299863196,0.9972963979568361
32,,,,,,,,,,,,,,,,,,,,,,,,,,,,,,,,,,,,,,,,,,,,,,,,,,,,,,,,,,,,,,,,,,,,,,,,,,,,,,,,,,,,,,,,,,,,,,,,,,,,,,,,,,,,,,,,,,,,,,,,,,,,,,,,,,,,
33,,,,,,,,,,,,,,,,,,,,,,,,,,,,,,,,,,,,,,,,,,,,,,,,,,,,,,,,,,,,,,,,,,,,,,,,,,,,,,,,,,,,,,,,,,,,,,,,,,,,,,,,,,,,,,,,,,,,,,,,,,,,,,,,,,,,
34,0.700280091934782,0.47212091729177225,0.538982295411328,1.0047193051946663,0.751257196157776,0.42199209068297516,0.6109436397122823,0.9638369699674598,0.7265444624674783,0.38897387862567695,0.5342262938346024,1.0459039651829738,0.7177946085688063,0.44590235904462483,0.5546496659767044,1.0140971667420493,0.7905006852871138,0.4410592474016118,0.5780391891696766,1.021283396759453,0.7900115898165588,0.4709005042026463,0.5264211003785157,1.0213555437128394,0.7594946221624833,0.4474997628287137,0.5945024603713204,0.965235919923375,0.7100240850462494,0.4426554164047506,0.5946118358031549,1.0341065634097055,0.7463988294841016,0.4354951021985697,0.5141381788983967,0.951292538397655,0.7047455029896629,0.469913837675731,0.5110450798227508,0.976223456612423,0.7534568934780593,0.45791684917085523,0.557069989430252,1.0115128078654712,0.7149352641021464,0.48802402451265453,0.45134497571401583,0.9908351349913352,0.72668842725403,0.4819551306880128,0.44955580755815056,1.011427330276066,0.6518329437317566,0.4727651390269742,0.4830769700463253,0.8989517498235774,0.6399374114766575,0.47482959384344964,0.40880193764963346,0.4866673570030994,0.6558901005732742,0.4140398235720237,0.5076671863705257,0.8191106086859573,0.6589476371504607,0.5187997216521703,0.4549708056962842,0.33768223979317286,0.5797306986122788,0.371691351874826,0.5774596575556139,0.7000266809435878,0.568453118362378,0.4935843769686493,0.4408748777750427,0.293009108271011,0.5883776091984653,0.4369932496449188,0.5900105359595745,0.7027371781412491,0.6050631445113078,0.5206818978259317,0.48832130853658307,0.28536839774175193,0.6199239827497773,0.43986573182569494,0.4863011787299916,0.5267111528053202,0.5687165397079411,0.48957323869371283,0.4545491244283673,0.13090367358029098,0.5232013566964747,0.510712406503028,0.2113519684720825,0.9640823600752302,0.5330058672350998,0.5700334046726566,0.16278791732504677,1.0344874108740356,0.481471266382735,0.47301108349679166,0.15665581749402444,0.9694767359694609,0.5216421803824063,0.5427369399301245,0.02702653063304746,0.8974579614840078,0.391085609048448,0.3643021524687763,0.007294319620256166,0.9870189254322279,0.42102945887906845,0.6066976014119921,-0.18948469022715975,0.8469926083023968,0.3211445715514658,0.3916942008547654,0.029411163516420712,0.9612287359622507,0.39024017369549197,0.6120241538417382,-0.13589928937134432,0.9138640185622814,0.3795532763573784,0.40259624718132214,0.06237747223544831,0.9708525658066454,0.4214458050506873,0.5463710226340843,-0.06986839464226487,0.8184503963317751
35,,,,,,,,,,,,,,,,,,,,,,,,,,,,,,,,,,,,,,,,,,,,,,,,,,,,,,,,,,,,,,,,,,,,,,,,,,,,,,,,,,,,,,,,,,,,,,,,,,,,,,,,,,,,,,,,,,,,,,,,,,,,,,,,,,,,
36,0.7342682133730598,0.459598935098779,0.613258028324183,1.0047193051946663,0.7774443013064408,0.40889548991202485,0.6636960499853563,0.9638369699674598,0.75326234610281,0.3772546815908411,0.5871418855308128,1.0459039651829738,0.7450503169766534,0.4354837949634328,0.6078125968360842,1.0140971667420493,0.8177799613069934,0.42284031286563156,0.6417980871598566,1.021283396759453,0.8162002563346269,0.4508503063629094,0.58998163550167,1.0213554245035499,0.784557082429183,0.4256418753222287,0.6578990053543065,0.965235919923375,0.7187146295019831,0.4358387014026906,0.5871229804746161,1.034106682618995,0.7628091904572017,0.40995728352829686,0.5588389158912294,0.9512926576069446,0.734944653984483,0.464006033901851,0.5682627460628302,0.9762203571708948,0.7849509073870194,0.4455457859384334,0.6281557424273146,1.0115111389354177,0.7280560831983505,0.553871302153951,0.4176389014629562,0.990762774952578,0.7416079847943077,0.4306333559668672,0.5360001327873163,1.0106735103335918,0.6828143951595151,0.6209998044208036,0.41835529463920923,0.9361139345388482,0.709915464859469,0.44781405681990527,0.5892677740172162,0.9812454204911061,0.7610744104520214,0.6127523513239463,0.5616700670727439,0.9536016946921219,0.8064543344773629,0.48471504395594217,0.7574191314092293,0.9699712023957883,0.7052562476916271,0.5810300764880157,0.6497618294218712,0.9465843934985195,0.7359086899994256,0.453064543403891,0.7705541492646127,0.9437840342182005,0.7223564051867767,0.6424570763012605,0.6879874233197424,0.9520738976541887,0.7763654117473969,0.48153103394005214,0.8206948899744282,0.9905334859184793,0.7396077927293984,0.6348906990192985,0.557122405941723,0.910004304660789,0.7314137649033212,0.45818209489488465,0.7672528485550024,0.8984184388428949,0.5402296546813053,0.5686523829568091,0.20033441040347777,0.9640731809599348,0.5349045465411121,0.5646660660152775,0.18012682486898615,1.0344890798040893,0.5066574625805151,0.5414218973052328,-0.05849146762085444,0.9170903328856596,0.4966327850260257,0.48015304639260303,-0.058989112061365555,0.9701721114359426,0.40126856420152457,0.4287771821757313,-0.39384663931353003,0.6926032130756605,0.37349790250048165,0.4605390850049791,-0.43414800414147886,0.5452563726838054,0.337174263953217,0.45205946050213475,-0.3877442954821951,0.5719472842601329,0.3481811158174584,0.45274248279452756,-0.39698805810947935,0.692697407844508,0.3856153200747828,0.4678487896770496,-0.3748372814467814,0.8202934980805101,0.3485573166827263,0.3706439234538628,-0.37724186110476504,0.8289656093444704
37,,,,,,,,,,,,,,,,,,,,,,,,,,,,,,,,,,,,,,,,,,,,,,,,,,,,,,,,,,,,,,,,,,,,,,,,,,,,,,,,,,,,,,,,,,,,,,,,,,,,,,,,,,,,,,,,,,,,,,,,,,,,,,,,,,,,
38,,,,,,,,,,,,,,,,,,,,,,,,,,,,,,,,,,,,,,,,,,,,,,,,,,,,,,,,,,,,,,,,,,,,,,,,,,,,,,,,,,,,,,,,,,,,,,,,,,,,,,,,,,,,,,,,,,,,,,,,,,,,,,,,,,,,
39,,,,,,,,,,,,,,,,,,,,,,,,,,,,,,,,,,,,,,,,,,,,,,,,,,,,,,,,,,,,,,,,,,,,,,,,,,,,,,,,,,,,,,,,,,,,,,,,,,,,,,,,,,,,,,,,,,,,,,,,,,,,,,,,,,,,
40,0.5906473848716135,0.4978365068150876,0.15619667083467637,1.0047193051946663,0.6275208417005408,0.4397802922534861,0.19919651273769567,0.9638369699674598,0.6016105220706948,0.4047012496030787,0.12189225788169752,1.0458984815556547,0.5916819933519128,0.45953316644437453,0.14191875042364788,1.0140971667420493,0.678373708493617,0.46102918758715866,0.20275969607146924,1.021283396759453,0.6773223298409189,0.4903192504356328,0.1510848334017344,1.021353278736338,0.6462165781207507,0.4662966538027585,0.21919183537080505,0.965235919923375,0.5579802529653137,0.4456246813888814,0.11675647931069254,1.034104894479652,0.6482043729721414,0.44461556652352086,0.2067588419814399,0.9512900350025746,0.5881298046945034,0.49330013728586897,0.11018941640456698,0.9761988994987756,0.6524745127444245,0.48286818793886066,0.2053997681358719,1.0115016021922534,0.5547740645320245,0.48717081382501715,-0.06347633980508571,0.9907243895613427,0.6816648738955275,0.49684878169661884,0.29815411479978354,1.013242172500187,0.5395748404474768,0.5502641710475431,-0.09514041197581206,0.06830875905562146,0.7046432548143724,0.5816643928947345,0.36560132687351166,0.996408126866228,0.6239432368430542,0.5695113869112571,-0.044145186141674786,0.11892747043465271,0.7967416862830627,0.686357736045023,0.40394246182319365,1.0042746887429865,0.5569891667291764,0.5359492955050446,-0.011036275929880629,0.15827107917986244,0.7319550602062708,0.6708451334612641,0.4080161778855105,0.9973057865756833,0.5756059600645028,0.6050698840519624,0.02970583185545273,0.18494666689075318,0.7630949039504691,0.6920295755336038,0.42167975972571414,1.0390047579102089,0.608336268832232,0.6061741944454765,-0.04866507532371537,0.1243905443086542,0.7203318051242481,0.6591752751698481,0.3927603226868886,0.9521820072442314,0.48312559531946,0.5155157958138648,0.10509002265365897,0.9640181062681624,0.5452916820810674,0.5671467517261845,0.26033786476388576,1.03424607166734,0.5648335860948613,0.5929680537116354,0.07499161933874912,0.6737248066863188,0.6356237472668135,0.5903004927865698,0.3133856924647493,0.9574744147501514,0.46101487438919625,0.5666018665572163,-0.055642064182870925,0.6458795492687452,0.48859280329018995,0.6057037535650073,0.08171436098288656,0.799871798747343,0.39052491134874046,0.5967798062376848,-0.031152208192317055,0.6108954029468089,0.4534592700180861,0.595149065626864,0.1285757623156681,0.6861529966621044,0.43633198316214217,0.6423816203922291,-0.03864878325426408,0.7283908248360338,0.452905159079622,0.5543806947990013,0.12043362929675004,0.8407208969917177
41,,,,,,,,,,,,,,,,,,,,,,,,,,,,,,,,,,,,,,,,,,,,,,,,,,,,,,,,,,,,,,,,,,,,,,,,,,,,,,,,,,,,,,,,,,,,,,,,,,,,,,,,,,,,,,,,,,,,,,,,,,,,,,,,,,,,
42,,,,,,,,,,,,,,,,,,,,,,,,,,,,,,,,,,,,,,,,,,,,,,,,,,,,,,,,,,,,,,,,,,,,,,,,,,,,,,,,,,,,,,,,,,,,,,,,,,,,,,,,,,,,,,,,,,,,,,,,,,,,,,,,,,,,
43,,,,,,,,,,,,,,,,,,,,,,,,,,,,,,,,,,,,,,,,,,,,,,,,,,,,,,,,,,,,,,,,,,,,,,,,,,,,,,,,,,,,,,,,,,,,,,,,,,,,,,,,,,,,,,,,,,,,,,,,,,,,,,,,,,,,
44,,,,,,,,,,,,,,,,,,,,,,,,,,,,,,,,,,,,,,,,,,,,,,,,,,,,,,,,,,,,,,,,,,,,,,,,,,,,,,,,,,,,,,,,,,,,,,,,,,,,,,,,,,,,,,,,,,,,,,,,,,,,,,,,,,,,
45,,,,,,,,,,,,,,,,,,,,,,,,,,,,,,,,,,,,,,,,,,,,,,,,,,,,,,,,,,,,,,,,,,,,,,,,,,,,,,,,,,,,,,,,,,,,,,,,,,,,,,,,,,,,,,,,,,,,,,,,,,,,,,,,,,,,
46,,,,,,,,,,,,,,,,,,,,,,,,,,,,,,,,,,,,,,,,,,,,,,,,,,,,,,,,,,,,,,,,,,,,,,,,,,,,,,,,,,,,,,,,,,,,,,,,,,,,,,,,,,,,,,,,,,,,,,,,,,,,,,,,,,,,
47,,,,,,,,,,,,,,,,,,,,,,,,,,,,,,,,,,,,,,,,,,,,,,,,,,,,,,,,,,,,,,,,,,,,,,,,,,,,,,,,,,,,,,,,,,,,,,,,,,,,,,,,,,,,,,,,,,,,,,,,,,,,,,,,,,,,
48,,,,,,,,,,,,,,,,,,,,,,,,,,,,,,,,,,,,,,,,,,,,,,,,,,,,,,,,,,,,,,,,,,,,,,,,,,,,,,,,,,,,,,,,,,,,,,,,,,,,,,,,,,,,,,,,,,,,,,,,,,,,,,,,,,,,
49,,,,,,,,,,,,,,,,,,,,,,,,,,,,,,,,,,,,,,,,,,,,,,,,,,,,,,,,,,,,,,,,,,,,,,,,,,,,,,,,,,,,,,,,,,,,,,,,,,,,,,,,,,,,,,,,,,,,,,,,,,,,,,,,,,,,
50,,,,,,,,,,,,,,,,,,,,,,,,,,,,,,,,,,,,,,,,,,,,,,,,,,,,,,,,,,,,,,,,,,,,,,,,,,,,,,,,,,,,,,,,,,,,,,,,,,,,,,,,,,,,,,,,,,,,,,,,,,,,,,,,,,,,
51,,,,,,,,,,,,,,,,,,,,,,,,,,,,,,,,,,,,,,,,,,,,,,,,,,,,,,,,,,,,,,,,,,,,,,,,,,,,,,,,,,,,,,,,,,,,,,,,,,,,,,,,,,,,,,,,,,,,,,,,,,,,,,,,,,,,
52,,,,,,,,,,,,,,,,,,,,,,,,,,,,,,,,,,,,,,,,,,,,,,,,,,,,,,,,,,,,,,,,,,,,,,,,,,,,,,,,,,,,,,,,,,,,,,,,,,,,,,,,,,,,,,,,,,,,,,,,,,,,,,,,,,,,
53,,,,,,,,,,,,,,,,,,,,,,,,,,,,,,,,,,,,,,,,,,,,,,,,,,,,,,,,,,,,,,,,,,,,,,,,,,,,,,,,,,,,,,,,,,,,,,,,,,,,,,,,,,,,,,,,,,,,,,,,,,,,,,,,,,,,
54,,,,,,,,,,,,,,,,,,,,,,,,,,,,,,,,,,,,,,,,,,,,,,,,,,,,,,,,,,,,,,,,,,,,,,,,,,,,,,,,,,,,,,,,,,,,,,,,,,,,,,,,,,,,,,,,,,,,,,,,,,,,,,,,,,,,
55,,,,,,,,,,,,,,,,,,,,,,,,,,,,,,,,,,,,,,,,,,,,,,,,,,,,,,,,,,,,,,,,,,,,,,,,,,,,,,,,,,,,,,,,,,,,,,,,,,,,,,,,,,,,,,,,,,,,,,,,,,,,,,,,,,,,
56,,,,,,,,,,,,,,,,,,,,,,,,,,,,,,,,,,,,,,,,,,,,,,,,,,,,,,,,,,,,,,,,,,,,,,,,,,,,,,,,,,,,,,,,,,,,,,,,,,,,,,,,,,,,,,,,,,,,,,,,,,,,,,,,,,,,
57,,,,,,,,,,,,,,,,,,,,,,,,,,,,,,,,,,,,,,,,,,,,,,,,,,,,,,,,,,,,,,,,,,,,,,,,,,,,,,,,,,,,,,,,,,,,,,,,,,,,,,,,,,,,,,,,,,,,,,,,,,,,,,,,,,,,
58,,,,,,,,,,,,,,,,,,,,,,,,,,,,,,,,,,,,,,,,,,,,,,,,,,,,,,,,,,,,,,,,,,,,,,,,,,,,,,,,,,,,,,,,,,,,,,,,,,,,,,,,,,,,,,,,,,,,,,,,,,,,,,,,,,,,
59,,,,,,,,,,,,,,,,,,,,,,,,,,,,,,,,,,,,,,,,,,,,,,,,,,,,,,,,,,,,,,,,,,,,,,,,,,,,,,,,,,,,,,,,,,,,,,,,,,,,,,,,,,,,,,,,,,,,,,,,,,,,,,,,,,,,
60,,,,,,,,,,,,,,,,,,,,,,,,,,,,,,,,,,,,,,,,,,,,,,,,,,,,,,,,,,,,,,,,,,,,,,,,,,,,,,,,,,,,,,,,,,,,,,,,,,,,,,,,,,,,,,,,,,,,,,,,,,,,,,,,,,,,
61,,,,,,,,,,,,,,,,,,,,,,,,,,,,,,,,,,,,,,,,,,,,,,,,,,,,,,,,,,,,,,,,,,,,,,,,,,,,,,,,,,,,,,,,,,,,,,,,,,,,,,,,,,,,,,,,,,,,,,,,,,,,,,,,,,,,
62,,,,,,,,,,,,,,,,,,,,,,,,,,,,,,,,,,,,,,,,,,,,,,,,,,,,,,,,,,,,,,,,,,,,,,,,,,,,,,,,,,,,,,,,,,,,,,,,,,,,,,,,,,,,,,,,,,,,,,,,,,,,,,,,,,,,
63,,,,,,,,,,,,,,,,,,,,,,,,,,,,,,,,,,,,,,,,,,,,,,,,,,,,,,,,,,,,,,,,,,,,,,,,,,,,,,,,,,,,,,,,,,,,,,,,,,,,,,,,,,,,,,,,,,,,,,,,,,,,,,,,,,,,
64,,,,,,,,,,,,,,,,,,,,,,,,,,,,,,,,,,,,,,,,,,,,,,,,,,,,,,,,,,,,,,,,,,,,,,,,,,,,,,,,,,,,,,,,,,,,,,,,,,,,,,,,,,,,,,,,,,,,,,,,,,,,,,,,,,,,
65,,,,,,,,,,,,,,,,,,,,,,,,,,,,,,,,,,,,,,,,,,,,,,,,,,,,,,,,,,,,,,,,,,,,,,,,,,,,,,,,,,,,,,,,,,,,,,,,,,,,,,,,,,,,,,,,,,,,,,,,,,,,,,,,,,,,
66,,,,,,,,,,,,,,,,,,,,,,,,,,,,,,,,,,,,,,,,,,,,,,,,,,,,,,,,,,,,,,,,,,,,,,,,,,,,,,,,,,,,,,,,,,,,,,,,,,,,,,,,,,,,,,,,,,,,,,,,,,,,,,,,,,,,
