frame,NOSE.x,NOSE.y,NOSE.z,NOSE.v,LEFT_EYE_INNER.x,LEFT_EYE_INNER.y,LEFT_EYE_INNER.z,LEFT_EYE_INNER.v,LEFT_EYE.x,LEFT_EYE.y,LEFT_EYE.z,LEFT_EYE.v,LEFT_EYE_OUTER.x,LEFT_EYE_OUTER.y,LEFT_EYE_OUTER.z,LEFT_EYE_OUTER.v,RIGHT_EYE_INNER.x,RIGHT_EYE_INNER.y,RIGHT_EYE_INNER.z,RIGHT_EYE_INNER.v,RIGHT_EYE.x,RIGHT_EYE.y,RIGHT_EYE.z,RIGHT_EYE.v,RIGHT_EYE_OUTER.x,RIGHT_EYE_OUTER.y,RIGHT_EYE_OUTER.z,RIGHT_EYE_OUTER.v,LEFT_EAR.x,LEFT_EAR.y,LEFT_EAR.z,LEFT_EAR.v,RIGHT_EAR.x,RIGHT_EAR.y,RIGHT_EAR.z,RIGHT_EAR.v,MOUTH_LEFT.x,MOUTH_LEFT.y,MOUTH_LEFT.z,MOUTH_LEFT.v,MOUTH_RIGHT.x,MOUTH_RIGHT.y,MOUTH_RIGHT.z,MOUTH_RIGHT.v,LEFT_SHOULDER.x,LEFT_SHOULDER.y,LEFT_SHOULDER.z,LEFT_SHOULDER.v,RIGHT_SHOULDER.x,RIGHT_SHOULDER.y,RIGHT_SHOULDER.z,RIGHT_SHOULDER.v,LEFT_ELBOW.x,LEFT_ELBOW.y,LEFT_ELBOW.z,LEFT_ELBOW.v,RIGHT_ELBOW.x,RIGHT_ELBOW.y,RIGHT_ELBOW.z,RIGHT_ELBOW.v,LEFT_WRIST.x,LEFT_WRIST.y,LEFT_WRIST.z,LEFT_WRIST.v,RIGHT_WRIST.x,RIGHT_WRIST.y,RIGHT_WRIST.z,RIGHT_WRIST.v,LEFT_PINKY.x,LEFT_PINKY.y,LEFT_PINKY.z,LEFT_PINKY.v,RIGHT_PINKY.x,RIGHT_PINKY.y,RIGHT_PINKY.z,RIGHT_PINKY.v,LEFT_INDEX.x,LEFT_INDEX.y,LEFT_INDEX.z,LEFT_INDEX.v,RIGHT_INDEX.x,RIGHT_INDEX.y,RIGHT_INDEX.z,RIGHT_INDEX.v,LEFT_THUMB.x,LEFT_THUMB.y,LEFT_THUMB.z,LEFT_THUMB.v,RIGHT_THUMB.x,RIGHT_THUMB.y,RIGHT_THUMB.z,RIGHT_THUMB.v,LEFT_HIP.x,LEFT_HIP.y,LEFT_HIP.z,LEFT_HIP.v,RIGHT_HIP.x,RIGHT_HIP.y,RIGHT_HIP.z,RIGHT_HIP.v,LEFT_KNEE.x,LEFT_KNEE.y,LEFT_KNEE.z,LEFT_KNEE.v,RIGHT_KNEE.x,RIGHT_KNEE.y,RIGHT_KNEE.z,RIGHT_KNEE.v,LEFT_ANKLE.x,LEFT_ANKLE.y,LEFT_ANKLE.z,LEFT_ANKLE.v,RIGHT_ANKLE.x,RIGHT_ANKLE.y,RIGHT_ANKLE.z,RIGHT_ANKLE.v,LEFT_HEEL.x,LEFT_HEEL.y,LEFT_HEEL.z,LEFT_HEEL.v,RIGHT_HEEL.x,RIGHT_HEEL.y,RIGHT_HEEL.z,RIGHT_HEEL.v,LEFT_FOOT_INDEX.x,LEFT_FOOT_INDEX.y,LEFT_FOOT_INDEX.z,LEFT_FOOT_INDEX.v,RIGHT_FOOT_INDEX.x,RIGHT_FOOT_INDEX.y,RIGHT_FOOT_INDEX.z,RIGHT_FOOT_INDEX.v
0,,,,,,,,,,,,,,,,,,,,,,,,,,,,,,,,,,,,,,,,,,,,,,,,,,,,,,,,,,,,,,,,,,,,,,,,,,,,,,,,,,,,,,,,,,,,,,,,,,,,,,,,,,,,,,,,,,,,,,,,,,,,,,,,,,,,
1,,,,,,,,,,,,,,,,,,,,,,,,,,,,,,,,,,,,,,,,,,,,,,,,,,,,,,,,,,,,,,,,,,,,,,,,,,,,,,,,,,,,,,,,,,,,,,,,,,,,,,,,,,,,,,,,,,,,,,,,,,,,,,,,,,,,
2,,,,,,,,,,,,,,,,,,,,,,,,,,,,,,,,,,,,,,,,,,,,,,,,,,,,,,,,,,,,,,,,,,,,,,,,,,,,,,,,,,,,,,,,,,,,,,,,,,,,,,,,,,,,,,,,,,,,,,,,,,,,,,,,,,,,
3,,,,,,,,,,,,,,,,,,,,,,,,,,,,,,,,,,,,,,,,,,,,,,,,,,,,,,,,,,,,,,,,,,,,,,,,,,,,,,,,,,,,,,,,,,,,,,,,,,,,,,,,,,,,,,,,,,,,,,,,,,,,,,,,,,,,
4,,,,,,,,,,,,,,,,,,,,,,,,,,,,,,,,,,,,,,,,,,,,,,,,,,,,,,,,,,,,,,,,,,,,,,,,,,,,,,,,,,,,,,,,,,,,,,,,,,,,,,,,,,,,,,,,,,,,,,,,,,,,,,,,,,,,
5,,,,,,,,,,,,,,,,,,,,,,,,,,,,,,,,,,,,,,,,,,,,,,,,,,,,,,,,,,,,,,,,,,,,,,,,,,,,,,,,,,,,,,,,,,,,,,,,,,,,,,,,,,,,,,,,,,,,,,,,,,,,,,,,,,,,
6,,,,,,,,,,,,,,,,,,,,,,,,,,,,,,,,,,,,,,,,,,,,,,,,,,,,,,,,,,,,,,,,,,,,,,,,,,,,,,,,,,,,,,,,,,,,,,,,,,,,,,,,,,,,,,,,,,,,,,,,,,,,,,,,,,,,
7,,,,,,,,,,,,,,,,,,,,,,,,,,,,,,,,,,,,,,,,,,,,,,,,,,,,,,,,,,,,,,,,,,,,,,,,,,,,,,,,,,,,,,,,,,,,,,,,,,,,,,,,,,,,,,,,,,,,,,,,,,,,,,,,,,,,
8,,,,,,,,,,,,,,,,,,,,,,,,,,,,,,,,,,,,,,,,,,,,,,,,,,,,,,,,,,,,,,,,,,,,,,,,,,,,,,,,,,,,,,,,,,,,,,,,,,,,,,,,,,,,,,,,,,,,,,,,,,,,,,,,,,,,
9,,,,,,,,,,,,,,,,,,,,,,,,,,,,,,,,,,,,,,,,,,,,,,,,,,,,,,,,,,,,,,,,,,,,,,,,,,,,,,,,,,,,,,,,,,,,,,,,,,,,,,,,,,,,,,,,,,,,,,,,,,,,,,,,,,,,
10,,,,,,,,,,,,,,,,,,,,,,,,,,,,,,,,,,,,,,,,,,,,,,,,,,,,,,,,,,,,,,,,,,,,,,,,,,,,,,,,,,,,,,,,,,,,,,,,,,,,,,,,,,,,,,,,,,,,,,,,,,,,,,,,,,,,
11,,,,,,,,,,,,,,,,,,,,,,,,,,,,,,,,,,,,,,,,,,,,,,,,,,,,,,,,,,,,,,,,,,,,,,,,,,,,,,,,,,,,,,,,,,,,,,,,,,,,,,,,,,,,,,,,,,,,,,,,,,,,,,,,,,,,
12,,,,,,,,,,,,,,,,,,,,,,,,,,,,,,,,,,,,,,,,,,,,,,,,,,,,,,,,,,,,,,,,,,,,,,,,,,,,,,,,,,,,,,,,,,,,,,,,,,,,,,,,,,,,,,,,,,,,,,,,,,,,,,,,,,,,
13,,,,,,,,,,,,,,,,,,,,,,,,,,,,,,,,,,,,,,,,,,,,,,,,,,,,,,,,,,,,,,,,,,,,,,,,,,,,,,,,,,,,,,,,,,,,,,,,,,,,,,,,,,,,,,,,,,,,,,,,,,,,,,,,,,,,
14,,,,,,,,,,,,,,,,,,,,,,,,,,,,,,,,,,,,,,,,,,,,,,,,,,,,,,,,,,,,,,,,,,,,,,,,,,,,,,,,,,,,,,,,,,,,,,,,,,,,,,,,,,,,,,,,,,,,,,,,,,,,,,,,,,,,
15,,,,,,,,,,,,,,,,,,,,,,,,,,,,,,,,,,,,,,,,,,,,,,,,,,,,,,,,,,,,,,,,,,,,,,,,,,,,,,,,,,,,,,,,,,,,,,,,,,,,,,,,,,,,,,,,,,,,,,,,,,,,,,,,,,,,
16,,,,,,,,,,,,,,,,,,,,,,,,,,,,,,,,,,,,,,,,,,,,,,,,,,,,,,,,,,,,,,,,,,,,,,,,,,,,,,,,,,,,,,,,,,,,,,,,,,,,,,,,,,,,,,,,,,,,,,,,,,,,,,,,,,,,
17,,,,,,,,,,,,,,,,,,,,,,,,,,,,,,,,,,,,,,,,,,,,,,,,,,,,,,,,,,,,,,,,,,,,,,,,,,,,,,,,,,,,,,,,,,,,,,,,,,,,,,,,,,,,,,,,,,,,,,,,,,,,,,,,,,,,
18,,,,,,,,,,,,,,,,,,,,,,,,,,,,,,,,,,,,,,,,,,,,,,,,,,,,,,,,,,,,,,,,,,,,,,,,,,,,,,,,,,,,,,,,,,,,,,,,,,,,,,,,,,,,,,,,,,,,,,,,,,,,,,,,,,,,
19,,,,,,,,,,,,,,,,,,,,,,,,,,,,,,,,,,,,,,,,,,,,,,,,,,,,,,,,,,,,,,,,,,,,,,,,,,,,,,,,,,,,,,,,,,,,,,,,,,,,,,,,,,,,,,,,,,,,,,,,,,,,,,,,,,,,
20,,,,,,,,,,,,,,,,,,,,,,,,,,,,,,,,,,,,,,,,,,,,,,,,,,,,,,,,,,,,,,,,,,,,,,,,,,,,,,,,,,,,,,,,,,,,,,,,,,,,,,,,,,,,,,,,,,,,,,,,,,,,,,,,,,,,
21,,,,,,,,,,,,,,,,,,,,,,,,,,,,,,,,,,,,,,,,,,,,,,,,,,,,,,,,,,,,,,,,,,,,,,,,,,,,,,,,,,,,,,,,,,,,,,,,,,,,,,,,,,,,,,,,,,,,,,,,,,,,,,,,,,,,
22,,,,,,,,,,,,,,,,,,,,,,,,,,,,,,,,,,,,,,,,,,,,,,,,,,,,,,,,,,,,,,,,,,,,,,,,,,,,,,,,,,,,,,,,,,,,,,,,,,,,,,,,,,,,,,,,,,,,,,,,,,,,,,,,,,,,
23,,,,,,,,,,,,,,,,,,,,,,,,,,,,,,,,,,,,,,,,,,,,,,,,,,,,,,,,,,,,,,,,,,,,,,,,,,,,,,,,,,,,,,,,,,,,,,,,,,,,,,,,,,,,,,,,,,,,,,,,,,,,,,,,,,,,
24,,,,,,,,,,,,,,,,,,,,,,,,,,,,,,,,,,,,,,,,,,,,,,,,,,,,,,,,,,,,,,,,,,,,,,,,,,,,,,,,,,,,,,,,,,,,,,,,,,,,,,,,,,,,,,,,,,,,,,,,,,,,,,,,,,,,
25,,,,,,,,,,,,,,,,,,,,,,,,,,,,,,,,,,,,,,,,,,,,,,,,,,,,,,,,,,,,,,,,,,,,,,,,,,,,,,,,,,,,,,,,,,,,,,,,,,,,,,,,,,,,,,,,,,,,,,,,,,,,,,,,,,,,
26,,,,,,,,,,,,,,,,,,,,,,,,,,,,,,,,,,,,,,,,,,,,,,,,,,,,,,,,,,,,,,,,,,,,,,,,,,,,,,,,,,,,,,,,,,,,,,,,,,,,,,,,,,,,,,,,,,,,,,,,,,,,,,,,,,,,
27,,,,,,,,,,,,,,,,,,,,,,,,,,,,,,,,,,,,,,,,,,,,,,,,,,,,,,,,,,,,,,,,,,,,,,,,,,,,,,,,,,,,,,,,,,,,,,,,,,,,,,,,,,,,,,,,,,,,,,,,,,,,,,,,,,,,
28,,,,,,,,,,,,,,,,,,,,,,,,,,,,,,,,,,,,,,,,,,,,,,,,,,,,,,,,,,,,,,,,,,,,,,,,,,,,,,,,,,,,,,,,,,,,,,,,,,,,,,,,,,,,,,,,,,,,,,,,,,,,,,,,,,,,
29,,,,,,,,,,,,,,,,,,,,,,,,,,,,,,,,,,,,,,,,,,,,,,,,,,,,,,,,,,,,,,,,,,,,,,,,,,,,,,,,,,,,,,,,,,,,,,,,,,,,,,,,,,,,,,,,,,,,,,,,,,,,,,,,,,,,
30,,,,,,,,,,,,,,,,,,,,,,,,,,,,,,,,,,,,,,,,,,,,,,,,,,,,,,,,,,,,,,,,,,,,,,,,,,,,,,,,,,,,,,,,,,,,,,,,,,,,,,,,,,,,,,,,,,,,,,,,,,,,,,,,,,,,
31,,,,,,,,,,,,,,,,,,,,,,,,,,,,,,,,,,,,,,,,,,,,,,,,,,,,,,,,,,,,,,,,,,,,,,,,,,,,,,,,,,,,,,,,,,,,,,,,,,,,,,,,,,,,,,,,,,,,,,,,,,,,,,,,,,,,
32,,,,,,,,,,,,,,,,,,,,,,,,,,,,,,,,,,,,,,,,,,,,,,,,,,,,,,,,,,,,,,,,,,,,,,,,,,,,,,,,,,,,,,,,,,,,,,,,,,,,,,,,,,,,,,,,,,,,,,,,,,,,,,,,,,,,
33,,,,,,,,,,,,,,,,,,,,,,,,,,,,,,,,,,,,,,,,,,,,,,,,,,,,,,,,,,,,,,,,,,,,,,,,,,,,,,,,,,,,,,,,,,,,,,,,,,,,,,,,,,,,,,,,,,,,,,,,,,,,,,,,,,,,
34,,,,,,,,,,,,,,,,,,,,,,,,,,,,,,,,,,,,,,,,,,,,,,,,,,,,,,,,,,,,,,,,,,,,,,,,,,,,,,,,,,,,,,,,,,,,,,,,,,,,,,,,,,,,,,,,,,,,,,,,,,,,,,,,,,,,
35,,,,,,,,,,,,,,,,,,,,,,,,,,,,,,,,,,,,,,,,,,,,,,,,,,,,,,,,,,,,,,,,,,,,,,,,,,,,,,,,,,,,,,,,,,,,,,,,,,,,,,,,,,,,,,,,,,,,,,,,,,,,,,,,,,,,
36,,,,,,,,,,,,,,,,,,,,,,,,,,,,,,,,,,,,,,,,,,,,,,,,,,,,,,,,,,,,,,,,,,,,,,,,,,,,,,,,,,,,,,,,,,,,,,,,,,,,,,,,,,,,,,,,,,,,,,,,,,,,,,,,,,,,
37,,,,,,,,,,,,,,,,,,,,,,,,,,,,,,,,,,,,,,,,,,,,,,,,,,,,,,,,,,,,,,,,,,,,,,,,,,,,,,,,,,,,,,,,,,,,,,,,,,,,,,,,,,,,,,,,,,,,,,,,,,,,,,,,,,,,
38,,,,,,,,,,,,,,,,,,,,,,,,,,,,,,,,,,,,,,,,,,,,,,,,,,,,,,,,,,,,,,,,,,,,,,,,,,,,,,,,,,,,,,,,,,,,,,,,,,,,,,,,,,,,,,,,,,,,,,,,,,,,,,,,,,,,
39,0.33988588178042917,0.42393073982104273,0.15397582940076968,0.9604237587635183,0.3723718266719312,0.41780716553043923,0.10897391778749431,0.9932620541296581,0.4092949677759676,0.4469223440988498,0.08034738339760064,0.995601133990485,0.3610853079887893,0.4430724479522899,0.13302176378082833,0.9562312728457201,0.39661402886361,0.4005828639825959,0.1621022631484544,1.044976940300032,0.3998628773287527,0.41082540594532335,0.09978146378999186,0.9551945935992554,0.4111498682723297,0.47598071917939455,0.09161218823585049,1.0447469546400898,0.40200334471061794,0.449626635453665,0.05745524225407052,1.0470687863329093,0.3415155152732661,0.4545218368796034,0.007888455724086717,0.9743350080419676,0.41655012614592596,0.4491527945874935,0.10038975869551828,1.0375793293895657,0.4124439091410838,0.4273678777825403,0.125194884622825,0.9876951864933738,0.39551791904169264,0.538455471233119,-0.08983416528281156,1.0436137303036022,0.37937929218661387,0.4470678754656029,0.057104187955103414,0.9657305442537183,0.4178398429332384,0.5589301831843991,-0.1703775262229429,0.4440913548069006,0.33303880290789417,0.5100208391383371,0.00016633957821797496,0.9285796407831571,0.391329461434173,0.6444811967397742,-0.0032877565765306177,0.14345847016235097,0.3600956887551893,0.6465484872457193,0.11270224935266802,0.6935902952437131,0.39553107346608357,0.6496420386080599,0.024209748507190328,0.10867257753931481,0.34718479487645465,0.6707970130760844,0.15047673530042707,0.4799625356031632,0.4384508484307424,0.5696347432573536,0.05092989765435133,0.18110776346532717,0.3204388304499509,0.6401084135579983,0.1649639151674876,0.5221196136771669,0.44549782791408604,0.5679151315320323,-0.033503499839912174,0.1972552593237332,0.320890328171646,0.6160526446776258,0.10155125698027738,0.5172766984060818,0.4427864002451018,0.6719644971731771,-0.1417916555407757,1.0104152897409477,0.4181647681734623,0.5961683355316393,-0.017480097075271123,1.0089371740861068,0.41389558017964584,0.7599788546941934,-0.12050354218649215,0.42483223699177053,0.33987140714999836,0.7526260700075346,-0.0748360354944634,0.8352801688067693,0.4397686033522895,0.8524200202590719,-0.22665228770429446,0.6194034649209439,0.4350390669650218,0.8070995194860158,-0.156904873471322,0.7071004446986284,0.3877421123187363,0.8186379884748036,-0.2187979024539638,0.2685527305109897,0.45237645277216876,0.8123338118173954,-0.17800213930637546,0.36587924564259505,0.41484065518223157,0.825088441805739,-0.17334896172936184,0.5472706387980086,0.40677267613374646,0.8059572981342403,-0.14473554125964122,0.6610376779380553
40,0.4052117347766905,0.4245874935995004,-0.07644492478473132,0.9604237587635183,0.4293988341630087,0.41823512687992653,-0.10510671910665376,0.9932620541296581,0.46260812890130554,0.44648109091357757,-0.1329427113741235,0.9955499932052676,0.4106478884747183,0.4417657651272014,-0.07942749308801036,0.9562312728457201,0.4599355757633749,0.403147502835669,-0.04310619917519876,1.044976940300032,0.4659418724757322,0.41390157185985893,-0.10615473361581848,0.9551041733531311,0.4799862877752446,0.4795334540312316,-0.11504027751841628,1.0447469546400898,0.42625528375563104,0.4462432373976348,-0.07411325994911297,1.0469909426668327,0.38355630513381983,0.4572386463907881,-0.08021951459893484,0.9740152887273924,0.46807983945555526,0.446109381425262,-0.10102202059294371,1.0367068962039883,0.47123628968871967,0.4265565393578577,-0.06402020460881422,0.9866003683781394,0.3689534790329632,0.52276121063589,-0.16170765457484682,1.0381858333271312,0.4221656289990426,0.440623987516613,0.03438755190378473,0.9665999376024123,0.3691075553720792,0.5409443028094907,-0.21106900367115275,0.1386105393366819,0.37682282924279525,0.4956094493106088,0.003041671122719941,0.8852647070063016,0.36449085747842097,0.6405159381414466,-0.09470313321484815,0.07223711853881579,0.4159623964198331,0.6273202672597574,0.058336603515309976,0.745328497815582,0.3768346112505526,0.6468621971850252,-0.08712079609564771,0.0759708393605848,0.4057280653886555,0.6494879949410136,0.08574233267948095,0.6337613839937425,0.42507690968938566,0.5744699912508229,-0.06727252547565957,0.12964056086151016,0.37678581000637024,0.620958573679916,0.09349439884293168,0.649642052441739,0.4291793474319691,0.5732965964902232,-0.13103606424148578,0.135381510425227,0.3713829515245814,0.5989254288153516,0.04335304735927189,0.5514993012503201,0.4308466422624026,0.6600697942618001,-0.16748424401181938,1.0108244756273308,0.4322509843620908,0.5890329442962877,0.007700810759240791,1.009483510260118,0.4259481700813546,0.7496738076589761,-0.17020964350444484,0.26935906432712825,0.3587940959515996,0.7515558686105924,-0.05685674580094165,0.8902673609606999,0.45111869461821896,0.8613996388084189,-0.23252062499071177,0.3979217840508877,0.44274046570615105,0.8195189220853505,-0.07658084292783379,0.7815699514391985,0.3975514251935336,0.8309439634351308,-0.22165118511319856,0.25084317726926003,0.4575695526584901,0.8285432353594181,-0.09296036000896886,0.6065417012013719,0.4447576180222796,0.8223854307698198,-0.22223495718520433,0.22374962076974939,0.42897705760544064,0.8037201570018856,-0.10017556114011544,0.5358312670531982
41,,,,,,,,,,,,,,,,,,,,,,,,,,,,,,,,,,,,,,,,,,,,,,,,,,,,,,,,,,,,,,,,,,,,,,,,,,,,,,,,,,,,,,,,,,,,,,,,,,,,,,,,,,,,,,,,,,,,,,,,,,,,,,,,,,,,
42,,,,,,,,,,,,,,,,,,,,,,,,,,,,,,,,,,,,,,,,,,,,,,,,,,,,,,,,,,,,,,,,,,,,,,,,,,,,,,,,,,,,,,,,,,,,,,,,,,,,,,,,,,,,,,,,,,,,,,,,,,,,,,,,,,,,
43,,,,,,,,,,,,,,,,,,,,,,,,,,,,,,,,,,,,,,,,,,,,,,,,,,,,,,,,,,,,,,,,,,,,,,,,,,,,,,,,,,,,,,,,,,,,,,,,,,,,,,,,,,,,,,,,,,,,,,,,,,,,,,,,,,,,
44,,,,,,,,,,,,,,,,,,,,,,,,,,,,,,,,,,,,,,,,,,,,,,,,,,,,,,,,,,,,,,,,,,,,,,,,,,,,,,,,,,,,,,,,,,,,,,,,,,,,,,,,,,,,,,,,,,,,,,,,,,,,,,,,,,,,
45,,,,,,,,,,,,,,,,,,,,,,,,,,,,,,,,,,,,,,,,,,,,,,,,,,,,,,,,,,,,,,,,,,,,,,,,,,,,,,,,,,,,,,,,,,,,,,,,,,,,,,,,,,,,,,,,,,,,,,,,,,,,,,,,,,,,
46,,,,,,,,,,,,,,,,,,,,,,,,,,,,,,,,,,,,,,,,,,,,,,,,,,,,,,,,,,,,,,,,,,,,,,,,,,,,,,,,,,,,,,,,,,,,,,,,,,,,,,,,,,,,,,,,,,,,,,,,,,,,,,,,,,,,
47,,,,,,,,,,,,,,,,,,,,,,,,,,,,,,,,,,,,,,,,,,,,,,,,,,,,,,,,,,,,,,,,,,,,,,,,,,,,,,,,,,,,,,,,,,,,,,,,,,,,,,,,,,,,,,,,,,,,,,,,,,,,,,,,,,,,
48,,,,,,,,,,,,,,,,,,,,,,,,,,,,,,,,,,,,,,,,,,,,,,,,,,,,,,,,,,,,,,,,,,,,,,,,,,,,,,,,,,,,,,,,,,,,,,,,,,,,,,,,,,,,,,,,,,,,,,,,,,,,,,,,,,,,
49,0.4347938129066334,0.46453422850474324,-0.14731659244963685,0.9604237587635183,0.4561378353410911,0.4563517607719858,-0.16170650954765578,0.9932620541296581,0.4891827931334217,0.48401699675159027,-0.1894770749618151,0.995572166133124,0.4371013611610837,0.478775719579716,-0.13587758881529494,0.9562312728457201,0.4900091481046416,0.4435465773901124,-0.1076479894365675,1.044976940300032,0.49656659834568917,0.45518887483074516,-0.1706992548837513,0.9552720796374634,0.5111039187094286,0.521764805168393,-0.17969330617229173,1.0447469546400898,0.4391035756899879,0.4848508645510314,-0.06945873243514174,1.0470723626115959,0.4088868540651114,0.5032176991728468,-0.11315757575275781,0.974447958843817,0.4921285845756498,0.48714774559724383,-0.1492907976953167,1.0361477450313503,0.49942235141850294,0.46949024182672977,-0.1236551462705231,0.986925571320034,0.36104237387784344,0.5422156004464521,-0.12126806795350507,1.0438732489269544,0.46092613803879245,0.4945362993089867,-0.008511615194351174,0.9670149647439831,0.35554845646970623,0.49395930243755765,-0.2842130773086859,0.9318321694927222,0.4703829721227127,0.5185968746379098,-0.07154057731044004,0.9857425216806791,0.39849851440160267,0.5129498687768989,-0.3873012224690802,0.47743222063441976,0.5457519078276442,0.6109465733167337,0.019281377694027754,1.0360353707556453,0.4118227023886455,0.49837343719051846,-0.40252898750954064,0.429374131956925,0.5483299132495897,0.6293047893364604,0.049273678800977834,0.986361362440703,0.4655543142079026,0.41947365574438367,-0.3949462386916054,0.4636547456344785,0.5217280007794072,0.58922321305751,0.05062217729589521,1.0095544479190341,0.46550048933368093,0.4254466194737743,-0.43347515057924907,0.44348383503021505,0.5119008683444144,0.5669278077559339,0.0010279844373372099,1.0099580824926906,0.40796343614393343,0.6851347990873922,-0.14055429725011337,1.0108999351076167,0.4487408011203639,0.622112866495537,-0.017536587194654875,1.0094739735169538,0.3713907153653247,0.760714018382853,-0.16123062378595718,0.31401695035541805,0.40995214340996694,0.7692985024301725,-0.13098091247389007,0.9046016819827335,0.36233369748636146,0.8461901427871481,-0.21392261461010598,0.4966791404561459,0.4732065012670268,0.8243454081960377,-0.11537134351067266,0.8179132279399004,0.3101943656284584,0.8132153367070729,-0.20675083602130465,0.5542636911375919,0.4806404594537283,0.8303526535608646,-0.13064907257156153,0.909145482424669,0.3388693389964037,0.7950306539105364,-0.2247945256249086,0.1682473699791533,0.48242737883538234,0.8119523929103939,-0.1834741619595123,0.5819209162536376
50,0.44651727413720094,0.4885351116071603,-0.1473760963447534,0.9604237587635183,0.47251715830566565,0.4782189168007334,-0.17401245496495896,0.9932620541296581,0.5061482458171249,0.5048397899969057,-0.20186557084526574,0.9956373736145084,0.4545091062357966,0.4985936381187633,-0.1482778353317585,0.9562312728457201,0.4985931326012656,0.4666693350633759,-0.10571086129682453,1.044976940300032,0.49727615075721565,0.47797984324886644,-0.1669086395406263,0.9553114187030152,0.5175184420902761,0.5441895328466918,-0.17722267813171833,1.0447469546400898,0.4578109862095694,0.4895098914122222,-0.1194960664107162,1.0470939394930046,0.4122104829799327,0.5150136371878309,-0.09651608640780393,0.9745684794355528,0.5010023768687447,0.5059167713998561,-0.1593730842265758,1.0377905086460049,0.5060013325562217,0.489556681932168,-0.11661387243484764,0.9884082368588218,0.3764138824560139,0.5480720548188581,-0.1797281428637416,1.0438103064220716,0.44352496704217514,0.4996436425058556,0.03865524860842978,0.9670780264581554,0.35772344741909023,0.49397122336651267,-0.3142510254088017,1.0229073514537816,0.4450888701939772,0.5263110269740304,-0.006210428686161562,0.9931731347216031,0.39208514206976663,0.5096376982713751,-0.4055794203407879,0.6553821260299276,0.5241474939242012,0.6222047582265543,0.07331760009690586,1.0426375388388365,0.40570119231753066,0.49442012932346824,-0.43024648181145086,0.580234203139176,0.5258929252321741,0.6385884511788066,0.10391492266579563,0.9984735030962206,0.46025850873697877,0.4138754682977895,-0.4275868845917518,0.6522109697422208,0.5019835526946528,0.5982964705037991,0.1011611142641877,1.0242569468318452,0.45814887038735264,0.41970767565854294,-0.45352389044914937,0.687797402907031,0.49278963949580773,0.5777497462706433,0.052546772294666776,1.0412523091391142,0.403064338889855,0.6908468314055074,-0.1672785450160963,1.0104198792985954,0.4200425115270056,0.6249742470726244,0.017168927018112824,1.009273880724443,0.3622548008702603,0.7576320410154519,-0.19375379060440395,0.7387407245501354,0.3772131397885275,0.7716253485529142,-0.12073401249907466,0.9455352313868779,0.36173873208165724,0.8370292665130392,-0.2819272014608937,0.8865981532411038,0.480364633835529,0.8308325989194569,-0.1792177504553309,0.9451064404490557,0.30938149098181383,0.8037795042066151,-0.27827407680451605,0.8304253618224063,0.4935017492611014,0.8401429548838016,-0.20181147262081553,0.9547764738835618,0.3443836960684269,0.7850196961926409,-0.2870514959150539,0.7669471333963973,0.4916367095690569,0.8149815009578792,-0.2431358168796633,0.9814948384109252
51,0.4321240626815872,0.48010132259234395,-0.1737700422650417,0.9604237587635183,0.4557249240300762,0.4708215333492716,-0.19288938877217227,0.9932620541296581,0.4887358968672861,0.49867571605281397,-0.2206211797964985,0.9956303402664248,0.4365759704222707,0.493925581153889,-0.16699293585878303,0.9562312728457201,0.48746539228077,0.458236499722876,-0.13306934778032628,1.044976940300032,0.49320157973725737,0.46986788951351494,-0.19606311576659385,0.9553052198199585,0.5083860394418279,0.5364614032213715,-0.20525015802892016,1.0447469546400898,0.4376050589653323,0.4872931052660582,-0.10759983819739916,1.0470891711214225,0.40110900760186263,0.5103988667753858,-0.12698746344048809,0.9745541743208068,0.4873816431715847,0.5001879603742366,-0.17718017684302384,1.0376896575870447,0.49288419821298873,0.4848736642014551,-0.14444151254604704,0.9882632783627282,0.3495419833837463,0.5364242045438185,-0.13815852116763325,1.0438159092586803,0.4403044644345681,0.49566992004796984,-0.004526465012964734,0.9669942223276015,0.3063403752467588,0.48258789850498623,-0.17655455258533315,1.0404848208026891,0.43731437711606647,0.544793116016694,-0.0665045559389911,0.9901725176943202,0.2818641698470793,0.49668519172916936,-0.12141759334606783,0.9466395074691365,0.5243082691098414,0.6489916220304178,-0.05006708336601043,1.0375548123602596,0.2820350467304149,0.4815892162566043,-0.11331537075814008,0.9491414759548804,0.5272178860059955,0.6678960550148662,-0.03143643153248808,0.9915696163011767,0.3344723521782248,0.40058282785017285,-0.10801418475029109,0.9971553276142301,0.501706421248764,0.6300809453535,-0.032722694529694736,1.016056539803647,0.34166926910798673,0.40758811422475083,-0.16421481435730426,1.00859043555321,0.4898453009281672,0.6080680660681592,-0.07019484464726775,1.0245492399290617,0.379964154828541,0.6838911481741536,-0.15869083097855907,1.0107319096139946,0.4026425933634757,0.6244294010147325,0.020159789024734358,1.009278649096025,0.34849670618323947,0.7605358600996194,-0.16716960554752816,0.8733990015848949,0.36338722339846113,0.785707005485745,-0.1212235755232037,0.9481720216624515,0.3474160517514179,0.8449075104362265,-0.20722026134103194,0.8363596035317837,0.443319374602151,0.843889592403954,-0.12698992613394447,0.9211580690386858,0.2970536889695918,0.8134517287282521,-0.2010580195312285,0.8359132210715213,0.45663815054305773,0.8506301537134525,-0.1446810713451107,0.9459651788510606,0.33444079750158273,0.8041173224018999,-0.23763404744058556,0.381270034168492,0.44240829715004426,0.8317432211383907,-0.19214761278046466,0.7881898824516052
52,0.37560682563048386,0.45835060423716517,0.0034182920141686453,0.9604237587635183,0.3971413812501828,0.4509237445862253,-0.008930088846645104,0.9932620541296581,0.42998539162307087,0.4787962557180362,-0.036709860970605614,0.995583610224921,0.377685294518143,0.4738245107498363,0.016878093259809594,0.9562312728457201,0.4327149592575622,0.4370768508276124,0.040983946177666826,1.044976940300032,0.4400357662317577,0.4483148797650561,-0.022340329972793355,0.9552625428942993,0.4555371892366508,0.5145271025602844,-0.03175039988103702,1.0447469546400898,0.38591481237240044,0.4777833034014342,0.058100483882149154,1.047074746797387,0.36319738210270724,0.4934793432978315,-0.0015368997946618376,0.9745286635328428,0.4347386210115855,0.4798223645566707,-0.009658641181966314,1.0376430467548303,0.4446084550064804,0.4613854108464288,0.01145182309961841,0.988221376297451,0.31429309589789706,0.5333276240384474,0.0036259557994302964,1.0435793980282115,0.42381946002006815,0.48888941486761095,0.06084365453423898,0.9668166004861707,0.26205267968422097,0.47844519687916226,0.011782204039512183,1.0379644383983617,0.4157114402289261,0.5373554696276864,0.01235625416912707,0.9916161421907803,0.21586360519795006,0.5043466833616309,0.16145318745212137,0.9433777624930929,0.45233692624808874,0.6447417512532877,0.11015460663463632,1.022456717420074,0.21369006556355488,0.49245365288303855,0.19089494553042752,0.9346262548359532,0.4447800994746813,0.657974444659489,0.1356094425704975,0.9462200183702683,0.2650094373621477,0.4148578422506551,0.193293552120703,0.9851355741581144,0.41079914742316137,0.6242951820897976,0.1449155806069,0.9614039085208405,0.27562108161183246,0.4217578966248821,0.11940120783971434,0.9760823603159361,0.40425111897533794,0.6041198543982373,0.0970925089120583,0.9195073783949429,0.37565655527267217,0.6743635245207418,-0.1465352737100559,1.0108205417207756,0.4026451083212107,0.6171149574264757,0.007509813354440453,1.009318464998735,0.34572878931794165,0.7660208583257851,-0.15015886924453026,0.7433945956095531,0.33087069516429884,0.7773261751978117,-0.09072239422853443,0.9407379515521307,0.35558190658798167,0.8701757671005026,-0.21307592542960468,0.8933157755212247,0.4093765844572773,0.8422078473516164,-0.11777905717691273,0.9325457152369586,0.3043440432532323,0.8415660475759084,-0.20467492239812027,0.8633564512236515,0.4219570893529598,0.8508090868570682,-0.13367909968930167,0.9025027831830308,0.34361990759387684,0.8277587298916765,-0.22330221016780402,0.6599612663729293,0.3988974693429428,0.8294928477748958,-0.14434526688056065,0.8506987039390319
53,0.38059806414319586,0.43603313511713954,-0.08758691665196566,0.9604237587635183,0.40224436012831694,0.4298144616157969,-0.0998236652751089,0.9932620541296581,0.4351091255698103,0.4577739955289798,-0.1275969068807542,0.9956268831970281,0.38288281158033666,0.4528715111580089,-0.07401032954797174,0.9562312728457201,0.4391424156427273,0.4164837738832612,-0.05369837172475616,1.044976940300032,0.44684926472650394,0.42810053073360765,-0.11707091392063768,0.9553034316806152,0.4626773091892019,0.494735380262616,-0.12642909359691254,1.0447469546400898,0.3850025833251125,0.4604429115271208,0.0020534671259344536,1.047075223634545,0.36632260780402703,0.4773171564367933,-0.06670639250304808,0.9745531014372008,0.43813886740584673,0.4587659807084804,-0.08843630529418192,1.0377206520023279,0.44932703236244953,0.4406705020081568,-0.07290646566922658,0.9883467248654136,0.3059527689641256,0.5207240728890791,-0.005250955794761886,1.043749092451887,0.44220516021773026,0.4846829362718773,-0.03921815860021767,0.9671063982690686,0.263970052929002,0.45789485646511496,-0.028741850288167704,1.036554728944779,0.42946771380203996,0.5445828904345712,-0.11204846170503491,0.9542049888742825,0.22702989160241752,0.4835668650651984,0.0508415927424283,0.9304859334792686,0.45131764923488643,0.6700576916333841,-0.02261585325101887,0.8103678344969479,0.223082105823128,0.47334091689632896,0.07750950458442879,0.8978538844975134,0.44462750496425085,0.6903618800957377,-0.008737709684530852,0.61806009004843,0.27590015107570937,0.39454606942732134,0.07202125422588405,0.9487346599659148,0.4082112674127137,0.657852477889053,0.0141407097282795,0.6454710386096467,0.28615346136782815,0.4001791674722026,0.004074633918448128,0.8970992918497495,0.4020813418286545,0.6344052724318372,-0.030398195188796433,0.5418948770121151,0.3544388927804395,0.6714030214193929,-0.08161351044948219,1.0107439497522395,0.4159183035181089,0.6193761192306749,-0.05625602872823061,1.009376341108812,0.34135297127410474,0.7601407409094033,-0.13128852513399372,0.9111664714678601,0.32570837421242094,0.7666848983614164,-0.19894588064152746,0.6821640618197697,0.3819604065657073,0.8715520383483664,-0.2660741160342823,0.9463285638169705,0.41035089401428604,0.822932241673058,-0.2923103085238904,0.7783428367617693,0.33643478290687684,0.8445166563062245,-0.26581694343288736,0.7761273781760135,0.42685476211641216,0.8309234872438785,-0.3183538385259289,0.8210038622655198,0.3658749108575079,0.8297442202137896,-0.27075591875360633,0.6749804447634322,0.39243332313394574,0.802482883785638,-0.3448632933611718,0.6686586086097472
54,,,,,,,,,,,,,,,,,,,,,,,,,,,,,,,,,,,,,,,,,,,,,,,,,,,,,,,,,,,,,,,,,,,,,,,,,,,,,,,,,,,,,,,,,,,,,,,,,,,,,,,,,,,,,,,,,,,,,,,,,,,,,,,,,,,,
55,,,,,,,,,,,,,,,,,,,,,,,,,,,,,,,,,,,,,,,,,,,,,,,,,,,,,,,,,,,,,,,,,,,,,,,,,,,,,,,,,,,,,,,,,,,,,,,,,,,,,,,,,,,,,,,,,,,,,,,,,,,,,,,,,,,,
56,,,,,,,,,,,,,,,,,,,,,,,,,,,,,,,,,,,,,,,,,,,,,,,,,,,,,,,,,,,,,,,,,,,,,,,,,,,,,,,,,,,,,,,,,,,,,,,,,,,,,,,,,,,,,,,,,,,,,,,,,,,,,,,,,,,,
57,,,,,,,,,,,,,,,,,,,,,,,,,,,,,,,,,,,,,,,,,,,,,,,,,,,,,,,,,,,,,,,,,,,,,,,,,,,,,,,,,,,,,,,,,,,,,,,,,,,,,,,,,,,,,,,,,,,,,,,,,,,,,,,,,,,,
58,,,,,,,,,,,,,,,,,,,,,,,,,,,,,,,,,,,,,,,,,,,,,,,,,,,,,,,,,,,,,,,,,,,,,,,,,,,,,,,,,,,,,,,,,,,,,,,,,,,,,,,,,,,,,,,,,,,,,,,,,,,,,,,,,,,,
59,,,,,,,,,,,,,,,,,,,,,,,,,,,,,,,,,,,,,,,,,,,,,,,,,,,,,,,,,,,,,,,,,,,,,,,,,,,,,,,,,,,,,,,,,,,,,,,,,,,,,,,,,,,,,,,,,,,,,,,,,,,,,,,,,,,,
60,,,,,,,,,,,,,,,,,,,,,,,,,,,,,,,,,,,,,,,,,,,,,,,,,,,,,,,,,,,,,,,,,,,,,,,,,,,,,,,,,,,,,,,,,,,,,,,,,,,,,,,,,,,,,,,,,,,,,,,,,,,,,,,,,,,,
61,,,,,,,,,,,,,,,,,,,,,,,,,,,,,,,,,,,,,,,,,,,,,,,,,,,,,,,,,,,,,,,,,,,,,,,,,,,,,,,,,,,,,,,,,,,,,,,,,,,,,,,,,,,,,,,,,,,,,,,,,,,,,,,,,,,,
62,,,,,,,,,,,,,,,,,,,,,,,,,,,,,,,,,,,,,,,,,,,,,,,,,,,,,,,,,,,,,,,,,,,,,,,,,,,,,,,,,,,,,,,,,,,,,,,,,,,,,,,,,,,,,,,,,,,,,,,,,,,,,,,,,,,,
63,,,,,,,,,,,,,,,,,,,,,,,,,,,,,,,,,,,,,,,,,,,,,,,,,,,,,,,,,,,,,,,,,,,,,,,,,,,,,,,,,,,,,,,,,,,,,,,,,,,,,,,,,,,,,,,,,,,,,,,,,,,,,,,,,,,,
64,,,,,,,,,,,,,,,,,,,,,,,,,,,,,,,,,,,,,,,,,,,,,,,,,,,,,,,,,,,,,,,,,,,,,,,,,,,,,,,,,,,,,,,,,,,,,,,,,,,,,,,,,,,,,,,,,,,,,,,,,,,,,,,,,,,,
65,,,,,,,,,,,,,,,,,,,,,,,,,,,,,,,,,,,,,,,,,,,,,,,,,,,,,,,,,,,,,,,,,,,,,,,,,,,,,,,,,,,,,,,,,,,,,,,,,,,,,,,,,,,,,,,,,,,,,,,,,,,,,,,,,,,,
66,,,,,,,,,,,,,,,,,,,,,,,,,,,,,,,,,,,,,,,,,,,,,,,,,,,,,,,,,,,,,,,,,,,,,,,,,,,,,,,,,,,,,,,,,,,,,,,,,,,,,,,,,,,,,,,,,,,,,,,,,,,,,,,,,,,,
67,,,,,,,,,,,,,,,,,,,,,,,,,,,,,,,,,,,,,,,,,,,,,,,,,,,,,,,,,,,,,,,,,,,,,,,,,,,,,,,,,,,,,,,,,,,,,,,,,,,,,,,,,,,,,,,,,,,,,,,,,,,,,,,,,,,,
68,,,,,,,,,,,,,,,,,,,,,,,,,,,,,,,,,,,,,,,,,,,,,,,,,,,,,,,,,,,,,,,,,,,,,,,,,,,,,,,,,,,,,,,,,,,,,,,,,,,,,,,,,,,,,,,,,,,,,,,,,,,,,,,,,,,,
69,,,,,,,,,,,,,,,,,,,,,,,,,,,,,,,,,,,,,,,,,,,,,,,,,,,,,,,,,,,,,,,,,,,,,,,,,,,,,,,,,,,,,,,,,,,,,,,,,,,,,,,,,,,,,,,,,,,,,,,,,,,,,,,,,,,,
70,,,,,,,,,,,,,,,,,,,,,,,,,,,,,,,,,,,,,,,,,,,,,,,,,,,,,,,,,,,,,,,,,,,,,,,,,,,,,,,,,,,,,,,,,,,,,,,,,,,,,,,,,,,,,,,,,,,,,,,,,,,,,,,,,,,,
71,,,,,,,,,,,,,,,,,,,,,,,,,,,,,,,,,,,,,,,,,,,,,,,,,,,,,,,,,,,,,,,,,,,,,,,,,,,,,,,,,,,,,,,,,,,,,,,,,,,,,,,,,,,,,,,,,,,,,,,,,,,,,,,,,,,,
72,,,,,,,,,,,,,,,,,,,,,,,,,,,,,,,,,,,,,,,,,,,,,,,,,,,,,,,,,,,,,,,,,,,,,,,,,,,,,,,,,,,,,,,,,,,,,,,,,,,,,,,,,,,,,,,,,,,,,,,,,,,,,,,,,,,,
73,,,,,,,,,,,,,,,,,,,,,,,,,,,,,,,,,,,,,,,,,,,,,,,,,,,,,,,,,,,,,,,,,,,,,,,,,,,,,,,,,,,,,,,,,,,,,,,,,,,,,,,,,,,,,,,,,,,,,,,,,,,,,,,,,,,,
74,,,,,,,,,,,,,,,,,,,,,,,,,,,,,,,,,,,,,,,,,,,,,,,,,,,,,,,,,,,,,,,,,,,,,,,,,,,,,,,,,,,,,,,,,,,,,,,,,,,,,,,,,,,,,,,,,,,,,,,,,,,,,,,,,,,,
75,,,,,,,,,,,,,,,,,,,,,,,,,,,,,,,,,,,,,,,,,,,,,,,,,,,,,,,,,,,,,,,,,,,,,,,,,,,,,,,,,,,,,,,,,,,,,,,,,,,,,,,,,,,,,,,,,,,,,,,,,,,,,,,,,,,,
76,,,,,,,,,,,,,,,,,,,,,,,,,,,,,,,,,,,,,,,,,,,,,,,,,,,,,,,,,,,,,,,,,,,,,,,,,,,,,,,,,,,,,,,,,,,,,,,,,,,,,,,,,,,,,,,,,,,,,,,,,,,,,,,,,,,,
77,,,,,,,,,,,,,,,,,,,,,,,,,,,,,,,,,,,,,,,,,,,,,,,,,,,,,,,,,,,,,,,,,,,,,,,,,,,,,,,,,,,,,,,,,,,,,,,,,,,,,,,,,,,,,,,,,,,,,,,,,,,,,,,,,,,,
78,,,,,,,,,,,,,,,,,,,,,,,,,,,,,,,,,,,,,,,,,,,,,,,,,,,,,,,,,,,,,,,,,,,,,,,,,,,,,,,,,,,,,,,,,,,,,,,,,,,,,,,,,,,,,,,,,,,,,,,,,,,,,,,,,,,,
79,,,,,,,,,,,,,,,,,,,,,,,,,,,,,,,,,,,,,,,,,,,,,,,,,,,,,,,,,,,,,,,,,,,,,,,,,,,,,,,,,,,,,,,,,,,,,,,,,,,,,,,,,,,,,,,,,,,,,,,,,,,,,,,,,,,,
80,,,,,,,,,,,,,,,,,,,,,,,,,,,,,,,,,,,,,,,,,,,,,,,,,,,,,,,,,,,,,,,,,,,,,,,,,,,,,,,,,,,,,,,,,,,,,,,,,,,,,,,,,,,,,,,,,,,,,,,,,,,,,,,,,,,,
81,,,,,,,,,,,,,,,,,,,,,,,,,,,,,,,,,,,,,,,,,,,,,,,,,,,,,,,,,,,,,,,,,,,,,,,,,,,,,,,,,,,,,,,,,,,,,,,,,,,,,,,,,,,,,,,,,,,,,,,,,,,,,,,,,,,,
82,,,,,,,,,,,,,,,,,,,,,,,,,,,,,,,,,,,,,,,,,,,,,,,,,,,,,,,,,,,,,,,,,,,,,,,,,,,,,,,,,,,,,,,,,,,,,,,,,,,,,,,,,,,,,,,,,,,,,,,,,,,,,,,,,,,,
83,,,,,,,,,,,,,,,,,,,,,,,,,,,,,,,,,,,,,,,,,,,,,,,,,,,,,,,,,,,,,,,,,,,,,,,,,,,,,,,,,,,,,,,,,,,,,,,,,,,,,,,,,,,,,,,,,,,,,,,,,,,,,,,,,,,,
84,,,,,,,,,,,,,,,,,,,,,,,,,,,,,,,,,,,,,,,,,,,,,,,,,,,,,,,,,,,,,,,,,,,,,,,,,,,,,,,,,,,,,,,,,,,,,,,,,,,,,,,,,,,,,,,,,,,,,,,,,,,,,,,,,,,,
85,,,,,,,,,,,,,,,,,,,,,,,,,,,,,,,,,,,,,,,,,,,,,,,,,,,,,,,,,,,,,,,,,,,,,,,,,,,,,,,,,,,,,,,,,,,,,,,,,,,,,,,,,,,,,,,,,,,,,,,,,,,,,,,,,,,,
86,,,,,,,,,,,,,,,,,,,,,,,,,,,,,,,,,,,,,,,,,,,,,,,,,,,,,,,,,,,,,,,,,,,,,,,,,,,,,,,,,,,,,,,,,,,,,,,,,,,,,,,,,,,,,,,,,,,,,,,,,,,,,,,,,,,,
87,,,,,,,,,,,,,,,,,,,,,,,,,,,,,,,,,,,,,,,,,,,,,,,,,,,,,,,,,,,,,,,,,,,,,,,,,,,,,,,,,,,,,,,,,,,,,,,,,,,,,,,,,,,,,,,,,,,,,,,,,,,,,,,,,,,,
