frame,NOSE.x,NOSE.y,NOSE.z,NOSE.v,LEFT_EYE_INNER.x,LEFT_EYE_INNER.y,LEFT_EYE_INNER.z,LEFT_EYE_INNER.v,LEFT_EYE.x,LEFT_EYE.y,LEFT_EYE.z,LEFT_EYE.v,LEFT_EYE_OUTER.x,LEFT_EYE_OUTER.y,LEFT_EYE_OUTER.z,LEFT_EYE_OUTER.v,RIGHT_EYE_INNER.x,RIGHT_EYE_INNER.y,RIGHT_EYE_INNER.z,RIGHT_EYE_INNER.v,RIGHT_EYE.x,RIGHT_EYE.y,RIGHT_EYE.z,RIGHT_EYE.v,RIGHT_EYE_OUTER.x,RIGHT_EYE_OUTER.y,RIGHT_EYE_OUTER.z,RIGHT_EYE_OUTER.v,LEFT_EAR.x,LEFT_EAR.y,LEFT_EAR.z,LEFT_EAR.v,RIGHT_EAR.x,RIGHT_EAR.y,RIGHT_EAR.z,RIGHT_EAR.v,MOUTH_LEFT.x,MOUTH_LEFT.y,MOUTH_LEFT.z,MOUTH_LEFT.v,MOUTH_RIGHT.x,MOUTH_RIGHT.y,MOUTH_RIGHT.z,MOUTH_RIGHT.v,LEFT_SHOULDER.x,LEFT_SHOULDER.y,LEFT_SHOULDER.z,LEFT_SHOULDER.v,RIGHT_SHOULDER.x,RIGHT_SHOULDER.y,RIGHT_SHOULDER.z,RIGHT_SHOULDER.v,LEFT_ELBOW.x,LEFT_ELBOW.y,LEFT_ELBOW.z,LEFT_ELBOW.v,RIGHT_ELBOW.x,RIGHT_ELBOW.y,RIGHT_ELBOW.z,RIGHT_ELBOW.v,LEFT_WRIST.x,LEFT_WRIST.y,LEFT_WRIST.z,LEFT_WRIST.v,RIGHT_WRIST.x,RIGHT_WRIST.y,RIGHT_WRIST.z,RIGHT_WRIST.v,LEFT_PINKY.x,LEFT_PINKY.y,LEFT_PINKY.z,LEFT_PINKY.v,RIGHT_PINKY.x,RIGHT_PINKY.y,RIGHT_PINKY.z,RIGHT_PINKY.v,LEFT_INDEX.x,LEFT_INDEX.y,LEFT_INDEX.z,LEFT_INDEX.v,RIGHT_INDEX.x,RIGHT_INDEX.y,RIGHT_INDEX.z,RIGHT_INDEX.v,LEFT_THUMB.x,LEFT_THUMB.y,LEFT_THUMB.z,LEFT_THUMB.v,RIGHT_THUMB.x,RIGHT_THUMB.y,RIGHT_THUMB.z,RIGHT_THUMB.v,LEFT_HIP.x,LEFT_HIP.y,LEFT_HIP.z,LEFT_HIP.v,RIGHT_HIP.x,RIGHT_HIP.y,RIGHT_HIP.z,RIGHT_HIP.v,LEFT_KNEE.x,LEFT_KNEE.y,LEFT_KNEE.z,LEFT_KNEE.v,RIGHT_KNEE.x,RIGHT_KNEE.y,RIGHT_KNEE.z,RIGHT_KNEE.v,LEFT_ANKLE.x,LEFT_ANKLE.y,LEFT_ANKLE.z,LEFT_ANKLE.v,RIGHT_ANKLE.x,RIGHT_ANKLE.y,RIGHT_ANKLE.z,RIGHT_ANKLE.v,LEFT_HEEL.x,LEFT_HEEL.y,LEFT_HEEL.z,LEFT_HEEL.v,RIGHT_HEEL.x,RIGHT_HEEL.y,RIGHT_HEEL.z,RIGHT_HEEL.v,LEFT_FOOT_INDEX.x,LEFT_FOOT_INDEX.y,LEFT_FOOT_INDEX.z,LEFT_FOOT_INDEX.v,RIGHT_FOOT_INDEX.x,RIGHT_FOOT_INDEX.y,RIGHT_FOOT_INDEX.z,RIGHT_FOOT_INDEX.v
0,,,,,,,,,,,,,,,,,,,,,,,,,,,,,,,,,,,,,,,,,,,,,,,,,,,,,,,,,,,,,,,,,,,,,,,,,,,,,,,,,,,,,,,,,,,,,,,,,,,,,,,,,,,,,,,,,,,,,,,,,,,,,,,,,,,,
1,-0.13210132146641868,0.5893816082463031,-0.14245549804564417,1.0019443732338797,-0.09914560642080422,0.6604305475835036,-0.16626005380440878,0.9802581647927525,-0.11623847665170449,0.584701637099987,-0.18428462168227733,0.9570634845528331,-0.09164811820368363,0.6174979426642602,-0.13633303237535388,0.9502614639608883,-0.08690247875672824,0.6661155996640828,-0.1803360541506202,1.0010845293845219,-0.16242966140182846,0.6541343488556896,-0.1622092452210161,1.0316057787661246,-0.08768760504307493,0.5937037888427855,-0.17943714986601528,1.042258086246492,-0.0956868076355162,0.6542865346580796,-0.17473034150247485,1.0443320826237912,-0.10913217700083981,0.5911395778104058,-0.13143667782019855,1.007114485363539,-0.10447550463559144,0.6328038538922217,-0.11304967126197368,1.0151249800636666,-0.10443756186719497,0.5850089545097085,-0.08971549026268616,1.0496132291528164,-0.096213236782757,0.6460601867180782,-0.18653195799926814,0.9532621740660331,-0.11604172625580064,0.5333178444738859,-0.1276449984571334,1.0124535276728153,-0.17907017537826916,0.5907017696999992,-0.19750429724434712,0.9804700521635195,-0.09506015257468493,0.611528421811902,-0.14972224761563285,0.8217646238231572,-0.17362015909206346,0.6404224989431802,-0.12705633394681648,0.884696639876952,-0.15977091312831285,0.6092182750186059,-0.09947177442650398,0.3314447002965691,-0.18638140720803922,0.6728269358996503,-0.10999366006675061,0.8130651096556647,-0.15610385419135533,0.6710804611356134,-0.0941015958176695,0.2808844696493697,-0.20498219889707692,0.6576102541787943,-0.17348294155111288,0.8272928520211538,-0.12867403916226985,0.6053755189792501,-0.06449331462856275,0.2887976834684127,-0.1679097195825615,0.6593122241626036,-0.15065158569188003,0.8529780358418595,-0.15288270852247623,0.6156700681558731,-0.12002737064430866,0.4067173171801075,-0.1792883894764608,0.42840762810488753,-0.09064854429198635,1.040436646480969,-0.18989898617383774,0.487096936566209,-0.06416764871158792,1.0134645683923984,-0.17236546939585548,0.5639855484518809,-0.11483386700469901,0.9021785041777813,-0.20505984041566475,0.5043694732380544,-0.055523668195776435,0.5722139596213955,-0.2476029778062105,0.6342703801276328,-0.11295904359241261,0.9683634708065814,-0.24846621132174262,0.5752149235301104,-0.026774867940553088,0.49626574903232606,-0.24562666808726627,0.5662964506760144,-0.053375830854456296,0.9172376199002535,-0.2871318854882951,0.600221288269238,-0.021798071441000433,0.5146400957594061,-0.24243601046781385,0.6101459890943166,-0.07817650373820337,0.9361672075665604,-0.2188296615649069,0.588561897909998,-0.027099700839581933,0.6242516335129528
2,-0.0852775916772022,0.569315943001247,-0.17568947294239365,1.0019443732338797,-0.0567604809774549,0.6377356618527602,-0.19802990103326545,0.9802581647927525,-0.07366270451653395,0.5620938933599052,-0.2159008975989618,0.9570634845528331,-0.04892406448723501,0.5950725891371911,-0.16778182055738614,0.9502614639608883,-0.04397857864939551,0.6427071867307332,-0.21322071967428796,1.0010845293845219,-0.11997820019357774,0.6304075875145946,-0.19534170780647447,1.0316057787661246,-0.045703091865740376,0.5696900907417418,-0.212790790779633,1.042258086246492,-0.07023428629925242,0.631695718637114,-0.19712893417350152,1.0443320826237912,-0.07904141517079621,0.5667323102399102,-0.15929945365985382,1.007114485363539,-0.062135337246744755,0.616326149844065,-0.14249229256801602,1.0151249800636666,-0.06136537446160753,0.5683460588302346,-0.12114343721453713,1.0496132291528164,-0.06905178208322324,0.6311010302048641,-0.20385922714519764,0.9533016323408743,-0.0845337706825987,0.5225868030424589,-0.15663858213360585,1.012478203995752,-0.10162318711622098,0.6055029739045585,-0.2335304108411286,0.9849108962225097,-0.03517383126041097,0.6300757183359499,-0.18777177055742855,1.0079785940074835,-0.04783024757691556,0.646117126705021,-0.19134302758312685,0.9654081238323354,-0.06068327911645745,0.6126928085764978,-0.15455464019919746,0.8608177798349144,-0.05511053224407164,0.678173412931358,-0.1773956038998704,0.9352108816359505,-0.04209531018973394,0.6716974288136834,-0.15463835656174815,0.7902316402407241,-0.07284745978548723,0.6583256887300333,-0.24357006000197126,0.9625046773919421,-0.016583383968508197,0.6053748037235128,-0.12558599041435767,0.8026692042260879,-0.04272544451936776,0.6585630533824217,-0.21728723464247662,0.98766390982715,-0.05296898651304729,0.6154504250398758,-0.1755913037092591,0.8632832933229909,-0.18662466000303896,0.4212030656792741,-0.08883927736974795,1.040739914913586,-0.1851486513152891,0.4866325865810864,-0.06775354022936789,1.0137537105242038,-0.15212602025041652,0.47862868709896034,-0.12683743274062317,0.9615963479964458,-0.1929438581084135,0.45011714674955944,-0.06352206538671533,0.9632866501083034,-0.19205025254789942,0.5095549327017904,-0.1403194157052793,1.0445938775677508,-0.24009720217165573,0.49151307454634574,-0.04758186673530665,1.0064317384312822,-0.1840710243498392,0.4392951353207135,-0.08117491750351492,1.0427716179127962,-0.27685084183796976,0.516186249321179,-0.04361909525531725,0.9775084286222601,-0.18922121257056848,0.4609955281358357,-0.11896388761570842,1.0171374948895584,-0.21853333158150276,0.48052955213820847,-0.06046374877646843,0.9841537173867014
3,,,,,,,,,,,,,,,,,,,,,,,,,,,,,,,,,,,,,,,,,,,,,,,,,,,,,,,,,,,,,,,,,,,,,,,,,,,,,,,,,,,,,,,,,,,,,,,,,,,,,,,,,,,,,,,,,,,,,,,,,,,,,,,,,,,,
4,,,,,,,,,,,,,,,,,,,,,,,,,,,,,,,,,,,,,,,,,,,,,,,,,,,,,,,,,,,,,,,,,,,,,,,,,,,,,,,,,,,,,,,,,,,,,,,,,,,,,,,,,,,,,,,,,,,,,,,,,,,,,,,,,,,,
5,,,,,,,,,,,,,,,,,,,,,,,,,,,,,,,,,,,,,,,,,,,,,,,,,,,,,,,,,,,,,,,,,,,,,,,,,,,,,,,,,,,,,,,,,,,,,,,,,,,,,,,,,,,,,,,,,,,,,,,,,,,,,,,,,,,,
6,,,,,,,,,,,,,,,,,,,,,,,,,,,,,,,,,,,,,,,,,,,,,,,,,,,,,,,,,,,,,,,,,,,,,,,,,,,,,,,,,,,,,,,,,,,,,,,,,,,,,,,,,,,,,,,,,,,,,,,,,,,,,,,,,,,,
7,,,,,,,,,,,,,,,,,,,,,,,,,,,,,,,,,,,,,,,,,,,,,,,,,,,,,,,,,,,,,,,,,,,,,,,,,,,,,,,,,,,,,,,,,,,,,,,,,,,,,,,,,,,,,,,,,,,,,,,,,,,,,,,,,,,,
8,,,,,,,,,,,,,,,,,,,,,,,,,,,,,,,,,,,,,,,,,,,,,,,,,,,,,,,,,,,,,,,,,,,,,,,,,,,,,,,,,,,,,,,,,,,,,,,,,,,,,,,,,,,,,,,,,,,,,,,,,,,,,,,,,,,,
9,-0.17549645040785825,0.5762034981236225,-0.11750215779606285,1.0019443732338797,-0.1409144787901764,0.647060570109291,-0.13817639149254593,0.9802581647927525,-0.15619980980174902,0.5707291758763847,-0.1550848423405699,0.9570605043205943,-0.12986223328867494,0.6029761650344079,-0.10598454840290679,0.9502614639608883,-0.14108336798254706,0.653904276879659,-0.14883866817033525,1.0010845293845219,-0.21706192403860328,0.6421688356263194,-0.13106707429676476,1.031602202487438,-0.14279708509060907,0.5820600810905577,-0.1486370833604192,1.042258086246492,-0.12565186471589504,0.6406233619362168,-0.14074377120919662,1.0443245724385495,-0.1917877531232842,0.5819627274914971,-0.08150364056062774,1.0071078096433241,-0.14215195089797494,0.6193928088177588,-0.08679344180121887,1.0150961314155953,-0.15712178435715973,0.5728732700195046,-0.05911505573220566,1.04957245957579,-0.07081664110773439,0.6308214844208675,-0.16027990077580162,0.9530548095068595,-0.2311446461240939,0.5374316378469938,-0.07463229667874277,1.0119649483995912,-0.12463620961071176,0.579642783513018,-0.20450845015200295,0.8802447823690551,-0.24109920050684425,0.630044366292798,-0.1005682521387678,0.10378093093871193,-0.13342458009443187,0.6371876952665749,-0.1503585557413895,0.6569141520076893,-0.2644640133701189,0.6137208098849389,-0.07044801274015607,0.1219231831390144,-0.14819519553831348,0.6728927394274823,-0.13373440849490292,0.5859066228125556,-0.25709562906570343,0.6745551735074395,-0.06521139828217762,0.0920643310757232,-0.17671808246736312,0.6587993668420633,-0.19482357067572356,0.5984156652459462,-0.22373040058433,0.6095074321643698,-0.03447732865411677,0.12288700734670095,-0.13765134637375614,0.6603302714953673,-0.17487963389898517,0.5591896623715531,-0.24936989921840655,0.6201696227899673,-0.08858907919890646,0.1658018101019368,-0.1344157553129607,0.45475702361842196,-0.09757059281353231,1.0404456467823302,-0.2306783558544486,0.5167262564724437,-0.05465504886248959,1.0135674460092807,-0.10545340935385894,0.5905457953963084,-0.1273771482179066,0.8355404517142498,-0.28569493463059165,0.49372760035521135,-0.05149107523381194,0.04072577201029249,-0.18714166873904933,0.6489676934363486,-0.15917206140405515,0.8978921840328997,-0.35039772636662786,0.5173838745646563,-0.03949204261831214,0.19914581864578274,-0.18964570326066513,0.5736088081017041,-0.10535807371711846,0.8961658878560336,-0.38777442821885305,0.5325099349672361,-0.0352887293912159,0.4460105031023168,-0.1903572425487122,0.6239855915647146,-0.12636636341227545,0.8126645358479629,-0.3286310232160603,0.5083448344830266,-0.05321324511521695,0.2905699607014446
10,-0.18157088582968597,0.5729186861500507,-0.11532237501100266,1.0019443732338797,-0.14692325962920066,0.6440024345998,-0.13520213240536985,0.9802581647927525,-0.16198746509696385,0.5675656593549309,-0.15195797473532976,0.9570624116692271,-0.13548863076408196,0.5997130491515343,-0.10267719349686139,0.9502614639608883,-0.147790665897374,0.6506534395536092,-0.14622346065819714,1.0010845293845219,-0.22388132081074022,0.6389707484108959,-0.12849593329181758,1.0316041098360709,-0.14890481295661076,0.5788687888046385,-0.14562349114878037,1.042258086246492,-0.13395717074889923,0.6361205290466599,-0.1354909814019239,1.04432445322926,-0.20218389565067377,0.5777500500127069,-0.07717830150051067,1.0071113859220104,-0.14821234697410482,0.6151159371365454,-0.0840190232842413,1.0150627528145209,-0.16355826885715935,0.568810617431614,-0.05646668972907415,1.0495761550637661,-0.07601950654658735,0.6244220913392025,-0.1552146229331021,0.9530399083456655,-0.23224900429884415,0.5343894763823026,-0.07755410505551785,1.0121663524942872,-0.11824995218277239,0.5624868382119621,-0.20564529608398924,0.7610354332136291,-0.24136035558992142,0.6244997634218569,-0.11221736372888842,0.15896224051951494,-0.10000723525507929,0.6317976472395364,-0.16119344047320566,0.6435382140689991,-0.2642264406375161,0.6141694540461633,-0.08367740948552697,0.2177112596589805,-0.10844145424409893,0.6704873939875714,-0.14639378985623092,0.5909065584395392,-0.25733321946097076,0.6764326602132196,-0.07956491269092485,0.2467052589865279,-0.1372717110174253,0.6569537686212381,-0.20828225346774498,0.60339301071256,-0.2220890872807641,0.6101127173320638,-0.04801942387653132,0.28508160208756855,-0.10324114679427497,0.6584112403521788,-0.18625498504953897,0.5949509591206681,-0.24717656816806663,0.619402272593129,-0.10049410943729394,0.3352196682257161,-0.13956289745779854,0.43940790371676486,-0.09779346592243754,1.040284118194989,-0.23133194134009274,0.5069636415070049,-0.0581248193534927,1.0134805424371982,-0.09256617017446064,0.5837112288031382,-0.13486057606328833,0.48914185971901064,-0.25109655195062663,0.5192404148770009,-0.053355865015745005,-0.025266296023372912,-0.18116828892150644,0.590181718456948,-0.16174333045291178,0.44103551603744684,-0.3025100071052956,0.5039948236041155,-0.04452977695400648,0.03915258734924345,-0.1823475877957575,0.5063058062210584,-0.10463089595611479,0.6277932925458224,-0.3364175465405957,0.51212449080296,-0.03953069943883304,0.11744904809094904,-0.20292633986057498,0.5473347932439443,-0.12969692963904977,0.4518444808400283,-0.29109261008639686,0.48289710823333176,-0.056860667983059957,0.04234363846776769
11,-0.16256286371201178,0.5704166619763141,-0.12305562826221224,1.0019443732338797,-0.12573486743139436,0.6410659521702956,-0.14505714250690954,0.9802581647927525,-0.14137204946570472,0.564828852485424,-0.1621875973427666,0.9570634845528331,-0.11538750035447812,0.5971203067084496,-0.11332726497218337,0.9502614639608883,-0.12486872570190824,0.6474161324819234,-0.15564151201965853,1.0010845293845219,-0.20079357301702763,0.6354164042336498,-0.13781657402046094,1.031605659556835,-0.12639963610206612,0.575017613496411,-0.15529132344832824,1.042258086246492,-0.1071805566902334,0.6339360784202867,-0.15237503517392778,1.0443318442052119,-0.16836692835757738,0.5735240806981317,-0.09344016882142459,1.0071142469449597,-0.12935089375554046,0.6138276423443702,-0.09395537255537827,1.0151233111336129,-0.1430679222716399,0.5667466873969765,-0.06627187935706051,1.0496102489205776,-0.0635434962710899,0.6278803528290706,-0.1726917328219397,0.9532591938337943,-0.2053344012953319,0.5260371967192167,-0.08596954485608202,1.012205929978418,-0.1149099527415582,0.5822029222154106,-0.20996733476708004,0.9324734715627807,-0.24669517935762025,0.6165176882074709,-0.10663327367410126,0.19132954448699083,-0.11514436391778964,0.651008164646,-0.14793953384319586,0.8296876920276783,-0.2957181593792904,0.6094175333460901,-0.05346150253191938,0.250135411556411,-0.12660266562824807,0.6903587480906598,-0.12981106747368454,0.7715246061537726,-0.2897006970785523,0.6718048363835687,-0.04390692319165923,0.2365500878305984,-0.15342825210133781,0.6750754283769449,-0.1907201808445967,0.7775546833047231,-0.2588105888353495,0.6074882056133138,-0.014439321158167616,0.24841693734223774,-0.11582257519887117,0.674468731654669,-0.17070636779918932,0.7593479603871476,-0.2881754823932741,0.6176348756662491,-0.07523413228035564,0.2931224871439442,-0.1452561548287478,0.45138632135172896,-0.1010571209315625,1.0407014103130614,-0.2285012190412971,0.5087818811958782,-0.056753335178394176,1.0137022121111179,-0.14133534886539767,0.584017775491218,-0.11434284784501415,0.6123173615424359,-0.29694385076334917,0.48360524155623064,-0.035332358472545136,0.1328520148267407,-0.23989863747681572,0.6311937671782615,-0.11970594367641832,0.7642657826084918,-0.38290229758149363,0.5015928756289568,7.004129599579023e-05,0.3081610599110797,-0.24144930883336982,0.5542833729401135,-0.06110879385863528,0.7345698280568392,-0.4224545878237257,0.5158963919336362,0.00711521667694999,0.508367302943244,-0.24340754313475946,0.6053705245595571,-0.08280392682164747,0.7502909572995315,-0.3609522530178709,0.4923652464512578,-0.008297177370027286,0.5652836855530529
12,,,,,,,,,,,,,,,,,,,,,,,,,,,,,,,,,,,,,,,,,,,,,,,,,,,,,,,,,,,,,,,,,,,,,,,,,,,,,,,,,,,,,,,,,,,,,,,,,,,,,,,,,,,,,,,,,,,,,,,,,,,,,,,,,,,,
13,,,,,,,,,,,,,,,,,,,,,,,,,,,,,,,,,,,,,,,,,,,,,,,,,,,,,,,,,,,,,,,,,,,,,,,,,,,,,,,,,,,,,,,,,,,,,,,,,,,,,,,,,,,,,,,,,,,,,,,,,,,,,,,,,,,,
14,-0.16124265779124247,0.5613183109745746,-0.12175039412591124,1.0019443732338797,-0.12608950553493203,0.6327413290623854,-0.14526941965280982,0.9802581647927525,-0.14297955030246565,0.5570435918080864,-0.16312068055418005,0.9570630077156749,-0.11814180972066013,0.5898773886939233,-0.11500315573529417,0.9502614639608883,-0.11811874479184264,0.6379034695943502,-0.15683656234590682,1.0010845293845219,-0.19339898363834016,0.6256378450257335,-0.1385741154793056,1.0316054211382557,-0.11843104532892187,0.5649309578796508,-0.1556724079689463,1.042258086246492,-0.1103455882883818,0.6273809980064683,-0.15780970882464446,1.0443313673680539,-0.14279508347779835,0.562765084688305,-0.10467177588256829,1.0071129356427748,-0.12942457733953713,0.6062396134365943,-0.09434854916646365,1.0151225958778756,-0.13497950504389447,0.5583382005538674,-0.06816710430945751,1.049610129711288,-0.08295178195305178,0.6228496612053829,-0.1766161453199501,0.9530683993658683,-0.17006365794011105,0.5097392602797025,-0.09893228593010109,1.012088926060724,-0.15639663688868752,0.5828395594262565,-0.19387831519139548,0.9758543280767578,-0.20522837168793867,0.6162520899103517,-0.09961532468596339,0.47504407733916365,-0.16641723036715989,0.6539955494421426,-0.12455303561683947,0.9320355428272389,-0.2830366370495633,0.6248659247836206,-0.04370391790853645,0.316760976846862,-0.17988917918508285,0.6924712559107892,-0.10775201910184705,0.8927068094466193,-0.2818305967071775,0.6895348340184564,-0.034562260267822414,0.2437778960676742,-0.20490586468828217,0.6778401898248514,-0.16969667500758934,0.902812115765508,-0.2500373974863041,0.6245463992969381,-0.005674561283144537,0.24631450270707544,-0.1664756141126666,0.6776645538935911,-0.14837071188735845,0.9097759574994218,-0.27258492268813944,0.6343796681276443,-0.06309469175107807,0.3346226979059681,-0.16817955008224403,0.4274131842114549,-0.09897616183624455,1.0395687432483947,-0.21318595749623434,0.4778586338585369,-0.06381073345919133,1.0128897411981845,-0.1637768778026637,0.5672595719847483,-0.10705508059640892,0.7564724466292584,-0.24986569504023046,0.47374347426420793,-0.04292773087371507,0.3497698723544736,-0.2537450940522858,0.6533854108931663,-0.10417887689107935,0.8976444075245684,-0.30148696393719865,0.5371996175341692,-0.010702818399178485,0.5927774706433491,-0.25331977198029215,0.5860726757660413,-0.045457902061846786,0.8189776940579684,-0.3397601264802128,0.5631765247041746,-0.00501309561732656,0.5826088219175481,-0.24737031759459863,0.6333169967275258,-0.07230140734884301,0.882129696217836,-0.2676549239318983,0.538846378958582,-0.01632561144618223,0.6978043016075878
15,-0.20434540487135558,0.5619579284176593,-0.10670670948239117,1.0019443732338797,-0.1682047067245157,0.6339202493313979,-0.1281920548535465,0.9802581647927525,-0.18380351341022477,0.5577859080541191,-0.14527063788891847,0.9570634845528331,-0.15774624487238595,0.5902247049590295,-0.09635618392981561,0.9502614639608883,-0.16714187865202976,0.6398542104085592,-0.13885464450355942,1.0010845293845219,-0.24303257369370326,0.627789334283546,-0.12094003294221829,1.0316057787661246,-0.16867583392100594,0.5672880831619384,-0.13839572935959474,1.042258086246492,-0.1515680243933807,0.6268118332535081,-0.13395574761169174,1.0443320826237912,-0.21333460839958643,0.5654003252431146,-0.07469420186901846,1.0071142469449597,-0.1713406137664795,0.6051221455563452,-0.07677163464894991,1.0151247416450873,-0.18524926361458935,0.5581224913444253,-0.04924495607275464,1.0496126331063687,-0.10000773528025322,0.6222068251114803,-0.15603462863678513,0.9532979368528983,-0.2476798592594296,0.512911359870004,-0.06700585972751452,1.0123703195887088,-0.16307144736891335,0.574117254128405,-0.18826433331842543,0.9846675900625366,-0.2588815620211628,0.6031613601969118,-0.08547845284674722,0.49272808999060713,-0.18643618609278795,0.6449442265051308,-0.10936832232389707,0.9572352541500233,-0.29607909911038466,0.6049265021761987,-0.04111069192795032,0.18400474363153002,-0.19969005976204213,0.6846310993556134,-0.0895392462396295,0.9386925081465705,-0.2904695980471094,0.6693214684636468,-0.0330774137738169,0.1595067631216598,-0.22725598171579017,0.6705493496759256,-0.1505833678504514,0.9588308855065661,-0.26005490541398374,0.6061226035968649,-0.0011262121704727,0.17401071583325795,-0.18763347130877117,0.6706046221385252,-0.1322853571468263,0.9683957547291887,-0.2821439608694074,0.6168708037248734,-0.05813692220831457,0.2309311348957524,-0.13792063382365935,0.43815307693263106,-0.10190357300416439,1.0407088012890133,-0.2309484367943673,0.4945461760586254,-0.052807677289821414,1.0137094838777805,-0.11026241222523223,0.579458973840217,-0.12610180540717758,0.9616146466223919,-0.26894084453660266,0.5170917270374928,-0.03486119721747488,0.7466802715530056,-0.17093821694912198,0.6764244538428428,-0.14114874860516397,1.0445987651486224,-0.32011224043466596,0.5983286510996905,-0.007133863920814873,0.9284117022107319,-0.17143609900713522,0.6103916688576245,-0.08577876080203536,1.0425314707989963,-0.35784554230807375,0.6252997637445493,-0.0025754943513908585,0.9349570899496221,-0.1568709660696525,0.6559414297681447,-0.10437479980991612,1.0173768075383316,-0.2817194935318057,0.6004293018940678,-0.010047335894108205,0.9513407643914013
16,,,,,,,,,,,,,,,,,,,,,,,,,,,,,,,,,,,,,,,,,,,,,,,,,,,,,,,,,,,,,,,,,,,,,,,,,,,,,,,,,,,,,,,,,,,,,,,,,,,,,,,,,,,,,,,,,,,,,,,,,,,,,,,,,,,,
17,-0.14268081775401115,0.5489486782536274,-0.13274733974805034,1.0019443732338797,-0.10677463742904605,0.6201875179890822,-0.15933443029266262,0.9802581647927525,-0.12437372860865877,0.5446123874890861,-0.17764640274479632,0.9570632461342539,-0.10019610632609266,0.577558956362838,-0.12997066978497832,0.9502614639608883,-0.0927771759155373,0.6254168925603536,-0.1728158988240252,1.0010845293845219,-0.1679205726761456,0.6132989683014903,-0.1544801685709916,1.0316055403475453,-0.09289634855884629,0.5528250161071898,-0.1714998000734323,1.042258086246492,-0.0926050354279587,0.6159469793945603,-0.17578731883722432,1.0443313673680539,-0.09845106020312071,0.5514949788495294,-0.13253300792308403,1.0071137701078017,-0.11173964162838015,0.5947784151066687,-0.10636986942605894,1.0151242648079293,-0.10931327484834544,0.5470158214416238,-0.08293522517717088,1.0496116794320522,-0.0753718597513674,0.6130103648644405,-0.19182699528720268,0.9531771778425835,-0.119248422474172,0.5050971313353055,-0.13087089633158422,1.0124029829340455,-0.1463678597298825,0.5804444063806022,-0.20729647853324434,0.9630650786565917,-0.12165560384172315,0.6091822041796083,-0.1375858601706232,0.43017706841467945,-0.11493238337622759,0.6521851775663796,-0.16105183443110355,0.892037547927489,-0.17947287207227616,0.6066892499407861,-0.08911922954955369,0.2750903266031029,-0.1264163152585218,0.6912412544612042,-0.1459572279644729,0.8536607603285773,-0.16706924067360007,0.6678052455098504,-0.08656738904242099,0.2445779692144942,-0.142873357819855,0.675437645803245,-0.21165773194695492,0.866593591786321,-0.13907352565275644,0.6016491557971823,-0.05486381890391644,0.25285322164590296,-0.11127977479426414,0.6740250942836058,-0.18693105515363082,0.8769982904538285,-0.16919956648018888,0.6115199159494522,-0.1078887173118426,0.3113761413855061,-0.18390466160920638,0.41696147994776767,-0.09355203604020099,1.0406943769649777,-0.1998784859264164,0.4664837132519238,-0.07071549263092732,1.0136572702089572,-0.17349610250702224,0.5511372308287424,-0.10432508735158,0.4786611577956403,-0.23169390860022165,0.39364290811544994,-0.04462801001996121,0.8374412774314541,-0.23238900521991374,0.6342653733374717,-0.1100338885292539,0.6058126757283038,-0.2846946520034353,0.4107557546191301,-0.003562487319705279,0.7367818155835346,-0.22739175375729373,0.5650906487122083,-0.05154655092003689,0.5066492958302766,-0.32252747764957435,0.4316053212339444,0.0037432253269206323,0.695890369940772,-0.22178899001782285,0.618393066559374,-0.08392136093034414,0.6239262493527542,-0.25018024967737396,0.3918456489208927,-0.012702588667531555,0.8452369865059642
18,-0.1309371346382641,0.5544361798748737,-0.13715391494590076,1.0019443732338797,-0.09470989907864866,0.6259527772549819,-0.16333535836299004,0.9802581647927525,-0.112492776412944,0.550844112704998,-0.1817654548135256,0.9570634845528331,-0.08852019388286697,0.5842423655768578,-0.13422412568356468,0.9502614639608883,-0.08037352108373028,0.630017775090566,-0.17659781074082337,1.0010845293845219,-0.15538581576641092,0.6174057879311595,-0.15812806890801007,1.0316057787661246,-0.08015662435033838,0.5564132157226683,-0.17505032739124068,1.042258086246492,-0.08633932957508805,0.6220788072258286,-0.17750583417976457,1.0443319634145016,-0.08711237518791183,0.553450845663189,-0.13492604541152173,1.00711412773567,-0.10164085884163479,0.6004509891499427,-0.11051223380113567,1.0151239071800606,-0.09850975651062449,0.5509629602279397,-0.08673857940909807,1.049611560222763,-0.08690978375330835,0.6181870282631832,-0.18820460301707184,0.9530741214117667,-0.11360671611678275,0.5018180414076322,-0.12927062884781132,1.0096839382486817,-0.1840698872900528,0.5789883245133842,-0.18987305145648273,0.9691029695676943,-0.1521119236001191,0.6115672840402956,-0.12407918532114477,0.41834301322936146,-0.1780615635898798,0.6541716811674538,-0.1197427741360905,0.9156066549831531,-0.2428325849896132,0.6156016344508264,-0.05711738516630967,0.3027017312604668,-0.19147842602183937,0.6924485465411298,-0.10210912902445017,0.8764607886527045,-0.23402196346376225,0.6780370384366388,-0.05141794290063091,0.23001342525201557,-0.20756265450958017,0.6779363321168741,-0.1672841185292033,0.883539073086675,-0.20758600659560494,0.6124368216411459,-0.01993478077940642,0.23170173858697346,-0.17291278431773383,0.6777773258815062,-0.14386900526036794,0.9102000445469987,-0.23443685410373208,0.6230628322473648,-0.07596615257539739,0.3253845144075856,-0.18894515341269932,0.41898613052149825,-0.09160527723290388,1.0397186489300048,-0.19152835461654005,0.465743393761491,-0.07051619841139002,1.011148510710361,-0.19314553124020709,0.5703736762556834,-0.0993822681304981,0.3395162901370251,-0.21797672818333538,0.44480327345854387,-0.03670869525872038,0.5411270975341458,-0.28083274054245394,0.6499895554663779,-0.0960863649684871,0.5323855052132433,-0.2612874490705742,0.49573487153578666,0.0066330520274054255,0.7536381283353046,-0.2789581972973402,0.5807329936638379,-0.0371569999283959,0.3207115037675173,-0.2986791702384124,0.516726267402844,0.012143300219878236,0.573648634482398,-0.26356276720890714,0.6328591734510061,-0.073415537118625,0.5748590501225601,-0.19954872119683742,0.499536817705988,-0.005332978688519296,0.8314260538697033
19,-0.14561807098937124,0.5663537113651996,-0.12289977536077325,1.0019443732338797,-0.10735218503302354,0.6386819451932143,-0.15023501894331795,0.9802581647927525,-0.1251906559480622,0.5636125004994926,-0.16870795232920985,0.9570634845528331,-0.10124406813140713,0.5970379926940148,-0.12121625916744312,0.9502614639608883,-0.09224461332083067,0.642545896561971,-0.16370805727702642,1.0010845293845219,-0.16723266063741402,0.6298898615700755,-0.14524966839054554,1.0316057787661246,-0.09201940459491623,0.5688547316452147,-0.16218870579266614,1.042258086246492,-0.08940839466606203,0.634136350026732,-0.16974034530393298,1.0443320826237912,-0.08978642007546324,0.565540336553692,-0.12734393430042043,1.007114485363539,-0.1143372670074509,0.6116307343472388,-0.09736015632221276,1.015124860854377,-0.11037152841047354,0.5620092506255837,-0.07401334914793885,1.0496131099435269,-0.090126129702057,0.62514587054071,-0.18226530737242816,0.9530200003943107,-0.11225664960393798,0.5071907444830411,-0.1255537528620567,1.011024804337549,-0.2065887652487433,0.5821525562905754,-0.17717665016589207,0.972406318585791,-0.15818940590814334,0.59071066515907,-0.1139294282396243,0.4961267170333776,-0.23922998452027544,0.6526102182882729,-0.08345578721040195,0.8760742915683888,-0.27068673436819274,0.5895001644572351,-0.03675814230657447,0.1940319734174492,-0.26169206271469464,0.6913257142428509,-0.059968494873868086,0.8230819086287482,-0.26654306831844293,0.6510826259763116,-0.029120652539897762,0.14626748373227838,-0.27775892819598347,0.6731363104684671,-0.12442735744054659,0.8319140001305898,-0.24072816062658586,0.5860637332813131,0.0021821936735494304,0.15607539509828025,-0.2344683870122506,0.6719487068782103,-0.106247619245461,0.8705635518178116,-0.263227664654806,0.5963685344568375,-0.055569011204548935,0.2315792460007176,-0.18693324576833906,0.41307469086428694,-0.08767799508060561,1.0405354113773617,-0.18388005341780847,0.4613257061069958,-0.06824978659309983,1.0130189640680576,-0.20629491929853508,0.5581124643835825,-0.087976324712399,0.7082929393737042,-0.22698708537512857,0.42035797812468156,-0.019751149539363896,0.8717694401015897,-0.29276889733065775,0.6318518024565818,-0.08360151363034984,0.7753117749829119,-0.2812593152361995,0.4481149624877062,0.036668770635104556,0.8940606513570026,-0.29175896769848525,0.5621716900482678,-0.02406422246564259,0.4955179794068606,-0.3202853074301692,0.4667670250589414,0.04444495291053817,0.8025869160185003,-0.2858855791966966,0.6136180192571279,-0.054708247850105626,0.820436147061647,-0.23551363372120712,0.4428117329243413,0.03406993047517477,0.9310971196770459
20,-0.14995282210492183,0.5499698250279194,-0.13793827143752707,1.0019443732338797,-0.11143367901255286,0.6215877503041457,-0.16494582754481196,0.9802581647927525,-0.12862434890930757,0.5459563530194816,-0.1830255625369464,0.9570632461342539,-0.10405667326763637,0.5788077332755273,-0.1350743948689203,0.9502614639608883,-0.10295385222625927,0.6268592057546285,-0.17599972403292669,1.0010845293845219,-0.17816352241906744,0.6147518315178905,-0.15768272813680545,1.031605659556835,-0.10329454313337924,0.5542509380241515,-0.17465183148393376,1.042258086246492,-0.09791761571969096,0.6161877225548081,-0.17800739310909414,1.0443308905308955,-0.11412840831782663,0.5523345102711907,-0.13206031959003026,1.00711412773567,-0.12120399189506156,0.5946928228367713,-0.10959264092628099,1.0151228342964544,-0.11919917500730895,0.5467725152816506,-0.08657496911569096,1.04960965287413,-0.08296071066576988,0.6126472533684688,-0.189961080089352,0.9531632303557059,-0.1415585677971485,0.5045494838591092,-0.12378834310128153,1.0122944428759095,-0.17716472859688642,0.5858716477059807,-0.18763782383587332,0.9836471585439819,-0.16868769373794978,0.6132224454210634,-0.1189867685487674,0.6340633985423955,-0.12212325421756652,0.655218517543644,-0.1435060848460534,0.9483141673618458,-0.2344861298484033,0.6122850532015893,-0.06532361870858111,0.4621946709710838,-0.13059368587375708,0.6952712437037579,-0.12753815749206798,0.9123484472487433,-0.22197664735096628,0.6737750083119745,-0.062345229852962675,0.3809300910444808,-0.14772982263984052,0.6783038543565592,-0.1927802383792498,0.9243872090348562,-0.19108890816973606,0.6082634236232626,-0.03149643952987107,0.37910551523263386,-0.11782444199841567,0.6768723485598814,-0.16845492358449507,0.942081019316591,-0.22244819992585074,0.6180417369714859,-0.08424879731890764,0.4583834875387654,-0.175645911044592,0.41049813108225874,-0.09869322997622285,1.040726205845288,-0.20729823304049436,0.4614148746555798,-0.06508066081935639,1.0137155635515476,-0.20778705125557748,0.5461060623678965,-0.09679236679601894,0.9373205086676801,-0.2719381092666636,0.38957554676062206,-0.01322877835442686,0.9248436211814541,-0.30825841683793725,0.6269849043967368,-0.08248519186034559,1.0167002151150528,-0.3539306373110104,0.4041309069686022,0.04840666322003849,0.9310808578084186,-0.3077700619466876,0.557219318927815,-0.02128455581359691,0.9900209112401279,-0.3945425811162121,0.4225248516256376,0.05865903686863751,0.9111786513815069,-0.3001500406784481,0.6126588017087575,-0.05669448972565959,0.9965116055882584,-0.32593110996712304,0.38947576824462327,0.04481967109628367,0.9699135717034131
21,,,,,,,,,,,,,,,,,,,,,,,,,,,,,,,,,,,,,,,,,,,,,,,,,,,,,,,,,,,,,,,,,,,,,,,,,,,,,,,,,,,,,,,,,,,,,,,,,,,,,,,,,,,,,,,,,,,,,,,,,,,,,,,,,,,,
22,-0.16370009536031302,0.31422707724425847,-0.08195790571782785,1.0019443732338797,-0.11565768616309402,0.37588369547168715,-0.10942031881611133,0.9802581647927525,-0.1315922460341218,0.301721284459835,-0.12673137070601853,0.9570634845528331,-0.10602053263676187,0.3359452404757683,-0.0781217829312386,0.9502614639608883,-0.11739286443407013,0.37561501839958705,-0.1207639470512506,1.0010845293845219,-0.1944850539661801,0.36092145823068944,-0.103755391846047,1.0316057787661246,-0.1215460089965339,0.298081350650418,-0.12211651698488321,1.042258086246492,-0.059324865701103194,0.38089853631556553,-0.1451563802257211,1.0443320826237912,-0.1330455392655008,0.3002698053761712,-0.0863315743018947,1.007114485363539,-0.11789727131233382,0.3744154836167242,-0.06352408470499593,1.0151249800636666,-0.13483215590169817,0.3203212673511238,-0.035648720406426415,1.0496132291528164,0.023394015618610396,0.43548851022538715,-0.18630434559217296,0.9533054470381399,-0.22068144559332536,0.2912090226049893,-0.09937951044666962,1.012529463990259,0.025915324921216898,0.38962633501524574,-0.1837765709843718,0.9866248277830261,-0.28620623823591623,0.3563969089315767,-0.1148012789546551,1.0061560031795413,0.05194446065808493,0.42333299493965526,-0.09479106269283338,0.9878368748241566,-0.39361756701565603,0.3127391094645592,-0.05168983376817225,0.9305254118997337,0.05906152874750142,0.4519475599650494,-0.07510676981974318,0.9812285880301459,-0.41449289921922333,0.3641921788365715,-0.03872766157843713,0.8203138064356399,0.021151363526629073,0.4307014809949716,-0.13508185840938428,1.0042548700341543,-0.37026183493486126,0.29772376078528034,-0.011068214845118267,0.8473628530412429,0.04932626021502916,0.43407646395065896,-0.11578862524413641,1.0134941786870133,-0.3796906055365234,0.3114906381479385,-0.0693146248614836,0.8825774360460744,-0.13135945682111586,0.42041437701960616,-0.1300229382006144,1.0407374115185057,-0.2992329270458044,0.4681104134148113,-0.06458777712954811,1.0137533528963352,-0.08165104975547963,0.5595705728087229,-0.1307570728527615,0.9622261902777873,-0.3688163183035476,0.5039437768650685,-0.0053759500403117305,0.9383521794547696,-0.1688455717925624,0.6781166297080161,-0.13470600141142,1.0457086036343402,-0.4532641465379594,0.6169041406207171,0.038925975289641715,1.0007257857869343,-0.17694038093537923,0.6231965346947217,-0.08307559461819371,1.0435825987096103,-0.49738147375771447,0.6564897418672605,0.043707858735116026,0.9735681443700933,-0.12617236542031535,0.6510825783353444,-0.09502138471817405,1.0186624797261368,-0.41144254729440055,0.6219948584202519,0.041747986159655734,0.981727808344343
23,-0.1587050717867683,0.2962959139332539,-0.09863633215033189,1.0019443732338797,-0.11542953482550558,0.35378113089839913,-0.12500798798740284,0.9802581647927525,-0.1315674032652114,0.27762554056525796,-0.14246767497132068,0.9570634845528331,-0.10617284360013049,0.3099098720332329,-0.09401374517508455,0.9502614639608883,-0.11822000958224699,0.35884656289421596,-0.13575942780611167,1.0010845293845219,-0.1954154614203244,0.34632049583025304,-0.11885283594549287,1.0316057787661246,-0.12256781928982682,0.28566343816720263,-0.1372899512835048,1.042258086246492,-0.07991018139066297,0.3540088544994645,-0.15101961771822975,1.0443320826237912,-0.15653650893580282,0.29229485291683593,-0.09011613278154079,1.0071143661542494,-0.12041600475488748,0.35592713608635923,-0.07664104757569272,1.0151247416450873,-0.1383661837093218,0.3080890531387062,-0.048254499296101996,1.0496129907342373,-0.00853173209025821,0.41433804044541894,-0.18472751867938353,0.9533010362944268,-0.23114257608867406,0.3050913914080136,-0.10203798710592807,1.012363286240625,-0.005675055547169433,0.38735024224753034,-0.18932083953681433,0.9840468076872009,-0.24949128110925894,0.37386780517562573,-0.12191929410209291,0.7764739748859318,0.021977241994552296,0.42589706754860307,-0.10391725818290852,0.9757752193027639,-0.30183801646795055,0.3381245488604638,-0.06809290561360924,0.6165333884317161,0.03034182810571115,0.4547160467032544,-0.08675405912860425,0.9506501535628302,-0.3103418950391141,0.3947733253152245,-0.055102669667894316,0.5140278290720535,-0.007141025693399472,0.4354228543145974,-0.14720501899582794,0.9702625795373281,-0.2691260703346026,0.3239375855342732,-0.028639513120010014,0.5314314136415237,0.019653116105241564,0.44006628371574985,-0.12647787394573948,0.9668442458256851,-0.28570713381889007,0.3345131408086899,-0.08586536249187923,0.587348120288323,-0.15063688459322638,0.41976212339182906,-0.1290036998727797,1.040711066265515,-0.2910097164395725,0.4791150401657574,-0.07274095730936868,1.0137310607591892,-0.07623798127577608,0.5608393768820567,-0.14651511647011906,0.9620420715300761,-0.304504520517076,0.5125006196690236,-0.04302904747376872,0.4134284674396176,-0.11701027940004517,0.6951218944670798,-0.1675297199502301,1.0454614231724564,-0.35750492088139063,0.6285238873057452,-0.01246224243963591,0.7794515290806965,-0.11829435898327215,0.6456015630379224,-0.11639366886516954,1.036748568558243,-0.39789750250310796,0.6711853266412778,-0.009099701110423394,0.8392485409269476,-0.06335076878876782,0.6684640676122304,-0.1324079555239646,1.0178531082547317,-0.30320965514777737,0.6303435022000066,-0.012406900467216441,0.8981541689514903
24,-0.12450930493394505,0.31204173254821355,-0.11576498655914279,1.0019443732338797,-0.08542757593895287,0.37363350092212655,-0.13997511991825787,0.9802581647927525,-0.10219224130471809,0.29738734133124917,-0.15774537462843394,0.9570634845528331,-0.07747577831463515,0.3296356417914574,-0.10959543558352058,0.9502614639608883,-0.08555956471622286,0.37842385748230495,-0.15002532577126915,1.0010845293845219,-0.162129494093667,0.36553235434122416,-0.1327550119625358,1.0316057787661246,-0.08862945893867094,0.3044472757240416,-0.150841555563913,1.042258086246492,-0.06848352351639037,0.3712852309852891,-0.1588113588230446,1.044331605786633,-0.13854364903297695,0.3069670726701013,-0.09523420555013083,1.0071142469449597,-0.0928689610099874,0.36626848235024473,-0.09222739162140711,1.0151234303429024,-0.10798663192888489,0.31878078530690385,-0.06305708331047659,1.0496119178506313,-0.004376051369370575,0.42370204934892236,-0.19097531920489885,0.9532668232283256,-0.197585859566481,0.2890645070906156,-0.12020594988972111,1.0124908401804444,0.07297517986955335,0.38913218270773536,-0.244579684015353,0.9829344658064025,-0.1945412636880946,0.3553013159559602,-0.18086648001985595,0.9662231561565312,0.18982347701531815,0.42601109123405834,-0.2253531852378075,0.9714667571598194,-0.2510697937792427,0.3112311417540642,-0.15796952627192734,0.9109235900003196,0.20128825780478643,0.45500745381156127,-0.21941365546811453,0.9355077723715765,-0.26332072977894966,0.36809717713903123,-0.15413578400901273,0.8641713212938857,0.16667364712499885,0.4370019601686318,-0.28061072217154986,0.9674447699555713,-0.222257892225726,0.30059882062834364,-0.12682250584617116,0.8954524168878311,0.18526779413991445,0.4404023645053159,-0.2528073129301734,0.9754481762990128,-0.24109811514876678,0.3124348353258255,-0.17911543176135253,0.9404494930071339,-0.14965720111137026,0.40969567374964766,-0.12309884003988994,1.0407154770092284,-0.2777461430415304,0.4624337564533703,-0.06938211286648927,1.013744650618198,-0.08118734643832556,0.5426717023405833,-0.14338698873121186,0.9618013879744733,-0.24586449496779472,0.4910234568310414,-0.06402346929713006,0.6886090754737515,-0.12468330238203977,0.6699971657874229,-0.1568094375844458,1.0442282626766985,-0.27390481296981456,0.613071681170949,-0.051261686012842256,0.8042104044507221,-0.12324236786541362,0.6165771408691907,-0.10334016297406264,1.0108063621754915,-0.3085885824888568,0.6523793459589048,-0.04905275831380089,0.6554612546453619,-0.06022319675767405,0.6407664448361989,-0.13614092543169196,1.0139577063000806,-0.19618808698377027,0.6156072074536076,-0.07244965271845118,0.8683405812859325
25,,,,,,,,,,,,,,,,,,,,,,,,,,,,,,,,,,,,,,,,,,,,,,,,,,,,,,,,,,,,,,,,,,,,,,,,,,,,,,,,,,,,,,,,,,,,,,,,,,,,,,,,,,,,,,,,,,,,,,,,,,,,,,,,,,,,
26,,,,,,,,,,,,,,,,,,,,,,,,,,,,,,,,,,,,,,,,,,,,,,,,,,,,,,,,,,,,,,,,,,,,,,,,,,,,,,,,,,,,,,,,,,,,,,,,,,,,,,,,,,,,,,,,,,,,,,,,,,,,,,,,,,,,
27,,,,,,,,,,,,,,,,,,,,,,,,,,,,,,,,,,,,,,,,,,,,,,,,,,,,,,,,,,,,,,,,,,,,,,,,,,,,,,,,,,,,,,,,,,,,,,,,,,,,,,,,,,,,,,,,,,,,,,,,,,,,,,,,,,,,
28,-0.08565432002598844,0.2708723275646931,-0.28661468779168103,1.0019443732338797,-0.06930694538013943,0.33413326441089614,-0.30595590847463805,0.9802581647927525,-0.08666500212866705,0.260896990369564,-0.3240995086642389,0.9568157080445019,-0.06251858167655133,0.2962848760863488,-0.2763403633506649,0.9502614639608883,-0.04889856148203115,0.3343019066175131,-0.32321346976819393,1.0010845293845219,-0.12393206530902087,0.3201205887658152,-0.3048144524835178,1.0314156995539356,-0.04863042940591648,0.2578131678959014,-0.3217179647548058,1.042258086246492,-0.1266379724779654,0.34960746871531534,-0.2760348380144789,1.0442048863118403,-0.10341798954333738,0.2666443218632928,-0.24867237930937594,1.0067960773511488,-0.07531177545120424,0.33798050537003543,-0.24083223614063828,1.0149958764030829,-0.06322982791007783,0.28185645292660905,-0.2212597935078548,1.0494757808419644,-0.12960432143930592,0.41421737084207116,-0.2447355734176146,0.9522986649832389,-0.09199113861193328,0.3077572687502378,-0.23268144033526364,1.008325190766382,-0.1565686617727203,0.39828063141340864,-0.2890224749590907,0.6837579516576904,-0.024642982499282026,0.42890709178909014,-0.25808663045022867,0.7354352828884038,-0.0002779472295387636,0.41077247834381486,-0.28194990720631724,0.8026134146267079,-0.09929556863101334,0.3685084337672326,-0.22872670549091628,0.3188677328187706,0.013838122152043886,0.44027351344863097,-0.2678708213482861,0.7446824888442023,-0.089449283162541,0.41771095096181565,-0.23467744689650102,0.2668011735888076,-0.008479981265643921,0.412778394113334,-0.3322065100539171,0.7783380671510061,-0.06558444032281344,0.34352891701620686,-0.2021932273874422,0.3043336639314406,0.009491215557941343,0.42159829117157566,-0.30430722586001463,0.7272000760182511,-0.09620901409040575,0.3589539061895492,-0.24946428411884197,0.3300832081598744,-0.20986679153301077,0.4651164300896745,-0.07233474222734737,1.0403185696796688,-0.1602949013777029,0.5303034792965404,-0.08317927200974579,1.0129640681902194,-0.19447558471381834,0.6117279152426524,-0.0907405112595651,0.734083273121568,-0.18105794783561224,0.5754793641758595,-0.07642290187684722,0.9131035923232693,-0.3030412861941549,0.703928957569802,-0.04658357861496651,0.8615467617649859,-0.26809011512201225,0.6516848217539873,-0.008158287382590348,0.8880574503491596,-0.2975268597117204,0.6395069881096387,0.019585328521625103,0.749799768471268,-0.3023674975286789,0.6777485728914304,0.004646853981990537,0.7180858879575872,-0.2926830863722574,0.6912313729863759,-0.020410466280649634,0.8254354270375381,-0.22572097783796624,0.6678032929066411,-0.024711832171118688,0.8289318379044323
29,-0.13631362415252882,0.27427777933929026,-0.2619108918040671,1.0019443732338797,-0.11554257477184446,0.33694323598186476,-0.2823544686944541,0.9802581647927525,-0.13209663573724914,0.2629005110967216,-0.30002164497860295,0.9566268805298535,-0.10720322230194534,0.29750912568771287,-0.2517978930206078,0.9502614639608883,-0.09707131838419028,0.33943639973007717,-0.3011598643476645,1.0010845293845219,-0.17286608007472645,0.32607583783693644,-0.2832367935503345,1.0312811718706778,-0.09836699925918577,0.26457904013596795,-0.300598187609931,1.042258086246492,-0.1554259513326164,0.3496200154930405,-0.2588363409161074,1.0442431524937863,-0.13768066364994713,0.2746602227135888,-0.23741073524199535,1.006616905788954,-0.12019961254420794,0.33928542985810306,-0.21781145143409705,1.0148785148575203,-0.11027600759273767,0.28605828236005026,-0.20026771778873503,1.0492550052377165,-0.160667784941779,0.40736089954194604,-0.21561055869893742,0.9525456070265433,-0.12765497305254753,0.3157450064058774,-0.23120349950030816,1.009815783722925,-0.247826551468189,0.3822747875356163,-0.2247590762926124,0.7783430127309936,-0.11633819670702227,0.4354833616541261,-0.25452093290163774,0.9952497240924748,-0.16859789483584248,0.4018386659639778,-0.18966922194380248,0.8011247290187977,-0.24116212980848725,0.37031362003890006,-0.19224782605008695,0.629259516533065,-0.1659945108151365,0.4302792450312726,-0.17308484564275206,0.7363219241354926,-0.2369748375108937,0.4187744170338982,-0.1940401163357879,0.5163099717112136,-0.18835812063440183,0.4063606129987557,-0.23741968803642538,0.7493277116784414,-0.2092745293418088,0.3445586170570241,-0.16042961474949868,0.5309448013215774,-0.16294486726459612,0.4138800857196104,-0.21273884359974835,0.6963184923276078,-0.23487642665727076,0.359767867218602,-0.20955453382090422,0.5392158795160756,-0.209174075977093,0.44763292746325545,-0.06471898669645001,1.0406007976726805,-0.16057776247379332,0.526390970808839,-0.09049629276829896,1.0135560019174839,-0.20588998847657672,0.6033619265112681,-0.08820901567657165,0.7097066423384869,-0.20829354634588956,0.5712582228375112,-0.08984702815094699,0.9588831185569425,-0.29094447628737713,0.6998779874922874,-0.05201806621272237,0.9252677629132098,-0.2632026552092103,0.6538212310366717,-0.02583013095807586,0.9833023944447711,-0.28171772104201076,0.6350841446533704,0.014810820139102579,0.8776561422581942,-0.2922592090722931,0.6773008824045225,-0.01070826902468737,0.9132377534399175,-0.2870128543082253,0.6893377930265066,-0.02887264834802145,0.9014296801961075,-0.2310661997965656,0.6766532117489568,-0.043873316387292194,0.9458419974922923
30,,,,,,,,,,,,,,,,,,,,,,,,,,,,,,,,,,,,,,,,,,,,,,,,,,,,,,,,,,,,,,,,,,,,,,,,,,,,,,,,,,,,,,,,,,,,,,,,,,,,,,,,,,,,,,,,,,,,,,,,,,,,,,,,,,,,
31,,,,,,,,,,,,,,,,,,,,,,,,,,,,,,,,,,,,,,,,,,,,,,,,,,,,,,,,,,,,,,,,,,,,,,,,,,,,,,,,,,,,,,,,,,,,,,,,,,,,,,,,,,,,,,,,,,,,,,,,,,,,,,,,,,,,
32,-0.2840150596794138,0.335777673004604,-0.09931482323497899,1.0019443732338797,-0.26489184180226133,0.39443245230953194,-0.11834891778932882,0.9802581647927525,-0.28218093327445526,0.3191141284215507,-0.13657250192506168,0.9569191221031871,-0.25795787503038564,0.3521917083045189,-0.08889691841374386,0.9502614639608883,-0.24782162989573614,0.40014465430580654,-0.1352339601599587,1.0010845293845219,-0.32363563058627576,0.38800333522386876,-0.11739542189193627,1.0312290774111441,-0.24917764443422818,0.32763807209931634,-0.1348536198906222,1.042258086246492,-0.2964774367314979,0.3978827308327012,-0.1101288694798354,1.044069404954266,-0.2844709467802991,0.3340033521100274,-0.08178434802342031,1.0066530262036877,-0.26625975938124946,0.39536311879052183,-0.06468764196259312,1.014444175811042,-0.2569238052502611,0.3468949551429482,-0.045168009347539825,1.047608486530441,-0.25930276248494055,0.45142926583108484,-0.11291092728137445,0.9533004402479789,-0.2736166716547358,0.3527908130522245,-0.09775513971593972,1.0112487985926149,-0.25097004353424585,0.4055084694528068,-0.11856862425423924,0.9438372759031433,-0.1779616195257107,0.44215073721870135,-0.10857808935015865,0.9938406702899846,-0.14371096843064363,0.43600762462791826,-0.07542791234173417,0.9311570895725391,-0.14110029644119232,0.4105572754820916,-0.06242697298190514,0.8064346807557823,-0.13267735521267157,0.4679192801837079,-0.05950782709890273,0.9121735672209724,-0.12060967245262644,0.464891841998803,-0.053924567893414,0.8243019532175613,-0.16651431222509974,0.44401888717249227,-0.12072379133074781,0.9328752680787404,-0.08385566086414928,0.39525320190352065,-0.027913465512171574,0.8866287836938613,-0.14302482373096137,0.44761318541863077,-0.09928596496763911,0.9219034165486466,-0.12143887114734758,0.409701926600087,-0.07925219924581922,0.9371822047991263,-0.20318766239298858,0.47318391876002364,-0.06983576735081298,1.0407369346813473,-0.17313363298005713,0.5487770448750011,-0.08930004766529881,1.0136916024843479,-0.14779638424121766,0.62508859439228,-0.0953488096581713,0.9617699763266766,-0.11893886366656022,0.5786117670727406,-0.12391290856615476,0.9679393290748257,-0.17248646597805622,0.711665819275582,-0.10082976500431712,1.0448560784001177,-0.08103164249396579,0.6588965069346514,-0.11396478967850891,1.0127754011700825,-0.16280000915899726,0.6519136949196362,-0.04312502522276976,1.0442604823346406,-0.10432691936578523,0.6854366183931394,-0.10910020657465026,0.9900058537016058,-0.14480793154095709,0.6830188066106435,-0.0769990437680571,1.0179112823880323,-0.013283654265583134,0.6675987893704167,-0.13421005337335618,0.9890753921150951
33,,,,,,,,,,,,,,,,,,,,,,,,,,,,,,,,,,,,,,,,,,,,,,,,,,,,,,,,,,,,,,,,,,,,,,,,,,,,,,,,,,,,,,,,,,,,,,,,,,,,,,,,,,,,,,,,,,,,,,,,,,,,,,,,,,,,
34,,,,,,,,,,,,,,,,,,,,,,,,,,,,,,,,,,,,,,,,,,,,,,,,,,,,,,,,,,,,,,,,,,,,,,,,,,,,,,,,,,,,,,,,,,,,,,,,,,,,,,,,,,,,,,,,,,,,,,,,,,,,,,,,,,,,
35,,,,,,,,,,,,,,,,,,,,,,,,,,,,,,,,,,,,,,,,,,,,,,,,,,,,,,,,,,,,,,,,,,,,,,,,,,,,,,,,,,,,,,,,,,,,,,,,,,,,,,,,,,,,,,,,,,,,,,,,,,,,,,,,,,,,
36,,,,,,,,,,,,,,,,,,,,,,,,,,,,,,,,,,,,,,,,,,,,,,,,,,,,,,,,,,,,,,,,,,,,,,,,,,,,,,,,,,,,,,,,,,,,,,,,,,,,,,,,,,,,,,,,,,,,,,,,,,,,,,,,,,,,
37,,,,,,,,,,,,,,,,,,,,,,,,,,,,,,,,,,,,,,,,,,,,,,,,,,,,,,,,,,,,,,,,,,,,,,,,,,,,,,,,,,,,,,,,,,,,,,,,,,,,,,,,,,,,,,,,,,,,,,,,,,,,,,,,,,,,
38,,,,,,,,,,,,,,,,,,,,,,,,,,,,,,,,,,,,,,,,,,,,,,,,,,,,,,,,,,,,,,,,,,,,,,,,,,,,,,,,,,,,,,,,,,,,,,,,,,,,,,,,,,,,,,,,,,,,,,,,,,,,,,,,,,,,
39,,,,,,,,,,,,,,,,,,,,,,,,,,,,,,,,,,,,,,,,,,,,,,,,,,,,,,,,,,,,,,,,,,,,,,,,,,,,,,,,,,,,,,,,,,,,,,,,,,,,,,,,,,,,,,,,,,,,,,,,,,,,,,,,,,,,
40,,,,,,,,,,,,,,,,,,,,,,,,,,,,,,,,,,,,,,,,,,,,,,,,,,,,,,,,,,,,,,,,,,,,,,,,,,,,,,,,,,,,,,,,,,,,,,,,,,,,,,,,,,,,,,,,,,,,,,,,,,,,,,,,,,,,
41,,,,,,,,,,,,,,,,,,,,,,,,,,,,,,,,,,,,,,,,,,,,,,,,,,,,,,,,,,,,,,,,,,,,,,,,,,,,,,,,,,,,,,,,,,,,,,,,,,,,,,,,,,,,,,,,,,,,,,,,,,,,,,,,,,,,
42,,,,,,,,,,,,,,,,,,,,,,,,,,,,,,,,,,,,,,,,,,,,,,,,,,,,,,,,,,,,,,,,,,,,,,,,,,,,,,,,,,,,,,,,,,,,,,,,,,,,,,,,,,,,,,,,,,,,,,,,,,,,,,,,,,,,
43,,,,,,,,,,,,,,,,,,,,,,,,,,,,,,,,,,,,,,,,,,,,,,,,,,,,,,,,,,,,,,,,,,,,,,,,,,,,,,,,,,,,,,,,,,,,,,,,,,,,,,,,,,,,,,,,,,,,,,,,,,,,,,,,,,,,
44,,,,,,,,,,,,,,,,,,,,,,,,,,,,,,,,,,,,,,,,,,,,,,,,,,,,,,,,,,,,,,,,,,,,,,,,,,,,,,,,,,,,,,,,,,,,,,,,,,,,,,,,,,,,,,,,,,,,,,,,,,,,,,,,,,,,
45,,,,,,,,,,,,,,,,,,,,,,,,,,,,,,,,,,,,,,,,,,,,,,,,,,,,,,,,,,,,,,,,,,,,,,,,,,,,,,,,,,,,,,,,,,,,,,,,,,,,,,,,,,,,,,,,,,,,,,,,,,,,,,,,,,,,
46,,,,,,,,,,,,,,,,,,,,,,,,,,,,,,,,,,,,,,,,,,,,,,,,,,,,,,,,,,,,,,,,,,,,,,,,,,,,,,,,,,,,,,,,,,,,,,,,,,,,,,,,,,,,,,,,,,,,,,,,,,,,,,,,,,,,
47,,,,,,,,,,,,,,,,,,,,,,,,,,,,,,,,,,,,,,,,,,,,,,,,,,,,,,,,,,,,,,,,,,,,,,,,,,,,,,,,,,,,,,,,,,,,,,,,,,,,,,,,,,,,,,,,,,,,,,,,,,,,,,,,,,,,
48,,,,,,,,,,,,,,,,,,,,,,,,,,,,,,,,,,,,,,,,,,,,,,,,,,,,,,,,,,,,,,,,,,,,,,,,,,,,,,,,,,,,,,,,,,,,,,,,,,,,,,,,,,,,,,,,,,,,,,,,,,,,,,,,,,,,
49,,,,,,,,,,,,,,,,,,,,,,,,,,,,,,,,,,,,,,,,,,,,,,,,,,,,,,,,,,,,,,,,,,,,,,,,,,,,,,,,,,,,,,,,,,,,,,,,,,,,,,,,,,,,,,,,,,,,,,,,,,,,,,,,,,,,
50,,,,,,,,,,,,,,,,,,,,,,,,,,,,,,,,,,,,,,,,,,,,,,,,,,,,,,,,,,,,,,,,,,,,,,,,,,,,,,,,,,,,,,,,,,,,,,,,,,,,,,,,,,,,,,,,,,,,,,,,,,,,,,,,,,,,
51,,,,,,,,,,,,,,,,,,,,,,,,,,,,,,,,,,,,,,,,,,,,,,,,,,,,,,,,,,,,,,,,,,,,,,,,,,,,,,,,,,,,,,,,,,,,,,,,,,,,,,,,,,,,,,,,,,,,,,,,,,,,,,,,,,,,
52,,,,,,,,,,,,,,,,,,,,,,,,,,,,,,,,,,,,,,,,,,,,,,,,,,,,,,,,,,,,,,,,,,,,,,,,,,,,,,,,,,,,,,,,,,,,,,,,,,,,,,,,,,,,,,,,,,,,,,,,,,,,,,,,,,,,
53,-0.07345524954390767,0.31641298818442876,-0.1841526375858391,1.0019443732338797,-0.0359007197358828,0.38213133512775405,-0.2016092580263082,0.9802581647927525,-0.05145453507498242,0.3083557284581718,-0.21858060502690033,0.9570569280419079,-0.025356236274122985,0.3429784991522973,-0.1696554363653446,0.9502614639608883,-0.01167064556847585,0.38464831093155416,-0.22753085459129824,1.0010845293845219,-0.0885763588135747,0.37315411947794286,-0.21036378732607203,1.0316037522082022,-0.015341348856453364,0.3134005490203978,-0.22857044511793553,1.042258086246492,-0.05363295741512476,0.3988598893791489,-0.19664008255908055,1.0443267182057614,-0.006550986521812113,0.3270848621770135,-0.2034794812340347,1.0071132932706433,-0.06030602067452188,0.37738388433350584,-0.15044803152079242,1.0150790844871895,-0.0419711342060263,0.329148238405201,-0.14170887118035527,1.049577585575241,-0.11387920567233367,0.49481652984437524,-0.17358388837695854,0.9531399845442435,-0.0444161692503619,0.3250778420801633,-0.2541773944647999,1.0124915554361817,-0.26990449415281964,0.46179188381666786,-0.14075930681318338,0.10941773484221877,-0.06422253145624791,0.3879447235391969,-0.32518528784856726,0.9692608472728642,-0.32744134958139803,0.47753543234047313,-0.03408629882409345,0.05874052624045828,-0.1668421373803221,0.31382784790602647,-0.31395709495141705,0.8181581991273643,-0.3529597375455061,0.5056210359458081,-0.005050834717110195,0.08476565580110375,-0.16327823783414805,0.3616501301438683,-0.32913707234834005,0.787512953183229,-0.3724506094676284,0.4816796349389871,-0.07462609589503266,0.11117774984925577,-0.12900422503243894,0.28757365602415663,-0.2967640389386745,0.8104010591417068,-0.3277380311845338,0.4830714223513853,-0.061940629353103634,0.10210586342660297,-0.1641528698339664,0.3043424617162826,-0.3359427098789623,0.7469737697405324,-0.3369744795129711,0.44635244087954573,-0.125021087470389,1.040724060078076,-0.27187197223861503,0.4679904292648785,-0.18461186291310647,1.013704834715488,-0.45572666536086837,0.5921924333128733,-0.1408704875531729,0.6367649814574444,-0.42223816750575033,0.46864578701979265,-0.18950671546974335,0.9189800738563197,-0.6228892085254067,0.6944767933966758,-0.15714784980650515,0.9225214789051837,-0.5685786413275649,0.5502046357684222,-0.17962002175732866,0.9650562801907735,-0.6341436354632585,0.6344678326263928,-0.10261157250019363,0.9383303327794345,-0.6169564027927479,0.5864762783700986,-0.1763261466317913,0.963414910365119,-0.6280514593008041,0.6548351079564687,-0.13323773359490534,0.7935081990636002,-0.555784282837979,0.5322866493824712,-0.20405928740361784,0.9027601178765087
54,,,,,,,,,,,,,,,,,,,,,,,,,,,,,,,,,,,,,,,,,,,,,,,,,,,,,,,,,,,,,,,,,,,,,,,,,,,,,,,,,,,,,,,,,,,,,,,,,,,,,,,,,,,,,,,,,,,,,,,,,,,,,,,,,,,,
55,-0.355013149694424,0.33166656184051097,-0.2274437593133167,1.0019443732338797,-0.3184267640356846,0.38804807959835036,-0.25324004517944887,0.9802581647927525,-0.3346199690954179,0.3115114963758049,-0.27070435946486376,0.9568879488739694,-0.3093374023010858,0.3435457267543023,-0.22222696408682016,0.9502614639608883,-0.31593264766445045,0.39588423350655116,-0.2665919176984963,1.0010845293845219,-0.3931513433475458,0.38446892880030004,-0.24959838118931055,1.0314382897143057,-0.32017928846567856,0.3248140040298583,-0.26794849741372084,1.042258086246492,-0.29514207920644975,0.3893846284061722,-0.2716341628015075,1.0440957502072568,-0.34841800974727083,0.33330660361492553,-0.222845871581738,1.006762341122206,-0.3204352748601779,0.38961109175576236,-0.20127718715258752,1.0145090256645577,-0.33077440428883337,0.3441839570846291,-0.17611792779581015,1.0480360902520596,-0.23768520652032696,0.44680919060525476,-0.28168007236080683,0.9530482529959343,-0.39735061571878366,0.3648736282225125,-0.23585026762267305,1.0124934627848146,-0.28349790219191184,0.444450836291262,-0.2834320713736206,0.6205735115217346,-0.37188074454577436,0.4978770269678468,-0.258180839266176,0.25140774816512196,-0.29052116742178163,0.506869649650425,-0.21761296575991676,0.13753152618943676,-0.40632111394266573,0.4823465103587243,-0.20176854574018044,0.0630263211685898,-0.30815515483128963,0.5432192584399335,-0.19671247416913146,0.09314258943538495,-0.40199608449216273,0.5446792155415887,-0.19258171923934195,0.0498410042138648,-0.3391553528015712,0.5255451964242777,-0.2627328992692603,0.11910155407279327,-0.3706041873823249,0.47694598692816365,-0.16038692303237256,0.08130879645640786,-0.29935245323315746,0.5283494351039183,-0.24639645311287964,0.11245036873666156,-0.3916303603406579,0.4858797620645645,-0.21697278004600845,0.10793247260279511,-0.3033995542005046,0.47496192531367354,-0.19249484547524323,1.0407258482174193,-0.3911341607569643,0.5511124740665905,-0.1723503577436382,1.0137485845247531,-0.3080867260471105,0.6107125501189036,-0.217995787173521,0.9212516924826826,-0.43962829000659265,0.574119484205309,-0.16854478285454644,0.8397953032722134,-0.402550620238855,0.7064549428107383,-0.2391159591180579,1.0061728427548235,-0.48930572556295165,0.6579377662234392,-0.16014364069168496,0.9126375713895039,-0.40672390329088465,0.6464556975975537,-0.18550103644591548,0.9072098536725314,-0.5282102157438563,0.6870306850130125,-0.15777981748482178,0.8224164872656011,-0.3940287358172053,0.6648626953702566,-0.20405194406237298,0.8787118466771255,-0.46193141078282873,0.6516755873326054,-0.16423497150598176,0.7594917114853649
56,,,,,,,,,,,,,,,,,,,,,,,,,,,,,,,,,,,,,,,,,,,,,,,,,,,,,,,,,,,,,,,,,,,,,,,,,,,,,,,,,,,,,,,,,,,,,,,,,,,,,,,,,,,,,,,,,,,,,,,,,,,,,,,,,,,,
57,-0.171047730826293,0.3271273999199635,-0.12794596334395572,1.0019443732338797,-0.13102862776292393,0.38694569169322945,-0.14838335649108456,0.9802581647927525,-0.1471297433353682,0.31058321363807295,-0.16581137829396259,0.9570631269249643,-0.12162850265539277,0.3426909365435784,-0.11730778551237887,0.9502614639608883,-0.12655567288123093,0.39333422759377035,-0.16195212585109103,1.0010845293845219,-0.20309359907889432,0.38201750896997777,-0.14454460816193218,1.031605659556835,-0.1295994056691591,0.32246155771218554,-0.162456590907033,1.042258086246492,-0.12693668158952434,0.39058750974238443,-0.15624145187018668,1.0443319634145016,-0.17253316378503164,0.33206047910892883,-0.10876120509621079,1.0071143661542494,-0.14773126107966314,0.3860971595276739,-0.10080702806634938,1.0151239071800606,-0.15644590336709852,0.3409506733264656,-0.07600905025029986,1.0496113218041836,-0.08544888061624642,0.44097753176507526,-0.19646410430938538,0.9533003210386893,-0.27280873144740925,0.34555826624588903,-0.11846225211469802,1.0125055029230592,-0.11556235716487974,0.37390245090956337,-0.2510090546161715,0.8600306419538635,-0.3189888650303028,0.4081484331415529,-0.1367807570153129,0.24266858965396013,-0.04415049552205676,0.3981933949011269,-0.21171242050176764,0.7191994560772084,-0.379218803723481,0.36527991838065116,-0.061016788542943776,0.2125576185542824,-0.03778496296399486,0.4220241805438153,-0.19754595052655272,0.6540665606711371,-0.3794010205357299,0.41509520112584763,-0.04913978263978866,0.2004712175341201,-0.06818685400788041,0.405559794793876,-0.2590274938204787,0.6392421051034292,-0.3366056861891262,0.35114645022314656,-0.019013119444506198,0.22387894188458854,-0.043202805606158565,0.41153598405220615,-0.23623941055602043,0.6363515109166276,-0.35881413956198865,0.3659035991541031,-0.07521003280166497,0.2836630512041554,-0.2406334789091957,0.4256168194272141,-0.18153329753605052,1.0407382459835326,-0.369536310487937,0.4944122444218151,-0.12888712336056135,1.0137523992220188,-0.20347226438896296,0.5968347410712046,-0.22958474416270502,0.9620078584639752,-0.4071235686944363,0.5321942923260365,-0.1483158432120919,0.8484786867370266,-0.3044413607685601,0.7113915187003257,-0.2968373592351626,1.0452424953121964,-0.47553395134634974,0.6344415556483355,-0.1865445980066896,0.9538135328839497,-0.3150200168395152,0.6484167500153089,-0.251531480163402,1.0413341922993928,-0.5223382044689012,0.6619182348901792,-0.19335002894633624,0.9449777632246161,-0.28459940529374356,0.7125662595372793,-0.27315192668082283,1.0172287496007095,-0.44129779395743274,0.6658443266514531,-0.20317310826021648,0.9482397135376719
58,,,,,,,,,,,,,,,,,,,,,,,,,,,,,,,,,,,,,,,,,,,,,,,,,,,,,,,,,,,,,,,,,,,,,,,,,,,,,,,,,,,,,,,,,,,,,,,,,,,,,,,,,,,,,,,,,,,,,,,,,,,,,,,,,,,,
59,,,,,,,,,,,,,,,,,,,,,,,,,,,,,,,,,,,,,,,,,,,,,,,,,,,,,,,,,,,,,,,,,,,,,,,,,,,,,,,,,,,,,,,,,,,,,,,,,,,,,,,,,,,,,,,,,,,,,,,,,,,,,,,,,,,,
60,,,,,,,,,,,,,,,,,,,,,,,,,,,,,,,,,,,,,,,,,,,,,,,,,,,,,,,,,,,,,,,,,,,,,,,,,,,,,,,,,,,,,,,,,,,,,,,,,,,,,,,,,,,,,,,,,,,,,,,,,,,,,,,,,,,,
61,,,,,,,,,,,,,,,,,,,,,,,,,,,,,,,,,,,,,,,,,,,,,,,,,,,,,,,,,,,,,,,,,,,,,,,,,,,,,,,,,,,,,,,,,,,,,,,,,,,,,,,,,,,,,,,,,,,,,,,,,,,,,,,,,,,,
62,,,,,,,,,,,,,,,,,,,,,,,,,,,,,,,,,,,,,,,,,,,,,,,,,,,,,,,,,,,,,,,,,,,,,,,,,,,,,,,,,,,,,,,,,,,,,,,,,,,,,,,,,,,,,,,,,,,,,,,,,,,,,,,,,,,,
63,,,,,,,,,,,,,,,,,,,,,,,,,,,,,,,,,,,,,,,,,,,,,,,,,,,,,,,,,,,,,,,,,,,,,,,,,,,,,,,,,,,,,,,,,,,,,,,,,,,,,,,,,,,,,,,,,,,,,,,,,,,,,,,,,,,,
64,,,,,,,,,,,,,,,,,,,,,,,,,,,,,,,,,,,,,,,,,,,,,,,,,,,,,,,,,,,,,,,,,,,,,,,,,,,,,,,,,,,,,,,,,,,,,,,,,,,,,,,,,,,,,,,,,,,,,,,,,,,,,,,,,,,,
65,,,,,,,,,,,,,,,,,,,,,,,,,,,,,,,,,,,,,,,,,,,,,,,,,,,,,,,,,,,,,,,,,,,,,,,,,,,,,,,,,,,,,,,,,,,,,,,,,,,,,,,,,,,,,,,,,,,,,,,,,,,,,,,,,,,,
66,,,,,,,,,,,,,,,,,,,,,,,,,,,,,,,,,,,,,,,,,,,,,,,,,,,,,,,,,,,,,,,,,,,,,,,,,,,,,,,,,,,,,,,,,,,,,,,,,,,,,,,,,,,,,,,,,,,,,,,,,,,,,,,,,,,,
67,,,,,,,,,,,,,,,,,,,,,,,,,,,,,,,,,,,,,,,,,,,,,,,,,,,,,,,,,,,,,,,,,,,,,,,,,,,,,,,,,,,,,,,,,,,,,,,,,,,,,,,,,,,,,,,,,,,,,,,,,,,,,,,,,,,,
68,,,,,,,,,,,,,,,,,,,,,,,,,,,,,,,,,,,,,,,,,,,,,,,,,,,,,,,,,,,,,,,,,,,,,,,,,,,,,,,,,,,,,,,,,,,,,,,,,,,,,,,,,,,,,,,,,,,,,,,,,,,,,,,,,,,,
69,,,,,,,,,,,,,,,,,,,,,,,,,,,,,,,,,,,,,,,,,,,,,,,,,,,,,,,,,,,,,,,,,,,,,,,,,,,,,,,,,,,,,,,,,,,,,,,,,,,,,,,,,,,,,,,,,,,,,,,,,,,,,,,,,,,,
70,,,,,,,,,,,,,,,,,,,,,,,,,,,,,,,,,,,,,,,,,,,,,,,,,,,,,,,,,,,,,,,,,,,,,,,,,,,,,,,,,,,,,,,,,,,,,,,,,,,,,,,,,,,,,,,,,,,,,,,,,,,,,,,,,,,,
71,-0.41169383752146965,0.46513000416610295,-0.24582400394912507,1.0019443732338797,-0.40166657019799773,0.5249958604458997,-0.2608299117564604,0.9802581647927525,-0.4178421234051761,0.4488008714425621,-0.2783307039551476,0.9570633653435435,-0.3924566903961353,0.4813628413459008,-0.22992355517638843,0.9502614639608883,-0.373422926594815,0.5298443911393789,-0.28554788944097836,1.0010845293845219,-0.44959062070225286,0.5164986111981424,-0.26785948249258823,1.0316053019289664,-0.3754477409184315,0.45493353637658374,-0.2854834542131072,1.042258086246492,-0.4550788935499705,0.5223971019893937,-0.23057323254159057,1.0443317249959223,-0.3934574551230651,0.4577394654198877,-0.23676450245170624,1.0071022068067152,-0.39907710005118646,0.5213330949772742,-0.19986966870843745,1.015105787368049,-0.37612943374051167,0.4721516723479958,-0.19054081443012935,1.0495256103249966,-0.456812238843414,0.5347740531903225,-0.18175636035301787,0.9531958937010427,-0.335993192058657,0.4730680986280912,-0.2650404953401824,1.0123030259447572,-0.4893693356549493,0.4545814503335441,-0.1666509326857337,0.024136925290741268,-0.22838269031429248,0.5138973547743196,-0.3017967941928664,0.9236966130161198,-0.4049600037994248,0.45382050252136613,-0.13132921208227794,0.23737613092004275,-0.27452465691361067,0.4366343373736474,-0.25507117549128927,0.7533610957223655,-0.41883799126561344,0.4745706519011609,-0.10506951028317112,0.24224379460553958,-0.25966862839602106,0.47952701746534043,-0.25590759682908554,0.722524042031343,-0.4394062665157351,0.4557768868310769,-0.1787576790775049,0.2918695434102376,-0.24083439819853197,0.40888612526815993,-0.21854617717975386,0.7331582674890273,-0.4024261130620233,0.465377127898718,-0.16172806128300182,0.24022783342448575,-0.2670175937030586,0.4254503678194168,-0.2702042657631831,0.6774880457682119,-0.31297768358299755,0.4641892798401933,-0.08679348165116804,1.0407115431026732,-0.20038710732453632,0.5490312586849682,-0.16091805457318836,1.013666330114963,-0.33862313420464457,0.6179593424353403,-0.11692628048582478,0.16195640773460512,-0.22654082708451043,0.5806457159710561,-0.20691210716224717,0.9664987444152493,-0.35543981259928314,0.7189990383269431,-0.1402063433669614,0.42497722007225214,-0.19506161671571703,0.6961132298998919,-0.2043531785214634,0.9946233430455403,-0.3406529178044278,0.6604463978424573,-0.0800333155597285,0.5205306215520173,-0.21306999515450023,0.7353125930482908,-0.1926089021201739,0.9635929494390629,-0.3717388024440468,0.6828088790517446,-0.1255981641061203,0.5438655289090286,-0.18128774680990864,0.6912450248364201,-0.24015305773944612,0.9728291925072459
72,,,,,,,,,,,,,,,,,,,,,,,,,,,,,,,,,,,,,,,,,,,,,,,,,,,,,,,,,,,,,,,,,,,,,,,,,,,,,,,,,,,,,,,,,,,,,,,,,,,,,,,,,,,,,,,,,,,,,,,,,,,,,,,,,,,,
73,,,,,,,,,,,,,,,,,,,,,,,,,,,,,,,,,,,,,,,,,,,,,,,,,,,,,,,,,,,,,,,,,,,,,,,,,,,,,,,,,,,,,,,,,,,,,,,,,,,,,,,,,,,,,,,,,,,,,,,,,,,,,,,,,,,,
74,,,,,,,,,,,,,,,,,,,,,,,,,,,,,,,,,,,,,,,,,,,,,,,,,,,,,,,,,,,,,,,,,,,,,,,,,,,,,,,,,,,,,,,,,,,,,,,,,,,,,,,,,,,,,,,,,,,,,,,,,,,,,,,,,,,,
75,-0.14391637058054116,0.3046558229908711,-0.26732556102340244,1.0019443732338797,-0.10811252189701373,0.3602309197072218,-0.29089315053418346,0.9802581647927525,-0.12301624452925473,0.28350535995841597,-0.3074908212337455,0.9570372585091319,-0.09634547924772269,0.3153619386931603,-0.258184027714928,0.9502614639608883,-0.09312627429484616,0.36847712376915487,-0.31338867762315437,1.0010845293845219,-0.17081294105663392,0.35703332804270116,-0.2965719084350767,1.031578599048107,-0.09837143128835615,0.2974251333137633,-0.314999236162689,1.042258086246492,-0.11188956543256863,0.36092367874682474,-0.2837289885203224,1.0443190888112301,-0.10519753561040164,0.3063424457951776,-0.27569901015593734,1.0069158230825026,-0.12010718803665474,0.36187150730980894,-0.22968225107064952,1.0143700276329413,-0.11347274632831397,0.31608108232876975,-0.2165851454676161,1.0484638131829678,-0.12148749095307385,0.40884001860436975,-0.23026252061218733,0.9526630877813955,-0.15878823589137198,0.3300042255754941,-0.2780311642814676,1.0104037239389896,-0.20502105365795437,0.38112522255415565,-0.1943228644928709,0.9065082577871459,-0.17910115007914557,0.4428282632158632,-0.3068150173102515,1.0216700193309698,-0.1690066611872163,0.43580270385918046,-0.13779926344570298,0.9182536972576283,-0.23916272830079432,0.42649528927412955,-0.2592099440030791,0.9742079275209192,-0.17826473223280573,0.4696581562880627,-0.11664467179495126,0.8743637780402167,-0.23099972022870233,0.48751135765622794,-0.25801684024314414,0.9125491332026078,-0.19687990857521392,0.4544952975614388,-0.19172006097942856,0.9064078255662282,-0.1955010981459171,0.417826702775179,-0.225781954365773,0.9467596182733292,-0.1715215295993996,0.4581694064269315,-0.16893543896409932,0.8798404783352982,-0.22623807982267397,0.4271016250959518,-0.27348518844651204,0.9603768754763112,-0.2582690919208647,0.43349434809466414,-0.09036700580640147,1.0407393188671386,-0.23754595591377659,0.5126009892052166,-0.14601748365349182,1.0137523992220188,-0.2244158274517911,0.5817397455725474,-0.12227083967208517,0.8539484521834576,-0.2688759743158041,0.5504940507603322,-0.1593877848849778,0.9663726209869046,-0.31312319405937405,0.6927892666937949,-0.10705976983960566,1.0149331162113968,-0.3109323123016833,0.6587741385989275,-0.14363517555326127,1.0106330314229206,-0.30511851900211373,0.6334168239250684,-0.04682788846127771,0.927037100338486,-0.3376290341740021,0.6933006168062253,-0.13687207653816746,0.9727354078779363,-0.2804155455824519,0.6557992726903554,-0.10105064447452361,0.9059818657315384,-0.2530922984413029,0.6517533117893926,-0.18905709608856103,0.9685230549454479
76,-0.300801827936122,0.2557017235741383,-0.18591071510184792,1.0019443732338797,-0.26655960760942854,0.31217193304340346,-0.20805340820832463,0.9802581647927525,-0.28103320293294065,0.235603371928936,-0.22435272797227523,0.9570260528359141,-0.2538000811730803,0.2676570036193078,-0.1746858948195464,0.9502614639608883,-0.24852182012639867,0.32039378860794576,-0.23272514859404003,1.0010845293845219,-0.32593795293190864,0.30901782296724645,-0.21581941268181748,1.0315777645830801,-0.2530954048926761,0.24945868286095874,-0.23421454665849126,1.042258086246492,-0.2564348208315491,0.3146165918022446,-0.20751289802903417,1.0442948893254513,-0.23343450609033137,0.25931298035824213,-0.20819917931561369,1.0070155416532118,-0.2693842073211087,0.31406151904953983,-0.1498742790189237,1.0146552954628365,-0.2586136130541545,0.26839927385709006,-0.13976818433309313,1.048828116771835,-0.24245942806462709,0.37292214045342975,-0.166398497374857,0.9503982900938651,-0.22905234513889566,0.2953821225996488,-0.2335721690070751,1.0119654252367496,-0.35181933605071325,0.37268544327253944,-0.14509101252204049,-0.010654110054082934,-0.25223025060859056,0.4240032686518068,-0.24778376853727946,1.0038051959896002,-0.35597727490237524,0.4258235452192726,-0.10303127166640486,0.005254573922743571,-0.3796400642712525,0.3808213824709984,-0.16287496908017424,0.6547874110299827,-0.3842905683437884,0.458741953027641,-0.08223854491844064,0.018197648108409153,-0.37735762014818247,0.43647961913655936,-0.158852423339649,0.5852125238390518,-0.40304308434870095,0.4440331028802712,-0.15701090047341845,0.04671461871951407,-0.3509911735774373,0.3658600057975636,-0.1251333212487504,0.6109364399820083,-0.3623024260948596,0.4486287889609586,-0.13783712276883986,0.062178976868070265,-0.3719062823223531,0.3768734465948227,-0.17746619328154495,0.5482036639017568,-0.25809938379772035,0.42316271738787703,-0.09016436575897838,1.0407034368709838,-0.23311296640755882,0.5042675446098797,-0.1433484910478176,1.0137402398744846,-0.24726452350969733,0.5750072221312327,-0.10414529011388067,0.7868383905379498,-0.28238427630310875,0.5460629818630849,-0.1386326094278319,0.9637565731277126,-0.3009606944231696,0.6915431719901206,-0.10155077853026565,0.9350485274929827,-0.31625915614518596,0.6597458731227007,-0.12147082812917857,1.0056076446126179,-0.2940195588947621,0.6344103737488294,-0.04057985907285873,0.8604023857350619,-0.3449082359503812,0.6950023890192075,-0.11387582154114027,0.9564843802938605,-0.3083981267233808,0.6523118049245473,-0.07389304040733584,0.573220935670198,-0.2967530929507594,0.6539405638340703,-0.14813907929156375,0.8519396480202465
77,-0.2687706008587927,0.24233985233161506,-0.19975144250181648,1.0019443732338797,-0.23331281622366817,0.2984182804707716,-0.2235737853720541,0.9802581647927525,-0.2479490431692875,0.22198514110923379,-0.23997734415757485,0.9570607427391735,-0.22102731877333012,0.2541658797045891,-0.19048639852497729,0.9502614639608883,-0.2179185922793771,0.30639125684105434,-0.2469900987476718,1.0010845293845219,-0.29544943370657506,0.29487751506395665,-0.2301630364349767,1.0316044674639393,-0.22283740676523683,0.23520539435349724,-0.24863266197420886,1.042258086246492,-0.21670415067996834,0.301575929990416,-0.22572662266130655,1.0443298176472895,-0.20703954591503376,0.2452074219628564,-0.2205079201096148,1.0071130548520644,-0.23550160489023245,0.30151477112664243,-0.16518138301604157,1.0150989924385445,-0.22797702203295456,0.25528157304188925,-0.15300931483759,1.0495678104134976,-0.18368930744196352,0.36419578203973346,-0.19428783289359927,0.952477776940789,-0.2144100088242118,0.2887451156015866,-0.23964463687924278,1.0124488785105228,-0.26469239515655124,0.36946834217543256,-0.1838354405571195,0.06400293688050687,-0.2042996826625736,0.42532154458030413,-0.2707626476355834,1.011229252519599,-0.24926422935014392,0.43958375430282975,-0.14181400228370405,0.04801837335168346,-0.2825134034672206,0.3948897773703667,-0.19964693383075952,0.6352201598245384,-0.2700663001886074,0.4775959452513806,-0.12241870814647897,0.050078740224645854,-0.2751874423109066,0.4603758364827507,-0.19471714020597647,0.4804016899080825,-0.2932917929345238,0.46522642839983297,-0.19341005606389378,0.08014421156733817,-0.24584014568409324,0.39616494435232746,-0.161457434314924,0.5038081774621719,-0.2553453712203533,0.4681767878661405,-0.1743853663939187,0.08913710716811526,-0.27037997308667416,0.405279112946141,-0.21315323866861544,0.4504705835146412,-0.24080980339020183,0.4211381562211137,-0.09592601012579238,1.0407281131939208,-0.2457161221558438,0.5010657321041576,-0.1344658580860739,1.0137426240602756,-0.24385848689517378,0.5740727405104441,-0.10291131232427216,0.9159562966315473,-0.31716491067917113,0.5451703427029286,-0.11806249913953941,0.955168020652737,-0.30367854699282176,0.6917235356452109,-0.0980538351058256,1.0180528829235858,-0.3797771503894904,0.6459511529498186,-0.08658817889675481,0.9887105026791767,-0.2994902744829404,0.6363043113365674,-0.0383415127273798,1.01516155435994,-0.412672868699759,0.6801807404214902,-0.0776956312156893,0.9680269389639043,-0.3086533646900286,0.6522618562322255,-0.06428196519378282,0.9048763783848892,-0.36939049570402405,0.6401571685436955,-0.09899365535566267,0.8624664243340282
78,-0.2610632274288071,0.25527975249145085,-0.1963596372627264,1.0019443732338797,-0.22473040043216208,0.31139158903400405,-0.22042058045200186,0.9802581647927525,-0.2393708483582381,0.23493118054748147,-0.23688848197218806,0.9567060951027598,-0.21246749611744895,0.26708032868110587,-0.18747761098661875,0.9502614639608883,-0.2106906578391579,0.3192584095319418,-0.24305772527757247,1.0010845293845219,-0.28832025285289026,0.3077176072461161,-0.22627154500462648,1.0314485417132069,-0.21582966351077582,0.2479965809246184,-0.2447757483072226,1.042258086246492,-0.208096598204342,0.3137367676407151,-0.2231842942922366,1.044115062112164,-0.2045912687303148,0.2573784818097345,-0.214965035076883,1.0068652783437329,-0.2283915793384325,0.313876357220545,-0.16212810256306479,1.0130489502861397,-0.22278303312311942,0.2676798755969734,-0.14917871706232438,1.0464789189073025,-0.18530922518208462,0.37401105770883136,-0.19076563820337197,0.9520778893789907,-0.2146553544708133,0.2980750306482785,-0.23168943745585482,1.0121176554995057,-0.27110781006132734,0.3731988180779899,-0.18015052663945622,0.04924609343282156,-0.21253285069285582,0.4344356610105867,-0.2625686433372428,1.0076543447399053,-0.24581758629746914,0.4408442435282173,-0.14240552450533883,0.08926646391688807,-0.292044960442099,0.4091616923293206,-0.19408004365111622,0.7139456766206504,-0.26368439040760466,0.4810849031333081,-0.12426414990381797,0.08643927972059075,-0.28636698124823884,0.4690987676293724,-0.19007817497718274,0.5743508886309219,-0.2879556604680683,0.4696501957280953,-0.19533966492419053,0.12152902028649637,-0.2526156636494554,0.4008934702293263,-0.15706090767767478,0.6044204006105178,-0.2516994434895567,0.47209022022583597,-0.17497250401581588,0.12076492611018526,-0.2783266004987899,0.4102513026109817,-0.20807905972706936,0.5443934369844899,-0.24102053815624588,0.43226032333155684,-0.09193616837880911,1.0407328815655028,-0.2371695478942517,0.5115071247642986,-0.13303701920026606,1.0137458427110935,-0.22961727007433122,0.5844152788672251,-0.1058214549065119,0.9392015120475018,-0.2915217037208869,0.5504675862980519,-0.1271492179869747,0.9655934690704006,-0.28049467379497456,0.6992481452109458,-0.09410210191470277,1.0338522265095538,-0.3375614895355645,0.6586703669123736,-0.0989560886914143,1.0074283876965717,-0.27357149265603936,0.6416188402786756,-0.03266786433741417,1.0270061893697053,-0.36727071056119787,0.6935455918962522,-0.08985027288306303,0.9775562315473699,-0.2829757348567177,0.6616255671125051,-0.06490499969955767,0.9551581414616716,-0.319626209584107,0.6550871783856145,-0.11943476418238781,0.9431935843109874
79,,,,,,,,,,,,,,,,,,,,,,,,,,,,,,,,,,,,,,,,,,,,,,,,,,,,,,,,,,,,,,,,,,,,,,,,,,,,,,,,,,,,,,,,,,,,,,,,,,,,,,,,,,,,,,,,,,,,,,,,,,,,,,,,,,,,
80,,,,,,,,,,,,,,,,,,,,,,,,,,,,,,,,,,,,,,,,,,,,,,,,,,,,,,,,,,,,,,,,,,,,,,,,,,,,,,,,,,,,,,,,,,,,,,,,,,,,,,,,,,,,,,,,,,,,,,,,,,,,,,,,,,,,
81,,,,,,,,,,,,,,,,,,,,,,,,,,,,,,,,,,,,,,,,,,,,,,,,,,,,,,,,,,,,,,,,,,,,,,,,,,,,,,,,,,,,,,,,,,,,,,,,,,,,,,,,,,,,,,,,,,,,,,,,,,,,,,,,,,,,
82,0.0801807970024945,0.3633368341908222,-0.3719582338076037,1.0019443732338797,0.10487265458401068,0.42150637208263375,-0.39870153888368626,0.9802581647927525,0.08700661826334931,0.34665338165641396,-0.4173158860417682,0.9552564505371774,0.11062674522346519,0.3804561712523644,-0.3699950125949015,0.9502614639608883,0.12262313887918608,0.42320196607910665,-0.41359715455445983,1.0010845293845219,0.04729782873982876,0.40861789964266154,-0.39533600476366376,1.0240322933916737,0.12232275116095637,0.34595055612527154,-0.412328477619442,1.042258086246492,0.03351842242622956,0.4179488729149155,-0.37075729450533235,1.0437661365216486,0.046732585682194336,0.3398488392277948,-0.3347671294814976,0.9788813148542005,0.07873882312989974,0.41908108844651243,-0.3243673175908228,1.0146003995849984,0.08654262383728623,0.3657024855460854,-0.3030928138454558,1.0479766644212185,-0.022989662395398215,0.45704080471810876,-0.3382502051101585,0.9528836249670646,-0.0024741793827961767,0.3410126968260282,-0.2941962341522147,0.9202360226946351,0.0040606477404206975,0.46642364155287397,-0.40224936060380834,0.9817682413267275,0.08494129786211128,0.47782098787292193,-0.3370911283282637,0.9295080658817204,0.17528323683247066,0.42940301275429155,-0.40995702467088463,0.9749326480442189,0.05922763617379291,0.42422518677321397,-0.3282277594604819,0.6412511962014915,0.1951717266114953,0.44013135637084166,-0.4009884967624693,0.936658320829676,0.07725672785094459,0.47327031790326773,-0.334411770719089,0.3336571108313155,0.15960565412685945,0.4140232073171456,-0.46544296174514127,0.9544012471207937,0.09659553928559528,0.3996002282516347,-0.2990894535284769,0.34464866613442835,0.17666699684750187,0.42687580562927835,-0.43471570927252845,0.8984256834134232,0.06204335498764605,0.4149285684934738,-0.3475749874529795,0.3331393469137654,-0.24296809141800876,0.4942338355042558,-0.10545043634876178,1.0406384678081786,-0.20487384919437984,0.5630295287197582,-0.10011507213900506,1.013236163393619,-0.18679058677265845,0.5888688187155527,-0.17522186135070153,0.8986940762488568,-0.12275562931957011,0.5463148114872609,-0.1674291179392861,0.9513990401496549,-0.3899968072212698,0.6990577083708884,-0.09569956947893557,0.35488558508346735,-0.24888457871229624,0.6459532391123858,-0.07431275348881118,0.6080906191418842,-0.39533363737313715,0.6386149449959302,-0.02647393481180814,0.3441801173920901,-0.2904513317984781,0.6736531973535581,-0.060457997795018426,0.4117753534803533,-0.38064412351819144,0.6827786594968435,-0.07474495929188418,0.3784432979500899,-0.19055499304166898,0.6620006019238225,-0.09078609984904067,0.6236642297386913
83,0.07411749870722653,0.362065377710796,-0.36722645628035455,1.0019443732338797,0.09473176033248026,0.42056616841594674,-0.3935017939428003,0.9802581647927525,0.07648837929805545,0.3458895481336174,-0.41232729375508753,0.9570582393440928,0.09971308332944392,0.3798001327296441,-0.3652095428728364,0.9502614639608883,0.11436497993676659,0.42124052623116054,-0.407880810245913,1.0010845293845219,0.03945620974540378,0.40611021302767125,-0.38934237438726005,1.0315787182573966,0.11492079695196722,0.3428899768253447,-0.40608922753131094,1.042258086246492,0.01680102446932165,0.41561105953753513,-0.3633230787487227,1.0443282679265256,0.039055365384896276,0.3343769540234796,-0.32743068729906283,1.0069483076139052,0.07158347538631551,0.4172611798275854,-0.31922642946415364,1.0151231919243233,0.0822859543890439,0.36215943644902426,-0.297924691797481,1.0496090568276821,-0.02889548506347512,0.44996761092958026,-0.335925919714434,0.9532619356474539,-0.0007655602248897164,0.3333028658266538,-0.28350631855708386,1.0115034296350953,0.0018291949333139046,0.46957034956450117,-0.4043403477757924,0.9745606092619079,0.12035985789151447,0.46797492640479754,-0.3366329153419759,0.8389203903102788,0.18507101522647929,0.43349710679230113,-0.41261495141478566,0.9731480253749989,0.14662584905172185,0.4245576018771264,-0.3569472751028158,0.4250290291864159,0.20487178201030054,0.44492312277594726,-0.4022071268911654,0.9394589642737373,0.16626551503186718,0.47769351898740464,-0.36485101985026414,0.1657112639160705,0.1674728316420982,0.4172153042657693,-0.4642031538888991,0.964335016823705,0.18176915572767433,0.4034961666480885,-0.3281187482378222,0.19505994712407523,0.18697337025403638,0.4298210201392423,-0.43484895681994706,0.898586019907869,0.14663986551168007,0.41734586466466217,-0.37633440294229753,0.1562801990670666,-0.24564100335449293,0.49520795421382,-0.1097858795022896,1.0406499118999752,-0.20492435094761763,0.5622389327114574,-0.0975432468963554,1.013662396208408,-0.12387691116876262,0.6037150840315623,-0.20271895711992577,0.8337204834906781,-0.04905273080616199,0.5652178285313283,-0.18183157659226734,0.9623242139091154,-0.3105321727062333,0.720201740849221,-0.13726812821933626,0.22690276004265,-0.14888221644828253,0.672591031699666,-0.10785361527242039,0.8260069885800556,-0.3144715720297624,0.6624349280014539,-0.0706774990829279,0.1674281386966974,-0.18598343216382202,0.7056502223665281,-0.09740059299486457,0.3211261063108587,-0.2781769423588304,0.6957412392240163,-0.12359137125946287,0.19034477790957785,-0.0668877766980353,0.6798633987072698,-0.13811665850715843,0.6675985749840526
84,,,,,,,,,,,,,,,,,,,,,,,,,,,,,,,,,,,,,,,,,,,,,,,,,,,,,,,,,,,,,,,,,,,,,,,,,,,,,,,,,,,,,,,,,,,,,,,,,,,,,,,,,,,,,,,,,,,,,,,,,,,,,,,,,,,,
85,,,,,,,,,,,,,,,,,,,,,,,,,,,,,,,,,,,,,,,,,,,,,,,,,,,,,,,,,,,,,,,,,,,,,,,,,,,,,,,,,,,,,,,,,,,,,,,,,,,,,,,,,,,,,,,,,,,,,,,,,,,,,,,,,,,,
86,,,,,,,,,,,,,,,,,,,,,,,,,,,,,,,,,,,,,,,,,,,,,,,,,,,,,,,,,,,,,,,,,,,,,,,,,,,,,,,,,,,,,,,,,,,,,,,,,,,,,,,,,,,,,,,,,,,,,,,,,,,,,,,,,,,,
87,-0.44163727300069994,0.3223930327877766,-0.11894151090647041,1.0019443732338797,-0.4140433591871981,0.37808620630542733,-0.13996903715178213,0.9802581647927525,-0.4290919956582687,0.30136934883475874,-0.15667345719859258,0.9570557359490123,-0.4026093082440928,0.3332568921824639,-0.10747102555628082,0.9502614639608883,-0.39051624862038886,0.38439996817909755,-0.16581306286496122,1.0010845293845219,-0.4676672220752177,0.37176980160303447,-0.1487684001748058,1.0315999375109366,-0.3945542247072866,0.3108272972961547,-0.1669646580488805,1.042258086246492,-0.4031014424838982,0.3721373687893204,-0.14071194199025433,1.0443189696019406,-0.35777092605719407,0.3110326160832635,-0.14885417553836658,1.0070977960630016,-0.40753481586811946,0.37691875948800113,-0.08572950796574563,1.0150557194664376,-0.3904506864441665,0.3293919021930428,-0.07725118544082077,1.049559704181808,-0.35253215081063743,0.41211684355554157,-0.12180460840257272,0.9509640573820731,-0.29155004039617133,0.3206194444532865,-0.19660186642957445,1.0125211193399903,-0.3865387997082914,0.39451150189871437,-0.14530278322090065,0.03428347985021057,-0.23404470665071597,0.4437155379579896,-0.25623032136755297,1.019162749948493,-0.28905406864357197,0.46621060943779374,-0.14896761480574372,0.11379495243369557,-0.27743314341677194,0.4428605789622399,-0.2140519299700875,0.9704220192987205,-0.30412975707754564,0.5036789974097362,-0.132734270887718,0.11653764347772426,-0.2615628013302939,0.5039181917817468,-0.2154237312320578,0.9085119317980362,-0.3221117319805363,0.4874850975377877,-0.20414013604644451,0.14763949058144876,-0.24096421618743352,0.4386103953735219,-0.17823820858207118,0.9352714190393204,-0.2894229174373194,0.48911780692436807,-0.1821974356775919,0.13929670307484976,-0.26991098734434565,0.4492932390085342,-0.22834040652326176,0.9175456929964528,-0.2671181857015684,0.43992795424243025,-0.07585320231814005,1.0407115431026732,-0.20063772333687424,0.5136703561371319,-0.14254164599287522,1.0137506110826755,-0.2291859220513087,0.5875250916037363,-0.11317601102481605,0.7623741409270489,-0.23128520876531422,0.5550447461796437,-0.15679415835135607,0.9674990891685146,-0.23764910616045842,0.7008068066718223,-0.13647687248920073,0.7738907406468218,-0.21320965492312238,0.6711066972308245,-0.16416803856370205,1.0044756331990436,-0.22042443413012788,0.6416243835106397,-0.0762965713499731,0.8132072491879733,-0.23377881795527755,0.7071339011842771,-0.15661818917363657,0.9718171983251713,-0.2515703549374717,0.6719259053807851,-0.1219165347156442,0.49399089535838464,-0.19555359732196848,0.671508675253748,-0.194066875775879,0.8871222432732372
88,-0.28685083940848255,0.326379570244289,-0.19687768720649232,1.0019443732338797,-0.25380611118206875,0.38066157399456,-0.22075088226512857,0.9802581647927525,-0.2688609398692758,0.30235032207847207,-0.23746984284484357,0.9559109691414561,-0.2423935005137006,0.3338081457396691,-0.1882681895249766,0.9502614639608883,-0.23471221185181035,0.39109449365936794,-0.2442586756756953,1.0010845293845219,-0.31186318881266867,0.37977562926836345,-0.2271512778034641,1.0313298688654593,-0.2388114498548145,0.32020689281426684,-0.2453097510539061,1.042258086246492,-0.23914152533081257,0.37199625479281473,-0.22245133445181964,1.043558056706738,-0.2141448780047901,0.3220252324982873,-0.22063214705687853,1.0067905937238293,-0.253809587570043,0.37733703508271244,-0.16264347333316498,1.0123773847534554,-0.2421404563154962,0.3338903541412087,-0.15147207093393,1.0466856874200285,-0.20029159998022408,0.39866082677659564,-0.19202635337132729,0.9511242746672294,-0.20855748547777553,0.3378666444654935,-0.24059199459506994,1.0122807338076112,-0.2633236839089329,0.38882182132238996,-0.1921806101198028,0.3035590557264465,-0.1724556859238247,0.46271198528274243,-0.28647960029322783,1.023262476625434,-0.228565537527106,0.46817553615745927,-0.1545710920761898,0.21272050569592935,-0.22044695801874128,0.4642970020255181,-0.238098901389868,0.9668407934266807,-0.2469225779699645,0.5048990150813214,-0.13440678409660645,0.17385937075357266,-0.2053572458168116,0.5287550896317834,-0.23737640486239353,0.9023396324129654,-0.2672394083625357,0.4959671365125497,-0.20502393063637306,0.21698095641225168,-0.17911819898381126,0.4622503723518239,-0.2040180320111488,0.9327720174699539,-0.23208684698262755,0.49842906571724527,-0.18589716719195762,0.19790264967528687,-0.2098778239595396,0.4698056708685043,-0.25312384662997056,0.9204700756830678,-0.24477511786674497,0.43243666367312483,-0.08358955975770896,1.040729305286816,-0.22050293815645045,0.5158223222321026,-0.13319568420161926,1.013740120665195,-0.21063215216946393,0.588731549218635,-0.10884490222412511,0.9258110305754865,-0.260031360939842,0.5560491440487538,-0.13892561152810667,0.9669777869453091,-0.25238229557484065,0.7050317031027915,-0.11361553302761242,1.0106074283261124,-0.28100881741874406,0.6708602320246783,-0.12446680529975794,1.0033979812215046,-0.2430682836192861,0.6457832379951978,-0.054207603964252685,0.9832482738728793,-0.30795064245975834,0.7044004917795225,-0.11688272068553833,0.9736792474279545,-0.24658149826706796,0.6710087091069814,-0.09563162190649775,0.8788506062901627,-0.25528573135373167,0.6721570545796147,-0.14711154309097343,0.9097167547821788
89,-0.27149937163085824,0.3244092493042713,-0.21111137707265898,1.0019443732338797,-0.24287987744094947,0.37929889260570504,-0.23333141391722578,0.9802581647927525,-0.2579600172280498,0.3014748788583336,-0.25009086765658134,0.9569076780113903,-0.23152339586862772,0.3324780084868615,-0.20092691475946237,0.9502614639608883,-0.22049998100319917,0.38907556513153585,-0.258332144118452,1.0010845293845219,-0.29755859390836237,0.37758042000360814,-0.24117059078625042,1.0315348492388416,-0.22440005154396597,0.31795598300896905,-0.25927520288764555,1.042258086246492,-0.24662641686913833,0.3700426529556565,-0.22579446474297465,1.0442538813298459,-0.2078290608761206,0.319822334234356,-0.23021735079643743,1.0070615564389784,-0.24510599455387552,0.3762799467076208,-0.17296895507627963,1.014703992457618,-0.229389425445502,0.33172837446591574,-0.16377143153569867,1.0491664923402249,-0.2317476790000568,0.40091212401208454,-0.18466868338030476,0.9525751113257072,-0.19169165365253588,0.3357904060717099,-0.24775364801779068,1.0124033405619144,-0.304984594655345,0.39320374619001996,-0.18288686018687872,0.014559297065653166,-0.16010680662640958,0.46829622524245923,-0.2847431257285429,0.982297217550269,-0.257702054274834,0.45993641591247936,-0.15828289758298994,0.008918707993020771,-0.22193205646782074,0.465878760286245,-0.23986105875789698,0.8064278262216331,-0.27659659409890264,0.4956759711627118,-0.14014358193927012,0.004985580102012851,-0.20519640054039578,0.5314483851106042,-0.24184568115802912,0.63374655952173,-0.29366289231474907,0.4831348823411782,-0.21319767180607185,0.03330321974247287,-0.18027181343223686,0.46158342617910963,-0.2086242043007814,0.6683819065004104,-0.25980984629688464,0.48606849290230386,-0.19174183713242857,0.04576289657203066,-0.2132631153204354,0.4684069584718826,-0.2560631557442791,0.5458088684839711,-0.2558080356797976,0.43941687421580355,-0.08213626868343332,1.0407361002163205,-0.21566291175186578,0.5202813457077495,-0.13857223411985767,1.0137487037340427,-0.21918617215081707,0.5935957054648203,-0.11319106887391416,0.5306970855681622,-0.24825906081976,0.5630049464893971,-0.1446413048906895,0.9519266008605618,-0.2633311509340459,0.7086362939955833,-0.1148922252320744,0.7645817468304461,-0.26965570054699806,0.6779876958422747,-0.1287817035952069,0.9785051146100239,-0.2518763718124563,0.6528280897751355,-0.054815746352611563,0.6412541074986727,-0.29496778687720143,0.7127667189294858,-0.12076944075703357,0.927004757452979,-0.2499667772414136,0.6811127692800161,-0.10279456746898792,0.46910527071124414,-0.233741681089288,0.6803831512097112,-0.1590260269568996,0.8140866454720287
