frame,NOSE.x,NOSE.y,NOSE.z,NOSE.v,LEFT_EYE_INNER.x,LEFT_EYE_INNER.y,LEFT_EYE_INNER.z,LEFT_EYE_INNER.v,LEFT_EYE.x,LEFT_EYE.y,LEFT_EYE.z,LEFT_EYE.v,LEFT_EYE_OUTER.x,LEFT_EYE_OUTER.y,LEFT_EYE_OUTER.z,LEFT_EYE_OUTER.v,RIGHT_EYE_INNER.x,RIGHT_EYE_INNER.y,RIGHT_EYE_INNER.z,RIGHT_EYE_INNER.v,RIGHT_EYE.x,RIGHT_EYE.y,RIGHT_EYE.z,RIGHT_EYE.v,RIGHT_EYE_OUTER.x,RIGHT_EYE_OUTER.y,RIGHT_EYE_OUTER.z,RIGHT_EYE_OUTER.v,LEFT_EAR.x,LEFT_EAR.y,LEFT_EAR.z,LEFT_EAR.v,RIGHT_EAR.x,RIGHT_EAR.y,RIGHT_EAR.z,RIGHT_EAR.v,MOUTH_LEFT.x,MOUTH_LEFT.y,MOUTH_LEFT.z,MOUTH_LEFT.v,MOUTH_RIGHT.x,MOUTH_RIGHT.y,MOUTH_RIGHT.z,MOUTH_RIGHT.v,LEFT_SHOULDER.x,LEFT_SHOULDER.y,LEFT_SHOULDER.z,LEFT_SHOULDER.v,RIGHT_SHOULDER.x,RIGHT_SHOULDER.y,RIGHT_SHOULDER.z,RIGHT_SHOULDER.v,LEFT_ELBOW.x,LEFT_ELBOW.y,LEFT_ELBOW.z,LEFT_ELBOW.v,RIGHT_ELBOW.x,RIGHT_ELBOW.y,RIGHT_ELBOW.z,RIGHT_ELBOW.v,LEFT_WRIST.x,LEFT_WRIST.y,LEFT_WRIST.z,LEFT_WRIST.v,RIGHT_WRIST.x,RIGHT_WRIST.y,RIGHT_WRIST.z,RIGHT_WRIST.v,LEFT_PINKY.x,LEFT_PINKY.y,LEFT_PINKY.z,LEFT_PINKY.v,RIGHT_PINKY.x,RIGHT_PINKY.y,RIGHT_PINKY.z,RIGHT_PINKY.v,LEFT_INDEX.x,LEFT_INDEX.y,LEFT_INDEX.z,LEFT_INDEX.v,RIGHT_INDEX.x,RIGHT_INDEX.y,RIGHT_INDEX.z,RIGHT_INDEX.v,LEFT_THUMB.x,LEFT_THUMB.y,LEFT_THUMB.z,LEFT_THUMB.v,RIGHT_THUMB.x,RIGHT_THUMB.y,RIGHT_THUMB.z,RIGHT_THUMB.v,LEFT_HIP.x,LEFT_HIP.y,LEFT_HIP.z,LEFT_HIP.v,RIGHT_HIP.x,RIGHT_HIP.y,RIGHT_HIP.z,RIGHT_HIP.v,LEFT_KNEE.x,LEFT_KNEE.y,LEFT_KNEE.z,LEFT_KNEE.v,RIGHT_KNEE.x,RIGHT_KNEE.y,RIGHT_KNEE.z,RIGHT_KNEE.v,LEFT_ANKLE.x,LEFT_ANKLE.y,LEFT_ANKLE.z,LEFT_ANKLE.v,RIGHT_ANKLE.x,RIGHT_ANKLE.y,RIGHT_ANKLE.z,RIGHT_ANKLE.v,LEFT_HEEL.x,LEFT_HEEL.y,LEFT_HEEL.z,LEFT_HEEL.v,RIGHT_HEEL.x,RIGHT_HEEL.y,RIGHT_HEEL.z,RIGHT_HEEL.v,LEFT_FOOT_INDEX.x,LEFT_FOOT_INDEX.y,LEFT_FOOT_INDEX.z,LEFT_FOOT_INDEX.v,RIGHT_FOOT_INDEX.x,RIGHT_FOOT_INDEX.y,RIGHT_FOOT_INDEX.z,RIGHT_FOOT_INDEX.v
0,,,,,,,,,,,,,,,,,,,,,,,,,,,,,,,,,,,,,,,,,,,,,,,,,,,,,,,,,,,,,,,,,,,,,,,,,,,,,,,,,,,,,,,,,,,,,,,,,,,,,,,,,,,,,,,,,,,,,,,,,,,,,,,,,,,,
1,,,,,,,,,,,,,,,,,,,,,,,,,,,,,,,,,,,,,,,,,,,,,,,,,,,,,,,,,,,,,,,,,,,,,,,,,,,,,,,,,,,,,,,,,,,,,,,,,,,,,,,,,,,,,,,,,,,,,,,,,,,,,,,,,,,,
2,,,,,,,,,,,,,,,,,,,,,,,,,,,,,,,,,,,,,,,,,,,,,,,,,,,,,,,,,,,,,,,,,,,,,,,,,,,,,,,,,,,,,,,,,,,,,,,,,,,,,,,,,,,,,,,,,,,,,,,,,,,,,,,,,,,,
3,,,,,,,,,,,,,,,,,,,,,,,,,,,,,,,,,,,,,,,,,,,,,,,,,,,,,,,,,,,,,,,,,,,,,,,,,,,,,,,,,,,,,,,,,,,,,,,,,,,,,,,,,,,,,,,,,,,,,,,,,,,,,,,,,,,,
4,,,,,,,,,,,,,,,,,,,,,,,,,,,,,,,,,,,,,,,,,,,,,,,,,,,,,,,,,,,,,,,,,,,,,,,,,,,,,,,,,,,,,,,,,,,,,,,,,,,,,,,,,,,,,,,,,,,,,,,,,,,,,,,,,,,,
5,,,,,,,,,,,,,,,,,,,,,,,,,,,,,,,,,,,,,,,,,,,,,,,,,,,,,,,,,,,,,,,,,,,,,,,,,,,,,,,,,,,,,,,,,,,,,,,,,,,,,,,,,,,,,,,,,,,,,,,,,,,,,,,,,,,,
6,,,,,,,,,,,,,,,,,,,,,,,,,,,,,,,,,,,,,,,,,,,,,,,,,,,,,,,,,,,,,,,,,,,,,,,,,,,,,,,,,,,,,,,,,,,,,,,,,,,,,,,,,,,,,,,,,,,,,,,,,,,,,,,,,,,,
7,,,,,,,,,,,,,,,,,,,,,,,,,,,,,,,,,,,,,,,,,,,,,,,,,,,,,,,,,,,,,,,,,,,,,,,,,,,,,,,,,,,,,,,,,,,,,,,,,,,,,,,,,,,,,,,,,,,,,,,,,,,,,,,,,,,,
8,,,,,,,,,,,,,,,,,,,,,,,,,,,,,,,,,,,,,,,,,,,,,,,,,,,,,,,,,,,,,,,,,,,,,,,,,,,,,,,,,,,,,,,,,,,,,,,,,,,,,,,,,,,,,,,,,,,,,,,,,,,,,,,,,,,,
9,,,,,,,,,,,,,,,,,,,,,,,,,,,,,,,,,,,,,,,,,,,,,,,,,,,,,,,,,,,,,,,,,,,,,,,,,,,,,,,,,,,,,,,,,,,,,,,,,,,,,,,,,,,,,,,,,,,,,,,,,,,,,,,,,,,,
10,,,,,,,,,,,,,,,,,,,,,,,,,,,,,,,,,,,,,,,,,,,,,,,,,,,,,,,,,,,,,,,,,,,,,,,,,,,,,,,,,,,,,,,,,,,,,,,,,,,,,,,,,,,,,,,,,,,,,,,,,,,,,,,,,,,,
11,,,,,,,,,,,,,,,,,,,,,,,,,,,,,,,,,,,,,,,,,,,,,,,,,,,,,,,,,,,,,,,,,,,,,,,,,,,,,,,,,,,,,,,,,,,,,,,,,,,,,,,,,,,,,,,,,,,,,,,,,,,,,,,,,,,,
12,,,,,,,,,,,,,,,,,,,,,,,,,,,,,,,,,,,,,,,,,,,,,,,,,,,,,,,,,,,,,,,,,,,,,,,,,,,,,,,,,,,,,,,,,,,,,,,,,,,,,,,,,,,,,,,,,,,,,,,,,,,,,,,,,,,,
13,,,,,,,,,,,,,,,,,,,,,,,,,,,,,,,,,,,,,,,,,,,,,,,,,,,,,,,,,,,,,,,,,,,,,,,,,,,,,,,,,,,,,,,,,,,,,,,,,,,,,,,,,,,,,,,,,,,,,,,,,,,,,,,,,,,,
14,,,,,,,,,,,,,,,,,,,,,,,,,,,,,,,,,,,,,,,,,,,,,,,,,,,,,,,,,,,,,,,,,,,,,,,,,,,,,,,,,,,,,,,,,,,,,,,,,,,,,,,,,,,,,,,,,,,,,,,,,,,,,,,,,,,,
15,,,,,,,,,,,,,,,,,,,,,,,,,,,,,,,,,,,,,,,,,,,,,,,,,,,,,,,,,,,,,,,,,,,,,,,,,,,,,,,,,,,,,,,,,,,,,,,,,,,,,,,,,,,,,,,,,,,,,,,,,,,,,,,,,,,,
16,,,,,,,,,,,,,,,,,,,,,,,,,,,,,,,,,,,,,,,,,,,,,,,,,,,,,,,,,,,,,,,,,,,,,,,,,,,,,,,,,,,,,,,,,,,,,,,,,,,,,,,,,,,,,,,,,,,,,,,,,,,,,,,,,,,,
17,,,,,,,,,,,,,,,,,,,,,,,,,,,,,,,,,,,,,,,,,,,,,,,,,,,,,,,,,,,,,,,,,,,,,,,,,,,,,,,,,,,,,,,,,,,,,,,,,,,,,,,,,,,,,,,,,,,,,,,,,,,,,,,,,,,,
18,,,,,,,,,,,,,,,,,,,,,,,,,,,,,,,,,,,,,,,,,,,,,,,,,,,,,,,,,,,,,,,,,,,,,,,,,,,,,,,,,,,,,,,,,,,,,,,,,,,,,,,,,,,,,,,,,,,,,,,,,,,,,,,,,,,,
19,,,,,,,,,,,,,,,,,,,,,,,,,,,,,,,,,,,,,,,,,,,,,,,,,,,,,,,,,,,,,,,,,,,,,,,,,,,,,,,,,,,,,,,,,,,,,,,,,,,,,,,,,,,,,,,,,,,,,,,,,,,,,,,,,,,,
20,,,,,,,,,,,,,,,,,,,,,,,,,,,,,,,,,,,,,,,,,,,,,,,,,,,,,,,,,,,,,,,,,,,,,,,,,,,,,,,,,,,,,,,,,,,,,,,,,,,,,,,,,,,,,,,,,,,,,,,,,,,,,,,,,,,,
21,,,,,,,,,,,,,,,,,,,,,,,,,,,,,,,,,,,,,,,,,,,,,,,,,,,,,,,,,,,,,,,,,,,,,,,,,,,,,,,,,,,,,,,,,,,,,,,,,,,,,,,,,,,,,,,,,,,,,,,,,,,,,,,,,,,,
22,,,,,,,,,,,,,,,,,,,,,,,,,,,,,,,,,,,,,,,,,,,,,,,,,,,,,,,,,,,,,,,,,,,,,,,,,,,,,,,,,,,,,,,,,,,,,,,,,,,,,,,,,,,,,,,,,,,,,,,,,,,,,,,,,,,,
23,,,,,,,,,,,,,,,,,,,,,,,,,,,,,,,,,,,,,,,,,,,,,,,,,,,,,,,,,,,,,,,,,,,,,,,,,,,,,,,,,,,,,,,,,,,,,,,,,,,,,,,,,,,,,,,,,,,,,,,,,,,,,,,,,,,,
24,-0.03294771348997427,0.397417261082212,0.10884177978245356,0.9953264406243075,-0.014970745112905248,0.4208509131389574,0.08832681661389485,1.016072668642694,-0.03475415946913833,0.38580943212404073,0.11915594081126031,0.9824708510313701,-0.08222646403594924,0.44150977790508883,0.056486251943249896,0.9820776591450541,-0.06666525320625401,0.35506129185619956,0.11188396420544353,0.9971838262234498,-0.05683755895946249,0.4355414182592389,0.10471461521719988,1.0200134785874777,-0.09603783662704549,0.382627776629562,0.16809055722679422,1.0410195680699883,0.06405608514782665,0.4258069235508498,0.04917043869255262,0.9828249404438362,0.01529412111342928,0.3569612456269252,0.029477740005344297,0.9600506001680721,-0.00599626769172382,0.43732818280269803,0.09599575005363492,0.9931949997021511,-0.06336688647573167,0.3694844073852369,0.08208675826710903,0.9655924680946695,0.07846686456527893,0.41396320077601995,-0.058999537004578,1.0315372028048644,0.00520431747249352,0.4360567711958293,0.08912179710458182,0.998244531562769,0.06558627083334699,0.45828577448715063,-0.13859401801722085,0.434803928078428,-0.11737650264890408,0.4691431306672673,0.11683474975632797,1.0006399597173656,-0.01896172708564351,0.48647779809201736,0.030807518296626948,0.3433401462509147,-0.18822632334951195,0.48163593838545804,0.2986340889448914,0.8176694348093158,-0.00638123405425324,0.4567617261877922,0.06292886647748758,0.28346166571173814,-0.16762448455421242,0.518453240735101,0.3163363308407544,0.6849841356073216,0.0017807326930714962,0.5085200945727447,0.08268484109076193,0.33353566268351953,-0.1958657697784478,0.49173695420039354,0.3389558864945243,0.6191289770068183,0.03172234035566686,0.4833087324670612,0.05126152998227554,0.27958283448060917,-0.17606051109896934,0.4840477192948261,0.21863084472396394,0.5203166345507149,0.1890972362726382,0.5343434449505329,-0.11496085257488933,0.9731494260313349,0.061515343079844825,0.5740115121890645,-0.004780140447419867,1.00736636871407,0.22213057791961283,0.6466273654624879,-0.22135551835731654,0.886627617560348,-0.014660710823555686,0.6173371963602869,0.07688865495908316,1.0310471451571575,0.2301271509776474,0.7031405817354799,-0.281179621393694,0.9021147489321729,-0.013922914212008586,0.7906743123825839,0.10902540890004378,1.0166758546844534,0.237043765136435,0.753082539870369,-0.29645476503454854,0.8629709659620769,-0.03492606426951683,0.7924135591986942,0.15360961128829664,0.8466469226731455,0.19211199881279234,0.7778357247710695,-0.12166016650469347,0.9055252317087578,-0.21204404011125533,0.7920845536115675,0.3031331720577919,0.9805288557743469
25,0.31256086562750446,0.3958246249738135,-0.35450158941418103,0.9953264406243075,0.32312424183231797,0.4189739032703355,-0.3638538595718006,1.016072668642694,0.29946226013068566,0.3837702082146626,-0.32945243774722904,0.8293415714178751,0.24984214715819747,0.43934639752064364,-0.39010778375192096,0.9820776591450541,0.2693312643693639,0.3528779141134322,-0.33850462696172934,0.9971838262234498,0.28005165420685457,0.4329819352079388,-0.34653569123435213,0.9628937514527731,0.24173553249598512,0.3797211263247677,-0.2839906134266193,1.0410195680699883,0.2971013393599597,0.4223217207615432,-0.2661530538303327,0.8838783690937385,0.26102380733148867,0.35317173132371776,-0.29946155854194056,0.8766814047067989,0.30153997724853765,0.4342506459813327,-0.31667734412830967,0.9238294386936977,0.2468741416586968,0.365765345772154,-0.33378255762542813,0.9105519297836646,0.19664258947185784,0.40146094772044744,-0.22422008189267356,1.0172544994052062,0.19016392457943268,0.43032027117103383,-0.153302803478997,0.9982408360747931,0.17351922386699453,0.4395753698526749,-0.29262361156443284,0.04594093544156863,0.1580740481337556,0.4380663119626622,-0.23951822687796243,0.7590069021230665,0.18047456488326113,0.47248432623113173,-0.24359370542574132,-0.031790460564304276,0.2652103174360589,0.4043558342251492,-0.2981467941715916,0.2553414240118151,0.22568980195916594,0.4461376154890923,-0.2548781730182597,-0.021798944123648162,0.3254638847202336,0.42723366652207306,-0.33390471376182634,0.21764928398474015,0.23905375170711912,0.49864226382895505,-0.24153731697121436,0.026190508919629228,0.3033151908981908,0.40363815997851554,-0.32051082509446277,0.15958968276395943,0.2384706309560556,0.4712657033971607,-0.23207537878815587,0.04129909598668981,0.2818914514197368,0.40104738717774535,-0.38591212666524005,0.10202071465554263,0.16664249495076341,0.5212215420078754,-0.08739587377999261,0.9720873308660821,0.08642306478523533,0.5683804229785543,-0.03456754943013124,1.0060181116492504,0.15272444110732944,0.6352176655456483,-0.13187316616664843,0.354192736826858,0.1076751419241318,0.6137716465098231,-0.08112110260739876,0.8304227984240642,0.07795234124347745,0.6926306735361696,-0.08290188137714244,0.3581317960989972,0.11229220553018557,0.790272517472153,-0.05101069247233742,0.6573082456604057,0.08188037233703163,0.7418029568930741,-0.09376795514654951,0.4867652832075603,0.09763331850361123,0.7947201397422122,-0.014711661694530746,0.6751584587945139,0.08742603276378244,0.76566439670329,0.011747400062962137,0.18985919093059775,0.0023094923188832633,0.7828859475973158,0.02584078706522637,0.2909737770294585
26,0.5536856666106521,0.3800326127591529,-0.6731637777606869,0.9953264406243075,0.5501959046946291,0.4027780397849992,-0.6653536346216721,1.016072668642694,0.5291692856582926,0.36689213976754964,-0.6333976728226474,0.9868379641447733,0.48059649013647915,0.4217349237218918,-0.6950611924231154,0.9820776591450541,0.5107053719552247,0.33966746847096085,-0.6570850861337392,0.9971838262234498,0.520278144373981,0.42104723757991763,-0.6639885829696597,1.0285925539239338,0.47863730767082024,0.36906363702499345,-0.5983657839169322,1.0410195680699883,0.4611176968023422,0.4064990419571456,-0.48171451369628426,0.9838056156643256,0.47702113409952535,0.34650352129411577,-0.5833343267669259,0.9657775336473813,0.5163443466535894,0.41867744241764243,-0.6008943190402625,0.9976776862217739,0.4771240869387734,0.3528538174232314,-0.6378104551218365,0.972372734856449,0.2825612502502124,0.38367465349856944,-0.33731419735299956,1.0325134076769957,0.3926323709732906,0.4359783910879497,-0.41899710354273634,0.9993315414695378,0.289359847714323,0.4511156635462174,-0.4491055475881794,0.09693417960526063,0.3115745043672,0.5140930496526342,-0.4439396016129672,1.008638962650868,0.3863349725664592,0.49717808352674026,-0.5207114843623024,-0.011153129033852481,0.35715042311419926,0.5681246323380185,-0.4194252015269063,0.7967914178606158,0.4350135976531992,0.48491127138051077,-0.5369342573846932,-0.00011576900687076258,0.4221836931597038,0.6148431304522031,-0.4614495486970138,0.6367987274919347,0.4540477968893546,0.5376731137625793,-0.5307261353680676,0.04688363412288112,0.4007829821829962,0.5903658923984831,-0.4485199858469639,0.531614993757154,0.4486792794953031,0.5063384472898302,-0.5146557112983243,0.05695481845578121,0.37454103641721614,0.5758028710434833,-0.5076552469772333,0.41826174058022525,0.12037481992569402,0.4979377623867512,-0.025922113539944787,0.9733803940298396,0.14078905637113528,0.5465551690150838,-0.1037055021793272,1.0075247978598827,0.02998513873350591,0.6210288394615113,0.02857275284415133,0.9837693602666469,0.15380187095871767,0.5993501834971278,-0.14007874722326383,1.030796209602653,-0.10857097516784726,0.6968839417780519,0.15975497484839357,0.9467715620768568,0.10990728909226069,0.7752929165657809,-0.0454603304121739,1.0127916584030203,-0.11129407188078437,0.7484835646887894,0.1577664050250536,0.9621738968893534,0.08841592229806491,0.7820949819091129,0.00031919552144870494,1.018775182808796,-0.11428150246212894,0.7707718591094485,0.2712886755045597,0.8752691987650322,0.0020652825535691574,0.7654248861196546,0.02633030399110471,0.9392565135692993
27,0.4420628439127297,0.3695133764329352,-0.5258536313957531,0.9953264406243075,0.44210427072870073,0.39338089069900073,-0.5230819047134082,1.016072668642694,0.4214547575921177,0.35836334094896133,-0.4914785111668819,0.9868405867491433,0.37309997435992087,0.4141011780515732,-0.5533409765540849,0.9820776591450541,0.40051209483935446,0.32791399876537924,-0.511680357996815,0.9971838262234498,0.4115044990295606,0.4086969465661999,-0.5199444722187304,1.028617707084029,0.3732005086268691,0.3561170909472652,-0.4574241077896146,1.0410195680699883,0.39148987520586487,0.4001711148445663,-0.39025245356985705,0.983839232683979,0.3914548175016271,0.3331326199479091,-0.4705866207572189,0.9658231908052791,0.4198447035238044,0.40939932380726035,-0.47345539819279736,0.9975684309079005,0.37664612945834347,0.3417407698234388,-0.5050166715581076,0.9723368528602943,0.24714675371706082,0.38577535959903325,-0.2902530301297034,1.0325691976245055,0.3151989440278982,0.4212119959959392,-0.3162729978292059,0.9994317964820503,0.15329900936307655,0.4449412779985794,-0.2666238825796032,0.21932178253056123,0.27814750251382814,0.4831428610158544,-0.3995774038529794,0.9487888063436476,0.09234198224539325,0.4944324253674843,-0.12800291541213502,0.049857894785594124,0.38232270057718326,0.49508209059569364,-0.4558475514864455,0.4644677176710253,0.1210609256622631,0.4747866178027062,-0.11749227546158826,0.06285599430594584,0.4535268470614496,0.5276277962751859,-0.5064333550494344,0.3943726002965764,0.1404904484452133,0.5269085745207885,-0.11191571129010407,0.11619401613143364,0.42681200060355173,0.5088385996700591,-0.4861465779571555,0.32233164185896057,0.14996949603619475,0.496800869660741,-0.11565305997830813,0.11117182546695631,0.39878106066836017,0.5007217610428729,-0.5427774723528346,0.24188891448082955,0.14124023770774125,0.5042515035938739,-0.0536926840152479,0.9733786058904962,0.11853968856426099,0.5502230004359823,-0.07456145477314925,1.0075145458609815,0.05896271658743011,0.6332668651267945,-0.009400233283867923,0.9839382202252955,0.07435593635592273,0.6071616106135218,-0.03369856005003764,1.0305346048167339,-0.1049665076856933,0.6996367226923585,0.1543330363890843,0.9508530497324965,-0.007378295043251645,0.7827769353684237,0.11208819383528801,1.0123455176368765,-0.11101913749485456,0.7500407956381913,0.15622957014093805,0.9659911571547039,-0.03386893966836184,0.7881234552863406,0.16438067583755858,1.0175934015168344,-0.10699500811195643,0.7763542513251772,0.2629090566658413,0.9387474897997308,-0.135036949129203,0.7759036210897474,0.21132167141664968,0.9600066785549559
28,0.31059282444966,0.3709410566869178,-0.35000551634626337,0.9953264406243075,0.313182140268737,0.3930869205909685,-0.3510414421472837,1.016072668642694,0.2932395062136336,0.35802711114778335,-0.32008001513033646,0.9868503619108865,0.2452943805268853,0.41371404588375704,-0.38233541590523956,0.9820776591450541,0.26605989586601786,0.3279863290018141,-0.3319952869312564,0.9971838262234498,0.27686213290996603,0.4089114338804242,-0.34004985612874533,1.0286137731774738,0.23867941752938404,0.3564368698664852,-0.2776668298517405,1.0410195680699883,0.30061573684227433,0.4005637604420242,-0.26865565462897467,0.9838583061703071,0.2692046208688842,0.3342172158665645,-0.30787434862885443,0.9658268862932553,0.30352320614818423,0.41208904300739463,-0.31800167060767237,0.9975981736256435,0.25181276666715907,0.34485007592046957,-0.3380495372258628,0.9722827914474831,0.22966237194925707,0.39204910608951177,-0.2657945400889277,1.0323626675303588,0.21584020878484914,0.4247297727236156,-0.1852539802080036,0.999162741115534,0.2136248868975001,0.4743773894487747,-0.3445940559385885,0.21379228943707063,0.12755683253657793,0.5146714531255346,-0.1998846681863961,0.9949286426549879,0.20236081684910576,0.5623993037816384,-0.2714394611005142,0.09261553258438024,0.13044034590916986,0.5769381327423764,-0.11920229351787408,0.8152440026041156,0.23050184308017496,0.5491115534773735,-0.2599762655740321,0.06821028699669984,0.17434539449524278,0.62447953258233,-0.13333302733547445,0.6808893561158971,0.2427547245197802,0.604761181294165,-0.24495437909228587,0.12484162190822043,0.14294144474727807,0.6032912788273161,-0.10725677657405533,0.6241782056750312,0.2573511165613758,0.5730817019513904,-0.2557711851655444,0.1299992712720291,0.14235783260440463,0.5911632860253253,-0.20043958097436543,0.5085379818827156,0.16428543601277423,0.5095413562130451,-0.08389909068028722,0.9733765793325739,0.09540607365547993,0.5524448231746297,-0.044394393128107945,1.007516810837483,0.05673799066383419,0.6350771773979127,-0.0050087810045204816,0.9793204695806117,-0.03504550350411749,0.6066708259684412,0.11111413073487547,1.0308622515490642,-0.08367206332059386,0.7023557673777223,0.12928272121102433,0.9267958402407667,-0.12183827862200985,0.7855135634239963,0.2625342060976672,1.0028827438369803,-0.0907495362205474,0.7559001110335465,0.13249296553725518,0.9603656111761578,-0.14872915814824259,0.7937729623320865,0.315094042839541,1.0123408614052927,-0.11898334525649677,0.7705844025016299,0.2832918246880375,0.8909599426882195,-0.2746581431495374,0.7752187637212782,0.39641853575956326,0.9521712307667173
29,0.12422596760064161,0.3820772606912055,-0.1022974950294606,0.9953264406243075,0.1456980884651578,0.40510399183806933,-0.12759619706058486,1.016072668642694,0.12602838889923623,0.37006489500894363,-0.09686306336100978,0.9841546226416301,0.07860662154080233,0.42576607525501864,-0.15959630678309034,0.9820776591450541,0.09210112877044042,0.33936351458492875,-0.10136111908874164,0.9971838262234498,0.1019155873660917,0.41978570527324643,-0.10850520219857195,1.023094561885207,0.06262633248746398,0.36676242089950517,-0.04502173259041294,1.0410195680699883,0.22448340554871027,0.4105279583160934,-0.1662755365307465,0.9834088871487008,0.16851285528306298,0.34065031537484997,-0.17619873721531487,0.9628907614916195,0.14974895953911246,0.42253937636425193,-0.11309618127759144,0.9963431382252529,0.09079014543879528,0.35490877695883016,-0.12484753392655133,0.9701336863754615,0.19314471082573137,0.39765522095386113,-0.2159642282322511,1.0326660551722655,0.1221987599289528,0.42476350895255843,-0.06625035221413367,0.9994340614585516,0.09616492240681422,0.4479477362810501,-0.18500634035979735,0.09535925725223132,-0.008654615245328054,0.481220223791657,-0.019205939671627585,0.4915208364969221,-0.05456885424075574,0.45894620405400766,0.07456889309793494,-0.010438175045061983,-0.009519097897057072,0.4389845235142422,0.06420391371780035,0.2176550313469057,-0.05465916008142083,0.42690108065518423,0.12340977455002639,-0.014380687870644063,0.03176413176974845,0.46541309390740326,0.05482230195325839,0.19158159492357524,-0.024921036545767522,0.4792770723692993,0.11396959969602846,0.03405302280453123,0.0015480701426475209,0.43627691839945976,0.07709680940875285,0.15078709000959542,-0.0010233967487388307,0.4547251760534107,0.09063611314799043,0.04447415718277861,0.002274375931952099,0.43200234418610717,-0.017773795407637225,0.09896193839612033,0.18047544704378998,0.5195576187443256,-0.10181013701739461,0.9733524990560846,0.08043430661944927,0.5605502800037008,-0.027407894315947378,1.0075084661872145,0.1846973658601929,0.6360747207328736,-0.1707336781480987,0.515050116263351,-0.0016528884121490665,0.6091298751932948,0.06262140837329461,1.0301393664172283,0.04311831030501769,0.6955520759905458,-0.029556414696286653,0.5164298414958021,-0.04072804534816667,0.7846231296356967,0.1474784649186386,1.0140906820312554,-0.012383430615796647,0.7455678246756668,0.03906846895591696,0.19599715159382883,-0.045888393020230706,0.7893452312949466,0.17520865132430585,0.4102125047101175,0.004620859626998056,0.7668353299499026,0.12796253393163232,0.5921156648294854,-0.2054690958379003,0.779963114631465,0.2931217022712297,0.9664293770527281
30,0.11408223175599648,0.3540710944714942,-0.09085769158184455,0.9953264406243075,0.13224185334667682,0.37576885065612353,-0.11170986239191845,1.016072668642694,0.11277391084230276,0.34035397634401143,-0.08116086638253055,0.9861420799170205,0.0655910590208851,0.39567115366612093,-0.1440890207514878,0.9820776591450541,0.08272469841149395,0.31098690549793845,-0.0912441204917354,0.9971838262234498,0.09241880734819409,0.3918900460649487,-0.09828717572337255,1.0278077395661762,0.053052369869023855,0.3393951568671413,-0.03474353236076571,1.0410195680699883,0.18999709846766483,0.3820434350197372,-0.12150811174623893,0.9836552331455574,0.15460999879499152,0.3165613962120998,-0.15968181104036894,0.9649440222948421,0.1327554789377959,0.39555185352375205,-0.09173760559680123,0.9971104288174465,0.07927056137510367,0.32933558293188303,-0.11123870913376226,0.9702330473183023,0.1813757514835437,0.38280421706859197,-0.19788074793580188,1.032563237160028,0.1132035753943342,0.410018720544279,-0.0544795920990419,0.999271042755091,0.12652916226065086,0.4542846636949906,-0.221702916652764,0.06964125746609283,0.04290924926439711,0.4509102486444097,-0.09201887532794624,0.133610866511437,0.035871999367832814,0.47150642262662423,-0.04457896641853826,0.00803824038047702,0.12153015225248395,0.40563906262251853,-0.11061417301071509,0.1039993412431364,0.048812502770675836,0.44158677105816885,-0.012988653079089581,0.005206456384994035,0.1726529626411489,0.4314586225576871,-0.13333122492630492,0.10769674477918895,0.06609005791426802,0.4918012897364715,-0.005795587733025201,0.052620935085090824,0.14129948148127694,0.40508172487033073,-0.10806704759450819,0.06767505878820562,0.08730612213595924,0.4660546481183826,-0.025751897854187106,0.06191545227011601,0.13503213938939293,0.40107221251229436,-0.19364369954638538,0.025510188415670647,0.1840346272024088,0.5111790534328937,-0.10601152723133728,0.9733236504080134,0.0781996893796188,0.5532146171619039,-0.024395758219129777,1.0074532722861524,0.20547468059239324,0.6347652662918031,-0.19787131312049847,0.21525547214599555,0.027724335812021595,0.6032724075419276,0.022823671294215465,0.9681072628787151,0.17403362228582195,0.694475139268744,-0.2029528820989323,0.5120131969225904,0.05631512695112206,0.7791569664772799,0.01715146178813065,0.8957739124313407,0.14714645594043835,0.7449341676970597,-0.17239522752633843,0.22820343361344403,0.054386114401676386,0.781301763296442,0.04132509105934509,0.169853556002537,0.1052710049726588,0.7654100636840334,-0.0041433596017420304,0.498506152977221,-0.1235710581733712,0.7777034429433851,0.18374691665655807,0.7184240464901366
31,0.005767408562538157,0.3745183486524024,0.05602551617156671,0.9953264406243075,0.029614982578214932,0.3960746332126573,0.027798467625252506,1.016072668642694,0.010124528225864043,0.36122966871156514,0.058344161853177895,0.9868660975371073,-0.03726729928300699,0.41713058412228243,-0.004409062307026715,0.9820776591450541,-0.020100288744385283,0.32943746368351584,0.04837366916832297,0.9971838262234498,-0.01072486564871769,0.40949645346889463,0.04166323202831333,1.0286086471780234,-0.05034586503200318,0.35618033147537187,0.10544417705572524,1.0410195680699883,0.12239089505171874,0.4014078516190109,-0.029804997731453634,0.9838738033779487,0.08601573182113015,0.3298652125306117,-0.06629934816779848,0.9658047133653989,0.03801091528260034,0.4158768585782259,0.03675226596656214,0.997729661472018,-0.016293904541295742,0.34700859852636556,0.0182065548956442,0.9724492672203406,0.13288241525169456,0.39169788572017283,-0.1302530246912828,1.0327368654902587,0.07296641079727557,0.4237186991342906,-0.001446938835000848,0.9994564728049871,0.05724781615902884,0.432129319208754,-0.1260498430028962,0.5687437605273874,-0.08802789231569952,0.47688875425582933,0.07585579178421763,0.9928088034635512,-0.059372069409048815,0.44012213336194533,0.08342219848561976,0.3693335828258506,-0.18632109933519458,0.420199285248251,0.29325551549326473,0.9000807836290484,-0.054077035633534595,0.40609289054783865,0.12490200194061049,0.20480873247180123,-0.16551800468191702,0.44819438491539887,0.3105279051463552,0.8106232762132481,-0.03600616977067689,0.45976674359961545,0.13040506413716715,0.26452799776462,-0.19085191782712035,0.4208817241073912,0.3287262006103547,0.7720796811045662,-0.010662663354797555,0.4356063901952564,0.10492452170781455,0.2521687211974518,-0.17414664865046872,0.4256145740101734,0.21277780932664264,0.6863879898935799,0.1877872934125546,0.5309259530376911,-0.1102993146766241,0.9733832550527888,0.0755892397776827,0.5680120066691976,-0.021146030775265726,1.0075256323249095,0.23220723672387247,0.6551055301353395,-0.23339811580770115,0.9652165205106349,0.009493767798778422,0.6151515536410181,0.045354024741534105,1.0316420591166606,0.32771800758974545,0.6987552296007753,-0.4086815240060717,0.9365338086855909,0.06258157740020157,0.7780129149254611,0.00699492926185655,1.0188526163116507,0.3441046591064051,0.7451329491873856,-0.4360950100919275,0.8655788479849346,0.051217920607106636,0.7800263431075382,0.039623769961735805,0.9198787389649545,0.28571310291071905,0.774646399438428,-0.24521695680156905,0.9370405319826531,-0.12864856694087062,0.7778730777624159,0.18897142661546856,0.9918611888622679
32,0.05407558699611251,0.3701720673623481,-0.007221682362204227,0.9953264406243075,0.04986546487509773,0.39287288031158,0.0012761157577394523,1.016072668642694,0.029299502376802775,0.35771719679727376,0.0328058002373856,0.980926673499174,-0.018971079599204722,0.4133462852254929,-0.029155599592395658,0.9820776591450541,0.0029131800144468773,0.32742354194584494,0.019581810215284243,0.9971838262234498,0.01374174966503515,0.4080633491922375,0.011481657478247982,1.0251895459397726,-0.024449719473323098,0.3553191635676571,0.0739121258408923,1.0410195680699883,0.039952323763507595,0.3997567433540878,0.07980850151623864,0.9788544366367684,0.01133961678641663,0.3322106851048457,0.03686669412872394,0.9636698538034785,0.05082306179783799,0.41109743033458884,0.020037014416378673,0.9874033951832607,-0.00010487718220708597,0.3435057825645278,-0.0013820750883613668,0.9657653215645179,0.04144692015149341,0.3965602538270149,-0.013653736669210131,1.0311444081957946,-0.01885318189088905,0.43081087700218,0.12835679157684612,0.9992238358764288,0.05855278596309689,0.4500863211332688,-0.1376178836596572,0.07241120079280443,-0.08967729244075182,0.480271258242188,0.08903010734444529,0.8535054172521559,0.020815232276950084,0.48237613426412124,-0.029366485451483668,-0.01644750229280078,-0.06277220503053256,0.4587199790272427,0.13495778366572764,0.2869130208727007,0.04141941449167719,0.45626358036908193,-0.008033750853468996,-0.003535075136087862,-0.01955803340359115,0.48591199551300934,0.12151000944468716,0.25421478150232585,0.04586238588925015,0.5063164214484314,0.017303690457747187,0.048940713348659626,-0.059715540456910465,0.46342683409465013,0.15502351660039193,0.23111749166860723,0.07181126190897848,0.4773131012491046,-0.008478973762348069,0.06039098152359891,-0.05923848207935558,0.4588118875573078,0.06185007517558648,0.17255881823601754,0.19396216562113447,0.5266332861256122,-0.12169942238888729,0.9733298492910701,0.07078781255348755,0.5733406619121175,-0.011132631465291816,1.007508346977925,0.2755209565473422,0.6468200672790467,-0.29359466197717826,0.5252929956540675,0.0406865767991168,0.6183383755785792,0.00779207913748458,1.0308180845072856,0.3319439343235215,0.6994260202730775,-0.4167996669789658,0.7277220487368604,0.0783803645549552,0.7972402408417514,-0.011859851569100587,1.0146067390457205,0.34560456544230295,0.7472222708006974,-0.44052741064385403,0.5880648075148113,0.0627569096987853,0.7998410131934451,0.02787846213475237,0.8012594161881601,0.33082023068827965,0.7637320737243166,-0.3070362966521638,0.5691075566904473,-0.06234234648838331,0.786625483405879,0.10906135698152064,0.9361561183666625
33,0.08121908971128966,0.3862076837602057,-0.04129435334325096,0.9953264406243075,0.09887133402194,0.4067239566760973,-0.06159857490630237,1.016072668642694,0.07897280120151601,0.3714749024857503,-0.030674592565707613,0.986805658427305,0.03133137051687119,0.4269762283578934,-0.09318423806095948,0.9820776591450541,0.04061320918054445,0.34082379857960343,-0.02913683392925561,0.9971838262234498,0.050425253184733634,0.4209111601758954,-0.03627969690977936,1.0285563142999106,0.011248620618277055,0.36761974430763206,0.027069415449342413,1.0410195680699883,0.1648118633959323,0.4098663765614089,-0.08372867261525166,0.9838655779369697,0.0879131512951819,0.3407446993298518,-0.06540875877618095,0.9657267504900325,0.10343764566635447,0.42571186338474454,-0.04786437207902104,0.9976626658512905,0.03830711035130185,0.3575959331592391,-0.05139507077184868,0.9723264816521034,0.16359688214624837,0.40184030148212047,-0.17210957965728085,1.0326996721919186,0.04334743397296119,0.4275491022238139,0.042478586966163405,0.9994281009940741,0.13289822643957244,0.46227472593177643,-0.2298078829195868,0.11376528704287123,-0.08246548890831276,0.46927613843208366,0.07715073216290787,1.0130635346418349,0.06972313086186219,0.48019663082326425,-0.08977902820713031,0.11009910971660533,-0.060167806102282534,0.425001691082449,0.1346860740355586,0.9067890479799395,0.09019042239239021,0.44316015486630483,-0.06837477641921397,0.08244646897111084,-0.021644853624784938,0.4485125843115323,0.12895238006285362,0.8060030817781285,0.10406108265443276,0.4912881533496002,-0.056375378430724904,0.13073021808532154,-0.0419536219680081,0.42054552410853563,0.13990349530281496,0.7495548474253669,0.12180045236352566,0.4665029346517383,-0.07149434186953278,0.1278052093966858,-0.043143193519596064,0.4176507974217334,0.04752029877351438,0.6933725217730049,0.20482189816817778,0.5335517760586261,-0.13334994408911655,0.9733479691030817,0.06571719165048737,0.5740000680972677,-0.004760676156454265,1.0075056051642652,0.2702921634123315,0.6521343578025758,-0.28397252246379273,0.6761030585393519,0.017755544626857068,0.6206145577532618,0.036806280451577494,1.0314977562716594,0.3363636980142728,0.7000605117167116,-0.4201816807770438,0.8026104569209119,0.03452495058315343,0.7880334689911654,0.0469090065238063,1.0184297213569693,0.35117681722784566,0.7475610636016007,-0.4455551229468777,0.6433759509130962,0.018901692130808487,0.7876180078986453,0.08462503953123202,0.9039341388596689,0.3163990993021685,0.7729611377120486,-0.2853432006315253,0.8451047781603265,-0.11975000916833209,0.7922608045461683,0.18199393822718812,0.9892263655399717
34,0.04350690125313075,0.398289128023664,0.009489681882905285,0.9953264406243075,0.04006775309867294,0.41948334416923083,0.016918148411066942,1.016072668642694,0.019470421698405266,0.38391319975747884,0.04849004077701691,0.9822403598700237,-0.028794763189637675,0.43913250625286715,-0.013470534206355862,0.9820776591450541,-0.006243499540570073,0.35425433437290793,0.034339639599517975,0.9971838262234498,0.004503609096745229,0.434614059393501,0.026307768241689004,1.0275410087808066,-0.03369400456201593,0.38159217572891196,0.08871368074007058,1.0410195680699883,0.03774648731930912,0.4208135146324691,0.08491423368362988,0.9828782269962654,0.013456980104539766,0.35442330965471147,0.035941378073156366,0.965330975648724,0.043991913693901444,0.43568091903736295,0.03136476554573587,0.9850936555935697,-0.006018665911695059,0.3682719595035383,0.008697626403149677,0.9610601905105934,0.03489793204755422,0.40210890981380076,-0.0026761664471203622,1.0307843961413512,0.032917682371904025,0.43751827708572194,0.060814878444766046,0.9992575721053717,0.12226981381928169,0.4503399686991104,-0.2171552026684666,0.12971455121161052,0.00531257079186441,0.4697830461335759,-0.03240844290221401,1.0170984114652601,0.17103755545171914,0.49036813365186227,-0.22648414927140612,0.022896158404540116,0.05903629550790557,0.4477349324021053,-0.020806186960087084,0.8208817079301959,0.1875625566125691,0.46055964474591293,-0.19963709459925297,0.025671115122176638,0.11044845829585205,0.4725465181894772,-0.044888901554087444,0.6961206674371556,0.21133564408801375,0.5166542212359527,-0.20012683095338957,0.08495912590888423,0.07897645526926904,0.44862905715716545,-0.01927425810331576,0.6628693687380806,0.22501577463347405,0.490700125651723,-0.20983245027995787,0.09549985700687331,0.07074863511698637,0.44495103603104735,-0.10216416359349267,0.5830866435915474,0.162245328049598,0.531343662388277,-0.07796713481751222,0.973259515810235,0.10906507281336793,0.5757289604236226,-0.06084093325579927,1.0074693655402416,0.16921044281714645,0.6520671833679139,-0.15130116784162692,0.9172224433049769,0.1113172858257154,0.624493151198086,-0.08405249817835707,0.966636577873527,0.15706129644457142,0.706594074853766,-0.18654595246770134,0.8910983800662061,0.1888805156085997,0.8007830813225558,-0.15122769093704472,0.9395624647155815,0.16286094949346874,0.7570384405394669,-0.2006040503691207,0.7253060518309123,0.18119527976567434,0.800019648313837,-0.12300239059411436,0.7565994439973032,0.14270476541894225,0.773669300496625,-0.05558727038977483,0.7131800297396111,0.035212366601871825,0.7915883449438124,-0.023401950472263587,0.7094701771473326
35,-0.07928551738121799,0.3964017171445289,0.17317367059062436,0.9953264406243075,-0.06236106690904544,0.4176575644927934,0.15404777672917225,1.016072668642694,-0.08210746630126711,0.38251237139596755,0.18483253827935786,0.9868793297682473,-0.1295308505997821,0.43813296616230624,0.12209809635808988,0.9820776591450541,-0.11323370581815279,0.3515620223707259,0.17654637439524307,0.9971838262234498,-0.1034450283467127,0.4316267938066479,0.16942760864751338,1.028629151175826,-0.14265914594923654,0.37829436994277915,0.23282038153850124,1.0410195680699883,0.02061456827656822,0.4201209384625015,0.10958894138790154,0.9838863203533516,-0.023629987675282467,0.3500717533535945,0.0839521473692145,0.9658395224779477,-0.05021080672917387,0.43463968549778165,0.15754258725533046,0.9977544570042445,-0.1054376011120816,0.3661466366847822,0.14074968646191055,0.9724858644722328,0.02484069049672501,0.40048936220828624,0.014360803391693853,1.0327416338618407,-0.030412735532469978,0.4337154113420848,0.14075568923987572,0.9994632677344915,0.0013971123306140837,0.44195740987647864,-0.05011036085509356,1.007463271559492,-0.19538094606554926,0.46115110147720384,0.22524905002887274,1.0398778165822948,-0.03778364263806714,0.45881555067266006,0.05730910407245533,0.7427513477279655,-0.2705456756171453,0.43196434805724143,0.4111592824038435,0.9748352005716449,-0.0039419517457832814,0.4265736425391106,0.0606099665376036,0.4190208967546,-0.2526004794529536,0.45819360051827357,0.4322128438519444,0.8558200478349522,-0.015972372930246295,0.48005270761176144,0.10691323531379412,0.4947117481556264,-0.27446389835410084,0.43072528218043504,0.4456161898490714,0.8259110199870124,0.011120978487655572,0.4556643664411365,0.07946966679493676,0.48661953830560606,-0.2589361826351734,0.4273114288399616,0.3310727704341933,0.7705394367128853,0.17277238535797795,0.5273919936489582,-0.08955843524941845,0.9733825397970514,0.09900658186663386,0.5714752749492269,-0.049562155351711684,1.0075267052085155,0.23686756178474186,0.6442040790244996,-0.23945442876307302,0.9838860661611168,0.05155058545103154,0.6145650439364283,-0.007556746218227613,1.0316701925089946,0.2919053440135864,0.6940574299181581,-0.364942330790056,0.9517248868716262,0.11350429516615454,0.7862899735268405,-0.056387334237638746,1.0192061910644583,0.3032635935265833,0.7404580972930069,-0.3870685722452851,0.9426631508871562,0.10217702984495604,0.7862395908835697,-0.023921472289758793,0.982538360203663,0.25340316972721555,0.766345618188428,-0.20304693631491103,0.9503101352350641,-0.07488828092192282,0.7826636222723036,0.12258071128442971,0.9929729346966185
36,0.3117500925281521,0.3970842499318519,-0.3504728603244947,0.9953264406243075,0.30289741812667254,0.41949255308684863,-0.3356289697437568,1.016072668642694,0.28257934063110457,0.3839479790677052,-0.3042771670299277,0.9868770647917461,0.23473197457985523,0.43917121946964877,-0.3665820254773874,0.9820776591450541,0.2638263486904284,0.35496660987797385,-0.32801148108532485,0.9971838262234498,0.27453756293384146,0.43579071468601194,-0.33599745291392547,1.0286301048501425,0.2363830607626875,0.3832610163756557,-0.27364069171583105,1.0410195680699883,0.2342145408503381,0.4232969421570358,-0.17790339505117816,0.9838853666790351,0.24628789080453498,0.3587226224846828,-0.27628966213265727,0.9658392840593685,0.2872163626141245,0.43535422597934903,-0.29473334202350826,0.9977494502140835,0.24663763220506352,0.3687079674800704,-0.3302439420372382,0.9724753740547523,0.1313374708039644,0.40304076883021916,-0.1323117993481756,1.032309798210443,0.2168604652582255,0.44521889916747853,-0.18535136643936104,0.9994610027579901,0.19610401522869625,0.4274031477152237,-0.316243155537083,0.14533453697086882,0.17245452768423977,0.46247244704490714,-0.2554638860480193,1.0301976050382582,0.294607254128845,0.45224536048139113,-0.38710749880498696,0.026187988825034224,0.1976439782422681,0.4461729330811215,-0.20229217853311188,0.8924105599161273,0.34051914383047516,0.420076348828402,-0.3991850011059603,0.036287574074603535,0.2455442705185059,0.47634178434090546,-0.22106821497732065,0.8137967467103795,0.3471509455943695,0.4766944627158264,-0.376826360896185,0.08810917923119943,0.2198515499466977,0.4507052657486266,-0.20222103385171164,0.7472824203433052,0.34913840159745707,0.4518722593358814,-0.37126735148016665,0.08678755783876341,0.21092118336319346,0.44422964101533086,-0.28447343570225264,0.6535659173876289,0.12252153088572429,0.5333667036365985,-0.024699077160209963,0.9733763409139949,0.15095810547063457,0.5788613633205038,-0.11612515161500041,1.0075286125571483,0.11530448883003427,0.6498937596008241,-0.08038923790171543,0.9815049202069848,0.17241653038912944,0.6242029361826746,-0.1640283785259963,1.0201697743228069,0.05428004191431955,0.7083026419962526,-0.050125298688917935,0.9473548531306287,0.22641244317189968,0.7938371136483005,-0.2005418540467483,1.0077256808296255,0.06232255910901925,0.7549737952490921,-0.0656663005639751,0.9519141493841654,0.217449529954916,0.7980023291114139,-0.17110406412227483,0.999081271733204,0.04830545835576422,0.7775340060592165,0.061017116678697914,0.9230966213838981,0.10802199591219157,0.7819120077016859,-0.11582003769014435,0.9372467045521177
37,0.34051082954708556,0.3980180162969031,-0.39150967645271667,0.9953264406243075,0.32917614721908395,0.4194555684047655,-0.37300747892389324,1.016072668642694,0.31036125317293706,0.38392592534913833,-0.34306449001491696,0.9867830086622905,0.2668000957897493,0.439149791599852,-0.40938981557881704,0.9820776591450541,0.30053945125564585,0.35502526084843283,-0.3796376654158153,0.9971838262234498,0.3113912166515153,0.43598788685092893,-0.3877540035775876,1.0285523803933554,0.2733980878982026,0.383553377158279,-0.3255266370217782,1.0410195680699883,0.2528255613726232,0.4242464441483077,-0.20277664636023734,0.9837165663250311,0.3103427831235955,0.3598035229153621,-0.36345198145326607,0.9657572680681575,0.3100245981212707,0.43742730532695945,-0.3274496683995589,0.9975153827740505,0.28428570027374,0.37106834121549825,-0.3829179194160263,0.9719424489258155,0.10537493270452014,0.40758195730868907,-0.0993585143965503,1.032569793670953,0.2962233378665394,0.4577397488722209,-0.2908671147602593,0.9993534759788153,0.07778378887998912,0.4655793862520584,-0.16213547327666897,0.4159860562694223,0.22053650721334564,0.5143520318341833,-0.32262610973314776,0.7516510333066908,0.08901730836798527,0.5127553104039528,-0.11412225326209918,0.022521915741156716,0.20880183567337388,0.5666678352150631,-0.22355698568102444,0.4579004779096728,0.11144758891540794,0.4883904541006951,-0.0971859869212293,0.013797944388724837,0.25810246563157646,0.6131863001413815,-0.24516580174017993,0.3884897410665349,0.1267380721839327,0.5442959050528625,-0.0871006898193505,0.06100251788166443,0.22445579633655155,0.5932971892238921,-0.21580855755938486,0.3232571231783881,0.13918673944348234,0.516217738347417,-0.09524704242567592,0.06771446639141011,0.21684552599859416,0.5794834578583636,-0.2995461126267771,0.24881655372681644,0.07716422046683222,0.538211190350008,0.03542023758710338,0.973377890634759,0.1984506965852094,0.5904126242686849,-0.17839147440259664,1.0075108503730055,0.04067104824789539,0.6564556349441468,0.018747841496702108,0.9838041693791957,0.18925305585545235,0.6238757066828577,-0.1865522512901523,0.8817752397349468,-0.01842083224317933,0.7215236674631715,0.04682709953955388,0.9478055238497755,0.25196910353921564,0.7938796117600253,-0.23337261246978816,0.8981790194526725,-0.010945206898378575,0.7727535031577225,0.032711208358644876,0.9557861267134197,0.24341516782809386,0.8007676270011234,-0.20363692648991982,0.9446220575226938,-0.04288845508785517,0.7844030837417116,0.18083427618764755,0.915415013183825,0.1337122145160805,0.7725248125913649,-0.15077836310818082,0.7507841829990782
38,,,,,,,,,,,,,,,,,,,,,,,,,,,,,,,,,,,,,,,,,,,,,,,,,,,,,,,,,,,,,,,,,,,,,,,,,,,,,,,,,,,,,,,,,,,,,,,,,,,,,,,,,,,,,,,,,,,,,,,,,,,,,,,,,,,,
39,,,,,,,,,,,,,,,,,,,,,,,,,,,,,,,,,,,,,,,,,,,,,,,,,,,,,,,,,,,,,,,,,,,,,,,,,,,,,,,,,,,,,,,,,,,,,,,,,,,,,,,,,,,,,,,,,,,,,,,,,,,,,,,,,,,,
40,,,,,,,,,,,,,,,,,,,,,,,,,,,,,,,,,,,,,,,,,,,,,,,,,,,,,,,,,,,,,,,,,,,,,,,,,,,,,,,,,,,,,,,,,,,,,,,,,,,,,,,,,,,,,,,,,,,,,,,,,,,,,,,,,,,,
41,,,,,,,,,,,,,,,,,,,,,,,,,,,,,,,,,,,,,,,,,,,,,,,,,,,,,,,,,,,,,,,,,,,,,,,,,,,,,,,,,,,,,,,,,,,,,,,,,,,,,,,,,,,,,,,,,,,,,,,,,,,,,,,,,,,,
42,,,,,,,,,,,,,,,,,,,,,,,,,,,,,,,,,,,,,,,,,,,,,,,,,,,,,,,,,,,,,,,,,,,,,,,,,,,,,,,,,,,,,,,,,,,,,,,,,,,,,,,,,,,,,,,,,,,,,,,,,,,,,,,,,,,,
43,0.09659477825021558,0.6652253706040778,-0.0695896447450587,0.9953264406243075,0.09403114681530501,0.6994238301235155,-0.06251070044118164,1.016072668642694,0.0747477484431126,0.6640287147511464,-0.03213577245002663,0.9868815947447489,0.02780098401417009,0.719386870266539,-0.09532006914151456,0.9820776591450541,0.04953002398974629,0.6340906612104477,-0.04880793662482662,0.9971838262234498,0.05941144236817766,0.7149097890306471,-0.056027648145168606,1.028631535361617,0.020385217030080872,0.6621366653510281,0.007147309803461864,1.0410195680699883,0.07869627114043148,0.6946838635628281,0.025716038710930464,0.983887274027668,0.0677308229438722,0.6284575117535579,-0.045231630161703604,0.9658410721987117,0.09186633454422317,0.6907021633248538,-0.039367877081340666,0.9977570796086147,0.046215158998252764,0.6240254170497725,-0.06903595944677735,0.9724875334022867,0.04669437313223043,0.6094075462502632,-0.017955977715206975,1.032612530201257,0.04191379222767448,0.6450745844015484,0.038515393913140614,0.9989504889754889,0.05533651719562464,0.5992754655062089,-0.13214890746581692,0.7665648412120493,-0.02209319096419958,0.6133811556172949,-0.013841646427099348,0.9355908478742567,0.06348080369558265,0.6395107267972329,-0.08951511273079321,0.5754434344245902,0.015143908571250843,0.6133492393288327,0.02170918153683448,0.634204848074544,0.08817425785780796,0.6124897683134941,-0.07437508768897703,0.5991638656476512,0.062033389108426706,0.6436769369669431,0.003749184154603801,0.6802124857698277,0.09886010366115706,0.6701553444258789,-0.05786666460366109,0.667559048923525,0.03764303283273113,0.6242657956959075,0.02137220010856513,0.6344747888506904,0.11405910497119177,0.6424498855642139,-0.06966115954666621,0.6087469222529786,0.029607016176297116,0.6197190964768329,-0.06169316384764509,0.5546110013872627,0.16123666239167425,0.5206850406002521,-0.07673116535702684,0.9733859968664486,0.09562842001249064,0.571179635911141,-0.048761477380612483,1.007528731766438,0.2813707987380521,0.5428907264396607,-0.2997285524559367,0.6234124929532618,0.19095218201535724,0.5201028876406519,-0.19411457483217245,0.9854710495761027,0.3509609567337052,0.47287871945749527,-0.44251634529798045,0.6872584819567701,0.33261455202434353,0.5533625915345004,-0.34518639900962095,0.9047077546135002,0.3736119928837315,0.499074663951027,-0.47775145207820596,0.7907462297483928,0.3377966314046435,0.5333307352069185,-0.3340593737392971,0.9024102865113413,0.414452647718911,0.514838037908124,-0.421883509175628,0.5862316731111932,0.28377157456521496,0.5081469801786451,-0.35131392189785504,0.7316933517193236
44,,,,,,,,,,,,,,,,,,,,,,,,,,,,,,,,,,,,,,,,,,,,,,,,,,,,,,,,,,,,,,,,,,,,,,,,,,,,,,,,,,,,,,,,,,,,,,,,,,,,,,,,,,,,,,,,,,,,,,,,,,,,,,,,,,,,
45,,,,,,,,,,,,,,,,,,,,,,,,,,,,,,,,,,,,,,,,,,,,,,,,,,,,,,,,,,,,,,,,,,,,,,,,,,,,,,,,,,,,,,,,,,,,,,,,,,,,,,,,,,,,,,,,,,,,,,,,,,,,,,,,,,,,
46,-0.1464882707978471,0.6630522448602119,0.2607782637353004,0.9953264406243075,-0.15490083270454236,0.696809272380443,0.27573394164632536,1.016072668642694,-0.17369958024818793,0.6616223560322744,0.30563106177791627,0.9868786145125101,-0.22018655738887083,0.7172502225652756,0.24200267428448963,0.9820776591450541,-0.19935851293513684,0.6305231444067062,0.28893176845524515,0.9971838262234498,-0.18992633801196374,0.7109585375238416,0.28211144778674624,1.028631058524459,-0.22937313916548552,0.6578138980933377,0.3456639623718683,1.0410195680699883,-0.1657894148871642,0.690445913714653,0.3587570567183169,0.9838841745861395,-0.17632387264049285,0.6199909699864375,0.28562301347373664,0.9658407145708431,-0.1476768091948399,0.6884944668870181,0.2868528230869605,0.9977057004048184,-0.19359522744208157,0.6207860834201644,0.25692244389967883,0.9724763277290687,-0.15887019093687355,0.6139662286919746,0.2651905101195068,1.0283593215640194,-0.130550280478257,0.62917051545471,0.27263069931936434,0.9975501970557806,-0.09879880598797443,0.6483511285959611,0.08910246513361711,1.0287192415607127,-0.17778733371168606,0.6424488507581335,0.19369234281547454,1.0265300716405836,-0.018435876987760412,0.7089314221021035,0.04039276988045802,0.839409398741912,-0.1642587304258269,0.6581421298775387,0.25718676337391577,0.994916482233632,0.009728296018801305,0.6878348076811699,0.05275474261974436,0.7653342839101329,-0.13616104218784447,0.6891671422548764,0.262749599773654,0.9635091304574803,0.011060973656726689,0.743420598923407,0.08032744318452645,0.7873543713417379,-0.1649915291844386,0.6743090209842986,0.2868856517955214,0.9117950546206488,0.03199858370910991,0.7136066853574573,0.06027821526931272,0.7513150336726563,-0.1527610930583461,0.6702275360176959,0.17775448415204975,0.832240734472895,0.1701234098873423,0.5276402469944477,-0.07792367428265676,0.9731243920805294,0.13219503994224652,0.5606506542255025,-0.08960914816110709,1.0070244764716383,0.19454398919271693,0.5949103225395143,-0.17307905596723128,0.6631271869763942,0.15611979049410224,0.5656906657320826,-0.1447842888554257,0.3217157817175975,0.2503558962753824,0.5868444095934511,-0.2963609202341526,0.4416667818797132,0.27870586197258096,0.6869028046425631,-0.2756570911072689,0.3553546617046409,0.26660413620298595,0.6225227974196549,-0.3235401851093564,0.3302122233911998,0.27679451487320983,0.6794269349578189,-0.2557734652670993,0.2938514529122507,0.23171651152543155,0.6534612159133425,-0.1646743852337213,0.3887061122553276,0.13871815613104194,0.6790714053037672,-0.16208897513808568,0.5205707196926512
47,,,,,,,,,,,,,,,,,,,,,,,,,,,,,,,,,,,,,,,,,,,,,,,,,,,,,,,,,,,,,,,,,,,,,,,,,,,,,,,,,,,,,,,,,,,,,,,,,,,,,,,,,,,,,,,,,,,,,,,,,,,,,,,,,,,,
48,,,,,,,,,,,,,,,,,,,,,,,,,,,,,,,,,,,,,,,,,,,,,,,,,,,,,,,,,,,,,,,,,,,,,,,,,,,,,,,,,,,,,,,,,,,,,,,,,,,,,,,,,,,,,,,,,,,,,,,,,,,,,,,,,,,,
49,,,,,,,,,,,,,,,,,,,,,,,,,,,,,,,,,,,,,,,,,,,,,,,,,,,,,,,,,,,,,,,,,,,,,,,,,,,,,,,,,,,,,,,,,,,,,,,,,,,,,,,,,,,,,,,,,,,,,,,,,,,,,,,,,,,,
50,,,,,,,,,,,,,,,,,,,,,,,,,,,,,,,,,,,,,,,,,,,,,,,,,,,,,,,,,,,,,,,,,,,,,,,,,,,,,,,,,,,,,,,,,,,,,,,,,,,,,,,,,,,,,,,,,,,,,,,,,,,,,,,,,,,,
51,,,,,,,,,,,,,,,,,,,,,,,,,,,,,,,,,,,,,,,,,,,,,,,,,,,,,,,,,,,,,,,,,,,,,,,,,,,,,,,,,,,,,,,,,,,,,,,,,,,,,,,,,,,,,,,,,,,,,,,,,,,,,,,,,,,,
52,,,,,,,,,,,,,,,,,,,,,,,,,,,,,,,,,,,,,,,,,,,,,,,,,,,,,,,,,,,,,,,,,,,,,,,,,,,,,,,,,,,,,,,,,,,,,,,,,,,,,,,,,,,,,,,,,,,,,,,,,,,,,,,,,,,,
53,,,,,,,,,,,,,,,,,,,,,,,,,,,,,,,,,,,,,,,,,,,,,,,,,,,,,,,,,,,,,,,,,,,,,,,,,,,,,,,,,,,,,,,,,,,,,,,,,,,,,,,,,,,,,,,,,,,,,,,,,,,,,,,,,,,,
54,,,,,,,,,,,,,,,,,,,,,,,,,,,,,,,,,,,,,,,,,,,,,,,,,,,,,,,,,,,,,,,,,,,,,,,,,,,,,,,,,,,,,,,,,,,,,,,,,,,,,,,,,,,,,,,,,,,,,,,,,,,,,,,,,,,,
55,,,,,,,,,,,,,,,,,,,,,,,,,,,,,,,,,,,,,,,,,,,,,,,,,,,,,,,,,,,,,,,,,,,,,,,,,,,,,,,,,,,,,,,,,,,,,,,,,,,,,,,,,,,,,,,,,,,,,,,,,,,,,,,,,,,,
56,,,,,,,,,,,,,,,,,,,,,,,,,,,,,,,,,,,,,,,,,,,,,,,,,,,,,,,,,,,,,,,,,,,,,,,,,,,,,,,,,,,,,,,,,,,,,,,,,,,,,,,,,,,,,,,,,,,,,,,,,,,,,,,,,,,,
57,0.19761865924449423,0.7436991173806586,-0.1664392553156739,0.9953264406243075,0.21631583215497893,0.7783191605525926,-0.1876512565463576,1.016072668642694,0.1964019585642746,0.742840598677538,-0.15668195129913776,0.9868665743742655,0.14882949766855785,0.7982672995344223,-0.2192785340466895,0.9820776591450541,0.16174629943729696,0.7115167967504562,-0.15977038679161454,0.9971838262234498,0.1723900338852413,0.7914440006662367,-0.16772733016659186,1.0285976799233847,0.13391065172358707,0.7377344880171963,-0.10500738161855391,1.0410195680699883,0.26312758952383075,0.7701351780121384,-0.18345257933703743,0.9838579485424384,0.20494395556980727,0.6992176426358211,-0.18893230912312875,0.9656968289583553,0.2104465978037269,0.7652504674058169,-0.16060587549369226,0.9975930476261928,0.15127918077219604,0.696941090305693,-0.17144953913904903,0.9717391970871314,0.2290558595655746,0.6720337292832527,-0.22706971852437963,1.0324731149371276,0.1353144449110077,0.7034294985899334,-0.045555362503461115,0.9988221005706427,0.21452879280188403,0.7109929280458818,-0.30111627235022986,0.22359153145672395,0.00039657159467573755,0.7059142671895605,0.006257779226081145,0.619485184097859,0.18756062229858614,0.7376601456281044,-0.20273791890847664,0.22668583960075292,-0.04845448148068213,0.7166639966759396,0.16173227042821642,0.5757383539911395,0.19899537760730124,0.7076259935370354,-0.16800411896437467,0.20880064924750474,-0.014153576844457144,0.7556364539690488,0.1623262646318967,0.5932465672288731,0.21404900965628954,0.7634169439665893,-0.15660913053622647,0.2676024947491018,-0.05095665503768561,0.7360404190899199,0.19591678436953985,0.5429359423579231,0.23982578602992377,0.7367397844365894,-0.18327817303648808,0.24604775631269382,-0.03929173535839508,0.7269238317559161,0.08580789360970432,0.45459691084923776,0.3048424432903253,0.5175727244686603,-0.23441529440163997,0.9733722877981501,0.1281999044118453,0.5589374975253683,-0.05430766381313194,1.0074656700522655,0.30327842108131536,0.47170570384711624,-0.30045486495069534,0.034288577072343264,0.0897613213697444,0.4393154971701472,-0.026798996262602945,0.9064430988124004,0.3299190871641282,0.42555367458711857,-0.38782231324959576,-0.008494969479987999,0.19025208550006434,0.5211740567978671,-0.12414170634372537,0.44857114052925634,0.34316574301414593,0.4516742490073319,-0.4108720423578329,0.08286141888346733,0.18774961491735231,0.5083253946307468,-0.1030815703208049,0.307004856909672,0.3475968750374171,0.4776447991729249,-0.308013786734893,0.030791716624967935,0.08552630861125331,0.49537680424480723,-0.057041681578291335,0.3693128471111693
58,,,,,,,,,,,,,,,,,,,,,,,,,,,,,,,,,,,,,,,,,,,,,,,,,,,,,,,,,,,,,,,,,,,,,,,,,,,,,,,,,,,,,,,,,,,,,,,,,,,,,,,,,,,,,,,,,,,,,,,,,,,,,,,,,,,,
59,,,,,,,,,,,,,,,,,,,,,,,,,,,,,,,,,,,,,,,,,,,,,,,,,,,,,,,,,,,,,,,,,,,,,,,,,,,,,,,,,,,,,,,,,,,,,,,,,,,,,,,,,,,,,,,,,,,,,,,,,,,,,,,,,,,,
60,,,,,,,,,,,,,,,,,,,,,,,,,,,,,,,,,,,,,,,,,,,,,,,,,,,,,,,,,,,,,,,,,,,,,,,,,,,,,,,,,,,,,,,,,,,,,,,,,,,,,,,,,,,,,,,,,,,,,,,,,,,,,,,,,,,,
61,,,,,,,,,,,,,,,,,,,,,,,,,,,,,,,,,,,,,,,,,,,,,,,,,,,,,,,,,,,,,,,,,,,,,,,,,,,,,,,,,,,,,,,,,,,,,,,,,,,,,,,,,,,,,,,,,,,,,,,,,,,,,,,,,,,,
62,,,,,,,,,,,,,,,,,,,,,,,,,,,,,,,,,,,,,,,,,,,,,,,,,,,,,,,,,,,,,,,,,,,,,,,,,,,,,,,,,,,,,,,,,,,,,,,,,,,,,,,,,,,,,,,,,,,,,,,,,,,,,,,,,,,,
63,0.176476140249948,0.3647518295827308,-0.13265087905529346,0.9953264406243075,0.18552554980776964,0.3833582206684068,-0.14139712126918585,1.016072668642694,0.1660837751590894,0.34740094408883865,-0.11087166494643068,0.9868676472578715,0.11892225061121298,0.40221687615070956,-0.1738116542621097,0.9820776591450541,0.14674836264064173,0.31925052325192094,-0.13510717304465658,0.9971838262234498,0.15665550496711605,0.4001573593069073,-0.14234267626752795,1.028602329085677,0.11753410945683922,0.3476652715274044,-0.07902490058348988,1.0410195680699883,0.22140792476132137,0.3848574597065505,-0.12136407565098503,0.983872968912922,0.23404149469731897,0.32164987453889726,-0.2231235278745972,0.9657659703462949,0.18868945489808078,0.40442880307247336,-0.12450580882525702,0.9976307177616909,0.14930258858099782,0.3392214603027175,-0.16260959079030746,0.9721987488983499,0.2101027679306671,0.38282573434535594,-0.19280157622915828,1.0325182952578673,0.21907816363231467,0.4145238482126598,-0.15061062576748302,0.9927339629439946,0.1383420212805372,0.450982953804625,-0.19769595946232868,0.5135652970683725,0.10497801790448122,0.4836083732915502,-0.13488435780474584,0.6407517637258497,0.07045652775052795,0.45560756908620376,-0.05314222369355977,0.3912049111797324,0.046172957024687766,0.4434368414673519,0.02897961987799163,0.5432283118005877,0.08577294122377295,0.4176327670088677,-0.025219321357511176,0.35263643225226543,0.08078801748368844,0.465313524348306,0.027770716836796508,0.5665681838785008,0.10400765635278149,0.4695276002280334,-0.01847526234105389,0.4031111810531942,0.05127477910351631,0.43868899916423026,0.05120859342245862,0.5382517921389595,0.12494684832646205,0.4458466469816028,-0.03774655933878803,0.3605307998641388,0.056512320234833165,0.43675280457238347,-0.04948000665791964,0.45413190521302255,0.29085041864970756,0.533075475342226,-0.20155410231012805,0.9733764601232844,0.2075979327348688,0.572019524960671,-0.14774538993312297,1.007492372933125,0.28129266485186716,0.6691412318870484,-0.2528613757715089,0.7140389711484523,0.1361504167681391,0.6184883408648341,-0.07026750168908472,1.0286236799052348,0.2815937176359847,0.7161598454798341,-0.30718003108358066,0.8570534586680433,0.16470893928996988,0.7777326538857272,-0.08262163168114572,0.9867391238227898,0.29179760694230905,0.7599609754820938,-0.32700090204105264,0.8299926696821697,0.1532617626053644,0.7732571628096866,-0.051732923614996075,0.9052958069695627,0.26210431384184024,0.7942128757834902,-0.17558234278240892,0.847994530548327,0.03139441654611727,0.784538605583003,0.021857900168054903,0.9568982367252745
64,,,,,,,,,,,,,,,,,,,,,,,,,,,,,,,,,,,,,,,,,,,,,,,,,,,,,,,,,,,,,,,,,,,,,,,,,,,,,,,,,,,,,,,,,,,,,,,,,,,,,,,,,,,,,,,,,,,,,,,,,,,,,,,,,,,,
65,,,,,,,,,,,,,,,,,,,,,,,,,,,,,,,,,,,,,,,,,,,,,,,,,,,,,,,,,,,,,,,,,,,,,,,,,,,,,,,,,,,,,,,,,,,,,,,,,,,,,,,,,,,,,,,,,,,,,,,,,,,,,,,,,,,,
66,,,,,,,,,,,,,,,,,,,,,,,,,,,,,,,,,,,,,,,,,,,,,,,,,,,,,,,,,,,,,,,,,,,,,,,,,,,,,,,,,,,,,,,,,,,,,,,,,,,,,,,,,,,,,,,,,,,,,,,,,,,,,,,,,,,,
67,,,,,,,,,,,,,,,,,,,,,,,,,,,,,,,,,,,,,,,,,,,,,,,,,,,,,,,,,,,,,,,,,,,,,,,,,,,,,,,,,,,,,,,,,,,,,,,,,,,,,,,,,,,,,,,,,,,,,,,,,,,,,,,,,,,,
68,,,,,,,,,,,,,,,,,,,,,,,,,,,,,,,,,,,,,,,,,,,,,,,,,,,,,,,,,,,,,,,,,,,,,,,,,,,,,,,,,,,,,,,,,,,,,,,,,,,,,,,,,,,,,,,,,,,,,,,,,,,,,,,,,,,,
69,,,,,,,,,,,,,,,,,,,,,,,,,,,,,,,,,,,,,,,,,,,,,,,,,,,,,,,,,,,,,,,,,,,,,,,,,,,,,,,,,,,,,,,,,,,,,,,,,,,,,,,,,,,,,,,,,,,,,,,,,,,,,,,,,,,,
70,,,,,,,,,,,,,,,,,,,,,,,,,,,,,,,,,,,,,,,,,,,,,,,,,,,,,,,,,,,,,,,,,,,,,,,,,,,,,,,,,,,,,,,,,,,,,,,,,,,,,,,,,,,,,,,,,,,,,,,,,,,,,,,,,,,,
71,,,,,,,,,,,,,,,,,,,,,,,,,,,,,,,,,,,,,,,,,,,,,,,,,,,,,,,,,,,,,,,,,,,,,,,,,,,,,,,,,,,,,,,,,,,,,,,,,,,,,,,,,,,,,,,,,,,,,,,,,,,,,,,,,,,,
72,,,,,,,,,,,,,,,,,,,,,,,,,,,,,,,,,,,,,,,,,,,,,,,,,,,,,,,,,,,,,,,,,,,,,,,,,,,,,,,,,,,,,,,,,,,,,,,,,,,,,,,,,,,,,,,,,,,,,,,,,,,,,,,,,,,,
73,,,,,,,,,,,,,,,,,,,,,,,,,,,,,,,,,,,,,,,,,,,,,,,,,,,,,,,,,,,,,,,,,,,,,,,,,,,,,,,,,,,,,,,,,,,,,,,,,,,,,,,,,,,,,,,,,,,,,,,,,,,,,,,,,,,,
74,,,,,,,,,,,,,,,,,,,,,,,,,,,,,,,,,,,,,,,,,,,,,,,,,,,,,,,,,,,,,,,,,,,,,,,,,,,,,,,,,,,,,,,,,,,,,,,,,,,,,,,,,,,,,,,,,,,,,,,,,,,,,,,,,,,,
75,,,,,,,,,,,,,,,,,,,,,,,,,,,,,,,,,,,,,,,,,,,,,,,,,,,,,,,,,,,,,,,,,,,,,,,,,,,,,,,,,,,,,,,,,,,,,,,,,,,,,,,,,,,,,,,,,,,,,,,,,,,,,,,,,,,,
76,,,,,,,,,,,,,,,,,,,,,,,,,,,,,,,,,,,,,,,,,,,,,,,,,,,,,,,,,,,,,,,,,,,,,,,,,,,,,,,,,,,,,,,,,,,,,,,,,,,,,,,,,,,,,,,,,,,,,,,,,,,,,,,,,,,,
77,0.18261704122636885,0.6231809098306098,-0.11661762069628445,0.9953264406243075,0.19155253544162185,0.6534409924465135,-0.12384780927747487,1.016072668642694,0.1726679034176363,0.6172013984669668,-0.09387041260263264,0.9868813563261697,0.12607481975371113,0.6717862433210434,-0.1574095489247355,0.9820776591450541,0.13480983983012362,0.5885776273435653,-0.0939580751773858,0.9971838262234498,0.14492226704866973,0.6690028280664442,-0.10147559675976559,1.0286311777337482,0.10602723658168571,0.6158103857108304,-0.0384801848713801,1.0410195680699883,0.21733090351020942,0.6394739884560166,-0.08962229178430398,0.9838871548183784,0.1478682928224246,0.5750593794293392,-0.08325901100000022,0.9658380919664729,0.19121310029388205,0.645527326212427,-0.10433633240971144,0.9977564835621668,0.12944612655435278,0.5793372518619369,-0.11276894832336931,0.9724861028908118,0.22246013681364538,0.5532281419915351,-0.1838199277519642,1.0318721809085019,0.11566025281331134,0.5990122341284161,0.00761519441938515,0.9985548929481147,0.23705303974556824,0.645747359293593,-0.3066540725529206,0.8631579231631906,0.011843348662915004,0.6755421840024572,0.008270111092278112,1.0177758182531325,0.20574018416279874,0.7329360006924965,-0.2108485388099292,0.6530766365005485,0.014220157656184812,0.7245006365570736,0.09034264797646367,0.9942065313097124,0.21926298029021674,0.7158682430258659,-0.17999643453597622,0.5701595898488536,0.0292744026580245,0.768671632153558,0.11419720858860158,0.9529269814287021,0.22168991868431098,0.769145844399176,-0.15263227259170933,0.5791180346336691,0.013624225905009547,0.7453396377445525,0.12111397844895783,0.8845862495364204,0.2514998770949387,0.7397597729734241,-0.18427176412388838,0.6630983712657349,0.029779784702608704,0.7357727373192706,0.006296275985000224,0.836403880491877,0.362113935217187,0.41545762980694767,-0.27882243033372817,0.9733242464544611,0.21562456900448787,0.47263927021518753,-0.14401013156264558,1.0074587559134716,0.3395348042258915,0.49585813175887467,-0.3149419528212118,0.9303476245030968,0.2255430955666902,0.5254037075144617,-0.1741124085396323,1.0277737176707378,0.3126155140291686,0.49334147084604507,-0.3307708794285743,0.8891285061610241,0.2928345994510954,0.6834607556160739,-0.22695578714222675,1.015452648164373,0.32209474507824487,0.5294876359244461,-0.34897577761517,0.8930297075315958,0.28319799538505147,0.6782304313185977,-0.1966516507982328,1.0177956996812023,0.30001988129263474,0.5526473502517214,-0.20826191294676535,0.8839013818399833,0.15127677172717846,0.6840106037977247,-0.10826676834296983,0.9847997073864379
78,,,,,,,,,,,,,,,,,,,,,,,,,,,,,,,,,,,,,,,,,,,,,,,,,,,,,,,,,,,,,,,,,,,,,,,,,,,,,,,,,,,,,,,,,,,,,,,,,,,,,,,,,,,,,,,,,,,,,,,,,,,,,,,,,,,,
79,,,,,,,,,,,,,,,,,,,,,,,,,,,,,,,,,,,,,,,,,,,,,,,,,,,,,,,,,,,,,,,,,,,,,,,,,,,,,,,,,,,,,,,,,,,,,,,,,,,,,,,,,,,,,,,,,,,,,,,,,,,,,,,,,,,,
80,,,,,,,,,,,,,,,,,,,,,,,,,,,,,,,,,,,,,,,,,,,,,,,,,,,,,,,,,,,,,,,,,,,,,,,,,,,,,,,,,,,,,,,,,,,,,,,,,,,,,,,,,,,,,,,,,,,,,,,,,,,,,,,,,,,,
81,,,,,,,,,,,,,,,,,,,,,,,,,,,,,,,,,,,,,,,,,,,,,,,,,,,,,,,,,,,,,,,,,,,,,,,,,,,,,,,,,,,,,,,,,,,,,,,,,,,,,,,,,,,,,,,,,,,,,,,,,,,,,,,,,,,,
82,,,,,,,,,,,,,,,,,,,,,,,,,,,,,,,,,,,,,,,,,,,,,,,,,,,,,,,,,,,,,,,,,,,,,,,,,,,,,,,,,,,,,,,,,,,,,,,,,,,,,,,,,,,,,,,,,,,,,,,,,,,,,,,,,,,,
83,,,,,,,,,,,,,,,,,,,,,,,,,,,,,,,,,,,,,,,,,,,,,,,,,,,,,,,,,,,,,,,,,,,,,,,,,,,,,,,,,,,,,,,,,,,,,,,,,,,,,,,,,,,,,,,,,,,,,,,,,,,,,,,,,,,,
84,,,,,,,,,,,,,,,,,,,,,,,,,,,,,,,,,,,,,,,,,,,,,,,,,,,,,,,,,,,,,,,,,,,,,,,,,,,,,,,,,,,,,,,,,,,,,,,,,,,,,,,,,,,,,,,,,,,,,,,,,,,,,,,,,,,,
85,,,,,,,,,,,,,,,,,,,,,,,,,,,,,,,,,,,,,,,,,,,,,,,,,,,,,,,,,,,,,,,,,,,,,,,,,,,,,,,,,,,,,,,,,,,,,,,,,,,,,,,,,,,,,,,,,,,,,,,,,,,,,,,,,,,,
86,,,,,,,,,,,,,,,,,,,,,,,,,,,,,,,,,,,,,,,,,,,,,,,,,,,,,,,,,,,,,,,,,,,,,,,,,,,,,,,,,,,,,,,,,,,,,,,,,,,,,,,,,,,,,,,,,,,,,,,,,,,,,,,,,,,,
87,,,,,,,,,,,,,,,,,,,,,,,,,,,,,,,,,,,,,,,,,,,,,,,,,,,,,,,,,,,,,,,,,,,,,,,,,,,,,,,,,,,,,,,,,,,,,,,,,,,,,,,,,,,,,,,,,,,,,,,,,,,,,,,,,,,,
