frame,NOSE.x,NOSE.y,NOSE.z,NOSE.v,LEFT_EYE_INNER.x,LEFT_EYE_INNER.y,LEFT_EYE_INNER.z,LEFT_EYE_INNER.v,LEFT_EYE.x,LEFT_EYE.y,LEFT_EYE.z,LEFT_EYE.v,LEFT_EYE_OUTER.x,LEFT_EYE_OUTER.y,LEFT_EYE_OUTER.z,LEFT_EYE_OUTER.v,RIGHT_EYE_INNER.x,RIGHT_EYE_INNER.y,RIGHT_EYE_INNER.z,RIGHT_EYE_INNER.v,RIGHT_EYE.x,RIGHT_EYE.y,RIGHT_EYE.z,RIGHT_EYE.v,RIGHT_EYE_OUTER.x,RIGHT_EYE_OUTER.y,RIGHT_EYE_OUTER.z,RIGHT_EYE_OUTER.v,LEFT_EAR.x,LEFT_EAR.y,LEFT_EAR.z,LEFT_EAR.v,RIGHT_EAR.x,RIGHT_EAR.y,RIGHT_EAR.z,RIGHT_EAR.v,MOUTH_LEFT.x,MOUTH_LEFT.y,MOUTH_LEFT.z,MOUTH_LEFT.v,MOUTH_RIGHT.x,MOUTH_RIGHT.y,MOUTH_RIGHT.z,MOUTH_RIGHT.v,LEFT_SHOULDER.x,LEFT_SHOULDER.y,LEFT_SHOULDER.z,LEFT_SHOULDER.v,RIGHT_SHOULDER.x,RIGHT_SHOULDER.y,RIGHT_SHOULDER.z,RIGHT_SHOULDER.v,LEFT_ELBOW.x,LEFT_ELBOW.y,LEFT_ELBOW.z,LEFT_ELBOW.v,RIGHT_ELBOW.x,RIGHT_ELBOW.y,RIGHT_ELBOW.z,RIGHT_ELBOW.v,LEFT_WRIST.x,LEFT_WRIST.y,LEFT_WRIST.z,LEFT_WRIST.v,RIGHT_WRIST.x,RIGHT_WRIST.y,RIGHT_WRIST.z,RIGHT_WRIST.v,LEFT_PINKY.x,LEFT_PINKY.y,LEFT_PINKY.z,LEFT_PINKY.v,RIGHT_PINKY.x,RIGHT_PINKY.y,RIGHT_PINKY.z,RIGHT_PINKY.v,LEFT_INDEX.x,LEFT_INDEX.y,LEFT_INDEX.z,LEFT_INDEX.v,RIGHT_INDEX.x,RIGHT_INDEX.y,RIGHT_INDEX.z,RIGHT_INDEX.v,LEFT_THUMB.x,LEFT_THUMB.y,LEFT_THUMB.z,LEFT_THUMB.v,RIGHT_THUMB.x,RIGHT_THUMB.y,RIGHT_THUMB.z,RIGHT_THUMB.v,LEFT_HIP.x,LEFT_HIP.y,LEFT_HIP.z,LEFT_HIP.v,RIGHT_HIP.x,RIGHT_HIP.y,RIGHT_HIP.z,RIGHT_HIP.v,LEFT_KNEE.x,LEFT_KNEE.y,LEFT_KNEE.z,LEFT_KNEE.v,RIGHT_KNEE.x,RIGHT_KNEE.y,RIGHT_KNEE.z,RIGHT_KNEE.v,LEFT_ANKLE.x,LEFT_ANKLE.y,LEFT_ANKLE.z,LEFT_ANKLE.v,RIGHT_ANKLE.x,RIGHT_ANKLE.y,RIGHT_ANKLE.z,RIGHT_ANKLE.v,LEFT_HEEL.x,LEFT_HEEL.y,LEFT_HEEL.z,LEFT_HEEL.v,RIGHT_HEEL.x,RIGHT_HEEL.y,RIGHT_HEEL.z,RIGHT_HEEL.v,LEFT_FOOT_INDEX.x,LEFT_FOOT_INDEX.y,LEFT_FOOT_INDEX.z,LEFT_FOOT_INDEX.v,RIGHT_FOOT_INDEX.x,RIGHT_FOOT_INDEX.y,RIGHT_FOOT_INDEX.z,RIGHT_FOOT_INDEX.v
0,,,,,,,,,,,,,,,,,,,,,,,,,,,,,,,,,,,,,,,,,,,,,,,,,,,,,,,,,,,,,,,,,,,,,,,,,,,,,,,,,,,,,,,,,,,,,,,,,,,,,,,,,,,,,,,,,,,,,,,,,,,,,,,,,,,,
1,,,,,,,,,,,,,,,,,,,,,,,,,,,,,,,,,,,,,,,,,,,,,,,,,,,,,,,,,,,,,,,,,,,,,,,,,,,,,,,,,,,,,,,,,,,,,,,,,,,,,,,,,,,,,,,,,,,,,,,,,,,,,,,,,,,,
2,,,,,,,,,,,,,,,,,,,,,,,,,,,,,,,,,,,,,,,,,,,,,,,,,,,,,,,,,,,,,,,,,,,,,,,,,,,,,,,,,,,,,,,,,,,,,,,,,,,,,,,,,,,,,,,,,,,,,,,,,,,,,,,,,,,,
3,,,,,,,,,,,,,,,,,,,,,,,,,,,,,,,,,,,,,,,,,,,,,,,,,,,,,,,,,,,,,,,,,,,,,,,,,,,,,,,,,,,,,,,,,,,,,,,,,,,,,,,,,,,,,,,,,,,,,,,,,,,,,,,,,,,,
4,,,,,,,,,,,,,,,,,,,,,,,,,,,,,,,,,,,,,,,,,,,,,,,,,,,,,,,,,,,,,,,,,,,,,,,,,,,,,,,,,,,,,,,,,,,,,,,,,,,,,,,,,,,,,,,,,,,,,,,,,,,,,,,,,,,,
5,,,,,,,,,,,,,,,,,,,,,,,,,,,,,,,,,,,,,,,,,,,,,,,,,,,,,,,,,,,,,,,,,,,,,,,,,,,,,,,,,,,,,,,,,,,,,,,,,,,,,,,,,,,,,,,,,,,,,,,,,,,,,,,,,,,,
6,,,,,,,,,,,,,,,,,,,,,,,,,,,,,,,,,,,,,,,,,,,,,,,,,,,,,,,,,,,,,,,,,,,,,,,,,,,,,,,,,,,,,,,,,,,,,,,,,,,,,,,,,,,,,,,,,,,,,,,,,,,,,,,,,,,,
7,,,,,,,,,,,,,,,,,,,,,,,,,,,,,,,,,,,,,,,,,,,,,,,,,,,,,,,,,,,,,,,,,,,,,,,,,,,,,,,,,,,,,,,,,,,,,,,,,,,,,,,,,,,,,,,,,,,,,,,,,,,,,,,,,,,,
8,,,,,,,,,,,,,,,,,,,,,,,,,,,,,,,,,,,,,,,,,,,,,,,,,,,,,,,,,,,,,,,,,,,,,,,,,,,,,,,,,,,,,,,,,,,,,,,,,,,,,,,,,,,,,,,,,,,,,,,,,,,,,,,,,,,,
9,,,,,,,,,,,,,,,,,,,,,,,,,,,,,,,,,,,,,,,,,,,,,,,,,,,,,,,,,,,,,,,,,,,,,,,,,,,,,,,,,,,,,,,,,,,,,,,,,,,,,,,,,,,,,,,,,,,,,,,,,,,,,,,,,,,,
10,,,,,,,,,,,,,,,,,,,,,,,,,,,,,,,,,,,,,,,,,,,,,,,,,,,,,,,,,,,,,,,,,,,,,,,,,,,,,,,,,,,,,,,,,,,,,,,,,,,,,,,,,,,,,,,,,,,,,,,,,,,,,,,,,,,,
11,,,,,,,,,,,,,,,,,,,,,,,,,,,,,,,,,,,,,,,,,,,,,,,,,,,,,,,,,,,,,,,,,,,,,,,,,,,,,,,,,,,,,,,,,,,,,,,,,,,,,,,,,,,,,,,,,,,,,,,,,,,,,,,,,,,,
12,,,,,,,,,,,,,,,,,,,,,,,,,,,,,,,,,,,,,,,,,,,,,,,,,,,,,,,,,,,,,,,,,,,,,,,,,,,,,,,,,,,,,,,,,,,,,,,,,,,,,,,,,,,,,,,,,,,,,,,,,,,,,,,,,,,,
13,,,,,,,,,,,,,,,,,,,,,,,,,,,,,,,,,,,,,,,,,,,,,,,,,,,,,,,,,,,,,,,,,,,,,,,,,,,,,,,,,,,,,,,,,,,,,,,,,,,,,,,,,,,,,,,,,,,,,,,,,,,,,,,,,,,,
14,,,,,,,,,,,,,,,,,,,,,,,,,,,,,,,,,,,,,,,,,,,,,,,,,,,,,,,,,,,,,,,,,,,,,,,,,,,,,,,,,,,,,,,,,,,,,,,,,,,,,,,,,,,,,,,,,,,,,,,,,,,,,,,,,,,,
15,,,,,,,,,,,,,,,,,,,,,,,,,,,,,,,,,,,,,,,,,,,,,,,,,,,,,,,,,,,,,,,,,,,,,,,,,,,,,,,,,,,,,,,,,,,,,,,,,,,,,,,,,,,,,,,,,,,,,,,,,,,,,,,,,,,,
16,,,,,,,,,,,,,,,,,,,,,,,,,,,,,,,,,,,,,,,,,,,,,,,,,,,,,,,,,,,,,,,,,,,,,,,,,,,,,,,,,,,,,,,,,,,,,,,,,,,,,,,,,,,,,,,,,,,,,,,,,,,,,,,,,,,,
17,,,,,,,,,,,,,,,,,,,,,,,,,,,,,,,,,,,,,,,,,,,,,,,,,,,,,,,,,,,,,,,,,,,,,,,,,,,,,,,,,,,,,,,,,,,,,,,,,,,,,,,,,,,,,,,,,,,,,,,,,,,,,,,,,,,,
18,,,,,,,,,,,,,,,,,,,,,,,,,,,,,,,,,,,,,,,,,,,,,,,,,,,,,,,,,,,,,,,,,,,,,,,,,,,,,,,,,,,,,,,,,,,,,,,,,,,,,,,,,,,,,,,,,,,,,,,,,,,,,,,,,,,,
19,,,,,,,,,,,,,,,,,,,,,,,,,,,,,,,,,,,,,,,,,,,,,,,,,,,,,,,,,,,,,,,,,,,,,,,,,,,,,,,,,,,,,,,,,,,,,,,,,,,,,,,,,,,,,,,,,,,,,,,,,,,,,,,,,,,,
20,,,,,,,,,,,,,,,,,,,,,,,,,,,,,,,,,,,,,,,,,,,,,,,,,,,,,,,,,,,,,,,,,,,,,,,,,,,,,,,,,,,,,,,,,,,,,,,,,,,,,,,,,,,,,,,,,,,,,,,,,,,,,,,,,,,,
21,,,,,,,,,,,,,,,,,,,,,,,,,,,,,,,,,,,,,,,,,,,,,,,,,,,,,,,,,,,,,,,,,,,,,,,,,,,,,,,,,,,,,,,,,,,,,,,,,,,,,,,,,,,,,,,,,,,,,,,,,,,,,,,,,,,,
22,,,,,,,,,,,,,,,,,,,,,,,,,,,,,,,,,,,,,,,,,,,,,,,,,,,,,,,,,,,,,,,,,,,,,,,,,,,,,,,,,,,,,,,,,,,,,,,,,,,,,,,,,,,,,,,,,,,,,,,,,,,,,,,,,,,,
23,,,,,,,,,,,,,,,,,,,,,,,,,,,,,,,,,,,,,,,,,,,,,,,,,,,,,,,,,,,,,,,,,,,,,,,,,,,,,,,,,,,,,,,,,,,,,,,,,,,,,,,,,,,,,,,,,,,,,,,,,,,,,,,,,,,,
24,,,,,,,,,,,,,,,,,,,,,,,,,,,,,,,,,,,,,,,,,,,,,,,,,,,,,,,,,,,,,,,,,,,,,,,,,,,,,,,,,,,,,,,,,,,,,,,,,,,,,,,,,,,,,,,,,,,,,,,,,,,,,,,,,,,,
25,,,,,,,,,,,,,,,,,,,,,,,,,,,,,,,,,,,,,,,,,,,,,,,,,,,,,,,,,,,,,,,,,,,,,,,,,,,,,,,,,,,,,,,,,,,,,,,,,,,,,,,,,,,,,,,,,,,,,,,,,,,,,,,,,,,,
26,,,,,,,,,,,,,,,,,,,,,,,,,,,,,,,,,,,,,,,,,,,,,,,,,,,,,,,,,,,,,,,,,,,,,,,,,,,,,,,,,,,,,,,,,,,,,,,,,,,,,,,,,,,,,,,,,,,,,,,,,,,,,,,,,,,,
27,,,,,,,,,,,,,,,,,,,,,,,,,,,,,,,,,,,,,,,,,,,,,,,,,,,,,,,,,,,,,,,,,,,,,,,,,,,,,,,,,,,,,,,,,,,,,,,,,,,,,,,,,,,,,,,,,,,,,,,,,,,,,,,,,,,,
28,,,,,,,,,,,,,,,,,,,,,,,,,,,,,,,,,,,,,,,,,,,,,,,,,,,,,,,,,,,,,,,,,,,,,,,,,,,,,,,,,,,,,,,,,,,,,,,,,,,,,,,,,,,,,,,,,,,,,,,,,,,,,,,,,,,,
29,,,,,,,,,,,,,,,,,,,,,,,,,,,,,,,,,,,,,,,,,,,,,,,,,,,,,,,,,,,,,,,,,,,,,,,,,,,,,,,,,,,,,,,,,,,,,,,,,,,,,,,,,,,,,,,,,,,,,,,,,,,,,,,,,,,,
30,,,,,,,,,,,,,,,,,,,,,,,,,,,,,,,,,,,,,,,,,,,,,,,,,,,,,,,,,,,,,,,,,,,,,,,,,,,,,,,,,,,,,,,,,,,,,,,,,,,,,,,,,,,,,,,,,,,,,,,,,,,,,,,,,,,,
31,,,,,,,,,,,,,,,,,,,,,,,,,,,,,,,,,,,,,,,,,,,,,,,,,,,,,,,,,,,,,,,,,,,,,,,,,,,,,,,,,,,,,,,,,,,,,,,,,,,,,,,,,,,,,,,,,,,,,,,,,,,,,,,,,,,,
32,,,,,,,,,,,,,,,,,,,,,,,,,,,,,,,,,,,,,,,,,,,,,,,,,,,,,,,,,,,,,,,,,,,,,,,,,,,,,,,,,,,,,,,,,,,,,,,,,,,,,,,,,,,,,,,,,,,,,,,,,,,,,,,,,,,,
33,,,,,,,,,,,,,,,,,,,,,,,,,,,,,,,,,,,,,,,,,,,,,,,,,,,,,,,,,,,,,,,,,,,,,,,,,,,,,,,,,,,,,,,,,,,,,,,,,,,,,,,,,,,,,,,,,,,,,,,,,,,,,,,,,,,,
34,,,,,,,,,,,,,,,,,,,,,,,,,,,,,,,,,,,,,,,,,,,,,,,,,,,,,,,,,,,,,,,,,,,,,,,,,,,,,,,,,,,,,,,,,,,,,,,,,,,,,,,,,,,,,,,,,,,,,,,,,,,,,,,,,,,,
35,,,,,,,,,,,,,,,,,,,,,,,,,,,,,,,,,,,,,,,,,,,,,,,,,,,,,,,,,,,,,,,,,,,,,,,,,,,,,,,,,,,,,,,,,,,,,,,,,,,,,,,,,,,,,,,,,,,,,,,,,,,,,,,,,,,,
36,,,,,,,,,,,,,,,,,,,,,,,,,,,,,,,,,,,,,,,,,,,,,,,,,,,,,,,,,,,,,,,,,,,,,,,,,,,,,,,,,,,,,,,,,,,,,,,,,,,,,,,,,,,,,,,,,,,,,,,,,,,,,,,,,,,,
37,,,,,,,,,,,,,,,,,,,,,,,,,,,,,,,,,,,,,,,,,,,,,,,,,,,,,,,,,,,,,,,,,,,,,,,,,,,,,,,,,,,,,,,,,,,,,,,,,,,,,,,,,,,,,,,,,,,,,,,,,,,,,,,,,,,,
38,,,,,,,,,,,,,,,,,,,,,,,,,,,,,,,,,,,,,,,,,,,,,,,,,,,,,,,,,,,,,,,,,,,,,,,,,,,,,,,,,,,,,,,,,,,,,,,,,,,,,,,,,,,,,,,,,,,,,,,,,,,,,,,,,,,,
39,,,,,,,,,,,,,,,,,,,,,,,,,,,,,,,,,,,,,,,,,,,,,,,,,,,,,,,,,,,,,,,,,,,,,,,,,,,,,,,,,,,,,,,,,,,,,,,,,,,,,,,,,,,,,,,,,,,,,,,,,,,,,,,,,,,,
40,,,,,,,,,,,,,,,,,,,,,,,,,,,,,,,,,,,,,,,,,,,,,,,,,,,,,,,,,,,,,,,,,,,,,,,,,,,,,,,,,,,,,,,,,,,,,,,,,,,,,,,,,,,,,,,,,,,,,,,,,,,,,,,,,,,,
41,,,,,,,,,,,,,,,,,,,,,,,,,,,,,,,,,,,,,,,,,,,,,,,,,,,,,,,,,,,,,,,,,,,,,,,,,,,,,,,,,,,,,,,,,,,,,,,,,,,,,,,,,,,,,,,,,,,,,,,,,,,,,,,,,,,,
42,,,,,,,,,,,,,,,,,,,,,,,,,,,,,,,,,,,,,,,,,,,,,,,,,,,,,,,,,,,,,,,,,,,,,,,,,,,,,,,,,,,,,,,,,,,,,,,,,,,,,,,,,,,,,,,,,,,,,,,,,,,,,,,,,,,,
43,,,,,,,,,,,,,,,,,,,,,,,,,,,,,,,,,,,,,,,,,,,,,,,,,,,,,,,,,,,,,,,,,,,,,,,,,,,,,,,,,,,,,,,,,,,,,,,,,,,,,,,,,,,,,,,,,,,,,,,,,,,,,,,,,,,,
44,,,,,,,,,,,,,,,,,,,,,,,,,,,,,,,,,,,,,,,,,,,,,,,,,,,,,,,,,,,,,,,,,,,,,,,,,,,,,,,,,,,,,,,,,,,,,,,,,,,,,,,,,,,,,,,,,,,,,,,,,,,,,,,,,,,,
45,,,,,,,,,,,,,,,,,,,,,,,,,,,,,,,,,,,,,,,,,,,,,,,,,,,,,,,,,,,,,,,,,,,,,,,,,,,,,,,,,,,,,,,,,,,,,,,,,,,,,,,,,,,,,,,,,,,,,,,,,,,,,,,,,,,,
46,,,,,,,,,,,,,,,,,,,,,,,,,,,,,,,,,,,,,,,,,,,,,,,,,,,,,,,,,,,,,,,,,,,,,,,,,,,,,,,,,,,,,,,,,,,,,,,,,,,,,,,,,,,,,,,,,,,,,,,,,,,,,,,,,,,,
47,,,,,,,,,,,,,,,,,,,,,,,,,,,,,,,,,,,,,,,,,,,,,,,,,,,,,,,,,,,,,,,,,,,,,,,,,,,,,,,,,,,,,,,,,,,,,,,,,,,,,,,,,,,,,,,,,,,,,,,,,,,,,,,,,,,,
48,,,,,,,,,,,,,,,,,,,,,,,,,,,,,,,,,,,,,,,,,,,,,,,,,,,,,,,,,,,,,,,,,,,,,,,,,,,,,,,,,,,,,,,,,,,,,,,,,,,,,,,,,,,,,,,,,,,,,,,,,,,,,,,,,,,,
49,,,,,,,,,,,,,,,,,,,,,,,,,,,,,,,,,,,,,,,,,,,,,,,,,,,,,,,,,,,,,,,,,,,,,,,,,,,,,,,,,,,,,,,,,,,,,,,,,,,,,,,,,,,,,,,,,,,,,,,,,,,,,,,,,,,,
50,,,,,,,,,,,,,,,,,,,,,,,,,,,,,,,,,,,,,,,,,,,,,,,,,,,,,,,,,,,,,,,,,,,,,,,,,,,,,,,,,,,,,,,,,,,,,,,,,,,,,,,,,,,,,,,,,,,,,,,,,,,,,,,,,,,,
51,,,,,,,,,,,,,,,,,,,,,,,,,,,,,,,,,,,,,,,,,,,,,,,,,,,,,,,,,,,,,,,,,,,,,,,,,,,,,,,,,,,,,,,,,,,,,,,,,,,,,,,,,,,,,,,,,,,,,,,,,,,,,,,,,,,,
52,-0.3800922554140129,0.710906974427007,-0.26231365037137533,0.9894373765028511,-0.34915040906562184,0.6906241631117951,-0.32801078464060685,1.0401581983498707,-0.351047476207617,0.7766660003260353,-0.34192676266878136,1.035915827750245,-0.3988542893204594,0.7294107006496381,-0.34489511991699573,1.0018544323062106,-0.33051048159471913,0.7426932353281612,-0.30965989549873724,0.9896557224360462,-0.30907812839495485,0.7256937082512788,-0.3130477652826891,0.988336318784277,-0.3145817128398624,0.774062772904963,-0.24533810488348473,1.018665153753316,-0.3782616811270899,0.7541910249902074,-0.39903530614620325,0.9893403139405917,-0.3171986263902152,0.7599746022869878,-0.2676992946859246,0.9758913433415393,-0.360068719040996,0.7298144541899514,-0.33429524566893404,0.9784412998426422,-0.31816941567869683,0.7462112780831747,-0.30674625198315153,0.9820757746932809,-0.40450408418747097,0.6929806498035873,-0.42327706306952084,1.0160072148641497,-0.30344056895550625,0.717840239268275,-0.1289839251654089,0.9715341157034226,-0.45459559445922154,0.6902113186194463,-0.42585990823970543,0.0494380459729704,-0.2668826497982548,0.6133148857064245,-0.06485745973875079,0.6241281211167657,-0.36028423308850765,0.6517599200825621,-0.3318022189551621,0.1394083843799616,-0.20267258597964719,0.7461822545413558,-0.03169672352128604,0.2559218557467105,-0.3429057671376441,0.7036738324098497,-0.20522289683041978,0.18306330237435953,-0.22413700709436127,0.7390448287399236,-0.014253449455397624,0.31607520775553194,-0.3424493982127327,0.752229760188962,-0.23407600113643273,0.2011508952136574,-0.297481038292579,0.7536354875695573,-0.03493467936237841,0.3729136039728215,-0.33433354066898247,0.6826717714416672,-0.2555282141428103,0.09679319608653311,-0.24962381100711103,0.7660327372590578,-0.0961851607163281,0.29091628183627,-0.3817505863387519,0.5240363525509812,-0.34024998359644115,0.9784920223162262,-0.23529964093969374,0.5169409823864181,-0.14398561728910192,0.9633793447442149,-0.27325394729824215,0.36716540059793845,-0.2221452959426314,0.2652507862573172,-0.27292091552950637,0.3321324159152076,-0.04356118422104058,0.9389681228299517,-0.3051683411857831,0.19559112054091957,-0.08529263542162328,0.30293479054988826,-0.14700375718340708,0.21710470590932646,0.06094705740570557,0.818708811809395,-0.26773476505761856,0.12196522022285186,-0.07137502575379437,0.31001744572305573,-0.19327643102240627,0.14492164011504644,0.06801867374504773,0.8319698331988709,-0.2316979891934366,0.16744750447150017,0.009614965534975574,0.2176711575523009,-0.15000049989747424,0.11363729431736344,0.14666674436131727,0.5924040125259646
53,-0.4556856448341053,0.7105879703681691,-0.38742654704822616,0.9894373765028511,-0.4167359588215324,0.6917756056395661,-0.4383140266740615,1.0401581983498707,-0.4188507036731184,0.7782558350161293,-0.4523457778843734,1.03591451644806,-0.4668755657459386,0.7313123868411969,-0.4554852491498342,1.0018544323062106,-0.40318104233416907,0.7425995368265743,-0.4305859359648557,0.9896557224360462,-0.3810733868754889,0.7252511437638215,-0.43354752488857423,0.9883357227378293,-0.3858155274632671,0.773285230313868,-0.3652655674124105,1.018665153753316,-0.4190668684578815,0.7581801254464452,-0.4620154325069294,0.9893388834291174,-0.3807839911120297,0.7617800269772343,-0.3770396200520024,0.9758897936207751,-0.4264405661438548,0.7317532144705605,-0.4439230046047392,0.9784134048688875,-0.3906358479514068,0.7474993940614156,-0.4293019678371155,0.9820478797195261,-0.4282596666754824,0.7080174711689438,-0.4564331393269657,1.0158509910901934,-0.35825220919723205,0.7212796060857494,-0.23232132870156258,0.9713752097204514,-0.49784330717651276,0.6890821086241765,-0.4894151685894955,0.43336110716500614,-0.3327705464823312,0.6297265478081701,-0.18699102729322126,0.8807775556832635,-0.41198260010008164,0.6385069465260436,-0.42914094606051123,0.342179772374251,-0.2278775627567887,0.7780839717273299,-0.09759028935671117,0.7134443374266269,-0.3995376543316993,0.6889113116197496,-0.3139087856328687,0.3792647609477009,-0.23688434360183594,0.7740191653640691,-0.06469068840965542,0.7503872235273978,-0.38993291470023517,0.7397635083388339,-0.3324781204645327,0.4103451381679115,-0.3174508158724826,0.7916170573365556,-0.09821241576478137,0.8083187391275456,-0.3803909558953121,0.6717263321029832,-0.3497760700021697,0.29990651357615716,-0.2728958911662562,0.8036414799729861,-0.16312388593413044,0.6876269756724822,-0.3698693645371205,0.5467222379803636,-0.31220348984697033,0.9785121686861604,-0.2519844221664514,0.5321141195743758,-0.17530248493105663,0.9634108159966566,-0.2733445814312883,0.38517428836573014,-0.2180581592714471,0.9643115839486625,-0.28885161455402963,0.34438513412542787,-0.07893670014407206,1.0091772087712665,-0.30550606772294886,0.21094691616279146,-0.08491542625405606,0.8927311250549694,-0.17646844772147507,0.22725235197885313,-0.001073111229255191,0.9412730083960039,-0.2678898856626137,0.13933489287891115,-0.07172657368247659,0.7865786344208707,-0.2224819228675847,0.16034975107219204,0.004971292714527675,0.8342914937175171,-0.24698823898587058,0.18140417791481755,-0.009398372307126195,0.6773069964185348,-0.1880520050491716,0.11516573622333884,0.06709818360748433,0.7391193555244693
54,-0.40644022303031696,0.718915573708318,-0.28937493629685557,0.9894373765028511,-0.3586754017816681,0.7004125570860993,-0.32682826020190797,1.0401581983498707,-0.3601737583367509,0.7866208700731971,-0.34047310622623744,1.035913681983033,-0.40761794180577016,0.7395008729404401,-0.34327007538463833,1.0018544323062106,-0.3653609369576448,0.7522877949976559,-0.35404312272525895,0.9896557224360462,-0.3436080981387637,0.7353965695603303,-0.357279992325872,0.9883333385520381,-0.3487540878189076,0.7838932477584786,-0.28938140069191226,1.018665153753316,-0.36933346844525106,0.7674814898682897,-0.36971310784500544,0.9893380489640904,-0.3477183416357579,0.7737277780224614,-0.3096293053542737,0.9758853828770618,-0.3764854798262692,0.740180715195353,-0.34597400083546637,0.9784262794721588,-0.350786522222649,0.7567767974160604,-0.3477842370779413,0.982066714787275,-0.37755326579681475,0.7139628556713546,-0.36604805248860206,1.016167491753951,-0.3484495069784201,0.7288399188337047,-0.20298571236347962,0.9717315262869188,-0.4256586589293214,0.6866009460761113,-0.34263743105395505,0.5804879010263952,-0.3159247287272949,0.6171009727425573,-0.1191204721989353,0.8652315914422357,-0.32689963840888775,0.6485468124966551,-0.2580681922541016,0.45880451512060416,-0.13154683133748202,0.7147081410770003,0.1038091375728836,0.7416147442450168,-0.3076344413116672,0.7068027782373338,-0.13169430049776396,0.41735692713308,-0.13570141408076225,0.6995327309043828,0.1454044790674291,0.7275408227896354,-0.3008754806323912,0.7511378627013217,-0.15685396249882375,0.43783748254733657,-0.21159931561893958,0.718854568017708,0.11418499869024615,0.785744373988538,-0.29572695805306903,0.6805710653412034,-0.18165095248337856,0.2848869775577856,-0.17113513153325086,0.7338297185937441,0.04225528245434437,0.6556700645854461,-0.37583510493121625,0.5414342331051805,-0.31861808837429045,0.9785128839418976,-0.2574403441377145,0.5325004768818099,-0.17640118521036824,0.9634309623665905,-0.2913421552216308,0.38255233964670554,-0.24413012238563783,0.8813277921205069,-0.29839001866163317,0.3463241924292609,-0.09015002393895116,1.0117151745458024,-0.35656229365152287,0.21358696979266667,-0.16917805963837626,0.6935199448448559,-0.1907180064255844,0.23059174690587791,-0.022111281254457306,0.9633098588484269,-0.3223575932464784,0.14119263554610936,-0.16236941308006095,0.5580724269547452,-0.23839676895481562,0.16300668771769994,-0.018232783913644274,0.8603456376231566,-0.2882236203626896,0.18626060045834325,-0.08170216409534128,0.4811266825929274,-0.19019822733594804,0.12037039890396475,0.06545734025546238,0.8153393910774478
55,-0.3783265403346778,0.7196165839355214,-0.23654507178745163,0.9894373765028511,-0.3360062835634571,0.7009420251456391,-0.28312648696076803,1.0401581983498707,-0.33809420267295826,0.7873070983484962,-0.29716688804673347,1.035908675192872,-0.3860786409320368,0.7402909325069379,-0.300297664243053,1.0018544323062106,-0.3266329304582683,0.7524516481661434,-0.28303314729132895,0.9896557224360462,-0.3043932712588962,0.7356912549240998,-0.28595099953605824,0.9883295238547726,-0.309042992023068,0.7842270337692208,-0.21769064501396346,1.018665153753316,-0.33932269759097283,0.7678658802224462,-0.31043357734441607,0.989323028593607,-0.3124646891666053,0.7736672793080144,-0.2464881260488339,0.9758676206929187,-0.3490892365110855,0.7417764507452798,-0.2934097134173236,0.9782552737462982,-0.31740697020554787,0.7577325578950338,-0.28634242097426593,0.9819252133605783,-0.3506578271813756,0.7127113369450058,-0.3072424413493779,1.0157718957265764,-0.3201150195228343,0.7246130554494579,-0.15589547604714799,0.9713446325376819,-0.4093928918649815,0.7038624512030645,-0.30898254661796964,0.6345214188639197,-0.3091113305097899,0.620441515058994,-0.12190429633369804,0.9169969737321222,-0.33062587428301243,0.6776757812123229,-0.26190973644676296,0.6130340666743304,-0.18597864098935246,0.7666880404834334,0.004092169595058755,0.8445183487524631,-0.3159295535924998,0.73854737757968,-0.14337024742055318,0.6063696334128347,-0.19889857299278144,0.7619736030967657,0.030624601460538595,0.8452888448691032,-0.3069033365270314,0.7827746968459139,-0.16711516704722157,0.619871259784275,-0.2727075455084685,0.7795170760285722,0.006904210542505097,0.9042522956842473,-0.2994747037108214,0.7107356647598435,-0.18643038082622612,0.4868355010792089,-0.226984216760698,0.7912959275285281,-0.0564036920855471,0.7890227614810454,-0.37947847981253363,0.5351185249447801,-0.32237108273308124,0.9785492427752106,-0.25282390576619956,0.5234399748295028,-0.1720071644517298,0.9634475324578381,-0.31019098071470735,0.38119439682711015,-0.2735277907501286,0.9227724513536002,-0.3069902772496097,0.3446487654692695,-0.10590479405095198,1.0148820289273637,-0.40037947751348296,0.21257513624412086,-0.23992293495349756,0.8683202812057873,-0.21388485774056906,0.23335798356874266,-0.06043462356129344,0.9979694829481586,-0.3684676156295968,0.14205281997718536,-0.23744640948910956,0.7304022699990262,-0.26292675617498984,0.16946635599639404,-0.05833927781244859,0.9009582160151854,-0.33819112314002026,0.18677479482765935,-0.16546839297921362,0.7063647971883407,-0.21724763287814913,0.11991975798714036,0.021523960993754414,0.9017803119072207
56,-0.35828818062987333,0.7101272264640553,-0.2105946386634384,0.9894373765028511,-0.31868344562721734,0.6901123976317536,-0.2602069866183873,1.0401581983498707,-0.3217374047508053,0.7765705136851051,-0.27486189296731095,1.0359154701223765,-0.37068496442707555,0.7296725438541364,-0.2785984634750071,1.0018544323062106,-0.299273417097632,0.7412858504557247,-0.24420810225923767,0.9896557224360462,-0.2765928819823081,0.7242546733124665,-0.24682787912532012,0.9883353651099606,-0.28090846326826946,0.7725660406700081,-0.17841875898824816,1.018665153753316,-0.3292725452236227,0.7559161622239415,-0.2951499335092967,0.9893395986848545,-0.2649807879972586,0.7599827085186772,-0.1702674889575246,0.9758880054814318,-0.33300667598910544,0.730716034046824,-0.27167187479326604,0.9784231800306307,-0.2894424757969398,0.7465284940026693,-0.24578801460004387,0.9820435881851021,-0.3553675810051208,0.6958149698719467,-0.31168849987331604,1.0161314905485064,-0.2625476192629445,0.7096652238187511,-0.0601533945982543,0.9708843654707262,-0.4231281979110141,0.6810544954611821,-0.3219723458413296,0.5663838327471289,-0.22516030915395197,0.5972586461014745,0.018693764035048865,0.9038341820031488,-0.3263277213499439,0.6658903336148192,-0.23593507327334737,0.7815666170092608,-0.09925146497802134,0.7420638120059554,0.1645104957088516,0.7968892903914097,-0.30952939829124276,0.7300096678666979,-0.11252268508393165,0.7734340617423024,-0.10887675131973068,0.7387069896133367,0.20192862599326844,0.7893830259298942,-0.2957184786306199,0.7756335835646639,-0.12995100301369034,0.7981738458629188,-0.18540151506710176,0.7534689521920549,0.17536146363711755,0.8494396259302189,-0.29113494577273286,0.7026287178146531,-0.15550003822589908,0.6615414236828161,-0.14559513357799228,0.7655892787019289,0.1002831800413454,0.7254365860393035,-0.38770041761330193,0.507131670629976,-0.33503180501206525,0.9785590179369538,-0.24164426174711578,0.4981177461593825,-0.15705605919086935,0.9634543273873426,-0.33532729235413233,0.35164378485430137,-0.3187018916534245,0.744254752111962,-0.2989878736749887,0.3134078849799201,-0.09353137263873033,1.0162810691495316,-0.43546799111299683,0.19231214982253575,-0.308029196643087,0.7201463529449841,-0.21486453121587865,0.20897475157125273,-0.06175676962775064,1.011633788158272,-0.4047290069022716,0.12317737008132656,-0.30702404833838215,0.584330597559451,-0.26528118199017464,0.14812808688189974,-0.06114487925720734,0.9247224090731995,-0.36226294942310056,0.17162129737015505,-0.21732806473253344,0.6092055307164779,-0.20590866395524773,0.09483706548321125,0.0394965790096199,0.9442123816856631
57,-0.37005775754729364,0.7037489930312856,-0.22059257983633526,0.9894373765028511,-0.32479853916479795,0.682176933249582,-0.25884831430773836,1.0401581983498707,-0.32859903217357533,0.767822876413224,-0.27400097783069305,1.03591451644806,-0.3782758354918269,0.720119588226695,-0.27823190321715324,1.0018544323062106,-0.30654611567888973,0.7340881723665829,-0.24768697054432018,0.9896557224360462,-0.2829624976313825,0.71681941110925,-0.24976255732704178,0.9883347690635129,-0.2862681928671728,0.7648462258926338,-0.18067029064135381,1.018665153753316,-0.3131828708533164,0.7407788474274938,-0.25238503263689743,0.9893374529176425,-0.25709097787656016,0.7477920685459905,-0.15148850286100812,0.9758872902256946,-0.338640902673707,0.7217587672392678,-0.2703366838988909,0.9782276171911224,-0.2966586808689123,0.7384268518708639,-0.2503953425639198,0.9817144513366525,-0.3513600968366617,0.6762872961506332,-0.28891270804484237,1.0149925053914934,-0.25563913910463476,0.6943680493650157,-0.054508796845443096,0.9701359695509263,-0.4831327398716386,0.6872040854765935,-0.42417781643510555,0.2901219368521246,-0.25750746307292005,0.6372199841446874,-0.08249480164170792,0.9215038597375238,-0.4952389260219229,0.6845640515904357,-0.5340400003172634,0.46470975589475877,-0.1906299326246855,0.8010699069385115,-0.06402104771684852,0.8760980816473605,-0.4946720818754281,0.7497360038690477,-0.43658901712227216,0.5223078617815937,-0.19606211036212493,0.7970189288528386,-0.026077469385999877,0.8592333515143058,-0.47616576847797554,0.7996189694594393,-0.44170229406672523,0.5277425061221657,-0.27314141900317146,0.8154373383653032,-0.05450310473287317,0.9020470430368474,-0.46251940110458195,0.7262778739082505,-0.45406643651581347,0.40288700807536365,-0.2348204580701118,0.8273123321572817,-0.1280284731043279,0.780778366225003,-0.38679117660357426,0.4944308148980119,-0.32741887738626857,0.9785182483599274,-0.2463199739394304,0.48835930351907797,-0.16753254442597426,0.9634028289742566,-0.3275078200721233,0.3441005786393966,-0.3028237012282498,0.21201813132815608,-0.31509305738788845,0.3135393430239722,-0.1238117952723436,0.9491441258092301,-0.4095173954996503,0.17933435600978395,-0.26410627858838465,0.30954923718990296,-0.23238350922141246,0.20710189912660393,-0.09490345743816689,0.7847011433142168,-0.3751828554169732,0.10697904790439336,-0.260252257192633,0.2859102577366818,-0.2816706215937091,0.14207434113528714,-0.09396249505095815,0.7571681497729675,-0.35266162820865693,0.16370843059893386,-0.19497965842911968,0.25061427219062943,-0.23934132637886446,0.09972862496483206,-0.018609450381621588,0.4944084332832583
58,-0.3977624416240086,0.7031981865089162,-0.28368200384549275,0.9894373765028511,-0.3438295910159904,0.6797960853186737,-0.30657532053173625,1.0401581983498707,-0.34777667853239935,0.7649442104891517,-0.3219449647489516,1.0358369112005625,-0.3974781594637779,0.7167662309116315,-0.32617080840049273,1.0018544323062106,-0.32676179933478094,0.7326446670794124,-0.29784828865286117,0.9896557224360462,-0.30323430122906037,0.7155103739006928,-0.30004427032278586,0.9882633626990719,-0.3067215409221033,0.7636965118995613,-0.23125556523957286,1.018665153753316,-0.3569872762605891,0.7368888098908727,-0.3435542446232508,0.9892466154390049,-0.29100301815006097,0.7464700971295171,-0.22555376079590872,0.9757397091252307,-0.36049202473705594,0.7219014607588601,-0.3217940800893187,0.9755945224035247,-0.3187079005651478,0.7398143883965902,-0.3020259368601659,0.979558193707258,-0.384750589124895,0.6747407940372909,-0.3586187669737694,1.013440758069411,-0.3016107852972133,0.6981325595197398,-0.1450131812403681,0.9674594825819323,-0.5354667777005823,0.6791872011496587,-0.5221264410286492,0.6644596994463476,-0.3282751459306016,0.6399216838784215,-0.22845766527568856,0.9552255451470696,-0.5510652304924173,0.6831642961125304,-0.6321063937686062,0.6822470993968035,-0.27222316638764454,0.8067902839068953,-0.23903048728172885,0.8568630667318943,-0.5536194054374621,0.7507203149728685,-0.5375971528099235,0.7091549227004018,-0.27990605023667,0.80429236444549,-0.20929484009650356,0.8457823117231986,-0.5421629840899859,0.8018692832182894,-0.555588634640851,0.718898416614109,-0.35913396030462486,0.824919066442238,-0.23933799626187965,0.8963332821840336,-0.5224612410320862,0.7281947592842271,-0.5577867671917608,0.6019269441410375,-0.31663041117355545,0.8365915832559145,-0.3040923409543185,0.7743512569835174,-0.3776013249839856,0.5150617407917955,-0.31194693645835864,0.9784659154818146,-0.2546553379022333,0.5107067537754256,-0.1824236222546273,0.9632499430604078,-0.3047543548778782,0.3658666153882827,-0.2615710788018402,0.6724799117570426,-0.30686007755848776,0.33382474079199287,-0.10539224780043584,0.9560154684682269,-0.3352453432448549,0.19603538376075286,-0.1274238363425525,0.40977331489147156,-0.1990861545748276,0.22535667095525536,-0.030513963333031753,0.7221747384565813,-0.29269111497236616,0.12460660005607335,-0.11036541835905195,0.5122005731263151,-0.24684476388898016,0.15833879466559875,-0.0263069927907493,0.8224675415194885,-0.2770759454532194,0.16821358061905645,-0.04846862091159316,0.21824865205436839,-0.21441467256610205,0.11331937804329276,0.03230385221951932,0.3312535034069307
59,-0.4578076038601494,0.7425511399429067,-0.37276872145865214,0.9894373765028511,-0.41607028356652215,0.7224804615584504,-0.4197010356006713,1.0401581983498707,-0.4185391710869999,0.8083345441416481,-0.4339980057083319,1.0359093904486092,-0.4668498223698079,0.7608719991153668,-0.43730411748928005,1.0018544323062106,-0.4013089761491758,0.7742315429949398,-0.4113991127334472,0.9896557224360462,-0.3785978599030195,0.7569036539299897,-0.41402947185297007,0.9883309543662473,-0.3827887224202356,0.8049639665237374,-0.3455229736609068,1.018665153753316,-0.4199077792840225,0.7839462597085302,-0.4479139783157123,0.9893328037553502,-0.3726227093337742,0.789297941749268,-0.3519999345077634,0.9758684551579455,-0.4272515367982199,0.7613696895758462,-0.42771950997560887,0.9783474821317659,-0.3899284844933726,0.7777282472871236,-0.41192884621564685,0.981963479542524,-0.43034294521704786,0.7152369645580734,-0.44709174269924434,1.0158070028623494,-0.34349464157762527,0.7345071880635936,-0.2008274860985023,0.9710014289930651,-0.5066762937250867,0.6834451781584783,-0.48052555135397645,0.2987477422300848,-0.2711109489413598,0.6146658845849035,-0.09330729545622198,0.8400842726022089,-0.4237915835508267,0.6266136145214964,-0.398910964008259,0.5147026450606371,-0.10074858642986409,0.7597939884547774,0.0928100908868595,0.5677835794081333,-0.4087069304243842,0.6722875165872484,-0.27270179662464455,0.5017175862555471,-0.09617081450206225,0.7519549563796941,0.14333007856892296,0.581827970311608,-0.4007439365210949,0.726914237041379,-0.29479161080127775,0.5228343914504585,-0.18193757314351974,0.7743416047227251,0.10300293369021551,0.6311097790712407,-0.3953047849892327,0.6608355502235581,-0.32221037807726316,0.3605757867142034,-0.1447304099208326,0.7874145922700442,0.027777787810800356,0.4443660854270445,-0.382659060514849,0.5486710714459397,-0.32780748242781393,0.9785528190538972,-0.24959353618880142,0.5424840164631087,-0.16668620123639666,0.9634463403649426,-0.26191856504978256,0.39567677578676597,-0.1864079464001049,0.7885570368295218,-0.2796745748901038,0.3542491067893073,-0.055518811047802735,0.9979981788297075,-0.3166916517225914,0.21433512729388737,-0.08785385409730029,0.6481652805191418,-0.160124813603039,0.23751540754182615,0.04259278139629357,0.8262991652983172,-0.2827464880379437,0.14152891005077087,-0.08079867896699464,0.591004946867465,-0.2076028073118657,0.16941733117606633,0.048583631814235556,0.6678458212054627,-0.23771222187598814,0.18078649498101015,0.023071890359087667,0.4978539512887587,-0.14786111446369182,0.12042244866001486,0.1474137647709393,0.6320474789985904
60,,,,,,,,,,,,,,,,,,,,,,,,,,,,,,,,,,,,,,,,,,,,,,,,,,,,,,,,,,,,,,,,,,,,,,,,,,,,,,,,,,,,,,,,,,,,,,,,,,,,,,,,,,,,,,,,,,,,,,,,,,,,,,,,,,,,
61,,,,,,,,,,,,,,,,,,,,,,,,,,,,,,,,,,,,,,,,,,,,,,,,,,,,,,,,,,,,,,,,,,,,,,,,,,,,,,,,,,,,,,,,,,,,,,,,,,,,,,,,,,,,,,,,,,,,,,,,,,,,,,,,,,,,
62,,,,,,,,,,,,,,,,,,,,,,,,,,,,,,,,,,,,,,,,,,,,,,,,,,,,,,,,,,,,,,,,,,,,,,,,,,,,,,,,,,,,,,,,,,,,,,,,,,,,,,,,,,,,,,,,,,,,,,,,,,,,,,,,,,,,
63,,,,,,,,,,,,,,,,,,,,,,,,,,,,,,,,,,,,,,,,,,,,,,,,,,,,,,,,,,,,,,,,,,,,,,,,,,,,,,,,,,,,,,,,,,,,,,,,,,,,,,,,,,,,,,,,,,,,,,,,,,,,,,,,,,,,
64,,,,,,,,,,,,,,,,,,,,,,,,,,,,,,,,,,,,,,,,,,,,,,,,,,,,,,,,,,,,,,,,,,,,,,,,,,,,,,,,,,,,,,,,,,,,,,,,,,,,,,,,,,,,,,,,,,,,,,,,,,,,,,,,,,,,
65,,,,,,,,,,,,,,,,,,,,,,,,,,,,,,,,,,,,,,,,,,,,,,,,,,,,,,,,,,,,,,,,,,,,,,,,,,,,,,,,,,,,,,,,,,,,,,,,,,,,,,,,,,,,,,,,,,,,,,,,,,,,,,,,,,,,
66,-0.19402468621689745,0.6552340308349355,0.163461617564569,0.9894373765028511,-0.15196522387434475,0.6252027606574189,0.12210713743526218,1.0401581983498707,-0.15501840360092908,0.7110066561297157,0.10744032034503473,1.0359157085409554,-0.20399174856763347,0.6635072754329633,0.1036107829273689,1.0018544323062106,-0.13971714267270527,0.6765773195528622,0.1237169096685786,0.9896557224360462,-0.11611513892937558,0.6586054619057587,0.1216419194371369,0.9883359611564083,-0.11940745175522843,0.705998738919825,0.1906897215101912,1.018665153753316,-0.15825018158731974,0.685812397689945,0.08690446104264425,0.9893404331498814,-0.12381240760973698,0.6894574795414738,0.15285689097013921,0.9758889591557482,-0.16473514449622853,0.6807869516531777,0.10158826415057554,0.9784615654218658,-0.1291358069059006,0.6954712148927145,0.11114180113744616,0.9820912719009225,-0.21980238686941306,0.6493707922443832,-0.025510659228760085,1.0160144866308125,-0.145395458627063,0.6810664384183605,0.17782619311031939,0.9717852300718615,-0.35362546058852146,0.6962456928565068,-0.19138338417925022,0.39923303728738163,-0.14886065304452112,0.6718648262925145,0.12676331272913594,0.8950483977586116,-0.3405243724881048,0.6462625836949278,-0.257653257665601,0.20044362258634818,-0.047827731447280475,0.7990992581729476,0.19609237085721457,0.5693585129370334,-0.33899541065927946,0.6978991556100755,-0.1602585261562497,0.19685212168740893,-0.041564962526935666,0.7862720325859014,0.25269157586699126,0.5576480944609306,-0.3228217254759478,0.7392152648161898,-0.1653548406268492,0.2071596394534645,-0.11326407932011592,0.7999528861176836,0.2360776137087717,0.5928533126825383,-0.31140091914141416,0.6726943711387803,-0.1803635996257918,0.1230649118467641,-0.08926038555789936,0.8138029394189394,0.13811531535972416,0.4529358028342711,-0.382663781567612,0.5239871191143968,-0.3190299438192676,0.9785330303118316,-0.2539281522694122,0.5303142977207381,-0.17800373116592783,0.9633876893944837,-0.3320893812171935,0.4722586711381759,-0.31472640987220024,0.9428021749978566,-0.3593175211700364,0.4527798761374518,-0.18825219868037094,0.9792734392781633,-0.46111504289945054,0.40070521694404143,-0.3634884099269859,0.953383738694801,-0.35414376408134063,0.4787516323123721,-0.2930797546962428,0.9798721418875201,-0.4331913689142237,0.34297107721366604,-0.3708282376895036,0.8059013277688016,-0.4084011821317243,0.4344191646149396,-0.30454522651109817,0.8200171945727722,-0.3884804000024091,0.3951650456296995,-0.26136408110182136,0.9105618463292708,-0.36243891447443444,0.39870798184978834,-0.19992715241706444,0.9293078826317082
67,,,,,,,,,,,,,,,,,,,,,,,,,,,,,,,,,,,,,,,,,,,,,,,,,,,,,,,,,,,,,,,,,,,,,,,,,,,,,,,,,,,,,,,,,,,,,,,,,,,,,,,,,,,,,,,,,,,,,,,,,,,,,,,,,,,,
68,,,,,,,,,,,,,,,,,,,,,,,,,,,,,,,,,,,,,,,,,,,,,,,,,,,,,,,,,,,,,,,,,,,,,,,,,,,,,,,,,,,,,,,,,,,,,,,,,,,,,,,,,,,,,,,,,,,,,,,,,,,,,,,,,,,,
69,,,,,,,,,,,,,,,,,,,,,,,,,,,,,,,,,,,,,,,,,,,,,,,,,,,,,,,,,,,,,,,,,,,,,,,,,,,,,,,,,,,,,,,,,,,,,,,,,,,,,,,,,,,,,,,,,,,,,,,,,,,,,,,,,,,,
70,,,,,,,,,,,,,,,,,,,,,,,,,,,,,,,,,,,,,,,,,,,,,,,,,,,,,,,,,,,,,,,,,,,,,,,,,,,,,,,,,,,,,,,,,,,,,,,,,,,,,,,,,,,,,,,,,,,,,,,,,,,,,,,,,,,,
71,,,,,,,,,,,,,,,,,,,,,,,,,,,,,,,,,,,,,,,,,,,,,,,,,,,,,,,,,,,,,,,,,,,,,,,,,,,,,,,,,,,,,,,,,,,,,,,,,,,,,,,,,,,,,,,,,,,,,,,,,,,,,,,,,,,,
72,,,,,,,,,,,,,,,,,,,,,,,,,,,,,,,,,,,,,,,,,,,,,,,,,,,,,,,,,,,,,,,,,,,,,,,,,,,,,,,,,,,,,,,,,,,,,,,,,,,,,,,,,,,,,,,,,,,,,,,,,,,,,,,,,,,,
73,,,,,,,,,,,,,,,,,,,,,,,,,,,,,,,,,,,,,,,,,,,,,,,,,,,,,,,,,,,,,,,,,,,,,,,,,,,,,,,,,,,,,,,,,,,,,,,,,,,,,,,,,,,,,,,,,,,,,,,,,,,,,,,,,,,,
74,,,,,,,,,,,,,,,,,,,,,,,,,,,,,,,,,,,,,,,,,,,,,,,,,,,,,,,,,,,,,,,,,,,,,,,,,,,,,,,,,,,,,,,,,,,,,,,,,,,,,,,,,,,,,,,,,,,,,,,,,,,,,,,,,,,,
75,,,,,,,,,,,,,,,,,,,,,,,,,,,,,,,,,,,,,,,,,,,,,,,,,,,,,,,,,,,,,,,,,,,,,,,,,,,,,,,,,,,,,,,,,,,,,,,,,,,,,,,,,,,,,,,,,,,,,,,,,,,,,,,,,,,,
76,,,,,,,,,,,,,,,,,,,,,,,,,,,,,,,,,,,,,,,,,,,,,,,,,,,,,,,,,,,,,,,,,,,,,,,,,,,,,,,,,,,,,,,,,,,,,,,,,,,,,,,,,,,,,,,,,,,,,,,,,,,,,,,,,,,,
77,,,,,,,,,,,,,,,,,,,,,,,,,,,,,,,,,,,,,,,,,,,,,,,,,,,,,,,,,,,,,,,,,,,,,,,,,,,,,,,,,,,,,,,,,,,,,,,,,,,,,,,,,,,,,,,,,,,,,,,,,,,,,,,,,,,,
78,,,,,,,,,,,,,,,,,,,,,,,,,,,,,,,,,,,,,,,,,,,,,,,,,,,,,,,,,,,,,,,,,,,,,,,,,,,,,,,,,,,,,,,,,,,,,,,,,,,,,,,,,,,,,,,,,,,,,,,,,,,,,,,,,,,,
79,-0.3563732631612092,0.6351296225707753,-0.13076519168761405,0.9894373765028511,-0.3241676705893573,0.6048492049780976,-0.18847684771175527,1.0401581983498707,-0.32686442935558985,0.690216138799546,-0.20290645041223376,1.0359148740759285,-0.3754804588286679,0.6422703789180707,-0.20650232999102708,1.0018544323062106,-0.3058141572715352,0.6560705799364681,-0.17368514845629887,0.9896557224360462,-0.2832094103992188,0.6377477701409272,-0.1764163631102464,0.9883358419471188,-0.287573175394234,0.6847804390541024,-0.10814896623302066,1.018665153753316,-0.3454593496526194,0.6642551262093846,-0.2506755329707732,0.9893400755220128,-0.2821715461781103,0.6686985526730351,-0.12473249249827742,0.9758880054814318,-0.3292001235129996,0.6598179184119057,-0.19793185948620595,0.9784618038404451,-0.28507379270016825,0.6747858997605733,-0.17134415085497776,0.9820919871566597,-0.3706322843456258,0.6382859376415695,-0.30997726350869104,1.016304165204421,-0.24919468302284004,0.6554705946263988,0.0003734482904670308,0.971810025604088,-0.4094388495042367,0.7159855591132207,-0.339948376561756,0.7484506905619177,-0.2193865053312351,0.6319661327309606,0.014927093354843986,0.9678979098588312,-0.3006443502876527,0.6739639615635802,-0.25546345550609184,0.6340042324038531,-0.1423909884061155,0.7500422513370101,0.051659925404108464,0.8048175426115635,-0.29060639072191013,0.7307144331865221,-0.14833882556691522,0.551192958093163,-0.14273059706165567,0.7377744749458257,0.10218380051580042,0.7811389883017203,-0.27727988327383474,0.7702294688414584,-0.15051913704857253,0.5697139512057838,-0.22585450910371135,0.7502526855599748,0.06311782039386477,0.8160411169046452,-0.27182744490085514,0.7004974345314194,-0.17447032386550784,0.5053769563480688,-0.18919890376752263,0.7631765422860659,-0.016115846030977987,0.7207249580790984,-0.3994124204142194,0.49956569544076707,-0.35688901166198156,0.9784851081774324,-0.23441843982683308,0.5067494821994979,-0.13834377698331032,0.9631396148629285,-0.34558350589486625,0.5012340386842573,-0.3550137251575937,0.9872286757951285,-0.3442531882640335,0.5820655991084144,-0.167015588975062,1.0169371970792194,-0.47263962826766853,0.4881362901328232,-0.4001767241168434,1.0337514826637648,-0.3108937656306253,0.7024676230941562,-0.2484388243267651,1.029836271812294,-0.4427798587273021,0.43790983224906643,-0.40651841742790196,0.9542881638207426,-0.3583700911701055,0.6673728024533032,-0.2553897709047271,0.9477578757441895,-0.41973269921998324,0.505196173559387,-0.3320492238121255,1.0378063784375777,-0.33754983524743665,0.6607874293576467,-0.1901221977714103,1.0033805416473636
80,,,,,,,,,,,,,,,,,,,,,,,,,,,,,,,,,,,,,,,,,,,,,,,,,,,,,,,,,,,,,,,,,,,,,,,,,,,,,,,,,,,,,,,,,,,,,,,,,,,,,,,,,,,,,,,,,,,,,,,,,,,,,,,,,,,,
81,,,,,,,,,,,,,,,,,,,,,,,,,,,,,,,,,,,,,,,,,,,,,,,,,,,,,,,,,,,,,,,,,,,,,,,,,,,,,,,,,,,,,,,,,,,,,,,,,,,,,,,,,,,,,,,,,,,,,,,,,,,,,,,,,,,,
82,,,,,,,,,,,,,,,,,,,,,,,,,,,,,,,,,,,,,,,,,,,,,,,,,,,,,,,,,,,,,,,,,,,,,,,,,,,,,,,,,,,,,,,,,,,,,,,,,,,,,,,,,,,,,,,,,,,,,,,,,,,,,,,,,,,,
83,,,,,,,,,,,,,,,,,,,,,,,,,,,,,,,,,,,,,,,,,,,,,,,,,,,,,,,,,,,,,,,,,,,,,,,,,,,,,,,,,,,,,,,,,,,,,,,,,,,,,,,,,,,,,,,,,,,,,,,,,,,,,,,,,,,,
84,,,,,,,,,,,,,,,,,,,,,,,,,,,,,,,,,,,,,,,,,,,,,,,,,,,,,,,,,,,,,,,,,,,,,,,,,,,,,,,,,,,,,,,,,,,,,,,,,,,,,,,,,,,,,,,,,,,,,,,,,,,,,,,,,,,,
85,,,,,,,,,,,,,,,,,,,,,,,,,,,,,,,,,,,,,,,,,,,,,,,,,,,,,,,,,,,,,,,,,,,,,,,,,,,,,,,,,,,,,,,,,,,,,,,,,,,,,,,,,,,,,,,,,,,,,,,,,,,,,,,,,,,,
86,,,,,,,,,,,,,,,,,,,,,,,,,,,,,,,,,,,,,,,,,,,,,,,,,,,,,,,,,,,,,,,,,,,,,,,,,,,,,,,,,,,,,,,,,,,,,,,,,,,,,,,,,,,,,,,,,,,,,,,,,,,,,,,,,,,,
87,,,,,,,,,,,,,,,,,,,,,,,,,,,,,,,,,,,,,,,,,,,,,,,,,,,,,,,,,,,,,,,,,,,,,,,,,,,,,,,,,,,,,,,,,,,,,,,,,,,,,,,,,,,,,,,,,,,,,,,,,,,,,,,,,,,,
88,,,,,,,,,,,,,,,,,,,,,,,,,,,,,,,,,,,,,,,,,,,,,,,,,,,,,,,,,,,,,,,,,,,,,,,,,,,,,,,,,,,,,,,,,,,,,,,,,,,,,,,,,,,,,,,,,,,,,,,,,,,,,,,,,,,,
89,,,,,,,,,,,,,,,,,,,,,,,,,,,,,,,,,,,,,,,,,,,,,,,,,,,,,,,,,,,,,,,,,,,,,,,,,,,,,,,,,,,,,,,,,,,,,,,,,,,,,,,,,,,,,,,,,,,,,,,,,,,,,,,,,,,,
90,,,,,,,,,,,,,,,,,,,,,,,,,,,,,,,,,,,,,,,,,,,,,,,,,,,,,,,,,,,,,,,,,,,,,,,,,,,,,,,,,,,,,,,,,,,,,,,,,,,,,,,,,,,,,,,,,,,,,,,,,,,,,,,,,,,,
91,,,,,,,,,,,,,,,,,,,,,,,,,,,,,,,,,,,,,,,,,,,,,,,,,,,,,,,,,,,,,,,,,,,,,,,,,,,,,,,,,,,,,,,,,,,,,,,,,,,,,,,,,,,,,,,,,,,,,,,,,,,,,,,,,,,,
92,,,,,,,,,,,,,,,,,,,,,,,,,,,,,,,,,,,,,,,,,,,,,,,,,,,,,,,,,,,,,,,,,,,,,,,,,,,,,,,,,,,,,,,,,,,,,,,,,,,,,,,,,,,,,,,,,,,,,,,,,,,,,,,,,,,,
93,,,,,,,,,,,,,,,,,,,,,,,,,,,,,,,,,,,,,,,,,,,,,,,,,,,,,,,,,,,,,,,,,,,,,,,,,,,,,,,,,,,,,,,,,,,,,,,,,,,,,,,,,,,,,,,,,,,,,,,,,,,,,,,,,,,,
94,,,,,,,,,,,,,,,,,,,,,,,,,,,,,,,,,,,,,,,,,,,,,,,,,,,,,,,,,,,,,,,,,,,,,,,,,,,,,,,,,,,,,,,,,,,,,,,,,,,,,,,,,,,,,,,,,,,,,,,,,,,,,,,,,,,,
95,-0.20887985974019604,0.722698978535436,0.1342414064114892,0.9894373765028511,-0.15693355026965466,0.6983698463050019,0.1083597352642935,1.0401581983498707,-0.16002047179415527,0.7830237893656471,0.09363807857358059,1.0359161853781136,-0.2090749496454586,0.7343047188228559,0.08970162199939678,1.0018544323062106,-0.14965365671486203,0.7527788180613155,0.10051813814983065,0.9896557224360462,-0.12585715461974176,0.7361638601525239,0.09859582847620774,0.9883364379935665,-0.12900485238321804,0.7848570548644966,0.16771428296212154,1.018665153753316,-0.14035798803699584,0.7492072422219579,0.11689438090469374,0.989340552359171,-0.12887353133224322,0.76365071875351,0.13965725162830633,0.9758917009694079,-0.1736356142159503,0.7384328685919594,0.0867373405411569,0.9784632343519195,-0.14547574157119875,0.7571118351243429,0.08332536581475733,0.9820947289703195,-0.18700279455848812,0.6882674125179733,0.04528630253169422,1.0160595477422625,-0.16607986138670602,0.7053599803266246,0.14111134804640577,0.97114340725692,-0.31175731083458286,0.7355899440123601,-0.1031946657408209,0.7358899057451758,-0.1918007470284273,0.648772973627567,0.05651286123639057,0.9216938793450677,-0.2976087170076271,0.7130914902310301,-0.16682473435352052,0.5396187872859026,-0.11061782870666409,0.7640401637439315,0.10868473912311163,0.6442695112814548,-0.2910099562733318,0.7733639407091051,-0.06047701280273995,0.4991650769476857,-0.11849132772873877,0.7498887017639104,0.14424575579217724,0.591642709538903,-0.2754865974093035,0.8128139476965914,-0.06896876058647972,0.5032997141833839,-0.18633608627764825,0.7643526411187517,0.13403459588533695,0.6416786362642338,-0.2673175652633573,0.7419105629074265,-0.08904545577949362,0.42923094976390125,-0.15402391292368978,0.7799457130471743,0.04973560506852483,0.5299084960391509,-0.3748207813356351,0.529799466049669,-0.2852040883976904,0.9785548456118196,-0.2898827127082343,0.5271908355205733,-0.2305285746716931,0.9634317968316174,-0.3479578786492728,0.5538569828008498,-0.31786987358156693,0.962669058752587,-0.41721721132753375,0.5523831416613624,-0.28932102207825544,0.7780325420995134,-0.5275772008855437,0.5325748012660172,-0.4511371140808516,0.9670219370705029,-0.44176483977318454,0.6454570916686801,-0.462447548653818,0.882745836784218,-0.4990826195411496,0.48132964039840426,-0.4612485373607545,0.7753102571167936,-0.49596411150969955,0.6063861643841504,-0.47537567155291655,0.6416522620356934,-0.4776203018968405,0.5526931778299405,-0.3793610252762877,0.9090658293500533,-0.46548366760889626,0.6001647372494924,-0.39803521848796397,0.8257654951462039
96,-0.278842052033019,0.7030782619636281,-0.0042816950730116855,0.9894373765028511,-0.23023243461766602,0.6801050161925446,-0.03451160728169132,1.0401581983498707,-0.2335114269369774,0.7651364950731971,-0.04929466680067348,1.0359154701223765,-0.28284524078284773,0.716692857593913,-0.053460433116154824,1.0018544323062106,-0.21961220530852235,0.7339397568010921,-0.03661683221600389,0.9896557224360462,-0.19582862491928515,0.7172792013390473,-0.03859692739773716,0.9883348882728024,-0.1989910709330946,0.7659679257026619,0.030460080508344048,1.018665153753316,-0.2068794216928268,0.7337818581773107,-0.011519096972187684,0.9893404331498814,-0.1814926193248321,0.7460278902699284,0.035707771060385175,0.9758726274830799,-0.24001563844924087,0.7201709591070962,-0.043969752593937095,0.9784615654218658,-0.20705859742094954,0.7382952448151998,-0.039828122979153266,0.9820898413894479,-0.21724695772582558,0.6806218055233444,-0.018383073443285214,1.016224175771132,-0.21577994686352794,0.6985481827077586,0.054629023574977974,0.9717411822393724,-0.3038964442433771,0.7537042723967595,-0.09264641577913943,0.2242010921780142,-0.25006189280796204,0.6877061911530492,-0.023956877417922674,0.22357939479649894,-0.24604640534827693,0.7534534310917784,-0.07206415372350286,0.17726643097124348,-0.15251829513852502,0.8293638741855208,0.0661858834570146,0.1682555826296451,-0.22902909370676822,0.8202321457796007,0.05542782560261996,0.15400028619813583,-0.15604357336703054,0.8213424518974248,0.11130001104257407,0.17557682292219606,-0.2201270469027245,0.8648739557456027,0.036646676456365504,0.1492540846820411,-0.22926871782487523,0.8390208697450029,0.09027126314132525,0.2085109402650883,-0.2200654876862262,0.7907766560661484,0.002356671385756414,0.06865347075904141,-0.19716047928171337,0.85251234150329,0.004770510395425587,0.09150301207804548,-0.3670586371460051,0.5364185618519761,-0.27764273580025156,0.978533983986148,-0.29594012629580824,0.5449179721325118,-0.23702320049548586,0.9634354923195934,-0.31240284678788893,0.5321253081296766,-0.2703301469879807,0.9438085994248893,-0.4099561246802448,0.6422735024935767,-0.27003809187496436,0.1530991949935335,-0.4436732925083851,0.49435928326827544,-0.31754663794043386,0.9179959246498486,-0.4213309606116837,0.8062387136016635,-0.4084366836791311,0.45773259263214894,-0.41138960455494616,0.4403280224899264,-0.3209820939668185,0.7778923303284635,-0.47541071339062163,0.7754511034062146,-0.41771921631200243,0.3492713628447906,-0.3958484786277447,0.50345851935025,-0.25436783008670055,0.8498701320424666,-0.4483910437232399,0.7817535062085378,-0.35436751882235507,0.4166910098442324
97,,,,,,,,,,,,,,,,,,,,,,,,,,,,,,,,,,,,,,,,,,,,,,,,,,,,,,,,,,,,,,,,,,,,,,,,,,,,,,,,,,,,,,,,,,,,,,,,,,,,,,,,,,,,,,,,,,,,,,,,,,,,,,,,,,,,
98,,,,,,,,,,,,,,,,,,,,,,,,,,,,,,,,,,,,,,,,,,,,,,,,,,,,,,,,,,,,,,,,,,,,,,,,,,,,,,,,,,,,,,,,,,,,,,,,,,,,,,,,,,,,,,,,,,,,,,,,,,,,,,,,,,,,
99,,,,,,,,,,,,,,,,,,,,,,,,,,,,,,,,,,,,,,,,,,,,,,,,,,,,,,,,,,,,,,,,,,,,,,,,,,,,,,,,,,,,,,,,,,,,,,,,,,,,,,,,,,,,,,,,,,,,,,,,,,,,,,,,,,,,
100,-0.22985735844947738,0.7112135807197316,0.08560176395864558,0.9894373765028511,-0.17781615202569329,0.6880972241965424,0.058403988279650085,1.0401581983498707,-0.1805803154957162,0.7732873110369423,0.04395223342239777,1.0359116554251109,-0.2291885388561786,0.725123934597392,0.04044630338510925,1.0018544323062106,-0.1706074287018933,0.7419849533342953,0.05092383659649558,0.9896557224360462,-0.14691617251984274,0.725265866111081,0.04890158850328675,0.9883325040870113,-0.15013095327142126,0.7738766275993294,0.1179665334792396,1.018665153753316,-0.16517387949690082,0.7449341256333654,0.05806846277564218,0.9893361416154576,-0.15558951331721554,0.756581786697083,0.07978180306771,0.9758820450169543,-0.19743809300009119,0.7296924434820962,0.03311015220964955,0.9784222263563143,-0.16915387505456644,0.7477291699670248,0.03032071412054411,0.9820258260009591,-0.2114914036552772,0.6876788166508163,-0.017299411953397126,1.0157890618642718,-0.2032610289109774,0.714094802599879,0.0705811244433194,0.9716919488027879,-0.34808090273839803,0.6619835125281377,-0.18499132694702172,0.35386284595170353,-0.2042323496924631,0.6859907694764135,0.04852007726516065,0.9790174543649042,-0.33241613869850684,0.5588971948246886,-0.24437872687253376,0.22126732480249647,-0.10630247411727906,0.8179785525683944,0.14614405422476265,0.9373314233412388,-0.3299404234967824,0.593161098950377,-0.1458829396858187,0.20158075187253613,-0.11453826624345967,0.8082300856979314,0.18613236290737167,0.9434057195639273,-0.3169080408675365,0.6365842323493014,-0.15688696644980624,0.2285923074241218,-0.18194348264868201,0.820922336591469,0.1755015263457834,1.0007661034578375,-0.3054344747881452,0.574607239161699,-0.17052993072180936,0.1512842093750311,-0.14862478353919506,0.8346986589471377,0.08911721103495336,0.9104250251224026,-0.3644823610505298,0.5545230554699876,-0.276468963928452,0.9785640247271148,-0.28947189075002705,0.5437689137905318,-0.23255233158518018,0.9634595725960827,-0.28060763665491867,0.5205910047029342,-0.20940111311100607,0.7124633631234671,-0.3656414373350411,0.4096779395587012,-0.2049920929437227,0.9783692964215653,-0.40228483849051316,0.4365954981444504,-0.23992685299425862,0.8072717139107128,-0.3255348537385839,0.3672647503410128,-0.263328464043814,0.9736844048994525,-0.3673648050738025,0.3763251509765597,-0.23736520775588982,0.6873564511933317,-0.37428698191403065,0.31349075789954656,-0.266565781443249,0.8628097532428163,-0.3344296338840903,0.4364370004045561,-0.13769953792774475,0.6874345408216109,-0.3376857258580991,0.2629314918767201,-0.17892401024566845,0.9202218101867922
101,,,,,,,,,,,,,,,,,,,,,,,,,,,,,,,,,,,,,,,,,,,,,,,,,,,,,,,,,,,,,,,,,,,,,,,,,,,,,,,,,,,,,,,,,,,,,,,,,,,,,,,,,,,,,,,,,,,,,,,,,,,,,,,,,,,,
102,,,,,,,,,,,,,,,,,,,,,,,,,,,,,,,,,,,,,,,,,,,,,,,,,,,,,,,,,,,,,,,,,,,,,,,,,,,,,,,,,,,,,,,,,,,,,,,,,,,,,,,,,,,,,,,,,,,,,,,,,,,,,,,,,,,,
103,,,,,,,,,,,,,,,,,,,,,,,,,,,,,,,,,,,,,,,,,,,,,,,,,,,,,,,,,,,,,,,,,,,,,,,,,,,,,,,,,,,,,,,,,,,,,,,,,,,,,,,,,,,,,,,,,,,,,,,,,,,,,,,,,,,,
104,,,,,,,,,,,,,,,,,,,,,,,,,,,,,,,,,,,,,,,,,,,,,,,,,,,,,,,,,,,,,,,,,,,,,,,,,,,,,,,,,,,,,,,,,,,,,,,,,,,,,,,,,,,,,,,,,,,,,,,,,,,,,,,,,,,,
105,,,,,,,,,,,,,,,,,,,,,,,,,,,,,,,,,,,,,,,,,,,,,,,,,,,,,,,,,,,,,,,,,,,,,,,,,,,,,,,,,,,,,,,,,,,,,,,,,,,,,,,,,,,,,,,,,,,,,,,,,,,,,,,,,,,,
106,-0.43899199414985846,0.5814623156707509,-0.34121573492489465,0.9894373765028511,-0.4018520353239079,0.5566139673796784,-0.3957321790488005,1.0401581983498707,-0.4041197321503621,0.6429723052576759,-0.40988804409033314,1.0359016418447884,-0.4523209922272641,0.5960035847133588,-0.4131713995640179,1.0018544323062106,-0.3897739050806932,0.6071809429430599,-0.39157070732409943,0.9896557224360462,-0.36711350211165467,0.5892958696587495,-0.3940836531639543,0.9883015096717281,-0.37152644044315825,0.6368689142814583,-0.3256992942740105,1.018665153753316,-0.397111841128738,0.6219330270005529,-0.4098606976680769,0.989314803152628,-0.3672420070324588,0.6233458553005986,-0.3424006589791735,0.9757538950306871,-0.4044926046742059,0.6057557903448891,-0.39045451409255527,0.9782897252309783,-0.3705362345199109,0.6202458616517477,-0.38010644199179644,0.9816541910407844,-0.39210397754672466,0.5838956264004196,-0.3877570767916202,1.0163299144109637,-0.34086506788612647,0.5938025562581737,-0.19520107596393604,0.9716973132208179,-0.4061794733416876,0.5694895016028447,-0.3444401417109826,-0.0027673582937445974,-0.3018505189464696,0.47617228707742665,-0.13740800107419177,0.4151562034875238,-0.2753446052832598,0.45778152104424724,-0.20713478826813864,0.053685099747993986,-0.1745446685830034,0.5406688964252059,-0.010584059888155934,0.1701857598414066,-0.25987891344349373,0.4914575445585161,-0.09047546822794128,0.07750207949328083,-0.19238187516583413,0.5120810702712957,0.010038282926626965,0.22553691463228664,-0.25747371520351453,0.5343101720999728,-0.11384648210560265,0.0998981270249424,-0.26623187238347995,0.5253657913339006,-0.017438278022005253,0.2908016492837956,-0.24908933107254183,0.47267516056176906,-0.1319722361739737,0.0023291138156723984,-0.21708986091490465,0.5463545737306155,-0.07504356241328443,0.16002898206019267,-0.3729373623546384,0.4765054928421953,-0.3133729462068383,0.9785381563112824,-0.2560488443901306,0.470157684132405,-0.17879211501873957,0.9634186838097669,-0.30085788818090947,0.38336880407083884,-0.26605969489212117,0.3858142933373953,-0.30847121386758114,0.338569657946305,-0.1147093622303128,0.9867748030324357,-0.36966751989605434,0.2782597826121475,-0.20377415811729357,0.6576234051567456,-0.21071929680866405,0.3011562851463107,-0.07372812889771208,0.9326808796423418,-0.3350103259156918,0.21457139218845098,-0.198205875401787,0.6985803634324064,-0.2561114201942057,0.24739892240073674,-0.07112623248740846,0.8488026021159546,-0.3159378569091315,0.2675180927621916,-0.14521048958335464,0.36303241713195944,-0.23982037068172865,0.19717448546993604,-0.026662166574422753,0.6302261994728335
107,,,,,,,,,,,,,,,,,,,,,,,,,,,,,,,,,,,,,,,,,,,,,,,,,,,,,,,,,,,,,,,,,,,,,,,,,,,,,,,,,,,,,,,,,,,,,,,,,,,,,,,,,,,,,,,,,,,,,,,,,,,,,,,,,,,,
108,,,,,,,,,,,,,,,,,,,,,,,,,,,,,,,,,,,,,,,,,,,,,,,,,,,,,,,,,,,,,,,,,,,,,,,,,,,,,,,,,,,,,,,,,,,,,,,,,,,,,,,,,,,,,,,,,,,,,,,,,,,,,,,,,,,,
109,,,,,,,,,,,,,,,,,,,,,,,,,,,,,,,,,,,,,,,,,,,,,,,,,,,,,,,,,,,,,,,,,,,,,,,,,,,,,,,,,,,,,,,,,,,,,,,,,,,,,,,,,,,,,,,,,,,,,,,,,,,,,,,,,,,,
110,,,,,,,,,,,,,,,,,,,,,,,,,,,,,,,,,,,,,,,,,,,,,,,,,,,,,,,,,,,,,,,,,,,,,,,,,,,,,,,,,,,,,,,,,,,,,,,,,,,,,,,,,,,,,,,,,,,,,,,,,,,,,,,,,,,,
111,,,,,,,,,,,,,,,,,,,,,,,,,,,,,,,,,,,,,,,,,,,,,,,,,,,,,,,,,,,,,,,,,,,,,,,,,,,,,,,,,,,,,,,,,,,,,,,,,,,,,,,,,,,,,,,,,,,,,,,,,,,,,,,,,,,,
112,,,,,,,,,,,,,,,,,,,,,,,,,,,,,,,,,,,,,,,,,,,,,,,,,,,,,,,,,,,,,,,,,,,,,,,,,,,,,,,,,,,,,,,,,,,,,,,,,,,,,,,,,,,,,,,,,,,,,,,,,,,,,,,,,,,,
113,,,,,,,,,,,,,,,,,,,,,,,,,,,,,,,,,,,,,,,,,,,,,,,,,,,,,,,,,,,,,,,,,,,,,,,,,,,,,,,,,,,,,,,,,,,,,,,,,,,,,,,,,,,,,,,,,,,,,,,,,,,,,,,,,,,,
114,,,,,,,,,,,,,,,,,,,,,,,,,,,,,,,,,,,,,,,,,,,,,,,,,,,,,,,,,,,,,,,,,,,,,,,,,,,,,,,,,,,,,,,,,,,,,,,,,,,,,,,,,,,,,,,,,,,,,,,,,,,,,,,,,,,,
115,,,,,,,,,,,,,,,,,,,,,,,,,,,,,,,,,,,,,,,,,,,,,,,,,,,,,,,,,,,,,,,,,,,,,,,,,,,,,,,,,,,,,,,,,,,,,,,,,,,,,,,,,,,,,,,,,,,,,,,,,,,,,,,,,,,,
116,,,,,,,,,,,,,,,,,,,,,,,,,,,,,,,,,,,,,,,,,,,,,,,,,,,,,,,,,,,,,,,,,,,,,,,,,,,,,,,,,,,,,,,,,,,,,,,,,,,,,,,,,,,,,,,,,,,,,,,,,,,,,,,,,,,,
117,,,,,,,,,,,,,,,,,,,,,,,,,,,,,,,,,,,,,,,,,,,,,,,,,,,,,,,,,,,,,,,,,,,,,,,,,,,,,,,,,,,,,,,,,,,,,,,,,,,,,,,,,,,,,,,,,,,,,,,,,,,,,,,,,,,,
118,,,,,,,,,,,,,,,,,,,,,,,,,,,,,,,,,,,,,,,,,,,,,,,,,,,,,,,,,,,,,,,,,,,,,,,,,,,,,,,,,,,,,,,,,,,,,,,,,,,,,,,,,,,,,,,,,,,,,,,,,,,,,,,,,,,,
119,,,,,,,,,,,,,,,,,,,,,,,,,,,,,,,,,,,,,,,,,,,,,,,,,,,,,,,,,,,,,,,,,,,,,,,,,,,,,,,,,,,,,,,,,,,,,,,,,,,,,,,,,,,,,,,,,,,,,,,,,,,,,,,,,,,,
120,,,,,,,,,,,,,,,,,,,,,,,,,,,,,,,,,,,,,,,,,,,,,,,,,,,,,,,,,,,,,,,,,,,,,,,,,,,,,,,,,,,,,,,,,,,,,,,,,,,,,,,,,,,,,,,,,,,,,,,,,,,,,,,,,,,,
121,,,,,,,,,,,,,,,,,,,,,,,,,,,,,,,,,,,,,,,,,,,,,,,,,,,,,,,,,,,,,,,,,,,,,,,,,,,,,,,,,,,,,,,,,,,,,,,,,,,,,,,,,,,,,,,,,,,,,,,,,,,,,,,,,,,,
122,,,,,,,,,,,,,,,,,,,,,,,,,,,,,,,,,,,,,,,,,,,,,,,,,,,,,,,,,,,,,,,,,,,,,,,,,,,,,,,,,,,,,,,,,,,,,,,,,,,,,,,,,,,,,,,,,,,,,,,,,,,,,,,,,,,,
123,,,,,,,,,,,,,,,,,,,,,,,,,,,,,,,,,,,,,,,,,,,,,,,,,,,,,,,,,,,,,,,,,,,,,,,,,,,,,,,,,,,,,,,,,,,,,,,,,,,,,,,,,,,,,,,,,,,,,,,,,,,,,,,,,,,,
124,,,,,,,,,,,,,,,,,,,,,,,,,,,,,,,,,,,,,,,,,,,,,,,,,,,,,,,,,,,,,,,,,,,,,,,,,,,,,,,,,,,,,,,,,,,,,,,,,,,,,,,,,,,,,,,,,,,,,,,,,,,,,,,,,,,,
125,,,,,,,,,,,,,,,,,,,,,,,,,,,,,,,,,,,,,,,,,,,,,,,,,,,,,,,,,,,,,,,,,,,,,,,,,,,,,,,,,,,,,,,,,,,,,,,,,,,,,,,,,,,,,,,,,,,,,,,,,,,,,,,,,,,,
126,,,,,,,,,,,,,,,,,,,,,,,,,,,,,,,,,,,,,,,,,,,,,,,,,,,,,,,,,,,,,,,,,,,,,,,,,,,,,,,,,,,,,,,,,,,,,,,,,,,,,,,,,,,,,,,,,,,,,,,,,,,,,,,,,,,,
127,,,,,,,,,,,,,,,,,,,,,,,,,,,,,,,,,,,,,,,,,,,,,,,,,,,,,,,,,,,,,,,,,,,,,,,,,,,,,,,,,,,,,,,,,,,,,,,,,,,,,,,,,,,,,,,,,,,,,,,,,,,,,,,,,,,,
128,,,,,,,,,,,,,,,,,,,,,,,,,,,,,,,,,,,,,,,,,,,,,,,,,,,,,,,,,,,,,,,,,,,,,,,,,,,,,,,,,,,,,,,,,,,,,,,,,,,,,,,,,,,,,,,,,,,,,,,,,,,,,,,,,,,,
129,,,,,,,,,,,,,,,,,,,,,,,,,,,,,,,,,,,,,,,,,,,,,,,,,,,,,,,,,,,,,,,,,,,,,,,,,,,,,,,,,,,,,,,,,,,,,,,,,,,,,,,,,,,,,,,,,,,,,,,,,,,,,,,,,,,,
130,,,,,,,,,,,,,,,,,,,,,,,,,,,,,,,,,,,,,,,,,,,,,,,,,,,,,,,,,,,,,,,,,,,,,,,,,,,,,,,,,,,,,,,,,,,,,,,,,,,,,,,,,,,,,,,,,,,,,,,,,,,,,,,,,,,,
131,,,,,,,,,,,,,,,,,,,,,,,,,,,,,,,,,,,,,,,,,,,,,,,,,,,,,,,,,,,,,,,,,,,,,,,,,,,,,,,,,,,,,,,,,,,,,,,,,,,,,,,,,,,,,,,,,,,,,,,,,,,,,,,,,,,,
132,,,,,,,,,,,,,,,,,,,,,,,,,,,,,,,,,,,,,,,,,,,,,,,,,,,,,,,,,,,,,,,,,,,,,,,,,,,,,,,,,,,,,,,,,,,,,,,,,,,,,,,,,,,,,,,,,,,,,,,,,,,,,,,,,,,,
