frame,NOSE.x,NOSE.y,NOSE.z,NOSE.v,LEFT_EYE_INNER.x,LEFT_EYE_INNER.y,LEFT_EYE_INNER.z,LEFT_EYE_INNER.v,LEFT_EYE.x,LEFT_EYE.y,LEFT_EYE.z,LEFT_EYE.v,LEFT_EYE_OUTER.x,LEFT_EYE_OUTER.y,LEFT_EYE_OUTER.z,LEFT_EYE_OUTER.v,RIGHT_EYE_INNER.x,RIGHT_EYE_INNER.y,RIGHT_EYE_INNER.z,RIGHT_EYE_INNER.v,RIGHT_EYE.x,RIGHT_EYE.y,RIGHT_EYE.z,RIGHT_EYE.v,RIGHT_EYE_OUTER.x,RIGHT_EYE_OUTER.y,RIGHT_EYE_OUTER.z,RIGHT_EYE_OUTER.v,LEFT_EAR.x,LEFT_EAR.y,LEFT_EAR.z,LEFT_EAR.v,RIGHT_EAR.x,RIGHT_EAR.y,RIGHT_EAR.z,RIGHT_EAR.v,MOUTH_LEFT.x,MOUTH_LEFT.y,MOUTH_LEFT.z,MOUTH_LEFT.v,MOUTH_RIGHT.x,MOUTH_RIGHT.y,MOUTH_RIGHT.z,MOUTH_RIGHT.v,LEFT_SHOULDER.x,LEFT_SHOULDER.y,LEFT_SHOULDER.z,LEFT_SHOULDER.v,RIGHT_SHOULDER.x,RIGHT_SHOULDER.y,RIGHT_SHOULDER.z,RIGHT_SHOULDER.v,LEFT_ELBOW.x,LEFT_ELBOW.y,LEFT_ELBOW.z,LEFT_ELBOW.v,RIGHT_ELBOW.x,RIGHT_ELBOW.y,RIGHT_ELBOW.z,RIGHT_ELBOW.v,LEFT_WRIST.x,LEFT_WRIST.y,LEFT_WRIST.z,LEFT_WRIST.v,RIGHT_WRIST.x,RIGHT_WRIST.y,RIGHT_WRIST.z,RIGHT_WRIST.v,LEFT_PINKY.x,LEFT_PINKY.y,LEFT_PINKY.z,LEFT_PINKY.v,RIGHT_PINKY.x,RIGHT_PINKY.y,RIGHT_PINKY.z,RIGHT_PINKY.v,LEFT_INDEX.x,LEFT_INDEX.y,LEFT_INDEX.z,LEFT_INDEX.v,RIGHT_INDEX.x,RIGHT_INDEX.y,RIGHT_INDEX.z,RIGHT_INDEX.v,LEFT_THUMB.x,LEFT_THUMB.y,LEFT_THUMB.z,LEFT_THUMB.v,RIGHT_THUMB.x,RIGHT_THUMB.y,RIGHT_THUMB.z,RIGHT_THUMB.v,LEFT_HIP.x,LEFT_HIP.y,LEFT_HIP.z,LEFT_HIP.v,RIGHT_HIP.x,RIGHT_HIP.y,RIGHT_HIP.z,RIGHT_HIP.v,LEFT_KNEE.x,LEFT_KNEE.y,LEFT_KNEE.z,LEFT_KNEE.v,RIGHT_KNEE.x,RIGHT_KNEE.y,RIGHT_KNEE.z,RIGHT_KNEE.v,LEFT_ANKLE.x,LEFT_ANKLE.y,LEFT_ANKLE.z,LEFT_ANKLE.v,RIGHT_ANKLE.x,RIGHT_ANKLE.y,RIGHT_ANKLE.z,RIGHT_ANKLE.v,LEFT_HEEL.x,LEFT_HEEL.y,LEFT_HEEL.z,LEFT_HEEL.v,RIGHT_HEEL.x,RIGHT_HEEL.y,RIGHT_HEEL.z,RIGHT_HEEL.v,LEFT_FOOT_INDEX.x,LEFT_FOOT_INDEX.y,LEFT_FOOT_INDEX.z,LEFT_FOOT_INDEX.v,RIGHT_FOOT_INDEX.x,RIGHT_FOOT_INDEX.y,RIGHT_FOOT_INDEX.z,RIGHT_FOOT_INDEX.v
0,,,,,,,,,,,,,,,,,,,,,,,,,,,,,,,,,,,,,,,,,,,,,,,,,,,,,,,,,,,,,,,,,,,,,,,,,,,,,,,,,,,,,,,,,,,,,,,,,,,,,,,,,,,,,,,,,,,,,,,,,,,,,,,,,,,,
1,,,,,,,,,,,,,,,,,,,,,,,,,,,,,,,,,,,,,,,,,,,,,,,,,,,,,,,,,,,,,,,,,,,,,,,,,,,,,,,,,,,,,,,,,,,,,,,,,,,,,,,,,,,,,,,,,,,,,,,,,,,,,,,,,,,,
2,,,,,,,,,,,,,,,,,,,,,,,,,,,,,,,,,,,,,,,,,,,,,,,,,,,,,,,,,,,,,,,,,,,,,,,,,,,,,,,,,,,,,,,,,,,,,,,,,,,,,,,,,,,,,,,,,,,,,,,,,,,,,,,,,,,,
3,,,,,,,,,,,,,,,,,,,,,,,,,,,,,,,,,,,,,,,,,,,,,,,,,,,,,,,,,,,,,,,,,,,,,,,,,,,,,,,,,,,,,,,,,,,,,,,,,,,,,,,,,,,,,,,,,,,,,,,,,,,,,,,,,,,,
4,,,,,,,,,,,,,,,,,,,,,,,,,,,,,,,,,,,,,,,,,,,,,,,,,,,,,,,,,,,,,,,,,,,,,,,,,,,,,,,,,,,,,,,,,,,,,,,,,,,,,,,,,,,,,,,,,,,,,,,,,,,,,,,,,,,,
5,,,,,,,,,,,,,,,,,,,,,,,,,,,,,,,,,,,,,,,,,,,,,,,,,,,,,,,,,,,,,,,,,,,,,,,,,,,,,,,,,,,,,,,,,,,,,,,,,,,,,,,,,,,,,,,,,,,,,,,,,,,,,,,,,,,,
6,0.6050421547219985,0.18047358787932133,0.4790293938889367,0.9574775779971497,0.5534290357222619,0.1825339132424456,0.5113050987671689,0.9652725041466893,0.5667970906640121,0.2055541411156361,0.552426035975164,1.0269348538994898,0.5137127372636275,0.19478428569285644,0.5368412466843479,0.955071192863249,0.5428592591093175,0.20961529668950554,0.48158625038398906,0.9574587502224583,0.5620009845641689,0.2652944882004081,0.5055794751377077,1.001189261557986,0.5210410722901188,0.24853084720714202,0.4846280274907513,0.9623583107371603,0.5827906763601131,0.2331019215553273,0.4208301699122515,1.0141130573935087,0.5984839707093945,0.21298895977591029,0.5007624122586587,1.0392134585546995,0.5399320937713012,0.2508722924787453,0.4763127112455058,1.0318465014518412,0.5155743219354116,0.25081066745877495,0.4723810747815505,0.9840147917369694,0.4034083275586326,0.24744954551331974,0.28232933926498194,1.0433210102312063,0.5007699984861249,0.22684305717457265,0.5057160650277384,0.9905118498584468,0.3245454708091664,0.3225643264482945,0.10938409555130964,0.12282424538461961,0.5260345845597416,0.3072394068292126,0.32889871257465925,0.7787869971154932,0.3597389563008319,0.2628530555516991,0.09114273986902763,0.26855507362984143,0.37164233945596975,0.2892322484241696,0.1875801950235327,0.417643970236311,0.3098483942096264,0.3105455858128214,0.09924810524544439,0.39651966040512054,0.3851853958413271,0.2541182318779329,0.1597244127997043,0.41308046686009886,0.38796214914560484,0.2938544149523212,0.05684358103195581,0.3787923731965314,0.3720856257706836,0.3002579450542476,0.18023034059672877,0.4295150087687937,0.37767686335211514,0.28964937816678626,0.05479538031757192,0.3898400972555064,0.35969237013038524,0.33009974144331733,0.18300993361621978,0.4121807168254099,0.3825023778096174,0.3827443929983342,0.2077262877451303,0.9886901036983797,0.47277448161075364,0.4218785975416456,0.3123173654280771,0.9622950090475658,0.3271934942244767,0.47251731272633835,0.12158284946537616,0.8638209570066463,0.46804209360302723,0.5392212316416217,0.2827642527552999,0.9998465425347822,0.19077309936978767,0.6225912457321132,-0.08547677238798211,0.7519413188668829,0.37408006908195607,0.6460136449544297,0.157398027963416,0.9420017920698628,0.15246715188110418,0.6274457445266197,-0.10992910084118251,0.6927450217560616,0.39995683627492107,0.6504191223528473,0.1628071912709016,0.8698283667486754,0.1913730166338189,0.6559710166950568,-0.13686959396762305,0.6296926092725083,0.438653120771077,0.7041354970524242,0.2043444138338576,0.9447582058491023
7,,,,,,,,,,,,,,,,,,,,,,,,,,,,,,,,,,,,,,,,,,,,,,,,,,,,,,,,,,,,,,,,,,,,,,,,,,,,,,,,,,,,,,,,,,,,,,,,,,,,,,,,,,,,,,,,,,,,,,,,,,,,,,,,,,,,
8,0.5982999335719645,0.18485940195002293,0.4728121559912392,0.9574775779971497,0.5361013194158172,0.18309746025763574,0.48135381751187994,0.9652725041466893,0.5518623209267932,0.2053404137606327,0.5240747047577758,1.0269330657601465,0.5010898972332449,0.19369909372775332,0.5099765967003224,0.955071192863249,0.5201383111617911,0.21196968015813344,0.4492145354710293,0.9574587502224583,0.5371704802852155,0.26804257524893865,0.47189883671962146,1.0011871157907741,0.49410887761201094,0.25161169208629236,0.4496580399550548,0.9623583107371603,0.5345909498253391,0.2305592619150151,0.32183301860196106,1.0141100771612697,0.5290306363370462,0.2158616652355051,0.38874056064792817,1.039208809392407,0.5269682155096439,0.2555054956275871,0.45268614050510486,1.0318474551261576,0.49544785758809917,0.2576841856873059,0.44434299295820767,0.9840115730861516,0.4207061396849823,0.2557375415670154,0.2713002304667949,1.043337818741033,0.43473671987346596,0.23937916566837758,0.4267988099709545,0.990831032731219,0.5400556061972722,0.3446866797636479,0.4494916198442827,0.8161289182218769,0.5821381103954917,0.3335735435536847,0.48831860478606226,0.5687020819543603,0.7403643071270425,0.2626762979776176,0.7647990407732713,0.8597438024391981,0.5908892709257633,0.35084840094911773,0.6380604407447953,0.6393870770783521,0.7155883227495873,0.30164357251097196,0.825029365559729,0.8157929176606747,0.6282753886573282,0.3226245621296267,0.6548464008253603,0.5751055012877416,0.7751791732814667,0.27680128766350287,0.7550965812362237,0.7840882816476118,0.6200442090420186,0.36792086958236947,0.6773670271175867,0.5870329783771007,0.7472411994537382,0.2751142490965043,0.7205784634882529,0.7359291325281047,0.5907174925098744,0.3959407009922675,0.6449396418938785,0.531254167390748,0.40353333610795944,0.4032913657499516,0.21995816538269197,0.9886870042568515,0.45422683081492704,0.4468596194227491,0.30163872574086653,0.9622900022574046,0.4221159219242937,0.5372675072758989,0.2581507056212582,0.9131222832815181,0.4725731560009084,0.5870385214708759,0.30230616307484554,0.9942441827630536,0.3245980593562104,0.7195033913467372,0.0910904692866732,0.8106247142526251,0.4055044821475228,0.7004205262868272,0.19477640083237996,0.9142687641348348,0.292305910082019,0.7282345166327904,0.07621292998941528,0.31655623691833873,0.4392870294973617,0.7055402461435882,0.20768808028066238,0.7148400778692808,0.39186328401392295,0.7645062468548163,0.15530638548984532,0.7659196209531113,0.5118786558286713,0.7622889475414684,0.3169321994365266,0.9162758879246028
9,,,,,,,,,,,,,,,,,,,,,,,,,,,,,,,,,,,,,,,,,,,,,,,,,,,,,,,,,,,,,,,,,,,,,,,,,,,,,,,,,,,,,,,,,,,,,,,,,,,,,,,,,,,,,,,,,,,,,,,,,,,,,,,,,,,,
10,,,,,,,,,,,,,,,,,,,,,,,,,,,,,,,,,,,,,,,,,,,,,,,,,,,,,,,,,,,,,,,,,,,,,,,,,,,,,,,,,,,,,,,,,,,,,,,,,,,,,,,,,,,,,,,,,,,,,,,,,,,,,,,,,,,,
11,,,,,,,,,,,,,,,,,,,,,,,,,,,,,,,,,,,,,,,,,,,,,,,,,,,,,,,,,,,,,,,,,,,,,,,,,,,,,,,,,,,,,,,,,,,,,,,,,,,,,,,,,,,,,,,,,,,,,,,,,,,,,,,,,,,,
12,,,,,,,,,,,,,,,,,,,,,,,,,,,,,,,,,,,,,,,,,,,,,,,,,,,,,,,,,,,,,,,,,,,,,,,,,,,,,,,,,,,,,,,,,,,,,,,,,,,,,,,,,,,,,,,,,,,,,,,,,,,,,,,,,,,,
13,,,,,,,,,,,,,,,,,,,,,,,,,,,,,,,,,,,,,,,,,,,,,,,,,,,,,,,,,,,,,,,,,,,,,,,,,,,,,,,,,,,,,,,,,,,,,,,,,,,,,,,,,,,,,,,,,,,,,,,,,,,,,,,,,,,,
14,,,,,,,,,,,,,,,,,,,,,,,,,,,,,,,,,,,,,,,,,,,,,,,,,,,,,,,,,,,,,,,,,,,,,,,,,,,,,,,,,,,,,,,,,,,,,,,,,,,,,,,,,,,,,,,,,,,,,,,,,,,,,,,,,,,,
15,,,,,,,,,,,,,,,,,,,,,,,,,,,,,,,,,,,,,,,,,,,,,,,,,,,,,,,,,,,,,,,,,,,,,,,,,,,,,,,,,,,,,,,,,,,,,,,,,,,,,,,,,,,,,,,,,,,,,,,,,,,,,,,,,,,,
16,,,,,,,,,,,,,,,,,,,,,,,,,,,,,,,,,,,,,,,,,,,,,,,,,,,,,,,,,,,,,,,,,,,,,,,,,,,,,,,,,,,,,,,,,,,,,,,,,,,,,,,,,,,,,,,,,,,,,,,,,,,,,,,,,,,,
17,0.5916708710722888,0.18179625965037083,0.47699871011213935,0.9574775779971497,0.5282300518790006,0.18351111649237695,0.48083105796333453,0.9652725041466893,0.5442318885168234,0.20713983328291818,0.5236844527946151,1.0269232905984034,0.49378483284202385,0.19695109334437624,0.5098088412702259,0.955071192863249,0.5094768956228569,0.20928519126557826,0.44472484503912385,0.9574587502224583,0.5264389040025192,0.26450262559340576,0.467390862456862,1.0011374055170315,0.4833422075443563,0.24724165834529505,0.44522765320831004,0.9623583107371603,0.5271533334689001,0.2365221999853123,0.3194877449211317,1.0140536911673124,0.5088042767648002,0.2116909345254755,0.3670133458361155,1.039013246552899,0.5205064385768529,0.2566576534110954,0.4573909432170908,1.0318238516868263,0.48570366847802493,0.25467430013776055,0.4438103746356016,0.9839324181178898,0.4716717006069693,0.2733672543870685,0.3617107032855211,1.0432043639413808,0.4265730141440675,0.23769023825634455,0.44468722982641423,0.9904797825595577,0.6435602039742472,0.3495295869539708,0.6502434329845418,0.37465597062437334,0.6623493131243117,0.29740952802214476,0.6653222900019162,0.8046334188340906,0.8258524482045543,0.2679021650106224,0.9509055198162139,0.17322221268318616,0.7093544360294545,0.2652052882896634,0.8477118621290355,0.5015668928475476,0.796963956249519,0.31324433511663907,1.0056286616408028,0.10114735682984315,0.7603871866063855,0.22766527329410113,0.8792044292589394,0.13610981213407033,0.8466529486658375,0.2889934773569538,0.9208400029444322,0.058168017969776324,0.7361030003738331,0.27261512874908705,0.8718657845769605,0.12162892981505072,0.8244895603343296,0.2854007590871965,0.8966277623200876,0.04519283873538009,0.707919698812478,0.3081155218922309,0.8468971357873158,0.07926874114362811,0.4249698858203202,0.4254421206785405,0.2656492622628136,0.9880799905544587,0.39823198900141965,0.4593740020235334,0.23425591898908685,0.961268736273823,0.4811588617639276,0.5379684578984575,0.37536345704296864,0.0936980973796378,0.3698856896275415,0.5726851269625141,0.1639450405748281,0.05759534454102673,0.34173507917137524,0.7055358177040065,0.13452791710876266,0.016162562892858334,0.22430064546685793,0.655659762641655,-0.08075783335043446,-0.04465601087700269,0.3069923249282576,0.7107437720420311,0.11315553337941657,-0.03670289963272113,0.2518651456437032,0.6544243160631744,-0.07982466411377949,-0.021355324467026125,0.41084294583342384,0.7573764584560736,0.21529884701026666,0.04906435575297317,0.32421322727617163,0.7302884058544566,0.03205100994349659,0.028113763022592782
18,0.6116803374483646,0.18518186307825782,0.5171141586100563,0.9574775779971497,0.5483528635390708,0.18723564683161803,0.521909729881018,0.9652725041466893,0.5640278754845317,0.2107420250887577,0.5645430569738663,1.0269362844109644,0.5132410745388617,0.20036117938010464,0.5504221550985101,0.955071192863249,0.5330901915725654,0.21308588143968105,0.4908209760635036,0.9574587502224583,0.5503939252774115,0.26822056961939916,0.5137072844449454,1.0011906920694607,0.5075559089413866,0.25089300908191314,0.4916013110757754,0.9623583107371603,0.5430071613614935,0.23942533361606488,0.3546111941414522,1.0141138918585353,0.5373645314704298,0.21542348168943878,0.42044223160507527,1.0392209687399414,0.5391383713041124,0.25821101005858693,0.49542285501178235,1.031855322939268,0.5078396075258125,0.25653694528699156,0.48701016274646475,0.9840237324336856,0.4388357697852295,0.2718426569806811,0.31095013159559326,1.0432890621416069,0.46914856523226967,0.23885386993397206,0.5180629088095261,0.9908102903148371,0.5691721494120274,0.3592722641657322,0.5043392336839224,0.7046222177061299,0.7070750583649066,0.2879943187287793,0.7126933743698263,0.9307161968110803,0.7539779789421508,0.2755646997243675,0.7981430565776039,0.45039248336456733,0.7224205113956894,0.2537997010933133,0.8331715489505986,0.8668876349778272,0.723303704651371,0.3166949970142984,0.848112483371478,0.2804871345080944,0.7698782887666528,0.21419554744685693,0.8585332420324261,0.41601909505681517,0.7798889601443059,0.2927422816877796,0.776366502632027,0.23549131836121193,0.7438198379107139,0.26278530954666396,0.8481662890192868,0.38271484240030923,0.7564034375946384,0.2900408316713487,0.7506827247430221,0.1698281775186442,0.7183182916877907,0.29853544615141664,0.8282282182598897,0.2919728706607065,0.40848513305563916,0.4198238464666569,0.2373772239034963,0.9886135713344881,0.4189677791139041,0.4614648733576093,0.26537423802926274,0.9622178806372265,0.4501353919880069,0.5494468223660783,0.3069312083740151,0.7976670730726253,0.40140183654573236,0.5905793949984027,0.20921003214811734,0.8048421985482709,0.3147583209398259,0.7242151385162319,0.07446531365519936,0.22321307217804,0.25343389373027714,0.6794958985059129,-0.040096754785695105,0.1878289602961049,0.2792269617615749,0.7293479910018394,0.05338981465079015,-0.011290699963203529,0.28078132826731683,0.6787412229921905,-0.03979735330674926,0.011808984987124373,0.3873480586720301,0.7799932024975165,0.15583637774695647,0.21586660560181578,0.3563325634904691,0.7545609669277599,0.08140145231555275,0.251454695302418
19,,,,,,,,,,,,,,,,,,,,,,,,,,,,,,,,,,,,,,,,,,,,,,,,,,,,,,,,,,,,,,,,,,,,,,,,,,,,,,,,,,,,,,,,,,,,,,,,,,,,,,,,,,,,,,,,,,,,,,,,,,,,,,,,,,,,
20,,,,,,,,,,,,,,,,,,,,,,,,,,,,,,,,,,,,,,,,,,,,,,,,,,,,,,,,,,,,,,,,,,,,,,,,,,,,,,,,,,,,,,,,,,,,,,,,,,,,,,,,,,,,,,,,,,,,,,,,,,,,,,,,,,,,
21,0.6285491003279166,0.18208091653265693,0.557740271911178,0.9574775779971497,0.5688679243774502,0.18336907862387725,0.5669767708111573,0.9652725041466893,0.5848761527252223,0.2070532128328984,0.6098459638678477,1.0269344962716211,0.5344526679374876,0.19684376028029693,0.5960165665506232,0.955071192863249,0.5484814354037599,0.20866877493047234,0.5272853040853109,0.9574587502224583,0.5657737281973736,0.26359714163230047,0.5501542909984541,1.0011875926279323,0.5229613542137912,0.24603423215491882,0.5281269675897252,0.9623583107371603,0.5646518427704125,0.2366718523471821,0.3982876864593243,1.014111626882034,0.5369907123097837,0.21006389163588038,0.426323007463293,1.039214889066174,0.5561195228158634,0.2560782366592338,0.5353996797231236,1.0318485280097636,0.5185896134753453,0.25352275330186125,0.5161463355792055,0.9840048973659368,0.4682961923631339,0.2694331094133136,0.3628132227895563,1.0433298317186332,0.42933381732691916,0.23925083686817616,0.4544549386051953,0.9906703982135493,0.6063244816765446,0.3582037913034886,0.5572252188640107,0.9786925402197102,0.6347896320288644,0.3027661676457867,0.6248931642627675,0.8689083855508569,0.7989984524151155,0.3228962116987022,0.8871961015104742,0.47981765736244636,0.6982671331692861,0.2742671016441555,0.8566902493182591,0.6188082158417798,0.7709338718780536,0.3819947463886881,0.9485394718562516,0.23592323010345423,0.7541561411402331,0.23447879944766564,0.9007988045378235,0.31648991810636046,0.8272443477844743,0.3531362409716083,0.8780815204175877,0.23360439922039622,0.7340300396464287,0.27919071316070815,0.903821033648736,0.33663446172213235,0.7985272188923158,0.34511099349080665,0.8384404306333729,0.178975210614004,0.698099636589553,0.3131716945015601,0.8613633636143467,0.2537916849383554,0.4160871606899924,0.4317712994886601,0.25518612653328365,0.9886641160732575,0.4004447500187808,0.46795254091818667,0.24064228998331189,0.9622219337530712,0.4701455529472559,0.5721346747487382,0.3465030215124189,1.0336372721807492,0.3710866091529636,0.6056184813402606,0.1741765588105037,0.9834675437783734,0.3344109150909345,0.7574387079093898,0.11156747369496837,0.8695280507775884,0.20918545940743105,0.6931589520184861,-0.09361414526414452,0.5748232327665792,0.29913476988763216,0.7614325156333397,0.09134365766907307,0.10657561498440168,0.23653296564768375,0.6891562405970184,-0.09431480070801547,0.05883014302669427,0.41942667679372625,0.8159149549503668,0.21594198002074505,0.7386461448293015,0.31191064941421454,0.771130640942805,0.031176979263116616,0.578477292496136
22,0.4355102630746881,0.18373919225611424,0.19720010389064674,0.9574775779971497,0.39966953127067717,0.18462670682631555,0.2585668670252175,0.9652725041466893,0.4112502961054443,0.20850454122969558,0.29856302078845603,1.0269325889229883,0.3564160143687216,0.19846962597815762,0.2818579834021414,0.955071192863249,0.38925910978732736,0.20976257976674556,0.22233386581039635,0.9574587502224583,0.4105017361105912,0.2647799362032234,0.2475619897674496,1.0011896191858547,0.37104639138297296,0.24731535948855987,0.22748469143671307,0.9623583107371603,0.5043337432133712,0.2412744485109318,0.3096675122658558,1.014111388463455,0.4914254771557111,0.2137990614042139,0.3411031285266341,1.0392203726934934,0.39793426219456823,0.25724264319724355,0.24701493296604216,1.0318313618720683,0.3719729474201849,0.25464451271653404,0.2331188167930897,0.9839884464839787,0.41590443030639673,0.2775815411912677,0.3425946231872587,1.0416374770395254,0.4455514675395472,0.2401993553828094,0.4065801831049086,0.9903773817798334,0.4105360635622632,0.3916947173307866,0.32348901339143254,0.761497923425124,0.5331507078426713,0.3056545491269574,0.3170175852949816,0.917607824122787,0.4710675514452382,0.4014387124330314,0.37643663557804335,0.6490371512284132,0.3873020047436938,0.3287005964504452,0.20158050706595274,0.6020143091530896,0.41474567851598204,0.46231587952543735,0.3809448672686609,0.6763527983941647,0.39504146919506955,0.2939220050426821,0.16477794941945303,0.48955799447850706,0.48332703269115684,0.4504118259077503,0.3179613574312075,0.6246089615983259,0.38448418603462275,0.347670608752444,0.19243568054548527,0.48382619484400435,0.4832241274868433,0.4395377744299089,0.3289195997128527,0.4826924215028667,0.37334844853545557,0.379597077592533,0.19766259160366423,0.3990060637721262,0.37536276187251166,0.4432879003359044,0.22265124447818627,0.9886768714672396,0.44436172109270305,0.4789432797869001,0.27467239921020686,0.9622827304907422,0.38923357780107654,0.5858324181645708,0.23109709459158223,1.0093692410604487,0.4227871576622231,0.6257832095049335,0.20769417222134315,1.002909446415855,0.3022783359591514,0.7832993155334438,0.08080391921009951,0.871992404815827,0.3606561918733476,0.752576438209282,0.11061994338490902,0.9162558637823568,0.27258642737135264,0.7896377315642784,0.06657282045110738,0.7928072132424202,0.3926426304383936,0.7586512032892792,0.12115749703701024,0.9409272904318419,0.32270763184702794,0.822251405527149,0.06145383410841347,0.47625952478459316,0.426153010281852,0.7752731041500499,0.1525274744268162,0.6837305121006282
23,0.5334476071876147,0.19232252932467203,0.38117626489836226,0.9574775779971497,0.4967267174382526,0.19347361563407,0.4427448988937711,0.9652725041466893,0.5083710546185235,0.2166926100964253,0.4827832913388263,1.0259624637246239,0.4536008860522181,0.20611538198439852,0.46610595561905344,0.955071192863249,0.4850160830401314,0.21977139171742915,0.4038971706861956,0.9574587502224583,0.5068886521246468,0.27495441926406006,0.42960371710813167,1.0008035599016445,0.469265088340036,0.25773924328429804,0.41070434274287826,0.9623583107371603,0.5861155410103275,0.2460049860446919,0.46531433242593945,1.0133167989439542,0.5842002494964194,0.22258137367819308,0.495479331149323,1.0386563339399841,0.4899237347752659,0.26254735227412496,0.41913564933628883,1.0283825775207194,0.4630342581240313,0.26134565431237455,0.4027152463244747,0.9820677464107364,0.47583159321793544,0.273042975317168,0.4501557325896451,1.0378556815378164,0.5158118232843081,0.24121913125027156,0.5380090670824578,0.9891396317264277,0.45943202353155804,0.3496037947367161,0.42289090432853604,0.2515254107031086,0.6441717817037766,0.2978505427888379,0.5272968070239001,0.8106519978402856,0.5487485052309952,0.3056011789590629,0.5090367530355399,0.20893660057686286,0.5714756232400985,0.3078653160320492,0.550499663683529,0.39741874335719113,0.5038451132565173,0.35544791048933505,0.5296384066067128,0.26418626253982513,0.5830667356874111,0.27593549881900353,0.5237580069162706,0.2852033804591131,0.5730719319373715,0.3421281273489429,0.4688181245459302,0.24237179543202034,0.5707458040909618,0.3284893572265651,0.5476688876525049,0.29942566617464705,0.5645832213629803,0.33581204305707557,0.46641186864140693,0.2060386250684642,0.5571997905939118,0.3584809996926001,0.5469144009185078,0.2507973562010965,0.37546054623237907,0.4434606942011082,0.2238012677939436,0.9886344329601595,0.4426832491989453,0.4790499124964033,0.27248087546680455,0.9622647298880198,0.3526354617529277,0.5740229498952226,0.18531176239806607,0.3144798148290644,0.440785398378182,0.6256192967318012,0.23985944215067814,0.8157863861894147,0.25616090119266455,0.7562168126914943,0.02611519315148468,0.13728269493309073,0.3875223884948609,0.7479287064282761,0.15846786692215142,0.4714671694006429,0.22651062177091033,0.7685959806563805,0.012097752418469776,0.18239828127182386,0.4192457761899397,0.7552244726564972,0.17032045179225508,0.34594845127283,0.2670471500670916,0.7852376363773688,-0.009769862256495537,0.09714659567883446,0.4587375220429569,0.7972279386112621,0.20635938648045105,0.14812937303202459
24,0.6703380366515996,0.18261025048174592,0.6468692915078035,0.9574775779971497,0.6147008137993512,0.18162874220572534,0.6612475220821874,0.9652725041466893,0.6311492688774936,0.2051593646521275,0.7044134795180883,1.026936403620254,0.5810948658685663,0.19484439697711242,0.6907628868955977,0.955071192863249,0.5872496626673105,0.20735020097875115,0.6086419401438499,0.9574587502224583,0.6047767050858119,0.2623820711462318,0.6316961590063627,1.0011909304880398,0.5622687919322957,0.24498589076144806,0.6099524386693919,0.9623583107371603,0.6165729001074088,0.23601438331298719,0.49829072449031064,1.0141141302771146,0.5641468182469885,0.2098449190721368,0.48111556419740387,1.0392227568792844,0.6012159138693215,0.25746882792300496,0.6278286980105475,1.0318560381950053,0.5548463370141613,0.25529141682744255,0.5930142866122277,0.984025758991608,0.5393850203636164,0.2716993674146411,0.49530746450992086,1.0433473554841972,0.44646550617996206,0.24202197601307368,0.4867578817441169,0.9907926473399837,0.7037777312603912,0.3214535938929051,0.7387803596924002,1.043264338067458,0.6274292416025469,0.2814027602723584,0.6411188144291367,0.8980030815957789,0.8759217213646735,0.290894090488604,1.0389352910592233,0.6638466404785963,0.7344072556535067,0.2768467906700345,0.9721803044629502,0.4984633385987378,0.850203736533979,0.34784882491995334,1.1073559426043857,0.25034323280235254,0.7964768126336974,0.24238180910075702,1.0339962594275356,0.25053997146443846,0.9043936486503902,0.3246533568029834,1.0326467923201577,0.2665409126443159,0.7831130429759192,0.2891067802841212,1.0455673405506452,0.29563040002321883,0.8745193825448759,0.3185029734235917,0.9888554371794693,0.2341721813152217,0.7388553181678127,0.3219616510712317,0.9856584635797261,0.2570925007590494,0.418927764593352,0.442047646887418,0.2653537904658195,0.9886499301678011,0.39094504499120397,0.47453465203841066,0.2260393700326067,0.962267590910969,0.42385719533085453,0.5808628809064226,0.2768082509261369,1.0391100514547358,0.3601109490144879,0.6164487049005939,0.15153927987150653,1.0021385795449749,0.2472145763063931,0.7571641689155544,-0.030398712049308788,0.745727892276917,0.2574104321469804,0.7277368581502305,-0.009983370889482007,0.7742570363249288,0.20967093725765615,0.7626317610862205,-0.05585999290108498,0.07826182919300456,0.34251098784514405,0.7302801672365753,0.09628512995945508,0.11909728597818278,0.3216076051304937,0.8112170360584601,0.059400497540389424,0.5370004725079819,0.36876390685166743,0.7989232139179637,0.1307969556589873,0.6154787830890925
25,0.6759421039355292,0.18134821153559422,0.6486055937837091,0.9574775779971497,0.6377336449984626,0.18160053430758544,0.6985676361852082,0.9652725041466893,0.6517734651490027,0.2052849516386692,0.7401176075325161,1.026934019434463,0.5980137798352091,0.19511474874465243,0.7241319987601837,0.955071192863249,0.6266681376364689,0.20706393477105614,0.6637102363310974,0.9574587502224583,0.6490553135996084,0.26201702249930486,0.6896990605193473,1.0011897383951442,0.6109646504491213,0.24456616975410095,0.6704658705502989,0.9623583107371603,0.6909898475612635,0.2364075802534092,0.6500780622281519,1.0141129381842189,0.6998744407760402,0.20999872885797968,0.7015638218701266,1.0392219224142576,0.6230078169282839,0.25583224829024587,0.6634029588281947,1.0317855855048808,0.5960629548771017,0.2531201388275647,0.6507810565323997,0.9839772408107608,0.5254993480610399,0.2719687506067035,0.5333474921017741,1.040425118564794,0.5980052106953364,0.24298709442127675,0.6959357819006198,0.9898164424678522,0.4508062146876829,0.3252959775160283,0.3911814189966647,0.6091570344480732,0.7469126053223654,0.2849851782372937,0.7255115111871737,0.9473346870301965,0.4776068858777725,0.3032697134763512,0.3732474996466252,0.43798580635689216,0.7085476197157857,0.2910073343502255,0.8120017229933776,0.9624439537377454,0.41402573678459953,0.36649136966635226,0.36461688248010843,0.44117695038696253,0.7292310191858393,0.2522089758964876,0.8011212797541027,0.8569041620428991,0.49074785287973793,0.3314155037527515,0.3162907686643709,0.45308437730496043,0.7089397628597437,0.3039275348121669,0.8146000660200977,0.8778451727244823,0.49090251593116596,0.32792557369290937,0.32888481408650555,0.414062024183073,0.6907829577795215,0.33570368073813234,0.8048946274230464,0.8174258421191416,0.3734449829877083,0.4378152104688847,0.22157194101348154,0.9886864082104035,0.4308709859998457,0.4744972203214918,0.2659252034487452,0.9622928632803538,0.3779747292539905,0.5699061166852312,0.21806277063581758,1.0027005541936884,0.40575217095905913,0.6159980341814472,0.2069799815816706,0.9745972401475446,0.2444280287415156,0.758537281117245,-0.008737115361060047,0.8447564200135809,0.3042004609532669,0.7368137514798508,0.04308440318343443,0.8089795433248983,0.2126283890132737,0.7653884759070824,-0.02560459931613257,0.5424471415833321,0.3351961621810164,0.7434605423357574,0.05319774610633042,0.5102319950979796,0.2902628013899076,0.789599742700611,0.02457132413902685,0.4314854395013138,0.38963740575397493,0.7916867332050731,0.12848685294668385,0.5190673164905818
26,0.4257343303852783,0.18417505122103434,0.17397450722103108,0.9574775779971497,0.3922978680834272,0.18437979458533355,0.24014171803638867,0.9652725041466893,0.40319614415185606,0.207365198444814,0.27969113858306455,1.026927105295669,0.34769623992083964,0.19649452176539672,0.2627229927545016,0.955071192863249,0.3861727719096551,0.21180055197858325,0.209614185840554,0.9574587502224583,0.4084813918588276,0.2674739469377815,0.23559039737336,1.0011849700235622,0.3705503696826885,0.25073076523883453,0.21657642820914985,0.9623583107371603,0.5013771740543271,0.236963870403098,0.30286271985764884,1.0141115076727445,0.5281328915776675,0.2168114503488397,0.37549769523070387,1.0392187037634397,0.3862481284302625,0.25599094565696034,0.22259985302061142,1.0317771216453226,0.366559913969226,0.25578130740285154,0.21698651234201038,0.9838879530528872,0.3857039044787688,0.26667970265023677,0.2868817566363613,1.0321150985948537,0.4554346913294721,0.24648693015087575,0.4271864438818233,0.9750821742793757,0.25467464608245033,0.3458752857874363,0.04137935766386744,0.20418850450842171,0.47949386118943166,0.3001826639226422,0.21559940668678967,0.9408835571168666,0.2121764668584927,0.2919915908128532,-0.12334346879974276,0.047029166113361866,0.2662592381930728,0.2567454818474026,-0.03323060970647263,0.7072294413895703,0.14525438777149355,0.33967962092329496,-0.1464507537454039,0.10288051461358995,0.26758957834572367,0.2118102589699129,-0.08447120433922309,0.5865355263884496,0.21770363410274343,0.3206866378908588,-0.20176815538988185,0.06124099876110663,0.24905018525645137,0.25769265889473214,-0.06864268617584039,0.5864551113460033,0.2269368285378509,0.31626741181432355,-0.16884970499969051,0.06079673124054899,0.2469059367583736,0.29166937850348273,-0.04485563006965359,0.5327988217601023,0.3629082481892035,0.447541734821912,0.21643023834762368,0.9880419031864474,0.42859548971662365,0.4891439590891157,0.26324008149604294,0.9614661468573192,0.36018769401237427,0.5954574358075456,0.21973443450043892,0.8573599327222835,0.390060602105595,0.6344215318582965,0.19060356018298655,0.8247593886231915,0.28284249595895905,0.803686070999905,0.11001805042631219,0.4112642661306005,0.3045461698238425,0.7553216493337022,0.07881211044798801,0.566938611146401,0.2548303716959081,0.8131286373259972,0.099239146311077,0.36998724120415105,0.33381717889311524,0.7536566320803253,0.08807343793752746,0.5668031806868162,0.2831188809981881,0.8472606800098761,0.0678224381787576,0.11066367741635277,0.35769797319030344,0.8192514972279002,0.10516185988006604,0.13988606556074928
27,,,,,,,,,,,,,,,,,,,,,,,,,,,,,,,,,,,,,,,,,,,,,,,,,,,,,,,,,,,,,,,,,,,,,,,,,,,,,,,,,,,,,,,,,,,,,,,,,,,,,,,,,,,,,,,,,,,,,,,,,,,,,,,,,,,,
28,,,,,,,,,,,,,,,,,,,,,,,,,,,,,,,,,,,,,,,,,,,,,,,,,,,,,,,,,,,,,,,,,,,,,,,,,,,,,,,,,,,,,,,,,,,,,,,,,,,,,,,,,,,,,,,,,,,,,,,,,,,,,,,,,,,,
29,,,,,,,,,,,,,,,,,,,,,,,,,,,,,,,,,,,,,,,,,,,,,,,,,,,,,,,,,,,,,,,,,,,,,,,,,,,,,,,,,,,,,,,,,,,,,,,,,,,,,,,,,,,,,,,,,,,,,,,,,,,,,,,,,,,,
30,,,,,,,,,,,,,,,,,,,,,,,,,,,,,,,,,,,,,,,,,,,,,,,,,,,,,,,,,,,,,,,,,,,,,,,,,,,,,,,,,,,,,,,,,,,,,,,,,,,,,,,,,,,,,,,,,,,,,,,,,,,,,,,,,,,,
31,,,,,,,,,,,,,,,,,,,,,,,,,,,,,,,,,,,,,,,,,,,,,,,,,,,,,,,,,,,,,,,,,,,,,,,,,,,,,,,,,,,,,,,,,,,,,,,,,,,,,,,,,,,,,,,,,,,,,,,,,,,,,,,,,,,,
32,,,,,,,,,,,,,,,,,,,,,,,,,,,,,,,,,,,,,,,,,,,,,,,,,,,,,,,,,,,,,,,,,,,,,,,,,,,,,,,,,,,,,,,,,,,,,,,,,,,,,,,,,,,,,,,,,,,,,,,,,,,,,,,,,,,,
33,,,,,,,,,,,,,,,,,,,,,,,,,,,,,,,,,,,,,,,,,,,,,,,,,,,,,,,,,,,,,,,,,,,,,,,,,,,,,,,,,,,,,,,,,,,,,,,,,,,,,,,,,,,,,,,,,,,,,,,,,,,,,,,,,,,,
34,,,,,,,,,,,,,,,,,,,,,,,,,,,,,,,,,,,,,,,,,,,,,,,,,,,,,,,,,,,,,,,,,,,,,,,,,,,,,,,,,,,,,,,,,,,,,,,,,,,,,,,,,,,,,,,,,,,,,,,,,,,,,,,,,,,,
35,,,,,,,,,,,,,,,,,,,,,,,,,,,,,,,,,,,,,,,,,,,,,,,,,,,,,,,,,,,,,,,,,,,,,,,,,,,,,,,,,,,,,,,,,,,,,,,,,,,,,,,,,,,,,,,,,,,,,,,,,,,,,,,,,,,,
36,,,,,,,,,,,,,,,,,,,,,,,,,,,,,,,,,,,,,,,,,,,,,,,,,,,,,,,,,,,,,,,,,,,,,,,,,,,,,,,,,,,,,,,,,,,,,,,,,,,,,,,,,,,,,,,,,,,,,,,,,,,,,,,,,,,,
37,,,,,,,,,,,,,,,,,,,,,,,,,,,,,,,,,,,,,,,,,,,,,,,,,,,,,,,,,,,,,,,,,,,,,,,,,,,,,,,,,,,,,,,,,,,,,,,,,,,,,,,,,,,,,,,,,,,,,,,,,,,,,,,,,,,,
38,0.4958588837733072,0.20291753805556034,0.3097075378225127,0.9574775779971497,0.45033465537622686,0.20352896391116204,0.353191263651599,0.9652725041466893,0.46232351925320536,0.2260585859532063,0.39347054135172677,1.0269348538994898,0.40792624883325906,0.21477548983542694,0.37714514489423256,0.955071192863249,0.44655148616008583,0.23131755646848196,0.331124725980132,0.9574587502224583,0.4672486570781315,0.28676727009699926,0.3560485713642415,1.0011902152323024,0.4277763103553809,0.26973058022601715,0.33599136538082847,0.9623583107371603,0.5119657037921957,0.2491514705389012,0.3264986333801615,1.0141136534399564,0.5522378255655661,0.22951400481317988,0.4379571056649782,1.0392219224142576,0.44175865521298974,0.26988069053477554,0.3307652199950055,1.0318244477332743,0.42589659743608366,0.27003115374207737,0.3368955037704398,0.9839815323451848,0.3690596794291824,0.2511033400403735,0.25379125548275233,1.0406861273042654,0.46848568092748755,0.23974707533825368,0.4812280817671107,0.9889138493320185,0.2871123136939855,0.3280077504347294,0.08136893472083348,0.10736587389437952,0.5124561749127035,0.3128629858544812,0.32070118753956334,0.9371892612336877,0.28564030291225906,0.2926416390687736,-0.001928109382848174,0.14449702073238804,0.321733587667646,0.2934288326488705,0.10859760550670966,0.6199483334870435,0.22092068663178263,0.3461713415997171,-0.019548104520534106,0.21081893091579407,0.32954595419893395,0.2539947608562807,0.0686532755743759,0.5095481406386327,0.291741236896947,0.3263022298937275,-0.07314249763475777,0.19738559211914652,0.31010680699807985,0.30021508931465407,0.07705321674751299,0.4994786427829234,0.29608159817678803,0.31909666548787696,-0.049165472428063295,0.2065078179309749,0.30733442344412787,0.3319448628269843,0.097250175270195,0.46682911617843725,0.3388078987641723,0.37593489015829207,0.1726379464843727,0.9886530296093295,0.4377102668938832,0.4186769042452131,0.2977887246973574,0.9622051252432446,0.31661444525277893,0.46223068352635666,0.11612451287166557,0.5714855659620296,0.3961975656880571,0.5033183738611652,0.18989608594848323,0.953635299859001,0.22819800855348454,0.624304521641537,-0.04656392728180368,0.6155993298265081,0.3145429293251189,0.5970295942036973,0.055455442722001924,0.8836028896536336,0.1964363608797159,0.6328009238364647,-0.06473799057666293,0.41577976125038524,0.3424775534651389,0.5995560947802154,0.05950706506586122,0.7855975861471739,0.24484695548253216,0.652928736021076,-0.0792668927168966,0.5025737237553879,0.3749613124546901,0.6516825155804088,0.08080587910727824,0.7214934520305903
39,0.46645255372908234,0.19799935019888612,0.2545296584299364,0.9574775779971497,0.4230107068583549,0.1992499017592531,0.3024692324533185,0.9652725041466893,0.4348494998486401,0.22173105032393378,0.34262393501135424,1.026798120844375,0.38031568620438305,0.21040052381007443,0.32621757686901215,0.955071192863249,0.41788976309349896,0.22725061234616756,0.2776131515844806,0.9574587502224583,0.4385748074661973,0.28283641827986816,0.30256840437957,1.0011263190531032,0.39906027906856373,0.26594361402137384,0.2825065958450515,0.9623583107371603,0.4942454052742323,0.2460863612859715,0.29435911693041755,1.0140520222372587,0.5275950530626826,0.22743426464651578,0.392657825287373,1.0390940108465696,0.41484636160006383,0.2652972721654823,0.2806259501749284,1.0306094666541727,0.39712190204994896,0.2657053764498258,0.28303902627421207,0.982826036701569,0.35567548080226974,0.2504655405389545,0.23833231462220275,1.0364909139863945,0.4470921354452664,0.23369422366131276,0.4373906811267163,0.9873849901935298,0.24664894192248923,0.3326270508001774,0.022109175214411813,0.12263883023588451,0.489411305767952,0.3054377968362317,0.2646795186748775,0.9487798612474205,0.21413106070187785,0.2876185470372948,-0.11932397163566313,0.20478018988274055,0.31537255523538044,0.2984089199291439,0.06611167099138834,0.9558283150048352,0.14669941190311592,0.33836262649466037,-0.14143752067460902,0.30104166214843714,0.32593074545678047,0.26449915562594933,0.02760745463029516,0.885972572439475,0.21827590720009363,0.3193864817743732,-0.19520495521229692,0.27530020262425053,0.30744116167663,0.31001522540397897,0.034867245232663976,0.8838581488940684,0.2253773225283968,0.31329927931844337,-0.16661295534423484,0.2891049395273112,0.30355734142620777,0.339554021581333,0.055545200852632766,0.8238188575038157,0.3494573029485103,0.3838567646814549,0.19171220015038995,0.9885101572758027,0.4350096544312837,0.4223772798021589,0.28376317966527126,0.9621557725973706,0.29154504091085476,0.47623002644475265,0.07366404784132505,0.33557059055729016,0.36503778228916145,0.5205596730135394,0.12841864190392335,0.9826410657739177,0.18025696870067706,0.6423299198959316,-0.12483787395545896,0.4654470339986425,0.2662023597735182,0.6166503107755051,-0.028765443691681325,0.917818578359078,0.1457256262435472,0.6504321565749596,-0.1487624217838925,0.35629286545074834,0.29060209979121454,0.6203058425333587,-0.029065526937093702,0.9180939431112851,0.18241779047624673,0.6662821434040411,-0.17640124931615503,0.2530579220872208,0.32071542952846066,0.6628508166859081,-0.01333294717186283,0.7812561087192805
40,,,,,,,,,,,,,,,,,,,,,,,,,,,,,,,,,,,,,,,,,,,,,,,,,,,,,,,,,,,,,,,,,,,,,,,,,,,,,,,,,,,,,,,,,,,,,,,,,,,,,,,,,,,,,,,,,,,,,,,,,,,,,,,,,,,,
41,,,,,,,,,,,,,,,,,,,,,,,,,,,,,,,,,,,,,,,,,,,,,,,,,,,,,,,,,,,,,,,,,,,,,,,,,,,,,,,,,,,,,,,,,,,,,,,,,,,,,,,,,,,,,,,,,,,,,,,,,,,,,,,,,,,,
42,,,,,,,,,,,,,,,,,,,,,,,,,,,,,,,,,,,,,,,,,,,,,,,,,,,,,,,,,,,,,,,,,,,,,,,,,,,,,,,,,,,,,,,,,,,,,,,,,,,,,,,,,,,,,,,,,,,,,,,,,,,,,,,,,,,,
43,,,,,,,,,,,,,,,,,,,,,,,,,,,,,,,,,,,,,,,,,,,,,,,,,,,,,,,,,,,,,,,,,,,,,,,,,,,,,,,,,,,,,,,,,,,,,,,,,,,,,,,,,,,,,,,,,,,,,,,,,,,,,,,,,,,,
44,,,,,,,,,,,,,,,,,,,,,,,,,,,,,,,,,,,,,,,,,,,,,,,,,,,,,,,,,,,,,,,,,,,,,,,,,,,,,,,,,,,,,,,,,,,,,,,,,,,,,,,,,,,,,,,,,,,,,,,,,,,,,,,,,,,,
45,,,,,,,,,,,,,,,,,,,,,,,,,,,,,,,,,,,,,,,,,,,,,,,,,,,,,,,,,,,,,,,,,,,,,,,,,,,,,,,,,,,,,,,,,,,,,,,,,,,,,,,,,,,,,,,,,,,,,,,,,,,,,,,,,,,,
46,,,,,,,,,,,,,,,,,,,,,,,,,,,,,,,,,,,,,,,,,,,,,,,,,,,,,,,,,,,,,,,,,,,,,,,,,,,,,,,,,,,,,,,,,,,,,,,,,,,,,,,,,,,,,,,,,,,,,,,,,,,,,,,,,,,,
47,,,,,,,,,,,,,,,,,,,,,,,,,,,,,,,,,,,,,,,,,,,,,,,,,,,,,,,,,,,,,,,,,,,,,,,,,,,,,,,,,,,,,,,,,,,,,,,,,,,,,,,,,,,,,,,,,,,,,,,,,,,,,,,,,,,,
48,,,,,,,,,,,,,,,,,,,,,,,,,,,,,,,,,,,,,,,,,,,,,,,,,,,,,,,,,,,,,,,,,,,,,,,,,,,,,,,,,,,,,,,,,,,,,,,,,,,,,,,,,,,,,,,,,,,,,,,,,,,,,,,,,,,,
49,,,,,,,,,,,,,,,,,,,,,,,,,,,,,,,,,,,,,,,,,,,,,,,,,,,,,,,,,,,,,,,,,,,,,,,,,,,,,,,,,,,,,,,,,,,,,,,,,,,,,,,,,,,,,,,,,,,,,,,,,,,,,,,,,,,,
50,,,,,,,,,,,,,,,,,,,,,,,,,,,,,,,,,,,,,,,,,,,,,,,,,,,,,,,,,,,,,,,,,,,,,,,,,,,,,,,,,,,,,,,,,,,,,,,,,,,,,,,,,,,,,,,,,,,,,,,,,,,,,,,,,,,,
51,,,,,,,,,,,,,,,,,,,,,,,,,,,,,,,,,,,,,,,,,,,,,,,,,,,,,,,,,,,,,,,,,,,,,,,,,,,,,,,,,,,,,,,,,,,,,,,,,,,,,,,,,,,,,,,,,,,,,,,,,,,,,,,,,,,,
52,,,,,,,,,,,,,,,,,,,,,,,,,,,,,,,,,,,,,,,,,,,,,,,,,,,,,,,,,,,,,,,,,,,,,,,,,,,,,,,,,,,,,,,,,,,,,,,,,,,,,,,,,,,,,,,,,,,,,,,,,,,,,,,,,,,,
53,,,,,,,,,,,,,,,,,,,,,,,,,,,,,,,,,,,,,,,,,,,,,,,,,,,,,,,,,,,,,,,,,,,,,,,,,,,,,,,,,,,,,,,,,,,,,,,,,,,,,,,,,,,,,,,,,,,,,,,,,,,,,,,,,,,,
54,0.4284121384665734,0.2149156401244614,0.21077093839780403,0.9574775779971497,0.39309001296407375,0.21755851148329802,0.2739518647828059,0.9652725041466893,0.4045371213948804,0.2409365609402363,0.31390295527761886,1.0269074357628931,0.34960559473568825,0.2305706610962607,0.29720282525010683,0.955071192863249,0.3834485412921271,0.24406669196271413,0.2383199872706593,0.9574587502224583,0.4051951915959304,0.29954514993117437,0.2639341682270401,1.0011772214197414,0.3667501548560524,0.2826359841976892,0.24450855062557247,0.9623583107371603,0.4907906548800708,0.27168707775764356,0.3131186163698601,1.0140864737219388,0.5024281481318429,0.24873304568384647,0.36233426657481177,1.0392086901831175,0.3864199907232074,0.2871244930822304,0.2533129432066958,1.0318033476890238,0.36242256652529975,0.28599271136880156,0.24128924718950445,0.9839213316539616,0.3740488894639917,0.2916482373582599,0.2822921368081748,1.0385613409273124,0.43045774413155424,0.27406123091686696,0.4108023715932732,0.9881981763622005,0.34461515014010247,0.3672131823729008,0.19196803897028372,0.1508774173173169,0.47474355267195023,0.33609106493506286,0.2416948659267925,0.9337901871560815,0.41144672953674555,0.3385235660821709,0.23093662018742897,0.31307181585930305,0.28210190566225485,0.3021589163528653,0.026729412994215267,0.4465246260018445,0.3660315395971917,0.3950116855518961,0.2478873808387537,0.45750951712509125,0.29220733791248543,0.26302471552814044,-0.010934938458783372,0.40424613463239195,0.43789485528744243,0.3769550914888813,0.19468991612729483,0.43665933396046275,0.273528204283599,0.30922668575592294,0.0017613959660132805,0.40680188401674905,0.42705628310101873,0.37050716172277076,0.19049351279889393,0.3985945592592143,0.26700284652424094,0.3403709032379798,0.017635574858660803,0.3766450534590921,0.35657919801200044,0.46020563567411543,0.2107192338258999,0.9886749641186068,0.4233550845373727,0.4971319649656568,0.2617160321351067,0.9622730745382885,0.26261083019151366,0.519239546021779,0.03935287709931473,0.6349309552328121,0.3608370689449228,0.5403420969866229,0.10464671595015848,0.9519945628022686,0.15466552770862502,0.6832045799110378,-0.1655911104098488,0.46362632071701104,0.2293775231557377,0.6414839303700791,-0.09198083229597051,0.8135238610472189,0.12287689239586522,0.6895020475509117,-0.18969768273788165,0.5371488847092476,0.25281538873802467,0.6447907749559967,-0.09509697604875762,0.7362415428083983,0.12428672337906997,0.7196507118244513,-0.2699957679716975,0.2947633516412064,0.2440409563126214,0.6967861847469737,-0.13405947627218393,0.5746016196789058
55,,,,,,,,,,,,,,,,,,,,,,,,,,,,,,,,,,,,,,,,,,,,,,,,,,,,,,,,,,,,,,,,,,,,,,,,,,,,,,,,,,,,,,,,,,,,,,,,,,,,,,,,,,,,,,,,,,,,,,,,,,,,,,,,,,,,
56,0.431644329020611,0.2241308758346055,0.18494971869274068,0.9574775779971497,0.39653791118444787,0.22349573014937463,0.24893441933029561,0.9652725041466893,0.4080168313983082,0.2462357416863148,0.28890884861323257,1.0263088263154139,0.35313301300128996,0.23511992600409762,0.27229311581645976,0.955071192863249,0.38587763690336013,0.2513662343897772,0.21144109929684035,0.9574587502224583,0.4073277068791603,0.307225864061576,0.23674921596875345,1.000684529426028,0.3686906412270781,0.290634957328869,0.21715786112045862,0.9623583107371603,0.5026781415208752,0.27503089832954297,0.30414318920853567,1.0133595354742582,0.5072677083347431,0.256315978394494,0.3408251033762812,1.0384115972685362,0.3928632344386871,0.2944792592126778,0.23353485202194327,1.0304693957389506,0.36683220180396414,0.29473441797852756,0.21826303909185096,0.979762357960114,0.43111162672945713,0.3044493481027362,0.36440506859335925,1.0398997036210988,0.43091283091124943,0.27676966597546077,0.37782164482058717,0.9897115382930476,0.4148296519494755,0.42786958090767563,0.33081672490214986,0.4225289013895253,0.5338605695302319,0.351321422582005,0.3346481319564854,0.13639188817727588,0.4514335592092285,0.4333367937356743,0.3450160964572487,0.15757107604645215,0.4287207130549293,0.363328421472189,0.2973671550812506,0.08671268670273781,0.3925615629121585,0.4973075909035349,0.34520921616402445,0.18260839527030914,0.4393669969078901,0.3342467228027681,0.2681357590831421,0.053239880078597056,0.4587912835163943,0.4832329149370624,0.2792948191370421,0.14527214850609413,0.4226830684732002,0.38585098981209054,0.28263919991617426,0.05820767297482172,0.4609494321037104,0.4715418327909623,0.29577544947487655,0.10151014579037648,0.41489527480313443,0.41435993693701545,0.2921247712183197,0.0077210578152380124,0.3911785279525785,0.4727865072561467,0.2562185897820985,0.9885922328716585,0.4271475350374492,0.5106279466589246,0.24025836230011421,0.9622153772421458,0.32173989727448543,0.5703797947972612,0.1449880035480154,0.20906962639255627,0.36914821146898286,0.6265269562624408,0.08918244098902128,0.2991917378282085,0.2432707753942832,0.7397044783447231,0.004086495511583396,0.24002964353290612,0.32320470498666626,0.7214532172887193,0.006335367673173026,0.27736389863152366,0.21466632149282086,0.7469330897452782,-0.013305503368054694,0.39733119982040777,0.35626461494959305,0.7209537092592804,0.01455327675562855,0.4209050173681822,0.22816344302010658,0.7723742983837469,-0.07256840962398364,0.14505508061459496,0.35723223681520005,0.7815624670574596,-0.0041235484329603285,0.15215864701884096
57,0.4729146209302792,0.23521632648386692,0.268319177762098,0.9574775779971497,0.43460474775360525,0.23279310106001921,0.3258919442887905,0.9652725041466893,0.4463471640860653,0.2551297381634419,0.36599590757711264,1.0259641326546778,0.3917568415353572,0.24358032849280611,0.3495088677387351,0.955071192863249,0.42230153659409897,0.2617155676760626,0.28562666811888515,0.9574587502224583,0.4437833885565667,0.3178200532285987,0.31106739691706586,1.0009022651933925,0.4052243571568635,0.3014983508740197,0.2915712363385028,0.9623583107371603,0.5347067288027911,0.2829487495391835,0.3669836423730697,1.0121450908369596,0.5306460648444222,0.267794581280694,0.3882237900529697,1.0390445985960508,0.43272423631390633,0.30507025953120503,0.3130143295598412,1.025535502058378,0.4044308190928559,0.3065722580587888,0.29438876658721697,0.9792442147830814,0.4541028323345134,0.3058435603486774,0.4066805636567406,1.0427764621965383,0.45582260036101285,0.29874440838802785,0.4269887956214612,0.9905373010417657,0.43107175510367796,0.3955292927454442,0.3761354231301701,0.49176330237715044,0.5580651152262743,0.43436455083403436,0.4011510710498616,0.4087171953080895,0.42657293496558363,0.3558761173040184,0.3307106307117587,0.15240229536198094,0.5036052196605243,0.5361255649315091,0.4340123009246964,0.2222719400973416,0.36219749292495085,0.41081186360289096,0.3270199470317701,0.18634375875373804,0.519269904395007,0.5326220074745516,0.40997352906112167,0.19032423006848806,0.4249618352376882,0.3893989021902515,0.2548679110207578,0.15070527579014412,0.5069632638817351,0.583963149779513,0.4267905509338051,0.1779642598245112,0.4337965187167917,0.3800037909608995,0.2803380054584693,0.10460574281910878,0.49471955010560437,0.599512735828083,0.43001274715603144,0.08951258165924172,0.39430457474073927,0.48963590586912276,0.2563703018098253,0.988681043792374,0.43371456912471623,0.5304860685308729,0.24606355629796112,0.9622772468634226,0.32657874768133455,0.5926379572957353,0.16858539139279727,0.5305786300317775,0.39396331323669537,0.6298482462786151,0.12547838413273324,0.580397332367851,0.28146553736821955,0.7662941699836696,0.09902551125152771,0.8065574721070867,0.4028556455472095,0.7145093953816758,0.14962055479207503,0.73185321914811,0.25642746004181627,0.7753327360274742,0.09078448445676929,0.8845728554085579,0.43956350940184974,0.7120696369555084,0.1689424516602468,0.8986270661276426,0.2879471895389784,0.8022049329777106,0.06134279890163828,0.6601202439885422,0.4493656608472492,0.7814299659321239,0.1559022529943941,0.7155707172931941
58,0.6300286963942273,0.23114124632754063,0.5500632627017005,0.9574775779971497,0.5674363778312486,0.22971222637854644,0.5558390922988047,0.9652725041466893,0.5833616116220478,0.2525533869976704,0.5986552821822259,1.0269361652016746,0.5328916687924627,0.24149938133208523,0.5848118838453885,0.955071192863249,0.5511082782009755,0.25711784419202327,0.52359793731235,0.9574587502224583,0.5689610272589899,0.31266833437369457,0.5467298358108555,1.001190572860171,0.5283824545195556,0.29576378800017944,0.5261908081543453,0.9623583107371603,0.5528975297973097,0.27996371912650947,0.37021352947588815,1.014114011067825,0.5493256656267818,0.2601685842141962,0.44131985080399116,1.0392202534842039,0.5533223171820676,0.3032191478807381,0.5198188484258204,1.0318541308463725,0.5220158844828295,0.30317750531792875,0.512551218517703,0.9840215866664738,0.42562572964510104,0.314759431730437,0.28422284569539813,1.0430071321718193,0.4323780911066004,0.2830300610255096,0.45102282417975176,0.9861946854373653,0.3951574899181828,0.4278365003298253,0.2061550226504961,0.2053922799143055,0.6159603987279318,0.3694039518884167,0.6262846010997871,0.810901085650802,0.4978566356796684,0.4494169050008568,0.3409979575918519,0.09457615632914027,0.693303033629577,0.3309891167865963,0.8946766848134249,0.7550143658967114,0.4499283313260925,0.5218593699352884,0.35768519541010985,0.11776013617893184,0.7364099751534555,0.2927423993202547,0.9239908095372151,0.6067856084044408,0.5285207691459768,0.5020613963728382,0.3203441311296366,0.08750190372889152,0.7212339289511441,0.34048985838241835,0.9295337502377239,0.6158186243388621,0.5107322656555848,0.4870950687986528,0.304941860132525,0.07222865623930919,0.6934535115292945,0.3746806182705573,0.8987049741562971,0.560212964845582,0.4090348117326465,0.47242881978284956,0.23140402057293644,0.9874730364567111,0.4335078067358951,0.5118931744535719,0.2805696749051308,0.9620119465895274,0.4846206388518393,0.5825715076535539,0.3714170270889736,0.5972036588804256,0.4757862005951085,0.6240381047151996,0.35178331019877235,0.7264420635079877,0.3460435183694921,0.757643807492062,0.1450927050397764,0.2085498676272969,0.3755239203075142,0.7304563796727525,0.19525608500782024,0.4752030097212301,0.30941231206891756,0.7625404467704247,0.1243000585958744,0.022157795007594974,0.4090912351678598,0.7312558952715484,0.20622438079075772,0.05265303801713847,0.4097075243072913,0.807791378309284,0.2101675446920787,0.23779128011277156,0.48387590291948146,0.7981165842602184,0.3267070009348094,0.4973721496643336
59,0.511811843783934,0.23881397343554234,0.3215715802204019,0.9574775779971497,0.46868952690641447,0.23667190312110015,0.3735644830926167,0.9652725041466893,0.4797255481428259,0.260203583549947,0.4135583535271281,1.026936403620254,0.42384668841502,0.2500120570942618,0.39589127765645005,0.955071192863249,0.42475211501076965,0.2623997991957617,0.27281774537988035,0.9574587502224583,0.4461723207925294,0.3173649419634162,0.2981018666270629,1.0011909304880398,0.40754697649590255,0.29991903640372863,0.2785325278856153,0.9623583107371603,0.5058174193879287,0.2924439184635151,0.30607207898162103,1.0141141302771146,0.5408758144917111,0.2665855308637476,0.3941301541852435,1.0392227568792844,0.4623362353387988,0.3130591296750954,0.35198626527318744,1.031855799776426,0.4073355064562174,0.3110037143862271,0.2817536029982356,0.9840250437358707,0.4200978720300508,0.3324343248712298,0.3388735319385338,1.043226596473882,0.5094838998752127,0.29646599103916615,0.518841710175976,0.9887933287402827,0.4692919547264791,0.4421760367582768,0.4069029087909234,0.1734679800185421,0.6464405266820954,0.40370961380514947,0.5620452252662845,0.567784528052688,0.5840782256997061,0.4345149093419823,0.5536171494456604,0.15774500239990674,0.58647869948035,0.4454570952640744,0.6063872654327003,0.32787851093722353,0.5434276790522521,0.5039194149391794,0.5860099601115661,0.21241792982002222,0.6058845083936121,0.4262468198391298,0.594867656394268,0.28883407818631646,0.6145216926127424,0.4792359764700367,0.5312083528230963,0.16943305517857182,0.5911151365857966,0.47858914136238356,0.6076564807658217,0.27876684530710855,0.5989618687759704,0.4642962623697435,0.5142143088118675,0.09888027710417739,0.5754929509039607,0.5027318694435767,0.6026598020549744,0.21653976543037515,0.3856242329838731,0.500927350170728,0.2232104056034605,0.9886860505825351,0.4707658266049082,0.5305645678480421,0.29701648229285904,0.9622789157934765,0.22591869636641385,0.45217448588307657,-0.05060136921565725,0.0638710204379092,0.28775702053616553,0.4804724201582385,-0.057076864590168315,0.15427237218375361,-0.005997849337240558,0.5993887072418178,-0.4489161399181852,0.06529281592098284,0.044484196585545796,0.5501073873250352,-0.4539490723729782,0.036585444983433205,-0.05424767972335744,0.6088268032195518,-0.49265667210315595,0.05015207755125418,0.05193461024643473,0.5526399079706756,-0.4823816684532635,0.2695170874518003,-0.027591297864784217,0.6076724789638861,-0.5442512870405556,0.15567211326172786,0.03003135744824168,0.5864938692638805,-0.5489587411355971,0.17621815128939458
60,0.635077958734672,0.23482236958422403,0.5532310672971177,0.9574775779971497,0.5902591524128578,0.23588342307768884,0.600985856422293,0.9652725041466893,0.6015774024670693,0.2595577970261281,0.6408501330784083,1.026936045992385,0.5464708292963764,0.2483669987007834,0.6240155723714866,0.955071192863249,0.5862063480558174,0.25982317980908864,0.5769032364229422,0.9574587502224583,0.6070195088711537,0.31458730591223827,0.6018851124978383,1.0011906920694607,0.5677554114989151,0.2970040116463433,0.581973809369869,0.9623583107371603,0.640204342226071,0.28983073162727246,0.5554545456114754,1.014114011067825,0.6754529034440211,0.2650325914487695,0.652144301842943,1.039222637669995,0.5749963716330271,0.3116468274194649,0.5631804328869393,1.0318480511726051,0.5567291822228068,0.30789509374261137,0.5638917228263085,0.9840161030391544,0.4937395262650988,0.32684123362176387,0.47559773941754735,1.0431129304162956,0.5919832633603928,0.2938994448374603,0.6786454069836765,0.9901312742015559,0.44312540886061397,0.4329247402380436,0.37550108958850825,0.9699339356931903,0.7459137213228608,0.381729924207066,0.7297216522903971,0.9265795748590233,0.49252453953960756,0.4208310538083824,0.41982422466391806,0.7583812760224196,0.7508031696530917,0.4053381923423977,0.865770377676353,0.9079998791070081,0.4431496032108024,0.48787557310034274,0.442919499617684,0.745797991208038,0.7916562052056876,0.3800962546917299,0.885466287372234,0.8227309118445348,0.5189286563940475,0.4659174378042652,0.39249847514764036,0.7022019901437055,0.778892875304291,0.44367196559257766,0.9055462857871936,0.8231632755610911,0.5064260551985661,0.45282895456372846,0.37915419042203913,0.5732832561204814,0.7448198347055417,0.47314030907980714,0.868793326771929,0.6992459843882761,0.38281715782691517,0.4887745591474736,0.22103931481286693,0.9886904613262484,0.47062101224112884,0.5209073636968885,0.2975641919036704,0.9622936977453806,0.2909857529928831,0.4790510546773271,0.07106088692918594,1.0020488370077143,0.3430022539089959,0.5963835760973407,0.037824838811074006,0.8960114962434308,0.11252841766429507,0.7220188265655483,-0.2244994051942827,0.9549170092317205,0.19980424928313434,0.6808706200330125,-0.20706933125446958,0.8469909750189291,0.0737235173623507,0.7423642149093101,-0.2544475082358537,0.906222275669941,0.21990762562329444,0.6659609142687408,-0.21799776635421553,0.8949119086187926,0.12118879040017307,0.7346022985477789,-0.2535964560921143,0.8700634193043991,0.24536264742152733,0.7444917754719188,-0.19416497816695166,0.8320139936985286
61,0.5573068238958638,0.24595460987963413,0.384246680623411,0.9574775779971497,0.5188750775410982,0.24692843197547026,0.4438771928256279,0.9652725041466893,0.5300863132774672,0.2700370684380238,0.4836747914322669,1.0269250787377466,0.47492454989590144,0.2592126896664358,0.4668325874763559,0.955071192863249,0.5130227027965727,0.27363190707349294,0.41587601919772765,0.9574587502224583,0.5340864043341214,0.3290358294336616,0.44101529172324233,1.0011825858377712,0.49505923360024595,0.3120754931126367,0.4213059080200269,0.9623583107371603,0.5993757375163885,0.29907234239272956,0.4562190450742941,1.014110553998428,0.62514956944061,0.2775507291421747,0.533668945854019,1.0392123856710938,0.5081273052935157,0.3174099409181526,0.4153486239719685,1.0317995329917582,0.4878576853582588,0.3164319689905667,0.4111816769320145,0.983914298305878,0.47486461753410947,0.3225788458692309,0.42348935649328073,1.0428289738885856,0.5502408031597164,0.29480239560116267,0.5789333514690115,0.9891474399348933,0.38649258722740876,0.4305130469034642,0.2639828036556065,0.7236380067381123,0.6389491486220613,0.3613738651326642,0.4839561824477401,0.9365950029252771,0.3934143268512567,0.3956096463948997,0.21947519679778274,0.39755120743416267,0.5852112989902818,0.3172526899563046,0.5016163983260695,0.8843827903122998,0.33951137081743493,0.4581893903629923,0.2304007574281654,0.41605830138107264,0.6015309414270199,0.28317963872874774,0.470293855336747,0.7973382006819677,0.4164195023181653,0.4364162082796528,0.18297064403973923,0.3760232606095563,0.601646786207871,0.3273357391292598,0.5158544339262761,0.7951926039073436,0.40726923900898726,0.426676433191887,0.17787905453794994,0.2983470271299266,0.6133139929693555,0.3579770722233466,0.5674094860105386,0.7041072796115122,0.3981582049227987,0.4886602374387944,0.24181675597828023,0.9886800901180576,0.46244546242742784,0.5253808711012159,0.28143594686159473,0.9622799886770824,0.23914074832466134,0.5037060391515092,-0.028452882493958137,0.7447209227697383,0.296072709237072,0.5772576972864581,-0.04728832836138586,0.8068166620111005,0.03739548100420399,0.7033317571495021,-0.3721223148591946,0.6031087592813116,0.10051128342245023,0.6633886373250352,-0.3799351810087133,0.7267568432058797,-0.0057158639438166445,0.7159102430465172,-0.4116135528815933,0.6980233110741463,0.11304273965540709,0.6642407838251678,-0.40128354464710436,0.852048658840045,0.0060725765153647904,0.7232437990208014,-0.4727499755288033,0.45726996179631196,0.11379923709252807,0.7113492683956554,-0.42880993394901973,0.6674028925480159
62,0.5207498167108442,0.24910122848429422,0.3062690287251162,0.9574775779971497,0.4850415505943946,0.24934298633299895,0.3694080667145143,0.9652725041466893,0.4959449220927519,0.272382630419225,0.40898418571948486,1.0269322312951195,0.4405707240636931,0.261645423440621,0.39208383452822565,0.955071192863249,0.4811506107138364,0.27659261879109853,0.3437904054046214,0.9574587502224583,0.5025868320628266,0.3320762325613319,0.3692321055935975,1.0011902152323024,0.4638765827514114,0.3152462814007531,0.3497394781492642,0.9623583107371603,0.5731088817138551,0.3012386732070912,0.39768628803451866,1.0141132958120878,0.6091372708209519,0.2805421968564844,0.4910707458472316,1.0392221608328367,0.4722871786798901,0.3201674305993965,0.3416145836339264,1.0318201561988503,0.45536460530747525,0.31930893618226286,0.34195631535075544,0.983985704670319,0.445612750081103,0.3200545891629932,0.36439866870943377,1.0417466727487539,0.5228779968877042,0.2982880156229827,0.5261979579081126,0.9896725568553645,0.33492202187532283,0.3912303673456639,0.1571357645216112,0.39729685454695024,0.5929171541182925,0.33087664199385497,0.40746730203857257,0.9280319016336205,0.3093601315592001,0.3190262907296928,0.0346498380396621,0.32697135080002265,0.3985222999531746,0.27337806856500824,0.1809857045537236,0.842477327570448,0.2469312783144973,0.36535739129950046,0.026168559668136852,0.41805708353897064,0.41065220479571835,0.22977271471942462,0.14490873891894654,0.7735933791335058,0.3201486093523324,0.3448235685949756,-0.029073743343457796,0.3791817703408491,0.39126136033854314,0.27520092725105544,0.15597504376989982,0.7620198176715343,0.32215692371905247,0.3410995710951005,-0.011234306422466034,0.3511425862977885,0.3852515259163159,0.3089610435806922,0.17300972531293798,0.718455369306489,0.3900653923740242,0.49106462920438887,0.22754076037482834,0.9885638610607456,0.46984472918212344,0.5331071827848707,0.2951981393356214,0.9621841444082836,0.19589282333812422,0.5296933066457109,-0.1033402456952267,0.5917571652547847,0.3246241826685184,0.5800669834040119,-0.015688374542988666,0.8784432656144635,-0.003119787861343249,0.7013980036590541,-0.43237354097241454,0.6728190735551458,0.1344712419358245,0.677494970580803,-0.31700697132081046,0.7977345310415731,-0.04988445289063439,0.7132243385436485,-0.4741003261537759,0.7822206534699288,0.15546567051651758,0.6802648965265838,-0.3313954684329106,0.8803465003889647,-0.05402314391621128,0.7216340563793524,-0.5702810395692527,0.531086231432466,0.1377153144830355,0.7300788955280711,-0.39886786464861046,0.6186831883968623
63,,,,,,,,,,,,,,,,,,,,,,,,,,,,,,,,,,,,,,,,,,,,,,,,,,,,,,,,,,,,,,,,,,,,,,,,,,,,,,,,,,,,,,,,,,,,,,,,,,,,,,,,,,,,,,,,,,,,,,,,,,,,,,,,,,,,
64,,,,,,,,,,,,,,,,,,,,,,,,,,,,,,,,,,,,,,,,,,,,,,,,,,,,,,,,,,,,,,,,,,,,,,,,,,,,,,,,,,,,,,,,,,,,,,,,,,,,,,,,,,,,,,,,,,,,,,,,,,,,,,,,,,,,
65,,,,,,,,,,,,,,,,,,,,,,,,,,,,,,,,,,,,,,,,,,,,,,,,,,,,,,,,,,,,,,,,,,,,,,,,,,,,,,,,,,,,,,,,,,,,,,,,,,,,,,,,,,,,,,,,,,,,,,,,,,,,,,,,,,,,
66,,,,,,,,,,,,,,,,,,,,,,,,,,,,,,,,,,,,,,,,,,,,,,,,,,,,,,,,,,,,,,,,,,,,,,,,,,,,,,,,,,,,,,,,,,,,,,,,,,,,,,,,,,,,,,,,,,,,,,,,,,,,,,,,,,,,
67,,,,,,,,,,,,,,,,,,,,,,,,,,,,,,,,,,,,,,,,,,,,,,,,,,,,,,,,,,,,,,,,,,,,,,,,,,,,,,,,,,,,,,,,,,,,,,,,,,,,,,,,,,,,,,,,,,,,,,,,,,,,,,,,,,,,
68,,,,,,,,,,,,,,,,,,,,,,,,,,,,,,,,,,,,,,,,,,,,,,,,,,,,,,,,,,,,,,,,,,,,,,,,,,,,,,,,,,,,,,,,,,,,,,,,,,,,,,,,,,,,,,,,,,,,,,,,,,,,,,,,,,,,
69,,,,,,,,,,,,,,,,,,,,,,,,,,,,,,,,,,,,,,,,,,,,,,,,,,,,,,,,,,,,,,,,,,,,,,,,,,,,,,,,,,,,,,,,,,,,,,,,,,,,,,,,,,,,,,,,,,,,,,,,,,,,,,,,,,,,
70,,,,,,,,,,,,,,,,,,,,,,,,,,,,,,,,,,,,,,,,,,,,,,,,,,,,,,,,,,,,,,,,,,,,,,,,,,,,,,,,,,,,,,,,,,,,,,,,,,,,,,,,,,,,,,,,,,,,,,,,,,,,,,,,,,,,
71,,,,,,,,,,,,,,,,,,,,,,,,,,,,,,,,,,,,,,,,,,,,,,,,,,,,,,,,,,,,,,,,,,,,,,,,,,,,,,,,,,,,,,,,,,,,,,,,,,,,,,,,,,,,,,,,,,,,,,,,,,,,,,,,,,,,
72,0.522552164269425,0.27307204104342203,0.3015521769676974,0.9574775779971497,0.47931933034681395,0.2761940443392855,0.3517671322146239,0.9652725041466893,0.49114836107392496,0.2989908293003743,0.3919619346946451,1.0269354499459376,0.436578871543008,0.2879963388725973,0.37552400766896776,0.955071192863249,0.47102885111433823,0.30435246881627553,0.3202717794027343,0.9574587502224583,0.49201590691144786,0.3603764284937202,0.34530610087300245,1.001189023139407,0.45296350969242927,0.34396582581145874,0.3255389020643458,0.9623583107371603,0.5617345096780437,0.32736300158195386,0.3615768752234969,1.0141137726492457,0.577998168335737,0.3093255182370996,0.42452962063638927,1.0392196574377561,0.4777369222141846,0.34199623103923116,0.336737120360307,1.0318504353583964,0.4544649281175265,0.3427107926046872,0.3282242980548382,0.9839898769954531,0.44802740094057303,0.3415420636045215,0.339198059464321,1.0431668130151723,0.5214574637371571,0.32018518259037465,0.49851465211667495,0.9902584109088617,0.3746963820462319,0.424729608220908,0.20172628185418906,0.47767485051481523,0.5739334045009532,0.3833925063661084,0.37324746094223604,0.6763457458375696,0.3614425168433627,0.3773334317952904,0.11441514032178049,0.13143937159679844,0.4292614915060204,0.3701862934814663,0.24894781954375592,0.1564283504934407,0.29471002155994,0.4281058234589243,0.09927270522982698,0.18552689199825256,0.4388478437523126,0.3358176032158236,0.2134971879677071,0.16538743483380794,0.3672721807510099,0.4098798926001026,0.043179317806444496,0.1474851348561536,0.419460123425646,0.38402857779808297,0.22144529844734148,0.154550497374293,0.37393768610627265,0.4037850607496415,0.0679845316856433,0.11799176884392729,0.4150069866687221,0.41357315562598024,0.2389448718708124,0.09711761279193973,0.4096976708491274,0.47341754163038374,0.23780862745357334,0.9886905805355379,0.48752071933629054,0.5126999233206068,0.30861762254236347,0.9622900022574046,0.3219968391787784,0.521444500645955,0.05760342268082569,0.1737776864187251,0.4060411235233406,0.5440579697512103,0.10571274095316108,0.5733943826531903,0.22658439464244665,0.6548027878616298,-0.12673865267595397,0.24897162174907733,0.29450890405809144,0.6107964790074693,-0.06882499552582841,0.385148706313561,0.19452688107628066,0.6570551266791771,-0.14978331494979258,0.3076243914917792,0.3168548748646697,0.6083920065310089,-0.07432085191963296,0.53742172669588,0.20332322416937398,0.6804142258663519,-0.22428912368022721,0.21066349264195397,0.29985538141242113,0.6583714084217479,-0.13312315215527218,0.3017644576610835
73,0.541472203290713,0.26780337787546854,0.3421751243346859,0.9574775779971497,0.5014181696395363,0.2711547696467501,0.39776833320595656,0.9652725041466893,0.5134599210217766,0.2943531409020131,0.438059535260061,1.026609174120437,0.4591797128204786,0.2837689986511923,0.4218609196997316,0.955071192863249,0.4904645317563873,0.2976337736525487,0.36179232905023045,0.9574587502224583,0.5115075610173969,0.3530221690027534,0.3869280515145756,1.0010325013422268,0.4724583782511501,0.33602079488380066,0.3671934754860817,0.9623583107371603,0.5915267853381149,0.32405393051795844,0.4197818206849654,1.0140409357733304,0.5980945249241285,0.3007349392042017,0.4668135565588939,1.039154688374951,0.4992621094550496,0.33780369993037496,0.38132260963762366,1.031340458017698,0.4731866496000827,0.33709815103173496,0.36814394672695677,0.9826184337238164,0.4765384882943297,0.3422553523885486,0.39125560031131384,1.0344814625970815,0.5302322316156767,0.3089605550955627,0.5132194702485665,0.9896323237201411,0.3703185027560858,0.424029700679633,0.19264172427321025,0.06939556754259861,0.5727498208924724,0.3534075255444989,0.3355999612459746,0.6525162856935266,0.321624042396176,0.3759389215261253,0.03200371792450974,0.016352216344103363,0.38630405916474847,0.3402242604480954,0.12884824814676868,0.10159493832303051,0.25539830646678013,0.42665975517202853,0.015353327189983217,0.06638066602428874,0.3927118661529065,0.3065963665100435,0.08503544013078615,0.08530382620648855,0.3270635083096259,0.4083103234892322,-0.04197454235154257,0.022130463005353124,0.3764656930740436,0.3563238322670009,0.10035882421831745,0.08584265871977481,0.33393500205858206,0.4025971997839128,-0.015575902781012285,0.01593628068963519,0.37218351969810237,0.3866452076279334,0.1201285903505514,0.049728738797589316,0.42616025631465915,0.47372337306272627,0.2559877841380501,0.9886622087246247,0.4894671764640388,0.5095277045210157,0.30199545247918913,0.962256981284199,0.29797792519430366,0.5253297698109941,0.012109708982432466,0.057432783754302094,0.3741944503299957,0.5620215579889728,0.05387136479212328,0.10194444870705753,0.15072635204381024,0.6367511635635341,-0.2587949444917314,0.028934716490183435,0.20069456649400275,0.6251656687466965,-0.23613332097279793,-0.01016947028379589,0.11423278982130766,0.6382874717833946,-0.2905791976775859,0.03347656803882978,0.21650744493647692,0.6234806839373199,-0.2523561803676088,0.11093460869012736,0.11687497785963595,0.6528644226093634,-0.37258957665985193,0.059887221864966964,0.21068251990008005,0.6710164146015575,-0.29886907624105813,0.03794058150368048
74,0.6060639278183239,0.2623935709086869,0.45608974927589346,0.9574775779971497,0.5663538661438496,0.26732064126692834,0.5110845263480214,0.9652725041466893,0.5785105994920254,0.2908055916542714,0.5514445109047486,1.0259224690079798,0.5242661788483036,0.2804520299717642,0.5351479979051958,0.955071192863249,0.5539911533907558,0.29372564610623836,0.4726453604894765,0.9574587502224583,0.5748114237083107,0.34931365741179576,0.4976322566108156,1.000639170291354,0.5355855914273053,0.33248284198386774,0.4777795793074946,0.9623583107371603,0.6449701631890162,0.3240674011676777,0.5113513047994179,1.0136701352781825,0.6443130781661868,0.3002524396047449,0.5459191650831295,1.0388622679876829,0.5585498649865894,0.3344220304090431,0.48585243384068794,1.030728020292631,0.5304583198556868,0.3334585126078153,0.46942527830456443,0.9826900189021915,0.526399096581191,0.3428263648854968,0.48107798154812026,1.0403556791536308,0.5631917902589686,0.31069662978161305,0.5656600644535407,0.9904474172374446,0.4479849415501943,0.4208381997774571,0.3402678842527444,0.6118698802503804,0.6057310133823455,0.35726659846815917,0.38447793592711776,0.9114945333360437,0.43402374387323134,0.3723702126294884,0.25655922691696564,0.16468073297642194,0.4874829252988983,0.3517275694595547,0.28274115220365753,0.7912069618554212,0.37238921186710827,0.42532553500105374,0.25326524717090726,0.21486373191257446,0.5073126613316734,0.3229922333809237,0.25863204435122084,0.7431680093939733,0.44532753401811914,0.4026133413439228,0.1975497718888796,0.15860613967602363,0.4924863635458135,0.36771422027893325,0.27431614965595547,0.7222247765872447,0.4453379627557741,0.39475036750852216,0.2093053943343687,0.113578886813917,0.4786056197290491,0.39591218016974244,0.27789032760053994,0.5960500190982065,0.44022809427636195,0.4612982484174931,0.272836585142891,0.9886563674694367,0.4917988709786918,0.5014611099203382,0.2954017716524411,0.9622764123983958,0.30356358463153105,0.49341046925481125,0.018177544718262634,0.1234033126251231,0.37304684732150156,0.5737721368692829,0.0535508621573619,0.7946065909242169,0.12460910214510319,0.6099048739288295,-0.3074775527407976,0.10119512235847523,0.22138549591542955,0.6448989188878403,-0.20531366439549936,0.6502007566656576,0.08490197576224887,0.6139713993194054,-0.3438913106361446,0.21436407345093147,0.24117135716165147,0.6445015136149017,-0.21722606434430503,0.7933839793127623,0.09304522853622808,0.6239202878971442,-0.4145262666221485,0.10374975096395447,0.246725547400692,0.6929699973652294,-0.2358001414792214,0.4870663575710566
75,,,,,,,,,,,,,,,,,,,,,,,,,,,,,,,,,,,,,,,,,,,,,,,,,,,,,,,,,,,,,,,,,,,,,,,,,,,,,,,,,,,,,,,,,,,,,,,,,,,,,,,,,,,,,,,,,,,,,,,,,,,,,,,,,,,,
76,,,,,,,,,,,,,,,,,,,,,,,,,,,,,,,,,,,,,,,,,,,,,,,,,,,,,,,,,,,,,,,,,,,,,,,,,,,,,,,,,,,,,,,,,,,,,,,,,,,,,,,,,,,,,,,,,,,,,,,,,,,,,,,,,,,,
77,,,,,,,,,,,,,,,,,,,,,,,,,,,,,,,,,,,,,,,,,,,,,,,,,,,,,,,,,,,,,,,,,,,,,,,,,,,,,,,,,,,,,,,,,,,,,,,,,,,,,,,,,,,,,,,,,,,,,,,,,,,,,,,,,,,,
78,,,,,,,,,,,,,,,,,,,,,,,,,,,,,,,,,,,,,,,,,,,,,,,,,,,,,,,,,,,,,,,,,,,,,,,,,,,,,,,,,,,,,,,,,,,,,,,,,,,,,,,,,,,,,,,,,,,,,,,,,,,,,,,,,,,,
79,,,,,,,,,,,,,,,,,,,,,,,,,,,,,,,,,,,,,,,,,,,,,,,,,,,,,,,,,,,,,,,,,,,,,,,,,,,,,,,,,,,,,,,,,,,,,,,,,,,,,,,,,,,,,,,,,,,,,,,,,,,,,,,,,,,,
80,,,,,,,,,,,,,,,,,,,,,,,,,,,,,,,,,,,,,,,,,,,,,,,,,,,,,,,,,,,,,,,,,,,,,,,,,,,,,,,,,,,,,,,,,,,,,,,,,,,,,,,,,,,,,,,,,,,,,,,,,,,,,,,,,,,,
81,,,,,,,,,,,,,,,,,,,,,,,,,,,,,,,,,,,,,,,,,,,,,,,,,,,,,,,,,,,,,,,,,,,,,,,,,,,,,,,,,,,,,,,,,,,,,,,,,,,,,,,,,,,,,,,,,,,,,,,,,,,,,,,,,,,,
82,,,,,,,,,,,,,,,,,,,,,,,,,,,,,,,,,,,,,,,,,,,,,,,,,,,,,,,,,,,,,,,,,,,,,,,,,,,,,,,,,,,,,,,,,,,,,,,,,,,,,,,,,,,,,,,,,,,,,,,,,,,,,,,,,,,,
83,,,,,,,,,,,,,,,,,,,,,,,,,,,,,,,,,,,,,,,,,,,,,,,,,,,,,,,,,,,,,,,,,,,,,,,,,,,,,,,,,,,,,,,,,,,,,,,,,,,,,,,,,,,,,,,,,,,,,,,,,,,,,,,,,,,,
84,,,,,,,,,,,,,,,,,,,,,,,,,,,,,,,,,,,,,,,,,,,,,,,,,,,,,,,,,,,,,,,,,,,,,,,,,,,,,,,,,,,,,,,,,,,,,,,,,,,,,,,,,,,,,,,,,,,,,,,,,,,,,,,,,,,,
85,,,,,,,,,,,,,,,,,,,,,,,,,,,,,,,,,,,,,,,,,,,,,,,,,,,,,,,,,,,,,,,,,,,,,,,,,,,,,,,,,,,,,,,,,,,,,,,,,,,,,,,,,,,,,,,,,,,,,,,,,,,,,,,,,,,,
86,,,,,,,,,,,,,,,,,,,,,,,,,,,,,,,,,,,,,,,,,,,,,,,,,,,,,,,,,,,,,,,,,,,,,,,,,,,,,,,,,,,,,,,,,,,,,,,,,,,,,,,,,,,,,,,,,,,,,,,,,,,,,,,,,,,,
87,,,,,,,,,,,,,,,,,,,,,,,,,,,,,,,,,,,,,,,,,,,,,,,,,,,,,,,,,,,,,,,,,,,,,,,,,,,,,,,,,,,,,,,,,,,,,,,,,,,,,,,,,,,,,,,,,,,,,,,,,,,,,,,,,,,,
88,,,,,,,,,,,,,,,,,,,,,,,,,,,,,,,,,,,,,,,,,,,,,,,,,,,,,,,,,,,,,,,,,,,,,,,,,,,,,,,,,,,,,,,,,,,,,,,,,,,,,,,,,,,,,,,,,,,,,,,,,,,,,,,,,,,,
89,0.5000920155328802,0.2645435998527024,0.28215439814219356,0.9574775779971497,0.4583352541475227,0.26779348491393157,0.3338735173030976,0.9652725041466893,0.4701017602348512,0.2908814683670704,0.3739988869267087,1.02685784469844,0.4155396707714526,0.2801371088310934,0.3576323016659204,0.955071192863249,0.4487826912661407,0.29426617082738393,0.3001411670735849,0.9574587502224583,0.4700921111255417,0.3496801365701972,0.3254937145160263,1.0011517106317775,0.4312406355749261,0.3326672289524804,0.3059402016676974,0.9623583107371603,0.5397014945494194,0.31737415718726997,0.3421167863986602,1.0141001827902372,0.5559099840853141,0.2948286851510858,0.40508101612586495,1.0391844906973386,0.45422465457677325,0.33221054907626424,0.31689114832189524,1.0314494749129923,0.43159051910551804,0.33127000886559727,0.3089664850817626,0.9834241097072451,0.4176902420084258,0.3241683229314563,0.30731013815204294,1.0010353294603325,0.46958487210028355,0.2933544795702789,0.4305912332821352,0.9721310887119013,0.29277566553110324,0.3947693037222355,0.07440146201363552,0.114734546533511,0.5097319740049092,0.314126187091206,0.2590266460774594,0.907240609443069,0.23378742938294297,0.339287667825869,-0.12177176774569878,0.020540506209954762,0.33931257718676083,0.2699728850113125,0.0843248516126632,0.7357589065880872,0.1610067348382668,0.38780435151030057,-0.1554090852049671,0.07610381526430575,0.34890166774605724,0.2263905087562899,0.047050622264550375,0.7219942341978979,0.23220448623701784,0.3707051272516681,-0.21197042064128832,0.034970057861257724,0.3313053149382435,0.27364894151039376,0.05949950726088139,0.7296519921634166,0.2460982944060324,0.36539618264257057,-0.17065785335222503,0.037967396057643786,0.3262678107849722,0.30815018199316774,0.0767299547814588,0.6606484602221689,0.3917271074539128,0.4484011145902836,0.23341720788824807,0.9855035797840426,0.45286971953286176,0.4887072656591688,0.27971739830146236,0.9603708519049267,0.37874018309673113,0.5452468406766252,0.21297062050216092,0.25536115652485,0.4296660912395363,0.588423733415456,0.21872188937515916,0.7024536973809735,0.32086653314047064,0.7057964688156093,0.12162007636759978,0.14576592600074822,0.3720695788845676,0.6875638044087754,0.14912729139465114,0.5370604716505514,0.2949438843430269,0.7113690843703697,0.1122649206718497,0.19138548451221837,0.40270571003938926,0.6902957621958343,0.16121755569938073,0.5984041328352537,0.325331197298981,0.7378505728741034,0.08108495633804642,0.09567607086112936,0.4348597467153609,0.7388477520534923,0.18398621365690654,0.18477703555243327
90,0.5267630737034478,0.26081959105410313,0.32889237841621854,0.9574775779971497,0.48204207899478924,0.2650565588351351,0.3746994570210205,0.9652725041466893,0.49349567124542854,0.2882988289112752,0.4146060521949977,1.026935330736648,0.4385491878210902,0.2777344754025198,0.39789044945323887,0.955071192863249,0.4732761322053951,0.2917032009043645,0.341968232020175,0.9574587502224583,0.4945151387780115,0.3472106267301856,0.3671877811668409,1.0011896191858547,0.45567818833301965,0.3302536580715905,0.34760030150629373,0.9623583107371603,0.5510764005878278,0.3167626731365193,0.3625058974227817,1.0141131766027982,0.5677642792322479,0.294107886181817,0.42426103783565267,1.0392202534842039,0.47630953122717923,0.32951090570277486,0.3568831867352702,1.0318307658256203,0.45384485895572196,0.3283751602804685,0.34866523595742327,0.9839739029506536,0.4374671620874538,0.3240771874295947,0.3435336802835973,1.0414329735033012,0.47897146181481576,0.29499763061512446,0.4518572327227358,0.9892633709689813,0.4194639399458102,0.3809595631788701,0.2992874037074509,0.3312236753019551,0.5184430804003255,0.29988109422240106,0.29960303022998785,0.7293472688554529,0.4865821467027431,0.3430817716867241,0.35134052145075356,0.12110093105934576,0.3661980677540694,0.2558900359855862,0.15780706128397348,0.682093924269209,0.4312135981925999,0.39879348105360507,0.35532483592244,0.15149941240926706,0.3805216874338892,0.2128640690895418,0.12974747898576067,0.611165238493247,0.5091394442031535,0.3817667062406971,0.30856820759099823,0.11791664894049272,0.3640438579818162,0.26076620220489755,0.1425904604202638,0.6058288262698619,0.504301347859621,0.3739404786688005,0.31317132205362813,0.1256304691503428,0.35539627916247774,0.29433841489187995,0.15291972258111847,0.555858785940095,0.39785777237572234,0.4356384488416874,0.24066694372729625,0.9886855737453768,0.4525170257833787,0.4769818101366315,0.2760993582666411,0.962290479094563,0.37213390893054954,0.5301905285924272,0.2045338406789698,0.5679055321828853,0.4382162145642844,0.5813259527109577,0.2285503654817575,0.8332867271279828,0.28278286637475386,0.692963767609402,0.0574624971025781,0.3246882215711217,0.3508142018395566,0.6719422614781724,0.10668794227862757,0.6518663488592611,0.2543493973862309,0.6977226605536888,0.04426213020328945,0.2176004864529457,0.37822303785327704,0.6694001618769256,0.11365447801695115,0.4657079214972105,0.30124246990739306,0.7274735830326422,0.04352946732105692,0.21061276908925017,0.41988235593341916,0.7288903789112499,0.15704204946947262,0.4213663928093226
91,,,,,,,,,,,,,,,,,,,,,,,,,,,,,,,,,,,,,,,,,,,,,,,,,,,,,,,,,,,,,,,,,,,,,,,,,,,,,,,,,,,,,,,,,,,,,,,,,,,,,,,,,,,,,,,,,,,,,,,,,,,,,,,,,,,,
92,,,,,,,,,,,,,,,,,,,,,,,,,,,,,,,,,,,,,,,,,,,,,,,,,,,,,,,,,,,,,,,,,,,,,,,,,,,,,,,,,,,,,,,,,,,,,,,,,,,,,,,,,,,,,,,,,,,,,,,,,,,,,,,,,,,,
93,,,,,,,,,,,,,,,,,,,,,,,,,,,,,,,,,,,,,,,,,,,,,,,,,,,,,,,,,,,,,,,,,,,,,,,,,,,,,,,,,,,,,,,,,,,,,,,,,,,,,,,,,,,,,,,,,,,,,,,,,,,,,,,,,,,,
94,,,,,,,,,,,,,,,,,,,,,,,,,,,,,,,,,,,,,,,,,,,,,,,,,,,,,,,,,,,,,,,,,,,,,,,,,,,,,,,,,,,,,,,,,,,,,,,,,,,,,,,,,,,,,,,,,,,,,,,,,,,,,,,,,,,,
95,,,,,,,,,,,,,,,,,,,,,,,,,,,,,,,,,,,,,,,,,,,,,,,,,,,,,,,,,,,,,,,,,,,,,,,,,,,,,,,,,,,,,,,,,,,,,,,,,,,,,,,,,,,,,,,,,,,,,,,,,,,,,,,,,,,,
96,,,,,,,,,,,,,,,,,,,,,,,,,,,,,,,,,,,,,,,,,,,,,,,,,,,,,,,,,,,,,,,,,,,,,,,,,,,,,,,,,,,,,,,,,,,,,,,,,,,,,,,,,,,,,,,,,,,,,,,,,,,,,,,,,,,,
97,,,,,,,,,,,,,,,,,,,,,,,,,,,,,,,,,,,,,,,,,,,,,,,,,,,,,,,,,,,,,,,,,,,,,,,,,,,,,,,,,,,,,,,,,,,,,,,,,,,,,,,,,,,,,,,,,,,,,,,,,,,,,,,,,,,,
98,,,,,,,,,,,,,,,,,,,,,,,,,,,,,,,,,,,,,,,,,,,,,,,,,,,,,,,,,,,,,,,,,,,,,,,,,,,,,,,,,,,,,,,,,,,,,,,,,,,,,,,,,,,,,,,,,,,,,,,,,,,,,,,,,,,,
99,,,,,,,,,,,,,,,,,,,,,,,,,,,,,,,,,,,,,,,,,,,,,,,,,,,,,,,,,,,,,,,,,,,,,,,,,,,,,,,,,,,,,,,,,,,,,,,,,,,,,,,,,,,,,,,,,,,,,,,,,,,,,,,,,,,,
100,0.6510417048758157,0.25201938248553013,0.5939111094947511,0.9574775779971497,0.6099826545613393,0.2566886031504733,0.6459518249268521,0.9652725041466893,0.6223473649859873,0.2806385889763539,0.6865775638232293,1.024172238218795,0.5681569727627067,0.2706780305191732,0.6703010451088933,0.955071192863249,0.5937783235906013,0.28166688141011714,0.6013662842470082,0.9574587502224583,0.6147233944841275,0.3367067982046424,0.6264430618238409,0.9984529315256373,0.5755449615667234,0.3192504022274743,0.6065148133792556,0.9623583107371603,0.6792597386641439,0.30931307601623426,0.6281857177429483,1.0124708898253016,0.6633546202770539,0.2819343527421808,0.6350029870092353,1.0376909771132017,0.5994562144335804,0.3219140553075722,0.6167266823173496,1.0264584203780802,0.5681018272619806,0.31908732611298796,0.5936891327423914,0.9789105479816288,0.573822516961726,0.3246430441247699,0.6031228842215651,1.0423444477312063,0.5252599713301673,0.28341743161190486,0.5622019370290898,0.9896382841846185,0.5607713115896329,0.4218282627294987,0.5608375567601728,0.9777459588560323,0.6083658803755467,0.36487784338507506,0.4909849055595116,0.8193025987504724,0.6230401043302654,0.3988836401254448,0.6134573111141115,0.5899316953530165,0.5465884653727376,0.4069290105091305,0.5296255072090916,0.5800324737877942,0.5782194435552018,0.45555048412252896,0.6381778194385755,0.44462031071563685,0.5592661441221979,0.3840808549972872,0.5052509465317447,0.47136251437024596,0.6469494577706709,0.435747146142049,0.5763454212479909,0.46654286767666453,0.5564659978427046,0.4382882058555629,0.5427419492486555,0.5235170768115489,0.6356049738952938,0.4248360205751573,0.5684984936201527,0.4017132530877971,0.5388770301073638,0.4633850850903205,0.5337980999071206,0.449668223691865,0.44181347558676626,0.40369837606680037,0.30682945581618837,0.9885697023159336,0.4245936103589457,0.4300591264208112,0.21998623847088472,0.9618648423262218,0.4778565449258169,0.5016352545827226,0.3630462867590641,1.032552229227258,0.424968755609623,0.5325498625658466,0.20854470653472107,0.8247712499475018,0.40001339160029564,0.6471131926391567,0.2248767819025767,0.9248747185441595,0.346333835112563,0.6099065816609727,0.08399865061298922,0.6655883513655172,0.37391474628953064,0.6495840420844505,0.21453702616615397,0.8092901028946724,0.38059535509358816,0.608863538875827,0.09462477823582983,0.5651818747442808,0.4321235141871627,0.6821279190082892,0.233554712253922,0.6678006600957199,0.39772437890841816,0.6656502084324291,0.12290949062431782,0.5014118544639856
101,0.48900520150396265,0.25595162011065226,0.282695199349234,0.9574775779971497,0.4462008314673864,0.2602644944068057,0.3319125987081972,0.9652725041466893,0.4583695229081221,0.2836665943379109,0.37235184814722033,1.0267395294785606,0.4040579777768091,0.2731268575474478,0.3560280222014188,0.955071192863249,0.4331240680359682,0.2861722474970769,0.2925373643012678,0.9574587502224583,0.4540598915963659,0.3414058793871223,0.31762073971657123,1.0008253155969875,0.4148765986668058,0.32413193322761163,0.29772223902362743,0.9623583107371603,0.5311551315636328,0.30999611544303785,0.34462016224760783,1.0140193588919217,0.5273309281154436,0.2862341126069879,0.37275259601510635,1.0384733476805235,0.4445461319782673,0.32375622626132283,0.31925659476211254,1.0313238283218058,0.41632966782285197,0.32222166616082426,0.30190128238114566,0.982805353889832,0.448738367585734,0.31494435514085267,0.37330331974483427,1.0431006518594717,0.4387052244251093,0.2835045736025665,0.39202908328948444,0.9864207062503535,0.43159273042372764,0.3998860048483342,0.3328232388013888,1.0027111259016257,0.5170530472689929,0.3616605634740338,0.3171375042778105,0.5306103031991724,0.4756010012521867,0.3893394761831077,0.3648123518077329,0.6859478043427321,0.4207023900653684,0.39200671946871,0.28708489709477286,0.29659751652194033,0.4222137273004012,0.45195441669394015,0.37555133121503725,0.6132335061349484,0.42543647893693404,0.3679944852444033,0.2468200748715425,0.23806883203343862,0.48450842736007205,0.4338918621664478,0.30568523344124643,0.59825131084149,0.4135715282934864,0.41808735727615615,0.26773132265490013,0.2489301608417002,0.48324959376394705,0.4208259094816362,0.31523711461219484,0.5125153074930094,0.40964281662503443,0.4431435563408545,0.2842015228542026,0.19097987814037423,0.41615802060752666,0.4079800459219181,0.2666977033921606,0.9886814014202425,0.4479074822208881,0.4391597423990522,0.25868285994778,0.9622884525366406,0.4028406292543524,0.47426450367863937,0.26298246507148926,0.9892316926137935,0.43689089843386486,0.5351434394739581,0.2213225883420874,0.9790045267915266,0.3552197287795044,0.5971650963638271,0.18509043634876282,0.9117616370889288,0.42051408988957956,0.6136217391698228,0.21276666138975048,0.9303626738752828,0.32872013998941274,0.5957757105948875,0.17543079036347975,0.9083376445130197,0.45728923836137403,0.6122166577723114,0.23051086979423518,0.9456677670401183,0.35338898109180944,0.6295134089489325,0.12527344093536633,0.7600614976506516,0.4614132759227966,0.6701895789692333,0.22474319100048884,0.886551707226208
102,0.42768657995517284,0.255473620661876,0.17255153865956874,0.9574775779971497,0.38532037804812896,0.25804052590094634,0.2214413830965225,0.9652725041466893,0.39800340466869427,0.2810915842766469,0.26218354962455637,1.0244066632866966,0.3442027587291874,0.270204799441979,0.24615892331689793,0.955071192863249,0.36649204296075627,0.28461000975751394,0.17244496149876434,0.9574587502224583,0.3872391628726305,0.33996714247153387,0.19744017778755615,0.9991950689577358,0.34792238871559944,0.3227874312554132,0.17749619733987054,0.9623583107371603,0.48083312894266983,0.30551545548133735,0.250150478032583,1.0115429647154386,0.45110373994939695,0.2837249954805231,0.23457527374954382,1.0364205041098142,0.38798846874274034,0.3225852334100655,0.21668363895261103,1.0287730475486427,0.35215925829157196,0.3217873569166684,0.1867147721884608,0.978447419891724,0.4406895262288806,0.3087461575376269,0.3493456835887862,1.0425788727991079,0.36433564845512,0.28604498316753835,0.254244057382427,0.9895605597278315,0.4529270643451549,0.4027470874021977,0.3603860186926174,1.0099438515218953,0.45356719708148496,0.3733268017819867,0.1992620245319753,0.4114185970185998,0.49280680673746585,0.3977665298730644,0.3888308713502156,0.8286193894257399,0.37659460676277356,0.4162197951065274,0.20347192629547495,0.21228619514418612,0.4395295803451297,0.46123393601347445,0.40104076829756596,0.7313274735726926,0.3796882078821339,0.3942808786484102,0.15860712498438295,0.15057509946183675,0.4956708421474497,0.4413423533564045,0.32047140930460244,0.704464940087248,0.37196667283702545,0.4456668138439204,0.1873200848057822,0.1582396970603434,0.4955936366364472,0.4286870468717729,0.3323601505919352,0.5885901461313151,0.3679528606322012,0.46988133571974555,0.2040410551813504,0.11973019940940952,0.4349462464295935,0.407539031155225,0.29521638505474695,0.9886710302120515,0.4367424812724763,0.44347237686713076,0.23549983069355082,0.9622807039328198,0.4455872562785947,0.48989611979420944,0.32710752408032745,1.0114898551122675,0.4274624762150041,0.5436189219377948,0.1991203413035977,0.7771278268670575,0.3952857022760689,0.625222969612881,0.2481440128276013,0.8612701252671819,0.3933758675090704,0.6220823204724656,0.15649083128469532,0.6392615758146749,0.37182958197696897,0.6271578540923546,0.24127358166340038,0.8980042256668893,0.4295273136206829,0.6200947228815643,0.17185924973922811,0.7519254321974363,0.3868497546040119,0.6581455133457526,0.1893950498948676,0.7151709746938034,0.4340246258863825,0.6798985199520519,0.1698929005600952,0.4735510639728816
103,0.4635613868927595,0.25287000037111973,0.22995842500997882,0.9574775779971497,0.4236516451093755,0.25689158676825585,0.2844172152427966,0.9652725041466893,0.4358847254058702,0.2801763549561207,0.3249340581477739,1.0268570102334131,0.3816344195957731,0.269615816144631,0.308683213307781,0.955071192863249,0.4084827036043213,0.28284386452817434,0.24114600943715112,0.9574587502224583,0.4294923800120532,0.3380254913656532,0.26629204023478315,1.0011403857492702,0.39037761981415114,0.32074108459098444,0.24646759715101296,0.9623583107371603,0.5166480153868965,0.30544157552413825,0.31220872810025524,1.0140523798651273,0.5043860546670004,0.28184157811258786,0.3250352253762897,1.039137164609387,0.421917633626873,0.3196770929891518,0.2723937902831004,1.0316970130027443,0.39151294601872555,0.3180106576120877,0.2505502551707015,0.9838568394283146,0.45674788731082805,0.3050318940984485,0.38009825130175007,1.0431360570184685,0.41352726366858966,0.27641850521076655,0.3428779545316625,0.9900316748401361,0.46396454201582177,0.3684304582308262,0.3868976346570807,0.8936988201650837,0.4927877621939464,0.3338540132096753,0.26660179806177575,0.4725804131387475,0.5195344986870823,0.3076300614625725,0.4339161062247823,0.43607693780563794,0.40551190166878903,0.3213155511604519,0.2527193967207998,0.2622638255210019,0.46874645271049376,0.35501145547796725,0.4487309536473983,0.39072644656082123,0.4125385212962415,0.2849242070766787,0.2162355849058981,0.23815907346562856,0.5323102695210209,0.336244850886388,0.37764501206853784,0.3706720748109113,0.4010368040192338,0.33373006581611886,0.238153992716063,0.25206593140101113,0.5292683301958502,0.3297926891904985,0.3853492391757304,0.2985041747758769,0.3959368260137994,0.36288032911650453,0.25172519461942544,0.1944441596993647,0.4312062674659609,0.405075869209882,0.29317178196218086,0.988658751655228,0.43080564010022154,0.4353961859186445,0.23111273635396717,0.9622420801230053,0.38627995078231847,0.4645741593449907,0.23272222332183232,0.7830569613592159,0.3772186114983713,0.4968343123815966,0.1274929071959746,0.6218611246919171,0.306931035012014,0.592474687657162,0.10164557666757525,0.7467947558137518,0.30370283674485116,0.5563270724027024,0.035312086393700426,0.7006386839117513,0.27733005920135656,0.5933722725036095,0.08572255481346525,0.7672685899094429,0.33279761268892943,0.5533475343134491,0.042075342490564424,0.7279964322966185,0.29547189788963174,0.6224643252392157,0.0321726430756448,0.573110694847612,0.33221114641437194,0.6097283558437755,0.02275492135445199,0.6083783797802241
104,,,,,,,,,,,,,,,,,,,,,,,,,,,,,,,,,,,,,,,,,,,,,,,,,,,,,,,,,,,,,,,,,,,,,,,,,,,,,,,,,,,,,,,,,,,,,,,,,,,,,,,,,,,,,,,,,,,,,,,,,,,,,,,,,,,,
105,,,,,,,,,,,,,,,,,,,,,,,,,,,,,,,,,,,,,,,,,,,,,,,,,,,,,,,,,,,,,,,,,,,,,,,,,,,,,,,,,,,,,,,,,,,,,,,,,,,,,,,,,,,,,,,,,,,,,,,,,,,,,,,,,,,,
106,0.6076086380915283,0.25548250175394754,0.48249182045588035,0.9574775779971497,0.5650595747173887,0.26020992635451384,0.5322350891927076,0.9652725041466893,0.5767580296107542,0.2828215792889302,0.5723201601571838,1.025395385134231,0.5220386118689705,0.2715596130177237,0.5557462080406258,0.955071192863249,0.554742068168323,0.28911317047261714,0.49670669240970644,0.9574587502224583,0.5759285623857198,0.3455858339159309,0.5219464491197071,0.9992158709787625,0.5369508516038971,0.32959395386321655,0.5022081402271417,0.9623583107371603,0.6368251263338163,0.30996023344688306,0.5232748597351486,1.0124469287581022,0.6438410880047205,0.2956988533601618,0.5677213027941923,1.036386589066937,0.5567145481166866,0.32254857655352864,0.5087457031469461,1.029297687631956,0.5316722509068359,0.3237935300505185,0.49601716749151886,0.9786522214511724,0.5179427705429178,0.3120594903337237,0.4878757634876732,1.0421378580324148,0.5306825649529423,0.30324813534725636,0.545436868019809,0.958349719979449,0.4429113546901596,0.4024258779715031,0.3584235972399261,1.0272651997122029,0.5533586649344129,0.3789280886701092,0.38267196789338115,0.7716832559465173,0.43914799797138043,0.382083921983889,0.3095143274000867,0.8741181777825209,0.4031610397650913,0.3876967076050015,0.2574682003952946,0.5552593529076673,0.3722633519227792,0.4429867786781931,0.30049075998759245,0.8563123935975644,0.399012226246177,0.3602252284141878,0.19952392101180144,0.47663925396756646,0.44355637155884414,0.422947287095113,0.24228950143648081,0.8346417226952803,0.3840678204626391,0.40616294144935866,0.21660944339582366,0.4909541951034037,0.4476975882131412,0.4121671129327928,0.2600775264602862,0.7732527266214274,0.3884853755158468,0.43173039935461793,0.24880892318136638,0.4287426124343119,0.4122723736173694,0.3987018677068913,0.25706767720094315,0.9886823550945589,0.4578365290384057,0.44507937769492006,0.27219881941256024,0.9622292055197338,0.3768223903856481,0.4241089236348466,0.2322701237895075,1.0010926592962275,0.40790041756133144,0.4814256176374865,0.17795049725541812,0.9336629158830182,0.2706065206860239,0.523753482661053,0.08267862644501682,0.8960289911004644,0.2990528191064375,0.5204066908566819,0.01983036903022009,0.75825622903962,0.23890827969896902,0.5221684744479607,0.06717392927511504,0.8090094246224251,0.3265446208875583,0.5117535654451935,0.024162810161654877,0.7201941246908751,0.2767241168263824,0.5315507314701422,0.05142824199323717,0.6326500725369736,0.3420522642976433,0.5652797417232921,0.032258726193187384,0.5320245317997249
107,0.47205774655092414,0.2604893813220475,0.22566066147082248,0.9574775779971497,0.4295843655525662,0.2644884967681033,0.2756636781915795,0.9652725041466893,0.4413788337006977,0.2872221604103749,0.3159498027335729,1.0259973324418175,0.38666078079288874,0.2760498991295553,0.2994159992234221,0.955071192863249,0.41998303215134036,0.29259962495946407,0.24179471576903996,0.9574587502224583,0.44108202370887506,0.34867544067786327,0.2668829414144001,1.0001283584856289,0.402119693256376,0.33227526880843744,0.24719255598294199,0.9623583107371603,0.5179862322411257,0.31320260691337476,0.29787881201422006,1.013070333737808,0.5264686838878394,0.2961230298147058,0.34632463838736915,1.0377297201323057,0.42908484621121745,0.32741228576487813,0.26677424159830343,1.0262385388435038,0.4043383607586247,0.32804566580415007,0.2550354006763374,0.9763843839267582,0.4405839704282876,0.3225913926469562,0.34197492053325973,1.0425001946680044,0.449955057637478,0.30236184408176875,0.3954196073158771,0.9553333077213008,0.4142336814838821,0.4060404228399724,0.30484280617874143,1.0352179494413594,0.5205888785676638,0.382301145320271,0.3167298257321206,0.13935723415601278,0.4568625073282674,0.3838503652364525,0.3501716209606578,0.8396021412720533,0.41591761596017573,0.3733408693062039,0.26590696995382224,0.10939580796671872,0.4014348539926663,0.44332914775778287,0.36156475830956497,0.810304998806915,0.41807859585065454,0.3385158160778383,0.2205900771549586,0.08681712108211034,0.4629275963285568,0.424151002896352,0.2900851515220448,0.7847544827622663,0.4037010379748847,0.3858432710105922,0.23679609759456444,0.1040450976703135,0.46246812175843466,0.4125760604005967,0.2992845798830679,0.6814511428544902,0.40528379719297314,0.41465897343985353,0.2622876549061556,0.05078829331485841,0.4076955825935013,0.4322299274278843,0.24744970778259556,0.9884389893299411,0.4602636771429286,0.469762018724278,0.2805434578654504,0.9619664682455639,0.39426463408463097,0.5249549758046465,0.23501821709837778,0.8330781329290401,0.42824498252428395,0.5682671114824726,0.21635780256202544,0.9519772774552838,0.33599475763135295,0.6839125638816799,0.15559258658304942,0.5919757441255193,0.385988800381508,0.6497547900884019,0.1824308960340281,0.8296205722059713,0.3093059563871946,0.6905439367415855,0.14681047645081227,0.5035425342873421,0.4156776560719454,0.6460408035662262,0.1940924507717277,0.8190687532347288,0.3295941969208864,0.7171972654362067,0.09426044831247271,0.17079679187348326,0.4300694433231862,0.7007343368122508,0.18682707262733536,0.3525646321357997
108,0.5253270251654296,0.25677043891825413,0.3228726506293679,0.9574775779971497,0.4795899067320249,0.2606763326998812,0.3669636979801206,0.9652725041466893,0.4916194062741767,0.2834778562302296,0.4073030476306533,1.0265328205704798,0.437188199985627,0.2723798921391226,0.3909481820873337,0.955071192863249,0.47004030941199765,0.2885027295031499,0.3344389777571815,0.9574587502224583,0.4908584530891512,0.3443999101011573,0.3594185958098339,1.0007490812563198,0.4516268152128869,0.32777550555808654,0.3395916179907912,0.9623583107371603,0.5478881047161261,0.30845071601562385,0.3507770453424268,1.0138623006529386,0.559361666000862,0.29023778639887327,0.408208203913011,1.0386729040312315,0.47507062973057107,0.3225373708803108,0.34946218151687347,1.026413061243406,0.451206189080674,0.3229032750761533,0.34057179259887965,0.9790448372463078,0.4418957540715327,0.3161139770852801,0.34018022043504925,1.0384657946817373,0.4720925492515473,0.29131567289341426,0.43699087128003294,0.9727407846233089,0.38260664674996103,0.3925387787054509,0.24242455381364725,0.9523070540937641,0.5531170666704661,0.35595881295714227,0.38050205222167255,0.5090918343423608,0.3984018579652126,0.3574458652288231,0.23385666627801224,0.5690413998474928,0.497908111095042,0.3536509815441342,0.4184190615965106,0.2994305252881146,0.3361742509737517,0.41395696228910916,0.23307599163230056,0.5236578876294705,0.511568374712334,0.32072934304202594,0.3924825124333458,0.2798335980112982,0.40544906380649076,0.3944189841871692,0.1718851502773614,0.5152508893174421,0.4966302923461275,0.36930682658500924,0.40784221633665324,0.30093723996615096,0.40766112905514884,0.3839056600195085,0.18603913935483124,0.4499435733030223,0.48857100636015555,0.39751873396269594,0.41628551737362646,0.2104598532447062,0.40934996994169537,0.4177713903261387,0.24517198447899435,0.9885358468777011,0.46545789960020595,0.45410700778563357,0.28707903242954436,0.9621893896170238,0.4163876558062525,0.5226936351865129,0.2660691143968736,0.9062567222730648,0.4716555576894379,0.5602129742525531,0.28332953746574024,0.9511202222680586,0.35423178713529513,0.6854139452789272,0.17537705325920633,0.5654355243417364,0.4269068788340378,0.6523257172314988,0.2306403171034288,0.7110742055143819,0.3277369261403322,0.6879871955039452,0.16737781001674693,0.39959924596107854,0.45766798089449706,0.6497888032343475,0.2429215365972714,0.6124513978880491,0.3741439313824761,0.7204960248966559,0.16205964790959476,0.18607966121247246,0.4919240612861029,0.7045207218716075,0.27522935959328076,0.3063026361049922
109,0.5238054759563923,0.2579721579638932,0.3167657023192063,0.9574775779971497,0.48180936045610767,0.26217416762076445,0.3670881621573247,0.9652725041466893,0.49387000006744136,0.2850388720745747,0.4074539993347261,0.9703373230576624,0.43944405687979854,0.2739787569329001,0.39104607690916793,0.955071192863249,0.4709426105632003,0.29011884984158987,0.3316660830697389,0.9574587502224583,0.49194922487703197,0.34618003261969676,0.3567513140936621,0.9288643895410793,0.45285594277757557,0.3297546181832086,0.3369810151139255,0.9623583107371603,0.5652711113109772,0.3122023813693989,0.3778629159670026,0.9706447608656461,0.5711160735727954,0.2944471856222009,0.4238255613353307,0.9500305452513244,0.4788325343253868,0.32558468814677505,0.35283244653971113,0.9031264563621194,0.4532056469998009,0.32611426669717075,0.3404169619023701,0.8282857363323063,0.4701383284503756,0.3206738814222095,0.38866253347603025,1.0400127736322378,0.4835402553895507,0.3012752514075134,0.45179460833224594,0.9286909255763728,0.4274851191270696,0.3997288274000615,0.31904024719802665,0.8698175039800862,0.5220454038792794,0.38307564807448236,0.3109113883394912,0.06615387908208398,0.4500514707415708,0.3705775433332237,0.325702345413004,0.5250302838196608,0.39002139096995947,0.4015502873645993,0.20935317278542864,0.0652967899890042,0.39502137960466377,0.42757790512014865,0.33777688246059273,0.5057994419850919,0.3943878987026004,0.373632607802997,0.16592617281504982,0.018329298072619356,0.4570611344319846,0.4068683977251484,0.2673341820358725,0.4850082972211133,0.3831311259807519,0.42146556972809096,0.18834210875221907,0.026408952615019417,0.455416719984331,0.396819095717064,0.2743190239200152,0.3581351946065806,0.3797462582660421,0.44826049588553224,0.20645576334888552,-0.016362716721610084,0.4078721037752977,0.4192402573896611,0.24241362528545213,0.9884689108616184,0.467489616755144,0.45984446148474556,0.29022086806721625,0.9618188871451,0.3926792286521416,0.49256295081074997,0.22221515645329745,0.10147422364516359,0.4530565648573375,0.5640242740534259,0.24881387535905555,0.716410721001579,0.3122609213839281,0.6473119145248378,0.09895551875099749,0.05234525283900313,0.41428113519925264,0.6504472172467576,0.20729764056607825,0.46621158945221763,0.2825604489936888,0.6543477645041893,0.08544164346112235,0.036547421689399666,0.44549120378911833,0.6491487685587494,0.21975097939433152,0.49166985701738264,0.3222181199087042,0.6909123919506415,0.06396909176303209,0.05115343196278647,0.46873564716256644,0.7030095057079723,0.22904763374706755,0.11331879271881887
110,0.5670719301703652,0.25748912192263346,0.4005347206864434,0.9574775779971497,0.5238099756784654,0.2612800383444888,0.4482075303057826,0.9652725041466893,0.5359086266790445,0.2844727769608204,0.4885461376754753,1.0058955467820274,0.48154559824483517,0.273779349593804,0.4721615117529302,0.955071192863249,0.5119404660988502,0.28827945050382137,0.4107702828035985,0.9574587502224583,0.533113079909261,0.3439788330881416,0.43602137607652586,0.986356943728854,0.49418887139696854,0.32717171050651184,0.4163648892789451,0.9623583107371603,0.5980560965747538,0.31246738362007026,0.44071513924993877,1.0001290924734645,0.5996366990333746,0.2915464659795618,0.478182896671375,1.0292331972288633,0.5186963262291486,0.3257818305093697,0.42986216772418545,0.9786975165427835,0.4920078773907265,0.32511165696740385,0.4153221564918221,0.9392747705081792,0.4941775771979137,0.3219650074350116,0.43147040958374244,1.0329231587640737,0.5051899827007622,0.300832448501477,0.49040422741102413,0.9787988219043453,0.4687461672366374,0.3990085648725956,0.3899935108159208,0.21314764886228832,0.5633402131766687,0.37899922681364867,0.3823954052615587,0.2736241917966607,0.5288709813105483,0.3661308282167229,0.4612238841348869,0.12794060875080546,0.4870309513061734,0.4057368580089779,0.3789133653376266,0.1572186931820012,0.47644007745013484,0.42207490629126065,0.476333388804288,0.15585494732042277,0.5005005554385037,0.3782901743503908,0.35019916806210777,0.09350608097867484,0.5416972618650167,0.4021814460878803,0.4099583210360967,0.12896060730641,0.49023786340548264,0.4271833240921046,0.3755121031823308,0.1013960884425608,0.5376549895644359,0.39269755374013526,0.4131788867226601,0.08869071406821238,0.478048152364438,0.45386327288977424,0.37836145057072945,0.04080524547187902,0.41589757104919867,0.41909860695135237,0.25232777550501967,0.9882324592357944,0.46694848085186025,0.45927005152304506,0.2849398604085244,0.9617969526358227,0.4185335763943258,0.5088064086049394,0.2632657653482988,0.1557323206083308,0.45095093620982596,0.5619261905573322,0.24924827471837044,0.4742121047353283,0.32910850808949943,0.6682554965827907,0.12740243325608347,0.1533217236968618,0.3848023917454781,0.6493336832730637,0.16197105329078842,0.3397887371744618,0.29959035909566023,0.6731741895797203,0.11521007826588615,0.15470427947796248,0.41460241390602975,0.6443913642313568,0.17195936260658234,0.2741741175573912,0.34936707883206897,0.7015120051403387,0.11456662823858205,0.08020938824823337,0.44759003285914123,0.6990135507175853,0.20515609209826274,0.12671495898382967
