frame,NOSE.x,NOSE.y,NOSE.z,NOSE.v,LEFT_EYE_INNER.x,LEFT_EYE_INNER.y,LEFT_EYE_INNER.z,LEFT_EYE_INNER.v,LEFT_EYE.x,LEFT_EYE.y,LEFT_EYE.z,LEFT_EYE.v,LEFT_EYE_OUTER.x,LEFT_EYE_OUTER.y,LEFT_EYE_OUTER.z,LEFT_EYE_OUTER.v,RIGHT_EYE_INNER.x,RIGHT_EYE_INNER.y,RIGHT_EYE_INNER.z,RIGHT_EYE_INNER.v,RIGHT_EYE.x,RIGHT_EYE.y,RIGHT_EYE.z,RIGHT_EYE.v,RIGHT_EYE_OUTER.x,RIGHT_EYE_OUTER.y,RIGHT_EYE_OUTER.z,RIGHT_EYE_OUTER.v,LEFT_EAR.x,LEFT_EAR.y,LEFT_EAR.z,LEFT_EAR.v,RIGHT_EAR.x,RIGHT_EAR.y,RIGHT_EAR.z,RIGHT_EAR.v,MOUTH_LEFT.x,MOUTH_LEFT.y,MOUTH_LEFT.z,MOUTH_LEFT.v,MOUTH_RIGHT.x,MOUTH_RIGHT.y,MOUTH_RIGHT.z,MOUTH_RIGHT.v,LEFT_SHOULDER.x,LEFT_SHOULDER.y,LEFT_SHOULDER.z,LEFT_SHOULDER.v,RIGHT_SHOULDER.x,RIGHT_SHOULDER.y,RIGHT_SHOULDER.z,RIGHT_SHOULDER.v,LEFT_ELBOW.x,LEFT_ELBOW.y,LEFT_ELBOW.z,LEFT_ELBOW.v,RIGHT_ELBOW.x,RIGHT_ELBOW.y,RIGHT_ELBOW.z,RIGHT_ELBOW.v,LEFT_WRIST.x,LEFT_WRIST.y,LEFT_WRIST.z,LEFT_WRIST.v,RIGHT_WRIST.x,RIGHT_WRIST.y,RIGHT_WRIST.z,RIGHT_WRIST.v,LEFT_PINKY.x,LEFT_PINKY.y,LEFT_PINKY.z,LEFT_PINKY.v,RIGHT_PINKY.x,RIGHT_PINKY.y,RIGHT_PINKY.z,RIGHT_PINKY.v,LEFT_INDEX.x,LEFT_INDEX.y,LEFT_INDEX.z,LEFT_INDEX.v,RIGHT_INDEX.x,RIGHT_INDEX.y,RIGHT_INDEX.z,RIGHT_INDEX.v,LEFT_THUMB.x,LEFT_THUMB.y,LEFT_THUMB.z,LEFT_THUMB.v,RIGHT_THUMB.x,RIGHT_THUMB.y,RIGHT_THUMB.z,RIGHT_THUMB.v,LEFT_HIP.x,LEFT_HIP.y,LEFT_HIP.z,LEFT_HIP.v,RIGHT_HIP.x,RIGHT_HIP.y,RIGHT_HIP.z,RIGHT_HIP.v,LEFT_KNEE.x,LEFT_KNEE.y,LEFT_KNEE.z,LEFT_KNEE.v,RIGHT_KNEE.x,RIGHT_KNEE.y,RIGHT_KNEE.z,RIGHT_KNEE.v,LEFT_ANKLE.x,LEFT_ANKLE.y,LEFT_ANKLE.z,LEFT_ANKLE.v,RIGHT_ANKLE.x,RIGHT_ANKLE.y,RIGHT_ANKLE.z,RIGHT_ANKLE.v,LEFT_HEEL.x,LEFT_HEEL.y,LEFT_HEEL.z,LEFT_HEEL.v,RIGHT_HEEL.x,RIGHT_HEEL.y,RIGHT_HEEL.z,RIGHT_HEEL.v,LEFT_FOOT_INDEX.x,LEFT_FOOT_INDEX.y,LEFT_FOOT_INDEX.z,LEFT_FOOT_INDEX.v,RIGHT_FOOT_INDEX.x,RIGHT_FOOT_INDEX.y,RIGHT_FOOT_INDEX.z,RIGHT_FOOT_INDEX.v
0,,,,,,,,,,,,,,,,,,,,,,,,,,,,,,,,,,,,,,,,,,,,,,,,,,,,,,,,,,,,,,,,,,,,,,,,,,,,,,,,,,,,,,,,,,,,,,,,,,,,,,,,,,,,,,,,,,,,,,,,,,,,,,,,,,,,
1,,,,,,,,,,,,,,,,,,,,,,,,,,,,,,,,,,,,,,,,,,,,,,,,,,,,,,,,,,,,,,,,,,,,,,,,,,,,,,,,,,,,,,,,,,,,,,,,,,,,,,,,,,,,,,,,,,,,,,,,,,,,,,,,,,,,
2,,,,,,,,,,,,,,,,,,,,,,,,,,,,,,,,,,,,,,,,,,,,,,,,,,,,,,,,,,,,,,,,,,,,,,,,,,,,,,,,,,,,,,,,,,,,,,,,,,,,,,,,,,,,,,,,,,,,,,,,,,,,,,,,,,,,
3,,,,,,,,,,,,,,,,,,,,,,,,,,,,,,,,,,,,,,,,,,,,,,,,,,,,,,,,,,,,,,,,,,,,,,,,,,,,,,,,,,,,,,,,,,,,,,,,,,,,,,,,,,,,,,,,,,,,,,,,,,,,,,,,,,,,
4,,,,,,,,,,,,,,,,,,,,,,,,,,,,,,,,,,,,,,,,,,,,,,,,,,,,,,,,,,,,,,,,,,,,,,,,,,,,,,,,,,,,,,,,,,,,,,,,,,,,,,,,,,,,,,,,,,,,,,,,,,,,,,,,,,,,
5,,,,,,,,,,,,,,,,,,,,,,,,,,,,,,,,,,,,,,,,,,,,,,,,,,,,,,,,,,,,,,,,,,,,,,,,,,,,,,,,,,,,,,,,,,,,,,,,,,,,,,,,,,,,,,,,,,,,,,,,,,,,,,,,,,,,
6,,,,,,,,,,,,,,,,,,,,,,,,,,,,,,,,,,,,,,,,,,,,,,,,,,,,,,,,,,,,,,,,,,,,,,,,,,,,,,,,,,,,,,,,,,,,,,,,,,,,,,,,,,,,,,,,,,,,,,,,,,,,,,,,,,,,
7,,,,,,,,,,,,,,,,,,,,,,,,,,,,,,,,,,,,,,,,,,,,,,,,,,,,,,,,,,,,,,,,,,,,,,,,,,,,,,,,,,,,,,,,,,,,,,,,,,,,,,,,,,,,,,,,,,,,,,,,,,,,,,,,,,,,
8,,,,,,,,,,,,,,,,,,,,,,,,,,,,,,,,,,,,,,,,,,,,,,,,,,,,,,,,,,,,,,,,,,,,,,,,,,,,,,,,,,,,,,,,,,,,,,,,,,,,,,,,,,,,,,,,,,,,,,,,,,,,,,,,,,,,
9,,,,,,,,,,,,,,,,,,,,,,,,,,,,,,,,,,,,,,,,,,,,,,,,,,,,,,,,,,,,,,,,,,,,,,,,,,,,,,,,,,,,,,,,,,,,,,,,,,,,,,,,,,,,,,,,,,,,,,,,,,,,,,,,,,,,
10,,,,,,,,,,,,,,,,,,,,,,,,,,,,,,,,,,,,,,,,,,,,,,,,,,,,,,,,,,,,,,,,,,,,,,,,,,,,,,,,,,,,,,,,,,,,,,,,,,,,,,,,,,,,,,,,,,,,,,,,,,,,,,,,,,,,
11,,,,,,,,,,,,,,,,,,,,,,,,,,,,,,,,,,,,,,,,,,,,,,,,,,,,,,,,,,,,,,,,,,,,,,,,,,,,,,,,,,,,,,,,,,,,,,,,,,,,,,,,,,,,,,,,,,,,,,,,,,,,,,,,,,,,
12,,,,,,,,,,,,,,,,,,,,,,,,,,,,,,,,,,,,,,,,,,,,,,,,,,,,,,,,,,,,,,,,,,,,,,,,,,,,,,,,,,,,,,,,,,,,,,,,,,,,,,,,,,,,,,,,,,,,,,,,,,,,,,,,,,,,
13,,,,,,,,,,,,,,,,,,,,,,,,,,,,,,,,,,,,,,,,,,,,,,,,,,,,,,,,,,,,,,,,,,,,,,,,,,,,,,,,,,,,,,,,,,,,,,,,,,,,,,,,,,,,,,,,,,,,,,,,,,,,,,,,,,,,
14,,,,,,,,,,,,,,,,,,,,,,,,,,,,,,,,,,,,,,,,,,,,,,,,,,,,,,,,,,,,,,,,,,,,,,,,,,,,,,,,,,,,,,,,,,,,,,,,,,,,,,,,,,,,,,,,,,,,,,,,,,,,,,,,,,,,
15,,,,,,,,,,,,,,,,,,,,,,,,,,,,,,,,,,,,,,,,,,,,,,,,,,,,,,,,,,,,,,,,,,,,,,,,,,,,,,,,,,,,,,,,,,,,,,,,,,,,,,,,,,,,,,,,,,,,,,,,,,,,,,,,,,,,
16,,,,,,,,,,,,,,,,,,,,,,,,,,,,,,,,,,,,,,,,,,,,,,,,,,,,,,,,,,,,,,,,,,,,,,,,,,,,,,,,,,,,,,,,,,,,,,,,,,,,,,,,,,,,,,,,,,,,,,,,,,,,,,,,,,,,
17,,,,,,,,,,,,,,,,,,,,,,,,,,,,,,,,,,,,,,,,,,,,,,,,,,,,,,,,,,,,,,,,,,,,,,,,,,,,,,,,,,,,,,,,,,,,,,,,,,,,,,,,,,,,,,,,,,,,,,,,,,,,,,,,,,,,
18,,,,,,,,,,,,,,,,,,,,,,,,,,,,,,,,,,,,,,,,,,,,,,,,,,,,,,,,,,,,,,,,,,,,,,,,,,,,,,,,,,,,,,,,,,,,,,,,,,,,,,,,,,,,,,,,,,,,,,,,,,,,,,,,,,,,
19,,,,,,,,,,,,,,,,,,,,,,,,,,,,,,,,,,,,,,,,,,,,,,,,,,,,,,,,,,,,,,,,,,,,,,,,,,,,,,,,,,,,,,,,,,,,,,,,,,,,,,,,,,,,,,,,,,,,,,,,,,,,,,,,,,,,
20,,,,,,,,,,,,,,,,,,,,,,,,,,,,,,,,,,,,,,,,,,,,,,,,,,,,,,,,,,,,,,,,,,,,,,,,,,,,,,,,,,,,,,,,,,,,,,,,,,,,,,,,,,,,,,,,,,,,,,,,,,,,,,,,,,,,
21,,,,,,,,,,,,,,,,,,,,,,,,,,,,,,,,,,,,,,,,,,,,,,,,,,,,,,,,,,,,,,,,,,,,,,,,,,,,,,,,,,,,,,,,,,,,,,,,,,,,,,,,,,,,,,,,,,,,,,,,,,,,,,,,,,,,
22,,,,,,,,,,,,,,,,,,,,,,,,,,,,,,,,,,,,,,,,,,,,,,,,,,,,,,,,,,,,,,,,,,,,,,,,,,,,,,,,,,,,,,,,,,,,,,,,,,,,,,,,,,,,,,,,,,,,,,,,,,,,,,,,,,,,
23,,,,,,,,,,,,,,,,,,,,,,,,,,,,,,,,,,,,,,,,,,,,,,,,,,,,,,,,,,,,,,,,,,,,,,,,,,,,,,,,,,,,,,,,,,,,,,,,,,,,,,,,,,,,,,,,,,,,,,,,,,,,,,,,,,,,
24,,,,,,,,,,,,,,,,,,,,,,,,,,,,,,,,,,,,,,,,,,,,,,,,,,,,,,,,,,,,,,,,,,,,,,,,,,,,,,,,,,,,,,,,,,,,,,,,,,,,,,,,,,,,,,,,,,,,,,,,,,,,,,,,,,,,
25,,,,,,,,,,,,,,,,,,,,,,,,,,,,,,,,,,,,,,,,,,,,,,,,,,,,,,,,,,,,,,,,,,,,,,,,,,,,,,,,,,,,,,,,,,,,,,,,,,,,,,,,,,,,,,,,,,,,,,,,,,,,,,,,,,,,
26,,,,,,,,,,,,,,,,,,,,,,,,,,,,,,,,,,,,,,,,,,,,,,,,,,,,,,,,,,,,,,,,,,,,,,,,,,,,,,,,,,,,,,,,,,,,,,,,,,,,,,,,,,,,,,,,,,,,,,,,,,,,,,,,,,,,
27,,,,,,,,,,,,,,,,,,,,,,,,,,,,,,,,,,,,,,,,,,,,,,,,,,,,,,,,,,,,,,,,,,,,,,,,,,,,,,,,,,,,,,,,,,,,,,,,,,,,,,,,,,,,,,,,,,,,,,,,,,,,,,,,,,,,
28,,,,,,,,,,,,,,,,,,,,,,,,,,,,,,,,,,,,,,,,,,,,,,,,,,,,,,,,,,,,,,,,,,,,,,,,,,,,,,,,,,,,,,,,,,,,,,,,,,,,,,,,,,,,,,,,,,,,,,,,,,,,,,,,,,,,
29,,,,,,,,,,,,,,,,,,,,,,,,,,,,,,,,,,,,,,,,,,,,,,,,,,,,,,,,,,,,,,,,,,,,,,,,,,,,,,,,,,,,,,,,,,,,,,,,,,,,,,,,,,,,,,,,,,,,,,,,,,,,,,,,,,,,
30,,,,,,,,,,,,,,,,,,,,,,,,,,,,,,,,,,,,,,,,,,,,,,,,,,,,,,,,,,,,,,,,,,,,,,,,,,,,,,,,,,,,,,,,,,,,,,,,,,,,,,,,,,,,,,,,,,,,,,,,,,,,,,,,,,,,
31,,,,,,,,,,,,,,,,,,,,,,,,,,,,,,,,,,,,,,,,,,,,,,,,,,,,,,,,,,,,,,,,,,,,,,,,,,,,,,,,,,,,,,,,,,,,,,,,,,,,,,,,,,,,,,,,,,,,,,,,,,,,,,,,,,,,
32,,,,,,,,,,,,,,,,,,,,,,,,,,,,,,,,,,,,,,,,,,,,,,,,,,,,,,,,,,,,,,,,,,,,,,,,,,,,,,,,,,,,,,,,,,,,,,,,,,,,,,,,,,,,,,,,,,,,,,,,,,,,,,,,,,,,
33,,,,,,,,,,,,,,,,,,,,,,,,,,,,,,,,,,,,,,,,,,,,,,,,,,,,,,,,,,,,,,,,,,,,,,,,,,,,,,,,,,,,,,,,,,,,,,,,,,,,,,,,,,,,,,,,,,,,,,,,,,,,,,,,,,,,
34,,,,,,,,,,,,,,,,,,,,,,,,,,,,,,,,,,,,,,,,,,,,,,,,,,,,,,,,,,,,,,,,,,,,,,,,,,,,,,,,,,,,,,,,,,,,,,,,,,,,,,,,,,,,,,,,,,,,,,,,,,,,,,,,,,,,
35,,,,,,,,,,,,,,,,,,,,,,,,,,,,,,,,,,,,,,,,,,,,,,,,,,,,,,,,,,,,,,,,,,,,,,,,,,,,,,,,,,,,,,,,,,,,,,,,,,,,,,,,,,,,,,,,,,,,,,,,,,,,,,,,,,,,
36,,,,,,,,,,,,,,,,,,,,,,,,,,,,,,,,,,,,,,,,,,,,,,,,,,,,,,,,,,,,,,,,,,,,,,,,,,,,,,,,,,,,,,,,,,,,,,,,,,,,,,,,,,,,,,,,,,,,,,,,,,,,,,,,,,,,
37,,,,,,,,,,,,,,,,,,,,,,,,,,,,,,,,,,,,,,,,,,,,,,,,,,,,,,,,,,,,,,,,,,,,,,,,,,,,,,,,,,,,,,,,,,,,,,,,,,,,,,,,,,,,,,,,,,,,,,,,,,,,,,,,,,,,
38,,,,,,,,,,,,,,,,,,,,,,,,,,,,,,,,,,,,,,,,,,,,,,,,,,,,,,,,,,,,,,,,,,,,,,,,,,,,,,,,,,,,,,,,,,,,,,,,,,,,,,,,,,,,,,,,,,,,,,,,,,,,,,,,,,,,
39,,,,,,,,,,,,,,,,,,,,,,,,,,,,,,,,,,,,,,,,,,,,,,,,,,,,,,,,,,,,,,,,,,,,,,,,,,,,,,,,,,,,,,,,,,,,,,,,,,,,,,,,,,,,,,,,,,,,,,,,,,,,,,,,,,,,
40,,,,,,,,,,,,,,,,,,,,,,,,,,,,,,,,,,,,,,,,,,,,,,,,,,,,,,,,,,,,,,,,,,,,,,,,,,,,,,,,,,,,,,,,,,,,,,,,,,,,,,,,,,,,,,,,,,,,,,,,,,,,,,,,,,,,
41,,,,,,,,,,,,,,,,,,,,,,,,,,,,,,,,,,,,,,,,,,,,,,,,,,,,,,,,,,,,,,,,,,,,,,,,,,,,,,,,,,,,,,,,,,,,,,,,,,,,,,,,,,,,,,,,,,,,,,,,,,,,,,,,,,,,
42,,,,,,,,,,,,,,,,,,,,,,,,,,,,,,,,,,,,,,,,,,,,,,,,,,,,,,,,,,,,,,,,,,,,,,,,,,,,,,,,,,,,,,,,,,,,,,,,,,,,,,,,,,,,,,,,,,,,,,,,,,,,,,,,,,,,
43,,,,,,,,,,,,,,,,,,,,,,,,,,,,,,,,,,,,,,,,,,,,,,,,,,,,,,,,,,,,,,,,,,,,,,,,,,,,,,,,,,,,,,,,,,,,,,,,,,,,,,,,,,,,,,,,,,,,,,,,,,,,,,,,,,,,
44,,,,,,,,,,,,,,,,,,,,,,,,,,,,,,,,,,,,,,,,,,,,,,,,,,,,,,,,,,,,,,,,,,,,,,,,,,,,,,,,,,,,,,,,,,,,,,,,,,,,,,,,,,,,,,,,,,,,,,,,,,,,,,,,,,,,
45,,,,,,,,,,,,,,,,,,,,,,,,,,,,,,,,,,,,,,,,,,,,,,,,,,,,,,,,,,,,,,,,,,,,,,,,,,,,,,,,,,,,,,,,,,,,,,,,,,,,,,,,,,,,,,,,,,,,,,,,,,,,,,,,,,,,
46,,,,,,,,,,,,,,,,,,,,,,,,,,,,,,,,,,,,,,,,,,,,,,,,,,,,,,,,,,,,,,,,,,,,,,,,,,,,,,,,,,,,,,,,,,,,,,,,,,,,,,,,,,,,,,,,,,,,,,,,,,,,,,,,,,,,
47,,,,,,,,,,,,,,,,,,,,,,,,,,,,,,,,,,,,,,,,,,,,,,,,,,,,,,,,,,,,,,,,,,,,,,,,,,,,,,,,,,,,,,,,,,,,,,,,,,,,,,,,,,,,,,,,,,,,,,,,,,,,,,,,,,,,
48,,,,,,,,,,,,,,,,,,,,,,,,,,,,,,,,,,,,,,,,,,,,,,,,,,,,,,,,,,,,,,,,,,,,,,,,,,,,,,,,,,,,,,,,,,,,,,,,,,,,,,,,,,,,,,,,,,,,,,,,,,,,,,,,,,,,
49,,,,,,,,,,,,,,,,,,,,,,,,,,,,,,,,,,,,,,,,,,,,,,,,,,,,,,,,,,,,,,,,,,,,,,,,,,,,,,,,,,,,,,,,,,,,,,,,,,,,,,,,,,,,,,,,,,,,,,,,,,,,,,,,,,,,
50,,,,,,,,,,,,,,,,,,,,,,,,,,,,,,,,,,,,,,,,,,,,,,,,,,,,,,,,,,,,,,,,,,,,,,,,,,,,,,,,,,,,,,,,,,,,,,,,,,,,,,,,,,,,,,,,,,,,,,,,,,,,,,,,,,,,
51,,,,,,,,,,,,,,,,,,,,,,,,,,,,,,,,,,,,,,,,,,,,,,,,,,,,,,,,,,,,,,,,,,,,,,,,,,,,,,,,,,,,,,,,,,,,,,,,,,,,,,,,,,,,,,,,,,,,,,,,,,,,,,,,,,,,
52,,,,,,,,,,,,,,,,,,,,,,,,,,,,,,,,,,,,,,,,,,,,,,,,,,,,,,,,,,,,,,,,,,,,,,,,,,,,,,,,,,,,,,,,,,,,,,,,,,,,,,,,,,,,,,,,,,,,,,,,,,,,,,,,,,,,
53,,,,,,,,,,,,,,,,,,,,,,,,,,,,,,,,,,,,,,,,,,,,,,,,,,,,,,,,,,,,,,,,,,,,,,,,,,,,,,,,,,,,,,,,,,,,,,,,,,,,,,,,,,,,,,,,,,,,,,,,,,,,,,,,,,,,
54,,,,,,,,,,,,,,,,,,,,,,,,,,,,,,,,,,,,,,,,,,,,,,,,,,,,,,,,,,,,,,,,,,,,,,,,,,,,,,,,,,,,,,,,,,,,,,,,,,,,,,,,,,,,,,,,,,,,,,,,,,,,,,,,,,,,
55,,,,,,,,,,,,,,,,,,,,,,,,,,,,,,,,,,,,,,,,,,,,,,,,,,,,,,,,,,,,,,,,,,,,,,,,,,,,,,,,,,,,,,,,,,,,,,,,,,,,,,,,,,,,,,,,,,,,,,,,,,,,,,,,,,,,
56,,,,,,,,,,,,,,,,,,,,,,,,,,,,,,,,,,,,,,,,,,,,,,,,,,,,,,,,,,,,,,,,,,,,,,,,,,,,,,,,,,,,,,,,,,,,,,,,,,,,,,,,,,,,,,,,,,,,,,,,,,,,,,,,,,,,
57,,,,,,,,,,,,,,,,,,,,,,,,,,,,,,,,,,,,,,,,,,,,,,,,,,,,,,,,,,,,,,,,,,,,,,,,,,,,,,,,,,,,,,,,,,,,,,,,,,,,,,,,,,,,,,,,,,,,,,,,,,,,,,,,,,,,
58,,,,,,,,,,,,,,,,,,,,,,,,,,,,,,,,,,,,,,,,,,,,,,,,,,,,,,,,,,,,,,,,,,,,,,,,,,,,,,,,,,,,,,,,,,,,,,,,,,,,,,,,,,,,,,,,,,,,,,,,,,,,,,,,,,,,
59,,,,,,,,,,,,,,,,,,,,,,,,,,,,,,,,,,,,,,,,,,,,,,,,,,,,,,,,,,,,,,,,,,,,,,,,,,,,,,,,,,,,,,,,,,,,,,,,,,,,,,,,,,,,,,,,,,,,,,,,,,,,,,,,,,,,
60,,,,,,,,,,,,,,,,,,,,,,,,,,,,,,,,,,,,,,,,,,,,,,,,,,,,,,,,,,,,,,,,,,,,,,,,,,,,,,,,,,,,,,,,,,,,,,,,,,,,,,,,,,,,,,,,,,,,,,,,,,,,,,,,,,,,
61,0.48081406066589694,0.6554560671057623,-0.3143145969263583,1.025712188165196,0.5531890959403496,0.7134382051672239,-0.33358708517450614,1.0245619021352546,0.49443081527277605,0.686967094323903,-0.3546572189826519,1.0493475395970708,0.4907796934947909,0.6875279824613495,-0.3258463195917022,1.000158532502671,0.5365486038183492,0.6550650628644455,-0.38215277253018276,1.0052331336958522,0.5352871406343616,0.6511979589249096,-0.3963684996799485,1.0454666221677218,0.5400208114159118,0.7047571444295327,-0.35602535915443856,1.00033169208539,0.5463152291270691,0.7028987450199069,-0.4360914248984289,0.9897531150909277,0.50764841640995,0.716513845840368,-0.47635408312878164,1.0437302468527108,0.49759559371369594,0.7083584230783204,-0.3456667333175047,0.9988514896890763,0.5473916379725093,0.7327684465414473,-0.3032026770565121,0.9932577270996543,0.5450096568821374,0.6107286895781264,-0.3465148445744473,0.9772736179416119,0.44068015715002984,0.6107256597741635,-0.36586653598759095,1.034741155288712,0.6008788835400481,0.718700391042376,-0.2874873941704204,1.0093691614365254,0.42656183553809585,0.6731129300897711,-0.43877852483561536,1.0217235581489763,0.5911702080310037,0.7169225913552818,-0.3896474967798828,0.9876311602824083,0.45046556749160555,0.8002906967394076,-0.457394322243897,1.0357321533221566,0.5702571376825231,0.7848344820592241,-0.40924516629890434,0.9630270594071381,0.41463584214017724,0.8424814698294009,-0.5596920403388023,1.0102986729880066,0.5886733968282236,0.8236082248973732,-0.4626062407959196,0.9628329365827075,0.4350177695633307,0.8646676372002031,-0.526136022249128,1.0165630709483369,0.5423984315807215,0.7913090186337711,-0.3856071955807272,0.9746247822361626,0.4397798932374818,0.7726637917688662,-0.4367939788895645,0.968870103985072,0.465380703030577,0.568628890901235,-0.013718556609494127,1.0291216986867044,0.4088713953120803,0.5176888325492421,-0.0473749347975379,0.9571846779722546,0.6047048497934384,0.6425513562064882,0.11505025941242238,0.07653929536203971,0.46966690807490186,0.6649907780316127,0.029787107826433862,0.4150918118799643,0.5907855961989874,0.6741206852121105,0.3545133085490062,0.14478009931890523,0.4844231161041094,0.7400047952943264,0.2868594255241892,0.48983876122020176,0.5846504832818926,0.6591026033785996,0.37908929776453076,0.11566063047764126,0.4385374255498688,0.6954774883954121,0.33556852681412186,0.2161276633109215,0.5983839279265238,0.6556680066561346,0.27880573989331603,0.3636891643435087,0.5101496394217037,0.7734717824099564,0.14807615975478963,0.6408613925593925
62,0.48894909897146144,0.7017440805640143,-0.10428606116462605,1.025712188165196,0.5586301540444573,0.7652011436666746,-0.1338519117411282,1.0245619021352546,0.499287535128425,0.7391215757348832,-0.15480055683734664,1.0493476588063604,0.494935446698638,0.7401423733114166,-0.12596560926542882,1.000158532502671,0.544584108440438,0.707043531759404,-0.17155607637236986,1.0052331336958522,0.5437795491564,0.7035930642868481,-0.18592960720734755,1.0454668605863011,0.5490556776589077,0.7574642801068704,-0.14563823052145608,1.00033169208539,0.5443752667927636,0.7586917323665561,-0.28209954240877844,0.9897533535095069,0.5170046932626946,0.7718472217711542,-0.27047991875538946,1.043731796573475,0.5040040471318972,0.7537165444734315,-0.15272331841375847,0.9988523241541031,0.5574627281924242,0.7775020900732467,-0.0952723048032638,0.9932608265411825,0.5463852905490997,0.6566112722426162,-0.2136731328480013,0.9769931184832991,0.45553141386711266,0.657859522746423,-0.14599053681952878,1.0371396461944735,0.6108476268387132,0.7544272959114556,-0.08746528082829823,0.9672605064606344,0.4587304766637845,0.6862022888963812,-0.07588882385700163,0.9964898125740251,0.5997234411902848,0.7307680350808677,-0.063729945036517,0.9658152046435229,0.5161629131899238,0.7962915827028475,0.10179782694715439,0.9881897601146066,0.5819120708531977,0.7935623305890398,-0.05014718584641234,0.9334942096184723,0.48731777559154676,0.8332976457670535,0.05587295191529193,0.9437615311880799,0.5991500334595763,0.827516918687809,-0.09633342150339594,0.9293322651959888,0.5032734374240561,0.8587268422554399,0.09644711145827423,0.9385872613742097,0.5618889136388953,0.7939704256276371,-0.0523204924570883,0.9444548780041373,0.5021173895263976,0.7682764726808841,0.1332428338980201,0.9068826443254955,0.45586525572650705,0.5815037325912985,-0.032423515089209896,1.0291194337102032,0.4049018036397596,0.5400779464522878,-0.02730106880337802,0.9574596341986034,0.6017513215232146,0.622900479684424,0.11286266222010977,0.9138110676870786,0.456352617240291,0.6819756580021632,0.05511969301576383,0.9686664037550407,0.6011712698478475,0.6463346687478772,0.2536514763726203,0.8436225800975994,0.46149432781325345,0.7711789781861721,0.22099005229973345,1.0239609898426383,0.5969019665975952,0.628135904255217,0.2720816375946478,0.7721348109972221,0.4129546811020401,0.7242791680066182,0.26278491313630126,0.9124962235058907,0.6195322551504613,0.6237937672114019,0.22364418377692322,0.7834672431379881,0.4887193613297868,0.8149128653643631,0.117011855326829,0.9513033633845877
63,0.4724063719431697,0.6937314281668585,-0.1539268372822406,1.025712188165196,0.541591012179942,0.7571837228979368,-0.17792087467638776,1.0245619021352546,0.4818697951226311,0.7318656043031511,-0.1988456893790961,1.0493476588063604,0.4771641930495186,0.7336121480344696,-0.1699894433439324,1.000158532502671,0.5286287535293143,0.6965252789098252,-0.21474355903251555,1.0052331336958522,0.5282171131029505,0.6919657478119335,-0.22909944185731826,1.0454668605863011,0.5338598753052723,0.744785776116697,-0.18887211673162846,1.00033169208539,0.5291465782004743,0.7512719077663363,-0.3071426609805746,0.9897533535095069,0.505737535872895,0.7557566498908136,-0.2907006766676919,1.0437316773641854,0.4882360508577572,0.7460887592675904,-0.19681431076867606,0.9988517281076554,0.5434244920187151,0.766895145512242,-0.1378338759784229,0.9932599920761558,0.5305410433750709,0.6502922858267531,-0.24393039870572905,0.9770756113116683,0.45190220368336576,0.6356005853875668,-0.1584960760498651,1.0384137550811925,0.5926066150775394,0.757377845037127,-0.10981497957753124,0.9928105142807638,0.45089698186759647,0.6864196670358771,-0.15458562925080713,0.9961112634750565,0.5764158374598356,0.7359803420571861,-0.07157987047957183,0.9336402001612535,0.488697372210813,0.7982465554468355,-0.072586090357067,1.0151331457156505,0.5531665390336432,0.7977821010205584,-0.05199146728479194,0.8849918240021699,0.4575464820939576,0.8316437956884707,-0.12554524829582087,0.9886060393591614,0.5712740236030703,0.8318818860340004,-0.0965621086966995,0.8796709268666736,0.4722594605736315,0.8577489684532549,-0.08677904260269446,0.991086436445926,0.5244178370821343,0.7990327673177006,-0.057786912690178056,0.9039408260899221,0.47183662052924197,0.7695849138429934,-0.04341309984944595,0.955008745819331,0.4534229889310001,0.5627534226471457,-0.050807696582285726,1.029183449098692,0.4126643721077552,0.5170722224990407,-0.00942749987144647,0.9575474914450022,0.5734890106230014,0.5906668242316957,0.04299305368566798,0.9758899012670957,0.4578336931966558,0.6609483314183009,0.04404780659984568,0.837511568530889,0.5483983492189679,0.6115176883859387,0.13192310134753416,0.8399793653949932,0.46252840876817447,0.7520846898370205,0.18522285196030003,0.88982121361278,0.5405269624919925,0.5943749393847642,0.14341726854688952,0.8467498126756889,0.4150833052295966,0.7048449543683125,0.22419601615947765,0.7675119782055977,0.5605767065878512,0.5956160290217046,0.07607050007879176,0.8560826281935301,0.49403781746639874,0.7898348667262101,0.08043373991080746,0.8802099233287406
64,,,,,,,,,,,,,,,,,,,,,,,,,,,,,,,,,,,,,,,,,,,,,,,,,,,,,,,,,,,,,,,,,,,,,,,,,,,,,,,,,,,,,,,,,,,,,,,,,,,,,,,,,,,,,,,,,,,,,,,,,,,,,,,,,,,,
65,,,,,,,,,,,,,,,,,,,,,,,,,,,,,,,,,,,,,,,,,,,,,,,,,,,,,,,,,,,,,,,,,,,,,,,,,,,,,,,,,,,,,,,,,,,,,,,,,,,,,,,,,,,,,,,,,,,,,,,,,,,,,,,,,,,,
66,,,,,,,,,,,,,,,,,,,,,,,,,,,,,,,,,,,,,,,,,,,,,,,,,,,,,,,,,,,,,,,,,,,,,,,,,,,,,,,,,,,,,,,,,,,,,,,,,,,,,,,,,,,,,,,,,,,,,,,,,,,,,,,,,,,,
67,,,,,,,,,,,,,,,,,,,,,,,,,,,,,,,,,,,,,,,,,,,,,,,,,,,,,,,,,,,,,,,,,,,,,,,,,,,,,,,,,,,,,,,,,,,,,,,,,,,,,,,,,,,,,,,,,,,,,,,,,,,,,,,,,,,,
68,,,,,,,,,,,,,,,,,,,,,,,,,,,,,,,,,,,,,,,,,,,,,,,,,,,,,,,,,,,,,,,,,,,,,,,,,,,,,,,,,,,,,,,,,,,,,,,,,,,,,,,,,,,,,,,,,,,,,,,,,,,,,,,,,,,,
69,,,,,,,,,,,,,,,,,,,,,,,,,,,,,,,,,,,,,,,,,,,,,,,,,,,,,,,,,,,,,,,,,,,,,,,,,,,,,,,,,,,,,,,,,,,,,,,,,,,,,,,,,,,,,,,,,,,,,,,,,,,,,,,,,,,,
70,,,,,,,,,,,,,,,,,,,,,,,,,,,,,,,,,,,,,,,,,,,,,,,,,,,,,,,,,,,,,,,,,,,,,,,,,,,,,,,,,,,,,,,,,,,,,,,,,,,,,,,,,,,,,,,,,,,,,,,,,,,,,,,,,,,,
71,,,,,,,,,,,,,,,,,,,,,,,,,,,,,,,,,,,,,,,,,,,,,,,,,,,,,,,,,,,,,,,,,,,,,,,,,,,,,,,,,,,,,,,,,,,,,,,,,,,,,,,,,,,,,,,,,,,,,,,,,,,,,,,,,,,,
72,,,,,,,,,,,,,,,,,,,,,,,,,,,,,,,,,,,,,,,,,,,,,,,,,,,,,,,,,,,,,,,,,,,,,,,,,,,,,,,,,,,,,,,,,,,,,,,,,,,,,,,,,,,,,,,,,,,,,,,,,,,,,,,,,,,,
73,0.44407994843848236,0.6715301284995001,-0.14638681569494733,1.025712188165196,0.5164373035046824,0.7355334085668821,-0.1602706678652647,1.0245619021352546,0.4570831683145646,0.7105305985429582,-0.18119665806207022,1.0493468243413335,0.45280861999940847,0.7124959509252472,-0.15241598848467175,1.000158532502671,0.5012385354606894,0.6744442018109787,-0.20414302026083925,1.0052331336958522,0.5004797428060053,0.6697716007019482,-0.2183758332362688,1.0454662645398534,0.5058196019014701,0.7224893474362771,-0.178070278187217,1.00033169208539,0.5078200940369506,0.7318205875949801,-0.2642410115508967,0.9897526382537697,0.4785992538317436,0.7342670296820734,-0.2773527258306416,1.043731438945606,0.45970866601984023,0.7247981589677552,-0.18183398928398942,0.9988489862939959,0.5136771247165808,0.7448017302519271,-0.13200042152364094,0.9932573694717858,0.4957374816868343,0.6226870502501235,-0.2119456354531057,0.9770256030147015,0.41444798884962525,0.6087830847962887,-0.20419439904932327,1.0392132917862096,0.5278780393477721,0.7044026076675897,-0.1489933241864864,1.0064199236130391,0.3746593061776114,0.617584766179859,-0.2731158382171113,1.0275235073181355,0.49163688954325635,0.6572536331681785,-0.16931624455537783,0.9680596771471851,0.3849072715775027,0.702499263405057,-0.1940249764034601,1.0214101108569467,0.4642190581512965,0.7149662154767351,-0.1556239593921815,0.9321835630845062,0.348737808403205,0.7295680400923098,-0.25246755096105633,0.9967141187926025,0.4873328006812557,0.7505970053958778,-0.1970405142726082,0.9364936440564623,0.36500405415623977,0.7586760948608782,-0.2093430407172692,1.0043506752803073,0.4415803554505168,0.7193164425114872,-0.15642801723273925,0.9528263503628409,0.3655244862090608,0.670975049131232,-0.16283025164897102,0.9617751246988783,0.4352099642541939,0.5222533778244528,-0.031329725784207896,1.029215039560423,0.3915625434219421,0.47634931590953267,-0.024443660877175998,0.957601970090327,0.540148880228849,0.4187296863895174,0.16468845672737634,1.0294746557341063,0.4476031479238826,0.52182423597839,0.15159855138941206,0.9995850019300895,0.4869161791958863,0.3050523606462231,0.2936396393498517,0.9913991837963299,0.47455617442753156,0.49440039942793235,0.40495507513877765,1.035594684014544,0.4743125198899553,0.27205200451881256,0.3105246217942985,1.016441613746856,0.433937342754952,0.43652573501749775,0.45624619202033245,0.9935556197728279,0.49917400615621166,0.22690256070848736,0.28530085428821256,0.9559563497931091,0.5073205024866771,0.48600984593611,0.38598910430152106,0.9807510977405144
74,0.43751246369471236,0.6725307116713446,-0.21156827600903438,1.025712188165196,0.5084527852806652,0.7359324020590086,-0.22010561216333846,1.0245619021352546,0.44790362745071083,0.7109695271470842,-0.24089002114592348,1.049322028809107,0.44241353331705824,0.7130215446828766,-0.21197504068202938,1.000158532502671,0.4974966801831016,0.6751610072690476,-0.2555758913304949,1.0052331336958522,0.4978938985932168,0.6708025226379833,-0.2698754476275139,1.0454479063092625,0.5042759422110272,0.7237920069478433,-0.22982746482104555,1.00033169208539,0.4981397918246314,0.732801441629404,-0.3076827613247602,0.9897330879302833,0.48401285160280844,0.7371591662558649,-0.2802914169210223,1.0437143920172005,0.4535230483029534,0.724915520513318,-0.2409621921271731,0.9987827059290055,0.5117013384909539,0.7450927797323653,-0.17882304552468875,0.993133630229232,0.48207964703703404,0.6294900263815627,-0.28341549872836674,0.9767967807834089,0.42939509238484624,0.6227494663461239,-0.14420167448008717,1.0386839429359593,0.5192337855013325,0.7190030038239007,-0.21226307160019847,0.9902619388794578,0.44245793663859784,0.6747418654268378,-0.13458230043728883,0.9448271886917313,0.4878117570058914,0.6652897697953758,-0.1690839449235688,0.8593688192599169,0.4878746043795324,0.76696353447363,-0.04083324882552306,1.0106218489665353,0.4592252763144738,0.7219770330045061,-0.1542783663756806,0.7250277989815704,0.4626028485600208,0.7978298422888125,-0.08937521247638813,0.9888393915434571,0.48059101952513594,0.7518866710948829,-0.19008863814512567,0.7213130682088366,0.4710394663800163,0.8209118078659441,-0.058838483919970264,0.9914273750140412,0.4355537108660219,0.7209480600575687,-0.1525414172435934,0.7214151913242972,0.4672501036026472,0.7310043770006472,-0.014259217774242168,0.9529939300119886,0.42312799554457325,0.5324357585007223,-0.08230132798224643,1.0292137282582376,0.4043681444625835,0.4749528088847676,0.026638985001578186,0.9575992282766673,0.5283542797384175,0.46499743426854573,0.109271552269324,1.025551001177832,0.47119618116663264,0.4782397401955378,0.1965753934334157,0.88378658817658,0.4833366342971749,0.37741532003114125,0.28573399713534664,0.9756382256015972,0.4806122432068429,0.4409257645421443,0.4468283860620455,0.8281410755016655,0.4710929770970742,0.34607250947028956,0.3062344759924055,0.9839329424631339,0.43232116106545704,0.38406724011584065,0.4993162597296355,0.7321498537625435,0.49551273751336516,0.3042310042357091,0.2608622683177697,0.9110166530043211,0.5267227302733601,0.4189050891039872,0.39923467959005854,0.7705862527507377
75,,,,,,,,,,,,,,,,,,,,,,,,,,,,,,,,,,,,,,,,,,,,,,,,,,,,,,,,,,,,,,,,,,,,,,,,,,,,,,,,,,,,,,,,,,,,,,,,,,,,,,,,,,,,,,,,,,,,,,,,,,,,,,,,,,,,
76,0.4448871418214016,0.6480034003462714,-0.1538979345757519,1.025712188165196,0.5111940651544763,0.7150691670622129,-0.1653229142385455,1.0245619021352546,0.44901821250202606,0.6904879406907853,-0.18591658715153017,1.0493399102025396,0.44190687577834487,0.6928561012624664,-0.15694379539304998,1.000158532502671,0.5037502079323707,0.65413111768546,-0.18217352579161905,1.0052331336958522,0.5038197078883974,0.6498056540276013,-0.19658400367764778,1.045455774122373,0.5099226904398457,0.7028288745664041,-0.1564683740106389,1.00033169208539,0.487922618440307,0.7145695728855075,-0.27868201837367634,0.9897435783477637,0.48890756984918127,0.7179627155455682,-0.1627727886111225,1.043723571132496,0.456480015785438,0.6999077957513551,-0.19554498408659376,0.9984762188455705,0.5187604252375404,0.7195673886305282,-0.10820180080279261,0.9929155964386436,0.45160611726375244,0.6150199259787307,-0.3314328773161569,0.9742310392444075,0.4424194465601704,0.5989224499925168,-0.012771479750206205,1.0305311004142919,0.47364296867850186,0.719966214883471,-0.476942759360063,1.0118529465889607,0.4561704837271707,0.6467157614534491,0.0054408290447839625,0.6177114741417131,0.43975908438823935,0.6885743242768821,-0.5990398368481227,0.9833207907908312,0.48344247309675287,0.7457903553240023,0.0904953205945981,0.8625805410403573,0.40831131345572663,0.7538096088025408,-0.6118307988713578,0.9402825230072966,0.4544081776663215,0.781124388892969,0.04865891356937009,0.8500722087164613,0.4343156568053672,0.7851640038776283,-0.6350127357846101,0.9383674352742664,0.46361122023033646,0.8071958254288103,0.08055530182068618,0.8606302868678315,0.3927209188833404,0.7501653628567936,-0.5811312687277009,0.9384373122769033,0.45984311084510465,0.7159728604486758,0.11623180646882983,0.8205212956964978,0.41372759736202397,0.5209360257679495,-0.12993681554469463,1.029172005006895,0.41320419302155775,0.4503982284347096,0.07402074323848651,0.9575489219564769,0.5419389061338725,0.5135666962962862,0.1233002555154315,0.9857281843290769,0.5003495338783776,0.45669772750404,0.31801316683030173,0.27375438736328644,0.509386941375979,0.4534025696439495,0.37144214523137986,0.9096400886043744,0.5174971735242325,0.4268205935769496,0.5857665567431629,0.40893439663432535,0.49871660183143046,0.42298857826263275,0.40096949583914665,0.9226381483804923,0.46938381216235725,0.37133538996859333,0.6411006648666555,0.6191615605916145,0.519753938911791,0.3912055058455113,0.3780035748788647,0.8438264827162352,0.5608635489539683,0.4034714200137162,0.5457729653220905,0.5538894539493155
77,0.4256708403267673,0.6012685308661383,-0.29138523542380523,1.025712188165196,0.4960630211181103,0.6616485637869138,-0.3047501248515014,1.0245619021352546,0.43605918234434266,0.6356302694299516,-0.32554762171243357,1.0493320423894292,0.4311461674810003,0.6366451661466522,-0.2967913544203598,1.000158532502671,0.48308523681324567,0.6032558115560044,-0.34432051949054965,1.0052331336958522,0.48270090060075327,0.5995185265327893,-0.3585673613629095,1.045448025518552,0.48836520339374395,0.6530877256177346,-0.3184303989905236,1.00033169208539,0.4855289191036985,0.6518365187244357,-0.4097897414069903,0.9897203325363013,0.46189130766731007,0.663755867401037,-0.40270860193458347,1.0436968682516365,0.4419203354373263,0.6507796209695558,-0.3268339967253827,0.9987279888651017,0.49713149751630203,0.6734105649954268,-0.27036344295373005,0.9930246133339378,0.4797973573555037,0.5464111651449904,-0.3549382606378403,0.9735859977786483,0.4091721597675589,0.5517083591683896,-0.26859176302505183,1.036987773559586,0.5349842714757733,0.6331475794197564,-0.22154046040860306,0.831743743727175,0.4240911872665833,0.6236322534387702,-0.29072235932882645,0.4176019625278673,0.5248758150053038,0.6234052878884849,-0.1341010766899303,0.5222622337572924,0.4793435398983603,0.7398686338655672,-0.22920830273576356,0.5458871158618295,0.5006486382291553,0.6877521651837664,-0.11325787207703529,0.451252340645694,0.45399286953609924,0.7768526432112063,-0.2887085122845067,0.525436643435547,0.5206418733964074,0.7254590444850807,-0.15359391005829798,0.4299484580136766,0.46614394810775583,0.7988839577148821,-0.25899734389276613,0.5027173888041718,0.47274926021390506,0.6928553180913212,-0.11770889974604981,0.4142268890457785,0.4650686796585294,0.7062607604196841,-0.20549326926032752,0.48088645997643553,0.4318928388244807,0.49645180860104887,-0.060252759982960875,1.028354706117735,0.3983573775379592,0.42775814917483723,0.004189933806957147,0.956117754830775,0.5496454280211978,0.5927005943160768,0.10358548637698323,0.2303319672213041,0.46763981231785323,0.5318285775807154,0.1506651419190983,0.10583550409922163,0.5231392758172057,0.6078027096910229,0.28837904099658845,0.31355957679597896,0.49383306651383657,0.5684415871911465,0.4338791518709773,0.20336679829142984,0.5149984111345163,0.5827608551409897,0.3086928473830539,0.21635617346880257,0.45064470662959055,0.5188402560917927,0.4896971344904775,0.2275158161486748,0.5298601536603574,0.5903189046358709,0.2553531663232617,0.31841892999711896,0.5281830955841498,0.5772988297579789,0.37994367513258887,0.3868754511493277
78,0.42342083085784316,0.60300624467992,-0.38743429618167785,1.025712188165196,0.49318071411610614,0.6609552425588865,-0.40449559733405416,1.0245619021352546,0.4333176999021178,0.6349328950860795,-0.42533999744368417,1.049291749649561,0.4284902586489375,0.6359108965276642,-0.3964466117366799,1.000158532502671,0.47998119077617374,0.6021871598798264,-0.44098781083711586,1.0052331336958522,0.4793735171307964,0.5982171187187634,-0.4551741791712087,1.0454071367322362,0.4847442513178529,0.6515606546185891,-0.4149927916367334,1.00033169208539,0.48233217627810165,0.6505976361827792,-0.4981875800235011,0.9895803212257239,0.4604215780918551,0.661988768497381,-0.47202790477582873,1.0436905501592904,0.4407448950661149,0.6536620419862489,-0.41563260332135704,0.9985172268411759,0.49549283950220624,0.675587088204045,-0.3537665045868135,0.9927172917854757,0.4757041354533528,0.5482125963240371,-0.43733961244873715,0.9740707623546063,0.40224656668816416,0.5574437565072567,-0.312255414017469,1.035288862369553,0.5289405167591031,0.6486341178299432,-0.36742386446081676,1.0024263528084432,0.4195715451470113,0.6250221145456427,-0.32512260743061266,0.8799707786651811,0.5217696722496263,0.6243568164376793,-0.3702884690330469,0.9399343314402453,0.4627967117316137,0.7407763530008517,-0.28341018178537974,0.9803037079829536,0.49723434488000434,0.6825191157910662,-0.3796747749517152,0.8577344411324493,0.4352164716138523,0.7764518019750918,-0.3471348038398667,0.9591066873808594,0.5154549166992021,0.7200672083186989,-0.4167795020186315,0.8539436548329821,0.449277728490349,0.7981747220466997,-0.3240679344840977,0.9591424595668061,0.46864682893128085,0.6903613405446293,-0.3565603797812368,0.813717394502703,0.44783473246671324,0.7067417102983767,-0.2621921879055407,0.9110224253237255,0.4258435062627919,0.4960414902264151,-0.08317743065456777,1.0292010920735455,0.39408773244785666,0.4313583889285603,0.02831832660210467,0.9575699027914377,0.5577068560348204,0.5653905209403749,0.11919119629650493,0.7794284025297605,0.48093132353382045,0.5113218379643214,0.2616644695588858,0.2812887124861197,0.5258944158371502,0.5354178157968273,0.3671365475604915,0.5930925159916118,0.5156696776812695,0.5053200299554287,0.6142790437883114,0.20201152277968815,0.5158109542394146,0.5077090110209641,0.3977790751764762,0.4698586467039329,0.47414978786029305,0.4512713876931264,0.6869717318029789,0.2252243304814461,0.5389483348129873,0.4990964395975713,0.36996321512899344,0.6076055864721861,0.5582416364330389,0.4994976617930436,0.5983984594870133,0.38746479207454443
79,0.44295804546766226,0.6348401317801398,-0.19310146866924166,1.025712188165196,0.513831606450049,0.6956318539823789,-0.21075645043542487,1.0245619021352546,0.45405531735264926,0.6692627862909135,-0.23183193582729728,1.0493470627599126,0.44928708501395265,0.6699264924405975,-0.20304737043560378,1.000158532502671,0.5004556481747466,0.6381316217023362,-0.24883822402422523,1.0052331336958522,0.49997749448310624,0.6345916280533276,-0.2633102273187673,1.045466383749143,0.5054922719171797,0.6884196901105325,-0.2232450954498727,1.00033169208539,0.5017786065098788,0.6852678699092807,-0.3366521784959768,0.9897506116958473,0.4827964535974062,0.6992450689467523,-0.2746918181047067,1.0437298892248421,0.4597265567061363,0.6839764278772096,-0.23128573439321157,0.9988495823404435,0.5156069789005887,0.7077195349699447,-0.16561154100721243,0.9932483095657797,0.49013327538080853,0.5697160448103652,-0.3045306933088244,0.9772303449695051,0.42521297468629593,0.5877821630700619,-0.12402423222894826,1.0385227719764867,0.5531081937964383,0.6329244792343621,-0.2358319776573727,1.0013706353401814,0.45332890507074847,0.6546359074419135,-0.09422847284781403,0.43532865210496996,0.5584390232128377,0.6032744747666893,-0.22339228109070333,0.9654222908251635,0.5025939865635513,0.7705315877191744,-0.001760727338109164,0.7838947209376657,0.5168464332798931,0.6595180410001116,-0.21826656480776135,0.926667093605899,0.47731835607627354,0.8053981420591677,-0.042511795380604796,0.7474647200842591,0.5443765368009492,0.7017768674182777,-0.2516009584037139,0.9186752527333727,0.4877278428435522,0.829198820443001,-0.010494494828186426,0.7157171499087556,0.510254052932644,0.6719786124448063,-0.20560151236886187,0.9203941518383657,0.48514529262126244,0.7371537882021243,0.02416880980777428,0.7056264883577832,0.422510283262527,0.5074280933434042,-0.08883529900284265,1.029142560312376,0.3929478590247023,0.4435430386344472,0.03446961198485282,0.9574938472647045,0.5881800678436688,0.5841267641883607,0.10376263162448687,0.5150890151129209,0.47384108275173703,0.5087670636799586,0.21457847909456468,0.33899539636024995,0.5917544941047517,0.5855723229570141,0.2735405023649934,0.3956091552242474,0.5160906622167667,0.506133573751968,0.5088522784913635,0.30718467844508585,0.5900275577265351,0.5580351199534592,0.2928947056219123,0.30826252730009374,0.4766384176024472,0.45223450934572956,0.5661112871168812,0.35172773843661576,0.6215419212923967,0.5659665329432134,0.2430175951598164,0.4362379114061918,0.5559152959851511,0.5053094722865128,0.46791878260141295,0.5011607413905692
80,0.4178521872124582,0.5986700067725104,-0.47465340882356594,1.025712188165196,0.4857571601070842,0.6526033205236692,-0.4889338827996032,1.0245619021352546,0.42506626608755255,0.6251736477830705,-0.5096534537364328,1.0444342691235906,0.4195132350270994,0.6248172204374237,-0.48062756250038474,1.000158532502671,0.4741733850755523,0.5976453455525864,-0.5253046090861371,1.0052331336958522,0.4742637553677233,0.5947844872261486,-0.539626174612073,1.0428611839353001,0.48033031833910506,0.6492411994717996,-0.4995165175937389,1.00033169208539,0.4725196621785672,0.6369423908786715,-0.5663672506733941,0.9596865653129433,0.4561069867055989,0.6605899070891473,-0.5385586364260272,1.041621017288044,0.4338258728772449,0.6470104616525392,-0.4965989293919269,0.9912766930124407,0.49076910711751315,0.6725820008284041,-0.43471341958753823,0.9834724921715233,0.46149974450607256,0.5228566016226516,-0.4939765969889882,0.9604515182559431,0.39384192646251404,0.5718303508027585,-0.3579053952485795,1.0345469633560336,0.5272713563529545,0.5815106451393609,-0.46513723634244913,1.0104813245033895,0.4049707272307695,0.6405163419550055,-0.35232563849134746,0.9614920513244829,0.5373147215177788,0.5539807182817039,-0.5486370369548684,0.9437310281031482,0.44052665176450884,0.7523844767801485,-0.31438384063370883,0.9727811249751412,0.5033171460522213,0.6099811571690874,-0.5694427654364019,0.8831005686234467,0.41212802243833185,0.7900869605139101,-0.3736911044494504,0.9408829248686525,0.5192719412768748,0.6568197660732155,-0.6058155658995747,0.8790204017735948,0.4219780976056298,0.8127133081863787,-0.35027036407862017,0.9394482504679902,0.4885348575515369,0.6301931338528873,-0.5367988750697207,0.8170486384945548,0.42395139045613467,0.7201390463045413,-0.29155368763110745,0.8828437334597119,0.415604436087003,0.5096333161884817,-0.08889830518925919,1.0283497589322186,0.38782092322952144,0.4617101767341176,0.03568816774110783,0.9563536104101513,0.5612565964526239,0.5632932123046632,0.0628085596609381,0.3434060016737425,0.4796884591623681,0.5345088792469752,0.21546417563784995,0.052214234336705634,0.55059382667547,0.5643167701883068,0.28931631899650306,0.4109296946987347,0.5195952264954955,0.5728941137605129,0.5440138178264167,0.10017547843836236,0.5427942798187574,0.5341775264170823,0.3158122813346928,0.540830701900695,0.4770912359441094,0.5222076801030232,0.6064260556257608,0.16235502010241779,0.571589571369735,0.5221750600313787,0.26158654763477035,0.47425312799516584,0.5686241134051678,0.5753225185511612,0.5064238893096694,0.1895771628039908
81,0.42883195194461776,0.6510581979956549,-0.35713885852819804,1.025712188165196,0.49819537715336065,0.7094399852003355,-0.37406278585951663,1.0245619021352546,0.43847358025166655,0.6826409892061052,-0.39490785120860594,1.0493427712254888,0.4337981559441264,0.6828800718664093,-0.36606947801115663,1.000158532502671,0.4842910852508233,0.6519714029866684,-0.4120818211828664,1.0052331336958522,0.4836344647467166,0.6481172332550488,-0.4263394776231674,1.045463999563352,0.48900254067539217,0.7016131782315652,-0.38615007058132816,1.00033169208539,0.48643117041357226,0.694558386285776,-0.4727323240888285,0.9897372602554175,0.46144671792962266,0.7094075416716669,-0.45639526935164815,1.043725955318287,0.4450185760728117,0.6991787117364625,-0.38718898224736914,0.9987555262109878,0.5001679790947734,0.7226552072531173,-0.32829746555448863,0.9931188482773278,0.47568876682854033,0.5715453709631667,-0.43705651203549,0.9728464829509199,0.3948881486701833,0.6035479492410214,-0.2989060160871907,1.0374542395095983,0.5545086404597341,0.6120611846329217,-0.3378375911830018,0.9634864595627463,0.4137325087958541,0.6676843178575629,-0.29561466180281915,0.5645204083534441,0.575553482443977,0.555142233994442,-0.3550539684326649,0.6966989817850939,0.467122127462346,0.7711380053751192,-0.20799309119695494,0.48887855138963104,0.556181279407904,0.6041586178395586,-0.36362881671702213,0.5802817338417999,0.4406491447754486,0.8028158900335635,-0.25868948863636865,0.4272016025324555,0.5779558642375318,0.6474342994975929,-0.40343596616605004,0.5763580887891283,0.45312926610186355,0.8249396513412859,-0.23137720423857122,0.41843093746445015,0.5295173037224927,0.6215179162244083,-0.34185061926192023,0.41187742296034446,0.45301689718606986,0.7338603931597049,-0.18175307690641856,0.32152152124047356,0.41421519657792877,0.5163844362789664,-0.07281645294855978,1.0290940421315289,0.37855256313899666,0.4755906381885091,0.020900443952052466,0.9573265370268199,0.5915705095805656,0.5027453538280244,0.19077503034557933,0.1960927793846571,0.5085351509488117,0.5312976194050563,0.2810305069649019,0.01172508319416803,0.6214229816265623,0.4500920084638348,0.46335032278781146,0.14535549275724444,0.5774833070280171,0.5295530731492458,0.6693842577620088,0.05254085915021586,0.6179510383796705,0.41591657656699976,0.4981634171986212,0.23128335209009465,0.5369918498570612,0.47223973548098347,0.7367611894262216,0.04628205431655669,0.6534601507386358,0.41219838094469347,0.44616563353034033,0.08945369226041695,0.6362848280385034,0.5325569607852005,0.6311934451928769,0.020015447007400905
82,,,,,,,,,,,,,,,,,,,,,,,,,,,,,,,,,,,,,,,,,,,,,,,,,,,,,,,,,,,,,,,,,,,,,,,,,,,,,,,,,,,,,,,,,,,,,,,,,,,,,,,,,,,,,,,,,,,,,,,,,,,,,,,,,,,,
83,,,,,,,,,,,,,,,,,,,,,,,,,,,,,,,,,,,,,,,,,,,,,,,,,,,,,,,,,,,,,,,,,,,,,,,,,,,,,,,,,,,,,,,,,,,,,,,,,,,,,,,,,,,,,,,,,,,,,,,,,,,,,,,,,,,,
84,,,,,,,,,,,,,,,,,,,,,,,,,,,,,,,,,,,,,,,,,,,,,,,,,,,,,,,,,,,,,,,,,,,,,,,,,,,,,,,,,,,,,,,,,,,,,,,,,,,,,,,,,,,,,,,,,,,,,,,,,,,,,,,,,,,,
85,,,,,,,,,,,,,,,,,,,,,,,,,,,,,,,,,,,,,,,,,,,,,,,,,,,,,,,,,,,,,,,,,,,,,,,,,,,,,,,,,,,,,,,,,,,,,,,,,,,,,,,,,,,,,,,,,,,,,,,,,,,,,,,,,,,,
86,,,,,,,,,,,,,,,,,,,,,,,,,,,,,,,,,,,,,,,,,,,,,,,,,,,,,,,,,,,,,,,,,,,,,,,,,,,,,,,,,,,,,,,,,,,,,,,,,,,,,,,,,,,,,,,,,,,,,,,,,,,,,,,,,,,,
87,,,,,,,,,,,,,,,,,,,,,,,,,,,,,,,,,,,,,,,,,,,,,,,,,,,,,,,,,,,,,,,,,,,,,,,,,,,,,,,,,,,,,,,,,,,,,,,,,,,,,,,,,,,,,,,,,,,,,,,,,,,,,,,,,,,,
88,,,,,,,,,,,,,,,,,,,,,,,,,,,,,,,,,,,,,,,,,,,,,,,,,,,,,,,,,,,,,,,,,,,,,,,,,,,,,,,,,,,,,,,,,,,,,,,,,,,,,,,,,,,,,,,,,,,,,,,,,,,,,,,,,,,,
89,,,,,,,,,,,,,,,,,,,,,,,,,,,,,,,,,,,,,,,,,,,,,,,,,,,,,,,,,,,,,,,,,,,,,,,,,,,,,,,,,,,,,,,,,,,,,,,,,,,,,,,,,,,,,,,,,,,,,,,,,,,,,,,,,,,,
90,,,,,,,,,,,,,,,,,,,,,,,,,,,,,,,,,,,,,,,,,,,,,,,,,,,,,,,,,,,,,,,,,,,,,,,,,,,,,,,,,,,,,,,,,,,,,,,,,,,,,,,,,,,,,,,,,,,,,,,,,,,,,,,,,,,,
91,,,,,,,,,,,,,,,,,,,,,,,,,,,,,,,,,,,,,,,,,,,,,,,,,,,,,,,,,,,,,,,,,,,,,,,,,,,,,,,,,,,,,,,,,,,,,,,,,,,,,,,,,,,,,,,,,,,,,,,,,,,,,,,,,,,,
92,,,,,,,,,,,,,,,,,,,,,,,,,,,,,,,,,,,,,,,,,,,,,,,,,,,,,,,,,,,,,,,,,,,,,,,,,,,,,,,,,,,,,,,,,,,,,,,,,,,,,,,,,,,,,,,,,,,,,,,,,,,,,,,,,,,,
93,,,,,,,,,,,,,,,,,,,,,,,,,,,,,,,,,,,,,,,,,,,,,,,,,,,,,,,,,,,,,,,,,,,,,,,,,,,,,,,,,,,,,,,,,,,,,,,,,,,,,,,,,,,,,,,,,,,,,,,,,,,,,,,,,,,,
94,,,,,,,,,,,,,,,,,,,,,,,,,,,,,,,,,,,,,,,,,,,,,,,,,,,,,,,,,,,,,,,,,,,,,,,,,,,,,,,,,,,,,,,,,,,,,,,,,,,,,,,,,,,,,,,,,,,,,,,,,,,,,,,,,,,,
95,,,,,,,,,,,,,,,,,,,,,,,,,,,,,,,,,,,,,,,,,,,,,,,,,,,,,,,,,,,,,,,,,,,,,,,,,,,,,,,,,,,,,,,,,,,,,,,,,,,,,,,,,,,,,,,,,,,,,,,,,,,,,,,,,,,,
96,,,,,,,,,,,,,,,,,,,,,,,,,,,,,,,,,,,,,,,,,,,,,,,,,,,,,,,,,,,,,,,,,,,,,,,,,,,,,,,,,,,,,,,,,,,,,,,,,,,,,,,,,,,,,,,,,,,,,,,,,,,,,,,,,,,,
