frame,NOSE.x,NOSE.y,NOSE.z,NOSE.v,LEFT_EYE_INNER.x,LEFT_EYE_INNER.y,LEFT_EYE_INNER.z,LEFT_EYE_INNER.v,LEFT_EYE.x,LEFT_EYE.y,LEFT_EYE.z,LEFT_EYE.v,LEFT_EYE_OUTER.x,LEFT_EYE_OUTER.y,LEFT_EYE_OUTER.z,LEFT_EYE_OUTER.v,RIGHT_EYE_INNER.x,RIGHT_EYE_INNER.y,RIGHT_EYE_INNER.z,RIGHT_EYE_INNER.v,RIGHT_EYE.x,RIGHT_EYE.y,RIGHT_EYE.z,RIGHT_EYE.v,RIGHT_EYE_OUTER.x,RIGHT_EYE_OUTER.y,RIGHT_EYE_OUTER.z,RIGHT_EYE_OUTER.v,LEFT_EAR.x,LEFT_EAR.y,LEFT_EAR.z,LEFT_EAR.v,RIGHT_EAR.x,RIGHT_EAR.y,RIGHT_EAR.z,RIGHT_EAR.v,MOUTH_LEFT.x,MOUTH_LEFT.y,MOUTH_LEFT.z,MOUTH_LEFT.v,MOUTH_RIGHT.x,MOUTH_RIGHT.y,MOUTH_RIGHT.z,MOUTH_RIGHT.v,LEFT_SHOULDER.x,LEFT_SHOULDER.y,LEFT_SHOULDER.z,LEFT_SHOULDER.v,RIGHT_SHOULDER.x,RIGHT_SHOULDER.y,RIGHT_SHOULDER.z,RIGHT_SHOULDER.v,LEFT_ELBOW.x,LEFT_ELBOW.y,LEFT_ELBOW.z,LEFT_ELBOW.v,RIGHT_ELBOW.x,RIGHT_ELBOW.y,RIGHT_ELBOW.z,RIGHT_ELBOW.v,LEFT_WRIST.x,LEFT_WRIST.y,LEFT_WRIST.z,LEFT_WRIST.v,RIGHT_WRIST.x,RIGHT_WRIST.y,RIGHT_WRIST.z,RIGHT_WRIST.v,LEFT_PINKY.x,LEFT_PINKY.y,LEFT_PINKY.z,LEFT_PINKY.v,RIGHT_PINKY.x,RIGHT_PINKY.y,RIGHT_PINKY.z,RIGHT_PINKY.v,LEFT_INDEX.x,LEFT_INDEX.y,LEFT_INDEX.z,LEFT_INDEX.v,RIGHT_INDEX.x,RIGHT_INDEX.y,RIGHT_INDEX.z,RIGHT_INDEX.v,LEFT_THUMB.x,LEFT_THUMB.y,LEFT_THUMB.z,LEFT_THUMB.v,RIGHT_THUMB.x,RIGHT_THUMB.y,RIGHT_THUMB.z,RIGHT_THUMB.v,LEFT_HIP.x,LEFT_HIP.y,LEFT_HIP.z,LEFT_HIP.v,RIGHT_HIP.x,RIGHT_HIP.y,RIGHT_HIP.z,RIGHT_HIP.v,LEFT_KNEE.x,LEFT_KNEE.y,LEFT_KNEE.z,LEFT_KNEE.v,RIGHT_KNEE.x,RIGHT_KNEE.y,RIGHT_KNEE.z,RIGHT_KNEE.v,LEFT_ANKLE.x,LEFT_ANKLE.y,LEFT_ANKLE.z,LEFT_ANKLE.v,RIGHT_ANKLE.x,RIGHT_ANKLE.y,RIGHT_ANKLE.z,RIGHT_ANKLE.v,LEFT_HEEL.x,LEFT_HEEL.y,LEFT_HEEL.z,LEFT_HEEL.v,RIGHT_HEEL.x,RIGHT_HEEL.y,RIGHT_HEEL.z,RIGHT_HEEL.v,LEFT_FOOT_INDEX.x,LEFT_FOOT_INDEX.y,LEFT_FOOT_INDEX.z,LEFT_FOOT_INDEX.v,RIGHT_FOOT_INDEX.x,RIGHT_FOOT_INDEX.y,RIGHT_FOOT_INDEX.z,RIGHT_FOOT_INDEX.v
0,,,,,,,,,,,,,,,,,,,,,,,,,,,,,,,,,,,,,,,,,,,,,,,,,,,,,,,,,,,,,,,,,,,,,,,,,,,,,,,,,,,,,,,,,,,,,,,,,,,,,,,,,,,,,,,,,,,,,,,,,,,,,,,,,,,,
1,,,,,,,,,,,,,,,,,,,,,,,,,,,,,,,,,,,,,,,,,,,,,,,,,,,,,,,,,,,,,,,,,,,,,,,,,,,,,,,,,,,,,,,,,,,,,,,,,,,,,,,,,,,,,,,,,,,,,,,,,,,,,,,,,,,,
2,,,,,,,,,,,,,,,,,,,,,,,,,,,,,,,,,,,,,,,,,,,,,,,,,,,,,,,,,,,,,,,,,,,,,,,,,,,,,,,,,,,,,,,,,,,,,,,,,,,,,,,,,,,,,,,,,,,,,,,,,,,,,,,,,,,,
3,,,,,,,,,,,,,,,,,,,,,,,,,,,,,,,,,,,,,,,,,,,,,,,,,,,,,,,,,,,,,,,,,,,,,,,,,,,,,,,,,,,,,,,,,,,,,,,,,,,,,,,,,,,,,,,,,,,,,,,,,,,,,,,,,,,,
4,,,,,,,,,,,,,,,,,,,,,,,,,,,,,,,,,,,,,,,,,,,,,,,,,,,,,,,,,,,,,,,,,,,,,,,,,,,,,,,,,,,,,,,,,,,,,,,,,,,,,,,,,,,,,,,,,,,,,,,,,,,,,,,,,,,,
5,,,,,,,,,,,,,,,,,,,,,,,,,,,,,,,,,,,,,,,,,,,,,,,,,,,,,,,,,,,,,,,,,,,,,,,,,,,,,,,,,,,,,,,,,,,,,,,,,,,,,,,,,,,,,,,,,,,,,,,,,,,,,,,,,,,,
6,,,,,,,,,,,,,,,,,,,,,,,,,,,,,,,,,,,,,,,,,,,,,,,,,,,,,,,,,,,,,,,,,,,,,,,,,,,,,,,,,,,,,,,,,,,,,,,,,,,,,,,,,,,,,,,,,,,,,,,,,,,,,,,,,,,,
7,,,,,,,,,,,,,,,,,,,,,,,,,,,,,,,,,,,,,,,,,,,,,,,,,,,,,,,,,,,,,,,,,,,,,,,,,,,,,,,,,,,,,,,,,,,,,,,,,,,,,,,,,,,,,,,,,,,,,,,,,,,,,,,,,,,,
8,,,,,,,,,,,,,,,,,,,,,,,,,,,,,,,,,,,,,,,,,,,,,,,,,,,,,,,,,,,,,,,,,,,,,,,,,,,,,,,,,,,,,,,,,,,,,,,,,,,,,,,,,,,,,,,,,,,,,,,,,,,,,,,,,,,,
9,,,,,,,,,,,,,,,,,,,,,,,,,,,,,,,,,,,,,,,,,,,,,,,,,,,,,,,,,,,,,,,,,,,,,,,,,,,,,,,,,,,,,,,,,,,,,,,,,,,,,,,,,,,,,,,,,,,,,,,,,,,,,,,,,,,,
10,,,,,,,,,,,,,,,,,,,,,,,,,,,,,,,,,,,,,,,,,,,,,,,,,,,,,,,,,,,,,,,,,,,,,,,,,,,,,,,,,,,,,,,,,,,,,,,,,,,,,,,,,,,,,,,,,,,,,,,,,,,,,,,,,,,,
11,-0.26890744030257596,0.33754281080280724,0.06852309971800018,0.9689931986414406,-0.2666899247867065,0.3698990835604279,0.04392597077393037,0.9883925863801553,-0.22282256335776873,0.3899444261156899,0.10545052380450028,1.0323089076826373,-0.24963913420900063,0.34217892592046445,0.08981570395837687,0.9846695536832648,-0.21180226093959598,0.31526365476231566,0.02908215129482529,1.0052638586578415,-0.25480738021622285,0.3142843919643005,0.09628170306917098,0.9919810527662347,-0.2170330077495488,0.2961309559136604,0.08109113157145977,0.9660111226168753,-0.2839185372718165,0.3491187268837893,0.07235952222999982,1.0326539561034875,-0.28217892954096796,0.37155771232767665,0.1518365009385962,0.9508382744539066,-0.20755162489263707,0.3577482156504398,0.07887854723029326,1.0167621554517983,-0.23151433128742496,0.36151162131324993,0.07605216985370017,0.9600468504540351,-0.23071735954155168,0.37026637061222417,0.03608046890234326,1.0297662785406883,-0.3090003469086886,0.44142413169186784,0.13878266376204088,1.028185383095248,-0.1944352780738591,0.47115428235523105,-0.060580219272216185,0.04280002558505334,-0.3072457867484183,0.49729215729271664,0.027553671249990697,0.8122420217260309,-0.2533656597208547,0.5774202656682027,-0.0034946978821671897,0.07986389477487249,-0.2569653498709722,0.513243436617216,0.07187700284631648,0.7484459009705525,-0.2851503693369559,0.5577107983325714,0.04245184793729596,0.06159716100577556,-0.3399647164550962,0.6113146062777488,0.11008703923277285,0.6706587647847867,-0.3042354890472995,0.5831274098845051,0.05251013549822256,0.022449266740508407,-0.27061053476103925,0.5615196874453614,0.08519599081275706,0.6994550679721375,-0.2317297181905289,0.5425203425490239,0.029190588636792476,0.04774721951414158,-0.33569472279712503,0.5478755802218347,0.09607366938441568,0.6432573001793551,-0.236815014302834,0.5189268772943859,-0.07193141546625914,1.0394766316798445,-0.31966967270489544,0.5753051015718601,-0.03075269916281469,1.0158899153250827,-0.19325008450235034,0.661146235738968,-0.10915337760950539,0.7923577855184709,-0.28477229536618276,0.6249984055389962,-0.06477222946466221,0.8444144163044681,-0.17928078920475238,0.7955291515758259,-0.10702130907009982,0.866551411221623,-0.29784476736771115,0.7825469176606542,-0.20893851890958526,0.8676468846304084,-0.2600792770238187,0.811385378084739,-0.10787444255155029,0.9178023273353757,-0.3518712419791311,0.7681203876269377,-0.14120138943601773,0.8547416393195564,-0.18621832462147456,0.8082677813814694,-0.06250371562349818,0.6078429240857689,-0.3893780641481783,0.8142071954807882,-0.14849254316664656,0.5218660372605985
12,-0.25258840762229917,0.34821606553112455,0.12035920481653421,0.9689931986414406,-0.2507531545185995,0.38185559648843687,0.09948342039648095,0.9883925863801553,-0.2070041346322538,0.40259193569058005,0.1610661184420694,1.0323494388410845,-0.23396510754622868,0.35540698473546695,0.14545387833441817,0.9846695536832648,-0.19705736347113528,0.3255172629890917,0.07755262599172899,1.0052638586578415,-0.24068689566349302,0.32414124187312926,0.14463305738074153,0.992018126855285,-0.20356657676932347,0.30558130214512097,0.1291786222345951,0.9660111226168753,-0.27000480234410146,0.3625073010071719,0.13718929333215168,1.0326718374969202,-0.27454379218424263,0.38257950521631806,0.18449704155324734,0.9508798784959598,-0.1922891959352246,0.3708716683138614,0.13421270913927438,1.016978222289109,-0.21823973403792038,0.37272742732063524,0.12197616262865853,0.960520826589289,-0.21658520344640936,0.393019013243755,0.10795363941042582,1.031498687541085,-0.3145266382123154,0.45286989241879655,0.1422414162360465,1.0283622896809415,-0.1534516470501744,0.5026279487847507,0.05470673965814042,0.9565535202053765,-0.3149069095639757,0.5026669167283704,0.030024171231345362,0.977559676335711,-0.1886747859182565,0.6319014143879903,0.16906427215434564,1.0018980354511327,-0.2513251728216919,0.5204452870314922,0.09818912818656758,0.9261721697388631,-0.21356001875992736,0.6186952310298676,0.2331215293682022,0.936999186884205,-0.3330892818237033,0.6147826429293601,0.13905535471085453,0.8653995966367459,-0.23065671028599108,0.6424492902250812,0.2430664445041565,0.9049987165419535,-0.25841448715810894,0.5682664563967774,0.11925139835939008,0.9075450752772828,-0.16254311735521978,0.5996203405463079,0.2024791169006097,0.9059817628674608,-0.3241424120959416,0.5574853986803918,0.1259274245992667,0.9059377115181613,-0.2321093153549249,0.536359566961134,-0.05899186713539409,1.0396670685199016,-0.3271092599543533,0.5912592980249546,-0.04423407549451359,1.0160733188170565,-0.1896077038372347,0.6817354681837312,-0.09205104878103719,0.9599338005140459,-0.298752236313189,0.6424143463005624,-0.08037788846149241,0.9583701524647464,-0.17529328170696284,0.8180356866290791,-0.10135795622510016,0.9525888682109114,-0.3051256362191174,0.8054572145776159,-0.23263115925199357,0.9865945693952706,-0.2564101947888221,0.8326238243203957,-0.10200968708569336,0.9829071695213499,-0.3639906755618532,0.7933895979655302,-0.16419934256904145,0.9715187613402777,-0.17021080311378473,0.8319383355425412,-0.03661157924856045,0.875973524538192,-0.4029823286934865,0.8275610797009115,-0.15319633272895317,0.786067737948007
13,,,,,,,,,,,,,,,,,,,,,,,,,,,,,,,,,,,,,,,,,,,,,,,,,,,,,,,,,,,,,,,,,,,,,,,,,,,,,,,,,,,,,,,,,,,,,,,,,,,,,,,,,,,,,,,,,,,,,,,,,,,,,,,,,,,,
14,,,,,,,,,,,,,,,,,,,,,,,,,,,,,,,,,,,,,,,,,,,,,,,,,,,,,,,,,,,,,,,,,,,,,,,,,,,,,,,,,,,,,,,,,,,,,,,,,,,,,,,,,,,,,,,,,,,,,,,,,,,,,,,,,,,,
15,,,,,,,,,,,,,,,,,,,,,,,,,,,,,,,,,,,,,,,,,,,,,,,,,,,,,,,,,,,,,,,,,,,,,,,,,,,,,,,,,,,,,,,,,,,,,,,,,,,,,,,,,,,,,,,,,,,,,,,,,,,,,,,,,,,,
16,,,,,,,,,,,,,,,,,,,,,,,,,,,,,,,,,,,,,,,,,,,,,,,,,,,,,,,,,,,,,,,,,,,,,,,,,,,,,,,,,,,,,,,,,,,,,,,,,,,,,,,,,,,,,,,,,,,,,,,,,,,,,,,,,,,,
17,,,,,,,,,,,,,,,,,,,,,,,,,,,,,,,,,,,,,,,,,,,,,,,,,,,,,,,,,,,,,,,,,,,,,,,,,,,,,,,,,,,,,,,,,,,,,,,,,,,,,,,,,,,,,,,,,,,,,,,,,,,,,,,,,,,,
18,-0.26398901602473496,0.3430740324309964,0.4709489854843609,0.9689931986414406,-0.27731827639390677,0.37702741164537357,0.41721512327968496,0.9883925863801553,-0.2393422451316548,0.39886563211315695,0.4778492781957283,1.0296327783415118,-0.2719937948680282,0.3528992683181543,0.4613149665376993,0.9846695536832648,-0.2080010758743877,0.3184446950493334,0.3939652162627528,1.0052638586578415,-0.24614377181618247,0.31589309152446593,0.46185817272667085,0.985835992703826,-0.20341109852979905,0.29641440580188977,0.44746440851288466,0.9660111226168753,-0.3326678616679823,0.3632851416214908,0.3052179773042781,1.0307177588226037,-0.28469688743884863,0.37321260548754304,0.35480995190803954,0.9337703056085391,-0.21608072228758296,0.3710604064215427,0.43386931365607334,0.9998967231893777,-0.22472379809982357,0.36850664361015545,0.4216188161354419,0.9286324608437446,-0.3086768727491798,0.3713765071211659,0.25681209230986984,1.0153035691138084,-0.26186200585738106,0.4479430618886299,0.30661807461956164,0.7927692687649563,-0.24301160434491012,0.32945168998233676,0.3369539458979421,0.931878210547326,-0.24130508423509425,0.39203625547920956,0.340262099791415,0.9959488417371698,-0.27709340492721746,0.3276349914010061,0.47795771695640676,0.9611381739818637,-0.2005193647492493,0.28498843292649645,0.4840242703793429,0.9171886172829609,-0.2999340993362928,0.2759481685851807,0.5618729840478357,0.8631723374236032,-0.2862877181909696,0.344944667427346,0.5564460303079375,0.771075842326138,-0.31832682681583346,0.3022879368753955,0.5514442956168849,0.8023701278655008,-0.21573762905800212,0.2927167167975494,0.5118128625006483,0.7984616015948792,-0.24790445870162042,0.27299800344341785,0.507869966534583,0.8260210590176683,-0.28590852387598537,0.29284214678448717,0.5057485562641636,0.8193784754685092,-0.2984518585846904,0.5607997362955456,-0.06948221795478289,1.0394704327967876,-0.2983939039366381,0.6223559352739475,-0.038562280006480945,1.0155307377356662,-0.2873819658180001,0.6737833741056672,0.1968225475070794,0.9647360871389543,-0.15260195700857115,0.642565444075068,0.19164122225500965,0.9532339010151615,-0.2951801782891335,0.8506249433925374,0.06717115640890181,0.9485248447161909,-0.1365880855323874,0.8323977391557104,-0.04584271385384772,0.9755329009992744,-0.36731150190925427,0.8594803063493569,0.055753342222624055,0.9375907713775817,-0.19330717504214445,0.8171886597407377,0.016476850973892457,0.837786442462104,-0.3108906776610474,0.9216588827417904,0.18045817677535775,0.9244560618077842,-0.18888791053344434,0.896553515633071,0.09842041077686246,0.8735964435449309
19,,,,,,,,,,,,,,,,,,,,,,,,,,,,,,,,,,,,,,,,,,,,,,,,,,,,,,,,,,,,,,,,,,,,,,,,,,,,,,,,,,,,,,,,,,,,,,,,,,,,,,,,,,,,,,,,,,,,,,,,,,,,,,,,,,,,
20,,,,,,,,,,,,,,,,,,,,,,,,,,,,,,,,,,,,,,,,,,,,,,,,,,,,,,,,,,,,,,,,,,,,,,,,,,,,,,,,,,,,,,,,,,,,,,,,,,,,,,,,,,,,,,,,,,,,,,,,,,,,,,,,,,,,
21,,,,,,,,,,,,,,,,,,,,,,,,,,,,,,,,,,,,,,,,,,,,,,,,,,,,,,,,,,,,,,,,,,,,,,,,,,,,,,,,,,,,,,,,,,,,,,,,,,,,,,,,,,,,,,,,,,,,,,,,,,,,,,,,,,,,
22,,,,,,,,,,,,,,,,,,,,,,,,,,,,,,,,,,,,,,,,,,,,,,,,,,,,,,,,,,,,,,,,,,,,,,,,,,,,,,,,,,,,,,,,,,,,,,,,,,,,,,,,,,,,,,,,,,,,,,,,,,,,,,,,,,,,
23,,,,,,,,,,,,,,,,,,,,,,,,,,,,,,,,,,,,,,,,,,,,,,,,,,,,,,,,,,,,,,,,,,,,,,,,,,,,,,,,,,,,,,,,,,,,,,,,,,,,,,,,,,,,,,,,,,,,,,,,,,,,,,,,,,,,
24,,,,,,,,,,,,,,,,,,,,,,,,,,,,,,,,,,,,,,,,,,,,,,,,,,,,,,,,,,,,,,,,,,,,,,,,,,,,,,,,,,,,,,,,,,,,,,,,,,,,,,,,,,,,,,,,,,,,,,,,,,,,,,,,,,,,
25,,,,,,,,,,,,,,,,,,,,,,,,,,,,,,,,,,,,,,,,,,,,,,,,,,,,,,,,,,,,,,,,,,,,,,,,,,,,,,,,,,,,,,,,,,,,,,,,,,,,,,,,,,,,,,,,,,,,,,,,,,,,,,,,,,,,
26,,,,,,,,,,,,,,,,,,,,,,,,,,,,,,,,,,,,,,,,,,,,,,,,,,,,,,,,,,,,,,,,,,,,,,,,,,,,,,,,,,,,,,,,,,,,,,,,,,,,,,,,,,,,,,,,,,,,,,,,,,,,,,,,,,,,
27,,,,,,,,,,,,,,,,,,,,,,,,,,,,,,,,,,,,,,,,,,,,,,,,,,,,,,,,,,,,,,,,,,,,,,,,,,,,,,,,,,,,,,,,,,,,,,,,,,,,,,,,,,,,,,,,,,,,,,,,,,,,,,,,,,,,
28,-0.3951604292627051,0.5977283207229275,0.24283950385044484,0.9689931986414406,-0.4024419042901584,0.6502502753195374,0.20682609910433758,0.9883925863801553,-0.3598133197635841,0.6730979600512368,0.26826622682773893,1.0323372794935506,-0.3876255747909011,0.6282401830444116,0.2525927586879551,0.9846695536832648,-0.3477175473221716,0.590047415071535,0.16588786208142678,1.0052638586578415,-0.3903229871339778,0.5877798276790223,0.23306437778907332,0.9919604295591424,-0.3520372823245597,0.5682394511491036,0.21792496601352007,0.9660111226168753,-0.4286367087912206,0.6352222735032046,0.18687835638662664,1.0326566979171474,-0.43368960393197004,0.6397700903527317,0.14516675453936714,0.9506065911996646,-0.33204001509423237,0.6098801843870884,0.24022226790669624,1.0169516386175392,-0.35937527139389425,0.606490287618792,0.20132975233408895,0.9603386151902106,-0.3517281126043357,0.5828549192725025,0.20232250791659567,1.032246248995858,-0.43463473140913134,0.6308622363213845,0.03190678810974515,1.0272674715657073,-0.26027901825130434,0.5417461791276157,0.20305217857832814,0.9794902815846186,-0.3995982983153035,0.5371887944940259,-0.10399787893562443,0.09956205444182824,-0.30488895216341855,0.5159540486271871,0.30113231624417675,0.9574276656353061,-0.3204962404874158,0.4319158790534343,0.04353061620553325,0.06314801692352102,-0.3268110090910157,0.4605426507686371,0.372772257306837,0.8450308293211862,-0.3978495182063926,0.4892275150702446,0.08555921958777973,0.0403343787245487,-0.35131135390209556,0.4866391725035236,0.3762553057811097,0.8071043459860757,-0.32692014906820693,0.4407586505724975,0.07783869917207775,0.07534979329486088,-0.28256507920382046,0.46047973461979413,0.32788712075945387,0.7766195969395738,-0.39637560829120677,0.44477253857296983,0.079088046127235,0.09701916463290923,-0.31425479075788204,0.4630897229059582,-0.003179358452342348,1.0393382892993208,-0.40474577073963436,0.5164263221605442,-0.12206639064979603,1.0157264197844638,-0.2949424441476426,0.42409430173513807,0.056189664478698415,0.7247817347601091,-0.3650889645193992,0.3755526095261178,-0.10438484765864964,0.15793665086352726,-0.31461897020323265,0.3811108416488392,0.015977207123104777,0.22339595563232853,-0.3454665266280637,0.3590468864278203,-0.25884934465510084,0.08098198146649843,-0.39334952276718554,0.36888672395761796,0.010995128950406358,0.25712727850725076,-0.39147523805440027,0.3172932062876738,-0.19021364926956744,0.14678398412813481,-0.33068676714265594,0.3463165553854518,0.07689282572660339,0.21278867313018715,-0.436420362798992,0.32920595928045554,-0.18155079448489284,0.06548030556351599
29,,,,,,,,,,,,,,,,,,,,,,,,,,,,,,,,,,,,,,,,,,,,,,,,,,,,,,,,,,,,,,,,,,,,,,,,,,,,,,,,,,,,,,,,,,,,,,,,,,,,,,,,,,,,,,,,,,,,,,,,,,,,,,,,,,,,
30,-0.38347675304291196,0.6165191022208828,0.03694635377212013,0.9689931986414406,-0.39007034363111925,0.6664998127874939,0.018441124627332252,0.9883925863801553,-0.3522135565917537,0.6862206974589211,0.0791928405447821,1.032057674104909,-0.38479969439643313,0.637976244140603,0.062902172029426,0.9846695536832648,-0.3202186795595505,0.6110685427723407,0.01420401884456051,1.0052638586578415,-0.35972688342739145,0.6100422817119202,0.08190497336735761,0.9918170803884576,-0.3183973506337358,0.5915113694459175,0.0672328494717804,0.9660111226168753,-0.4310830707686731,0.624651926194092,0.05685036802953232,1.0325594231368738,-0.37818425152351165,0.6478288767449436,0.1865497380408254,0.9506185121286197,-0.33238557110429595,0.6142841927756076,0.04983994304948012,1.0158597411298989,-0.3414713883743957,0.6183057759572624,0.06024713608756834,0.9586194384209542,-0.4345964599637231,0.5325610564528309,0.026703187665785506,1.0229906013365562,-0.3668036204466941,0.6022236946229287,0.19462208769752132,1.0227390682835416,-0.4168821015074748,0.6312663355111301,-0.08627667515660194,0.4909372940090875,-0.3477220727953622,0.6192411445382764,0.035177707072068576,0.45046629564609003,-0.4740640715166494,0.7666274022992147,-0.05345259519763971,0.7525942773067539,-0.31052211274659286,0.6451785562461223,0.00626090966240609,0.20738388865575602,-0.5080217165244012,0.7479786592220062,0.0027127238059190054,0.7362692803252145,-0.38563764443543574,0.7410830970690696,0.04877445793773305,0.21738257760331392,-0.5151830764801317,0.77917102045732,0.017584925277064588,0.6954520909277871,-0.3273980775583249,0.6932111432864259,0.009891161192847032,0.23999750659842678,-0.4376931242249388,0.7388412935339788,-0.01612913950868635,0.6806784705929857,-0.40133130752122287,0.6824720472399621,0.02429252273269462,0.25173523537432424,-0.36155796321385403,0.3392910545214062,-0.11547346770995418,1.0377098307994124,-0.36014368107139677,0.412793305812659,-0.009559203134355928,1.0118659461516513,-0.3736269777521595,0.45986695316908277,-0.37502514761180017,-0.020221763399239943,-0.3337707834842309,0.4647581725945077,-0.26797659268122,0.007929535186528157,-0.38584371852874727,0.502694929259084,-0.6068269281690007,-0.015682784025669586,-0.324794768429721,0.5317364137009984,-0.6250106395461803,0.029110054942753344,-0.4662091418664128,0.4996694175821145,-0.6358256059604623,0.032494752690690944,-0.38170067442124717,0.4954216871989287,-0.5828600198100422,0.03793307286848362,-0.4020965332468908,0.5254213007734828,-0.6151372464321888,0.03502434679618756,-0.40264695617346535,0.572523950775588,-0.6117117018485583,0.00016321310014189364
31,-0.3876668084133141,0.5854040471366543,0.02248734052129072,0.9689931986414406,-0.3957921010858876,0.6370608999189942,-0.011402414058860104,0.9883925863801553,-0.3574285586659377,0.6578940668665749,0.049384050416153305,1.0323319150755206,-0.38955075690254937,0.6108727008590479,0.03310709705425032,0.9846695536832648,-0.3279437515260911,0.5793003399906634,-0.012216910714829547,1.0052638586578415,-0.3686748608605073,0.5777829962619385,0.05522951003106191,0.99200346411267,-0.32848491297588495,0.5588872439652657,0.04041176084476292,0.9660111226168753,-0.44279013933994127,0.602661507759949,-0.002880773024675721,1.0326545521499353,-0.395673752867344,0.6188166139237461,0.13842984739385616,0.9508554405916019,-0.33914807771015265,0.5857245080221897,0.02620935658647982,1.0168839277410744,-0.34934741294962707,0.5875888202954888,0.04134757346760579,0.9603705036751654,-0.4458443721665663,0.51952897770985,-0.02562783611484172,1.02809263972004,-0.3945592007737464,0.580846190751011,0.1828475697827498,1.0228778278965789,-0.3807377888541058,0.6059424677132785,-0.06758070452673526,0.6813600673702935,-0.35258204807221577,0.5946427248719861,0.16007008457872973,0.9371914173826166,-0.40470167246158667,0.7339333605702413,0.04496175601561446,0.6996733397686069,-0.30481027503191455,0.6296246049826946,0.2371515751856793,0.8389640775261861,-0.4277576712600519,0.7201292234157318,0.1143816600544198,0.6294448822844431,-0.37822849547274595,0.7275408025668113,0.2984360732168272,0.7847315048627591,-0.43752613208509433,0.7431665963621662,0.13208960524067692,0.5794857112853006,-0.3200361181796981,0.6758785894229005,0.263490814361139,0.806119725564911,-0.3655390794993365,0.7014281732642034,0.08656644097098788,0.6059237556271654,-0.3948250010778443,0.664448139101687,0.2597519027728702,0.818340400975101,-0.37927573328048586,0.3300901239260082,-0.12399105257791025,1.0391997681048628,-0.38255694748992464,0.39039441674787023,-0.006851390196629223,1.0150249327201022,-0.37562860679978194,0.49143989113447584,-0.2918338860708175,0.3350596855238115,-0.3442505260153961,0.4718418269981942,-0.17351781305284014,0.4669063422592869,-0.3936025484827497,0.581870520727895,-0.42794762607203507,0.3608994603854413,-0.3274259771011641,0.5832263033227331,-0.43811712312394785,0.41019878954717165,-0.4759593175008632,0.583785280428489,-0.444184592464918,0.3727621967201413,-0.3798192483906738,0.5528186951411284,-0.3832149007949931,0.3783931497966224,-0.4077866352452768,0.6117237302111203,-0.4090078823904534,0.5680892486249535,-0.4096328736626572,0.6309334032139425,-0.39806758848494356,0.5751961010804838
32,,,,,,,,,,,,,,,,,,,,,,,,,,,,,,,,,,,,,,,,,,,,,,,,,,,,,,,,,,,,,,,,,,,,,,,,,,,,,,,,,,,,,,,,,,,,,,,,,,,,,,,,,,,,,,,,,,,,,,,,,,,,,,,,,,,,
33,-0.32950986158047013,0.33520234501873436,0.298206976585428,0.9689931986414406,-0.3291679471918487,0.36810298699708865,0.27786839211142034,0.9883925863801553,-0.2879135360424231,0.38804932623737876,0.33917127559135746,1.0322770788023274,-0.31733049204508,0.34010849897954654,0.32324736412388366,0.9846695536832648,-0.27285470741841816,0.3134623427925585,0.23693365038604158,1.0052638586578415,-0.3150506954925539,0.31273619111858214,0.30413746553363014,0.9918792480329583,-0.27644505145711623,0.2948490984231209,0.2889318004818178,0.9660111226168753,-0.36353380913161587,0.3451768929108584,0.29258905125987594,1.0326346441985803,-0.36246015539071963,0.3690316078774509,0.24933879501751452,0.9505185551393314,-0.27787260208878256,0.35653529093158304,0.30269578456055624,1.016947704710984,-0.30214118154804204,0.36093175752655254,0.26405675918041205,0.9602871167771247,-0.3508830230897162,0.36806964142902715,0.2770604743106217,1.0322786739226157,-0.4146952418414832,0.4409974518422432,0.11059381433035657,1.028256253017886,-0.3213851997190468,0.48137776043407327,0.224134906957286,0.981042326929925,-0.43043233447593365,0.497819360375755,-0.05594011607601144,0.4605978335603661,-0.37849880109969763,0.6104145359929097,0.3014774678497347,1.000191852494437,-0.36537129389218226,0.5219640133803691,0.05880727000279726,0.4210009899674396,-0.4075439465950522,0.5957835632060761,0.3776952847634853,0.8972450345862314,-0.4490470548483107,0.6233398433611839,0.0940238257683208,0.3146007036618924,-0.421669487144003,0.6184721893759296,0.3874436746788734,0.8501870004622415,-0.37556736551883707,0.5727850845171998,0.09410163569948249,0.36856000171084596,-0.3508645340130336,0.5770116431319097,0.33141281954569207,0.844640059929381,-0.4430917705128668,0.5581037372652917,0.0945924234761793,0.3954586785248445,-0.4026141666569654,0.522225398336256,-0.0031938785549602937,1.039640484848332,-0.4759065806001228,0.5787742707117222,-0.1443399219629667,1.0160128797072543,-0.3593661669498491,0.6873212578642122,0.04814255984492538,0.9712852070882951,-0.404840682804419,0.6488153487076364,-0.16484459022820017,0.7277060184391727,-0.3872465073535617,0.8493643647601826,0.05224179216740398,0.9642828226786847,-0.41436462578536937,0.8241469662026769,-0.33755085868353735,0.7549941060049201,-0.47550363843077925,0.8722992984872658,0.057174411096373605,0.959638946712512,-0.4749723184049519,0.8172967229617155,-0.2679658320442688,0.7988632385169441,-0.3715977969660051,0.8684365245150143,0.17159383319266389,0.9569081086789696,-0.46803254616586376,0.8552480332455282,-0.230894440589114,0.7032223481050199
34,,,,,,,,,,,,,,,,,,,,,,,,,,,,,,,,,,,,,,,,,,,,,,,,,,,,,,,,,,,,,,,,,,,,,,,,,,,,,,,,,,,,,,,,,,,,,,,,,,,,,,,,,,,,,,,,,,,,,,,,,,,,,,,,,,,,
35,,,,,,,,,,,,,,,,,,,,,,,,,,,,,,,,,,,,,,,,,,,,,,,,,,,,,,,,,,,,,,,,,,,,,,,,,,,,,,,,,,,,,,,,,,,,,,,,,,,,,,,,,,,,,,,,,,,,,,,,,,,,,,,,,,,,
36,,,,,,,,,,,,,,,,,,,,,,,,,,,,,,,,,,,,,,,,,,,,,,,,,,,,,,,,,,,,,,,,,,,,,,,,,,,,,,,,,,,,,,,,,,,,,,,,,,,,,,,,,,,,,,,,,,,,,,,,,,,,,,,,,,,,
37,,,,,,,,,,,,,,,,,,,,,,,,,,,,,,,,,,,,,,,,,,,,,,,,,,,,,,,,,,,,,,,,,,,,,,,,,,,,,,,,,,,,,,,,,,,,,,,,,,,,,,,,,,,,,,,,,,,,,,,,,,,,,,,,,,,,
38,,,,,,,,,,,,,,,,,,,,,,,,,,,,,,,,,,,,,,,,,,,,,,,,,,,,,,,,,,,,,,,,,,,,,,,,,,,,,,,,,,,,,,,,,,,,,,,,,,,,,,,,,,,,,,,,,,,,,,,,,,,,,,,,,,,,
39,,,,,,,,,,,,,,,,,,,,,,,,,,,,,,,,,,,,,,,,,,,,,,,,,,,,,,,,,,,,,,,,,,,,,,,,,,,,,,,,,,,,,,,,,,,,,,,,,,,,,,,,,,,,,,,,,,,,,,,,,,,,,,,,,,,,
40,,,,,,,,,,,,,,,,,,,,,,,,,,,,,,,,,,,,,,,,,,,,,,,,,,,,,,,,,,,,,,,,,,,,,,,,,,,,,,,,,,,,,,,,,,,,,,,,,,,,,,,,,,,,,,,,,,,,,,,,,,,,,,,,,,,,
41,,,,,,,,,,,,,,,,,,,,,,,,,,,,,,,,,,,,,,,,,,,,,,,,,,,,,,,,,,,,,,,,,,,,,,,,,,,,,,,,,,,,,,,,,,,,,,,,,,,,,,,,,,,,,,,,,,,,,,,,,,,,,,,,,,,,
42,,,,,,,,,,,,,,,,,,,,,,,,,,,,,,,,,,,,,,,,,,,,,,,,,,,,,,,,,,,,,,,,,,,,,,,,,,,,,,,,,,,,,,,,,,,,,,,,,,,,,,,,,,,,,,,,,,,,,,,,,,,,,,,,,,,,
43,,,,,,,,,,,,,,,,,,,,,,,,,,,,,,,,,,,,,,,,,,,,,,,,,,,,,,,,,,,,,,,,,,,,,,,,,,,,,,,,,,,,,,,,,,,,,,,,,,,,,,,,,,,,,,,,,,,,,,,,,,,,,,,,,,,,
44,,,,,,,,,,,,,,,,,,,,,,,,,,,,,,,,,,,,,,,,,,,,,,,,,,,,,,,,,,,,,,,,,,,,,,,,,,,,,,,,,,,,,,,,,,,,,,,,,,,,,,,,,,,,,,,,,,,,,,,,,,,,,,,,,,,,
45,-0.46736354713640776,0.33722180998836937,0.3052891388578026,0.9689931986414406,-0.4788577346300799,0.3718375756201355,0.2558079720667556,0.9883925863801553,-0.4400340805449562,0.3925352612101418,0.3166356229052226,1.0312555744001666,-0.4718680121091426,0.3454506844768304,0.30032557602359716,0.9846695536832648,-0.4131137399346753,0.31609943109135613,0.22665142914731773,1.0052638586578415,-0.45263872383796044,0.31494892414890135,0.2943310211565372,0.9890285962919305,-0.41127348198331937,0.2966890938073372,0.27985923785976635,0.9660111226168753,-0.5349228162575892,0.354253339205643,0.15512662655206433,1.0318787976981838,-0.5010053300503576,0.3726125655285892,0.17000830077782134,0.9501404828775211,-0.42136303101317846,0.3604689590681797,0.271928177803333,1.0112276257658241,-0.4341635401486876,0.36267367346779095,0.250265371832448,0.9525636661164192,-0.526978371175695,0.38028322918995244,0.06706431381202999,1.031163769042092,-0.49557283753765113,0.4461569491032905,0.07965111281974237,1.0276925718922452,-0.48922294844024444,0.4376861253022373,0.0658391894932059,0.17912557864463124,-0.44743349235983815,0.48302465307747616,0.022286242633412473,0.22990900831069422,-0.5251305079958012,0.4954307985241903,0.30385136090219556,0.18279559914704008,-0.35902815330566934,0.4800357816642132,0.25969960251526275,0.1917366561232548,-0.551861069915908,0.465304763862967,0.3900871266310773,0.14319403470639425,-0.4323126896544125,0.5732212778017967,0.33742031984893933,0.18032003695294613,-0.5644651877151533,0.4852620369883106,0.4170673147239519,0.13899221701306852,-0.36585845973235315,0.5206638624980042,0.32411706676669405,0.24485865281005098,-0.49655758209503387,0.45008921452396894,0.34805498069321594,0.1437917040400606,-0.44244001799738464,0.5089070171420007,0.29525344550954485,0.24486568085467095,-0.4736001586832946,0.545231420312727,-0.0709440700372426,1.0381901250270125,-0.495086060942945,0.5963913175447605,-0.0888247053920836,1.0146217072981967,-0.4158207519914564,0.707897854124283,-0.03998590755259621,0.7144958208158647,-0.43167892730259017,0.6688885241379342,-0.056488497017260664,0.6659966144474735,-0.411232427232923,0.865286732332967,-0.07590860864475371,0.7333410502177473,-0.42471235890409575,0.8526279728249914,-0.23337189371133055,0.6785326716406013,-0.4898535270136729,0.8780225364785988,-0.0737157577775979,0.21735004431058783,-0.48108285362155423,0.8406517897379912,-0.1622010278854326,0.2526063237821036,-0.39572530497284925,0.9034621211336666,0.08165842223025802,0.6215856094037621,-0.4789881968262626,0.8959831587872152,-0.0715691124335212,0.516777707945413
46,,,,,,,,,,,,,,,,,,,,,,,,,,,,,,,,,,,,,,,,,,,,,,,,,,,,,,,,,,,,,,,,,,,,,,,,,,,,,,,,,,,,,,,,,,,,,,,,,,,,,,,,,,,,,,,,,,,,,,,,,,,,,,,,,,,,
47,,,,,,,,,,,,,,,,,,,,,,,,,,,,,,,,,,,,,,,,,,,,,,,,,,,,,,,,,,,,,,,,,,,,,,,,,,,,,,,,,,,,,,,,,,,,,,,,,,,,,,,,,,,,,,,,,,,,,,,,,,,,,,,,,,,,
48,,,,,,,,,,,,,,,,,,,,,,,,,,,,,,,,,,,,,,,,,,,,,,,,,,,,,,,,,,,,,,,,,,,,,,,,,,,,,,,,,,,,,,,,,,,,,,,,,,,,,,,,,,,,,,,,,,,,,,,,,,,,,,,,,,,,
49,-0.463593122001149,0.31621430194889494,0.2800335852519023,0.9689931986414406,-0.4614596479583529,0.35014103788705747,0.2699300925509473,0.9883925863801553,-0.417085387774822,0.37045597225063864,0.331448207192936,1.029215843851308,-0.4434094494712484,0.32296122615430545,0.3156831858127032,0.9846695536832648,-0.41062152262387264,0.29505642848591795,0.24122565167115323,1.0052638586578415,-0.4554578104352424,0.2939518171199401,0.3080559429544775,0.9905430907110284,-0.4194552554031863,0.2757897085934853,0.29261320228949994,0.9660111226168753,-0.4802085276584785,0.3328501755341495,0.3016936845255281,1.0305767342330654,-0.49532444521073576,0.35385644413157075,0.31883698752113276,0.9502198762643619,-0.4023575108467548,0.3381557516802555,0.2871691152059273,1.0097608150625463,-0.4316673493909324,0.34100076897636644,0.2666625762844888,0.9506380188576606,-0.4204011303331599,0.3569763229666554,0.22872456554445364,1.0304677656050498,-0.5523398669180686,0.4266387823228187,0.18435746035937073,1.0282427823681668,-0.34907696245446596,0.45979602124683266,0.13191648984190624,0.33194008612906734,-0.5635333879243984,0.47691699492966433,-0.03252941559097103,0.6806437875493951,-0.3991971617472395,0.5627618145878804,0.1878367777016264,0.3758395165645664,-0.49778523481725045,0.481529593271574,-0.05464999375312449,0.4618194428025227,-0.42263253158405173,0.5410257297252411,0.25256695470377416,0.30371539295796596,-0.5772723884950653,0.5699779506609886,-0.03046576978968842,0.40050932521149873,-0.4465334466324291,0.5646957463713215,0.26817642763465155,0.2998052505938486,-0.49918370130019263,0.5255555560900758,-0.03825053147825272,0.46103327021975704,-0.38131792976821965,0.5267327410780767,0.2219213482324538,0.27263392375041057,-0.5641057356684278,0.5161112517420678,-0.02456634753031128,0.4507036607674288,-0.4424898537492434,0.5248119418962841,-0.06329975745429399,1.039673386612248,-0.5527781540379431,0.585109767614188,-0.10052243710253682,1.016078564025797,-0.41519222856018956,0.7019596817838899,-0.09403375627926766,0.9302114675596391,-0.5109676407902544,0.6598403602470956,-0.15393204262868918,0.8775962624462833,-0.44924520504157955,0.8660639172961934,-0.17944702010940924,0.9338342667323347,-0.5273315717234405,0.8386122982339269,-0.3716267050208962,0.926933598230567,-0.5355871889540685,0.8855821935754616,-0.18146076657978696,0.8389232093696776,-0.5846990324705584,0.8264224921000517,-0.3051084800417369,0.747269696417945,-0.4399105084813448,0.8804399462984616,-0.05954797258326066,0.7913824338590233,-0.5899447906421706,0.8647868625721579,-0.2562623445384397,0.6899850505700773
50,,,,,,,,,,,,,,,,,,,,,,,,,,,,,,,,,,,,,,,,,,,,,,,,,,,,,,,,,,,,,,,,,,,,,,,,,,,,,,,,,,,,,,,,,,,,,,,,,,,,,,,,,,,,,,,,,,,,,,,,,,,,,,,,,,,,
51,,,,,,,,,,,,,,,,,,,,,,,,,,,,,,,,,,,,,,,,,,,,,,,,,,,,,,,,,,,,,,,,,,,,,,,,,,,,,,,,,,,,,,,,,,,,,,,,,,,,,,,,,,,,,,,,,,,,,,,,,,,,,,,,,,,,
52,,,,,,,,,,,,,,,,,,,,,,,,,,,,,,,,,,,,,,,,,,,,,,,,,,,,,,,,,,,,,,,,,,,,,,,,,,,,,,,,,,,,,,,,,,,,,,,,,,,,,,,,,,,,,,,,,,,,,,,,,,,,,,,,,,,,
53,,,,,,,,,,,,,,,,,,,,,,,,,,,,,,,,,,,,,,,,,,,,,,,,,,,,,,,,,,,,,,,,,,,,,,,,,,,,,,,,,,,,,,,,,,,,,,,,,,,,,,,,,,,,,,,,,,,,,,,,,,,,,,,,,,,,
54,,,,,,,,,,,,,,,,,,,,,,,,,,,,,,,,,,,,,,,,,,,,,,,,,,,,,,,,,,,,,,,,,,,,,,,,,,,,,,,,,,,,,,,,,,,,,,,,,,,,,,,,,,,,,,,,,,,,,,,,,,,,,,,,,,,,
55,,,,,,,,,,,,,,,,,,,,,,,,,,,,,,,,,,,,,,,,,,,,,,,,,,,,,,,,,,,,,,,,,,,,,,,,,,,,,,,,,,,,,,,,,,,,,,,,,,,,,,,,,,,,,,,,,,,,,,,,,,,,,,,,,,,,
56,,,,,,,,,,,,,,,,,,,,,,,,,,,,,,,,,,,,,,,,,,,,,,,,,,,,,,,,,,,,,,,,,,,,,,,,,,,,,,,,,,,,,,,,,,,,,,,,,,,,,,,,,,,,,,,,,,,,,,,,,,,,,,,,,,,,
57,,,,,,,,,,,,,,,,,,,,,,,,,,,,,,,,,,,,,,,,,,,,,,,,,,,,,,,,,,,,,,,,,,,,,,,,,,,,,,,,,,,,,,,,,,,,,,,,,,,,,,,,,,,,,,,,,,,,,,,,,,,,,,,,,,,,
58,-0.5158876800324782,0.30998612320934715,0.19976753001136072,0.9689931986414406,-0.5138950962454353,0.34367834467264097,0.18753749295387123,0.9883925863801553,-0.4700702404190174,0.36400853782528464,0.2491151137771513,1.0322539522001546,-0.49695160631788504,0.3166043013820428,0.23338146612555077,0.9846695536832648,-0.4616444020912403,0.28849300342183104,0.16020191333793593,1.0052638586578415,-0.5060978692042994,0.2875309067615112,0.2271223206474593,0.9919938081602164,-0.4697265762975181,0.2695016271859383,0.2116725294518184,0.9660111226168753,-0.5326525588434153,0.3266864592179263,0.22848115520246123,1.0325517937423425,-0.5433517025466121,0.3482503292672214,0.2537930914677547,0.9508716530549808,-0.4552333338021259,0.3326057545889622,0.21266776375702073,1.0160162033224343,-0.48317968452341326,0.33550894601837383,0.19422913941077546,0.959959589254084,-0.4685455042389133,0.347131721812328,0.1945681142072195,1.027621107375222,-0.5927929413975015,0.42974972754758073,0.18038802142642624,1.0283759987492398,-0.3661990356424561,0.41548723962299233,0.1847254286939674,0.39813420319831166,-0.5897577556759134,0.47247558462654843,0.056759596270304594,0.6565835978254266,-0.38595508825291963,0.4685457658703817,0.3227785512378021,0.3460041732036655,-0.5091804691500521,0.47186535577233696,0.12184829949689246,0.2964124408303242,-0.40375657049111385,0.4353074150775666,0.3982751898917607,0.30114017428044526,-0.5857448344281682,0.5610734339640586,0.1625749541632916,0.22167038673684353,-0.4269549456494018,0.45821902222352484,0.40326181479081263,0.28603955788297214,-0.5086094177060512,0.514675324232776,0.14730862559452337,0.2556343530215759,-0.3639381950193694,0.42397597261303455,0.3561469106974044,0.22923371062804268,-0.5754923376161708,0.5040509075228601,0.15240048511635396,0.22987390569960345,-0.4787815951223141,0.5085907166345959,-0.08400585858371523,1.039674221077275,-0.5823503401127719,0.5773444148882053,-0.08906396092783754,1.0160845244902745,-0.4381335265418701,0.6574266078817598,-0.1255374545314078,0.8484706709936296,-0.5359505463886495,0.6409789472450814,-0.11319886282943455,0.8387840423496952,-0.44171923310562716,0.7951677686145527,-0.16025059153366022,0.9070160508853193,-0.5327656599733269,0.8074726860360509,-0.257961243993692,0.9423207160932686,-0.5254819318314317,0.8129926769357522,-0.1623052765516516,0.8924457365875426,-0.5858716769940367,0.7982391510737455,-0.18713411524200163,0.7999399368201667,-0.4370728303236179,0.8007851930903012,-0.09544438179364365,0.7616579551374046,-0.6099808633791878,0.8192777626118307,-0.17054792329317273,0.6594659227243131
59,,,,,,,,,,,,,,,,,,,,,,,,,,,,,,,,,,,,,,,,,,,,,,,,,,,,,,,,,,,,,,,,,,,,,,,,,,,,,,,,,,,,,,,,,,,,,,,,,,,,,,,,,,,,,,,,,,,,,,,,,,,,,,,,,,,,
60,-0.5451063737910616,0.25226540244137236,0.1654870520507573,0.9689931986414406,-0.5431270466344128,0.28195025462480466,0.1547759522913655,0.9883925863801553,-0.49945897719107346,0.3006870666109901,0.21630559941523525,1.0266633941480914,-0.5265271683621212,0.25165857379529666,0.20056647339193212,0.9846695536832648,-0.4901346369869724,0.23100515800099367,0.12933227986426693,1.0052638586578415,-0.5341193583195725,0.23127452310405572,0.19626556947712648,0.9880616897443841,-0.49728072229106696,0.2144553668290352,0.18087310318303715,0.9660111226168753,-0.5615711177781043,0.2580491477593387,0.19975169864307757,1.0287965223075586,-0.569353863139459,0.29211160517855256,0.23129063068981,0.9482653207528875,-0.4846901394560386,0.27109286711108743,0.1779415172277667,0.9966202558660745,-0.5116075281716259,0.27879584177032696,0.16121732575908465,0.92747535587472,-0.4953333952077477,0.268331341582378,0.1512935242836816,1.0297565629835899,-0.61019246337729,0.3731746378545112,0.1622098364640107,1.0268135821957425,-0.3982115077813848,0.36727930095188027,0.1172606351074782,0.5793392672566156,-0.5811569668092522,0.44005968797241946,0.03512384883191397,0.6092285420164056,-0.41164039768951605,0.4677446794446004,0.2560611486311466,0.5182149261676853,-0.4915407374794817,0.45274510960038566,0.10593739246303044,0.4108192053376179,-0.42845028759166626,0.44625735456693116,0.3346510271632152,0.41436560453061305,-0.5670261610217865,0.5444904681132285,0.14876096515537413,0.36096417660043,-0.4492983263246637,0.4702190465422199,0.3414372284531977,0.3997321097342447,-0.48708452959601,0.4963371208026001,0.13834757646352558,0.39464299426455685,-0.38732149594124926,0.43216520377033735,0.28979029476100465,0.34367848799754197,-0.5560624235182339,0.484231469065371,0.13826686161803725,0.3353105884007143,-0.49248381495615845,0.4592439120157604,-0.10418129674687644,1.0396721945193526,-0.5922243118027948,0.5376673313959263,-0.0722638825085562,1.0160760606307162,-0.45495100722732223,0.6367735984670869,-0.14331159319000247,0.9340100119665299,-0.5485103041968045,0.6230947523941598,-0.10653240393868728,0.970380130759119,-0.44985554173890624,0.7969907766750081,-0.18870991347896554,0.9309315205317732,-0.5495598442473224,0.8170532982186681,-0.26253586183330385,0.9917339202863837,-0.5299495593756192,0.8137319533449013,-0.1905163870323102,0.9373745853309813,-0.6007282007850399,0.8077154551280058,-0.19199181890477285,0.9586032096778327,-0.45104635840409496,0.8207413646029049,-0.11217347336137895,0.8037447352086632,-0.630067094268565,0.8472294799885397,-0.17085845200737487,0.7955412405839628
61,-0.6199858887788444,0.19259057319675862,-0.2498728234053419,0.9689931986414406,-0.6182624630880922,0.22266418177457736,-0.2586898590576898,0.9883925863801553,-0.5737419209277991,0.2414045551382881,-0.19699055150288303,1.0323465778181353,-0.5999094320634173,0.19231407349202814,-0.21254208136738195,0.9846695536832648,-0.5665371409217124,0.17201754050831786,-0.28158998110664074,1.0052638586578415,-0.6109823081976161,0.17236489828906854,-0.21481480141614806,0.9920166963438104,-0.5745470471809628,0.1556302763015007,-0.23017050593452235,0.9660111226168753,-0.6239272022985487,0.19964593890752436,-0.14992461975826352,1.0326677843810754,-0.6357100014798343,0.23393294192476838,-0.11360916626672468,0.9508778519380374,-0.5529222558922955,0.2118248693693882,-0.2093344564589142,1.0168861927175759,-0.5809102474864231,0.21930149539009325,-0.22512609415097573,0.9604302275292306,-0.5296146892183042,0.22817527516468394,-0.04672272944759769,1.0321335962172324,-0.654020558183633,0.3265344503526039,-0.08716144080391589,1.0284476435322598,-0.4218096533568916,0.3267690339326084,-0.012472126362667438,0.9714614167240837,-0.5964757241143576,0.38763776052033205,-0.11132675689550775,0.184004640148539,-0.4142462054597371,0.430852891200353,0.17251572664836587,0.8697224706852024,-0.49534039561924237,0.3731573222106304,0.0375684901711692,0.054026531869028116,-0.4254303572114193,0.4110187309478516,0.2544149132561942,0.7942224592078134,-0.5657910441653502,0.45914886554937057,0.08327353960448193,0.0676238586954808,-0.44494959797631206,0.43327406115251044,0.2485401584833996,0.737077829071708,-0.49314686049420453,0.41038537529249874,0.059709106983943994,0.10579086885829159,-0.38408342852220945,0.39261865445011646,0.20396896772728287,0.5754208998494249,-0.5647409770403871,0.39958107176465074,0.06948480153215399,0.10730778686320053,-0.495226169331096,0.43691031983932305,-0.08575025650768477,1.0396761284259077,-0.6066075119769467,0.5090223821981571,-0.09284629853304281,1.0160889352339877,-0.45933549182764727,0.6137192371237031,-0.1703562452156099,0.9699074457243119,-0.5662973020452545,0.6035879999031625,-0.1770936591833375,0.9895539913090459,-0.44504623201908483,0.7854113227298481,-0.1262531813780146,0.9554224134188888,-0.5460635129018054,0.8101182381944066,-0.2131337803093129,1.0071429130537177,-0.5272212111548744,0.8072852937799294,-0.12471318080965846,0.9870787197952453,-0.5964950580699504,0.8004197273982084,-0.13604175742780666,0.9980982009803229,-0.44951184058305677,0.7973820658968502,-0.11662720632807777,0.8372405786191551,-0.6312594699961909,0.8424962751469259,-0.17110632977736795,0.7888324397912687
62,-0.6102529146720136,0.18675928688560903,-0.1872946200027193,0.9689931986414406,-0.6085357358396973,0.21746758062215726,-0.19162457406118588,0.9883925863801553,-0.5639471464112685,0.2368323126398903,-0.12997594689881803,1.0323394252607623,-0.5900471581517488,0.18842223291490265,-0.14553801515043535,0.9846695536832648,-0.5585284655154679,0.16508590775113097,-0.2185474269399195,1.0052638586578415,-0.6036103297924246,0.16481552299342953,-0.15178388007834326,0.9920153850416253,-0.5677649275835122,0.14745983550846328,-0.16710204129858852,0.9660111226168753,-0.6158077353715284,0.19747559968080167,-0.08403340827583701,1.0326479956390102,-0.6330938478144952,0.22598232306166255,-0.06279754080458787,0.9508776135194583,-0.5436757339681002,0.20753361806762272,-0.14782454711378853,1.0168554367208718,-0.5734694755634892,0.21306626840130083,-0.16833170428354033,0.9604298699013618,-0.5286733443319654,0.23014213903530467,-0.00499443887574008,1.0310969522352988,-0.6516538568182244,0.31792151957791515,-0.03953044880032,1.0284133112568692,-0.42339746039934695,0.32636723902217746,0.060515397323727835,0.3156251921681146,-0.5942458183650513,0.38014044988190426,-0.06403731385751846,0.11989440576877063,-0.4330640040350495,0.3866219234402669,0.2526692617918407,0.13178291921253849,-0.4861845175167474,0.33456513266023064,0.09424736518797065,0.059708754414175017,-0.4362448813656954,0.3580101745818848,0.33582300068315313,0.12656638772372447,-0.5555189205845668,0.4112297411845176,0.14216796825965375,0.10687002295777552,-0.4607170651003312,0.3768710798712299,0.3339918650846088,0.09609612507504971,-0.4800668510123124,0.3623798539950439,0.1235862533161371,0.14429232523818208,-0.40396821602443184,0.33963045307034045,0.2868031595073532,0.08828776941824967,-0.5536446899302662,0.3554207355086236,0.1273366941232554,0.14219589791809784,-0.49877598057241535,0.43879758170684624,-0.08230398433297614,1.039673386612248,-0.6067496899453648,0.5071185800417087,-0.09681309785804616,1.0160876239318026,-0.4536955350805537,0.6155637028562776,-0.1322558402549157,0.9641496966436539,-0.5609478694211246,0.5975008159508309,-0.15696651384181434,0.984494927874445,-0.4363552073895743,0.7865216380527241,-0.06192710510642261,0.9457239032489058,-0.5454951213684792,0.7989400427178747,-0.2157288420836594,0.992751550386634,-0.5171185794867241,0.8074989764314492,-0.05666426463721005,0.9566474491958801,-0.5968572605990041,0.7882412467730558,-0.13996968668963966,0.9367546502982551,-0.44115046833184673,0.8037179204271847,-0.03748939851516266,0.7511203903829186,-0.6296853302918489,0.8335075370869284,-0.168342356252306,0.6411118048539823
63,-0.6147593230341094,0.18480760729824483,-0.2764620272549254,0.9689931986414406,-0.6137290578803455,0.21457082468839567,-0.28084159542273474,0.9883925863801553,-0.5699576101529097,0.2339661636912208,-0.21923646144012593,1.0323475314924517,-0.5969449553674088,0.18551662569139193,-0.23489724406954532,0.9846695536832648,-0.5641173720468341,0.16219825642685876,-0.3180570117551303,1.0052638586578415,-0.6090426823606563,0.16206309970699154,-0.25134717948822943,0.9920172923902582,-0.5731089674637745,0.1448826945811485,-0.2668101211411394,0.9660111226168753,-0.6217350850148482,0.19482691827859516,-0.14702646585905638,1.0326683804275234,-0.6421436307179436,0.22411796427889435,-0.17224290880228071,0.9508757061708255,-0.5485523134804083,0.20721462890994602,-0.22747037671728576,1.0169590295934912,-0.5790820986688153,0.21312100036636583,-0.2611133154099857,0.960494838964167,-0.5349098189565392,0.22552906735523565,-0.028708150237353326,1.03220321444233,-0.6761884817045465,0.3230116072301216,-0.17063584979681407,1.0284354841847256,-0.43299337138982735,0.33470873024455905,-0.023442532901257862,0.9825654044178705,-0.6450957109652298,0.40634122121369143,-0.3007582868007397,0.20486896293010182,-0.43619459696376495,0.4452992093499196,0.06322139460607949,0.9243655056201999,-0.5595280763825009,0.404207587045988,-0.3042687281243759,0.030545371466730118,-0.44988580418130386,0.4284749048446412,0.12996786287478282,0.8201816529143259,-0.6337007101092573,0.4942781146452873,-0.2876010608800856,0.02301668876931421,-0.4681299537156687,0.451126427123122,0.11924038483692555,0.7690280644385293,-0.5585786687077177,0.44429234174032894,-0.3099797163512521,0.05649355099578098,-0.4050234213312591,0.40983614154690295,0.08868551431686347,0.6222076253705126,-0.6264178744659438,0.43284216228169486,-0.27546681813462415,0.07979671544944514,-0.49851829608696996,0.432123053584898,-0.06672392782497882,1.0396603927996868,-0.612792735747123,0.5072977516039036,-0.11322455875143252,1.0160815442580358,-0.4502972637551994,0.6042112233984224,-0.15451732629633674,0.9681584070280229,-0.5614674055603783,0.6057191639771066,-0.18762240923151655,0.9898833069714298,-0.4342123250594304,0.778377974646352,-0.10546804995822218,0.9587913871508833,-0.5347825998586819,0.8172182838754064,-0.186174756386364,1.0113217946989204,-0.5158742049742209,0.8012971727472146,-0.10460147198286221,0.9920701319580261,-0.5854821465309544,0.8092815671694792,-0.10662185618731194,1.0106923643981391,-0.4365434322880756,0.7961909266756588,-0.09488121909828964,0.8908520955716698,-0.6197983758207072,0.8541581027111654,-0.1459657047833566,0.882748498331613
64,-0.6069204563646559,0.19511623061214864,-0.1511858355202384,0.9689931986414406,-0.6046009714898736,0.2254036410507767,-0.15310791831367626,0.9883925863801553,-0.5604239339326277,0.2447719791495186,-0.09145078152365416,1.0323422862837115,-0.587028133441356,0.19633519654367154,-0.1071287547974708,0.9846695536832648,-0.5549396229556404,0.17322569685559266,-0.186527974342381,1.0052638586578415,-0.5999536618299178,0.17325788017593224,-0.11990705555917938,0.9920147889951776,-0.5640855361028824,0.15625868807136759,-0.13535357832847414,0.9660111226168753,-0.6140425354120996,0.20606220010366086,-0.04453100217539514,1.0326606318237026,-0.6334702000553969,0.23601345695181458,-0.05226828712402652,0.9508716530549808,-0.5416386576081702,0.21726133451354562,-0.11462175890662524,1.0169256509924172,-0.5722421426428564,0.22340201182857744,-0.14314782418408944,0.9604388105980782,-0.5344772818605682,0.2374631689368092,0.007092048626863261,1.0321765115614707,-0.6694675724585656,0.33129963308613963,-0.0863213968499103,1.0284013903279141,-0.43782267046244455,0.35163484003536105,-0.041873526564174146,0.9363526120213249,-0.6437200971681646,0.41070231425797243,-0.28491813179693526,0.10950320021953053,-0.4510546642791706,0.448494822972585,0.032867642265636314,0.728507921143729,-0.5577670334939303,0.39786943773682976,-0.3476783785017644,0.013328368657682419,-0.4674362596335843,0.4294730144237275,0.0953627238518097,0.6128031462538645,-0.6299547075454938,0.4862641509459465,-0.3377283449406788,0.006015354191515408,-0.48686245561820585,0.449816942879729,0.0924332496739716,0.5880143610922769,-0.5548477322602987,0.4350529959513733,-0.35821589602736165,0.04135877312202648,-0.42299582509635436,0.4095729274355748,0.06084021148636539,0.4515817897133928,-0.6233462365515937,0.42407986226719896,-0.32001852480753634,0.06615432239686714,-0.5026148138173667,0.43924172571739006,-0.07717209312288405,1.0396708832171675,-0.6130396335570598,0.5109050545080326,-0.10345747163644686,1.0160822595137728,-0.4532156133310047,0.616355729376053,-0.15286088888830152,0.9580834935262835,-0.5646089706420417,0.6032499223579965,-0.16344320839879128,0.9869619045170535,-0.43483114910428183,0.789498055594228,-0.12480844474255481,0.9442908287745712,-0.5507929864496388,0.8133202593163854,-0.22752320673937448,1.0075997230512763,-0.5153870461306144,0.8128541557412942,-0.12625674333123946,0.9501900011902037,-0.6020182902974012,0.805557409359268,-0.15410796737509896,0.9945186440383369,-0.43775838274823325,0.8067010732935482,-0.10732861750757358,0.7735235709821312,-0.6367659753530959,0.851088403900588,-0.17379839709554903,0.8063944715371794
