frame,NOSE.x,NOSE.y,NOSE.z,NOSE.v,LEFT_EYE_INNER.x,LEFT_EYE_INNER.y,LEFT_EYE_INNER.z,LEFT_EYE_INNER.v,LEFT_EYE.x,LEFT_EYE.y,LEFT_EYE.z,LEFT_EYE.v,LEFT_EYE_OUTER.x,LEFT_EYE_OUTER.y,LEFT_EYE_OUTER.z,LEFT_EYE_OUTER.v,RIGHT_EYE_INNER.x,RIGHT_EYE_INNER.y,RIGHT_EYE_INNER.z,RIGHT_EYE_INNER.v,RIGHT_EYE.x,RIGHT_EYE.y,RIGHT_EYE.z,RIGHT_EYE.v,RIGHT_EYE_OUTER.x,RIGHT_EYE_OUTER.y,RIGHT_EYE_OUTER.z,RIGHT_EYE_OUTER.v,LEFT_EAR.x,LEFT_EAR.y,LEFT_EAR.z,LEFT_EAR.v,RIGHT_EAR.x,RIGHT_EAR.y,RIGHT_EAR.z,RIGHT_EAR.v,MOUTH_LEFT.x,MOUTH_LEFT.y,MOUTH_LEFT.z,MOUTH_LEFT.v,MOUTH_RIGHT.x,MOUTH_RIGHT.y,MOUTH_RIGHT.z,MOUTH_RIGHT.v,LEFT_SHOULDER.x,LEFT_SHOULDER.y,LEFT_SHOULDER.z,LEFT_SHOULDER.v,RIGHT_SHOULDER.x,RIGHT_SHOULDER.y,RIGHT_SHOULDER.z,RIGHT_SHOULDER.v,LEFT_ELBOW.x,LEFT_ELBOW.y,LEFT_ELBOW.z,LEFT_ELBOW.v,RIGHT_ELBOW.x,RIGHT_ELBOW.y,RIGHT_ELBOW.z,RIGHT_ELBOW.v,LEFT_WRIST.x,LEFT_WRIST.y,LEFT_WRIST.z,LEFT_WRIST.v,RIGHT_WRIST.x,RIGHT_WRIST.y,RIGHT_WRIST.z,RIGHT_WRIST.v,LEFT_PINKY.x,LEFT_PINKY.y,LEFT_PINKY.z,LEFT_PINKY.v,RIGHT_PINKY.x,RIGHT_PINKY.y,RIGHT_PINKY.z,RIGHT_PINKY.v,LEFT_INDEX.x,LEFT_INDEX.y,LEFT_INDEX.z,LEFT_INDEX.v,RIGHT_INDEX.x,RIGHT_INDEX.y,RIGHT_INDEX.z,RIGHT_INDEX.v,LEFT_THUMB.x,LEFT_THUMB.y,LEFT_THUMB.z,LEFT_THUMB.v,RIGHT_THUMB.x,RIGHT_THUMB.y,RIGHT_THUMB.z,RIGHT_THUMB.v,LEFT_HIP.x,LEFT_HIP.y,LEFT_HIP.z,LEFT_HIP.v,RIGHT_HIP.x,RIGHT_HIP.y,RIGHT_HIP.z,RIGHT_HIP.v,LEFT_KNEE.x,LEFT_KNEE.y,LEFT_KNEE.z,LEFT_KNEE.v,RIGHT_KNEE.x,RIGHT_KNEE.y,RIGHT_KNEE.z,RIGHT_KNEE.v,LEFT_ANKLE.x,LEFT_ANKLE.y,LEFT_ANKLE.z,LEFT_ANKLE.v,RIGHT_ANKLE.x,RIGHT_ANKLE.y,RIGHT_ANKLE.z,RIGHT_ANKLE.v,LEFT_HEEL.x,LEFT_HEEL.y,LEFT_HEEL.z,LEFT_HEEL.v,RIGHT_HEEL.x,RIGHT_HEEL.y,RIGHT_HEEL.z,RIGHT_HEEL.v,LEFT_FOOT_INDEX.x,LEFT_FOOT_INDEX.y,LEFT_FOOT_INDEX.z,LEFT_FOOT_INDEX.v,RIGHT_FOOT_INDEX.x,RIGHT_FOOT_INDEX.y,RIGHT_FOOT_INDEX.z,RIGHT_FOOT_INDEX.v
0
1
2,0.17823190987110138,0.46438950300216675,-0.10533837229013443,1.0,0.17596134543418884,0.45952674746513367,-0.12319467961788177,1.0,0.17520086467266083,0.4602726101875305,-0.12316222488880157,1.0,0.1745566427707672,0.46099889278411865,-0.1231248751282692,1.0,0.17900457978248596,0.4575513005256653,-0.1148516982793808,1.0,0.18015295267105103,0.45693930983543396,-0.11480816453695297,0.9999998807907104,0.1813468039035797,0.45643824338912964,-0.11476387828588486,1.0,0.17756979167461395,0.46767425537109375,-0.15301835536956787,0.9999998807907104,0.1874849945306778,0.4610961079597473,-0.11179232597351074,0.9999998807907104,0.18101653456687927,0.4737057387828827,-0.11120827496051788,0.9999983310699463,0.1835884302854538,0.47182828187942505,-0.09913355857133865,0.9999958276748657,0.17685925960540771,0.5116806030273438,-0.13225157558918,0.9999332427978516,0.22214481234550476,0.48823606967926025,-0.07707465440034866,0.9993578791618347,0.17431090772151947,0.5116779804229736,-0.1384001225233078,0.6681939959526062,0.25549137592315674,0.49000924825668335,0.01456738542765379,0.9028065204620361,0.17007708549499512,0.4568694531917572,-0.15980754792690277,0.8666446208953857,0.24964174628257751,0.44542816281318665,0.0814627856016159,0.6601248383522034,0.16830608248710632,0.4403262138366699,-0.18155428767204285,0.8781848549842834,0.25252410769462585,0.4329420030117035,0.07695912569761276,0.6740365028381348,0.17238052189350128,0.441142737865448,-0.18641971051692963,0.8843209147453308,0.24708154797554016,0.42975008487701416,0.07092136144638062,0.6491600275039673,0.17522494494915009,0.4488197863101959,-0.16428573429584503,0.8690251111984253,0.24416491389274597,0.4357895851135254,0.08065243065357208,0.5960531830787659,0.23267538845539093,0.6257257461547852,-0.03330688178539276,0.9999990463256836,0.2550368309020996,0.6023957133293152,0.03332996740937233,0.9999897480010986,0.22022268176078796,0.699144721031189,-0.0005717547028325498,0.9813511371612549,0.25981804728507996,0.6584033370018005,0.13482551276683807,0.6088269948959351,0.24108953773975372,0.7667074203491211,0.057847194373607635,0.9576692581176758,0.2804122269153595,0.7139347791671753,0.24397408962249756,0.7129477858543396,0.2510371208190918,0.7739273309707642,0.06390194594860077,0.9601214528083801,0.2882762551307678,0.723770022392273,0.25217968225479126,0.7209625244140625,0.226597398519516,0.7921864986419678,0.03878782317042351,0.7977148294448853,0.2752303183078766,0.7250337600708008,0.23014764487743378,0.4646163880825043
3
4
5
6
7
8
9
10
11
12
13
14
15
16
17
18
19
20
21
22
23
24
25
26
27
28
29
30
31
32
33
34
35
36
37
38
39
40
41
42
43
44
45
46
47
48
49
50
51
52
53
54
55
56
57
58
59
60
61
62
63
64
65
66
67
68
69
70
71
72
73
74
75
76
77
78
79
80
81
82
83
84
85
86
87
88
89
90
91
92
93
94
95
96
97
98
99
100
101
102
103
104
105
106
107
108
109
110
111
112
113
114
115
116
