frame,NOSE.x,NOSE.y,NOSE.z,NOSE.v,LEFT_EYE_INNER.x,LEFT_EYE_INNER.y,LEFT_EYE_INNER.z,LEFT_EYE_INNER.v,LEFT_EYE.x,LEFT_EYE.y,LEFT_EYE.z,LEFT_EYE.v,LEFT_EYE_OUTER.x,LEFT_EYE_OUTER.y,LEFT_EYE_OUTER.z,LEFT_EYE_OUTER.v,RIGHT_EYE_INNER.x,RIGHT_EYE_INNER.y,RIGHT_EYE_INNER.z,RIGHT_EYE_INNER.v,RIGHT_EYE.x,RIGHT_EYE.y,RIGHT_EYE.z,RIGHT_EYE.v,RIGHT_EYE_OUTER.x,RIGHT_EYE_OUTER.y,RIGHT_EYE_OUTER.z,RIGHT_EYE_OUTER.v,LEFT_EAR.x,LEFT_EAR.y,LEFT_EAR.z,LEFT_EAR.v,RIGHT_EAR.x,RIGHT_EAR.y,RIGHT_EAR.z,RIGHT_EAR.v,MOUTH_LEFT.x,MOUTH_LEFT.y,MOUTH_LEFT.z,MOUTH_LEFT.v,MOUTH_RIGHT.x,MOUTH_RIGHT.y,MOUTH_RIGHT.z,MOUTH_RIGHT.v,LEFT_SHOULDER.x,LEFT_SHOULDER.y,LEFT_SHOULDER.z,LEFT_SHOULDER.v,RIGHT_SHOULDER.x,RIGHT_SHOULDER.y,RIGHT_SHOULDER.z,RIGHT_SHOULDER.v,LEFT_ELBOW.x,LEFT_ELBOW.y,LEFT_ELBOW.z,LEFT_ELBOW.v,RIGHT_ELBOW.x,RIGHT_ELBOW.y,RIGHT_ELBOW.z,RIGHT_ELBOW.v,LEFT_WRIST.x,LEFT_WRIST.y,LEFT_WRIST.z,LEFT_WRIST.v,RIGHT_WRIST.x,RIGHT_WRIST.y,RIGHT_WRIST.z,RIGHT_WRIST.v,LEFT_PINKY.x,LEFT_PINKY.y,LEFT_PINKY.z,LEFT_PINKY.v,RIGHT_PINKY.x,RIGHT_PINKY.y,RIGHT_PINKY.z,RIGHT_PINKY.v,LEFT_INDEX.x,LEFT_INDEX.y,LEFT_INDEX.z,LEFT_INDEX.v,RIGHT_INDEX.x,RIGHT_INDEX.y,RIGHT_INDEX.z,RIGHT_INDEX.v,LEFT_THUMB.x,LEFT_THUMB.y,LEFT_THUMB.z,LEFT_THUMB.v,RIGHT_THUMB.x,RIGHT_THUMB.y,RIGHT_THUMB.z,RIGHT_THUMB.v,LEFT_HIP.x,LEFT_HIP.y,LEFT_HIP.z,LEFT_HIP.v,RIGHT_HIP.x,RIGHT_HIP.y,RIGHT_HIP.z,RIGHT_HIP.v,LEFT_KNEE.x,LEFT_KNEE.y,LEFT_KNEE.z,LEFT_KNEE.v,RIGHT_KNEE.x,RIGHT_KNEE.y,RIGHT_KNEE.z,RIGHT_KNEE.v,LEFT_ANKLE.x,LEFT_ANKLE.y,LEFT_ANKLE.z,LEFT_ANKLE.v,RIGHT_ANKLE.x,RIGHT_ANKLE.y,RIGHT_ANKLE.z,RIGHT_ANKLE.v,LEFT_HEEL.x,LEFT_HEEL.y,LEFT_HEEL.z,LEFT_HEEL.v,RIGHT_HEEL.x,RIGHT_HEEL.y,RIGHT_HEEL.z,RIGHT_HEEL.v,LEFT_FOOT_INDEX.x,LEFT_FOOT_INDEX.y,LEFT_FOOT_INDEX.z,LEFT_FOOT_INDEX.v,RIGHT_FOOT_INDEX.x,RIGHT_FOOT_INDEX.y,RIGHT_FOOT_INDEX.z,RIGHT_FOOT_INDEX.v
0,0.22945844620007205,0.3853815875561,0.15534936363874352,1.0205153975517083,0.3006221576152561,0.42233015479595853,0.13163955746526973,0.9507923471529938,0.23334956670677748,0.4105388985972324,0.14167893544548688,0.975744953828395,0.32986669398746477,0.40197336183497917,0.08611674024220764,0.9535540497921985,0.268590761707788,0.3871271549261179,0.1425917492575216,1.0046818566434572,0.23350011024266426,0.4051929173894667,0.08976264083434461,1.0456768131394139,0.30414948797164876,0.37558329552650177,0.1652534055751495,1.0409940142237268,0.2463959186863589,0.3998661918145461,0.14645816013928345,0.9543739440368819,0.23169840803735456,0.3840400860375729,0.11802765669839431,1.0364493643561938,0.3117903680364069,0.38742995301365535,0.07561355506212146,1.0273307280658672,0.2289776079963166,0.43186456788822714,0.14277929121353516,0.9589686981740739,0.3090972658157604,0.43111952537978754,0.08554009678937935,0.9953958035639017,0.19873527875564945,0.4767385624978666,0.11592643350943314,1.0035640056544546,0.3782959590335848,0.5181267430054223,0.06289812806159885,0.936316074707652,0.07182933034198474,0.435053514202689,0.20499658110997543,0.007377426646171463,0.3540899208348613,0.49236219281116844,0.13355426594892275,0.8048159605428832,0.11871088908262609,0.45733300764879675,0.21754862582254147,-0.001867615590230312,0.416738418018957,0.4323320153322995,0.06727349553481796,0.7539323186271838,0.06607807896485454,0.4794111468727903,0.15973885466341556,0.0950340228002527,0.33355248964751166,0.4610821794717259,0.1225026209157159,0.7502830308713175,0.14765434141217934,0.5413262071637438,0.21865173546671474,0.0587827363209223,0.32028977413512766,0.4436909299484507,0.1374199053892061,0.7002939818745016,0.1289729596921776,0.5082481930930651,0.21789487021518059,0.04567116904253733,0.2218264614246922,0.5029723877917583,0.17324149553939225,1.0103678248162027,0.18753743708914902,0.5812724875763262,0.16515234835842046,0.9909509114314118,0.23822162192979213,0.6263153776816826,0.12256658665634496,0.9412918822928222,0.21249765003726817,0.6518492973737671,0.1382696199117589,0.4852529362148743,0.19325631266129875,0.6765073909653174,0.10092179236029136,0.8987467373290664,0.20747534647511476,0.6467098553237495,0.1596037332953458,0.4907642853385633,0.19000353344442394,0.6847441911441519,0.13385960302799832,0.9248285043808514,0.13094085826418733,0.6768848166213888,0.15401930105297318,0.65339479237537,0.3051184167657498,0.6828111670312723,0.14096914159741236,0.9046487736403395,0.1779244977831611,0.678103461142553,0.14831952043346144,0.6204093547902935
1,0.20046824772169505,0.3719703934700252,0.16250345550994463,1.0205153975517083,0.2718408024626963,0.40851829828770353,0.13867893098012235,0.9507923471529938,0.2045598538456691,0.3964838551382938,0.1487113811963616,0.975744953828395,0.3010214268405798,0.3876665483565094,0.09314727217682739,0.9535540497921985,0.23869602903977732,0.37371798739796536,0.15041051029501534,1.0046818566434572,0.2038922139023978,0.39180845598657366,0.09775104122035397,1.0456788396973362,0.2748333645796418,0.3622059568786593,0.17339995254420845,1.0409940142237268,0.22481610007856218,0.38358184523404076,0.15212084218389532,0.9543739440368819,0.20312943461980856,0.3690308914250699,0.12756076906089261,1.0364521061698535,0.2865861689718383,0.37242573538899104,0.08232285366289721,1.0273329930423685,0.2018787779133578,0.41732893217846456,0.15070575624734095,0.9589783541265275,0.30065542961153163,0.41361101860488525,0.09102313121567773,0.9954017640283792,0.1850291828056807,0.4645098947618131,0.12222299835701188,1.004056161206365,0.3877755066347155,0.501875000165609,0.06637663746494656,0.9631707685972698,0.11192237499280808,0.4302239882551182,0.19294462670420187,0.053544155828176364,0.37281285113223794,0.4873424684421194,0.12590994212678988,0.8973944312498228,0.22685176784901812,0.45123056490740276,0.17835438744183227,0.17244659646378388,0.43839083639889315,0.4319790068236172,0.05581758068915629,0.817193887173479,0.18516369029849117,0.4715090610916929,0.11595111323777879,0.3317788773994902,0.3529853307878499,0.4570583891122288,0.11156094065399336,0.8305987399853922,0.26811166879715487,0.5301881256131455,0.1737167596930418,0.3093904913560843,0.33771918715154997,0.43844268137133274,0.12922918944303016,0.7924260137920737,0.24029155686709142,0.4972682426650561,0.17737330629561282,0.30040475386376164,0.2220194965873929,0.49761244011033134,0.17348915452923103,1.0102632186646219,0.18747209669240075,0.5792299556091631,0.1650146668605597,0.9908873728800812,0.2298742437653588,0.6262657866172294,0.1267821038986271,0.9586904184981141,0.18695477417946066,0.659424570887561,0.15284350721158893,0.6930006340450746,0.18849905461159872,0.6784184946907508,0.1062034320107221,0.9045716608443861,0.17855902702599155,0.65618741107555,0.17154523125866256,0.6771188032752699,0.18669194717222343,0.6875477552158071,0.13942561877803988,0.8940413344475323,0.10229270019798503,0.6868206128822225,0.16551346371883097,0.7111559846971474,0.2999471061115025,0.6813451311883768,0.14384049948741912,0.9071395325362135,0.15182051904663107,0.6853668831548821,0.15883046271802273,0.7625517102323406
2,0.2041007320243703,0.3705640218765498,0.1613449960071578,1.0205153975517083,0.2742502284653604,0.40657843532116605,0.137364203913915,0.9507923471529938,0.2071005827609062,0.3944423364500919,0.14744236987166787,0.9757409007125504,0.3037070658847088,0.3855395864100219,0.09192260665211854,0.9535540497921985,0.2414381617106539,0.3720412491357889,0.14860672168611477,1.0046818566434572,0.20643974605602833,0.39025959948976274,0.09580994731114245,1.0456464147705784,0.2771964246628075,0.360797588529584,0.17132308232809418,1.0409940142237268,0.22471319364108183,0.38155296273053124,0.15149078110342235,0.9543703677581955,0.2053472109457921,0.3681538388795224,0.12486230857495521,1.0364280258933642,0.28947370200019495,0.37112715879559194,0.08158404111723902,1.0273165421604105,0.20534972658211514,0.41653753150745926,0.14929363419378155,0.958903133064821,0.2966949745182847,0.41414740080321893,0.09302669120513612,0.9951355696848124,0.18346513369584508,0.4639215671155576,0.12060172357505518,1.0025118644648794,0.3709605744660056,0.5011068453060662,0.07255613345364312,0.9092753547216902,0.0945393837230813,0.4330999123655308,0.19598882724133118,0.011929860844729762,0.34300021982606826,0.4708911096469534,0.13869534480263762,0.7172604328558104,0.19558698141091913,0.44254506547769995,0.1895923409723759,0.02860989703760978,0.40626376934933134,0.4104691508379757,0.0707300375325777,0.5920319771164111,0.15234439477436573,0.4605112292702512,0.12885529199749687,0.1485609942894438,0.3208914313159534,0.43704010955976913,0.12632798847161983,0.6032053512372233,0.2341390234113437,0.5182043435601518,0.18660522172040547,0.1163465515868163,0.3075732278686369,0.41991737896120707,0.14209435248503965,0.5553366182690024,0.20845662535589854,0.4865679274280108,0.18921801295130042,0.10221226918692362,0.2210393124129258,0.49606111002076225,0.17295951364439316,1.0047273776764627,0.18570876074879264,0.5760785984352434,0.16364558325167872,0.988382845311264,0.23032563727799177,0.6148586497001152,0.11993425747725586,0.6989873783751283,0.19779263871942288,0.6471528089933349,0.1428585299735284,0.15547824356026463,0.18863685586934867,0.6651580705536353,0.10031141364662088,0.6417211974540358,0.1946709478876694,0.6421647031364021,0.1618006643491649,0.21063553811375554,0.1872986772876681,0.6734239577991201,0.13307867690874853,0.6133096564384991,0.11105559449784433,0.672257231210317,0.15818949793660436,0.39505368858317946,0.29912429232489857,0.6688086650667032,0.13879617475509615,0.6107110905348707,0.16032632915484557,0.6711191676817071,0.15302533636650706,0.33562432251795454
3,,,,,,,,,,,,,,,,,,,,,,,,,,,,,,,,,,,,,,,,,,,,,,,,,,,,,,,,,,,,,,,,,,,,,,,,,,,,,,,,,,,,,,,,,,,,,,,,,,,,,,,,,,,,,,,,,,,,,,,,,,,,,,,,,,,,
4,,,,,,,,,,,,,,,,,,,,,,,,,,,,,,,,,,,,,,,,,,,,,,,,,,,,,,,,,,,,,,,,,,,,,,,,,,,,,,,,,,,,,,,,,,,,,,,,,,,,,,,,,,,,,,,,,,,,,,,,,,,,,,,,,,,,
5,,,,,,,,,,,,,,,,,,,,,,,,,,,,,,,,,,,,,,,,,,,,,,,,,,,,,,,,,,,,,,,,,,,,,,,,,,,,,,,,,,,,,,,,,,,,,,,,,,,,,,,,,,,,,,,,,,,,,,,,,,,,,,,,,,,,
6,,,,,,,,,,,,,,,,,,,,,,,,,,,,,,,,,,,,,,,,,,,,,,,,,,,,,,,,,,,,,,,,,,,,,,,,,,,,,,,,,,,,,,,,,,,,,,,,,,,,,,,,,,,,,,,,,,,,,,,,,,,,,,,,,,,,
7,,,,,,,,,,,,,,,,,,,,,,,,,,,,,,,,,,,,,,,,,,,,,,,,,,,,,,,,,,,,,,,,,,,,,,,,,,,,,,,,,,,,,,,,,,,,,,,,,,,,,,,,,,,,,,,,,,,,,,,,,,,,,,,,,,,,
8,,,,,,,,,,,,,,,,,,,,,,,,,,,,,,,,,,,,,,,,,,,,,,,,,,,,,,,,,,,,,,,,,,,,,,,,,,,,,,,,,,,,,,,,,,,,,,,,,,,,,,,,,,,,,,,,,,,,,,,,,,,,,,,,,,,,
9,,,,,,,,,,,,,,,,,,,,,,,,,,,,,,,,,,,,,,,,,,,,,,,,,,,,,,,,,,,,,,,,,,,,,,,,,,,,,,,,,,,,,,,,,,,,,,,,,,,,,,,,,,,,,,,,,,,,,,,,,,,,,,,,,,,,
10,,,,,,,,,,,,,,,,,,,,,,,,,,,,,,,,,,,,,,,,,,,,,,,,,,,,,,,,,,,,,,,,,,,,,,,,,,,,,,,,,,,,,,,,,,,,,,,,,,,,,,,,,,,,,,,,,,,,,,,,,,,,,,,,,,,,
11,,,,,,,,,,,,,,,,,,,,,,,,,,,,,,,,,,,,,,,,,,,,,,,,,,,,,,,,,,,,,,,,,,,,,,,,,,,,,,,,,,,,,,,,,,,,,,,,,,,,,,,,,,,,,,,,,,,,,,,,,,,,,,,,,,,,
12,,,,,,,,,,,,,,,,,,,,,,,,,,,,,,,,,,,,,,,,,,,,,,,,,,,,,,,,,,,,,,,,,,,,,,,,,,,,,,,,,,,,,,,,,,,,,,,,,,,,,,,,,,,,,,,,,,,,,,,,,,,,,,,,,,,,
13,,,,,,,,,,,,,,,,,,,,,,,,,,,,,,,,,,,,,,,,,,,,,,,,,,,,,,,,,,,,,,,,,,,,,,,,,,,,,,,,,,,,,,,,,,,,,,,,,,,,,,,,,,,,,,,,,,,,,,,,,,,,,,,,,,,,
14,,,,,,,,,,,,,,,,,,,,,,,,,,,,,,,,,,,,,,,,,,,,,,,,,,,,,,,,,,,,,,,,,,,,,,,,,,,,,,,,,,,,,,,,,,,,,,,,,,,,,,,,,,,,,,,,,,,,,,,,,,,,,,,,,,,,
15,,,,,,,,,,,,,,,,,,,,,,,,,,,,,,,,,,,,,,,,,,,,,,,,,,,,,,,,,,,,,,,,,,,,,,,,,,,,,,,,,,,,,,,,,,,,,,,,,,,,,,,,,,,,,,,,,,,,,,,,,,,,,,,,,,,,
16,,,,,,,,,,,,,,,,,,,,,,,,,,,,,,,,,,,,,,,,,,,,,,,,,,,,,,,,,,,,,,,,,,,,,,,,,,,,,,,,,,,,,,,,,,,,,,,,,,,,,,,,,,,,,,,,,,,,,,,,,,,,,,,,,,,,
17,,,,,,,,,,,,,,,,,,,,,,,,,,,,,,,,,,,,,,,,,,,,,,,,,,,,,,,,,,,,,,,,,,,,,,,,,,,,,,,,,,,,,,,,,,,,,,,,,,,,,,,,,,,,,,,,,,,,,,,,,,,,,,,,,,,,
18,,,,,,,,,,,,,,,,,,,,,,,,,,,,,,,,,,,,,,,,,,,,,,,,,,,,,,,,,,,,,,,,,,,,,,,,,,,,,,,,,,,,,,,,,,,,,,,,,,,,,,,,,,,,,,,,,,,,,,,,,,,,,,,,,,,,
19,,,,,,,,,,,,,,,,,,,,,,,,,,,,,,,,,,,,,,,,,,,,,,,,,,,,,,,,,,,,,,,,,,,,,,,,,,,,,,,,,,,,,,,,,,,,,,,,,,,,,,,,,,,,,,,,,,,,,,,,,,,,,,,,,,,,
20,,,,,,,,,,,,,,,,,,,,,,,,,,,,,,,,,,,,,,,,,,,,,,,,,,,,,,,,,,,,,,,,,,,,,,,,,,,,,,,,,,,,,,,,,,,,,,,,,,,,,,,,,,,,,,,,,,,,,,,,,,,,,,,,,,,,
21,,,,,,,,,,,,,,,,,,,,,,,,,,,,,,,,,,,,,,,,,,,,,,,,,,,,,,,,,,,,,,,,,,,,,,,,,,,,,,,,,,,,,,,,,,,,,,,,,,,,,,,,,,,,,,,,,,,,,,,,,,,,,,,,,,,,
22,,,,,,,,,,,,,,,,,,,,,,,,,,,,,,,,,,,,,,,,,,,,,,,,,,,,,,,,,,,,,,,,,,,,,,,,,,,,,,,,,,,,,,,,,,,,,,,,,,,,,,,,,,,,,,,,,,,,,,,,,,,,,,,,,,,,
23,,,,,,,,,,,,,,,,,,,,,,,,,,,,,,,,,,,,,,,,,,,,,,,,,,,,,,,,,,,,,,,,,,,,,,,,,,,,,,,,,,,,,,,,,,,,,,,,,,,,,,,,,,,,,,,,,,,,,,,,,,,,,,,,,,,,
24,,,,,,,,,,,,,,,,,,,,,,,,,,,,,,,,,,,,,,,,,,,,,,,,,,,,,,,,,,,,,,,,,,,,,,,,,,,,,,,,,,,,,,,,,,,,,,,,,,,,,,,,,,,,,,,,,,,,,,,,,,,,,,,,,,,,
25,,,,,,,,,,,,,,,,,,,,,,,,,,,,,,,,,,,,,,,,,,,,,,,,,,,,,,,,,,,,,,,,,,,,,,,,,,,,,,,,,,,,,,,,,,,,,,,,,,,,,,,,,,,,,,,,,,,,,,,,,,,,,,,,,,,,
26,,,,,,,,,,,,,,,,,,,,,,,,,,,,,,,,,,,,,,,,,,,,,,,,,,,,,,,,,,,,,,,,,,,,,,,,,,,,,,,,,,,,,,,,,,,,,,,,,,,,,,,,,,,,,,,,,,,,,,,,,,,,,,,,,,,,
27,,,,,,,,,,,,,,,,,,,,,,,,,,,,,,,,,,,,,,,,,,,,,,,,,,,,,,,,,,,,,,,,,,,,,,,,,,,,,,,,,,,,,,,,,,,,,,,,,,,,,,,,,,,,,,,,,,,,,,,,,,,,,,,,,,,,
28,,,,,,,,,,,,,,,,,,,,,,,,,,,,,,,,,,,,,,,,,,,,,,,,,,,,,,,,,,,,,,,,,,,,,,,,,,,,,,,,,,,,,,,,,,,,,,,,,,,,,,,,,,,,,,,,,,,,,,,,,,,,,,,,,,,,
29,,,,,,,,,,,,,,,,,,,,,,,,,,,,,,,,,,,,,,,,,,,,,,,,,,,,,,,,,,,,,,,,,,,,,,,,,,,,,,,,,,,,,,,,,,,,,,,,,,,,,,,,,,,,,,,,,,,,,,,,,,,,,,,,,,,,
30,,,,,,,,,,,,,,,,,,,,,,,,,,,,,,,,,,,,,,,,,,,,,,,,,,,,,,,,,,,,,,,,,,,,,,,,,,,,,,,,,,,,,,,,,,,,,,,,,,,,,,,,,,,,,,,,,,,,,,,,,,,,,,,,,,,,
31,,,,,,,,,,,,,,,,,,,,,,,,,,,,,,,,,,,,,,,,,,,,,,,,,,,,,,,,,,,,,,,,,,,,,,,,,,,,,,,,,,,,,,,,,,,,,,,,,,,,,,,,,,,,,,,,,,,,,,,,,,,,,,,,,,,,
32,,,,,,,,,,,,,,,,,,,,,,,,,,,,,,,,,,,,,,,,,,,,,,,,,,,,,,,,,,,,,,,,,,,,,,,,,,,,,,,,,,,,,,,,,,,,,,,,,,,,,,,,,,,,,,,,,,,,,,,,,,,,,,,,,,,,
33,,,,,,,,,,,,,,,,,,,,,,,,,,,,,,,,,,,,,,,,,,,,,,,,,,,,,,,,,,,,,,,,,,,,,,,,,,,,,,,,,,,,,,,,,,,,,,,,,,,,,,,,,,,,,,,,,,,,,,,,,,,,,,,,,,,,
34,,,,,,,,,,,,,,,,,,,,,,,,,,,,,,,,,,,,,,,,,,,,,,,,,,,,,,,,,,,,,,,,,,,,,,,,,,,,,,,,,,,,,,,,,,,,,,,,,,,,,,,,,,,,,,,,,,,,,,,,,,,,,,,,,,,,
35,,,,,,,,,,,,,,,,,,,,,,,,,,,,,,,,,,,,,,,,,,,,,,,,,,,,,,,,,,,,,,,,,,,,,,,,,,,,,,,,,,,,,,,,,,,,,,,,,,,,,,,,,,,,,,,,,,,,,,,,,,,,,,,,,,,,
36,0.17829257646114244,0.4367618046314479,0.19498662859608826,1.0205153975517083,0.2560982673221194,0.4747130114033956,0.16518310576419315,0.9507923471529938,0.1869760369493396,0.4629797803263584,0.1739800273896297,0.975744476991237,0.281558220971804,0.4544370423407318,0.11721295004009638,0.9535540497921985,0.2302403980602783,0.4388620494402017,0.17924880035302615,1.0046818566434572,0.19694641880630054,0.45663387159784075,0.12766722799298863,1.045679674162363,0.2694763206259034,0.4266710922145816,0.20441857208671366,1.0409940142237268,0.24132971571691442,0.45025756783307025,0.15947761370784067,0.9543728711532761,0.24662241651202654,0.432919798857626,0.14084259461699042,1.036452702216301,0.27320170102938307,0.43618398944019954,0.10787427234960956,1.027326198112864,0.19750438405673587,0.48006550301357803,0.1787674762332549,0.9589735857549455,0.2991415103999347,0.4757273137041437,0.09054278962385914,0.9951334239176004,0.26526864964639735,0.5137692891690855,0.13699952566964207,1.0040767844134575,0.3287076493850871,0.5667237807976281,0.08696854155156507,0.9741097706343181,0.19552500695358113,0.4771055447660435,0.21745535106719355,0.8892484675566539,0.2797556953492837,0.5912999426738393,0.16639015823857403,0.9288281327650207,0.28327510973986747,0.5180966647418449,0.21863922563181978,0.8287836043439949,0.33781337494092484,0.5490303400126278,0.09954877455558162,0.8829665994041613,0.2412907836556029,0.5431981005604581,0.1589924044387168,0.8788542384129027,0.25803850623420804,0.5736707638947911,0.15453373423621372,0.8952468913830974,0.32117096697107683,0.6043599965600298,0.21598416966113565,0.8448247076169944,0.24839878199116439,0.5497519415012614,0.17164640442096873,0.8396651981716513,0.2931051552425046,0.5699334572036303,0.2173431421191834,0.8034248318075635,0.22995528213242417,0.5332046384822186,0.18856331260630038,1.0104654572243448,0.2384377919541891,0.610084061558565,0.19065865428576817,0.9910307816554108,0.2293580813751518,0.6417828426055412,0.1332645120330704,0.9757462876005921,0.22844707699075872,0.6756552732877685,0.1726103143855936,0.9810095623440248,0.2290048377021051,0.688209272850846,0.10584760358127848,0.9404181922355299,0.2489500502073456,0.6664380986747321,0.17917950119542267,0.8920676958686538,0.23115161767689935,0.6975438117725088,0.13825956606812578,1.012440298852592,0.17394740670946712,0.6952447757469076,0.17135499547509364,0.9372071364496193,0.33024960209728454,0.6809145472345194,0.14790407194741775,0.8791630196272779,0.21313425874845654,0.6899199031553399,0.17393564479201554,0.7512731405340068
37,0.1828216256039029,0.4268765531093837,0.19783711832456982,1.0205153975517083,0.25910756390337847,0.46618209661991783,0.16802480377482804,0.9507923471529938,0.1895843468948608,0.45468025077389873,0.17648850900532348,0.9757201582961686,0.28376993927830146,0.4463769744486572,0.11938436333791635,0.9535540497921985,0.23743093863206988,0.43030726299649136,0.18125435613478597,1.0046818566434572,0.20424332903498893,0.44826815108735796,0.12980267238654494,1.0456652498383274,0.27686785127844454,0.41851014346122467,0.20667861151017286,1.0409940142237268,0.23783828904241106,0.44415539331257775,0.1617167524118091,0.9543505790161301,0.2624044690291935,0.427139370209631,0.1385915568183726,1.0364294564048386,0.2746053262069527,0.42697894612431203,0.11007772431456078,1.0272854285358377,0.20442822229367205,0.47068650354191366,0.17988308507936962,0.9588581911626604,0.29062860685751624,0.47395464176620117,0.09313895753732507,0.9953654051950662,0.27730629530473555,0.5147976481053953,0.13092656300749317,1.004131799500585,0.30540825236810054,0.5650476981865441,0.0922789717146869,0.9754671472097881,0.20445467638071438,0.4836757647596348,0.20692431091310934,0.6746864687125071,0.25892398353165014,0.5904379999057424,0.16913413251830312,0.9393506175443785,0.2710748174955439,0.5140752585681388,0.20778115496132404,0.301493140896424,0.3179102445738175,0.5476252797213376,0.1020243907805409,0.8881521438949758,0.2229925415874577,0.5362509407933073,0.14743327834803469,0.3493378395061949,0.2378414689205922,0.5749216865746922,0.15695877606568703,0.9074767512120463,0.3027976811129549,0.5980382087258623,0.20449146888277558,0.3311286331312156,0.22768773395202574,0.5515226166836039,0.17382029910526164,0.8404899476414084,0.27871538930355283,0.5647128651816882,0.2054803597819796,0.29845899003739135,0.22010533028375806,0.5351138944636639,0.1903085812092126,1.0104435227150674,0.24371627866945364,0.613286023075899,0.18577975673630143,0.9910187415171662,0.21067780734303337,0.646922849147747,0.1444140435589053,0.9725510018034731,0.2281353111511396,0.677047816603656,0.17012814044305688,0.9815325931019288,0.1916525852303645,0.6872693076027381,0.11741901465358554,0.9365877593436843,0.2390711164302786,0.6644214351234016,0.1761978199305297,0.9077878844863599,0.19075101762017768,0.6966506361705496,0.14908448884350145,1.0031310666176372,0.16629277751053018,0.6937696203933614,0.1712248208015598,0.9260946848962744,0.2884129611175756,0.67327966907595,0.16432791762965562,0.8765925693213392,0.20077336674479568,0.6825135492048394,0.17367260568372178,0.7827829571805828
38,0.15133479893948745,0.4305189035446406,0.2071095085875376,1.0205153975517083,0.2260199933991321,0.46800164761097623,0.17811582939033827,0.9507923471529938,0.15666724636714405,0.4559776650767246,0.18673549903709213,0.975744715409816,0.251069276212029,0.4470092009157898,0.12977236881347873,0.9535540497921985,0.20445231410612968,0.43211978063946627,0.19094328231429286,1.0046818566434572,0.1712198479331153,0.44962037186105486,0.13943361567456816,1.0456795549530735,0.243800310471903,0.4192271575355502,0.2162570773641827,1.0409940142237268,0.2072357457256903,0.44753795690358117,0.17230817903070653,0.9543735864090135,0.2308909997692406,0.43058597899144563,0.1483617472675602,1.036452225379143,0.24468007636259412,0.4300663475143877,0.11967728066327446,1.0273325162052103,0.17435255461967575,0.4738935910586983,0.18908553069911926,0.9589770428243426,0.2643533290519459,0.47773753995383844,0.10264890639976337,0.9953514577081889,0.26042731590649143,0.5176889800164823,0.13819776908824244,1.0041136796885735,0.27728363752264296,0.57144023673406,0.10180397834841852,0.9772849696661482,0.18983640215520048,0.4832696187101353,0.21428708545106065,0.8766821991125926,0.20313718675179607,0.5957797681705129,0.18909052089094106,0.8906335359975951,0.2574676736452118,0.5161784680636833,0.22478998171444778,0.5505276052557075,0.25345182180895176,0.5524040821162045,0.125096384839492,0.8059914326065234,0.21165257756061923,0.5373047509129362,0.1674638360184418,0.5744600528698424,0.17272966942443893,0.5796281289308018,0.17992602033391408,0.8134317678250529,0.28501776393523676,0.5985996248750017,0.22649422704595829,0.5232485295431113,0.17031334874669857,0.5562526624790446,0.19401205745713856,0.7082522152309775,0.26378094995167267,0.5663720796783007,0.22447228187606577,0.43069076198334477,0.2199018161182953,0.5356685752879436,0.1902467550596456,1.0103059551949258,0.2443569945410024,0.6156548308685625,0.1860356439046088,0.9908837966013948,0.21209334226445997,0.6449801549605827,0.14129083465562012,0.960547997252539,0.2266149581877525,0.675962177603717,0.1695700374056123,0.9403777912563784,0.2161109872426748,0.6793935670746314,0.10816439743148315,0.8892257297912245,0.26687472417250957,0.6639162261542854,0.16255180795083035,0.8028303039199537,0.21678835392397733,0.6884028434497549,0.13939462868691746,0.979780947026878,0.19204458340913735,0.6937500700698751,0.15310725294883976,0.8995647171113929,0.31365805548421216,0.6669348142442545,0.1555474769430059,0.7381666230856825,0.2288224049945849,0.6820526264867913,0.15996581997610704,0.6438742729268901
39,0.14441446894416687,0.4311360798389674,0.20839648474228362,1.0205153975517083,0.22074151641773818,0.4692219931081075,0.17922830788299454,0.9507923471529938,0.1516048395464473,0.4573072062830845,0.18798186870903022,0.975744715409816,0.24619478420145852,0.4485118638128997,0.13116091998112253,0.9535540497921985,0.1964245628293117,0.4336664317644205,0.19271823023226287,1.0046818566434572,0.16311495158154782,0.4515531120725416,0.1411508704518946,1.0456795549530735,0.2356333905137502,0.4216508016014071,0.21790763609839878,1.0409940142237268,0.20641213671791486,0.44797783918202355,0.17286216761712803,0.9543735864090135,0.21883411836400518,0.4315336630410519,0.15185843190892667,1.036452225379143,0.2395562957448518,0.43134853283047353,0.1207813612064825,1.0273319201587625,0.16586466020107227,0.47554028857990804,0.19102621112254126,0.9589772812429216,0.26777216303568496,0.47776284212554565,0.10118260960867823,0.9952782035997598,0.24661748866871422,0.5186617576215391,0.1436614547889924,1.0041112955027824,0.2810298235645037,0.5740279127823388,0.1008359006644491,0.966162027695323,0.17079390919495427,0.485854135712241,0.2219822570241343,0.6299208770911082,0.19738266457733605,0.5945597206966055,0.1935802725800863,0.5865359431669371,0.2303736542026601,0.5168652923854301,0.23122512425879072,0.15016559048519967,0.24771889183924586,0.5505041840639889,0.13043214282543192,0.4515773271911792,0.18128051480742394,0.5382064499790983,0.1734468086453949,0.23380547108464028,0.16667765843397575,0.5767961334435887,0.18531443511872714,0.4476520699300029,0.2553199755848661,0.5992875816849993,0.23230259845903745,0.19084457169933078,0.16452763954106636,0.5538318198314921,0.1988766168169847,0.34627198561481226,0.23672389643473607,0.5669280718047656,0.2304661192782279,0.15230230647320522,0.22352602477895794,0.5388506884585674,0.1888060808845576,1.0103482744927164,0.2405875237932454,0.6185218142822588,0.18740621495124496,0.9909536532450715,0.21085868544779368,0.6474811062507133,0.13665361359896666,0.9698046581908021,0.2232795360228183,0.6803727425031616,0.16887688724389918,0.9642283514446718,0.21332106690352054,0.6874221339119422,0.10564427533980406,0.9178651655593519,0.2573252758282251,0.668136235004383,0.1641869626035161,0.8630372536307997,0.21406170469199914,0.696457338307543,0.13746290575456338,0.9831965911957318,0.1823074506214673,0.6979933247314352,0.155243883420698,0.9125330188844643,0.30484985195518177,0.6749828121957621,0.15364888650016312,0.8156323361098219,0.21522568885388924,0.6855881952009332,0.16117327365107775,0.7325712295614116
40,0.12247539225821472,0.4309366128952266,0.21536729529726414,1.0205153975517083,0.19945936409050533,0.4690558749631185,0.18612393778388767,0.9507923471529938,0.1303647510684705,0.4573228227000156,0.19490338456768994,0.975744953828395,0.22500241542922395,0.44877898202846067,0.1381039837829934,0.9535540497921985,0.17543919775731942,0.4333651600874033,0.1995541227376677,1.0046818566434572,0.14216056958531248,0.45129380206544634,0.1480178387610046,1.045679674162363,0.21471235203896508,0.4214916571998569,0.22479981366587376,1.0409940142237268,0.18996732344492312,0.44658592171490624,0.1782428717648278,0.9543739440368819,0.20362880122554483,0.4299303875035611,0.15681394548328054,1.0364525830070115,0.2194396548238463,0.4314216081249682,0.12708170669880497,1.0273340659259744,0.14600066982125923,0.47553164590641556,0.19715531474531656,0.9589830032888201,0.2590504610978988,0.47821649307693115,0.10354152144544859,0.9952599645784584,0.23489786184002429,0.5197014414403562,0.14737431318150074,1.0039568002635246,0.2764345145448244,0.5747289826141869,0.10192064825352899,0.976133050301219,0.15641956266429397,0.4898005592428196,0.22537467113439513,0.5534266601721629,0.19312652417864407,0.5938945328609121,0.19414822277510513,0.6771298176214354,0.2039154477696746,0.5172022970469902,0.23474665878928064,0.04290735258684989,0.24344483503345538,0.549677527245599,0.13060760149237702,0.5344826197021655,0.1506321741315368,0.5377363481457548,0.17688532898193682,0.1381238782625654,0.16098444515770247,0.5754533600060887,0.18584001962331287,0.5295815748013712,0.2239230449534436,0.5989940884141253,0.235581844631653,0.0983895571128821,0.15981298656792975,0.5523640554538981,0.19948791448208403,0.4193335710411429,0.20876332681948562,0.5664372275550402,0.23315060617685626,0.07752498644585383,0.2227441545502381,0.5414971346865948,0.18853119924478973,1.010348870539164,0.24040282998284926,0.6221628832176531,0.18702032820667316,0.9909636668253936,0.20605904249952023,0.6482998952559929,0.13861078710904118,0.973140610949591,0.22001076816606538,0.6841217554502441,0.16983192602999067,0.9857191041416627,0.21840298999958807,0.687365926731919,0.10620040322803245,0.9319291199126843,0.2687888161727958,0.6702756245193061,0.15853063783312465,0.921450163138551,0.21955310627742802,0.6959785341960623,0.13779647065143139,1.0001370657059245,0.19470093831781884,0.6999516949401754,0.14867874618439905,0.9481370189760169,0.30658054704482013,0.6767029426393351,0.15639901036795087,0.8843581008612561,0.22555285823223326,0.6876391910276544,0.15683374876997455,0.8440665455900066
41,0.26961014129720023,0.43281520228693493,0.16312959235253224,1.0205153975517083,0.34578294997225617,0.4718707639172811,0.13349562753318173,0.9507923471529938,0.27637339904170205,0.4602273570399204,0.14204864650137636,0.9753246814780838,0.3706748341546261,0.45180034147212517,0.08504762457496437,0.9535540497921985,0.3244518330122193,0.4362741349733438,0.14628019763971187,1.0046818566434572,0.29122298556617926,0.45429924706895586,0.0948028266555003,1.0453741407532444,0.3638054759049195,0.4246310934448215,0.17163723109000742,1.0409940142237268,0.31067735250050205,0.44957160777867267,0.13320447934608734,0.9541694405006577,0.3363435583935074,0.4333683238095608,0.10870089429651401,1.0362943922797778,0.35540160525919795,0.43284800687908803,0.0782394571414015,1.0266813354610391,0.2857974343918631,0.47699133385464254,0.1475024418701455,0.9578595153394486,0.3297457940941639,0.48027222747291193,0.07677881062140823,0.9945031644037454,0.3377732662287741,0.5208020412061338,0.10718257989894799,1.0030630882197624,0.3265069669473555,0.5727878381477868,0.0807931074902296,0.9247306602980145,0.23679897106551856,0.48932115908489116,0.18996830794530128,0.6454027067343577,0.2587526871141775,0.5885198628322256,0.1693001601083586,0.6183046823904174,0.2795575823040969,0.5171378048213432,0.19660881683230938,0.4027831582628333,0.3149044398752698,0.5430260661211789,0.10357825865613077,0.5052425479286364,0.23173524357935385,0.5379787006314115,0.13562240833132777,0.4722263151627043,0.2477563885093895,0.5697081279008336,0.15300125684323107,0.5649629515446879,0.31189025303827345,0.5998735549477862,0.19268744124945753,0.45604837547702554,0.23436888670791678,0.5476098697773234,0.1712590934655898,0.5116305588131308,0.28673078078305714,0.5672894547660388,0.19433841704549823,0.40878054159874694,0.20868219613175032,0.5459050173770245,0.19172670184438592,1.0104544899697059,0.25198590017304767,0.6238865899399126,0.18218509702709748,0.991013973145584,0.20033694484047976,0.6605617627791862,0.14328594830261127,0.9693601863547119,0.2283525200602284,0.6906666434698059,0.16634254872069326,0.9985849455303651,0.14590773982451824,0.6988764777077185,0.13174156116547753,0.9343245709815627,0.2060889560695369,0.6790366728362617,0.18313164262947315,0.9492629420882885,0.13865106529848242,0.7075885057193472,0.16239050116449485,0.9892635095688396,0.12578809387787077,0.7088985905395406,0.17577456652856444,0.9457905629251441,0.25070596471068335,0.685790028363212,0.17476804828483075,0.8923482823073317,0.17703160850715194,0.6968644999227654,0.17706349628340515,0.9171472045026652
42,0.21193986318887198,0.4243748567611934,0.18679944018336442,1.0205153975517083,0.28696898570475327,0.46372054399998375,0.156763775060437,0.9507923471529938,0.21692536260034928,0.452057527194492,0.16490773434509134,0.975521019177974,0.3105345297561001,0.4436103056521179,0.10742468797059662,0.9535540497921985,0.2687115131898801,0.42854487285977266,0.1695698211303377,1.0046818566434572,0.23575412439979931,0.4467895982690596,0.11828951719753389,1.0454318976540318,0.30860158064317444,0.4173290774250003,0.1953130561104629,1.0409940142237268,0.2606387838391246,0.4424189609986587,0.15197511716033477,0.9542516353058029,0.29528292102454406,0.4275390789574948,0.1261803853042575,1.0362253104964831,0.2994693335734404,0.4242310825931994,0.09955294170918719,1.0268211083530376,0.2335556357969057,0.46871519912525716,0.16891855407843004,0.9576306335035112,0.2820558921628143,0.47420161361182794,0.09144510300528341,0.9950336457422464,0.3163740399120477,0.5189066731069212,0.11613994956632682,1.003617471020818,0.2849928138010672,0.5693200995193993,0.09424435970711846,0.6833325642134198,0.23031521214526385,0.4880262481771458,0.19171855595469256,0.5849395166556224,0.2402327216762578,0.5910726701633108,0.17537647509311513,0.19723373414727613,0.2868653329080716,0.5206358226092765,0.19922787855560797,0.19060163482056497,0.29648394158756186,0.5470866921511471,0.11002157610765076,0.1337444549196414,0.24009902657455504,0.5424284257824735,0.13925205011033456,0.2579678827743986,0.2223506056829617,0.5721488188950963,0.1638096976343252,0.16481680989639538,0.31817882426200816,0.6062148335007952,0.19752042728537267,0.22738560151023618,0.21300612128404697,0.5501130264393107,0.18025666621406553,0.1389029262905478,0.293959752481509,0.5722691248137988,0.19809112592547587,0.18658202546829952,0.19765771258687065,0.5439692969332989,0.19111166168519905,1.0104678414101358,0.25540028445943436,0.6216825293854082,0.17762451571348417,0.9910300663996736,0.18503001900033017,0.6562570557288627,0.14396314421052817,0.9597547786398682,0.23839628700321736,0.688219097941394,0.16539696944750357,0.9919556573338014,0.14475892398016532,0.6977842821968543,0.11832685836878601,0.9230386699119215,0.22874736901947865,0.677881177192646,0.17879798423436832,0.9269459498054213,0.14003101164573012,0.7069400071841909,0.14839676902843052,0.975004528817802,0.1486546700865518,0.7074069246993917,0.16948800849681583,0.9092986920450172,0.25058861815184486,0.679325606614097,0.16691121714789678,0.7365870999991346,0.19659357783241604,0.6946172856054437,0.17524995468550095,0.7205257268987529
43,,,,,,,,,,,,,,,,,,,,,,,,,,,,,,,,,,,,,,,,,,,,,,,,,,,,,,,,,,,,,,,,,,,,,,,,,,,,,,,,,,,,,,,,,,,,,,,,,,,,,,,,,,,,,,,,,,,,,,,,,,,,,,,,,,,,
44,,,,,,,,,,,,,,,,,,,,,,,,,,,,,,,,,,,,,,,,,,,,,,,,,,,,,,,,,,,,,,,,,,,,,,,,,,,,,,,,,,,,,,,,,,,,,,,,,,,,,,,,,,,,,,,,,,,,,,,,,,,,,,,,,,,,
45,,,,,,,,,,,,,,,,,,,,,,,,,,,,,,,,,,,,,,,,,,,,,,,,,,,,,,,,,,,,,,,,,,,,,,,,,,,,,,,,,,,,,,,,,,,,,,,,,,,,,,,,,,,,,,,,,,,,,,,,,,,,,,,,,,,,
46,,,,,,,,,,,,,,,,,,,,,,,,,,,,,,,,,,,,,,,,,,,,,,,,,,,,,,,,,,,,,,,,,,,,,,,,,,,,,,,,,,,,,,,,,,,,,,,,,,,,,,,,,,,,,,,,,,,,,,,,,,,,,,,,,,,,
47,,,,,,,,,,,,,,,,,,,,,,,,,,,,,,,,,,,,,,,,,,,,,,,,,,,,,,,,,,,,,,,,,,,,,,,,,,,,,,,,,,,,,,,,,,,,,,,,,,,,,,,,,,,,,,,,,,,,,,,,,,,,,,,,,,,,
48,,,,,,,,,,,,,,,,,,,,,,,,,,,,,,,,,,,,,,,,,,,,,,,,,,,,,,,,,,,,,,,,,,,,,,,,,,,,,,,,,,,,,,,,,,,,,,,,,,,,,,,,,,,,,,,,,,,,,,,,,,,,,,,,,,,,
49,,,,,,,,,,,,,,,,,,,,,,,,,,,,,,,,,,,,,,,,,,,,,,,,,,,,,,,,,,,,,,,,,,,,,,,,,,,,,,,,,,,,,,,,,,,,,,,,,,,,,,,,,,,,,,,,,,,,,,,,,,,,,,,,,,,,
50,,,,,,,,,,,,,,,,,,,,,,,,,,,,,,,,,,,,,,,,,,,,,,,,,,,,,,,,,,,,,,,,,,,,,,,,,,,,,,,,,,,,,,,,,,,,,,,,,,,,,,,,,,,,,,,,,,,,,,,,,,,,,,,,,,,,
51,,,,,,,,,,,,,,,,,,,,,,,,,,,,,,,,,,,,,,,,,,,,,,,,,,,,,,,,,,,,,,,,,,,,,,,,,,,,,,,,,,,,,,,,,,,,,,,,,,,,,,,,,,,,,,,,,,,,,,,,,,,,,,,,,,,,
52,,,,,,,,,,,,,,,,,,,,,,,,,,,,,,,,,,,,,,,,,,,,,,,,,,,,,,,,,,,,,,,,,,,,,,,,,,,,,,,,,,,,,,,,,,,,,,,,,,,,,,,,,,,,,,,,,,,,,,,,,,,,,,,,,,,,
53,,,,,,,,,,,,,,,,,,,,,,,,,,,,,,,,,,,,,,,,,,,,,,,,,,,,,,,,,,,,,,,,,,,,,,,,,,,,,,,,,,,,,,,,,,,,,,,,,,,,,,,,,,,,,,,,,,,,,,,,,,,,,,,,,,,,
54,,,,,,,,,,,,,,,,,,,,,,,,,,,,,,,,,,,,,,,,,,,,,,,,,,,,,,,,,,,,,,,,,,,,,,,,,,,,,,,,,,,,,,,,,,,,,,,,,,,,,,,,,,,,,,,,,,,,,,,,,,,,,,,,,,,,
55,,,,,,,,,,,,,,,,,,,,,,,,,,,,,,,,,,,,,,,,,,,,,,,,,,,,,,,,,,,,,,,,,,,,,,,,,,,,,,,,,,,,,,,,,,,,,,,,,,,,,,,,,,,,,,,,,,,,,,,,,,,,,,,,,,,,
56,,,,,,,,,,,,,,,,,,,,,,,,,,,,,,,,,,,,,,,,,,,,,,,,,,,,,,,,,,,,,,,,,,,,,,,,,,,,,,,,,,,,,,,,,,,,,,,,,,,,,,,,,,,,,,,,,,,,,,,,,,,,,,,,,,,,
57,,,,,,,,,,,,,,,,,,,,,,,,,,,,,,,,,,,,,,,,,,,,,,,,,,,,,,,,,,,,,,,,,,,,,,,,,,,,,,,,,,,,,,,,,,,,,,,,,,,,,,,,,,,,,,,,,,,,,,,,,,,,,,,,,,,,
58,,,,,,,,,,,,,,,,,,,,,,,,,,,,,,,,,,,,,,,,,,,,,,,,,,,,,,,,,,,,,,,,,,,,,,,,,,,,,,,,,,,,,,,,,,,,,,,,,,,,,,,,,,,,,,,,,,,,,,,,,,,,,,,,,,,,
59,,,,,,,,,,,,,,,,,,,,,,,,,,,,,,,,,,,,,,,,,,,,,,,,,,,,,,,,,,,,,,,,,,,,,,,,,,,,,,,,,,,,,,,,,,,,,,,,,,,,,,,,,,,,,,,,,,,,,,,,,,,,,,,,,,,,
60,,,,,,,,,,,,,,,,,,,,,,,,,,,,,,,,,,,,,,,,,,,,,,,,,,,,,,,,,,,,,,,,,,,,,,,,,,,,,,,,,,,,,,,,,,,,,,,,,,,,,,,,,,,,,,,,,,,,,,,,,,,,,,,,,,,,
61,,,,,,,,,,,,,,,,,,,,,,,,,,,,,,,,,,,,,,,,,,,,,,,,,,,,,,,,,,,,,,,,,,,,,,,,,,,,,,,,,,,,,,,,,,,,,,,,,,,,,,,,,,,,,,,,,,,,,,,,,,,,,,,,,,,,
62,,,,,,,,,,,,,,,,,,,,,,,,,,,,,,,,,,,,,,,,,,,,,,,,,,,,,,,,,,,,,,,,,,,,,,,,,,,,,,,,,,,,,,,,,,,,,,,,,,,,,,,,,,,,,,,,,,,,,,,,,,,,,,,,,,,,
63,,,,,,,,,,,,,,,,,,,,,,,,,,,,,,,,,,,,,,,,,,,,,,,,,,,,,,,,,,,,,,,,,,,,,,,,,,,,,,,,,,,,,,,,,,,,,,,,,,,,,,,,,,,,,,,,,,,,,,,,,,,,,,,,,,,,
64,,,,,,,,,,,,,,,,,,,,,,,,,,,,,,,,,,,,,,,,,,,,,,,,,,,,,,,,,,,,,,,,,,,,,,,,,,,,,,,,,,,,,,,,,,,,,,,,,,,,,,,,,,,,,,,,,,,,,,,,,,,,,,,,,,,,
65,,,,,,,,,,,,,,,,,,,,,,,,,,,,,,,,,,,,,,,,,,,,,,,,,,,,,,,,,,,,,,,,,,,,,,,,,,,,,,,,,,,,,,,,,,,,,,,,,,,,,,,,,,,,,,,,,,,,,,,,,,,,,,,,,,,,
66,,,,,,,,,,,,,,,,,,,,,,,,,,,,,,,,,,,,,,,,,,,,,,,,,,,,,,,,,,,,,,,,,,,,,,,,,,,,,,,,,,,,,,,,,,,,,,,,,,,,,,,,,,,,,,,,,,,,,,,,,,,,,,,,,,,,
67,,,,,,,,,,,,,,,,,,,,,,,,,,,,,,,,,,,,,,,,,,,,,,,,,,,,,,,,,,,,,,,,,,,,,,,,,,,,,,,,,,,,,,,,,,,,,,,,,,,,,,,,,,,,,,,,,,,,,,,,,,,,,,,,,,,,
68,,,,,,,,,,,,,,,,,,,,,,,,,,,,,,,,,,,,,,,,,,,,,,,,,,,,,,,,,,,,,,,,,,,,,,,,,,,,,,,,,,,,,,,,,,,,,,,,,,,,,,,,,,,,,,,,,,,,,,,,,,,,,,,,,,,,
69,,,,,,,,,,,,,,,,,,,,,,,,,,,,,,,,,,,,,,,,,,,,,,,,,,,,,,,,,,,,,,,,,,,,,,,,,,,,,,,,,,,,,,,,,,,,,,,,,,,,,,,,,,,,,,,,,,,,,,,,,,,,,,,,,,,,
70,,,,,,,,,,,,,,,,,,,,,,,,,,,,,,,,,,,,,,,,,,,,,,,,,,,,,,,,,,,,,,,,,,,,,,,,,,,,,,,,,,,,,,,,,,,,,,,,,,,,,,,,,,,,,,,,,,,,,,,,,,,,,,,,,,,,
71,,,,,,,,,,,,,,,,,,,,,,,,,,,,,,,,,,,,,,,,,,,,,,,,,,,,,,,,,,,,,,,,,,,,,,,,,,,,,,,,,,,,,,,,,,,,,,,,,,,,,,,,,,,,,,,,,,,,,,,,,,,,,,,,,,,,
72,,,,,,,,,,,,,,,,,,,,,,,,,,,,,,,,,,,,,,,,,,,,,,,,,,,,,,,,,,,,,,,,,,,,,,,,,,,,,,,,,,,,,,,,,,,,,,,,,,,,,,,,,,,,,,,,,,,,,,,,,,,,,,,,,,,,
73,,,,,,,,,,,,,,,,,,,,,,,,,,,,,,,,,,,,,,,,,,,,,,,,,,,,,,,,,,,,,,,,,,,,,,,,,,,,,,,,,,,,,,,,,,,,,,,,,,,,,,,,,,,,,,,,,,,,,,,,,,,,,,,,,,,,
74,,,,,,,,,,,,,,,,,,,,,,,,,,,,,,,,,,,,,,,,,,,,,,,,,,,,,,,,,,,,,,,,,,,,,,,,,,,,,,,,,,,,,,,,,,,,,,,,,,,,,,,,,,,,,,,,,,,,,,,,,,,,,,,,,,,,
75,,,,,,,,,,,,,,,,,,,,,,,,,,,,,,,,,,,,,,,,,,,,,,,,,,,,,,,,,,,,,,,,,,,,,,,,,,,,,,,,,,,,,,,,,,,,,,,,,,,,,,,,,,,,,,,,,,,,,,,,,,,,,,,,,,,,
76,,,,,,,,,,,,,,,,,,,,,,,,,,,,,,,,,,,,,,,,,,,,,,,,,,,,,,,,,,,,,,,,,,,,,,,,,,,,,,,,,,,,,,,,,,,,,,,,,,,,,,,,,,,,,,,,,,,,,,,,,,,,,,,,,,,,
77,,,,,,,,,,,,,,,,,,,,,,,,,,,,,,,,,,,,,,,,,,,,,,,,,,,,,,,,,,,,,,,,,,,,,,,,,,,,,,,,,,,,,,,,,,,,,,,,,,,,,,,,,,,,,,,,,,,,,,,,,,,,,,,,,,,,
78,,,,,,,,,,,,,,,,,,,,,,,,,,,,,,,,,,,,,,,,,,,,,,,,,,,,,,,,,,,,,,,,,,,,,,,,,,,,,,,,,,,,,,,,,,,,,,,,,,,,,,,,,,,,,,,,,,,,,,,,,,,,,,,,,,,,
79,,,,,,,,,,,,,,,,,,,,,,,,,,,,,,,,,,,,,,,,,,,,,,,,,,,,,,,,,,,,,,,,,,,,,,,,,,,,,,,,,,,,,,,,,,,,,,,,,,,,,,,,,,,,,,,,,,,,,,,,,,,,,,,,,,,,
80,,,,,,,,,,,,,,,,,,,,,,,,,,,,,,,,,,,,,,,,,,,,,,,,,,,,,,,,,,,,,,,,,,,,,,,,,,,,,,,,,,,,,,,,,,,,,,,,,,,,,,,,,,,,,,,,,,,,,,,,,,,,,,,,,,,,
81,,,,,,,,,,,,,,,,,,,,,,,,,,,,,,,,,,,,,,,,,,,,,,,,,,,,,,,,,,,,,,,,,,,,,,,,,,,,,,,,,,,,,,,,,,,,,,,,,,,,,,,,,,,,,,,,,,,,,,,,,,,,,,,,,,,,
82,,,,,,,,,,,,,,,,,,,,,,,,,,,,,,,,,,,,,,,,,,,,,,,,,,,,,,,,,,,,,,,,,,,,,,,,,,,,,,,,,,,,,,,,,,,,,,,,,,,,,,,,,,,,,,,,,,,,,,,,,,,,,,,,,,,,
83,,,,,,,,,,,,,,,,,,,,,,,,,,,,,,,,,,,,,,,,,,,,,,,,,,,,,,,,,,,,,,,,,,,,,,,,,,,,,,,,,,,,,,,,,,,,,,,,,,,,,,,,,,,,,,,,,,,,,,,,,,,,,,,,,,,,
84,,,,,,,,,,,,,,,,,,,,,,,,,,,,,,,,,,,,,,,,,,,,,,,,,,,,,,,,,,,,,,,,,,,,,,,,,,,,,,,,,,,,,,,,,,,,,,,,,,,,,,,,,,,,,,,,,,,,,,,,,,,,,,,,,,,,
85,,,,,,,,,,,,,,,,,,,,,,,,,,,,,,,,,,,,,,,,,,,,,,,,,,,,,,,,,,,,,,,,,,,,,,,,,,,,,,,,,,,,,,,,,,,,,,,,,,,,,,,,,,,,,,,,,,,,,,,,,,,,,,,,,,,,
86,,,,,,,,,,,,,,,,,,,,,,,,,,,,,,,,,,,,,,,,,,,,,,,,,,,,,,,,,,,,,,,,,,,,,,,,,,,,,,,,,,,,,,,,,,,,,,,,,,,,,,,,,,,,,,,,,,,,,,,,,,,,,,,,,,,,
87,,,,,,,,,,,,,,,,,,,,,,,,,,,,,,,,,,,,,,,,,,,,,,,,,,,,,,,,,,,,,,,,,,,,,,,,,,,,,,,,,,,,,,,,,,,,,,,,,,,,,,,,,,,,,,,,,,,,,,,,,,,,,,,,,,,,
88,0.22887869031458086,0.5106840811283351,0.22020080355576752,1.0205153975517083,0.29244555867722094,0.55840299906285,0.18945641435501664,0.9507923471529938,0.22330556411687663,0.5484859811167637,0.19825328849535578,0.9757435233169206,0.317864451537772,0.5416585754008056,0.14138549442251233,0.9535540497921985,0.28705226917659704,0.5213912366426554,0.1957507405244014,1.0046818566434572,0.25346969555246635,0.5400402603574538,0.14407710420062736,1.045675978674387,0.3257793500330486,0.5109319135570498,0.2207015248894293,1.0409940142237268,0.241121130674268,0.5441278202039046,0.20160772234898044,0.9543708445953537,0.33679013708610706,0.5206812307900754,0.1484798597633367,1.036406329802666,0.31442110503371423,0.5065584782707659,0.14412140746877755,1.0272767262577005,0.26462648713124015,0.5513425253753335,0.20539035868404382,0.9587270013395097,0.2841415074160871,0.5929892599054681,0.1884059594131169,0.9949801207712381,0.4361747307012107,0.5581460498902922,0.13958355847186504,1.003761893075109,0.3330675889930088,0.6625153590904748,0.2476005925819354,0.23200443563714102,0.4576104436044047,0.4616873728834141,0.20219899592980328,0.7472459446112498,0.3573335503087222,0.6703358208552969,0.35169172522409203,0.4122178977892058,0.5410606381551724,0.4542016180308769,0.17358410772110122,0.7852892009817207,0.4289550720817069,0.6230106714335263,0.29554940020265186,0.3624924337261371,0.5122138529870526,0.46009357952431,0.10209125652078282,0.8422883981686095,0.36430042764413373,0.6467973183839268,0.3439872193164656,0.3831670266427256,0.5845376215272745,0.5353615107564256,0.16042770577044885,0.8043458820478415,0.34063211066827165,0.6219292324177043,0.3591371921169564,0.3266080854778647,0.5443210640214621,0.5095417330939805,0.16995820268281844,0.7009101476072767,0.3473682216207451,0.5584153170596416,0.3540785469376601,1.0104578278298135,0.5035419341848046,0.5950362133339251,0.2881823753139108,0.991018264680008,0.45435222700388983,0.607472918956707,0.36983606758969545,0.5885707872076783,0.585240032712967,0.5546859777860595,0.3284955771121776,0.9620720342106324,0.48223865013173356,0.590421654213761,0.42930624854311167,0.6666299785056715,0.6708115675907056,0.4679297168311653,0.41481070168593104,0.8825730335838026,0.491065518822584,0.5940038680774404,0.4703323686236607,0.4167839336964183,0.6111710284641316,0.49069158885344444,0.41873385636506727,0.8124707081888161,0.6477611874818744,0.5525836012658915,0.4786338335075288,0.5102236199080397,0.6968651784005262,0.45007018673039784,0.4058910942650783,0.789791330917918
89,0.28164127291813784,0.5222256861240626,0.2278407110798167,1.0205153975517083,0.3469419818116618,0.5696554619267721,0.19930237817453972,0.9507923471529938,0.2782064218996759,0.5599129067759434,0.20848124022614317,0.975716343598903,0.3733054695733132,0.5531757424921753,0.15196362262616128,0.9535540497921985,0.33413384255244216,0.5304512618578043,0.20685508743903508,1.0046818566434572,0.3001066625772629,0.5479841289945387,0.15483778126891146,1.045662150396799,0.37206536111198907,0.517678384485242,0.2311552543722575,1.0409940142237268,0.30244924748322644,0.5524639470082564,0.20896637387400468,0.9543288829254318,0.36765216562855896,0.5236529395646421,0.1626184311706701,1.0364380394736865,0.3701448481836995,0.5190324787247149,0.14828168987880988,1.0273117737888284,0.311244519809092,0.5612497710113198,0.21129632550496685,0.9589493862691667,0.3696482999888902,0.572117918676983,0.16840272585099048,0.9951284171274393,0.4230203156890553,0.5609377526376371,0.1504312541314819,1.0042320545130976,0.3781334091119247,0.6387666036354577,0.14402160567419275,0.7485052364851483,0.3046923436356783,0.4631245600782383,0.190785268956968,0.9035643111388072,0.3187367968113064,0.6289889132396352,0.19472283164520662,0.4902055388853209,0.3430550270250269,0.4542557688506553,0.15769643853915222,0.8389946548544014,0.36296551076664085,0.5801238778200924,0.11421225614836941,0.4205256020420245,0.2999833039035134,0.457461527817996,0.08659756155683793,0.9096222752552489,0.28092797962585064,0.5975593518464513,0.16572546571277022,0.40721496761219284,0.3774582125776702,0.5209100368050859,0.14335152134138746,0.8560957075254416,0.2731973582422132,0.5738905113331095,0.18774649539492966,0.4215688644295096,0.3453631782665224,0.496511680908922,0.15118636732054166,0.8432561125158765,0.36272506355028444,0.5280941958438213,0.3226447434076641,1.009835138105845,0.44398474692699896,0.5780744599655474,0.28910732143949414,0.9904280594874421,0.27018988361164137,0.5465360507659416,0.23966843897904408,0.8598880307837281,0.4094371057770351,0.553226856081958,0.27330780928624676,0.9970838025516968,0.18164359407765518,0.512703992356156,0.18562476857097282,0.723079928247035,0.3729546577643581,0.46866294336886977,0.28128019833541285,0.9386679780608838,0.17273021765916152,0.507736635182543,0.21351107642203854,0.6557022679421002,0.29212889587307117,0.48701234314307146,0.2747383099273041,0.9478431084726296,0.27344409964326744,0.4905285499391398,0.2139608390524426,0.7729616689383436,0.34520479394621056,0.4728344522676598,0.27758756624427783,0.9528118821225994
90,0.252319067179568,0.528201707413888,0.21595416582460167,1.0205153975517083,0.3100489014117976,0.577224894185378,0.18961648227518288,0.9507923471529938,0.24120352820523433,0.5654469596247593,0.19870527700723245,0.9757451922469742,0.33615248084523675,0.5566893766970398,0.14211364789089756,0.9535540497921985,0.3005061581384525,0.5434426902330485,0.19648172275666675,1.0046818566434572,0.2666090808119911,0.5630790648885512,0.14459827746243004,1.0456797933716526,0.3387291131750316,0.53482711762428,0.22104971017004155,1.0409940142237268,0.2469939672731098,0.554035840700273,0.20604581998670662,0.9543743016647507,0.32861346010486103,0.5440388605660764,0.15526932931519222,1.0364529406348804,0.33422343890927564,0.5191216472732989,0.1399246341118358,1.0273362116931863,0.2793148101003122,0.5679812215690285,0.20216763350174988,0.9589870564046648,0.30531622329014857,0.5605446636148798,0.1729030937170304,0.9954631568124979,0.4068012109961242,0.583608617696536,0.13858752719573586,1.0042564924174553,0.29392023855207916,0.6058294345604455,0.1411224812331882,0.9298049825216778,0.3032483097711814,0.4755416977010716,0.17406608395785636,0.9854524503867015,0.22271639536070123,0.5935677205936086,0.18636052652693438,0.8588307029173033,0.3412348811812099,0.4627753587516258,0.1449556389447483,0.9065057961546028,0.27478873927615594,0.5449219110575497,0.11076479433314954,0.8415250992172412,0.29449179566967865,0.4660130956108884,0.07528341884391658,0.9645937317829588,0.19178985589037742,0.5697131346909947,0.1643354727808475,0.8528498095311381,0.3695808212576981,0.5366342487363146,0.13399578076084465,0.9245586753980612,0.18139367608141385,0.5456088822475688,0.18312802129237754,0.8429071544056296,0.3424304172238069,0.5110088120181597,0.13983826168524,0.9171568121313549,0.3453780960703316,0.531546496869212,0.3335168732138907,1.0104729674095863,0.4662352826830553,0.6045658039406145,0.28167970461172426,0.991034715561966,0.29192541729208404,0.493747822969387,0.27844369148975706,0.9750744240446839,0.4696764261937558,0.5373072303228332,0.26295932247265164,1.0011601046032412,0.2888517029672674,0.48007301234135497,0.2489460076805084,0.9431017125526076,0.4331866429420791,0.5031432468947944,0.3008894547486891,0.9532791030532546,0.2872440382786775,0.4824206948024466,0.2777066725661036,1.005690609273582,0.3468132761454295,0.533731566403951,0.29570098451530796,0.9696928003404579,0.3900724626415789,0.45176872232530924,0.2943306074197256,0.9734780120551039,0.3754198250063338,0.5104409002027642,0.31731530535785574,0.9619428964696758
91,,,,,,,,,,,,,,,,,,,,,,,,,,,,,,,,,,,,,,,,,,,,,,,,,,,,,,,,,,,,,,,,,,,,,,,,,,,,,,,,,,,,,,,,,,,,,,,,,,,,,,,,,,,,,,,,,,,,,,,,,,,,,,,,,,,,
92,,,,,,,,,,,,,,,,,,,,,,,,,,,,,,,,,,,,,,,,,,,,,,,,,,,,,,,,,,,,,,,,,,,,,,,,,,,,,,,,,,,,,,,,,,,,,,,,,,,,,,,,,,,,,,,,,,,,,,,,,,,,,,,,,,,,
93,,,,,,,,,,,,,,,,,,,,,,,,,,,,,,,,,,,,,,,,,,,,,,,,,,,,,,,,,,,,,,,,,,,,,,,,,,,,,,,,,,,,,,,,,,,,,,,,,,,,,,,,,,,,,,,,,,,,,,,,,,,,,,,,,,,,
94,,,,,,,,,,,,,,,,,,,,,,,,,,,,,,,,,,,,,,,,,,,,,,,,,,,,,,,,,,,,,,,,,,,,,,,,,,,,,,,,,,,,,,,,,,,,,,,,,,,,,,,,,,,,,,,,,,,,,,,,,,,,,,,,,,,,
95,,,,,,,,,,,,,,,,,,,,,,,,,,,,,,,,,,,,,,,,,,,,,,,,,,,,,,,,,,,,,,,,,,,,,,,,,,,,,,,,,,,,,,,,,,,,,,,,,,,,,,,,,,,,,,,,,,,,,,,,,,,,,,,,,,,,
96,,,,,,,,,,,,,,,,,,,,,,,,,,,,,,,,,,,,,,,,,,,,,,,,,,,,,,,,,,,,,,,,,,,,,,,,,,,,,,,,,,,,,,,,,,,,,,,,,,,,,,,,,,,,,,,,,,,,,,,,,,,,,,,,,,,,
97,,,,,,,,,,,,,,,,,,,,,,,,,,,,,,,,,,,,,,,,,,,,,,,,,,,,,,,,,,,,,,,,,,,,,,,,,,,,,,,,,,,,,,,,,,,,,,,,,,,,,,,,,,,,,,,,,,,,,,,,,,,,,,,,,,,,
98,,,,,,,,,,,,,,,,,,,,,,,,,,,,,,,,,,,,,,,,,,,,,,,,,,,,,,,,,,,,,,,,,,,,,,,,,,,,,,,,,,,,,,,,,,,,,,,,,,,,,,,,,,,,,,,,,,,,,,,,,,,,,,,,,,,,
99,,,,,,,,,,,,,,,,,,,,,,,,,,,,,,,,,,,,,,,,,,,,,,,,,,,,,,,,,,,,,,,,,,,,,,,,,,,,,,,,,,,,,,,,,,,,,,,,,,,,,,,,,,,,,,,,,,,,,,,,,,,,,,,,,,,,
100,,,,,,,,,,,,,,,,,,,,,,,,,,,,,,,,,,,,,,,,,,,,,,,,,,,,,,,,,,,,,,,,,,,,,,,,,,,,,,,,,,,,,,,,,,,,,,,,,,,,,,,,,,,,,,,,,,,,,,,,,,,,,,,,,,,,
101,,,,,,,,,,,,,,,,,,,,,,,,,,,,,,,,,,,,,,,,,,,,,,,,,,,,,,,,,,,,,,,,,,,,,,,,,,,,,,,,,,,,,,,,,,,,,,,,,,,,,,,,,,,,,,,,,,,,,,,,,,,,,,,,,,,,
102,,,,,,,,,,,,,,,,,,,,,,,,,,,,,,,,,,,,,,,,,,,,,,,,,,,,,,,,,,,,,,,,,,,,,,,,,,,,,,,,,,,,,,,,,,,,,,,,,,,,,,,,,,,,,,,,,,,,,,,,,,,,,,,,,,,,
103,,,,,,,,,,,,,,,,,,,,,,,,,,,,,,,,,,,,,,,,,,,,,,,,,,,,,,,,,,,,,,,,,,,,,,,,,,,,,,,,,,,,,,,,,,,,,,,,,,,,,,,,,,,,,,,,,,,,,,,,,,,,,,,,,,,,
104,,,,,,,,,,,,,,,,,,,,,,,,,,,,,,,,,,,,,,,,,,,,,,,,,,,,,,,,,,,,,,,,,,,,,,,,,,,,,,,,,,,,,,,,,,,,,,,,,,,,,,,,,,,,,,,,,,,,,,,,,,,,,,,,,,,,
105,,,,,,,,,,,,,,,,,,,,,,,,,,,,,,,,,,,,,,,,,,,,,,,,,,,,,,,,,,,,,,,,,,,,,,,,,,,,,,,,,,,,,,,,,,,,,,,,,,,,,,,,,,,,,,,,,,,,,,,,,,,,,,,,,,,,
106,,,,,,,,,,,,,,,,,,,,,,,,,,,,,,,,,,,,,,,,,,,,,,,,,,,,,,,,,,,,,,,,,,,,,,,,,,,,,,,,,,,,,,,,,,,,,,,,,,,,,,,,,,,,,,,,,,,,,,,,,,,,,,,,,,,,
107,,,,,,,,,,,,,,,,,,,,,,,,,,,,,,,,,,,,,,,,,,,,,,,,,,,,,,,,,,,,,,,,,,,,,,,,,,,,,,,,,,,,,,,,,,,,,,,,,,,,,,,,,,,,,,,,,,,,,,,,,,,,,,,,,,,,
108,,,,,,,,,,,,,,,,,,,,,,,,,,,,,,,,,,,,,,,,,,,,,,,,,,,,,,,,,,,,,,,,,,,,,,,,,,,,,,,,,,,,,,,,,,,,,,,,,,,,,,,,,,,,,,,,,,,,,,,,,,,,,,,,,,,,
109,,,,,,,,,,,,,,,,,,,,,,,,,,,,,,,,,,,,,,,,,,,,,,,,,,,,,,,,,,,,,,,,,,,,,,,,,,,,,,,,,,,,,,,,,,,,,,,,,,,,,,,,,,,,,,,,,,,,,,,,,,,,,,,,,,,,
110,,,,,,,,,,,,,,,,,,,,,,,,,,,,,,,,,,,,,,,,,,,,,,,,,,,,,,,,,,,,,,,,,,,,,,,,,,,,,,,,,,,,,,,,,,,,,,,,,,,,,,,,,,,,,,,,,,,,,,,,,,,,,,,,,,,,
111,,,,,,,,,,,,,,,,,,,,,,,,,,,,,,,,,,,,,,,,,,,,,,,,,,,,,,,,,,,,,,,,,,,,,,,,,,,,,,,,,,,,,,,,,,,,,,,,,,,,,,,,,,,,,,,,,,,,,,,,,,,,,,,,,,,,
