frame,NOSE.x,NOSE.y,NOSE.z,NOSE.v,LEFT_EYE_INNER.x,LEFT_EYE_INNER.y,LEFT_EYE_INNER.z,LEFT_EYE_INNER.v,LEFT_EYE.x,LEFT_EYE.y,LEFT_EYE.z,LEFT_EYE.v,LEFT_EYE_OUTER.x,LEFT_EYE_OUTER.y,LEFT_EYE_OUTER.z,LEFT_EYE_OUTER.v,RIGHT_EYE_INNER.x,RIGHT_EYE_INNER.y,RIGHT_EYE_INNER.z,RIGHT_EYE_INNER.v,RIGHT_EYE.x,RIGHT_EYE.y,RIGHT_EYE.z,RIGHT_EYE.v,RIGHT_EYE_OUTER.x,RIGHT_EYE_OUTER.y,RIGHT_EYE_OUTER.z,RIGHT_EYE_OUTER.v,LEFT_EAR.x,LEFT_EAR.y,LEFT_EAR.z,LEFT_EAR.v,RIGHT_EAR.x,RIGHT_EAR.y,RIGHT_EAR.z,RIGHT_EAR.v,MOUTH_LEFT.x,MOUTH_LEFT.y,MOUTH_LEFT.z,MOUTH_LEFT.v,MOUTH_RIGHT.x,MOUTH_RIGHT.y,MOUTH_RIGHT.z,MOUTH_RIGHT.v,LEFT_SHOULDER.x,LEFT_SHOULDER.y,LEFT_SHOULDER.z,LEFT_SHOULDER.v,RIGHT_SHOULDER.x,RIGHT_SHOULDER.y,RIGHT_SHOULDER.z,RIGHT_SHOULDER.v,LEFT_ELBOW.x,LEFT_ELBOW.y,LEFT_ELBOW.z,LEFT_ELBOW.v,RIGHT_ELBOW.x,RIGHT_ELBOW.y,RIGHT_ELBOW.z,RIGHT_ELBOW.v,LEFT_WRIST.x,LEFT_WRIST.y,LEFT_WRIST.z,LEFT_WRIST.v,RIGHT_WRIST.x,RIGHT_WRIST.y,RIGHT_WRIST.z,RIGHT_WRIST.v,LEFT_PINKY.x,LEFT_PINKY.y,LEFT_PINKY.z,LEFT_PINKY.v,RIGHT_PINKY.x,RIGHT_PINKY.y,RIGHT_PINKY.z,RIGHT_PINKY.v,LEFT_INDEX.x,LEFT_INDEX.y,LEFT_INDEX.z,LEFT_INDEX.v,RIGHT_INDEX.x,RIGHT_INDEX.y,RIGHT_INDEX.z,RIGHT_INDEX.v,LEFT_THUMB.x,LEFT_THUMB.y,LEFT_THUMB.z,LEFT_THUMB.v,RIGHT_THUMB.x,RIGHT_THUMB.y,RIGHT_THUMB.z,RIGHT_THUMB.v,LEFT_HIP.x,LEFT_HIP.y,LEFT_HIP.z,LEFT_HIP.v,RIGHT_HIP.x,RIGHT_HIP.y,RIGHT_HIP.z,RIGHT_HIP.v,LEFT_KNEE.x,LEFT_KNEE.y,LEFT_KNEE.z,LEFT_KNEE.v,RIGHT_KNEE.x,RIGHT_KNEE.y,RIGHT_KNEE.z,RIGHT_KNEE.v,LEFT_ANKLE.x,LEFT_ANKLE.y,LEFT_ANKLE.z,LEFT_ANKLE.v,RIGHT_ANKLE.x,RIGHT_ANKLE.y,RIGHT_ANKLE.z,RIGHT_ANKLE.v,LEFT_HEEL.x,LEFT_HEEL.y,LEFT_HEEL.z,LEFT_HEEL.v,RIGHT_HEEL.x,RIGHT_HEEL.y,RIGHT_HEEL.z,RIGHT_HEEL.v,LEFT_FOOT_INDEX.x,LEFT_FOOT_INDEX.y,LEFT_FOOT_INDEX.z,LEFT_FOOT_INDEX.v,RIGHT_FOOT_INDEX.x,RIGHT_FOOT_INDEX.y,RIGHT_FOOT_INDEX.z,RIGHT_FOOT_INDEX.v
0,,,,,,,,,,,,,,,,,,,,,,,,,,,,,,,,,,,,,,,,,,,,,,,,,,,,,,,,,,,,,,,,,,,,,,,,,,,,,,,,,,,,,,,,,,,,,,,,,,,,,,,,,,,,,,,,,,,,,,,,,,,,,,,,,,,,
1,,,,,,,,,,,,,,,,,,,,,,,,,,,,,,,,,,,,,,,,,,,,,,,,,,,,,,,,,,,,,,,,,,,,,,,,,,,,,,,,,,,,,,,,,,,,,,,,,,,,,,,,,,,,,,,,,,,,,,,,,,,,,,,,,,,,
2,,,,,,,,,,,,,,,,,,,,,,,,,,,,,,,,,,,,,,,,,,,,,,,,,,,,,,,,,,,,,,,,,,,,,,,,,,,,,,,,,,,,,,,,,,,,,,,,,,,,,,,,,,,,,,,,,,,,,,,,,,,,,,,,,,,,
3,,,,,,,,,,,,,,,,,,,,,,,,,,,,,,,,,,,,,,,,,,,,,,,,,,,,,,,,,,,,,,,,,,,,,,,,,,,,,,,,,,,,,,,,,,,,,,,,,,,,,,,,,,,,,,,,,,,,,,,,,,,,,,,,,,,,
4,,,,,,,,,,,,,,,,,,,,,,,,,,,,,,,,,,,,,,,,,,,,,,,,,,,,,,,,,,,,,,,,,,,,,,,,,,,,,,,,,,,,,,,,,,,,,,,,,,,,,,,,,,,,,,,,,,,,,,,,,,,,,,,,,,,,
5,,,,,,,,,,,,,,,,,,,,,,,,,,,,,,,,,,,,,,,,,,,,,,,,,,,,,,,,,,,,,,,,,,,,,,,,,,,,,,,,,,,,,,,,,,,,,,,,,,,,,,,,,,,,,,,,,,,,,,,,,,,,,,,,,,,,
6,,,,,,,,,,,,,,,,,,,,,,,,,,,,,,,,,,,,,,,,,,,,,,,,,,,,,,,,,,,,,,,,,,,,,,,,,,,,,,,,,,,,,,,,,,,,,,,,,,,,,,,,,,,,,,,,,,,,,,,,,,,,,,,,,,,,
7,,,,,,,,,,,,,,,,,,,,,,,,,,,,,,,,,,,,,,,,,,,,,,,,,,,,,,,,,,,,,,,,,,,,,,,,,,,,,,,,,,,,,,,,,,,,,,,,,,,,,,,,,,,,,,,,,,,,,,,,,,,,,,,,,,,,
8,,,,,,,,,,,,,,,,,,,,,,,,,,,,,,,,,,,,,,,,,,,,,,,,,,,,,,,,,,,,,,,,,,,,,,,,,,,,,,,,,,,,,,,,,,,,,,,,,,,,,,,,,,,,,,,,,,,,,,,,,,,,,,,,,,,,
9,,,,,,,,,,,,,,,,,,,,,,,,,,,,,,,,,,,,,,,,,,,,,,,,,,,,,,,,,,,,,,,,,,,,,,,,,,,,,,,,,,,,,,,,,,,,,,,,,,,,,,,,,,,,,,,,,,,,,,,,,,,,,,,,,,,,
10,,,,,,,,,,,,,,,,,,,,,,,,,,,,,,,,,,,,,,,,,,,,,,,,,,,,,,,,,,,,,,,,,,,,,,,,,,,,,,,,,,,,,,,,,,,,,,,,,,,,,,,,,,,,,,,,,,,,,,,,,,,,,,,,,,,,
11,0.28885204260131664,0.31616674349484747,0.23436797806655318,0.9642535989754303,0.24822562678320614,0.3181425324842461,0.18111173385075047,1.0374406375721603,0.27340584730864836,0.36550428119836076,0.2555797114253966,0.9662526102271551,0.25636468880590224,0.3208071420985581,0.2338926226450808,1.0100200787465512,0.30916042755744017,0.3131973505868223,0.28726263662622153,1.0231430367788656,0.30131931811389967,0.34613520698686184,0.21534526611639762,1.0495222624883167,0.2723134592738577,0.35457730076336297,0.23121270248718914,0.9553290832100897,0.2990386867175805,0.38140041061251057,0.2469537706721562,0.9872583717258652,0.2930530008722714,0.3164067682784188,0.299331326108316,1.0177099283334843,0.2965308076025338,0.34282536511779516,0.24247104305881492,1.023719545475156,0.31258031775470974,0.4120583609812664,0.1907994789987258,0.9782344781051996,0.28135660928723927,0.38201996860646276,0.19188053082067152,0.9833963519788678,0.31608068654526494,0.3753009290649891,0.29513992650999715,1.0150557443246369,0.19081976081881596,0.49934772433597713,0.1556082688352518,0.07230233566744781,0.32672022474358947,0.49791793130078926,0.23927432856429598,0.7919254860164353,0.234742964438881,0.5344450783089469,0.15707895470571762,0.07620334231694369,0.32707458428365477,0.6087287405150769,0.3001205230460905,0.769308337865904,0.19813039930048618,0.5171555142110505,0.1800980246538645,0.07583286666023878,0.3501662615238631,0.593645963780461,0.2767494040146797,0.6586841037710778,0.26238094189651545,0.573776738750119,0.17321556903135224,0.03145570251212106,0.30366338479869753,0.5765097898819772,0.3181256519006306,0.6772868911766298,0.22082132937425653,0.5274299361311948,0.16819564660673694,0.009566832201786862,0.3144108719789598,0.5321170558896011,0.25547976562375196,0.5870706288430432,0.18574984149076454,0.6041713519444809,0.10335621787619209,0.9747058714100633,0.20652601073324015,0.5784280636280374,0.1719983379825463,0.954599074874066,0.12762021704245197,0.7058037759248277,0.062270370610507386,0.8526062457511332,0.2488645493234813,0.6432148900534739,0.13336602284474933,0.8372276182027992,0.09033320805159445,0.7254208556293564,-0.030133720562676665,0.8793567276555563,0.1946650322342102,0.8072650499181795,0.04734517205839731,0.8638085037429364,0.10074809212568347,0.7774874675942679,-0.08666718912584266,0.9387336085903674,0.21238916696088722,0.7562469695931993,0.025637595526425173,0.8610076131931546,0.07628923618681654,0.7978039488167286,-0.012785975801196208,0.6046822279756185,0.2384895070650145,0.7567262468046813,0.1202927230134509,0.5602966405100391
12,0.31019221351841736,0.3268399982231648,0.2875174124923343,0.9642535989754303,0.27252749216889843,0.3300990454122551,0.23908395609600197,1.0374406375721603,0.2978573793049357,0.3781517907732509,0.3137001241223865,0.9662931413856024,0.28096492200164963,0.3340352009135606,0.29213439395246815,1.0100200787465512,0.3295884732866112,0.32345095881359837,0.3372947033216482,1.0231430367788656,0.3222383430200179,0.3559920568956906,0.26563562111518174,1.049559336577367,0.29364921981219694,0.36402764699482354,0.2816026114010606,0.9553290832100897,0.33170511789497703,0.39478898473589313,0.3176366606024076,0.9872762531192978,0.3089344286742482,0.3274285611670602,0.3345351349344187,1.0177515323755375,0.32129653346455916,0.3559488177812168,0.3006058533605123,1.0239356123124668,0.3325752110070395,0.4232741669886517,0.238653932787596,0.9787084542404534,0.3187619746187932,0.4047726112379936,0.2710809806546294,0.9851287609792646,0.32359125064686084,0.3867466897919178,0.30297416268719163,1.0152326509103304,0.2339673487084642,0.5308213907654968,0.2707768158564232,0.986055830287771,0.33550194172525527,0.503292690736443,0.24727737377176312,0.9572431406261153,0.2962452900978094,0.5889262270287345,0.3272909037853217,0.9982374829932037,0.3403391065802006,0.615930590929353,0.32881270830065873,0.9470346066342146,0.2659864807455206,0.5781399469083467,0.368103103634878,0.9512348925386682,0.3641571439657519,0.5971140004320723,0.30790642810121854,0.853424935623037,0.32832794953150607,0.6330986190906952,0.35979240047710975,0.9140051523135662,0.31632659606607877,0.5832565588333932,0.3520879964909056,0.885376898481775,0.278698798025855,0.5845299341284788,0.33639045337579804,0.8678013755551061,0.32471954939646464,0.5417268743481582,0.2846938697782876,0.8497510401818493,0.19049529299744708,0.621604041611229,0.11621390541496456,0.9748963082501205,0.2039160072121504,0.5943822600811319,0.16024659174945788,0.9547824783660398,0.13626360705889407,0.7263930083695909,0.08093499588295185,1.0201822607467081,0.2507824778650334,0.66063083081504,0.12324204303348076,0.9511833543630775,0.09063629374606355,0.7479273906826096,-0.025755848617585633,0.9653941846448446,0.18474729804380496,0.8301753468351412,0.022936845435221308,0.9827561885077987,0.10148541621765647,0.7987259138299246,-0.08183531508820972,1.0038384507763416,0.20741063374251786,0.7815161799317918,0.005219596864760806,0.9777847352138758,0.07972016798124248,0.8214745029778003,0.008669927038198046,0.8728128284280416,0.24770782542119243,0.7700801310248045,0.12332796584291723,0.8244983411974476
13,,,,,,,,,,,,,,,,,,,,,,,,,,,,,,,,,,,,,,,,,,,,,,,,,,,,,,,,,,,,,,,,,,,,,,,,,,,,,,,,,,,,,,,,,,,,,,,,,,,,,,,,,,,,,,,,,,,,,,,,,,,,,,,,,,,,
14,,,,,,,,,,,,,,,,,,,,,,,,,,,,,,,,,,,,,,,,,,,,,,,,,,,,,,,,,,,,,,,,,,,,,,,,,,,,,,,,,,,,,,,,,,,,,,,,,,,,,,,,,,,,,,,,,,,,,,,,,,,,,,,,,,,,
15,,,,,,,,,,,,,,,,,,,,,,,,,,,,,,,,,,,,,,,,,,,,,,,,,,,,,,,,,,,,,,,,,,,,,,,,,,,,,,,,,,,,,,,,,,,,,,,,,,,,,,,,,,,,,,,,,,,,,,,,,,,,,,,,,,,,
16,,,,,,,,,,,,,,,,,,,,,,,,,,,,,,,,,,,,,,,,,,,,,,,,,,,,,,,,,,,,,,,,,,,,,,,,,,,,,,,,,,,,,,,,,,,,,,,,,,,,,,,,,,,,,,,,,,,,,,,,,,,,,,,,,,,,
17,,,,,,,,,,,,,,,,,,,,,,,,,,,,,,,,,,,,,,,,,,,,,,,,,,,,,,,,,,,,,,,,,,,,,,,,,,,,,,,,,,,,,,,,,,,,,,,,,,,,,,,,,,,,,,,,,,,,,,,,,,,,,,,,,,,,
18,0.5665688961272647,0.3216979651230366,0.7259212787565538,0.9642535989754303,0.5198120094105724,0.3252708605691918,0.6469215846200007,1.0374406375721603,0.5497883808983045,0.3744254871958278,0.7241135762894242,0.9635764808860295,0.537485146459103,0.33152748449624797,0.7051027958244056,1.0100200787465512,0.5615745138137935,0.31637839087384007,0.7333850671144222,1.0231430367788656,0.5497457924329573,0.34774390654702725,0.6591684204720594,1.043377202425908,0.5167366260883273,0.35486075065159234,0.6728015573204275,0.9553290832100897,0.5072089211329752,0.39556682535021204,0.5648278972883458,0.9853221744449814,0.43772567574240373,0.3180616614382852,0.550498463622606,1.0006419594881168,0.553352044184942,0.35613755588889806,0.6844242017410859,1.0068541132127355,0.5486962799221045,0.41905338327817193,0.6112367059149769,0.9468200884949091,0.5078980606254732,0.38313010511540446,0.5137795452779566,0.9689336425519878,0.3904202806274397,0.38181985926175116,0.4709220188445056,0.7796396299943453,0.5143265040200817,0.35764513196308284,0.6758221539189158,0.9613805206297205,0.4853667210518202,0.3926620294872822,0.580975541092644,0.9756323060275742,0.5942426962254767,0.28465980404175023,0.7643552613231888,0.9574776215239349,0.5641988602160241,0.38047373682435726,0.7702259136460917,0.9380510541783124,0.5760301603665839,0.23539288446365977,0.8282556097358269,0.8774080430780664,0.6138327624098678,0.3272760249300581,0.7907094128518677,0.7591011813124291,0.6252750430719916,0.2929372657410094,0.795737720969155,0.8113765636371135,0.5523833465502327,0.30770681923416526,0.8070395817699725,0.7762934247993715,0.5714266390571291,0.25790759702558874,0.7671670503186707,0.7878406717053136,0.5559288309240391,0.2770836224522537,0.7268623861406842,0.7631918041321972,0.24417987005343997,0.6460442109456406,0.14631928471413227,0.9746996725270065,0.18147283334131875,0.6254788973301249,0.14860664189215636,0.9542398972846494,0.42882820692645657,0.7184409142915269,0.49945118343722367,1.0249845473716166,0.30709031315285645,0.6607819285895457,0.362929331366123,0.9460471029134926,0.31914292870641275,0.7805166474460679,0.2591422020020676,0.9613301611501242,0.16067980422838674,0.8571158714132356,0.14333069772074206,0.9716945201118024,0.31417356144904507,0.8255823958588858,0.1840026231855217,0.9585220526325734,0.17708180211683483,0.8053152417069993,0.11670809167409148,0.8440524163357022,0.36140258645092505,0.9111950501770496,0.36672139957543126,0.9212953656976339,0.2271907715864112,0.839072566956964,0.2938923180258258,0.9120270467943716
19,,,,,,,,,,,,,,,,,,,,,,,,,,,,,,,,,,,,,,,,,,,,,,,,,,,,,,,,,,,,,,,,,,,,,,,,,,,,,,,,,,,,,,,,,,,,,,,,,,,,,,,,,,,,,,,,,,,,,,,,,,,,,,,,,,,,
20,,,,,,,,,,,,,,,,,,,,,,,,,,,,,,,,,,,,,,,,,,,,,,,,,,,,,,,,,,,,,,,,,,,,,,,,,,,,,,,,,,,,,,,,,,,,,,,,,,,,,,,,,,,,,,,,,,,,,,,,,,,,,,,,,,,,
21,,,,,,,,,,,,,,,,,,,,,,,,,,,,,,,,,,,,,,,,,,,,,,,,,,,,,,,,,,,,,,,,,,,,,,,,,,,,,,,,,,,,,,,,,,,,,,,,,,,,,,,,,,,,,,,,,,,,,,,,,,,,,,,,,,,,
22,,,,,,,,,,,,,,,,,,,,,,,,,,,,,,,,,,,,,,,,,,,,,,,,,,,,,,,,,,,,,,,,,,,,,,,,,,,,,,,,,,,,,,,,,,,,,,,,,,,,,,,,,,,,,,,,,,,,,,,,,,,,,,,,,,,,
23,,,,,,,,,,,,,,,,,,,,,,,,,,,,,,,,,,,,,,,,,,,,,,,,,,,,,,,,,,,,,,,,,,,,,,,,,,,,,,,,,,,,,,,,,,,,,,,,,,,,,,,,,,,,,,,,,,,,,,,,,,,,,,,,,,,,
24,,,,,,,,,,,,,,,,,,,,,,,,,,,,,,,,,,,,,,,,,,,,,,,,,,,,,,,,,,,,,,,,,,,,,,,,,,,,,,,,,,,,,,,,,,,,,,,,,,,,,,,,,,,,,,,,,,,,,,,,,,,,,,,,,,,,
25,,,,,,,,,,,,,,,,,,,,,,,,,,,,,,,,,,,,,,,,,,,,,,,,,,,,,,,,,,,,,,,,,,,,,,,,,,,,,,,,,,,,,,,,,,,,,,,,,,,,,,,,,,,,,,,,,,,,,,,,,,,,,,,,,,,,
26,,,,,,,,,,,,,,,,,,,,,,,,,,,,,,,,,,,,,,,,,,,,,,,,,,,,,,,,,,,,,,,,,,,,,,,,,,,,,,,,,,,,,,,,,,,,,,,,,,,,,,,,,,,,,,,,,,,,,,,,,,,,,,,,,,,,
27,,,,,,,,,,,,,,,,,,,,,,,,,,,,,,,,,,,,,,,,,,,,,,,,,,,,,,,,,,,,,,,,,,,,,,,,,,,,,,,,,,,,,,,,,,,,,,,,,,,,,,,,,,,,,,,,,,,,,,,,,,,,,,,,,,,,
28,0.5272750717575138,0.5763522534149678,0.5305073105353096,0.9642535989754303,0.4873818796365328,0.5984937242433557,0.4693730220639764,1.0374406375721603,0.5136426912869285,0.6486578151339076,0.5445401630220583,0.9662809820380683,0.49749055924525365,0.6068683992225054,0.5234509468986936,1.0100200787465512,0.5301655603705049,0.5879811108960417,0.5435493681775351,1.0231430367788656,0.5219405480406438,0.6196306427015835,0.47134461126522403,1.0495016392812244,0.49250009149241625,0.6266857959988061,0.48694350571151096,0.9553290832100897,0.5125124334914166,0.6675039572319259,0.48154696481781334,0.987261113539525,0.427780666092247,0.5846191463034738,0.38933838515486835,1.0174782450792421,0.5242318020652238,0.5949573338544437,0.5215180068896383,1.0239090286408972,0.5180893390000647,0.6570370272868085,0.4276928592075952,0.978526242841375,0.5092932642670412,0.5946085172667411,0.4746953250674418,0.9858763224340374,0.35671968860311964,0.5647390336945057,0.24518122605045722,1.014137832795096,0.4363020025954635,0.5699396211083618,0.5223961318350233,1.008992591667013,0.3194301172392359,0.5378145685020985,0.13740663270291392,0.07924551873223265,0.49580057928561927,0.47297886126793126,0.5649832049648389,0.9537671131773773,0.36564877837069826,0.5274011829512951,0.30645126912410053,0.08401045381887254,0.46813347391717064,0.41998736664711617,0.6131968529106003,0.8592665349756494,0.38622362996234666,0.4715588725729567,0.2841149808071062,0.028359717710839782,0.5327550253359689,0.47728850136913753,0.6017408787687927,0.8161107817576885,0.3503140066910285,0.4557487530091134,0.3455796198785863,0.05318161649935318,0.4770866189979126,0.44538932820196503,0.5683630712956049,0.7384392096272191,0.3583306635965043,0.4290140142407364,0.2739300765516263,0.04083249329659733,0.3052218655844369,0.5483341975560532,0.23807506036175063,0.9745675290295397,0.2207617634152341,0.5195492842167215,0.11488250537179426,0.954435579333447,0.33715143640624107,0.46875184192099767,0.33145806261750477,0.7850301949927714,0.2949818003743163,0.39376909404059546,0.13672636965990925,0.1507498527618583,0.3011236367325104,0.3110025457023697,0.20880441097629368,0.2362012720662618,0.2034769097603054,0.3837650186853455,0.01685260446446233,0.0771436005790265,0.30673996148942595,0.3349888134671469,0.145854425465482,0.27805855976224253,0.21445408349122574,0.3054197882539353,-0.0089472650172289,0.15304995800173293,0.30698124312359554,0.33585272282071105,0.2522299369871158,0.20962797702003685,0.2585878123585517,0.27172501060434856,0.1101430697177922,0.1039109088129566
29,,,,,,,,,,,,,,,,,,,,,,,,,,,,,,,,,,,,,,,,,,,,,,,,,,,,,,,,,,,,,,,,,,,,,,,,,,,,,,,,,,,,,,,,,,,,,,,,,,,,,,,,,,,,,,,,,,,,,,,,,,,,,,,,,,,,
30,0.3721212494289007,0.5951430349129231,0.2698096285028065,0.9642535989754303,0.34387453130551693,0.6147432617113122,0.22975397010633342,1.0374406375721603,0.37404307150078037,0.661780552541592,0.307167783190986,0.9660013766494268,0.36185053098597547,0.6166044603186968,0.2884141379951405,1.0100200787465512,0.3984799454272588,0.6090022385968473,0.3392453105444915,1.0231430367788656,0.3877729717165894,0.6418930967344815,0.2656777178988699,1.0493582901105396,0.355859611701317,0.6499577142956201,0.27987813359622743,0.9553290832100897,0.4235679135100125,0.6569336099228134,0.32327658463529996,0.9871638387592513,0.40573404502974475,0.5926779326956857,0.4042368248331305,1.0174901660081974,0.3910246714884824,0.599361342242963,0.28768645185645325,1.0228171311532566,0.4026672981713991,0.6688525156252789,0.24264124037131296,0.9768070660721186,0.4623697126774545,0.5443146544470695,0.3125033408203598,0.9766206747747358,0.40842879022413986,0.5361004919960499,0.40125593990836017,1.0096094295129305,0.37747160141549807,0.6594597774918762,0.26820363265492636,0.5204396040914819,0.36930973353025076,0.619866918546349,0.27488338836929427,0.43014975993649446,0.4027702680087021,0.7236522149399589,0.23871407219457114,0.748933724848825,0.33033235446703557,0.7406638601439831,0.25416691586325646,0.22824632555110755,0.3753239882912606,0.7074233751004854,0.27570453795890537,0.7505049859796777,0.3491883652334074,0.7234144545717818,0.23097634588508614,0.205407916589605,0.43197968689200134,0.769820349322934,0.26701150278042324,0.7044585266993999,0.3030985896047137,0.7082012457230417,0.26235487769909727,0.21782932980291908,0.3785438925861373,0.7237508871161497,0.2459819191137464,0.642498083280631,0.32445945463059767,0.6667135229077286,0.20977680749711383,0.19554856403801232,0.2699879520511899,0.42453552917150106,0.13068214203060427,0.9729390705296311,0.25863039569163165,0.41591626786883634,0.22428818079900437,0.9505751057006346,0.10711586166597019,0.5045244933549423,-0.14767424189944076,0.040026696833422394,0.15143038770384454,0.48297465710898535,-0.08469285029406366,0.0007427370848591894,-0.07014732173775365,0.4325866333126145,-0.510702628267237,-0.002877467591736318,-0.07235130757365899,0.5564545459585237,-0.44670425419495924,0.025271674055281405,-0.07987084353781068,0.4657715070916434,-0.6021188619509062,0.05342603394568268,-0.06992295483405593,0.48354826916519017,-0.4980014178053219,0.04419904674208172,-0.11267124859023217,0.5149574682087421,-0.5522633648303548,0.03186365068603726,-0.07418155222400137,0.5150430020994811,-0.44058702913959236,0.038593816349582505
31,0.3658356722556606,0.5640279798286946,0.2547496826824431,0.9642535989754303,0.3282083066215765,0.5853043488428125,0.19677315352682118,1.0374406375721603,0.35793495037998724,0.6334539219492458,0.2739012155581985,0.9662756176200383,0.34532515658281393,0.5895009170371416,0.2548637134303031,1.0100200787465512,0.3870574322265384,0.5772340358151701,0.3117707576460534,1.0231430367788656,0.3772971403133097,0.6096338112844998,0.23868290985585794,1.049544673834752,0.34633018177121083,0.6173335888149682,0.25344295515009957,0.9553290832100897,0.3924470566341367,0.6349431914886703,0.2574316110237677,0.9872589677723129,0.38807720195130324,0.5636656698744882,0.3564147741819871,1.0177270944711794,0.38067351199351224,0.570801657489545,0.26301841988553293,1.0238413177644323,0.3966588048619895,0.6381355599635052,0.22451128168146278,0.9785581313263298,0.4360164735366411,0.5312825757040885,0.2554584343805732,0.9817227131582196,0.42570871279239153,0.5147229881241322,0.40477110710359027,1.0097481891259676,0.3573275532335093,0.6341359096940247,0.2677602376635905,0.710862377452688,0.46137496785959686,0.5952684988800587,0.43157591432501907,0.916874881673021,0.407972809202071,0.6909581732109855,0.31474480924435705,0.6960127873106781,0.4870125674215918,0.7251099088805554,0.5343209812856644,0.8598265144215376,0.37979201972576915,0.679573939294211,0.3609641526260711,0.6436805879389063,0.5174719245448443,0.7098721600695235,0.5331071981428049,0.7727568438490502,0.4408353763762089,0.7338159252277802,0.3574472550939176,0.5884921470569133,0.4741875200772125,0.6908686918595163,0.5693577311211645,0.7839515487694032,0.3841804806433534,0.6863377668463743,0.325466487710879,0.5677433683148106,0.48361295244919883,0.6486896147694534,0.4950326766671691,0.762153729638789,0.28031630733960017,0.41533459857610316,0.1316950241123308,0.9744290078350817,0.2811520521322716,0.3935173788040476,0.24214508461398515,0.9537340922690856,0.16730394870517284,0.5360974313203354,-0.044101695237933794,0.3953081457564738,0.22732171644473873,0.4900583115126719,0.03822733339540208,0.4597195441576179,0.062449011755984295,0.5117622247814255,-0.28575972465540145,0.3737047768193746,0.061147870953575566,0.6079444355802583,-0.2152323393619929,0.4063604086596997,0.0635081895599823,0.5498873699380179,-0.36019598442790746,0.3936934779751331,0.06836749812279296,0.5409452771073899,-0.25377773424170474,0.38465912367022054,0.037133534113062965,0.6012598976463794,-0.29516022218288673,0.5649285525148031,0.08208600147418448,0.5734524545378356,-0.17340534591304108,0.6136267043299244
32,,,,,,,,,,,,,,,,,,,,,,,,,,,,,,,,,,,,,,,,,,,,,,,,,,,,,,,,,,,,,,,,,,,,,,,,,,,,,,,,,,,,,,,,,,,,,,,,,,,,,,,,,,,,,,,,,,,,,,,,,,,,,,,,,,,,
33,0.5057018556884684,0.3138262777107746,0.5560222767638509,0.9642535989754303,0.4697879269771561,0.3163464359209069,0.5092172111830506,1.0374406375721603,0.49721686384608665,0.3636091813200496,0.585106341918746,0.9662207813468452,0.4823655738449436,0.3187367151576402,0.5647493732619624,1.0100200787465512,0.5111121224602859,0.31139603861706516,0.5823679656469786,1.0231430367788656,0.5025295186637317,0.34458700614114346,0.5099313704411386,1.0494204577550403,0.4727482180162519,0.3532954432728235,0.525241433723371,0.9553290832100897,0.5267514624072647,0.37745857663957966,0.5693087482248214,0.9872390598209579,0.43530349695536136,0.313880663828193,0.47123741851990125,1.017390209018909,0.5182081173199066,0.3416124403989384,0.5632123248172729,1.0239050947343418,0.509421779978476,0.411478497194569,0.4677110457929038,0.9784747444282892,0.5609333376574783,0.37982323942326573,0.566030214438806,0.9859087473607953,0.3935606191279431,0.37487424921536444,0.3289943906094317,1.015126614247275,0.5073124358121193,0.5095712024148193,0.5879232461847862,1.0105446370123194,0.38150604452626335,0.49844513438382765,0.21647485800091726,0.4402812978507705,0.5637713343571692,0.567439348633654,0.613120275858563,0.9965313000365081,0.41765278962807567,0.6174493172782299,0.3543196493055501,0.4418634268627911,0.5458689116311944,0.5552282790845552,0.6715790261605407,0.9114807402406946,0.4392673352579974,0.605671200863896,0.32770678107942114,0.3026260426481835,0.6053387804887821,0.6091215182415436,0.6611008622297605,0.8591934362338542,0.4064805301438324,0.5877751869538156,0.39710559005943663,0.34639182491533826,0.5424019456831127,0.5619212367140806,0.6169681850205948,0.8064596726170262,0.4121884000168437,0.5423452129330582,0.3232717971594697,0.3392720071885326,0.3865114559786336,0.607469872986351,0.29533036239177635,0.9748697245785509,0.2706154841081245,0.5818972327678995,0.13362479736312805,0.9547220392562377,0.390784076290491,0.7319787980500718,0.36332341335448143,1.0315336673209574,0.2891539184984646,0.667031833222114,0.08816375458064643,0.7205192203375038,0.3933827398475239,0.7792560688137131,0.30046402166882324,0.9770881391126179,0.21167280792286777,0.8488650984602022,-0.03524417327655079,0.7511557251174481,0.4147181986014264,0.8384013879967948,0.25587811704227187,0.9805702279675037,0.23674837149544722,0.8054233049279771,-0.05041410814982334,0.8051292123905422,0.411042393918444,0.8579726919502735,0.39517299512409365,0.9537474125688192,0.25306701524911723,0.7977670845694212,0.0699706368738584,0.7416529513544605
34,,,,,,,,,,,,,,,,,,,,,,,,,,,,,,,,,,,,,,,,,,,,,,,,,,,,,,,,,,,,,,,,,,,,,,,,,,,,,,,,,,,,,,,,,,,,,,,,,,,,,,,,,,,,,,,,,,,,,,,,,,,,,,,,,,,,
35,,,,,,,,,,,,,,,,,,,,,,,,,,,,,,,,,,,,,,,,,,,,,,,,,,,,,,,,,,,,,,,,,,,,,,,,,,,,,,,,,,,,,,,,,,,,,,,,,,,,,,,,,,,,,,,,,,,,,,,,,,,,,,,,,,,,
36,,,,,,,,,,,,,,,,,,,,,,,,,,,,,,,,,,,,,,,,,,,,,,,,,,,,,,,,,,,,,,,,,,,,,,,,,,,,,,,,,,,,,,,,,,,,,,,,,,,,,,,,,,,,,,,,,,,,,,,,,,,,,,,,,,,,
37,,,,,,,,,,,,,,,,,,,,,,,,,,,,,,,,,,,,,,,,,,,,,,,,,,,,,,,,,,,,,,,,,,,,,,,,,,,,,,,,,,,,,,,,,,,,,,,,,,,,,,,,,,,,,,,,,,,,,,,,,,,,,,,,,,,,
38,,,,,,,,,,,,,,,,,,,,,,,,,,,,,,,,,,,,,,,,,,,,,,,,,,,,,,,,,,,,,,,,,,,,,,,,,,,,,,,,,,,,,,,,,,,,,,,,,,,,,,,,,,,,,,,,,,,,,,,,,,,,,,,,,,,,
39,,,,,,,,,,,,,,,,,,,,,,,,,,,,,,,,,,,,,,,,,,,,,,,,,,,,,,,,,,,,,,,,,,,,,,,,,,,,,,,,,,,,,,,,,,,,,,,,,,,,,,,,,,,,,,,,,,,,,,,,,,,,,,,,,,,,
40,,,,,,,,,,,,,,,,,,,,,,,,,,,,,,,,,,,,,,,,,,,,,,,,,,,,,,,,,,,,,,,,,,,,,,,,,,,,,,,,,,,,,,,,,,,,,,,,,,,,,,,,,,,,,,,,,,,,,,,,,,,,,,,,,,,,
41,,,,,,,,,,,,,,,,,,,,,,,,,,,,,,,,,,,,,,,,,,,,,,,,,,,,,,,,,,,,,,,,,,,,,,,,,,,,,,,,,,,,,,,,,,,,,,,,,,,,,,,,,,,,,,,,,,,,,,,,,,,,,,,,,,,,
42,,,,,,,,,,,,,,,,,,,,,,,,,,,,,,,,,,,,,,,,,,,,,,,,,,,,,,,,,,,,,,,,,,,,,,,,,,,,,,,,,,,,,,,,,,,,,,,,,,,,,,,,,,,,,,,,,,,,,,,,,,,,,,,,,,,,
43,,,,,,,,,,,,,,,,,,,,,,,,,,,,,,,,,,,,,,,,,,,,,,,,,,,,,,,,,,,,,,,,,,,,,,,,,,,,,,,,,,,,,,,,,,,,,,,,,,,,,,,,,,,,,,,,,,,,,,,,,,,,,,,,,,,,
44,,,,,,,,,,,,,,,,,,,,,,,,,,,,,,,,,,,,,,,,,,,,,,,,,,,,,,,,,,,,,,,,,,,,,,,,,,,,,,,,,,,,,,,,,,,,,,,,,,,,,,,,,,,,,,,,,,,,,,,,,,,,,,,,,,,,
45,0.6375086097268704,0.3158457426804096,0.6540836522168523,0.9642535989754303,0.5920459036013235,0.3200810245439537,0.5791227455721526,1.0374406375721603,0.6213780831401572,0.36809511629281266,0.6560032048924231,0.9651992769446843,0.6084798439431499,0.32407890065492406,0.6367381677690027,1.0100200787465512,0.6329534947482198,0.31403312691586277,0.6606407207517261,1.0231430367788656,0.6222469777598426,0.3467997391714627,0.5870577416411877,1.0465698060140125,0.590441271047368,0.3551354386570398,0.6014813095040459,0.9553290832100897,0.5880375085170493,0.38653502293436426,0.5114044475763144,0.9864832133205613,0.5071407787729769,0.3174616214793313,0.4635115093292835,1.0170121367570986,0.6286552369960189,0.3455461085355351,0.6183949399738833,1.0181850157891819,0.6212233978246617,0.41322041313580743,0.5363307590924155,0.9707512937675836,0.5756780036430349,0.39203682718419103,0.4220037020857912,0.9847938424802716,0.44627464651945126,0.38003374647641175,0.34337709435923147,1.0145629331216341,0.5507194791061617,0.4658795672829834,0.5021046795189604,0.20862788872702573,0.4520131051407072,0.4836504270855488,0.32366602380628084,0.20959247260109864,0.7003526215006015,0.45245561116493443,0.7110830921817237,0.1791350466891113,0.5527127392823895,0.5755210855620739,0.5971846409628011,0.21259909301860633,0.6873466535021202,0.42474947974144606,0.7803576063646405,0.15742974036085747,0.5945766731059174,0.5555526353045088,0.6160908515056259,0.1683453759392372,0.7575022168746823,0.4759113658539245,0.7900780084386416,0.14799865278468116,0.5588691789539636,0.53565396493462,0.6735928080556302,0.22269047601454328,0.688126651914244,0.43499880810613983,0.7318639494973496,0.10561131672770588,0.5523227858212418,0.4931484928097672,0.5695414842390191,0.18867900951835903,0.4043091668028103,0.630475894962822,0.258050451541598,0.9734193647572313,0.3271983155642371,0.5995142796009378,0.214306897859508,0.95333086684718,0.38091903787695847,0.7525553943101426,0.2915714739920189,0.774744281048527,0.3898436753108572,0.6871050086524119,0.23877258254480127,0.6588098163458046,0.3255736935388591,0.7951784363864975,0.1584635442734424,0.7461463666516805,0.294259948503587,0.8773461050825166,0.09954041477832579,0.6746942907531293,0.33612146325427117,0.8441246259881278,0.10426345244589127,0.23828132556557957,0.31654908324011954,0.8287783717042527,0.08357362169911225,0.25887229765570174,0.3701657936624223,0.8929982885689258,0.3002457028435522,0.6184249132936117,0.37489053054021154,0.8385022101111083,0.2729460641031873,0.5552083111948536
46,,,,,,,,,,,,,,,,,,,,,,,,,,,,,,,,,,,,,,,,,,,,,,,,,,,,,,,,,,,,,,,,,,,,,,,,,,,,,,,,,,,,,,,,,,,,,,,,,,,,,,,,,,,,,,,,,,,,,,,,,,,,,,,,,,,,
47,,,,,,,,,,,,,,,,,,,,,,,,,,,,,,,,,,,,,,,,,,,,,,,,,,,,,,,,,,,,,,,,,,,,,,,,,,,,,,,,,,,,,,,,,,,,,,,,,,,,,,,,,,,,,,,,,,,,,,,,,,,,,,,,,,,,
48,,,,,,,,,,,,,,,,,,,,,,,,,,,,,,,,,,,,,,,,,,,,,,,,,,,,,,,,,,,,,,,,,,,,,,,,,,,,,,,,,,,,,,,,,,,,,,,,,,,,,,,,,,,,,,,,,,,,,,,,,,,,,,,,,,,,
49,0.6163263880917106,0.29483823464093517,0.6205906097047047,0.9642535989754303,0.585942443975414,0.2983844868108757,0.5852072788485676,1.0374406375721603,0.6106517495864271,0.3460158273333095,0.659338777311842,0.9631595463958258,0.5930661145264081,0.3015894423323991,0.6371723824398476,1.0100200787465512,0.6408820610081536,0.2929901243104246,0.6769428163907341,1.0231430367788656,0.634466834518503,0.32580263214250144,0.6057584125314324,1.0480843004331104,0.6069143717423808,0.33423605344318785,0.6224642968776238,0.9553290832100897,0.640489838663152,0.36513185926287073,0.6561286721083397,0.9851811498554429,0.6062951155410706,0.2987055000823129,0.6427988529279037,1.0170915301439394,0.6218574569278408,0.3232329011476109,0.6248130308597772,1.0167182050859043,0.6304268606363668,0.3915475086443829,0.5548714484849858,0.9688256465088251,0.5909966939795072,0.36872992096089396,0.5516667129194794,0.9840978390432294,0.5719422266423398,0.36051557969593995,0.5088983004485537,1.0151131435975558,0.4681141273570281,0.48798946322757875,0.49249952569549615,0.3614423962114618,0.5203919424906855,0.47754276893773695,0.3315299150762987,0.6603272518397996,0.5031138118554613,0.5197866272286247,0.48682705530676584,0.3721789641066376,0.4599138139554252,0.5770148971694348,0.300664208773947,0.4826818796978742,0.47199293225610284,0.5004704456037202,0.5275267626892755,0.31795109861242915,0.46993685614358266,0.5523093081637007,0.2577732311592488,0.3885346641977898,0.5445678416896103,0.5553450752369354,0.5305904425755281,0.30881168636546125,0.4273948632579552,0.5405456585266916,0.314518335196664,0.43886509342424934,0.4936301295624689,0.5116423346602476,0.5020990632060897,0.23445353643805586,0.43996150122374955,0.5003527274098343,0.25521765394003304,0.3945169894311169,0.3810458213329732,0.6100564165463791,0.2472831410201361,0.9749026263424669,0.3720767835307384,0.5882327296703653,0.23732084094675585,0.9547877235747803,0.34243414923513266,0.7466172219697496,0.22471778924399896,0.9904599277923014,0.39445524783855895,0.6780568447615732,0.1703694317594129,0.8704094643446144,0.2879324836731537,0.7959556213497239,0.05581297102567717,0.946639583166268,0.29171492163047896,0.8633304304914522,-0.003913539287142186,0.9230952173430951,0.3026339595305464,0.8516842830849906,0.0014458545309495793,0.8598544906246692,0.31165822806247223,0.8145490740663133,-0.02495405937261739,0.7535356702915432,0.31178532844299894,0.8699761137337207,0.15528707697956123,0.7882217377488729,0.3474470650224204,0.8073059138960509,0.11780499410976601,0.7284156538195179
50,,,,,,,,,,,,,,,,,,,,,,,,,,,,,,,,,,,,,,,,,,,,,,,,,,,,,,,,,,,,,,,,,,,,,,,,,,,,,,,,,,,,,,,,,,,,,,,,,,,,,,,,,,,,,,,,,,,,,,,,,,,,,,,,,,,,
51,,,,,,,,,,,,,,,,,,,,,,,,,,,,,,,,,,,,,,,,,,,,,,,,,,,,,,,,,,,,,,,,,,,,,,,,,,,,,,,,,,,,,,,,,,,,,,,,,,,,,,,,,,,,,,,,,,,,,,,,,,,,,,,,,,,,
52,,,,,,,,,,,,,,,,,,,,,,,,,,,,,,,,,,,,,,,,,,,,,,,,,,,,,,,,,,,,,,,,,,,,,,,,,,,,,,,,,,,,,,,,,,,,,,,,,,,,,,,,,,,,,,,,,,,,,,,,,,,,,,,,,,,,
53,,,,,,,,,,,,,,,,,,,,,,,,,,,,,,,,,,,,,,,,,,,,,,,,,,,,,,,,,,,,,,,,,,,,,,,,,,,,,,,,,,,,,,,,,,,,,,,,,,,,,,,,,,,,,,,,,,,,,,,,,,,,,,,,,,,,
54,,,,,,,,,,,,,,,,,,,,,,,,,,,,,,,,,,,,,,,,,,,,,,,,,,,,,,,,,,,,,,,,,,,,,,,,,,,,,,,,,,,,,,,,,,,,,,,,,,,,,,,,,,,,,,,,,,,,,,,,,,,,,,,,,,,,
55,,,,,,,,,,,,,,,,,,,,,,,,,,,,,,,,,,,,,,,,,,,,,,,,,,,,,,,,,,,,,,,,,,,,,,,,,,,,,,,,,,,,,,,,,,,,,,,,,,,,,,,,,,,,,,,,,,,,,,,,,,,,,,,,,,,,
56,,,,,,,,,,,,,,,,,,,,,,,,,,,,,,,,,,,,,,,,,,,,,,,,,,,,,,,,,,,,,,,,,,,,,,,,,,,,,,,,,,,,,,,,,,,,,,,,,,,,,,,,,,,,,,,,,,,,,,,,,,,,,,,,,,,,
57,,,,,,,,,,,,,,,,,,,,,,,,,,,,,,,,,,,,,,,,,,,,,,,,,,,,,,,,,,,,,,,,,,,,,,,,,,,,,,,,,,,,,,,,,,,,,,,,,,,,,,,,,,,,,,,,,,,,,,,,,,,,,,,,,,,,
58,0.6081480148248403,0.2886100559013874,0.5558082357064575,0.9642535989754303,0.5764022475948637,0.2919217935964592,0.5179018595452736,1.0374406375721603,0.6016587968929229,0.3395683929079555,0.592462629988108,0.9661976547446723,0.5846079434357065,0.29523251756013646,0.5706960416860273,1.0100200787465512,0.6310022090337468,0.2864266992463377,0.6104046667771484,1.0231430367788656,0.6242979509469379,0.31938172178407254,0.5390829129928256,1.0495350178822984,0.5964012662430842,0.32794797203564086,0.5555411193636817,0.9553290832100897,0.6373960026676466,0.35896814294664753,0.6001147708139035,0.9871562093647201,0.6048664798943253,0.2930993852179635,0.5939645651945581,1.0177433069345585,0.6182569957283095,0.31768290405631755,0.567494535580283,1.022973593345792,0.6270221860763983,0.3860556856863903,0.4992114507601346,0.9781472169052484,0.6113387975219912,0.35888531980656657,0.5408812831416338,0.9812511808134015,0.6063792684145165,0.36362652492070197,0.5302393269296084,1.0152463599786288,0.5209058771650814,0.4436806816037384,0.5685209564980459,0.4276365132807061,0.6071441281336701,0.47310135863462105,0.45829981720377133,0.6362670621158311,0.5855714539548665,0.42557057851112584,0.6441408204788936,0.3423436207457367,0.5941860899852968,0.5673506596701977,0.5250369661825516,0.3172748777256757,0.5568178969035661,0.39475213095604567,0.6944249910084959,0.31537587993490845,0.6131219357492594,0.5434047914667708,0.5005887048794976,0.2096957257231346,0.6212960381983991,0.44886835108913875,0.6839735936622305,0.2950459936545848,0.5662098363951531,0.5296654266693918,0.5487538847734508,0.2334661762260682,0.5717783786468054,0.40888556619520544,0.6558503536087756,0.19105332331568797,0.5745544457403949,0.48829238319062657,0.4801608370982644,0.17368723436329153,0.39991570958925665,0.5938351912846909,0.24535084773098792,0.9749034608074937,0.4073226848781009,0.5804673769443827,0.2705760863103215,0.9547936840392578,0.34144732795926175,0.7020841480676194,0.20085741119527814,0.9087191312262919,0.446010416172518,0.6591954317595591,0.23664022305040527,0.8315972442480263,0.2944712692687157,0.7250594726680832,0.07453479455204019,0.9198213673192526,0.37643437584938955,0.8321908182935762,0.13934877548333643,0.9384823352057967,0.3067708233647035,0.7790947664452811,0.018445496359700685,0.9133770178425342,0.395478772336518,0.7863657330400071,0.12084341000754947,0.8062059106937649,0.2839983422443797,0.7903213605255603,0.10931678591170325,0.7584972590272543,0.42599833126418635,0.7617968139357237,0.2361691485892143,0.6978965259737537
59,,,,,,,,,,,,,,,,,,,,,,,,,,,,,,,,,,,,,,,,,,,,,,,,,,,,,,,,,,,,,,,,,,,,,,,,,,,,,,,,,,,,,,,,,,,,,,,,,,,,,,,,,,,,,,,,,,,,,,,,,,,,,,,,,,,,
60,0.6109895468093411,0.2308893351334126,0.532603000723683,0.9642535989754303,0.5803212871912243,0.23019370354862292,0.4965725948964724,1.0374406375721603,0.6056884497310392,0.276246921693661,0.5711760130561997,0.9606070966926091,0.5888056525986615,0.23028678997339033,0.5495237868511101,1.0100200787465512,0.6355656870060742,0.2289388538255003,0.5909205396678323,1.0231430367788656,0.6284391693025567,0.26312533812661704,0.5193107897366522,1.0456028994664661,0.6001526854909061,0.2729017116787378,0.5355365467574892,0.9553290832100897,0.6438546010637801,0.29033083148805994,0.5835394045636874,0.9834009379299361,0.6130090075649034,0.2369606611292947,0.5831542881123546,1.015136974632465,0.6210049745067768,0.2561700165784428,0.5438956142420791,1.0035776458894323,0.6300258346862438,0.32934258143834344,0.47705329184485923,0.9456629835258844,0.6056356983224708,0.28008493957661657,0.5050431021104016,0.9833866364217694,0.6096393185970063,0.30705143522763245,0.5191692087925069,1.0136839434251312,0.5030440790409059,0.39547274293262635,0.5063298925575492,0.60884157733901,0.5840562310685954,0.4406854619804921,0.4261259895148203,0.5889120063068101,0.5624121954315751,0.42476949208534454,0.5787674300697148,0.5145543737097564,0.5667965595736534,0.5482304134982464,0.49404234243996853,0.4316816422329694,0.5349157216122882,0.40570207044541023,0.6322116872214592,0.42860131018507625,0.5862103454740799,0.5268218256159407,0.47147267374213725,0.3489895155867211,0.5984934470615323,0.4608683754078338,0.6224492334683877,0.40873854550585736,0.5401198585059411,0.511327223239216,0.5237851013156035,0.37247481746904915,0.5467540725061782,0.41707479735250824,0.5894283878112707,0.30549810068518723,0.5467642640117251,0.46847294473313755,0.450190833151317,0.2791239170644024,0.3983730809089375,0.5444883866658554,0.22942877876017215,0.9749014342495713,0.4281905344606464,0.5407902934521036,0.29763021199665735,0.9547852201796996,0.34445521868639695,0.6814311386529466,0.1899067565601841,0.9942584721991922,0.46224222988068064,0.6413112369086374,0.2529769872093124,0.9631933326574501,0.2819975052284016,0.7268824807285386,0.0448208044309045,0.9437368369657064,0.3886783455062076,0.8417714304761934,0.14461047732155902,0.9878955393989117,0.29109557656311136,0.7798340428544303,-0.013341324411537799,0.9583058665859729,0.40574135084569446,0.7958420370942674,0.1245011259194319,0.9648691835514309,0.28512244828812955,0.8102775320381641,0.09780750427738567,0.8005840390985128,0.444261953285025,0.7897485313124327,0.24880696325907056,0.8339718438334034
61,0.3885728569701771,0.17121450588879888,0.07049636138056117,0.9642535989754303,0.3594684593780585,0.17090763069839562,0.03696038437145266,1.0374406375721603,0.38417025048795334,0.216964410220959,0.11121982326548512,0.9662902803626532,0.36659030546517946,0.17094228967012182,0.08921442070921767,1.0100200787465512,0.4176626357238408,0.1699512363328245,0.1352566695238198,1.0231430367788656,0.4108488852055924,0.20421571331162988,0.06375099345589427,1.0495579060658924,0.38295933112348157,0.21407662115120324,0.08028340662573355,0.9553290832100897,0.4559823711762292,0.23192762263624564,0.1940664708081564,0.987272200003453,0.4321672655492619,0.1787819978755105,0.20214636925634,1.017749505817615,0.4121686983403573,0.19690201883674355,0.11200651244208662,1.0238435827409336,0.42282867273157443,0.26984823505810973,0.047004617141876905,0.978617855180395,0.49829888680537926,0.23992887315892253,0.2838230244274452,0.9857636696554118,0.4750685893181005,0.26041124772572516,0.2410014832837747,1.0153180047616488,0.4337684479670137,0.3549624759133545,0.36213271586772633,1.0009637268064782,0.4954376073702881,0.3882635345284047,0.2560093694128071,0.16368810443894344,0.5062150360611891,0.38787770384109715,0.4777459473074765,0.8660619182272735,0.5223419528577908,0.4686426261084912,0.4124526687984054,0.07488896876437963,0.4758632914524519,0.37046344682633064,0.5316121445833487,0.8084581648622766,0.5391441547732501,0.4414802230520827,0.3901620184757952,0.055649197681771886,0.5293385947744013,0.42392339001812435,0.5054230382400832,0.7460842648433208,0.4905445606168722,0.4253754777291146,0.4310366770428018,0.08362269206278389,0.4835837317171684,0.37752824803228735,0.48182100557926927,0.5372405125370702,0.5065089770219035,0.3838225474324173,0.3712556473739079,0.05112111552688864,0.4138229829840472,0.522154794489418,0.25386540290455095,0.9749053681561265,0.4269890433470698,0.5121453442543344,0.2816492062027849,0.9547980947829711,0.32952157006690624,0.6583767773095628,0.159500084859992,1.0301559059569743,0.4291198121286929,0.6218044844176401,0.17775841336072043,0.982367193207377,0.32137661390487626,0.7153030267833786,0.1184876310731044,0.968227729852822,0.4201096212605938,0.8348363704519319,0.20307900208730575,1.0033045321662457,0.33473644253076984,0.7733873832894583,0.06578849528467381,1.008010001050237,0.4410871245332197,0.78854630936447,0.19054213084361246,1.004364174853921,0.2805868972396256,0.7869182333321094,0.09133744622446201,0.8340798825090048,0.44518521276737383,0.785015326470819,0.24927510209724302,0.8272630430407093
62,0.4235068788143383,0.1653832195776493,0.1411210829752074,0.9642535989754303,0.39755525389159213,0.16571102954597552,0.11310556161582044,1.0374406375721603,0.42215888966067777,0.2123921677225612,0.18725858700083411,0.9662831278052801,0.4045094470839897,0.16705044909299632,0.1651964765359519,1.0100200787465512,0.45450886436532284,0.1630196035756376,0.2075699259553578,1.0231430367788656,0.44827278229726725,0.19666633801599087,0.13646264546556974,1.0495565947637073,0.42095229046701266,0.20590618035816582,0.15342355143953607,0.9553290832100897,0.49472457245520496,0.22975728340952295,0.26981004587867224,0.9872524112613877,0.4653969827552683,0.1708313790124047,0.2629183009846556,1.017749267399036,0.4468010560828272,0.19261076753497805,0.1816331867064849,1.0238128267442295,0.4558152670894292,0.2636130080693173,0.11200450257984984,0.9786174975525262,0.526698983840815,0.24189573702954326,0.3345135122964268,0.9847270256734784,0.5062970839344986,0.2517983169510364,0.29802484348838304,1.0152836724862582,0.48641936109300915,0.35456068100292354,0.45289258064387145,0.34512750225050903,0.5265524219703638,0.3807662238899769,0.3127014989598145,0.09957787005917504,0.5797452237860827,0.34364673608101104,0.5884838966753703,0.1281223667546097,0.5536694553531687,0.43005043655809144,0.4761988358185458,0.08057119130952653,0.5429095211984273,0.31745489046036385,0.6387048411164085,0.1408020933781877,0.5709984794572096,0.3935610986872297,0.4559084487198285,0.0948953619440666,0.6037780463878203,0.36752040873684383,0.6206973692209612,0.10510256084666236,0.5233099799682993,0.37736995643165977,0.5010888202151486,0.12212414844267439,0.5599757443731647,0.32454004665251135,0.5965461526836384,0.05010738210589496,0.5368738008822188,0.3396622111763901,0.43518617667744847,0.08600922658178593,0.4195062277073819,0.5240420563569412,0.26040317264959123,0.9749026263424669,0.4243377380418111,0.5102415420978861,0.2768645908624608,0.954796783480786,0.3510540318702383,0.6602212430421373,0.2026848934621031,1.0243981568763163,0.4383139995658316,0.6157173004653086,0.1990352561103215,0.9773081297727761,0.3584952117705542,0.7164133421062546,0.19193655827086414,0.958529219682839,0.4177665897057084,0.8236581749754,0.1995202174155045,0.988913169499162,0.3731672380282603,0.7736010659409781,0.1428992908464225,0.9775787304508717,0.43866552621143806,0.7763678287393174,0.1859479187065312,0.9430206241718533,0.32839705113232426,0.7932540878624439,0.1832095534334446,0.7479596942727682,0.4456753603986937,0.7760265884108214,0.25165279150385866,0.6795424081034229
63,0.36511547657196863,0.1634315399902851,0.034419885336845375,0.9642535989754303,0.3397610863842117,0.16281427361221393,0.006788615125289249,1.0374406375721603,0.36508607307999835,0.2095260187738917,0.08141782846211328,0.9662912340369696,0.3481838356152579,0.1641448418694856,0.059809514350177805,1.0100200787465512,0.3898599626861638,0.1601319522513654,0.0888557401340509,1.0231430367788656,0.38344216190971264,0.19391391472955288,0.01758094725192072,1.0495585021123401,0.3559388711763296,0.20332903943085104,0.03430661764488082,0.9553290832100897,0.4559980231638576,0.22710860200731645,0.19620855790628144,0.9872727960499009,0.3969639614568625,0.1689670202296365,0.13423237439978794,1.0177473600504032,0.39542822983102627,0.19229177837730135,0.08687773116107614,1.023916419616849,0.39590686680984066,0.2636677400343823,0.0015770429620270213,0.9786824666153314,0.5158055206231397,0.23728266534947423,0.30940232116096844,0.9858332878805096,0.43692040692140593,0.25688840460324286,0.15274715841647404,1.0153058454141146,0.4363645068077231,0.36290217222530513,0.35589483590541304,1.012067714500265,0.40731479346147215,0.40696699522176405,0.05463744346444692,0.18455242722050624,0.4497559995426393,0.40232402199066375,0.35760637847090515,0.9207049531622711,0.34165295189123907,0.49969289094384883,0.03380431626684877,0.05140780836208163,0.4110836119530312,0.38791962072312025,0.394468896702931,0.8344173585687891,0.34151433128294056,0.4766094721479994,-0.021772284746075694,0.01104202775560529,0.4599822307934104,0.4417757559887359,0.3614873708851499,0.7780345002101421,0.2914664989789709,0.4592824441769448,0.01895405691269873,0.03432537420027328,0.4219963800595198,0.39474573512907385,0.3536647982649322,0.5840272380581578,0.3213255029240946,0.4170836379494614,-0.012848992303519123,0.023610044113133232,0.430196239478185,0.5173675282349929,0.2793902269065614,0.9748896325299057,0.41838775030600706,0.5104207136600808,0.2606053901022082,0.954790703807019,0.33231412638818836,0.648868763584282,0.17311397411531562,1.0284068672606852,0.41729144443310506,0.6239356484915842,0.16168373253801185,0.9826965088697609,0.3259859971562866,0.7082696786998826,0.1370184504991142,0.9715967035848165,0.4286377862269174,0.8419364161329317,0.22891024673896795,1.0074834138114483,0.3384014149032473,0.7673992622567435,0.08315882789477896,1.0130014132130178,0.4515878205518213,0.7974081491357408,0.21957248606579083,1.0169583382717373,0.2839062166817425,0.785727094110918,0.10966598922449124,0.8876913994615194,0.4522722541995354,0.7966771540350585,0.272754021230759,0.9211791015810535
64,0.44576565052257344,0.1737401633041889,0.1833530825725155,0.9642535989754303,0.42094860768622105,0.17364708997459494,0.1579073866625691,1.0374406375721603,0.4459368820335231,0.2203318342321895,0.23233763518982536,0.9662859888282294,0.4286700541528757,0.17496341272176522,0.21045983794418674,1.0100200787465512,0.47366367376954216,0.1711593926800993,0.24460832725765583,1.0231430367788656,0.4672651527805648,0.2051086951984936,0.17328173682067588,1.0495559987172596,0.43983372629568696,0.21470503292107013,0.19007010641158442,0.9553290832100897,0.5208055083734586,0.23834388383238214,0.3172300272647283,0.9872650474460801,0.4731279818731144,0.1808625129025567,0.27610688387676147,1.0177433069345585,0.46821358618233355,0.20233848398090096,0.221132208115645,1.023883041015775,0.47234876549380533,0.2739487514965939,0.14216996196880743,0.9786264382492427,0.5405160928613518,0.24921676693104777,0.3531346295592113,0.9858065849996502,0.4898706084988865,0.26517643045926087,0.25204674202811383,1.0152717515573029,0.427881342500694,0.37982828201610713,0.3363660952937942,0.9658549221037194,0.41715861519438047,0.41132808826604506,0.0732196380040031,0.08918666450993494,0.44214012655353774,0.40551963561332915,0.3299216147758734,0.7248473686858001,0.3095871527760733,0.49335474163469056,-0.020704876116809316,0.03419080555303393,0.4029614548497233,0.38891773030220655,0.363301356320875,0.6270388519083276,0.30291073604456303,0.4685955084486586,-0.08582673818375218,-0.005959306822193512,0.45841682660517874,0.4404662717453429,0.3406728601839301,0.5970207968638896,0.2542030965019835,0.45004309838798917,-0.042765712054970775,0.01919059632651878,0.4190034856260582,0.39448252101774567,0.3310812832946117,0.41340140240103807,0.28725283690457104,0.4083213379349655,-0.06961173276278568,0.009967651060555232,0.4266376153539986,0.5244862003674851,0.2692005775892965,0.9749001229473863,0.4254650906847231,0.5140280165642098,0.27277305706586025,0.9547914190627562,0.33616105630397136,0.6610132695619126,0.1770420221299327,1.018331953758946,0.4371401472369374,0.6214664068724741,0.1934458925655195,0.9797751064153846,0.3129909493415979,0.7193897596477585,0.11364253103009188,0.9570961452085044,0.4143691695346702,0.8380383915739107,0.1884542484745943,1.0037613421638043,0.32276520436398426,0.7789562452508231,0.056220124496259204,0.9711212824451954,0.4334982924660803,0.7936839913255296,0.17191165091042274,1.000784617911935,0.27629408562253893,0.7962372407288074,0.09515070144933029,0.7703628748719809,0.44836368025551876,0.7936074552244811,0.24953471135287153,0.84482507478662
