frame,NOSE.x,NOSE.y,NOSE.z,NOSE.v,LEFT_EYE_INNER.x,LEFT_EYE_INNER.y,LEFT_EYE_INNER.z,LEFT_EYE_INNER.v,LEFT_EYE.x,LEFT_EYE.y,LEFT_EYE.z,LEFT_EYE.v,LEFT_EYE_OUTER.x,LEFT_EYE_OUTER.y,LEFT_EYE_OUTER.z,LEFT_EYE_OUTER.v,RIGHT_EYE_INNER.x,RIGHT_EYE_INNER.y,RIGHT_EYE_INNER.z,RIGHT_EYE_INNER.v,RIGHT_EYE.x,RIGHT_EYE.y,RIGHT_EYE.z,RIGHT_EYE.v,RIGHT_EYE_OUTER.x,RIGHT_EYE_OUTER.y,RIGHT_EYE_OUTER.z,RIGHT_EYE_OUTER.v,LEFT_EAR.x,LEFT_EAR.y,LEFT_EAR.z,LEFT_EAR.v,RIGHT_EAR.x,RIGHT_EAR.y,RIGHT_EAR.z,RIGHT_EAR.v,MOUTH_LEFT.x,MOUTH_LEFT.y,MOUTH_LEFT.z,MOUTH_LEFT.v,MOUTH_RIGHT.x,MOUTH_RIGHT.y,MOUTH_RIGHT.z,MOUTH_RIGHT.v,LEFT_SHOULDER.x,LEFT_SHOULDER.y,LEFT_SHOULDER.z,LEFT_SHOULDER.v,RIGHT_SHOULDER.x,RIGHT_SHOULDER.y,RIGHT_SHOULDER.z,RIGHT_SHOULDER.v,LEFT_ELBOW.x,LEFT_ELBOW.y,LEFT_ELBOW.z,LEFT_ELBOW.v,RIGHT_ELBOW.x,RIGHT_ELBOW.y,RIGHT_ELBOW.z,RIGHT_ELBOW.v,LEFT_WRIST.x,LEFT_WRIST.y,LEFT_WRIST.z,LEFT_WRIST.v,RIGHT_WRIST.x,RIGHT_WRIST.y,RIGHT_WRIST.z,RIGHT_WRIST.v,LEFT_PINKY.x,LEFT_PINKY.y,LEFT_PINKY.z,LEFT_PINKY.v,RIGHT_PINKY.x,RIGHT_PINKY.y,RIGHT_PINKY.z,RIGHT_PINKY.v,LEFT_INDEX.x,LEFT_INDEX.y,LEFT_INDEX.z,LEFT_INDEX.v,RIGHT_INDEX.x,RIGHT_INDEX.y,RIGHT_INDEX.z,RIGHT_INDEX.v,LEFT_THUMB.x,LEFT_THUMB.y,LEFT_THUMB.z,LEFT_THUMB.v,RIGHT_THUMB.x,RIGHT_THUMB.y,RIGHT_THUMB.z,RIGHT_THUMB.v,LEFT_HIP.x,LEFT_HIP.y,LEFT_HIP.z,LEFT_HIP.v,RIGHT_HIP.x,RIGHT_HIP.y,RIGHT_HIP.z,RIGHT_HIP.v,LEFT_KNEE.x,LEFT_KNEE.y,LEFT_KNEE.z,LEFT_KNEE.v,RIGHT_KNEE.x,RIGHT_KNEE.y,RIGHT_KNEE.z,RIGHT_KNEE.v,LEFT_ANKLE.x,LEFT_ANKLE.y,LEFT_ANKLE.z,LEFT_ANKLE.v,RIGHT_ANKLE.x,RIGHT_ANKLE.y,RIGHT_ANKLE.z,RIGHT_ANKLE.v,LEFT_HEEL.x,LEFT_HEEL.y,LEFT_HEEL.z,LEFT_HEEL.v,RIGHT_HEEL.x,RIGHT_HEEL.y,RIGHT_HEEL.z,RIGHT_HEEL.v,LEFT_FOOT_INDEX.x,LEFT_FOOT_INDEX.y,LEFT_FOOT_INDEX.z,LEFT_FOOT_INDEX.v,RIGHT_FOOT_INDEX.x,RIGHT_FOOT_INDEX.y,RIGHT_FOOT_INDEX.z,RIGHT_FOOT_INDEX.v
0,-0.3574087010658275,0.277009840764881,0.13906205113778047,0.993178507664947,-0.43819005005995937,0.2499699398108801,0.1379444856008456,1.0415937457616204,-0.4070063491634473,0.2553934926685486,0.1920597046968528,1.0312293109702066,-0.3853995729149751,0.23410517769925338,0.1590421783747316,1.0490291479458245,-0.37148311932535805,0.29068343336130764,0.14445527752526705,0.9504811524410629,-0.37018503272953623,0.2779530281210574,0.07057867624073694,0.9979466091949001,-0.3901522966689928,0.3276420464496011,0.10005915804908688,1.039218351514358,-0.39355630837505856,0.28807817767764554,0.2328029676650966,0.9909989178390005,-0.35980857837322994,0.2573764298894755,0.04569869045939131,1.0070605118746894,-0.37611777936629703,0.3239366236642206,0.16321856612523927,1.0202090246135787,-0.4123358129235246,0.29953674465413993,0.08576524364868275,0.9831011126742653,-0.40932739019324854,0.29849618171465403,0.2753650028277676,0.9994171016060928,-0.44032900255722873,0.3806522737083,0.009917603958952734,0.9599900806336752,-0.3941433981811268,0.3173953384566246,0.21875419261757673,0.9852481317956675,-0.504023433759173,0.35169196389355617,-0.04147340674895439,0.8654149092321044,-0.24993202889277283,0.2954070596327954,0.07669559297423001,0.9875381299572236,-0.5447011670832201,0.39701918156875404,0.07907158224842428,0.7764871775649645,-0.3249489812376968,0.30407508794485627,0.13102903692679052,0.8486427663984213,-0.6312186835341229,0.3956089048959179,0.16628599841014444,0.7392406673390908,-0.3229540991523555,0.2631116815412052,0.15275920684299402,0.8389127534909175,-0.6039379613103557,0.44676994602577874,0.1939545552243614,0.6934116705418165,-0.341520935514603,0.34573111972176934,0.09359938955848858,0.7727083506055368,-0.5646492268818644,0.409976711319347,0.07031606308215435,0.6252327207771409,-0.471972599231008,0.5533234307700956,0.19766776413686968,1.0243744012547433,-0.4385205557703723,0.5182301204724098,-0.015294380675900682,0.9720665274275901,-0.5452175839076422,0.690964207044176,0.35925749527787654,1.0284117067099248,-0.37322810721401045,0.6418626554163209,0.014297250194455501,0.9203287851401056,-0.5875302662427354,0.8474338757605273,0.35353156251085266,1.0300802775509255,-0.32695440089740885,0.7758586518715053,-0.08636406566350882,1.0000101196866995,-0.5831708394731793,0.8467026783806545,0.36987539618412735,0.9837173521724537,-0.41677798752847617,0.8045618986066773,-0.0367452836358389,1.0161615952185221,-0.6035163234488705,0.88609463945809,0.4496903249442134,0.9895853349555825,-0.3499361323138066,0.8417597960800134,0.033091015796875324,0.9659576005349806
1,-0.33900273662812913,0.2803085108183631,0.026163605986760714,0.993178507664947,-0.4202510785770981,0.2542685671874365,0.026290190693022745,1.0415937457616204,-0.38849123317281337,0.25998820611802675,0.08031433694270801,1.0312293109702066,-0.3663195561767014,0.23898015218846536,0.04728611497151792,1.0490291479458245,-0.3542417476192915,0.29379363352800986,0.032964018914644955,0.9504811524410629,-0.3531560290233195,0.2804527575159701,-0.04092259171721196,0.9979466091949001,-0.3735433349165181,0.3295683791617746,-0.011266864243977631,1.039218351514358,-0.3773963116798764,0.2909297830929897,0.13549705652640998,0.9909990370482901,-0.3468632421383171,0.2573001955488078,-0.04922203009578387,1.0070603926653998,-0.3583023908867786,0.3262414756730402,0.05622637427212184,1.0202084285671311,-0.395896550135683,0.30052716523405026,-0.020349884596585443,0.9831002782092384,-0.39129065818494885,0.30019199346315867,0.16418573437405404,0.9994129292809586,-0.43223328920910853,0.378595138603167,-0.051419560762994004,0.9599401319413532,-0.37386198471385396,0.3219692796873986,0.03163353824628277,0.984839363141798,-0.4987770063613949,0.3514507736984726,-0.09723735672583726,0.8730833448056823,-0.2137947156451948,0.3065314023127728,-0.20134722987903164,0.9319714018421418,-0.5371719880527265,0.39673638733161715,0.01494639016753914,0.7513059436820605,-0.28292047655615815,0.31626286689459376,-0.17682694940904256,0.7260871528806601,-0.6239535265130612,0.39407304221166795,0.10067936616956048,0.6928383917768044,-0.2792791751657644,0.27642521341681553,-0.1560855364689556,0.7045757454914974,-0.5938763994616637,0.44668897311585143,0.12317260513053274,0.6474881990910109,-0.3027536974638958,0.35910979947411914,-0.18949761427272294,0.6090556921430124,-0.5555894836983836,0.4109447205528217,0.0032648094450793558,0.549195611878978,-0.4630297918088817,0.5615114400321806,0.1836425423054114,1.0243568774891796,-0.4363350314294437,0.5247930686993385,-0.0027947697008929608,0.972040301383889,-0.5459802238093949,0.6904073804526843,0.29788441465565224,1.0267504060507453,-0.38044315788342453,0.6516593940408937,0.08720017921324545,0.9744660150595392,-0.588785504972191,0.8516979920477588,0.3088902401721982,1.0271263309605019,-0.3444786194565247,0.8018903248260646,0.062109160644973044,1.006555603752709,-0.5827882667438994,0.8488691880089504,0.3259587069716393,0.9266251623836353,-0.4349049077316645,0.8303461526807739,0.11983437911765239,1.0258251174620219,-0.6113990528977292,0.892795751251608,0.4055116852681733,0.9697122523177957,-0.37449574383916484,0.8716102790206872,0.19659755850698535,0.9623036569963146
2,-0.33925057938999137,0.27809255913722597,-0.04080541997129735,0.993178507664947,-0.41824528580401243,0.2530373438426337,-0.03987282310548708,1.0415937457616204,-0.3852307506408599,0.25943960496751406,0.013952666610229564,1.0312288341330484,-0.36185666868148825,0.23738182383649087,-0.019290188749537272,1.0490291479458245,-0.3583546704045992,0.29074262077356955,-0.014729008217320108,0.9504811524410629,-0.3582145676347916,0.27731230799204437,-0.088452477120529,0.9979458939391629,-0.37928715749921027,0.3264067997912759,-0.0587403084614542,1.039218351514358,-0.37193438566678205,0.29025169085170255,0.08612456242685682,0.9909984410018423,-0.36233083281383427,0.25605603799608867,-0.023461600176956872,1.0070593197817939,-0.3558833597156008,0.3258803907349909,-0.007519209370320211,1.0202048522884446,-0.4001102271654062,0.29822496563192313,-0.06237883199957761,0.9830920527682596,-0.37138906666258875,0.30305388067972666,0.10646152783339667,0.9994099490487198,-0.45054368552356877,0.3758904884395165,-0.011687645524328036,0.9598881566911092,-0.3482365288148295,0.325199255387777,-0.0506949214608293,0.9822339845140208,-0.511368473509041,0.35091984532513576,-0.054286573050012096,0.9611627973203307,-0.19612989027115757,0.3108269600501233,-0.3055783770339583,0.7242425390796906,-0.5431707128782856,0.4013635853124979,0.040202879173652166,0.8504676877997973,-0.26800407659500136,0.323652591149202,-0.2847504077827535,0.38732892267130953,-0.6284333629109832,0.3981092899419231,0.12897992447203693,0.7946919412572426,-0.2635797288597377,0.2802667625749118,-0.2610704687177158,0.389679281143658,-0.5967697938807536,0.4549683264960546,0.14079712656432802,0.7593142612934645,-0.28641059261249924,0.3609927400048962,-0.29045678615798853,0.2984911443658365,-0.558780643094713,0.4204963350757556,0.02306724784735692,0.6921670679298508,-0.4534278140088264,0.5573859045440519,0.1798103698704612,1.0241950508786144,-0.43848665630357236,0.523331801228025,-0.00023221993873772176,0.9709649739874961,-0.5417076488933158,0.6893280595450916,0.3002405693387274,1.0266003215552009,-0.36590854484532026,0.6256753451975099,-0.094000015132485,0.20810996409136917,-0.5822246435342043,0.8501318800062854,0.2946025986627773,1.0177107640392677,-0.31701415782928577,0.7916985266159206,-0.2545785526638683,0.6080611217123039,-0.5763450747294029,0.8487625552994472,0.308934367912467,0.8309127390590504,-0.4066707974674505,0.8277844642576172,-0.21071889660721663,0.7656707509687968,-0.6050240631276048,0.8876044847148954,0.36765936122575665,0.9015078493942117,-0.3448972830137015,0.8532267760604821,-0.16756896637674443,0.6334850377450635
3,-0.3194719631329515,0.2778549154185065,-0.1608103184286873,0.993178507664947,-0.39941311718810923,0.25221691570962285,-0.1546033947335983,1.0415937457616204,-0.3663173636169471,0.2585952157673035,-0.10092914941723588,1.0312290725516275,-0.34293647349802475,0.23752514320485335,-0.13416436211404328,1.0490291479458245,-0.3396689750718437,0.29031457001711514,-0.1345250252581629,0.9504811524410629,-0.34004243192287265,0.2769251758242282,-0.2081219322163486,0.9979462515670313,-0.3616175860363189,0.3261401882151956,-0.17824513997401017,1.039218351514358,-0.35698654296686455,0.2912414259781979,-0.004658122667307356,0.9909986794204213,-0.34727984497841385,0.2558517728784434,-0.130366288058111,1.0070596774096625,-0.3372071412176403,0.32536147269757637,-0.11774424514236123,1.020202110474785,-0.38155596822888427,0.29795161873098325,-0.17746495751108632,0.9830903838382057,-0.358008293391265,0.30420103167307383,0.03722357388948927,0.9994120948159317,-0.43716584693756516,0.3752743254241509,-0.09614372147305794,0.9599706495194784,-0.3188428029624461,0.3276288301157891,-0.1792483322135088,0.9845346045930615,-0.49988784623066373,0.3504636015717026,-0.11852752914971272,0.9941763199453002,-0.16138467082886931,0.3098504273524457,-0.5335786675029623,0.8461668798046357,-0.5284508174317751,0.404705766756666,-0.042222465690718615,0.9109616338752368,-0.2312921763379943,0.3208315033119827,-0.5318448628400002,0.5262005328359518,-0.611318531595336,0.40146819048895066,0.03408894061730135,0.8556799502332253,-0.22854065390778794,0.2794550963246829,-0.5088989814827537,0.5032766145749019,-0.5799827193086511,0.45884098927872374,0.040601694779411,0.8108226879597242,-0.25385024242583903,0.3601992829736462,-0.5216206834334224,0.4072369875379098,-0.5448908113287246,0.4246432388290363,-0.06271156964683651,0.7706642393318284,-0.4489836915564672,0.5574707815582121,0.17043574639773465,1.0243208762837352,-0.43915494056947285,0.5251326363606239,0.008715727876327888,0.9719582853926778,-0.5403739145949488,0.6880290955215015,0.25155565145218667,1.0281770432234443,-0.3727077098544484,0.637606883779358,-0.022774538888601144,0.9747348320074765,-0.5804087523166778,0.8516468512625415,0.24878164326297086,1.0280019827968971,-0.343231382669782,0.8048783056686549,-0.029262665218364795,1.0094653833013543,-0.5740121164524736,0.8513363434654934,0.26381148765437745,0.9554947316852406,-0.4278602137073386,0.8395790313657715,0.028546532526251337,1.031601403587205,-0.6017881204367488,0.8880832292217313,0.32418814700673043,0.9693554589141703,-0.37165054118803736,0.8713742446273767,0.08141206739729528,0.9620452708612134
4,-0.3221542459463345,0.2786909599684485,-0.12051997256038163,0.993178507664947,-0.4024348569928555,0.2527670665808997,-0.11365232383180844,1.0415937457616204,-0.3696019919815274,0.2591874177154694,-0.05980977531967114,1.0312276420401532,-0.3464939154511411,0.2385820229636882,-0.09297204963707065,1.0490291479458245,-0.3421528222457938,0.29078884417559286,-0.0953802886270091,0.9504811524410629,-0.34242384262038283,0.2772510046148929,-0.16901498899460946,0.9979445826369777,-0.36389172561493366,0.3262735536078806,-0.13924654159709307,1.039218351514358,-0.3613548338556438,0.29230125616694913,0.03821189687558511,0.9909948647231557,-0.34885247637419514,0.2552013967969767,-0.0995835554384114,1.0070568163867135,-0.3404344677727233,0.3258950534776056,-0.07693359120372617,1.0202005607540208,-0.38406911211924644,0.2983325222134203,-0.14012049254987713,0.9830850194201759,-0.36608007793413544,0.30268978570711624,0.08736829574764067,0.9994098298394302,-0.43763999484305016,0.37505831819148483,-0.08053152523340901,0.959904369154488,-0.3450813580742897,0.3347306043314873,-0.0733735599408602,0.9827605319459667,-0.5055905544105092,0.34981188438572847,-0.10326388654218939,0.9723166741017943,-0.19389035286640283,0.314915063821333,-0.35077579758525906,0.8614030787067658,-0.5284554040665365,0.40698868425620827,-0.018270310241593278,0.8611280381225207,-0.26412906496324673,0.3255654830139786,-0.3355427488991646,0.5870222448530111,-0.6109130656734145,0.4051882653809948,0.06195736913845783,0.7903173179585976,-0.2604848235842476,0.2826920159661777,-0.31413109519408633,0.5691094082875179,-0.5805482410684745,0.46380358259575555,0.07547583459257612,0.7495795711041029,-0.2835650167042032,0.36478106221520806,-0.3391750509811413,0.4675987603135599,-0.5441408172695482,0.4288555288776355,-0.035088482347114106,0.6993011478630173,-0.45175570067875065,0.5544844100410307,0.1790064319029637,1.0242566224766672,-0.43916690121775864,0.5222588580174232,0.0004476321324892278,0.9713416753424766,-0.5435679690636954,0.6856449097304859,0.3006169726846403,1.0281097495794929,-0.3557146020039088,0.6183147080095521,-0.15328866108920783,0.5405567776747432,-0.5866243473987865,0.8511586296171862,0.3118616485520284,1.0274529048092262,-0.3013507167314061,0.7746648900459437,-0.30130900399263394,0.7794432509046562,-0.5815765421688307,0.8507932855469448,0.3281075948492522,0.9303778112140492,-0.3883822521073418,0.8099319194730713,-0.2563787363082588,0.8594871505430766,-0.6062476026251503,0.8924954630512296,0.3867146284497176,0.9626592943061685,-0.3244485743155074,0.8701253485053979,-0.2284559400115513,0.7336240596185376
5,-0.3271957317044946,0.27848144964206306,-0.07363710804093568,0.993178507664947,-0.40746479424587595,0.2533186777659735,-0.070744973772669,1.0415937457616204,-0.37492953167559034,0.2597964281734619,-0.016805252052638504,1.0312290725516275,-0.35204525831888517,0.23943872052304488,-0.04990215392184385,1.0490291479458245,-0.3454695302395058,0.29110495740915915,-0.05751670063140303,0.9504811524410629,-0.3453464626472771,0.2774029070521029,-0.1312507410033324,0.9979462515670313,-0.3664445277571126,0.326214932439744,-0.10153199743406752,1.039218351514358,-0.3642518395449052,0.2932769842019222,0.05982142347920613,0.9909985602111319,-0.3455400980387054,0.254656252715861,-0.09905937993495889,1.0070594389910834,-0.34539190856309293,0.3257086399510706,-0.03671616697199046,1.0202042562419966,-0.3870932921780657,0.29797274857755607,-0.10575546052751557,0.9830914567218116,-0.37621099730048424,0.30136179422152054,0.1171770782695589,0.9993980281197645,-0.42981311336334327,0.3745157967147392,-0.08988271454353584,0.9598621690659872,-0.38633197068889297,0.3302574247527062,0.05220937082314959,0.9846350980241527,-0.4937801130520856,0.350489768010759,-0.12261409889004787,0.8625726021413451,-0.23402121467799797,0.3106652526488477,-0.1074967236301699,0.9829979249553926,-0.5215122617744218,0.40822863968147066,-0.028855274681206987,0.8026184498809436,-0.30376288679815366,0.32273622934042506,-0.0726476991242979,0.845159590167037,-0.6094535848395264,0.40690374666227525,0.05482859688963536,0.733620068546061,-0.2996351861250977,0.2792908855283267,-0.05304343469820416,0.8346772474331783,-0.5767559848412038,0.46393799106972405,0.07434990674178431,0.6858806832790907,-0.3210681759565216,0.3614657624658337,-0.09476626931595948,0.7614182176061166,-0.5425080656731814,0.4280643070205646,-0.04121457349739774,0.6484353784767258,-0.45309048553331216,0.5539045760566557,0.17420852702872888,1.02419350115785,-0.43811287723461995,0.5220474999470497,0.005267525727945626,0.9718418775214317,-0.5388756783406505,0.6826222389846363,0.26722185948507565,1.0229505503416692,-0.38297424339452035,0.6424576289804689,0.01064822012236635,0.8831483017988887,-0.5816968967340437,0.8494058358282763,0.27602932948531433,1.0163759776241679,-0.35047450525017926,0.8023028485725551,-0.012525308229952212,0.9417341816526419,-0.5752691501281761,0.8489888741356594,0.29331829569517687,0.8300351202693775,-0.4403073220434964,0.8332154606756165,0.04566205304396076,0.9675477489164895,-0.6041470801587312,0.8891801931041776,0.35484395019926435,0.9147883006919717,-0.38453333362960535,0.8763119530052148,0.11566517351792657,0.8699525184045483
6,-0.31569941637624327,0.2830263932131537,-0.12660358047733614,0.993178507664947,-0.3972677232567027,0.2561458750792822,-0.12441648580377075,1.0415937457616204,-0.3652338887919788,0.2626083070930634,-0.0705363574086634,1.0312293109702066,-0.34285275388946557,0.24228072959058028,-0.10367171795425778,1.0490291479458245,-0.33429892638437464,0.2929010837748208,-0.11988972269019042,0.9504811524410629,-0.33477380250607847,0.278560578265253,-0.19338879808263523,0.9979466091949001,-0.35661520193056584,0.3267735769729013,-0.16353659543271906,1.039218351514358,-0.3576374329107996,0.29452561210299955,0.01592982137024266,0.9909990370482901,-0.3310126324645102,0.25442880139139806,-0.18439754775909833,1.0070605118746894,-0.3356119504375963,0.3310669187024439,-0.08509209981834195,1.0202093822414475,-0.3748069626698198,0.30170367151494926,-0.16644139456075446,0.9831015895114235,-0.37897327979811335,0.30104824398767954,0.12847474413317594,0.9994166247689346,-0.4178361936328906,0.3739024351176781,-0.1892337200592752,0.9600269163041464,-0.40960895621734184,0.3284132272410332,0.24406435547192776,0.9852958155114879,-0.47780626994842484,0.3552595999065872,-0.24184344252154688,0.6781184590940124,-0.2921013192299635,0.3079513339629346,0.34038842030720773,1.014378637941385,-0.48223544106734745,0.4103920796705607,-0.1875840088700789,0.572640246107445,-0.3667809133165817,0.3167159814041763,0.4143144255589522,0.9555302857580101,-0.5583900034027757,0.40582457476629447,-0.13151797927331102,0.4701909334619088,-0.3584672049349687,0.2696835406625278,0.41457378384855215,0.9604639691395687,-0.5259580123553145,0.46404411713974664,-0.09832328041104302,0.43343495569234436,-0.37624072037414397,0.35398594579064746,0.35209769862184903,0.9304979385800851,-0.4927893437280546,0.429070880459209,-0.19838287163995189,0.4193002824035751,-0.4485623939358284,0.5519837567741239,0.17530881525247302,1.024368440790266,-0.44779989401124054,0.5223256748242164,0.005172719267950248,0.9720735607756734,-0.4818568139489158,0.6813662499099292,0.23152389924980094,1.0285532677412665,-0.47719583018267464,0.6600716359766237,-0.01728986642584048,0.9642609846182553,-0.43788191930733195,0.8654803740591723,0.23820710253661848,1.029862541783561,-0.5009045839817006,0.8131196014831691,-0.024559202406648575,0.9874564278226858,-0.42374623762544666,0.8768997027260524,0.2544126206872501,0.9977016747203663,-0.5985305389535822,0.8430691813405945,0.033436116557425066,1.0171030505827494,-0.4320557040999719,0.895083258308798,0.3039836298755721,0.9863874861587382,-0.5510951621710664,0.8873572897285424,0.10969023420105695,0.8953954166780164
7,-0.3236756495202922,0.28898167208659736,-0.07325022298858797,0.993178507664947,-0.4042536720849313,0.25968296371186583,-0.06846625784392453,1.0415937457616204,-0.3720101629739354,0.26565160104600527,-0.014576947295138733,1.0312293109702066,-0.3498887634444712,0.24485889869801736,-0.047613900458047045,1.0490291479458245,-0.3404997432540672,0.29637448484446194,-0.07040358058845651,0.9504811524410629,-0.3407016875446886,0.2815907889986667,-0.14396973738167793,0.9979466091949001,-0.362296417174282,0.3292874624709482,-0.11418669634837297,1.039218351514358,-0.36594895444158043,0.29446213315631375,0.06900533492243147,0.9909990370482901,-0.3323175340805327,0.2542003665902964,-0.15772617369736297,1.0070605118746894,-0.34232004310309005,0.3363132003262842,-0.03362886365320931,1.020209263032158,-0.38134029270036435,0.30715910583730643,-0.12259543584112652,0.9831014703021339,-0.3897384672927549,0.29796969388735306,0.17050559140292132,0.9994163863503553,-0.4133537340126307,0.3747498343524498,-0.19283839712496798,0.9600225055604328,-0.41247889839752194,0.3259764701533257,0.30048869372051323,0.9855108094651928,-0.4667314219773425,0.364171179753923,-0.3107603672466606,0.49689029823585806,-0.28242149480255985,0.2997850505938703,0.36769171342822393,1.0158115932064302,-0.4428003297850333,0.41115144284499916,-0.32720606648148265,0.45622069235073115,-0.3602581974370265,0.30609967891394196,0.4446227804025436,0.9602476953687582,-0.5153928937330637,0.40415314131750296,-0.2848218967906585,0.38003858041358424,-0.35245748188825043,0.2615942962968356,0.4450229775230223,0.9644790572209286,-0.4832340203241587,0.46268122713463494,-0.24820179847015025,0.34593378744130676,-0.3689515823165169,0.34563572248780633,0.379425431328147,0.9405859054990304,-0.45197017599445233,0.4274381304248767,-0.3384710493366119,0.32869496385728,-0.4545572146865487,0.5481464097434843,0.18948021674228896,1.0243624803257885,-0.44687919055063774,0.5231688421292091,-0.008562122301700743,0.9720691500319603,-0.5051244613783089,0.6805514544158496,0.24973749996685757,1.028476437354151,-0.4799334991744829,0.6640083439501039,0.004588053391202076,0.9463575374670711,-0.5029566220880973,0.8605489837736804,0.25893575556396,1.0299157687313454,-0.49332951317188456,0.8135957233856349,-0.012861582287704839,0.9486933219533926,-0.4914100041251955,0.8691283299309475,0.2755733448037927,0.9964544475284414,-0.5898122848720062,0.8441670392927124,0.04609240944661501,0.9999755366972514,-0.510674416765697,0.8933913804668485,0.33429847426221293,0.9887957522262429,-0.5396686611554946,0.8861032080024682,0.12496977333019124,0.8690773434053113
8,-0.32223034270365414,0.2911755998514899,-0.06282639874243787,0.993178507664947,-0.4047806925033154,0.2601554795333228,-0.05962130690830389,1.0415937457616204,-0.37370759564961603,0.26580249020425417,-0.005513430838022727,1.0312293109702066,-0.3523026135951131,0.24472806650273538,-0.03844437972549401,1.0490291479458245,-0.3392238007240074,0.2975569515898385,-0.05535242112286122,0.9504811524410629,-0.3387001262646615,0.2828205222273501,-0.1289855016149276,0.9979466091949001,-0.3594425334031608,0.3304820587615366,-0.0993131843678246,1.039218351514358,-0.36830158470584523,0.2943996078839443,0.07809325051383958,0.9909990370482901,-0.33315935537466546,0.2539890681245677,-0.13696645144548303,1.0070605118746894,-0.3428464247151695,0.3375435594037378,-0.02726484513211226,1.0202081901485518,-0.3800070226682099,0.30915401369329404,-0.10665481351625615,0.9831008742556864,-0.3949632793079829,0.28981509302866465,0.19205212807230515,0.9994122140252212,-0.4184766339418794,0.3747427413997215,-0.1800225947919331,0.9600209558396687,-0.4037397799711192,0.3205869287657677,0.26628099474332084,0.9846584034402599,-0.4588376044434495,0.3773274447742935,-0.28553531823989303,0.19194879304214768,-0.2655059640419696,0.2908973722090894,0.26427477606198363,0.9916569897251374,-0.42686567412125476,0.44160592945350435,-0.26435327456559693,0.08496712739692709,-0.3408742918283677,0.29461103264509736,0.3355472649396254,0.9020305275144493,-0.49409776501226504,0.43429181271566575,-0.22046715523413354,0.06683321904731222,-0.3340895210305751,0.2514398403966434,0.33230793282305093,0.9024848622364926,-0.4624977870792971,0.49294372718231866,-0.18157803206294734,0.02795631430154389,-0.35255477814028696,0.33687524041497613,0.27371894148134823,0.8168380202718271,-0.4334399313179137,0.4572588706478076,-0.2736994833092058,0.054278926953421715,-0.45695146942870274,0.5427888462478483,0.19525581080444118,1.0241381880474985,-0.4542053982005076,0.520966033272245,-0.012958895560940212,0.9720254002226951,-0.49037742581470267,0.6695872396140613,0.21573288086828696,1.0230956280470527,-0.48978834629779355,0.6611723549516908,-0.01662983561095566,0.5952367674895015,-0.47041468755477217,0.8443282353491504,0.17101160937714904,1.0122074075825112,-0.5102890196304429,0.8049097173164516,-0.04909045656452478,0.6758853662115104,-0.46082849391117814,0.8539214565140468,0.1816692589470187,0.9644874632564382,-0.6076819094064148,0.8322701310094788,0.008294162900630678,0.8572106107405253,-0.4689685562546321,0.8790115811008512,0.21276809755311155,0.9095509001602029,-0.5610853230734661,0.8823836397499047,0.07376680470323277,0.509520370424812
9,-0.33236953865162394,0.2908187468432197,0.006257007533368788,0.993178507664947,-0.41579079068566804,0.25988907657349913,0.012275552541896311,1.0415937457616204,-0.38526140691591876,0.2656513030227814,0.0664618894041546,1.0312281188773111,-0.36425592390090783,0.2446906049834941,0.03358422776457174,1.0490291479458245,-0.3476053709547092,0.29737509781862875,0.009222216772829306,0.9504811524410629,-0.3466110991162625,0.2827571028853091,-0.06455456087016898,0.9979452978927149,-0.3668666070011414,0.3303893437365884,-0.034960098315720826,1.039218351514358,-0.37974124821454763,0.29151894520427213,0.14656367922760363,0.9909983217925529,-0.3391596215041627,0.251506713483607,-0.079864016044006,1.0070597966189523,-0.35390020076332807,0.3369778219178522,0.043374030623277,1.0201881629879075,-0.3881013903877036,0.30870513111349057,-0.04530319694666189,0.9830840657458595,-0.4140960812155943,0.28244149183046824,0.26251928909500544,0.9993852727257826,-0.41248750970039766,0.3668674479064507,-0.1579487578923251,0.959995683470284,-0.41101807712635136,0.3158819765257775,0.32133299262329784,0.9831070137460459,-0.3924615240721906,0.34489527605214076,-0.32461542045631836,0.05636992599412258,-0.27040827865319383,0.2800750462641889,0.2786190662635483,0.963773877294565,-0.31666860646541817,0.3839908579183939,-0.3488872915463293,0.010091686948404482,-0.3450660042617999,0.28099873248755036,0.3482263987185622,0.8704485296430502,-0.37052017301517143,0.36689359241499137,-0.3097278250325246,0.018218679841284224,-0.3381579092667063,0.2371094532811649,0.3476051434675665,0.8696527761502193,-0.34356552831378245,0.42534001986878106,-0.2687699857168603,-0.023689061486667908,-0.3562691679945581,0.32411036929452325,0.2871759321186186,0.794696086830665,-0.32031728896743483,0.39399363641585883,-0.35726133396963844,0.00654801915560832,-0.46310417031877743,0.5404875705177152,0.20286962326625296,1.0240938421917856,-0.45188808567892824,0.5192770760578895,-0.020003002021104808,0.9720138369216087,-0.5033956433202044,0.6504018157630481,0.19906761566184966,0.9429931247473394,-0.4872890781729553,0.6636942870767824,-0.018299159176727895,0.23888148780543467,-0.4915834552324904,0.7920908438772876,0.11445714006714368,0.8969755359775917,-0.5050376330396985,0.8029127829025416,-0.05713237621005897,0.42560951591548984,-0.4818796737225484,0.7905740572792751,0.11822273247960874,0.8920237720218495,-0.6024816419685379,0.824640140431781,-0.0022170424858883146,0.6260249956778117,-0.4958101961806665,0.831375012554556,0.12525911748901938,0.790818149744401,-0.5554883711632195,0.885146076616665,0.06078168795150663,0.41028447812897456
10,-0.34436141711545676,0.29083984688747017,0.07507392923403217,0.993178507664947,-0.4283601904070473,0.2597890897818884,0.08430663244941426,1.0415937457616204,-0.39817969311446255,0.26552228876916506,0.13859714814378554,1.0312277612494425,-0.37755515770987025,0.24455369311444497,0.10588996176358201,1.0490291479458245,-0.35897463250901956,0.29650326067949917,0.07579090521039533,0.9504811524410629,-0.3580647662532733,0.2813794309282931,0.001897222740138295,0.9979431521255031,-0.3783690894875119,0.3285854091624612,0.031407140842213827,1.039218351514358,-0.39469295519271,0.29087333749438743,0.22066259635767596,0.9909984410018423,-0.34945589721331166,0.24750482783106487,-0.029236363951795144,1.0070583661074775,-0.3668758540662535,0.3372500363305414,0.11317277367895834,1.0201985341960982,-0.3999163535281827,0.30842168122526115,0.017296957073012983,0.9830825160250956,-0.43832345779499343,0.28453847264063364,0.33695610627506667,0.9994014851891616,-0.4053064265837936,0.3652643809852165,-0.14325043611278798,0.9599217737107624,-0.425786307692021,0.3049170166659294,0.40380657963015454,0.9850541782815685,-0.36401648286242444,0.31152841709294277,-0.32299380520495347,0.04155992451652338,-0.2763372096983073,0.2581392554869824,0.3659487945551576,0.999839217336679,-0.2910807680524397,0.31758612783683565,-0.2902063058883572,0.004247729993627283,-0.3510067863436428,0.25766512338339387,0.44520248725925915,0.9191330074491417,-0.3459623680967994,0.29121271067632865,-0.23971989328997514,0.012150330956701726,-0.3427125147258975,0.21383923371672703,0.44858073603877824,0.9149463457150386,-0.3186951538214223,0.3481781117190618,-0.1973021937356755,-0.029512679287738108,-0.3577219190962539,0.30146578988397027,0.37571701748077974,0.8792616071172251,-0.2942604908911652,0.3215514624580341,-0.29495626305683265,0.0009729229209291188,-0.4703833941974883,0.5438054034644926,0.21850952119698067,1.0242559072209299,-0.44182830823818986,0.5223986309094215,-0.03610632522866468,0.9720267115248802,-0.5320682843628196,0.6663418263106861,0.2472029876815348,1.0012887323141728,-0.4728994657312735,0.6683395154627076,-0.057389150531401645,0.06113490502912666,-0.5379046968870076,0.8363674389929492,0.1881155953877811,1.011899609196891,-0.4872000147314899,0.8068730943153529,-0.12318449797027912,0.24145956517276823,-0.5290771895032816,0.8388320042473537,0.19843470632709162,0.9238564670291738,-0.5822835727381845,0.8285155152257874,-0.06906510589690065,0.44119412147317605,-0.5509094148116879,0.8780471779483854,0.24610197969136094,0.9336028048385477,-0.5422375091067967,0.8884324383110009,0.013431395562598474,0.2866949028382947
11,-0.39023535972196843,0.2730722685240516,0.2536995489138716,0.993178507664947,-0.47857732296206673,0.24234590969765987,0.24832673859365362,1.0415937457616204,-0.45000129983342657,0.24811087796060174,0.3028829667963116,1.0312288341330484,-0.4308857596443233,0.2272379477607463,0.27027587897582067,1.0490291479458245,-0.4049733913501373,0.28038908535982754,0.24299110261908036,0.9504811524410629,-0.4025925917259921,0.2661817962313327,0.16892247439321725,0.9979455363112941,-0.4212147411732499,0.3144695987681741,0.19814121224697293,1.039218351514358,-0.4446480017732884,0.27756767343188743,0.32657271570338847,0.9909985602111319,-0.3875736571024036,0.23913430914667766,0.09337929127533617,1.0070580084796088,-0.41407796597972624,0.3236612800076807,0.2743311359973485,1.0202011568004685,-0.44255582135592275,0.29557896643873166,0.18312596658080324,0.9830907414660743,-0.49099217786901356,0.28175445889246475,0.3891758485770607,0.99935415910121,-0.42714207643730057,0.3696649919089836,0.005378982344531089,0.9586634600549092,-0.47499872551791594,0.2895421475577294,0.4574330164295216,0.9841807318170299,-0.3879450543137362,0.32897526286282497,-0.11522536163238663,0.10927787344499879,-0.29576924232908847,0.2400107411971265,0.4443533509901296,1.0023356982784517,-0.3288268686649791,0.34516483934654024,-0.00348485264231925,0.034517711355552885,-0.3787614813194943,0.23768050555407105,0.5317555911348859,0.9041150211515341,-0.3845258119346054,0.3206488817311687,0.07251487165839332,0.024905827384118524,-0.3737880173778075,0.19553300817847322,0.5437033113376102,0.8914497179074214,-0.35846214086388756,0.3761283389796514,0.11104807572515449,-0.016539607280439704,-0.38979957776877383,0.28295862218701745,0.46122775954075845,0.85661625284629,-0.33082531968158313,0.3474414551719623,-0.005268743426839098,0.015718607261525318,-0.4948560748727084,0.5471577475005949,0.21664376670326538,1.0241852757168712,-0.42844531173222244,0.5253211658520485,-0.03136769076879381,0.9718952832831502,-0.5692491157823766,0.6753178685813465,0.2728493010216088,1.018721958422724,-0.4735143524201046,0.6464902408273927,-0.04614185016447915,0.5285459649153438,-0.5563453042425416,0.8474471675963122,0.19543889189886365,1.026170987714042,-0.4225741175885923,0.7857056968162685,-0.09591795640817527,0.7971523273092277,-0.5375735625324475,0.8473525478226406,0.20786792671879337,0.8569522798267201,-0.5360090200506396,0.8139902805265381,-0.042741685524541426,0.747005616062028,-0.5827099603974519,0.8904956080097257,0.3087002720652534,0.9719790169586039,-0.4474041449965904,0.8459103655189477,0.06537404954266644,0.8105135149369885
12,-0.39669686828008416,0.2649535198591956,0.00702583768243551,0.993178507664947,-0.48118308244299823,0.2384702368804297,-0.0165521524392175,1.0415937457616204,-0.45239474567786425,0.24494801709024047,0.03791793060522735,1.0312227544592816,-0.4331898744081458,0.22471911507718306,0.0052784768080513245,1.0490291479458245,-0.4072495221898593,0.27694500977541586,-0.004047868901672469,0.9504811524410629,-0.40298457726596193,0.2634363466883334,-0.07840820186266093,0.9979437481719509,-0.4198079030331293,0.3124757935981149,-0.04926779721504677,1.039218351514358,-0.4293282636535672,0.2792556471696041,-0.013037292599495383,0.9909954607696037,-0.38550932052526266,0.24055337652949016,-0.09146940389587702,1.0070583661074775,-0.4155005525389065,0.3186829808667505,0.018891671790245056,1.0199954611713486,-0.44458003604049773,0.29087383538480704,-0.04856255600302835,0.98297248585084,-0.4662152646841278,0.29284259175074107,0.02404979036963985,0.9966069214188674,-0.40299784789133963,0.37793397408099594,-0.12733080374650046,0.9575459325700154,-0.4673341752495607,0.3000183791327416,-0.005142890324590199,0.8949808907945384,-0.33891257889405974,0.2566401090446945,-0.21079263410693488,0.6655821121816283,-0.31560658701557215,0.2503429679503613,-0.1608861772346103,0.5798683473186738,-0.2534154265927181,0.22796950133575228,-0.2690424597645842,0.45218143458591487,-0.3872631537637874,0.24982684437452846,-0.11626006509492573,0.30121150605105496,-0.31117092477740527,0.1865136205531521,-0.17352922834071674,0.30658238243651814,-0.3834421818905141,0.202953682144881,-0.10967787688701541,0.29065745892953143,-0.28003537376600435,0.25287186424629876,-0.1792481427343484,0.2545183225632245,-0.3985845746168529,0.28804347953164483,-0.1483037027703142,0.2823006154962076,-0.25647142094838,0.23112300579394873,-0.28594897367349703,0.3496603612152206,-0.49673863542439606,0.5628165433341825,0.1314730188402513,1.0240103360844552,-0.4333482688231023,0.5387112896961952,0.053765538211230354,0.9711938558234334,-0.5954116300909128,0.6851781457572498,0.2720163596019968,1.023354014182154,-0.39837116300114794,0.6312730558069459,0.17510524249248932,0.9471225630827632,-0.5383324924386785,0.8647785293669421,0.10281656763141495,0.9640465565807718,-0.33926900591900255,0.7584868781517177,-0.07720405515280337,0.7274715173345573,-0.5047159990545016,0.8689216210228664,0.10449523702209597,0.5323275029865101,-0.4312105889215299,0.782245919602771,-0.029478078572401038,0.4845752760103769,-0.5968632341178989,0.9061097003597318,0.19957254518068496,0.8468066999305582,-0.388620586076719,0.8333377193778955,0.09338281849849461,0.5838844961534192
13,-0.42580454271806545,0.24893566564548097,0.007582149608500211,0.993178507664947,-0.5011951396313626,0.22430879913056698,0.01422495100472591,1.0415937457616204,-0.46611680186721854,0.23189543434945678,0.06765748516104378,1.0311141547965006,-0.44077927986057763,0.21279374557606917,0.03418155885492672,1.0490291479458245,-0.44837984066254744,0.26110507542635586,0.05581829666181794,0.9504811524410629,-0.44914971958676514,0.24766004029757108,-0.017948681936742213,0.9978045117217557,-0.4710275999376554,0.2967729797343607,0.011860914793793857,1.039218351514358,-0.44452710782696064,0.2779880947938107,0.14523526167874057,0.9909159481734733,-0.46122985290839336,0.2364068900087229,0.12552437951217915,1.0068673332209723,-0.4367957521062949,0.3023194793179835,0.038167414423471234,1.0199312073642808,-0.48822811242847497,0.27284495025869315,0.005022058124722378,0.9826446603045755,-0.41648537698069465,0.29936727379572403,0.08789783411890528,0.9991603844010452,-0.5372435907138997,0.36162003379435964,0.17141119682206835,0.959545072355782,-0.4166084961777029,0.428167024295324,-0.14887940142579323,0.18821775738789936,-0.52972948160728,0.3658057179275986,-0.0018121947400154305,0.18562634955688767,-0.31562128119129945,0.4155015973677808,-0.33673266058373175,0.03491456893255773,-0.42307433252580845,0.37410885484947,-0.17671507991597124,0.007703297167287081,-0.39513996200889434,0.43060460273443757,-0.32134365213288973,-0.005059940817722354,-0.46867725338531957,0.34906515770925706,-0.12821764506468927,0.017642196755532726,-0.39796699026668253,0.3810062714421756,-0.27977447034826025,0.003596959738247238,-0.4270835268959113,0.40881084720986083,-0.12212012163290861,-0.024455463597125308,-0.41699469680620094,0.45983232101762195,-0.31240715183566037,-0.0019429234795080887,-0.40973583631700566,0.3840462768539386,-0.2030500571378114,0.001271856978284018,-0.4324392471327536,0.5787864158088529,0.04091354276647492,1.0241480824185312,-0.49321782142492465,0.5442301433605934,0.14304964034812884,0.9719400463713768,-0.4811970381153805,0.6869336813598194,-0.05059154577432978,0.33230914714342713,-0.523944105432576,0.6677541382463685,0.09059222505099353,0.9058219086714472,-0.38061847634096824,0.8402637946219165,-0.12867507894710817,0.4450272806770699,-0.49705690370573785,0.8404881470153956,0.007580358520218159,0.9096915590864189,-0.34758211590097504,0.8459684683663112,-0.12814357176868582,0.604419857284148,-0.5678310762231089,0.873543367284198,0.05296409492404333,0.9423350437811442,-0.43783904282010794,0.8568741180080472,-0.17521430832569612,0.06593646347416406,-0.5896998074686551,0.9058945130676233,0.10565409574207671,0.20139599210125703
14,-0.4530761188810136,0.2667688091181525,-0.001159011427250286,0.993178507664947,-0.5319118900897917,0.241594742161878,0.006006238837638029,1.0415937457616204,-0.4974294181046743,0.24908213564721673,0.05945942976419135,1.0312225160407023,-0.4726718099477085,0.22984004813306075,0.02609165005707772,1.0490291479458245,-0.4763332521475271,0.27838818723704006,0.04553136902352568,0.9504811524410629,-0.4762203236016269,0.2648627752447757,-0.028282593998201606,0.9979412447768703,-0.49713788997803393,0.3138306071738596,0.0013236635610966718,1.039218351514358,-0.47110785835698366,0.29169561337138633,0.13679666040833777,0.990994268676708,-0.4809692909940215,0.2502921198346964,0.11412271967112997,1.00704179601623,-0.46075559306431385,0.3203165355637873,0.03209331033300291,1.020069430535515,-0.509509808909874,0.29061699897046994,-0.0022374469513031688,0.982949716876536,-0.4188434539237221,0.3178738901497127,0.11030781800020725,0.9992620103203872,-0.5423204556342605,0.370325262361483,0.16270397240554524,0.9596734607606282,-0.41735621166626413,0.4139348060297905,-0.04570521110453202,0.5207910967309703,-0.6047999066356693,0.3100044157330032,0.15764518066001607,1.0050792611722597,-0.3491665652656104,0.4073312608828717,-0.11571847981483294,0.30232384887507024,-0.5219538515574189,0.26664159091247347,0.1433211072348373,0.7601366698287585,-0.4353974448490301,0.41738238517462306,-0.07843866093528967,0.23505532733821016,-0.5792004124493254,0.2291021376229687,0.2103084748671311,0.6490361304242653,-0.4369434302241131,0.3748659201467044,-0.05684364178209046,0.260668872026913,-0.5327802017336378,0.29239206831352904,0.21367024026215012,0.6049372180462416,-0.4544459666584144,0.45765397986733813,-0.09559441443884488,0.22206781227069033,-0.5083329767754393,0.2741622233852344,0.11954188047397016,0.5773258451667893,-0.4118093585833502,0.5902542898589933,0.04064614977815184,1.023876940889448,-0.47579368779854403,0.5686074893994117,0.1373787900319702,0.9719305096282127,-0.43303690991736044,0.686358198514513,-0.029135322122331622,0.4021544659376776,-0.5321379239809547,0.6787035114916078,0.09905374742566711,0.9660147916861263,-0.3595995047718902,0.8379963743300158,0.02007323369812381,0.4828528948910134,-0.5223347884636087,0.8423407189796596,0.1728706969697095,0.9491061437231071,-0.33303200022891666,0.844236715017007,0.03429175076542838,0.7155642211643055,-0.593280393537829,0.8755584811147644,0.23365933768745545,1.0145879133871623,-0.3983686085308108,0.8546138502735197,-0.010849262593851217,0.22308326750887394,-0.6221479622030259,0.9062363457054101,0.24785652112603565,0.6228385753045728
15,-0.5497417246302826,0.2928841967962989,0.58238895382374,0.993178507664947,-0.6343018292537094,0.2629751368590674,0.5555389847557904,1.0415937457616204,-0.6058677493786859,0.2701084191497955,0.6099641557490689,1.0312290725516275,-0.5870995784727736,0.2505137999641154,0.57741313311155,1.0490291479458245,-0.5618511540795047,0.29957048589731833,0.5918093573313151,0.9504811524410629,-0.5561528560327231,0.2854155892515811,0.517324614077393,0.9979461323577419,-0.571494358712068,0.3338073124865884,0.546120067474591,1.039218351514358,-0.564600166859807,0.3069228715768002,0.4788661462257555,0.9909990370482901,-0.5179275732406465,0.2640482460000865,0.43626034214197634,1.0070592005725043,-0.555609745384746,0.3460829380467737,0.5403837579373305,1.0202084285671311,-0.5866289023605284,0.31573633342977475,0.5037247069306993,0.9830969403491312,-0.5559475907286772,0.32409440969240677,0.3557076406461257,0.9993880145394424,-0.5116132756544451,0.3893083880481285,0.3683807683120456,0.9571680391221395,-0.6602147752583176,0.3459669441389977,0.44252218244242,0.9513510895211925,-0.5317770629954255,0.34722733758130037,0.4956689067872849,1.0031458057050353,-0.5452697144121222,0.3527871100535565,0.6271162455820217,0.6617623874264008,-0.49013960726567946,0.36334163339866427,0.7013798062153792,0.8074185311339953,-0.6240607293062563,0.37344184104620515,0.7137759118459456,0.24018189303301912,-0.5548587800822596,0.34020465904249375,0.8153975242587884,0.648597559448008,-0.6050459237691715,0.3359326430165775,0.7233185873631238,0.25098758759927015,-0.5233643167664855,0.40495529096024224,0.8195989598757736,0.5821840985775526,-0.619265823974131,0.41875873050057794,0.6459472060991589,0.1764742674298776,-0.49485861035656475,0.3817582929595905,0.6836521484997146,0.49886199276124116,-0.4575073820395286,0.6007919738227689,0.06370230232035574,1.0241825339032113,-0.4320133530098241,0.5654561918301368,0.11515780504130778,0.971442407192147,-0.6119236636518581,0.6754965037017383,0.40633599257137737,1.0095190608740485,-0.39797451980070064,0.649982953801941,0.3286032338856601,0.9874024879523005,-0.5266605830751683,0.8726467597098071,0.2382582573724436,1.0092279502041237,-0.3292114172105152,0.7980523817489772,0.15038840510038506,1.0001441109281546,-0.47503781103959203,0.8861680461746914,0.2359215994145535,0.9376964867320849,-0.41190901053547824,0.8273553704198792,0.1971197367532829,0.948399637573106,-0.6110024169199072,0.9116950132030546,0.3558556229495628,0.9325215765823222,-0.39437083288915753,0.872146661219021,0.35565148712225153,0.9377563185105969
16,-0.43810219844890763,0.3102458973311194,-0.34086292739264024,0.993178507664947,-0.5176808654167087,0.2804080053397498,-0.3335551634478098,1.0415937457616204,-0.48284272051545524,0.2864520723518524,-0.28017712888163837,1.031228953342338,-0.4578628404119518,0.26583055454365945,-0.31360511696705784,1.0490291479458245,-0.4653303667175109,0.31937880808855673,-0.2793843695296548,0.9504811524410629,-0.46552093443411063,0.305962979235712,-0.35309909155777575,0.9979463707763209,-0.4866325852317254,0.3549586167315836,-0.323425794048788,1.039218351514358,-0.46238259509943797,0.31931378315593223,-0.1573756342669473,0.9909986794204213,-0.4836933897976273,0.2841752742269389,-0.11314664031193218,1.007058485316767,-0.4467921490957943,0.3585533622220362,-0.2872309647187485,1.020198891823967,-0.49934935398835195,0.33051920920606565,-0.3023393195658583,0.9830922911868385,-0.4259806267197503,0.32783033941996104,-0.09251923654444132,0.9994112603509048,-0.549265267031279,0.404465670400576,0.029144215279315572,0.960023816862618,-0.4095294460770332,0.3743631929564415,-0.1738462986167222,0.9540905785997144,-0.6619848761022966,0.3479712929550644,0.11645932228342497,1.0302179969434389,-0.28277137073061603,0.3943830160727673,-0.10781947584204409,0.8781519838886506,-0.5909986442835906,0.34062010439170626,0.1203430099032207,0.635877197935448,-0.35271314595783454,0.415701832215181,-0.06606877420384356,0.7735118269147787,-0.6488165976910112,0.3168563275910778,0.18477195235054109,0.33684625339103175,-0.3446638340119253,0.372692377170325,-0.04944412441287692,0.7835321110768245,-0.60278022694676,0.37601336161987975,0.1781901663992615,0.30446790895467346,-0.3653658752188417,0.45044709286057855,-0.09442891375706515,0.633237117714454,-0.5790389276703944,0.3499000275596576,0.09142187039684094,0.2513602618423569,-0.3879060648612343,0.5883121917182768,0.009230961419528227,1.0233102795315683,-0.4486167594329168,0.5861401360554481,0.16142824613544793,0.971553867877877,-0.3687360175787515,0.6669010370879688,-0.05365672487547689,0.25420058312422394,-0.5119435751385528,0.6728571303041688,0.13118567438372147,0.9046152126379696,-0.2895459802905875,0.7905097114653308,0.03912830255654146,0.4416166432983773,-0.4589348331339388,0.8244890682647853,0.22920889610246234,0.9327828157049186,-0.2560923939815736,0.7968536450249416,0.05533958229955737,0.7450615465846852,-0.5653635236126129,0.857236907380481,0.29560367355499745,1.0232844694784706,-0.30197676044428223,0.7910468079227506,-0.011630215712609991,0.15184245496881965,-0.5940766576069141,0.8824564170211755,0.30272430277823914,0.6456616110215833
17,-0.4331475419660133,0.335725661077381,-0.43119408329104075,0.993178507664947,-0.5125244806800565,0.3066597386428198,-0.428851766203721,1.0415937457616204,-0.4777273787894952,0.31219272562829586,-0.37544284253389515,1.031228714923759,-0.45272212591672617,0.29113058048360085,-0.40882913720403347,1.0490291479458245,-0.45992810586084665,0.34651722008730557,-0.3788847164207022,0.9504811524410629,-0.4604287254313368,0.3334381574774417,-0.45258819435097053,0.9979463707763209,-0.48185830534415947,0.382690214155137,-0.4228293507584841,1.039218351514358,-0.4595344022656595,0.34310453008319364,-0.24731589016515634,0.9909982025832632,-0.47744052412039983,0.3108229611852519,-0.2323056983880531,1.007058246898188,-0.44327189716505255,0.3818915012791956,-0.3729274771138518,1.0201782686168748,-0.49542869288913155,0.3549060621857257,-0.3934012412075601,0.9830796550021463,-0.4157471711502379,0.34445154165041453,-0.16048052260241036,0.9994042270028214,-0.5541400347286497,0.4253696451720757,-0.03503499452831836,0.9600270355134358,-0.39929753926031336,0.3810328334975182,-0.21133021378407046,0.8812326622445812,-0.6644900073045432,0.3731904949966904,0.095937479842524,1.0097680009488708,-0.27070732550270754,0.3989989487757855,-0.13035249371041727,0.8262424179630524,-0.6030429706596874,0.37968370707763466,0.12183194582001436,0.37235317225681325,-0.3384848829087407,0.41670387570082246,-0.09250941804541543,0.7559726833524618,-0.6607554739242878,0.35044098192228507,0.18580617943709943,0.17963581394744343,-0.3317848327604435,0.3749869175755985,-0.0732059957508058,0.7632230204625057,-0.6188251088566269,0.41504897992508605,0.17962028418803333,0.13225997231011938,-0.35341209570534177,0.45570639809930225,-0.11595574960782414,0.6026715578504098,-0.5937505253593381,0.3919207060798603,0.0911096139947973,0.11908339898263093,-0.3719507440617978,0.5896096060211027,-0.005515905583314004,1.0232377406788769,-0.4505960296254677,0.5850074689907814,0.1737907200122658,0.9715640602721334,-0.35299158802438185,0.6654188483863391,-0.0852508961439522,0.07753712850219363,-0.5444944905667256,0.6662835724504701,0.12442239184397451,0.8865249049254146,-0.2770549472015175,0.7896905052275378,0.027348466273724274,0.2119784244186776,-0.5279616638969243,0.8245125524948268,0.2732161435033448,0.7583573329549796,-0.24324521087555695,0.795185966668771,0.046995916313990645,0.6486415565219715,-0.5913692960285051,0.8569816802915527,0.33761196122762654,0.9932332976988383,-0.2913800560091388,0.7926499344486295,-0.02520787265360263,0.06725736945761206,-0.6373959926037153,0.8887585353225671,0.3244666721501209,0.3581048435578992
18,-0.4373885988336436,0.3501906652830848,-0.3994523268130979,0.993178507664947,-0.517762480635618,0.3221717878409705,-0.40199294600880964,1.0415937457616204,-0.4834706638834223,0.3267113144096527,-0.3484234574598648,1.0312293109702066,-0.45890873211214894,0.30468232232205605,-0.3817656567152482,1.0490291479458245,-0.46435870837839466,0.36520819360758444,-0.35226937359534427,0.9504811524410629,-0.4647627546985943,0.3532484466219577,-0.42597692389975395,0.9979466091949001,-0.4860707256190387,0.403529488084733,-0.39618847663652484,1.039218351514358,-0.4673530318602206,0.3566278405060909,-0.23185914968328,0.9909990370482901,-0.48361770486463485,0.3332791005113474,-0.21869328474392447,1.0070605118746894,-0.44992010751918654,0.3953140202477778,-0.3440888070528217,1.020209263032158,-0.5013829398091241,0.37188367038961356,-0.36487513195195737,0.9831013510928444,-0.420170730187394,0.34834873174440867,-0.16507958106555423,0.9994168631875138,-0.5643763396297171,0.4573771308002037,-0.019243930271457765,0.9600278699784628,-0.39629648630550096,0.3825699776816307,-0.21161766113004682,0.9837798309762708,-0.6471930707379372,0.4319077756229874,0.068202183963729,1.0191470302228576,-0.2544622882927458,0.398789587461012,-0.15687323279758944,0.998799771936441,-0.6147414492329708,0.45005563290847567,0.052165336225423097,0.7119928657554248,-0.3162112056197476,0.417189891974321,-0.13509536625846386,0.9322440623464501,-0.684839724108956,0.42884165340437125,0.12457226128416837,0.5938460440595192,-0.3150936863253828,0.3758112498128421,-0.09305132185655245,0.9389353078885007,-0.6427346650316573,0.48500096123116204,0.11126348210835771,0.5610269530773695,-0.3384595186421806,0.45465902528130914,-0.13301712231967633,0.8987132849164499,-0.6152775924086651,0.45838644151534613,0.023821866300059724,0.4717252198902237,-0.37815676546902655,0.587690634482559,-0.011855741004417282,1.024278676195234,-0.45822174614701994,0.5947944920582557,0.18234217495505908,0.9720362482680442,-0.35550360551242705,0.6030413359313526,-0.1581624656945237,0.8593371713400518,-0.5403294413817437,0.6761667974146119,0.11268562905712061,0.9966753017492976,-0.2740379439428607,0.6836685049147326,-0.16310850390670512,0.8882844039089577,-0.5045357618476801,0.8277157061050563,0.11818883151695117,1.0062774288755423,-0.23733407419343772,0.6845407320839626,-0.15632396235083001,0.9459005296436146,-0.5656712965793178,0.8551236843046143,0.16689950328804876,1.040792737834794,-0.29677594825991355,0.6723575092929899,-0.23340335068395357,0.645227009951005,-0.6163077730473163,0.8982025336593591,0.24591019887448015,0.9352377838502576
19,-0.44214912015592206,0.3684287329100379,-0.3716177747414348,0.993178507664947,-0.5246136506620082,0.3414386018344244,-0.37503862429163426,1.0415937457616204,-0.49111271894787045,0.34577463814584347,-0.32117751041319365,1.0312293109702066,-0.4672092516464121,0.3235807796107982,-0.3544112027331039,1.0490291479458245,-0.46757674400267385,0.38552816206957485,-0.33112364621939494,0.9504811524410629,-0.4667651540544648,0.3738661104822787,-0.40515258209307436,0.9979466091949001,-0.48681046533185035,0.424333714483201,-0.3756060386044585,1.039218351514358,-0.47391779643092213,0.3751721567979,-0.21491243689098202,0.9909990370482901,-0.477418399340232,0.3540614818075053,-0.23325247125109,1.0070605118746894,-0.45486670733196105,0.4131508890107477,-0.31743986020568704,1.0202093822414475,-0.501699922195241,0.3902725377678484,-0.3482763874642116,0.9831015895114235,-0.43396965598800047,0.35519813989412796,-0.11786712753603885,0.9994192473733046,-0.546700394460884,0.48418881993861623,-0.06216884682865964,0.9598675334840168,-0.4161249230108481,0.3862988144564568,-0.111032316464346,0.9855480027635327,-0.5883933096462901,0.45111838243641816,-0.03947008541485539,0.9506348289136536,-0.2825349751505897,0.3943657307257825,-0.06263183670366766,1.0147237488346346,-0.5561071242692684,0.4724502602411631,-0.0866497656951532,0.6182372629188159,-0.35017036882202257,0.4130139607590347,-0.022004389577973613,0.9606426357450399,-0.6255567593245761,0.44589832716955374,-0.018728829303365224,0.6306628794629616,-0.34459478594212434,0.3699729152524478,-0.005903836062652806,0.9672621172947811,-0.5933440938650792,0.510810904907157,-0.029577164324061336,0.6044272407055433,-0.3662977395473691,0.44864002904260064,-0.04719272428424687,0.9543762745328439,-0.5668430289469972,0.4841338003143268,-0.11147702990682389,0.568947399064647,-0.3850908127773501,0.58807383274382,0.020596083270194278,1.0243744012547433,-0.462281925834794,0.602594177059629,0.1516593668948566,0.9719890413893821,-0.309508827176889,0.578136488786272,-0.06350666588773188,1.0285989248991645,-0.5214085908642744,0.7074547059686891,-0.04480718533336174,0.9986623417921748,-0.18362481796137442,0.6378549444288928,0.013754903204897608,1.0304558464176552,-0.48882699505768656,0.8309016935775905,-0.06314594456404217,1.020993100414849,-0.14541445132264155,0.6371791793686611,0.025017328603635043,1.0012988746372058,-0.5553082784842633,0.8536107396062805,-0.017233018494755583,1.0449126704863139,-0.1716257511738432,0.6106931664127409,-0.06252112979541033,0.9929600903381205,-0.5675171779121229,0.898637766775509,-0.07231829650656058,0.9797054118524242
20,-0.454088098434779,0.3841135163687476,-0.3388549786300977,0.993178507664947,-0.5324274871011252,0.3575448199340186,-0.35657019661823663,1.0415937457616204,-0.49878997442121153,0.36230163523522946,-0.30296475471254847,1.031224781017204,-0.4748611141390648,0.34050355154149275,-0.3361705389686667,1.0490291479458245,-0.4772175468138665,0.3990684598162331,-0.29877925842419206,0.9504811524410629,-0.47608155370001615,0.386170863547388,-0.37262886613056756,0.9979423176604763,-0.49585505563537785,0.435491852996766,-0.3431592592414319,1.039218351514358,-0.47314037352671945,0.389287341343417,-0.24858575572537947,0.9909964144439201,-0.4848986103898151,0.3602283273675791,-0.1977361271861174,1.007034881877436,-0.4628964651813674,0.4274343970731104,-0.3062019817773416,1.0201932889873582,-0.5130426080275152,0.4034112194180102,-0.31583645924165477,0.9830754826770118,-0.4231268506631646,0.36843379830133927,-0.22089590707250978,0.9992967002236466,-0.5539532695414963,0.4686154971656365,0.0007693664788439997,0.9600161874680868,-0.40747441385301814,0.3942969233202873,-0.24548833590292415,0.9791287613351574,-0.6032788245453694,0.47111398242154084,0.05029401989357726,1.0313692606572753,-0.2753930743221707,0.3921909658541852,-0.18163281538206857,1.0000638672428377,-0.5842102407982309,0.5529988447023753,0.04926773280378901,0.9737299739860156,-0.3397226996373217,0.40781989280401765,-0.1541991414498866,0.934979736727706,-0.6593138747910822,0.5507971077538891,0.12731088111456762,0.9633436412770792,-0.3393179949648223,0.3617987640702731,-0.13059023169587078,0.9400415700955318,-0.6221211036642432,0.6050622991790076,0.11570239679918949,0.9170854314327772,-0.3627782171771742,0.44147951444947625,-0.16301369883747752,0.9145581068463815,-0.5923084159635963,0.5718786323532062,0.020787840468350048,0.9131563548294176,-0.3839250329931229,0.5880476663047636,-0.02836829968438681,1.024188971204847,-0.47029298279910425,0.5905733507199074,0.20186338778787852,0.9720083532942894,-0.40555431804276626,0.6226368993430652,-0.10892323958585932,0.9024867618323004,-0.5391554189154253,0.7066467650087587,0.1452659848529248,0.9987501990385736,-0.31840915354174926,0.7178416359038073,-0.14180288848785744,0.9280579277164833,-0.5139483028676242,0.8315932862709193,0.10930235497715513,1.0174653399091727,-0.26213141429237063,0.7174476816040737,-0.13807253754224444,0.9286993444171742,-0.580617815559372,0.8576001380857422,0.1645908718426245,1.0415129407576151,-0.369662964958276,0.7133185364383756,-0.18009395125766575,0.7702014395583964,-0.60789324241818,0.9046307753890954,0.17068503250633743,0.9697727746377638
21,-0.47666246373520743,0.3874011297606238,-0.21441535150323543,0.993178507664947,-0.5538391848407572,0.3635235532351813,-0.2389713112535765,1.0415937457616204,-0.5205736253620775,0.37042342373696896,-0.1850986348543371,1.031228714923759,-0.496977149175385,0.35072556930653787,-0.21828930588595458,1.0490291479458245,-0.49708203143283136,0.40093679720904013,-0.17601695304484638,0.9504811524410629,-0.49475793209139013,0.387102305331293,-0.25013616067190114,0.9979442250091091,-0.5133567761943822,0.4354573717097635,-0.22087442555979217,1.039218351514358,-0.48138453852119445,0.40517981718684654,-0.199052914174101,0.9909983217925529,-0.4911837053985504,0.36285659417895,-0.12322697957310103,1.007043107318415,-0.4798186734403285,0.4365817728951777,-0.21015905448893968,1.0201969844753342,-0.5290988084571983,0.40766010671850156,-0.21303416713846668,0.9830771516070655,-0.4249070094947724,0.3998809108616114,-0.25087382633288124,0.999326264127455,-0.5358757402888314,0.4646024058398766,0.05258984514168692,0.9599522912888876,-0.42008757576868533,0.4682261139559685,-0.3501161194436883,0.9293082189996471,-0.5214796547740617,0.44892558715977626,0.1121066568698738,1.0203006781224853,-0.38427687441729175,0.4857419757476026,-0.3158918191564808,0.7111218282299286,-0.4853768637894797,0.4727535286737803,0.1144245098443015,0.8735265194915393,-0.47615804981188736,0.49962889734922944,-0.28656570984112967,0.5404477118673239,-0.5529658565824189,0.44991424971594046,0.1964440403636973,0.8206907720525307,-0.48299868948494057,0.454980910619498,-0.2443850837356389,0.5727020186467098,-0.51922060012617,0.505766206191947,0.1865573747205699,0.7706138714314039,-0.49526976663957845,0.5355034275945415,-0.2844988964225959,0.5783644260831369,-0.49296471509318585,0.48116152529563483,0.08799471378892809,0.7732370142189133,-0.3888712524480709,0.6095166037017667,-0.06330864027936735,1.0243295785618725,-0.4517374918766177,0.5838224094433571,0.23423853725694796,0.9720442352904441,-0.5016461050768926,0.7065676897674121,-0.0666614625146271,0.9297810399771368,-0.5282642888627819,0.6992618091257325,0.20889463840744785,0.9989434969015805,-0.47718496065389565,0.8590535032362658,-0.12097014733159177,0.9388791509754554,-0.5060545137953536,0.8341462724159389,0.18285494383948867,1.0209451782804495,-0.43451834212938656,0.8682311608177883,-0.1168511143926158,0.8692892492023304,-0.5696169096292674,0.8624921893056824,0.23384069278386177,1.0390116318396159,-0.5603578008896211,0.8777530290264188,-0.13582397349387426,0.8476318666328287,-0.6268779446762572,0.9025806736320459,0.2659514798533928,0.9788619465242078
22,-0.4589436475479585,0.4514983256243476,-0.3020790970041746,0.993178507664947,-0.5425036209948226,0.4333417221137366,-0.3194113952731632,1.0415937457616204,-0.509578136772323,0.4396397943195496,-0.2656503822634641,1.0264843044089276,-0.4863806485499452,0.41933057504765725,-0.2988351252561405,1.0490291479458245,-0.48418898862171755,0.4714212864115396,-0.2701189183861277,0.9504811524410629,-0.48282264369629996,0.4576484853411349,-0.34399136285940113,0.9850695025283353,-0.5022751048006906,0.5059947302321786,-0.31465663592480797,1.039218351514358,-0.48360262901951845,0.47149704764987455,-0.23237841083882269,0.9890054404944877,-0.48463900036088925,0.4309012566545359,-0.21914826368375162,0.9664903719897406,-0.465737044008015,0.4939629558041895,-0.2794411977240192,1.0192113024646834,-0.5132155990424296,0.46578712254758786,-0.29900828743355884,0.9756767581210428,-0.434336642136237,0.42372217272532,-0.19363661954867778,0.9988726131760696,-0.5424080927366648,0.5038003275928064,-0.052214308385233804,0.959959324636971,-0.4201275172906812,0.4647060722517906,-0.21597183055139813,0.8222250771959057,-0.5894552643428439,0.48918593190350496,0.020829043360089696,0.9486200131063109,-0.27830230819009627,0.4736298648944074,-0.16726741876554346,0.8053258368091828,-0.5867605636100941,0.5519549885584238,0.08143417150189175,0.7345086395286181,-0.345622508466104,0.49458509270369105,-0.12513919678647947,0.6530991195859823,-0.6661126187870088,0.5447179108239575,0.1747959656613655,0.6636266918141884,-0.3412915229124142,0.4509775050485141,-0.10047861090022256,0.6524845046086238,-0.6276340198348882,0.5980846218337317,0.15970292175082423,0.5905704124928053,-0.36213275621670393,0.5288690730031719,-0.14755972636261044,0.5384243668981088,-0.5950909088449566,0.5666515434249836,0.05313396618683104,0.435027891799556,-0.4108499499905108,0.6134423444206083,-0.014715818308932795,1.0242700931263864,-0.4737282511944515,0.5868561070484901,0.1926956047369546,0.9720153866423726,-0.509893879587055,0.7008939832358875,-0.006525195390052085,0.47034268620020503,-0.5332630168831312,0.706434632078003,0.15956734155579821,0.9959372174330441,-0.5255707248832417,0.8408070313543994,-0.0520028164750356,0.6055005379803078,-0.5422189747586745,0.8183844201515346,0.06276107981503164,0.9810075628858574,-0.49748243407261056,0.8465773894173366,-0.04641316464992104,0.6160710156169728,-0.6183146494415397,0.8437859867986633,0.10914103942380697,0.9823833450010844,-0.5904711567310961,0.8488707639354764,-0.04004820373454966,0.40468143910063276,-0.6461833832053058,0.8732734870284997,0.16464390982496874,0.8372713512788464
23,,,,,,,,,,,,,,,,,,,,,,,,,,,,,,,,,,,,,,,,,,,,,,,,,,,,,,,,,,,,,,,,,,,,,,,,,,,,,,,,,,,,,,,,,,,,,,,,,,,,,,,,,,,,,,,,,,,,,,,,,,,,,,,,,,,,
24,,,,,,,,,,,,,,,,,,,,,,,,,,,,,,,,,,,,,,,,,,,,,,,,,,,,,,,,,,,,,,,,,,,,,,,,,,,,,,,,,,,,,,,,,,,,,,,,,,,,,,,,,,,,,,,,,,,,,,,,,,,,,,,,,,,,
25,,,,,,,,,,,,,,,,,,,,,,,,,,,,,,,,,,,,,,,,,,,,,,,,,,,,,,,,,,,,,,,,,,,,,,,,,,,,,,,,,,,,,,,,,,,,,,,,,,,,,,,,,,,,,,,,,,,,,,,,,,,,,,,,,,,,
26,-0.3349159356895146,0.4038055797003516,-0.12773597801672307,0.993178507664947,-0.4139075244757012,0.37988177977288573,-0.12055268178151542,1.0415937457616204,-0.38135943732957706,0.38693656274644467,-0.06671494530247174,1.0312293109702066,-0.35846540985040465,0.367158867894337,-0.09992430894126045,1.0490291479458245,-0.3516988494997914,0.41403602058436056,-0.10723215667404885,0.9504811524410629,-0.3510024101104498,0.39900866095072357,-0.18092712040530656,0.9979466091949001,-0.37147853794066804,0.446328662870347,-0.15137852521276338,1.039218351514358,-0.3731313537573042,0.4178249425759457,0.040106491694237086,0.9909990370482901,-0.3532024073283052,0.3685082171895854,-0.11207235418930139,1.0070605118746894,-0.3534343598552992,0.4487704757169092,-0.08218456962620554,1.020209263032158,-0.3945049924164653,0.41735891491170835,-0.1500741971970009,0.9831014703021339,-0.3883740038054194,0.41960474346888077,0.11230963604837203,0.9994168631875138,-0.43017821340871476,0.4483326325950188,-0.11728002465759511,0.9600272739320148,-0.44862395976087327,0.4713049620795189,0.06629927258273335,0.13629461650445365,-0.506049957058022,0.376099857312822,-0.13238657082745145,0.9917321718816405,-0.35898001730927387,0.4739439813723737,-0.026121983057088467,0.09120602247288292,-0.522812130944355,0.40011144073737887,-0.05571440764098717,0.9077233731292346,-0.4475099150412606,0.4883331913155228,0.027568426768884886,0.033955361616841345,-0.6005438991916476,0.3844911783315105,0.011071819205148964,0.8798425407369179,-0.4384034089855036,0.4497849949204929,0.03226633439228077,0.040194707093946735,-0.5682702544192472,0.4437176517714758,0.033022689689584744,0.8277907594204481,-0.45171651942550867,0.5282233460839977,-0.015742296720208198,0.015274720079470908,-0.5348871497477562,0.4132257903083759,-0.06895220038142102,0.7837223056999314,-0.47951915202795076,0.5966024229461515,0.18092465181538644,1.0243547317219677,-0.48110884512260266,0.5475432079357887,0.00866159935149535,0.9720635471953514,-0.47550956586315,0.6761265247970142,0.1273718706315634,1.028112610602442,-0.5143669523982989,0.6004368908556215,-0.07937367062351187,0.9877616059370724,-0.4724573115536475,0.7992239105314929,0.0493532659750982,1.0303673931248085,-0.5592856878864069,0.6077367775390773,-0.09953803779834673,1.0205834376913079,-0.46058571899294587,0.7955225540978176,0.05188592409924163,1.0011397898403003,-0.652410410334582,0.6115695690092041,-0.047296781414875866,1.0444783910444804,-0.47666495863476166,0.8321679331440031,0.025505638861939087,0.9917923757423257,-0.6368521271991643,0.6531212877601587,-0.02248176897608995,0.9780911392579724
27,-0.3583188426752397,0.3560330529593238,-0.055822642537791116,0.993178507664947,-0.4367629975559727,0.3327003224917731,-0.04963673831468819,1.0415937457616204,-0.4039622833391607,0.3406308169063721,0.004160636563471307,1.0312279996680216,-0.38080896171830064,0.3217889447795604,-0.029054728613745348,1.0490291479458245,-0.3764450957956101,0.36672954256083157,-0.025325719444813086,0.9504811524410629,-0.37564129634466137,0.352226018347803,-0.0990545277031688,0.9979461323577419,-0.39596228723187343,0.4001506795863504,-0.06954015945813787,1.039218351514358,-0.3914386782741438,0.38237966965342984,0.10002670174331278,0.9909960568160513,-0.3797042942297051,0.33189901456621806,-0.005757865296153242,1.0070592005725043,-0.37443936508004133,0.407626462312063,-0.013936399336001756,1.0202005607540208,-0.41744800050069913,0.37608642369504874,-0.06842555708805999,0.9830957482562355,-0.3990934400146857,0.39903109763872635,0.17363365435658576,0.9994114987694838,-0.45479306558432864,0.4277864347037834,-0.0036189678228515515,0.9600157106309284,-0.4390755669753151,0.4635841638255059,0.14514752602407568,0.6760965419252147,-0.5249612611751021,0.36195171139874416,-0.027101701976676874,0.9890276111249572,-0.3565803635219187,0.4612894086470777,0.10275064252887295,0.16347086516192022,-0.5122193088484323,0.3927468398405436,0.006921625334337711,0.7347227990172961,-0.4317889850202692,0.4741165596645981,0.1557880063762751,0.04480424515627955,-0.5824928856597806,0.3759290605164928,0.06872779024257455,0.5863211960752053,-0.4290499459420581,0.4320300527417667,0.1654759763525877,0.05353544476460674,-0.548349089161412,0.44016691367523864,0.0898091116624169,0.5422774179935987,-0.4518838680846163,0.5113873287137737,0.1176129097338524,0.027797205186654413,-0.5183241171756098,0.4106291437610584,-0.008986874143108357,0.5060374979225266,-0.474785699549452,0.5921847054893339,0.1707477991572489,1.0243447181416452,-0.480087626196228,0.5447723072094703,0.017979202324904697,0.9720219431532982,-0.4795372471117253,0.6715724319129505,0.13823684147575335,1.0259166562796271,-0.47556320736610036,0.6082089789064637,-0.11844521133502567,0.12841962691027786,-0.4623464143825421,0.7944108950705249,0.09468119591326206,1.025051672089805,-0.46564344166611926,0.6780996434639125,-0.22037399225276047,0.5756574142080314,-0.44707109877130136,0.7938712074143154,0.10306980620806805,0.987628608962615,-0.5518131857653672,0.6957821701940491,-0.17531936516792335,0.8593647822073527,-0.46747152073839215,0.8131267525333463,0.09416171653654576,0.9464239427436685,-0.5221625761956791,0.7299956034988366,-0.1599822448151598,0.4844948238740613
28,-0.4176062553311128,0.3599928577326545,0.28203695641659593,0.993178507664947,-0.49671190890866695,0.3336634739466986,0.2516442431587531,1.0415937457616204,-0.4677298219320311,0.3394785399135742,0.306079827432002,1.0312293109702066,-0.4483434098682561,0.31861684518925887,0.27347138114471004,1.0490291479458245,-0.4255411856405025,0.37421680981661465,0.28039911899596065,0.9504811524410629,-0.4205785215924562,0.3618322307253512,0.20584860682023212,0.9979464899856105,-0.436884678754379,0.4116968145350809,0.23473114832921568,1.039218351514358,-0.4352049938070269,0.374579865442767,0.22328123241727058,0.9909990370482901,-0.3906866109409153,0.3421544407346598,0.14022753734998056,1.0070602734561103,-0.43047836905406445,0.4071577313855494,0.26201681402314053,1.0202056867534715,-0.4610995547381499,0.38283301383253043,0.21375689313723595,0.983071191142588,-0.45325665278195154,0.37131431196939957,0.16150883497766938,0.9994092337929824,-0.4155891924680695,0.47087043028445663,0.05755434184358407,0.9599282110123982,-0.5248992910933221,0.3988882393050133,0.038799439328359143,0.7719883156259288,-0.38436477407840913,0.4267864551369186,0.014211778524459116,0.8788742936734801,-0.442809759267678,0.3964969842066937,0.018572573469349832,0.31386697378923956,-0.3157569676928695,0.43357801826728615,0.06308537416216523,0.5618638455413439,-0.5293963892700937,0.4079869348210007,0.07032838720017336,0.14494468264006716,-0.3699250153558399,0.41056061082853507,0.14519606948861227,0.3830039412934823,-0.5185693100923344,0.3689861901605136,0.0968911719901485,0.15765814307164414,-0.3397124995013388,0.4680223397483129,0.15611460031462873,0.35560180983548706,-0.5295485710261405,0.45116088828408624,0.039389789637111663,0.16057791728453763,-0.31824125639216116,0.4411865675910907,0.048971099405650434,0.4177626017776596,-0.4920850930473704,0.5862723419601286,0.15634079934782905,1.024234091920942,-0.4457655456204139,0.5726145904583717,0.02985756438387135,0.9718481956137779,-0.5117647195415406,0.673304364076189,0.2776922966255144,1.0132716500998176,-0.45868109401260193,0.6799197442682496,0.035533286442099805,0.5749447238035884,-0.48270852580834017,0.8022702443213183,0.19678093944986996,0.9524419494755165,-0.4439543676384022,0.7320498340080409,-0.12957850600742415,0.5877997148138053,-0.46566564249069486,0.7999988629204494,0.20328508882686827,0.6468258798328236,-0.5262504124663584,0.7381406282361939,-0.13585308462277956,0.5976614698103495,-0.49706281465721297,0.8313594557422697,0.26001188762849164,0.8095762678970194,-0.515181718921713,0.8073903869956933,0.017832518926868914,0.5062970704446484
29,-0.4507065576845095,0.3601433892630347,0.4116448580964632,0.993178507664947,-0.5311554899943572,0.3396871789523444,0.3837513525850398,1.0415937457616204,-0.5023919812555577,0.34630136439172365,0.4382245024584259,1.0312283572958902,-0.48315569125829133,0.32601723867528176,0.40556261609420363,1.0490291479458245,-0.45856194761478486,0.37775127584482815,0.4083093591319051,0.9504811524410629,-0.45330805985409955,0.3671575481081637,0.3336955696091106,0.9979417216140285,-0.4691780668240008,0.4178680708388681,0.3624555738140378,1.039218351514358,-0.46824112086752917,0.37876357506419644,0.34844686341457065,0.9909952223510244,-0.4179569929458013,0.34965234741953527,0.24649075381119473,1.007052405643,-0.4623202096559239,0.4117132249787653,0.38862317786942513,1.0201152069027022,-0.4913803737825627,0.39000220090146964,0.3353021778582198,0.9830397198901466,-0.48525235827428287,0.37897440289270884,0.3259388189778318,0.9990194790207961,-0.42681548820387777,0.47156506281466903,0.10659554014584459,0.9599382245927204,-0.5659483273132455,0.4827717036414086,0.402628850269709,0.628137154622816,-0.43966528995934623,0.46345937512555085,0.007242456535482059,0.06804329450770669,-0.47393762628877567,0.451167824708479,0.5255926614900652,0.6125654884891755,-0.4055265108839037,0.5105845371080759,0.06139304651623836,0.07035271669851328,-0.5547760186255892,0.4541143733662277,0.6030106744139502,0.38227942578219515,-0.46816376935938736,0.5015404253579541,0.13810027417443088,0.07668961447072452,-0.5498084081496851,0.3983648725354678,0.6262218646146438,0.3965691012425349,-0.44085797425111384,0.563395076202323,0.16278135234222368,0.03600188336377689,-0.5615869104060311,0.48841805300080676,0.5474280206725521,0.31459238547759183,-0.41429071325418393,0.5293367708190876,0.05046525899803617,0.06036493371401901,-0.4917938880009282,0.5882623026305998,0.14469894434255878,1.0239783283902109,-0.4417697614116733,0.5728126566929603,0.04099903368018666,0.9719839153899315,-0.5861564445178463,0.6633487790732898,0.23766253501831208,0.8273496830702459,-0.4423626098408294,0.6820977575929872,0.13077473170103415,0.7061928402968135,-0.5740536128356881,0.7686815368742663,0.10248793118285628,0.5709260889179604,-0.41398570192215406,0.7787349336097865,-0.0544431889110724,0.6569036710363395,-0.5537025509112272,0.764563543973611,0.10537359894003137,0.12885828318269987,-0.5029704997615168,0.7952970122274353,-0.013348339135048081,0.44753608547959994,-0.6136822088235546,0.7956121660846769,0.1603307733424569,0.40149330586088666,-0.4758797544177676,0.8563805770248376,0.10028544650414242,0.516299802721565
30,,,,,,,,,,,,,,,,,,,,,,,,,,,,,,,,,,,,,,,,,,,,,,,,,,,,,,,,,,,,,,,,,,,,,,,,,,,,,,,,,,,,,,,,,,,,,,,,,,,,,,,,,,,,,,,,,,,,,,,,,,,,,,,,,,,,
31,,,,,,,,,,,,,,,,,,,,,,,,,,,,,,,,,,,,,,,,,,,,,,,,,,,,,,,,,,,,,,,,,,,,,,,,,,,,,,,,,,,,,,,,,,,,,,,,,,,,,,,,,,,,,,,,,,,,,,,,,,,,,,,,,,,,
32,,,,,,,,,,,,,,,,,,,,,,,,,,,,,,,,,,,,,,,,,,,,,,,,,,,,,,,,,,,,,,,,,,,,,,,,,,,,,,,,,,,,,,,,,,,,,,,,,,,,,,,,,,,,,,,,,,,,,,,,,,,,,,,,,,,,
33,,,,,,,,,,,,,,,,,,,,,,,,,,,,,,,,,,,,,,,,,,,,,,,,,,,,,,,,,,,,,,,,,,,,,,,,,,,,,,,,,,,,,,,,,,,,,,,,,,,,,,,,,,,,,,,,,,,,,,,,,,,,,,,,,,,,
34,,,,,,,,,,,,,,,,,,,,,,,,,,,,,,,,,,,,,,,,,,,,,,,,,,,,,,,,,,,,,,,,,,,,,,,,,,,,,,,,,,,,,,,,,,,,,,,,,,,,,,,,,,,,,,,,,,,,,,,,,,,,,,,,,,,,
35,,,,,,,,,,,,,,,,,,,,,,,,,,,,,,,,,,,,,,,,,,,,,,,,,,,,,,,,,,,,,,,,,,,,,,,,,,,,,,,,,,,,,,,,,,,,,,,,,,,,,,,,,,,,,,,,,,,,,,,,,,,,,,,,,,,,
36,,,,,,,,,,,,,,,,,,,,,,,,,,,,,,,,,,,,,,,,,,,,,,,,,,,,,,,,,,,,,,,,,,,,,,,,,,,,,,,,,,,,,,,,,,,,,,,,,,,,,,,,,,,,,,,,,,,,,,,,,,,,,,,,,,,,
37,,,,,,,,,,,,,,,,,,,,,,,,,,,,,,,,,,,,,,,,,,,,,,,,,,,,,,,,,,,,,,,,,,,,,,,,,,,,,,,,,,,,,,,,,,,,,,,,,,,,,,,,,,,,,,,,,,,,,,,,,,,,,,,,,,,,
38,,,,,,,,,,,,,,,,,,,,,,,,,,,,,,,,,,,,,,,,,,,,,,,,,,,,,,,,,,,,,,,,,,,,,,,,,,,,,,,,,,,,,,,,,,,,,,,,,,,,,,,,,,,,,,,,,,,,,,,,,,,,,,,,,,,,
39,,,,,,,,,,,,,,,,,,,,,,,,,,,,,,,,,,,,,,,,,,,,,,,,,,,,,,,,,,,,,,,,,,,,,,,,,,,,,,,,,,,,,,,,,,,,,,,,,,,,,,,,,,,,,,,,,,,,,,,,,,,,,,,,,,,,
40,-0.4056581440669868,0.3974567015551337,-0.09335365691897894,0.993178507664947,-0.4868431499148369,0.37596810899461125,-0.09014623537579927,1.0415937457616204,-0.4533212988021331,0.38237481066552736,-0.03634642070061194,1.0312271652029947,-0.42938776550207775,0.3621343751537059,-0.06969943216209487,1.0490291479458245,-0.42886752570459324,0.41516678030039456,-0.056022207411065186,0.9504811524410629,-0.4283286711518177,0.4023362988615664,-0.12998365029269515,0.9979443442183985,-0.44887387095836356,0.4518735339621896,-0.10059445024507271,1.039218351514358,-0.4321436950267054,0.4191445894112728,0.04083047283228559,0.9909928381652334,-0.4303023313585305,0.3846763943174235,-0.019899278214256313,1.0070549090380807,-0.41513501221275373,0.4429529431775416,-0.05867100746740193,1.020170758431633,-0.46155520330924793,0.41593180090185117,-0.09979880950311266,0.9830199311480812,-0.4110015339792336,0.41194441412699234,0.07853628432179835,0.9968214385354142,-0.4805222556809454,0.4986499796447319,0.02161851198642256,0.9591161573319784,-0.4382126515499485,0.4804581791567742,0.0424570273274611,0.9700984192331066,-0.49928235346679173,0.4807292845074173,0.02094426155628729,0.6382892645482665,-0.34768678797628133,0.4779716162314588,0.0830549767426566,0.871599883707071,-0.4365783897394176,0.5038257876230601,0.032376874545108424,0.14534038896785756,-0.4292773394365753,0.4933189112347275,0.14111725790737825,0.7585229276838217,-0.4921099012532134,0.48584264808668326,0.09515093102303199,0.17605268072677083,-0.42557975131867476,0.450703144868613,0.16400947234691168,0.7691555303616451,-0.4574776193384909,0.546730094360282,0.10539593422468213,0.13141576192384308,-0.4409399275528435,0.5309518977102031,0.10518069332783604,0.6410738172002328,-0.4359445368945493,0.5154893601402241,0.01277223325633503,0.12261545102273103,-0.4098841217332988,0.6039920279914701,0.08168800914038776,1.0243646260930004,-0.4398364155107743,0.5840120118183876,0.09062922667565713,0.9720734415663841,-0.4382776157962257,0.653331801286272,0.09342674003242155,0.9823222363234198,-0.44440824702945114,0.6520240552576295,0.02916618076558834,0.9820487391539302,-0.4224589757672199,0.7475041853995044,0.10281320650957658,0.8860991188175575,-0.4260857863667742,0.7292744629333644,0.049135603706547196,0.9646041858297355,-0.3989136310967292,0.7422832681519252,0.11302933591042003,0.9096085131374195,-0.5062334622854244,0.7453155373510315,0.10629947692591199,0.9696656211546487,-0.4437985934425729,0.7546476818698942,0.0789108128600976,0.6233351179946757,-0.49424575928612013,0.7823562573760949,0.1274392680854925,0.6406520790467908
41,-0.3691083225358713,0.4210404415510901,-0.09779069424075738,0.993178507664947,-0.4487223799153978,0.39865986548150395,-0.09630169198226389,1.0415937457616204,-0.41590976190682555,0.40520753213731386,-0.04240075986472278,1.0308806237982706,-0.3927230194213997,0.3851336022006724,-0.07565403124662044,1.0490291479458245,-0.38928664974828453,0.43654580409075405,-0.06856575837716047,0.9504811524410629,-0.3889746587297203,0.4230833346033725,-0.14246914845597025,0.9977461587745204,-0.4098112652333597,0.471955203054368,-0.11289032041490424,1.039218351514358,-0.404582199630588,0.4390632099976681,0.037949062995884054,0.990611070415447,-0.3972276002258896,0.4003957484701029,-0.04795837922151734,1.0068551738734381,-0.3874939285751147,0.4653588357880915,-0.0603940683570277,1.0198410255367354,-0.43077748880481503,0.43733067303892087,-0.10931770044240215,0.9825586508021644,-0.396198462557952,0.43227868770372874,0.07559588870370752,0.996223603948317,-0.45874943651908917,0.5060850928363365,-0.01007742894645769,0.9596409762292256,-0.4308364737154163,0.512903967540258,8.956451126876028e-05,0.9605283570726147,-0.47865889136915163,0.47982794306912385,-0.05568710901981225,0.6330852426175719,-0.34701733023783327,0.511529210053938,-0.07042712405596324,0.40660709229281017,-0.41095742757486564,0.5041859784914378,-0.08508829540352347,0.10889545674549128,-0.4306139899866174,0.5271966416042954,-0.035518147926801004,0.27831998459719753,-0.4685290364322319,0.4872104554749889,-0.024512178081410166,0.13359481703830192,-0.4274351118233381,0.48261988242507053,-0.010094123364864507,0.30017441335152845,-0.4323272590713936,0.5481986932029028,-0.017553403910858106,0.09032180151944708,-0.4436281422463384,0.5626691981252422,-0.05179687116136629,0.25476982612090243,-0.4097478601822652,0.5181364024146992,-0.10624460616756452,0.10247092883263703,-0.41300331383011146,0.6140769550735319,0.10091819183175897,1.0238913652134836,-0.4340321700689715,0.5932599704785133,0.07115503326019806,0.9719650803221822,-0.447880970441686,0.6765967458396472,0.10953896551428784,1.0198050344229377,-0.42659882556997847,0.6720907933862916,0.027976644378079275,0.9707115184851375,-0.4307045610961249,0.7817540871710498,0.123227863548774,0.9764052220470801,-0.40300690447632814,0.7585975043724208,0.04375966495647683,0.9694464075666435,-0.4105472793950642,0.7793368532044155,0.1359244701159395,0.9567197859493092,-0.4852229671715179,0.7770354007657959,0.10215408403232894,0.9724054082563943,-0.4413116778852086,0.7905230023044645,0.10262939061580598,0.7329829284538126,-0.4652988703111868,0.8109299492210351,0.12048900420436506,0.6137741393457105
42,-0.382464178411306,0.42827891901958076,0.10592680417162162,0.993178507664947,-0.46199314126028584,0.4081199272700629,0.10491625443595239,1.0415937457616204,-0.4293996445533325,0.4157661969360504,0.15882970056310947,1.0302088198470072,-0.40639312871453454,0.3966802735912059,0.12557980076895373,1.0490291479458245,-0.40119625560780225,0.43678121263529446,0.132651600886822,0.9504811524410629,-0.40034484652210284,0.4280288213873538,0.05871247375783381,0.9976223599273221,-0.420672204293701,0.4781002035121316,0.08815997543277965,1.039218351514358,-0.4093476510698833,0.4480112976899288,0.20782409608402627,0.9899221599311331,-0.3986786251927106,0.40731847033289587,0.12072991478505365,1.0067661245341437,-0.39559889312002106,0.4711026671841944,0.13096501824166323,1.0193350417072373,-0.43879464774031024,0.44290972739454215,0.08202609190709044,0.9814573953852943,-0.4042416121411152,0.44145965074312693,0.20438940175901002,0.9982837788903334,-0.4706427424190376,0.5028551469382806,0.11937726389017282,0.9596151078133932,-0.44033366595212237,0.5137151867556511,0.15453472492598389,0.9438311291177501,-0.5153939928508627,0.44997793696560817,0.05253283194013378,0.9519385613088256,-0.3462742001014762,0.5151053695311719,0.16376984979149886,0.7527274200039155,-0.4537814901676309,0.471848432142866,0.011199992160305927,0.45928052659259816,-0.4275925552002977,0.5307045537632614,0.2169419787834639,0.5395858883085165,-0.5124027530281596,0.45321989351286124,0.0739870693144204,0.33030449461532063,-0.42259298682271407,0.48506152709364964,0.24273814927353896,0.5749134701771663,-0.47661151176365446,0.5156879953612585,0.08446747268012392,0.29495768985753607,-0.43754441326211624,0.565619091599821,0.18368531534946,0.4261532964177621,-0.45254572750451544,0.4874763095840412,-0.009117795782336825,0.300246203347789,-0.4150208966834873,0.6306251118118131,0.10742352551029341,1.0239373203946056,-0.4340824049792489,0.6009716790241981,0.06507272613163476,0.971860116542733,-0.4536447999958932,0.6913394182830371,0.11611359636625647,0.857292195582453,-0.4216827450108666,0.6796856172235719,-0.012951650298738088,0.42710765119273325,-0.4345406602526432,0.7933518993468005,0.08314625430134447,0.7218553014881508,-0.39138021806459306,0.7653491013000636,-0.07329239819830043,0.4743097889524467,-0.41526670694180134,0.7851349546295864,0.09309137209448343,0.7394238412586048,-0.4736079440058762,0.7833314989980652,-0.021466071601957733,0.5412916287115641,-0.4530622482675657,0.8024991251606046,0.08991941382950604,0.4090827652801371,-0.4510157066552443,0.8175170373290979,0.019358453763328905,0.1965083963285138
43,-0.3559092605185505,0.43952777580249397,-0.026860404213937712,0.993178507664947,-0.4347823400017375,0.4178823634215674,-0.02816343547491194,1.0415937457616204,-0.40201156258798515,0.42506511756745907,0.02573079102506967,1.0311941442297892,-0.37884902697756606,0.40556130605809426,-0.00745107616000442,1.0490291479458245,-0.37495630185944845,0.45374359185244223,0.002423610851154452,0.9504811524410629,-0.3741266158703735,0.4399595553064975,-0.0715274186834011,0.9979206215697781,-0.39443682695130994,0.4883348872641916,-0.042132273616941336,1.039218351514358,-0.38507141876357803,0.4604135639538906,0.09247558074381362,0.9909259617537954,-0.37642572439961836,0.4162492428758494,0.01400088813387921,1.007013901042475,-0.3704948274692015,0.4842535975888575,0.005251218476154937,1.0201546651775437,-0.4144049354292324,0.45470745354886954,-0.041283741904554944,0.9830250571475319,-0.3881678848280297,0.45979162548792374,0.1285346149176146,0.9993744246804336,-0.4514622366179436,0.5105483482417627,0.04175099414579965,0.9600234592347492,-0.4224064782009624,0.535849490802282,0.08430069803232881,0.9669827056367626,-0.5092109197267453,0.4510318662945267,0.024385303525355468,1.0246614135388976,-0.31454914065009654,0.5304006366362745,0.05399749802218218,0.6950272628383881,-0.49740250205284026,0.46351027878059176,0.033223772456677986,0.9705219923995594,-0.39228799699172245,0.5469567138355881,0.09682392327220113,0.45361256591700655,-0.5706815560720921,0.4453199534989757,0.11542786409340314,0.9641839475591224,-0.38554943637134853,0.49835485299468113,0.11865756428895508,0.4813650530857967,-0.5350440734344949,0.5023604265918036,0.11970956051052313,0.9208839758396681,-0.40224404700500904,0.5770813032087078,0.070455081782762,0.3282255472608102,-0.5043303308286115,0.4729218388065296,0.00798352635636291,0.9122573975769152,-0.4231293860496243,0.6415011713439787,0.12926192854999932,1.0243131276799144,-0.4342670379685512,0.6080022256893898,0.04466830664768662,0.9720078764571312,-0.451911064323749,0.6997950524001636,0.16387281873395598,1.0264437997580207,-0.41504328375958577,0.6785967595728151,-0.08735839561779965,0.3562739979811396,-0.43625008044844127,0.8095168578238208,0.14119882579559012,1.0097294636852638,-0.3856848305865965,0.754941713089767,-0.17237746965536066,0.5796996224027641,-0.4193125334804215,0.8066930009705288,0.14947303575191076,0.9640604555812672,-0.46860190286379083,0.7720262264188721,-0.1255588342658857,0.7299741848639079,-0.44968431963627187,0.8210172750133573,0.13975523455496605,0.8846446821082926,-0.44082270654237427,0.808897788462063,-0.10134617387906694,0.4370124525438
44,-0.3876931513622278,0.4377858300589332,0.20118882358805504,0.993178507664947,-0.46670950568843633,0.4144671662875494,0.18566125669704228,1.0415937457616204,-0.43644271474472424,0.42045761892167666,0.2399563049819875,1.031229191760917,-0.4157936636896617,0.39978573518864846,0.20717719582835736,1.0490291479458245,-0.39905784250167736,0.4536119847967782,0.20826074797615446,0.9504811524410629,-0.3958096657361321,0.4406821722174319,0.1339451797418204,0.9979464899856105,-0.41372848471112206,0.490059815881669,0.1629194930622558,1.039218351514358,-0.4124100492327608,0.45339696477557645,0.22832079602582508,0.9909990370482901,-0.37655330605847387,0.4190169845559947,0.11404141580621854,1.0070600350375312,-0.4023460415240871,0.4822274568990076,0.2057843351658262,1.0202091438228682,-0.4371971146290969,0.45665524393316215,0.14840912008045526,0.9830990861163429,-0.42565615614561203,0.44903557990801346,0.1993304647487687,0.999417578443251,-0.42246680440760237,0.5234784434375328,0.08899343721343823,0.9599851930528036,-0.5214332651587636,0.5124258786845146,0.16713610117805602,0.9802741837938059,-0.4580342349518565,0.47419387362637483,0.04747296039889487,0.9494956649427062,-0.4859058774590268,0.508439245664137,0.185677290127647,0.9519954630451446,-0.4583210768984447,0.4929885307146433,0.12245067089195999,0.8665659486793139,-0.5848437503229174,0.5142087895077377,0.23711793082542942,0.7735361456098471,-0.5565137524822367,0.4784042268372936,0.21338642583296688,0.8008249015767617,-0.5803773404389604,0.47494441350340916,0.27737754202755904,0.807186035542004,-0.5184791517447619,0.5355759791602392,0.22650587659112784,0.7616657241344984,-0.5852943577649065,0.5662597223218669,0.2130137537573441,0.7892833890386117,-0.49688620989728904,0.505237063215633,0.11126686193987637,0.7499435786453355,-0.43825616374151555,0.6413268873626554,0.13947776637945208,1.024364387674421,-0.4176987752665838,0.6183692019505287,0.034175474482114984,0.9720696268691185,-0.46321118888038115,0.6919783800750293,0.24983649445546147,1.0110882127524055,-0.4013089221446421,0.6797948129328004,-0.09204666125462437,0.03431535925347466,-0.4461689291370333,0.8003922211737353,0.20404859645191442,0.9929000922329323,-0.381013270896648,0.754407774681869,-0.22355015233637285,0.10477682382879325,-0.42860452724811143,0.7966959311348659,0.21223249118423274,0.7634551227298573,-0.46577064995657935,0.7716730688985779,-0.1787504508603312,0.24865268611226754,-0.46807144374232035,0.813990364231497,0.23131864514030237,0.9174053022254801,-0.4436447072184908,0.8098209452003442,-0.1293631563461762,0.1292748934636761
45,-0.4191917119611241,0.42839124397266,0.3684391451692714,0.993178507664947,-0.498443306175981,0.4046645566054663,0.33596899511798556,1.0415937457616204,-0.46895995464991225,0.41130258390275576,0.39029535789777137,1.0312293109702066,-0.44903303716051024,0.3912291308032725,0.3575571639602412,1.0490291479458245,-0.42935403028047264,0.44280023867632534,0.3751762439828789,0.9504811524410629,-0.42454324787037506,0.42938673440462677,0.30068647148014593,0.9979466091949001,-0.4408539514687596,0.4783193399886484,0.32954494392238876,1.039218351514358,-0.4305726406364875,0.4456161148419521,0.2942741398041294,0.9909990370482901,-0.39474257887923436,0.4081726942994944,0.2630653451576997,1.0070605118746894,-0.4278665677753405,0.4753939631894434,0.3430688187593439,1.0202093822414475,-0.4621659043799648,0.44761560350652646,0.3099777335364365,0.9831015895114235,-0.4393590801740118,0.44249748681795603,0.2034381432651114,0.9994169823968032,-0.40795890718007366,0.5203939924773735,0.22553444502597791,0.9600009286790242,-0.5299791213743705,0.49234388176679006,0.17313019024196383,0.8428676557977428,-0.41178928932463954,0.4848273422543045,0.2730907867582378,0.9111479438428527,-0.4780913857740371,0.5053951172461683,0.2978312103400438,0.6680496641712433,-0.37870073818288463,0.5220249930216196,0.4226479273515493,0.5108826219581225,-0.5765472542866016,0.5248360592526108,0.3701557159874134,0.45738938443087673,-0.43857813716116767,0.5080366759873791,0.5279194371011465,0.40251465749335713,-0.5582789898047155,0.48395729144454075,0.4044176967540169,0.5082898420376705,-0.41422394567419335,0.568608277248313,0.5411378213821956,0.38638060531621526,-0.563115591601441,0.5633616848882427,0.32481137125086545,0.37058242577986844,-0.38870474082490375,0.5388506854042011,0.4096446478299448,0.3524621073452103,-0.42981087792837214,0.6176755855018461,0.0748947582838782,1.0243692752552929,-0.39543629810531916,0.6048912804646278,0.0944325044460855,0.9720703421248558,-0.535994940878376,0.6434687226920642,0.23073694639527303,0.9666578376532232,-0.41849211045590196,0.6845973975809327,0.18649097399038764,0.9837598096914972,-0.5132641799127713,0.7344755637259204,0.1202211206696891,0.8933649250156777,-0.3898002996259747,0.7577345483253627,-0.03042677131666453,0.9694704282384878,-0.4870275752302154,0.7337798311096889,0.11682729053105241,0.5762823522296742,-0.4818944214796714,0.7707205270704224,0.04570303593562752,0.5282257243326731,-0.5272646626861476,0.7384725309986173,0.1550369977983455,0.8117735335220194,-0.47190588297597874,0.8225279402107202,0.1607565271009768,0.8320394939790418
46,-0.42471422018810057,0.4182309468172797,0.34866371232479093,0.993178507664947,-0.5047686001559778,0.39531446538651793,0.31524260647587754,1.0415937457616204,-0.47553880410014077,0.4022246176895294,0.36962929268656525,1.0312293109702066,-0.4558468289051576,0.3823986430751536,0.336899827056033,1.0490291479458245,-0.4351133164971427,0.43276251847292563,0.3535427680938644,0.9504811524410629,-0.43023295324015903,0.4191451067114505,0.27899970376889005,0.9979466091949001,-0.4464619161756164,0.4678697516898508,0.3078079656641371,1.039218351514358,-0.4388682572732763,0.4369458742013119,0.27934638804892464,0.9909990370482901,-0.4011569017963212,0.3974003170469157,0.24566252444212733,1.0070603926653998,-0.43376619847687703,0.4657500508740748,0.325458210574682,1.0202090246135787,-0.46737804875240013,0.43706820398565244,0.291445752958899,0.983100635837107,-0.447973804554041,0.43421315644991404,0.1944333502824983,0.9994128100716689,-0.40791746233626314,0.510623718315081,0.20937586211903908,0.9599514568238606,-0.5373015297373265,0.489891478459829,0.1435734992426529,0.981044573827528,-0.39853586412227276,0.4801044490162369,0.2412693758800989,1.007647923338855,-0.5020221660154387,0.5005308417906934,0.2139972469979995,0.9863578387813814,-0.3741003525220455,0.5151224175287608,0.3759672543552722,0.7302326619170764,-0.6010229850092648,0.5167975384396225,0.2658395619121064,0.8771623968305502,-0.4388974081908454,0.500559094486372,0.47842593162535774,0.5401408882100625,-0.5966810613794808,0.47506433804869724,0.31125434556367343,0.9081408661885189,-0.41403564279907357,0.5596842698325415,0.4906842354328881,0.550951503133827,-0.6000441117110552,0.5568695469793071,0.24460204461104829,0.8680321516461862,-0.3875538539802489,0.5301902497276264,0.3626958044223776,0.515528881951915,-0.43255279138052877,0.6097199151450956,0.07017979065579254,1.024114942236036,-0.39725140385054525,0.598696152500608,0.09956820028559704,0.971808618129647,-0.5462835171140877,0.6310684531837024,0.2574465313614799,0.9061942303419744,-0.4210473747328993,0.6670044906290284,0.228505479345102,0.9210933935232845,-0.5449629284039339,0.7159997331709582,0.22113879924701957,0.6606336423046486,-0.4063466783240365,0.7506859414528041,0.14067091210008612,0.7517197597127921,-0.5216419566315853,0.7177958919388515,0.23203062786521159,0.3098383844104602,-0.49562978767503557,0.7677860115941956,0.19486973273924524,0.39214101874147134,-0.5892952416168911,0.7069715358394681,0.28618957992899247,0.6831624457229472,-0.48007282077870844,0.8073966454833947,0.3001919850579724,0.6255408710847546
47,,,,,,,,,,,,,,,,,,,,,,,,,,,,,,,,,,,,,,,,,,,,,,,,,,,,,,,,,,,,,,,,,,,,,,,,,,,,,,,,,,,,,,,,,,,,,,,,,,,,,,,,,,,,,,,,,,,,,,,,,,,,,,,,,,,,
48,,,,,,,,,,,,,,,,,,,,,,,,,,,,,,,,,,,,,,,,,,,,,,,,,,,,,,,,,,,,,,,,,,,,,,,,,,,,,,,,,,,,,,,,,,,,,,,,,,,,,,,,,,,,,,,,,,,,,,,,,,,,,,,,,,,,
49,,,,,,,,,,,,,,,,,,,,,,,,,,,,,,,,,,,,,,,,,,,,,,,,,,,,,,,,,,,,,,,,,,,,,,,,,,,,,,,,,,,,,,,,,,,,,,,,,,,,,,,,,,,,,,,,,,,,,,,,,,,,,,,,,,,,
50,,,,,,,,,,,,,,,,,,,,,,,,,,,,,,,,,,,,,,,,,,,,,,,,,,,,,,,,,,,,,,,,,,,,,,,,,,,,,,,,,,,,,,,,,,,,,,,,,,,,,,,,,,,,,,,,,,,,,,,,,,,,,,,,,,,,
51,,,,,,,,,,,,,,,,,,,,,,,,,,,,,,,,,,,,,,,,,,,,,,,,,,,,,,,,,,,,,,,,,,,,,,,,,,,,,,,,,,,,,,,,,,,,,,,,,,,,,,,,,,,,,,,,,,,,,,,,,,,,,,,,,,,,
52,,,,,,,,,,,,,,,,,,,,,,,,,,,,,,,,,,,,,,,,,,,,,,,,,,,,,,,,,,,,,,,,,,,,,,,,,,,,,,,,,,,,,,,,,,,,,,,,,,,,,,,,,,,,,,,,,,,,,,,,,,,,,,,,,,,,
53,,,,,,,,,,,,,,,,,,,,,,,,,,,,,,,,,,,,,,,,,,,,,,,,,,,,,,,,,,,,,,,,,,,,,,,,,,,,,,,,,,,,,,,,,,,,,,,,,,,,,,,,,,,,,,,,,,,,,,,,,,,,,,,,,,,,
54,,,,,,,,,,,,,,,,,,,,,,,,,,,,,,,,,,,,,,,,,,,,,,,,,,,,,,,,,,,,,,,,,,,,,,,,,,,,,,,,,,,,,,,,,,,,,,,,,,,,,,,,,,,,,,,,,,,,,,,,,,,,,,,,,,,,
