frame,NOSE.x,NOSE.y,NOSE.z,NOSE.v,LEFT_EYE_INNER.x,LEFT_EYE_INNER.y,LEFT_EYE_INNER.z,LEFT_EYE_INNER.v,LEFT_EYE.x,LEFT_EYE.y,LEFT_EYE.z,LEFT_EYE.v,LEFT_EYE_OUTER.x,LEFT_EYE_OUTER.y,LEFT_EYE_OUTER.z,LEFT_EYE_OUTER.v,RIGHT_EYE_INNER.x,RIGHT_EYE_INNER.y,RIGHT_EYE_INNER.z,RIGHT_EYE_INNER.v,RIGHT_EYE.x,RIGHT_EYE.y,RIGHT_EYE.z,RIGHT_EYE.v,RIGHT_EYE_OUTER.x,RIGHT_EYE_OUTER.y,RIGHT_EYE_OUTER.z,RIGHT_EYE_OUTER.v,LEFT_EAR.x,LEFT_EAR.y,LEFT_EAR.z,LEFT_EAR.v,RIGHT_EAR.x,RIGHT_EAR.y,RIGHT_EAR.z,RIGHT_EAR.v,MOUTH_LEFT.x,MOUTH_LEFT.y,MOUTH_LEFT.z,MOUTH_LEFT.v,MOUTH_RIGHT.x,MOUTH_RIGHT.y,MOUTH_RIGHT.z,MOUTH_RIGHT.v,LEFT_SHOULDER.x,LEFT_SHOULDER.y,LEFT_SHOULDER.z,LEFT_SHOULDER.v,RIGHT_SHOULDER.x,RIGHT_SHOULDER.y,RIGHT_SHOULDER.z,RIGHT_SHOULDER.v,LEFT_ELBOW.x,LEFT_ELBOW.y,LEFT_ELBOW.z,LEFT_ELBOW.v,RIGHT_ELBOW.x,RIGHT_ELBOW.y,RIGHT_ELBOW.z,RIGHT_ELBOW.v,LEFT_WRIST.x,LEFT_WRIST.y,LEFT_WRIST.z,LEFT_WRIST.v,RIGHT_WRIST.x,RIGHT_WRIST.y,RIGHT_WRIST.z,RIGHT_WRIST.v,LEFT_PINKY.x,LEFT_PINKY.y,LEFT_PINKY.z,LEFT_PINKY.v,RIGHT_PINKY.x,RIGHT_PINKY.y,RIGHT_PINKY.z,RIGHT_PINKY.v,LEFT_INDEX.x,LEFT_INDEX.y,LEFT_INDEX.z,LEFT_INDEX.v,RIGHT_INDEX.x,RIGHT_INDEX.y,RIGHT_INDEX.z,RIGHT_INDEX.v,LEFT_THUMB.x,LEFT_THUMB.y,LEFT_THUMB.z,LEFT_THUMB.v,RIGHT_THUMB.x,RIGHT_THUMB.y,RIGHT_THUMB.z,RIGHT_THUMB.v,LEFT_HIP.x,LEFT_HIP.y,LEFT_HIP.z,LEFT_HIP.v,RIGHT_HIP.x,RIGHT_HIP.y,RIGHT_HIP.z,RIGHT_HIP.v,LEFT_KNEE.x,LEFT_KNEE.y,LEFT_KNEE.z,LEFT_KNEE.v,RIGHT_KNEE.x,RIGHT_KNEE.y,RIGHT_KNEE.z,RIGHT_KNEE.v,LEFT_ANKLE.x,LEFT_ANKLE.y,LEFT_ANKLE.z,LEFT_ANKLE.v,RIGHT_ANKLE.x,RIGHT_ANKLE.y,RIGHT_ANKLE.z,RIGHT_ANKLE.v,LEFT_HEEL.x,LEFT_HEEL.y,LEFT_HEEL.z,LEFT_HEEL.v,RIGHT_HEEL.x,RIGHT_HEEL.y,RIGHT_HEEL.z,RIGHT_HEEL.v,LEFT_FOOT_INDEX.x,LEFT_FOOT_INDEX.y,LEFT_FOOT_INDEX.z,LEFT_FOOT_INDEX.v,RIGHT_FOOT_INDEX.x,RIGHT_FOOT_INDEX.y,RIGHT_FOOT_INDEX.z,RIGHT_FOOT_INDEX.v
0,,,,,,,,,,,,,,,,,,,,,,,,,,,,,,,,,,,,,,,,,,,,,,,,,,,,,,,,,,,,,,,,,,,,,,,,,,,,,,,,,,,,,,,,,,,,,,,,,,,,,,,,,,,,,,,,,,,,,,,,,,,,,,,,,,,,
1,,,,,,,,,,,,,,,,,,,,,,,,,,,,,,,,,,,,,,,,,,,,,,,,,,,,,,,,,,,,,,,,,,,,,,,,,,,,,,,,,,,,,,,,,,,,,,,,,,,,,,,,,,,,,,,,,,,,,,,,,,,,,,,,,,,,
2,,,,,,,,,,,,,,,,,,,,,,,,,,,,,,,,,,,,,,,,,,,,,,,,,,,,,,,,,,,,,,,,,,,,,,,,,,,,,,,,,,,,,,,,,,,,,,,,,,,,,,,,,,,,,,,,,,,,,,,,,,,,,,,,,,,,
3,0.753365550798078,0.43733262369078196,0.35544486300519074,0.9547292608538311,0.7109344998861978,0.41689921873064817,0.38057050151936106,1.000543164467643,0.7286811208167661,0.4115919038086693,0.3280563220635948,0.991139428635871,0.713828805432009,0.4189393784910659,0.35972877529458447,0.9743817785845901,0.7416183059406776,0.4369837699404907,0.39857514529940435,1.0268729449430296,0.7209748762812893,0.483610567409928,0.40353932421506056,0.9785063979746026,0.7913265823017357,0.5082810051874569,0.33925442123502436,0.9511632996999064,0.7390203185680861,0.49376683831816004,0.3530550706560522,1.0073959983374257,0.8226197677201358,0.5165827577587028,0.3119749369601287,1.0011827778542044,0.6809868581859304,0.490933035477566,0.3427710310801939,1.001944632147633,0.7217260299270444,0.4330622638950996,0.40007821050158476,1.0391400336256302,0.6137186623628968,0.4054353246391048,0.33046727542285226,0.991146891049929,0.7830526564265828,0.5419527201914056,0.3730983518427,0.9540482069988133,0.5254681395180798,0.38170134866640765,0.30017177332335243,0.9660332940328751,0.8227445676666131,0.5869125685357874,0.36413667778937997,0.9920634890446736,0.6123773231691025,0.4005735334580025,0.25209094826028267,1.046220653793939,0.88383246936854,0.708121271500426,0.3015609126780736,0.6596605342350588,0.6352961294951044,0.443662796452704,0.2100131205123143,1.0189159929077178,0.8631612703521797,0.7015437810896779,0.289501414897963,0.5476938443872438,0.6199158106741028,0.3634203994608568,0.2671098027015849,1.0107625667465843,0.93594247589899,0.6733984970845153,0.2905090718689528,0.5797665542429143,0.5973009188406041,0.44940015510191017,0.2559633969414337,1.0000778642277315,0.8344935786744316,0.7273607358534223,0.31270878521128587,0.3643868076073306,0.2551227798465848,0.5324646264307643,0.22384487012863546,1.0465292622419418,0.39905577190162317,0.5560322073039838,0.2422867967464837,1.0421008964443952,0.25662409868651914,0.5916343550595501,0.235264881930852,0.06959893434165323,0.4477182577969747,0.6836397588060773,0.3073681381663035,0.87771013315818,0.1305448414710262,0.6732126876378983,0.28875369875359125,0.2245301942524848,0.34373908019292143,0.6945844512007758,0.2945809839924317,0.5069939160158632,0.13033486636578742,0.5925324001571125,0.2445046061283001,0.4709833335581048,0.34486524072639213,0.6746523790085218,0.29990494818019053,0.5874497458504867,0.1964187278781995,0.703121262024702,0.2942661853540954,0.37028928414358,0.42222956091757424,0.6726393704301127,0.28869593312195074,0.5799896128273871
4,0.7296890955945722,0.43784334608953995,0.3513654811486495,0.9547292608538311,0.6868633486303195,0.4170725788399774,0.3772704814614603,1.000543164467643,0.7049505265398888,0.4122196003227989,0.3250995829109025,0.9910888838971014,0.6904268928360124,0.4201081659704665,0.35708728190793493,0.9743817785845901,0.7099996541043369,0.4372294006816101,0.394712445653152,1.0268729449430296,0.6893672146962881,0.4841555922817542,0.39973029116092706,0.978420805704705,0.7598152430463181,0.5090816743807247,0.33548986269074954,0.9511632996999064,0.7318643450834277,0.4986313521922141,0.35217420180685105,1.0072913325812,0.7538184128043266,0.5227992837901969,0.30762209844785116,1.0009293985092644,0.6600436451304756,0.49344528184788156,0.3406342180196214,1.0018120714176526,0.6729950126581682,0.43491894857985297,0.395442205973794,1.038702237509755,0.608474341352066,0.4122903952300777,0.33225730609647763,0.99114128821332,0.6696072440138292,0.562577715423034,0.3719877962162973,0.9530079867381933,0.4966694340685593,0.4000836893360396,0.3035707837421209,0.9074189208257829,0.6432162022223246,0.6100195607805079,0.35535976292100757,0.8412639165768696,0.5251851115689679,0.4225562628929695,0.2626870599219843,0.8604901964880309,0.6714623758866705,0.7206675723884876,0.29113885381873167,0.4233240943871126,0.5380011613039158,0.4631391207725435,0.22277946507828392,0.786027890376285,0.6281094501030943,0.7157388060568715,0.27767196467074834,0.35484802300662854,0.5132923045632971,0.38871884587771166,0.2802165757542215,0.7923524324310935,0.6962155876012937,0.6862823390759398,0.2780241921922923,0.4137171334093267,0.5062817461594411,0.473333148513928,0.26906116707110017,0.6325656381229954,0.6157809696197233,0.7376407489378339,0.30090077917019936,0.257313113139786,0.29746862837547267,0.5497356086962367,0.2211600085014626,1.04650851982556,0.34788819124097586,0.5815602210101911,0.2381088435287171,1.0419123669529706,0.2399530975086693,0.5475453953656414,0.2130005006716158,0.32979107155321447,0.30429229976690564,0.6535612284944928,0.28363554742528857,0.5551696115364759,0.020089852661382114,0.665821413662526,0.22787402993551956,0.68407243892526,0.12019311997341614,0.6849435787222907,0.23691176144617757,0.65136149166131,0.006819922827412062,0.5973218121787495,0.1800092454888894,0.8989925753774866,0.1115922867459697,0.6686617545807264,0.23827229983196488,0.7814043924378585,0.021416188567299044,0.6867941193092479,0.2166092814412899,0.46345855608953335,0.14140409510283003,0.6836605076676615,0.214373449158212,0.5265247829056647
5,0.7243405283769546,0.4314141208831648,0.35186852546964564,0.9547292608538311,0.6911637904659375,0.4146415437981684,0.37717378132495494,1.000543164467643,0.7088860554431298,0.4103996022969047,0.32468237262160093,0.991139428635871,0.6939855917059927,0.4189057614714125,0.35636239306181094,0.9743817785845901,0.7132297196096379,0.4330495057574463,0.3951766002991275,1.0268729449430296,0.6928303845784924,0.47929969127887034,0.4003696865572818,0.9785063979746026,0.7633806004307115,0.5034490950540951,0.3363000698716081,0.9511632996999064,0.7316778520577795,0.4992639660895377,0.35072438862307503,1.0073959983374257,0.7699755347336549,0.5168221300121207,0.3092740899452369,1.001182897063494,0.6549089340709598,0.487286840542721,0.3405738166915525,1.0019437976826062,0.6806915607143109,0.4281473840962104,0.3969535280302139,1.039137172602681,0.5960187672350056,0.4161936351955166,0.3283515170678726,0.9911465334220604,0.696005704630099,0.5534098058008416,0.3783362657146059,0.9530964400310401,0.5034455504718283,0.39819356644556714,0.3007913908175488,0.9291889808881915,0.70151671391922,0.602558906998617,0.3748970208580297,0.959188785637386,0.5392473952056647,0.4135728892510017,0.25390200729318557,0.9046900804258666,0.808493178994408,0.7235736564491565,0.34087073008591956,0.6730200808964357,0.5584070176773427,0.4556277136356263,0.2131300733810532,0.8448554693977388,0.7890109374555676,0.7205245225905323,0.3329624497816262,0.5679964380952821,0.5375242732791022,0.37724882606035937,0.27116689317777115,0.8052970115555442,0.8522297110580148,0.6921513104237487,0.33436897443185026,0.5814306563203985,0.5219779474334563,0.4587685151444822,0.26022310122469183,0.6423337665180759,0.758030415377295,0.7422636851866132,0.354867596638343,0.3583049880730288,0.3063744932963608,0.5371397763483668,0.222468028215353,1.0464298416944564,0.3419809792070237,0.5708638098773786,0.23940789974285767,1.0400800009632856,0.22242823818183355,0.4868130605134227,0.19038080764713675,0.16361165298937172,0.28891855028289104,0.6956893145845807,0.29056156992649557,0.2628759586443631,0.053035497230462726,0.49482841339358985,0.20306321792882256,0.08473880246257158,0.08797763185280735,0.669924877168946,0.25361556286014486,0.029567817356228543,0.03888646615423719,0.41621199634279676,0.15097777361476666,0.3186883699598534,0.07334524611526784,0.6499315314018629,0.25551789009737824,0.27889280171863545,0.030537459268747597,0.46239675803071395,0.19573194350340478,0.04270429477466438,0.07222077657938988,0.6377410297280558,0.23668277036909224,0.0866071179307367
6,0.9027947518286503,0.4309533173744063,0.3667891687425299,0.9547292608538311,0.8672110042805756,0.4144759024903375,0.3912684411004463,1.000543164467643,0.8846915372326603,0.4088559910088341,0.3385852605023852,0.991139428635871,0.8694723267305913,0.4160505797773818,0.37005158677162975,0.9743817785845901,0.8867055572538123,0.4371423480979156,0.40941212338839333,1.0268729449430296,0.8663592043966164,0.4849830537628486,0.41467303274734757,0.9785063979746026,0.936929825007637,0.5107606776194027,0.3506885012854707,0.9511632996999064,0.886469019108404,0.49355854988699244,0.3619811815036978,1.0073959983374257,0.90989457303757,0.524687231111135,0.3203147602406606,1.001182897063494,0.8240710907131757,0.48200005756275577,0.35406428060400735,1.0019448705662122,0.8468632745455656,0.4265981401692085,0.4106771838366572,1.0391409872999466,0.7432170662981481,0.4067749688327541,0.3389097854528022,0.9911498712821678,0.7774320875482377,0.5606561212801202,0.3806997116574458,0.9511217381496313,0.6259241444284886,0.4062611743252058,0.31044532233456135,0.9608597300756607,0.7570853962158661,0.6140982470178431,0.3796833181225832,0.9275697136769367,0.636248534235836,0.4390777167503914,0.26349298647085834,0.9825529988027892,0.8362905403663295,0.7245550469253833,0.33017959867245283,0.44427614030462353,0.6568895336779748,0.48208606643981033,0.22457203151842509,0.9152999340812715,0.8195057682433026,0.7224003999709034,0.3221780201018225,0.30798565919132087,0.6313941420399448,0.4034571671820329,0.28089053165619965,0.8938645665062583,0.8845882220261256,0.6895682835377623,0.3242282844451651,0.3158740228479558,0.6163760002505971,0.4894057197915464,0.2689540257656658,0.7136867848019199,0.7869176857940584,0.7386016950209028,0.34464614854566905,0.11995411984793121,0.33102588531946414,0.5235638052218105,0.22499087715580884,1.0465306927534164,0.32302385859056165,0.5628466871318647,0.2415074317840181,1.0420732398892194,0.24853597365063881,0.4664121787461498,0.18549726323840604,0.42627436174867955,0.12390296282603826,0.6557016312883771,0.2676597691533736,0.09937193553945702,0.0018819919269746702,0.46959904876002967,0.18178532109725712,0.4325549940762458,-0.16941838646172783,0.663109384062104,0.23175969216997241,0.028781069572806045,-0.018437967032294944,0.39510268357004585,0.12864176705833746,0.6932953369322046,-0.19155485904861264,0.6488513760292433,0.2336699761895961,0.19588159175388326,0.01006840000142814,0.41893647832757375,0.173037541715627,0.18864259437097408,-0.15511921063913406,0.6321275834923991,0.21643559263410542,0.08864440096386929
7,,,,,,,,,,,,,,,,,,,,,,,,,,,,,,,,,,,,,,,,,,,,,,,,,,,,,,,,,,,,,,,,,,,,,,,,,,,,,,,,,,,,,,,,,,,,,,,,,,,,,,,,,,,,,,,,,,,,,,,,,,,,,,,,,,,,
8,,,,,,,,,,,,,,,,,,,,,,,,,,,,,,,,,,,,,,,,,,,,,,,,,,,,,,,,,,,,,,,,,,,,,,,,,,,,,,,,,,,,,,,,,,,,,,,,,,,,,,,,,,,,,,,,,,,,,,,,,,,,,,,,,,,,
9,0.7795958458750526,0.4293824965659956,0.35279430473215556,0.9547292608538311,0.7471700339440474,0.41100530283900094,0.37839358519688987,1.000543164467643,0.7650285524835878,0.4062714740067283,0.32603317737705895,0.991139428635871,0.7502880838108597,0.4142687585264663,0.35782677291529846,0.9743817785845901,0.7641704565125008,0.4313238022795868,0.39600788838137635,1.0268729449430296,0.7436466256783337,0.4781825214218452,0.40112098108668515,0.9785063979746026,0.8140578694510032,0.5029396243528774,0.33696346165466984,0.9511632996999064,0.7833006398818702,0.493218356376937,0.3523198960648444,1.0073959983374257,0.8019949536209113,0.5173555319782157,0.30889042009941053,1.0011827778542044,0.7092055831329194,0.4830790506448023,0.3420981505255962,1.0019442745197644,0.729795389196216,0.4250714267979316,0.39773442365109846,1.0391397952070511,0.6544913836696895,0.4209677288234463,0.3283817515345381,0.99114665263135,0.6943731878179756,0.5482784419321283,0.3805339821760002,0.9541838075656774,0.5369893479624928,0.39682912671969134,0.29371846293604764,0.9629298589933549,0.6732475821641236,0.6055881938600367,0.39107087721570877,0.9974634314427449,0.547671680874517,0.3915101405804237,0.2477678259830806,1.0100035007215817,0.7185370374521808,0.7156676367615039,0.34427572669541356,0.7926207345448122,0.563928332845988,0.4285242299587159,0.20792390772341277,0.9586956917564423,0.6829202191364825,0.7151022880553151,0.33563752644282363,0.7373114186021791,0.5380449218432148,0.3482726836538957,0.2655630999449758,0.9441373292816795,0.7478850769142414,0.6818227791584899,0.33626454824110297,0.7773583358591253,0.5277554068078312,0.4300412221299559,0.254860797016748,0.8547002282719212,0.6642611815040528,0.7318927750189191,0.3568813759820379,0.6102951871620792,0.3414996525238005,0.5374436408274318,0.22249564285031354,1.0465069701047958,0.3091118685256655,0.5540100005206892,0.24098464802778455,1.0418911476994306,0.2528115188195655,0.4382188539418438,0.18925947578741298,0.4451060916375956,0.22085214783969476,0.5710227429674543,0.26881209936322,0.2086159431566922,0.029320536602567678,0.4775062307382554,0.18991858487910698,0.3410013060269294,0.033922341260934276,0.5610013823531196,0.21773109043020047,0.18419329462552034,0.011022033298438927,0.40606549766268196,0.1383554051294754,0.6706784140768274,0.022037986444677037,0.5462662987434767,0.21823100094453787,0.49807624669544204,0.029171752421970648,0.44042290968781844,0.1785302167375541,0.09476913825048297,0.044754358690342694,0.5159731511956461,0.19476384799838914,0.2000876374340918
10,0.8617553353705573,0.43129756400030655,0.3592352803930242,0.9547292608538311,0.8270935144633125,0.4158102418706018,0.3845085509171195,1.000543164467643,0.8446603897440286,0.4104158147602836,0.3318961193435626,0.9911391902172918,0.8295223254656292,0.4178416695505599,0.36341916671107716,0.9743817785845901,0.8446238425410556,0.4372911808959198,0.40237527696068104,1.0268729449430296,0.8243205633369765,0.4848464399170234,0.40766076810286767,0.9785054443002862,0.8949377716577742,0.5102730818228176,0.3436875830232087,0.9511632996999064,0.851054182571362,0.4946391224921256,0.3561333021928042,1.0073952830816884,0.8705329795751947,0.5240001981731315,0.3142385505397865,1.001178128691912,0.7864580100097153,0.4814505921448939,0.3469864188427584,1.0019404598224988,0.8073882544906097,0.42537374155623237,0.4033953305548137,1.0391080855360306,0.7172953855685902,0.4019676158130398,0.3330362850835851,0.9911446260734276,0.7411459337900946,0.5510806350969537,0.37581228719963694,0.9466051365871313,0.6204943699990284,0.3739176377098341,0.3027844451581363,0.8962498448599014,0.6970078833306302,0.5898652634286707,0.37399769529530136,0.43602543720103026,0.6491174280554968,0.3869119402592262,0.25665902968086773,0.7417456443525634,0.7380760254984738,0.6946143821571643,0.32306464332899704,0.10404892382246114,0.6698577752305115,0.4255875687152772,0.21746839928124745,0.6466701447288545,0.713026572062262,0.6922173231123829,0.3174824708394296,0.08388705874414298,0.6398269898948076,0.35163283589846356,0.2743708388295599,0.6083096210373558,0.7747500750501866,0.6589468145169188,0.31755873625510656,0.10951411486322216,0.6271927263543791,0.4344066365109831,0.26315510363530253,0.33111076623006624,0.6851590948909252,0.7075541719992048,0.3364665261486826,0.012210566030659013,0.3301533330114995,0.5044849544756557,0.22073994210809972,1.0465218712659896,0.311048249929229,0.5370410349902937,0.2353588383076132,1.04154103001602,0.2601166845286681,0.43792664217083244,0.18150617611574987,0.25032139076708165,0.13799499503967783,0.6261094748781598,0.2580522730128925,0.05397506274333882,0.05736562010303801,0.45803920474300086,0.1829916970098325,0.49977589055871346,-0.14159152091474345,0.6506017069838569,0.21568666300263142,0.05085249630713434,0.04214416612061561,0.3860823848506398,0.1312574227836934,0.6668714058103784,-0.15879642767598978,0.6370209269249342,0.21720734122151233,0.18850658984653457,0.10272340426576787,0.41905547900086776,0.1730084861275913,0.16829350904001086,-0.09784969339060232,0.6327767972832926,0.1969412484202538,0.0861493393577005
11,0.6438797181833902,0.42950051376265086,0.34691252396306593,0.9547292608538311,0.618091121576463,0.4123352910801966,0.37288629433229187,1.000543164467643,0.6361978833047888,0.4080728455811302,0.3207427081158599,0.991139428635871,0.6215586492613483,0.4166386988073806,0.3527311262475361,0.9743817785845901,0.6317931095420027,0.4320190606585693,0.38963635548103237,1.0268729449430296,0.6111050316104207,0.47891291673892283,0.39456579053328367,0.9785063979746026,0.6814381971255896,0.5036954708532742,0.3302325380579801,0.9511632996999064,0.7013423720306651,0.4990820527136832,0.34980470805434777,1.0073959983374257,0.7026006081775339,0.5207514768119712,0.30379264629065506,1.001182897063494,0.591143550441584,0.48745656476871896,0.33744616913439945,1.0019448705662122,0.605316615419748,0.42810181634527966,0.3918938946527878,1.039140868090657,0.5971429622495323,0.416985125273489,0.3314028314364196,0.9911380695625024,0.634014695609317,0.5612470417284234,0.3730008261762984,0.9538081790943029,0.4487968293770302,0.3885266765396376,0.29483643835360357,0.9618562601316607,0.5790155518455588,0.6008673867845362,0.37921911651546036,1.0077672267804219,0.4581461943319715,0.3932440098946175,0.2772471632866591,0.9511217410780273,0.6254605037195833,0.7113240674827869,0.3417251028324095,0.9498604100666628,0.462347451255977,0.4289435486347108,0.2401421880416647,0.9257654964248689,0.5892999470909748,0.7106069653509999,0.33376503401149743,0.9594041662904726,0.43547685284776155,0.35993832591540087,0.29973210463635386,0.9153813664330162,0.6590172773949948,0.6813562536038329,0.33738314802676184,1.0074962800806218,0.43982538090966233,0.4433096034871489,0.28889994146221004,0.8318714705090122,0.5786934049054812,0.7302733764250166,0.35893764567541014,0.9623661147820134,0.3335576304246562,0.5018610686056758,0.22242701973817247,1.046524970707518,0.3030204976562757,0.5451839235362836,0.22994017330119346,1.0419775148297101,0.2853510420443193,0.43990229772655753,0.18590446286708456,1.0177549447011789,0.18244139023507827,0.6865050136850751,0.2632963542648155,1.0153699808945387,0.11506770649259365,0.441035310890767,0.18757010363320012,0.9863754551110206,-0.05500087169468667,0.728145502092652,0.22024143405862898,0.9699433111956117,0.101784686148578,0.3644381203910298,0.1363893554886332,1.0275325548353418,-0.07288864260245052,0.711109679194679,0.22114918387827898,1.0300011202859114,0.13395999873831796,0.40030460281258956,0.17250266406840786,0.9457206310368906,-0.05550362824430291,0.7276957635766276,0.19969056359129972,1.0094606287575627
12,0.7039034253826058,0.42435213276785416,0.3483258172152293,0.9547292608538311,0.675796093086789,0.40729205267878366,0.37469301425149787,1.000543164467643,0.6937519887357231,0.4021855458050529,0.32239757617893383,0.991139428635871,0.678966123061254,0.4099320735842208,0.35424257573707585,0.9743817785845901,0.6938135698535519,0.4281167445651245,0.39188413187208065,1.0268729449430296,0.6731794302819496,0.4751389890503242,0.3969217045699095,0.9785063979746026,0.7435491274385699,0.5000755615667751,0.3327082574630049,0.9511632996999064,0.7397810721214642,0.49023883939390467,0.3499197537644345,1.0073959983374257,0.7576497634162552,0.5150681739326377,0.30545466912319663,1.001182897063494,0.6437093279299029,0.4790515647973292,0.3376611478750067,1.0019448705662122,0.6643868115474374,0.4216719652901344,0.39296109265892576,1.039140868090657,0.622433035194265,0.4079182157218685,0.3285340023432497,0.9911486791892724,0.6885297555038428,0.5502812176012262,0.37163643748146447,0.9541062619228247,0.5071738201959561,0.3828760966102858,0.29865898125207613,0.9630886457670367,0.6271551388214709,0.5886919459962672,0.3674414311997405,0.935504939640529,0.47303047071438176,0.387111168784388,0.24928860896323285,1.0403414900518737,0.6394435593650623,0.7048475459907825,0.30887137551038985,0.7471650403462038,0.4187952146064544,0.4254101852924257,0.20455363033142665,1.0156327306549102,0.5984129806759763,0.7027919023512745,0.29667524037999293,0.6601242976877199,0.4598855971314239,0.3501054370737718,0.26648293853315413,1.0047727171791712,0.6648747969048308,0.6758721494473388,0.2983761394627613,0.6781008666818792,0.44900220947869396,0.4314268811093718,0.25597473018672345,0.9769957867245271,0.5852902359064251,0.7248046502668745,0.3211436288423226,0.48506648414007597,0.30341362497659097,0.48624334037233835,0.21520746264831786,1.0465287854047836,0.32406161750161894,0.5338385370311567,0.22979015577440978,1.0420011182690412,0.2621559235593818,0.4319170634659984,0.1815010051597519,0.9450189794492564,0.21397208115980146,0.6716182768152631,0.26982533097025985,0.6812402301659315,0.05892061388905182,0.4438417061830491,0.18362762101408667,0.940265361517423,-0.014934864945893932,0.7241830449126289,0.2270306714493517,0.7025746369173524,0.043996125235689965,0.3668427505752034,0.13226245319318958,0.98873189803984,-0.032318474572019404,0.7094346098625562,0.2274023806768407,0.967093901352806,0.0813226429099156,0.40904788894540206,0.16843525650737565,0.863305229101313,0.0009937134889792254,0.7248824243432291,0.20790375423601823,0.7973292477227119
13,0.7219068459617602,0.4286222095195631,0.34945572519028906,0.9547292608538311,0.7310976065125268,0.4104526783749658,0.37725131290376535,1.000543164467643,0.7488102650237789,0.4041102989941398,0.3246992671402434,0.991139428635871,0.7335189584431938,0.4107253518015364,0.35627506923592045,0.9743817785845901,0.749400522072945,0.4349162040225219,0.3951615216346136,1.0268729449430296,0.7291549116690943,0.4832622080635383,0.40049787784978863,0.9785063979746026,0.799953112709376,0.5094892509416988,0.33657257953865644,0.9511632996999064,0.823963826550076,0.49054771066313074,0.35347531339645655,1.0073959983374257,0.8428885479082437,0.5260251765724082,0.3112465476451656,1.001182897063494,0.7000625895490985,0.4811687813843958,0.3408124048030251,1.001944632147633,0.7197009850726984,0.427970239091938,0.39688751289535984,1.0391402720442093,0.7000466624231131,0.4106295714080563,0.33217432669057456,0.9911369966788964,0.7589185266131907,0.5599705486559137,0.37640292066238396,0.9540497567195777,0.5915050850832992,0.38355746710703564,0.3048589567142306,0.9660160682905351,0.7081328660422933,0.6062411627435511,0.3765761504421714,0.9937614465603899,0.6161522068811058,0.3933632191841682,0.2600388286799477,1.0422774489141782,0.7206059371226562,0.719010205635863,0.32510366790441975,0.8783289354763613,0.6309784466313965,0.4304189424068361,0.2193294846574212,1.0165934383194002,0.6926699848205811,0.7176710694312001,0.31610807263623153,0.8403786974641786,0.6173491935460681,0.3584855819082903,0.27851739797721137,1.0063367430580772,0.7623013594432932,0.6880198144711425,0.31708801917587826,0.8773929303949529,0.5990405081384547,0.4396732135163694,0.2676902855840513,0.9809558597187595,0.6693530017392194,0.7359909519750959,0.33725429971247106,0.7509277569519657,0.3094814287762535,0.49740308821131235,0.21550926027163808,1.0465300967069686,0.3178064846122814,0.5393036869106123,0.2293814801271216,1.0420738359356672,0.18886787551699816,0.43258272813885,0.18199759551935296,0.9477861250829539,0.1532589771146056,0.6722614705370343,0.26895361806906076,0.7353764468064039,-0.06725667112757786,0.44881422367343604,0.17989513978267,0.8821795026955542,-0.14859268121295824,0.7013021330855415,0.22092002318981482,0.43869432447457285,-0.0874892071766756,0.3714083769580311,0.1292046807949115,0.940106250018142,-0.17298829690567286,0.681907277556648,0.2221401006545782,0.8634243175553512,-0.06547666405162747,0.41639052553063766,0.16300427244899937,0.798820811662806,-0.16533734355462779,0.7005849485284098,0.19740155681874186,0.6003145582772162
14,0.6914756047086544,0.42278292128485245,0.344654567971989,0.9547292608538311,0.671084685391605,0.4044312979504663,0.37141780241970485,1.000543164467643,0.6890778354744251,0.3986354633599083,0.3191257262895324,0.991139428635871,0.6743519433238052,0.4057807292849044,0.3509572657981445,0.9743817785845901,0.6846508057780347,0.4272551296225738,0.3885343116106502,1.0268729449430296,0.6643202030951463,0.4754261046242072,0.39379883027679075,0.9785063979746026,0.7350552467043627,0.5015374548868587,0.32981408196145,0.9511632996999064,0.7635324251837315,0.48686158061628626,0.3490517576535477,1.0073959983374257,0.7644481316863583,0.5183765893455405,0.3042299809177239,1.001182897063494,0.6408001162236626,0.4772175596799128,0.3349276240574375,1.0019448705662122,0.6560642865120206,0.4227253581772499,0.3902158924035516,1.0391409872999466,0.6487070880174647,0.4078226694762936,0.3291360646216512,0.991142361096926,0.7140317578282277,0.5572953133844598,0.3739471466645807,0.9542387630481605,0.5710921048975444,0.38390782320902544,0.30473466174628266,0.9653475425947343,0.6787264530729332,0.5888763627672022,0.3812805932707186,1.0033312106976582,0.6035693971352964,0.3946981546108803,0.2656087135214904,1.006247990868219,0.6850685974116733,0.6899894789551074,0.3349358131580054,0.92551870760542,0.6060666074520447,0.431508574917975,0.2266226316994739,0.959964018992618,0.6581371874130509,0.6858696072577382,0.3264775325784058,0.9117874460908875,0.6189345464642655,0.36646670344835985,0.28681025288284967,0.9481986109627403,0.7236214517331647,0.6570007824696471,0.32707627929110916,0.9541162079637701,0.5796565962563087,0.4487591369496733,0.27347843797319005,0.8576263394932346,0.6339286202634565,0.706283520181883,0.34742604401239224,0.8698511826264042,0.3090623899136733,0.483496579527154,0.2161853671465162,1.0465309311719955,0.3199591269253602,0.527338471704466,0.2300627251613894,1.0421037574673446,0.16923460414887856,0.42475735353557853,0.17984390562933217,1.0099808300924142,0.16674964718900892,0.6860372960375226,0.2699672206818848,0.9766068750252455,-0.05010968810006313,0.44702673998126685,0.1828032509095785,0.9763378541169104,-0.10435665703227917,0.7276500086806342,0.22769575546248136,0.8245463037302492,-0.06865513072616089,0.3720190563460774,0.1312702753987294,1.0085500251951438,-0.12603678285146241,0.7102599553787611,0.229255798072256,0.9713056847619246,-0.04137571382724611,0.4135284893024578,0.16898744076533082,0.9291736663915047,-0.11045171730149125,0.729454517830015,0.20923088125266515,0.9051201946831611
15,0.763364658065519,0.42184629389685196,0.35458587663957847,0.9547292608538311,0.737043338388339,0.39740078108759713,0.3793148325362072,1.000543164467643,0.7555588479538413,0.3899925216465751,0.3274740551821464,0.991139428635871,0.7413455578308763,0.3955942358881453,0.35972874160362295,0.9743817785845901,0.7505557149140965,0.4243527410498809,0.3950954978365898,1.0268729449430296,0.7293322523482397,0.4738981991600349,0.39963850880473906,0.9785063979746026,0.7991314642247853,0.5013092883066586,0.3349375468507646,0.9511632996999064,0.8071765287993469,0.4730387270510703,0.35579802968394175,1.0073959983374257,0.7955325992004889,0.5197245185848136,0.30541696460233775,1.001182897063494,0.7027211084883059,0.47604445086376596,0.34524806641898625,1.0019448705662122,0.7187228065863377,0.42616684095961377,0.39899826964628926,1.0391411065092362,0.6522612159838052,0.3988845953643551,0.3374777394215619,0.9911389040275292,0.7319285820706577,0.5585089235567315,0.37437755288912716,0.9541828538913609,0.47316988417323985,0.4015777989666243,0.31656990249224665,0.8598671696890031,0.670303169279272,0.6041300854348963,0.37949744357792653,1.0019446278462483,0.4841992286593006,0.4677828368370613,0.2988022758178916,0.4424974854208311,0.7153524314742602,0.7004307822082813,0.3460243272551458,0.9320265215359316,0.5002745939750606,0.5177001397163301,0.2664481199678022,0.418165785006717,0.6959412648166979,0.700053962993517,0.33928079731584077,0.9296102481576907,0.48791412880452517,0.46374172214037646,0.3231922184435818,0.4152422789944328,0.7766160772541526,0.6656293892659118,0.3427316468410672,0.9745677536791021,0.47146115623744156,0.541459290538922,0.30769758592984403,0.27937217622800625,0.6688320227406801,0.7120059833128339,0.3622237116131201,0.9082754956947942,0.30764307005218283,0.48485169112612253,0.2193468124664404,1.046531050381285,0.32824779067110044,0.5324774053630659,0.23249005036090895,1.0421061416531354,0.2182122140032794,0.4361855606946209,0.18718630157904761,1.0162542189550243,0.1487198370884211,0.6830182015703595,0.2718114763807992,0.9485029273857802,-0.030465142899289942,0.43473250713596046,0.1806187284366589,0.9844871203598914,-0.17854934291576705,0.7053330163977668,0.2424701552938837,0.8194306754877565,-0.05213268058921433,0.35216987517084547,0.12915772901054645,1.0198026668730003,-0.20455352082823003,0.687855821105232,0.2449569169438561,0.8856041595505905,-0.023695630340312746,0.3995362989414348,0.16346092198804335,0.9373161973096261,-0.16988891008422055,0.7117285137063273,0.22768902257498635,0.7725217349625495
16,0.687588225715231,0.42481713840406937,0.3485900358032871,0.9547292608538311,0.6617873813132251,0.40433965580912423,0.3742919394824756,1.000543164467643,0.679780294925393,0.3986311122208397,0.32203252916046066,0.991139428635871,0.6650523038154199,0.4058560695559005,0.3538891002219179,0.9743817785845901,0.6774827694421198,0.4263753352633667,0.3914511405513311,1.0268729449430296,0.6570684556133636,0.47388574178927684,0.3966339033542017,0.9785063979746026,0.7276772771023763,0.49936909751457487,0.3325647155406478,0.9511632996999064,0.7374547635420178,0.48311444521551417,0.35086495531732476,1.0073959983374257,0.7487242023663494,0.5123043363567252,0.3061577783381468,1.001182897063494,0.6310352563792286,0.4783217953290217,0.33887343229584965,1.0019448705662122,0.6491737572042117,0.4222849990616493,0.3941754469300268,1.0391411065092362,0.6105939551052494,0.403438241213583,0.33297746756218205,0.9911422418876364,0.6849504633303004,0.5434846191667779,0.37419877607079877,0.9543076660175207,0.47973233351573746,0.3943863495628615,0.31037921699240245,0.9450696848142779,0.6318649350729971,0.5793397388124293,0.38085384620612894,1.0057329202542378,0.5071257455459941,0.4321228083794197,0.29664642485484005,0.8573837216116271,0.665202342553235,0.6881042436455066,0.3415967882144679,0.9412589829884156,0.4987763695175197,0.4753926436454683,0.25000249668037267,0.8172319351951631,0.6366835605053022,0.6865249603270436,0.33389650051234904,0.945697899410437,0.47883465767002104,0.43040693048006756,0.3064607169708691,0.8176762406243003,0.7073602127782949,0.6590278172291686,0.33666881539767346,0.9924210137193853,0.48139925561329855,0.5060310347424894,0.29752283716085254,0.6884038653950291,0.6178690917584316,0.70695437045883,0.3573550941865251,0.9354217159020084,0.3120501027003956,0.4776688247912074,0.21808174566507826,1.046531050381285,0.3189365174845234,0.5158089664516279,0.2297704607756307,1.0421092410946637,0.22347062344194968,0.4155073087128856,0.19053812478343685,1.0180758561086496,0.13936063857341846,0.6598996460245526,0.2692973985663792,1.0298450880875318,0.005326492163799802,0.43462477174052894,0.18748086738751688,0.987714652269834,-0.16206537725193906,0.7073994498274848,0.22942413301618864,0.9913290405085085,-0.01200870124690176,0.35817420866693916,0.1369056765745256,1.0288849842252954,-0.18849531471730213,0.6899581961357496,0.23100480436273044,1.0315827891396714,0.007243647682261128,0.40166567487603566,0.16922052949432614,0.9506957711316475,-0.17085795052691458,0.7127719526177653,0.21021638045256885,1.030362725982752
17,0.7638196022499312,0.424231969803987,0.35775586639098,0.9547292608538311,0.7357471131617903,0.40320368068667245,0.3823947020587412,1.000543164467643,0.7540143913171269,0.397474931123809,0.3303493221142318,0.991139428635871,0.7394911498903995,0.4049878981024245,0.36240192542058813,0.9743817785845901,0.7528227468016567,0.4261359034053039,0.39882529017863694,1.0268729449430296,0.7318920074353377,0.4740464657139136,0.4035613891524813,0.9785063979746026,0.8019300066330033,0.49994449095291404,0.33903906927602984,0.9511632996999064,0.792957863724298,0.4817466080248862,0.35768757147206226,1.0073959983374257,0.8130075212904819,0.5135523980136771,0.3109677126673962,1.001182897063494,0.7002718409563352,0.4777614818658106,0.34787320068285743,1.0019448705662122,0.720089570699931,0.4235331501255683,0.40222915921597335,1.0391411065092362,0.6241359699436431,0.4036216149032345,0.3400846913275543,0.9911403345390036,0.7245708629943495,0.5434814601206048,0.3747303168243322,0.9542957450885657,0.4363969023417016,0.40903371417925555,0.3198495082828906,0.8307719372022783,0.6737762157388065,0.5809380373620814,0.3819085091054194,1.0052974487195088,0.42126357446802415,0.4692107257073006,0.295413394806444,0.688384824535974,0.7383483969174149,0.6892146781776721,0.34865924884364463,0.9465137880764588,0.4239457600338594,0.5172212163955598,0.2593093802917213,0.7154634415428194,0.7269795550133561,0.6888587205885792,0.34293521659042564,0.9551082807275759,0.41431812407031887,0.45859951022631396,0.3169199886666433,0.7233078424347557,0.8027437902632875,0.6599544906414916,0.347014699343803,1.0031310743158512,0.4065634674108486,0.5355350656854063,0.3029926800395411,0.601436754761179,0.6970409124883029,0.707575868089903,0.366436486393534,0.9533808337914126,0.31277859896331983,0.477978739141717,0.22137679820554323,1.046531050381285,0.32305558799335554,0.514860775762541,0.23036048945406154,1.0421095987225324,0.24111971235462426,0.4139844696435192,0.1948694634439961,1.0182081188154064,0.15345702852379953,0.6326962649629987,0.2742984585798093,1.0296132260193553,0.004412739035289111,0.4334611400629014,0.18821502883118812,0.9874846975502907,-0.17968731533807594,0.6400968055747077,0.2351779945360188,0.9794902467539308,-0.014424332874109519,0.35627136018480726,0.13772614132673539,1.0276725065412744,-0.2061280386607089,0.6147020868980787,0.23783100619745942,1.012602226452751,-0.0023760700888124653,0.40700702590829274,0.16664706000101426,0.9500013770200143,-0.19873841939955297,0.6484693889504679,0.2126080457243364,1.0197923190689948
18,0.5601985923761342,0.4257372255031447,0.34570366914605544,0.9547292608538311,0.5323525847925166,0.40292201893778634,0.37064195985428866,1.000543164467643,0.5505099678927823,0.39665876472289957,0.31848983550181087,0.991139428635871,0.5358863376667442,0.4034051563650588,0.3504345714196466,0.9743817785845901,0.5529750308617353,0.4256652949324798,0.38753594406793945,1.0268729449430296,0.5321846123436139,0.4731951623749091,0.3923614280761263,0.9785063979746026,0.6023977372058011,0.49865256027740745,0.3279353188235075,0.9511632996999064,0.6125935318296142,0.4795203149378806,0.3472418029339159,1.0073959983374257,0.6497507692511599,0.5102392440315147,0.30212632414760965,1.001182897063494,0.5067304348102432,0.47982353435413766,0.33612940315178785,1.0019448705662122,0.5317292028659194,0.42538971560103217,0.3911290503357082,1.0391411065092362,0.4761783414711729,0.4057516464889278,0.3311609542810531,0.9911003994270042,0.617601519700521,0.5354173093103631,0.36791488160192565,0.9542961027164343,0.2999876716497452,0.41399487698481274,0.31239383843713947,0.7581018350828325,0.5837735860641662,0.5737550816201991,0.3755778542402984,1.006985154236324,0.31623647027575696,0.4731444832508644,0.29205985391633066,0.7214592035032592,0.6526168245500168,0.6885761336181934,0.3438852713652932,0.9468847673855408,0.314452979568673,0.5225798229724794,0.25720950249755425,0.7673716365615877,0.6401775519410994,0.6880151360510731,0.3375734612159761,0.9555543618890748,0.30573120783613955,0.4611366117335008,0.31517125779089944,0.7775497977150596,0.7162986139348987,0.6647044443882872,0.3422481798698448,1.0037975734537297,0.30346161855415615,0.5371753855096251,0.30075569995088075,0.7044769135098057,0.6123894558293075,0.713152895887602,0.362431017928956,0.9569576489197391,0.29461460515940324,0.4791957765810633,0.21839350752351572,1.046525209126097,0.33633407194840237,0.5057494309482404,0.229362639446789,1.0420890947247299,0.18738220979594425,0.4374976675423839,0.18307675609685437,1.0172057475042184,0.22424023552113645,0.651409560422746,0.2761074677969079,1.0342136913170545,-0.0014436167599427216,0.44950402822742164,0.18462740985535384,0.9866271059212622,-0.06106884174038337,0.681162498476319,0.23631617201489688,0.995131399612665,-0.015454255636145914,0.3673902192374653,0.13487782313537408,1.0260221731367334,-0.0873911989475628,0.6587591581070326,0.2380396590682417,1.0244864985512923,-0.004132582782429395,0.42570443673020736,0.16415745227995177,0.9470148862935435,-0.18118279499909698,0.7027657632714518,0.2108879600882366,1.02954465223321
19,0.6545643583884547,0.42697956511419816,0.3573711005616128,0.9547292608538311,0.6128254741132694,0.3982845987603266,0.3807123873171983,1.000543164467643,0.6313684290575858,0.392715261819915,0.32889844683040903,0.9910404849255439,0.6172165423542912,0.3999581303507308,0.3611865614768837,0.9743817785845901,0.639296019806514,0.41857812385475157,0.3966308154626955,1.0268729449430296,0.6176059549891285,0.4649859040569617,0.40076954571881573,0.978410792124383,0.6870158562842623,0.48936392144722257,0.3356799333096381,0.9511632996999064,0.6221417445758572,0.47305416465406713,0.3534252028445819,1.0072462714697499,0.7110961927261853,0.4970723991866966,0.30707300328912646,1.0003250670158865,0.5815212425086538,0.48537636266605777,0.34742238469272513,1.0011403866756787,0.6180170347565057,0.42855966942412177,0.40186200150429496,1.0383969425192154,0.44603588147638057,0.4077386567294827,0.3381796369853941,0.9903669046683984,0.6844055068790894,0.54026513388388,0.3732137921104969,0.9539624359149816,0.28502453867949923,0.4485359772484083,0.32387038487156566,0.05443929059392561,0.6777385658851802,0.5933110079431361,0.3776568672372682,0.9780082369694783,0.3439761877616048,0.5195111152355751,0.3168679673237412,0.16225516154540395,0.739687380294518,0.700659067997771,0.3455568453824547,0.9084147971592532,0.3456481652835381,0.5649035911113649,0.286254695849392,0.14405114643974617,0.7279875511250092,0.6914938419340992,0.34045188562959405,0.8957646446916566,0.3390678331958214,0.5006022179461168,0.34424303958635355,0.15020429533850316,0.8004856238402154,0.6631226563252379,0.3448547176615309,0.9395605748956852,0.33792011695830787,0.5809068663464934,0.3288614805873398,0.11073282182021897,0.6979981910174196,0.7178093299467451,0.36490607790454294,0.8520357119309085,0.2466698295641372,0.485873106121316,0.2216880572349637,1.0459792901845995,0.3918068798851517,0.5119948652324506,0.2321894692865443,1.0410918494129926,0.16563236159508465,0.5191269736203411,0.2298162402268481,0.03335281899987063,0.4121192251600077,0.6444986998842633,0.2961490751819083,0.49264794524809996,-0.07139056845892788,0.5728542014623612,0.24957928702061302,0.05078045681094498,0.2157773088356144,0.6809171061537788,0.26085247446430193,0.23189995823407145,-0.08780362626853722,0.48835558083261915,0.19965964959308374,0.14153356817390753,0.20315463030839362,0.6636162810051344,0.26244214248023023,0.15672922285072316,-0.050885237251392434,0.588967757653059,0.2504805756337827,0.03612003788722848,0.2578391179360707,0.6911826734429606,0.25276484500962604,0.23817288948067689
20,0.4284060661791951,0.4167145425979475,0.3391541125224265,0.9547292608538311,0.3939718014963925,0.3930145646855432,0.3650478366137719,1.000543164467643,0.41216094489205873,0.3877464696198265,0.3129153761943302,0.991139428635871,0.39767195191016114,0.3953757252603987,0.3449102093904344,0.9743817785845901,0.41138068900885877,0.413592105912323,0.3819997633984529,1.0268729449430296,0.3908225823057802,0.46051528747790593,0.3870196579579266,0.9785063979746026,0.46131861710820626,0.48536591009659086,0.3227873974819059,0.9511632996999064,0.47334405619495923,0.47466161251669214,0.3416720853823309,1.007395879128136,0.49653544371607083,0.4969615643497367,0.2962505225082074,1.0011826586449148,0.3775334801050634,0.47286141382114816,0.32877422378253085,1.0019426055897107,0.39889334391782766,0.4165736223946266,0.3838847140977446,1.039135861300496,0.3962811806637276,0.4027180382907619,0.3232314495750724,0.9911237644477562,0.49671742873182556,0.5359834938310846,0.3648498204665847,0.9542943145770909,0.32080456732264806,0.40323200667307574,0.29854180330556285,0.8841989181745683,0.4750490741377266,0.5813776216172999,0.36950214696345784,0.9632424975285603,0.35234207735421585,0.4356276508991798,0.2651901862895238,0.8238204057432494,0.5045845032526641,0.6908160761688525,0.33333869307618935,0.8829085391483888,0.34705382579224503,0.4728802780658632,0.22787353970704638,0.7332590638916048,0.4690548236414408,0.6850052206992054,0.3274720433700796,0.8511502104494081,0.32846812781301127,0.41392502430445416,0.2862497926174811,0.7309563104523338,0.5343175101686982,0.6585580730236937,0.3296092971512518,0.8899100846117193,0.3377990541617114,0.4968598468648344,0.27479633412334414,0.5517629590611057,0.4565342185084541,0.7116389379103071,0.3502767164008784,0.7636013137566227,0.2708868037402865,0.4774182468645716,0.2152326628217443,1.0464666773649276,0.3578043188559855,0.5083188083705732,0.23065107935705123,1.0418744583988935,0.1528080472388786,0.4637295226964214,0.1889612449536625,0.20807487024782503,0.3159386041039873,0.6463133036898053,0.27845889336777796,0.6274556809296339,-0.06252354441336899,0.5009400352502793,0.20318956774351146,0.476967159956449,0.16063689742455167,0.6969908695242927,0.25103787894105,0.5062309169580934,-0.10173870267191093,0.4182350971957631,0.15420352363902054,0.748492754668258,0.14222393916018394,0.6848605684959791,0.24404885437327395,0.7471956178712081,-0.03445466709951822,0.5039360694397106,0.19096535115846203,0.4964593233205209,0.20313395865842598,0.7088071708565958,0.22704657647042742,0.548713386783686
21,,,,,,,,,,,,,,,,,,,,,,,,,,,,,,,,,,,,,,,,,,,,,,,,,,,,,,,,,,,,,,,,,,,,,,,,,,,,,,,,,,,,,,,,,,,,,,,,,,,,,,,,,,,,,,,,,,,,,,,,,,,,,,,,,,,,
22,0.42341142496394624,0.5954996878806929,0.2597169891190337,0.9547292608538311,0.37375906612696924,0.5829025055691798,0.2812316423870022,1.000543164467643,0.3924183020898375,0.5791709884434502,0.2294811350474064,0.9911388325894233,0.3783260937441029,0.587979402771614,0.26179200361004185,0.9743817785845901,0.3812250080932486,0.5968968925944519,0.2963815525545603,1.0268729449430296,0.36003521570383873,0.6418794363331154,0.3008976902986915,0.9785058019281548,0.4300015437623873,0.6646637745336941,0.2362084606665913,0.9511632996999064,0.4272340639416393,0.6561812698901206,0.2608935860297288,1.0073924220587391,0.404040821113192,0.660773873853292,0.2086427332536502,1.001181824179888,0.37056537514942106,0.638731514080929,0.25451344303845674,1.0019145914066663,0.3795064123026026,0.5772998418102913,0.30814701548055634,1.0390846013059891,0.43490587356804555,0.5704318592250577,0.2798969977720676,0.9893570827766136,0.34433507800258895,0.5960006027483209,0.28021358558562237,0.9462368990917089,0.4464325329370149,0.6123869403641006,0.30563069335010684,0.9665720008123551,0.31318666705252607,0.6002989968919581,0.2718981000486801,0.9602265621075703,0.51888130601801,0.6808121320431313,0.3000967398998917,1.046756737969049,0.3629833027831877,0.7023054078911121,0.21317425312404714,0.9107971948109256,0.5407229540938129,0.7341819743663698,0.2707097721296004,1.0210306464950594,0.31115726143858297,0.6880385010718251,0.19980490656960073,0.9025543289873109,0.497868577316041,0.659697743687694,0.32452617376233106,1.0111981574906028,0.3844164938255042,0.6711990260876586,0.20024740262784071,0.945835334665125,0.4982382769704461,0.7321477516042143,0.3091928249401773,1.0039772596935823,0.314696321806104,0.7295688495237714,0.22515969846879405,0.9008751618134158,0.36313754668126774,0.49796608388353836,0.229826243535162,1.0464948107572616,0.27149300451796243,0.4549814727840253,0.2209650895321469,1.0420746704006942,0.4180640889022927,0.48713212417690543,0.2363692653751937,1.0065171445798715,0.2398546284999809,0.4811906754778302,0.25591350512619687,0.40458908613822153,0.3061126252425251,0.4835467740560502,0.2819962868749479,0.851845626085752,0.14918416819791594,0.4689159910700843,0.24635166152983315,0.18209819136166544,0.30134825034541163,0.39367753651346626,0.23507862479976332,0.8417817127409204,0.1513834529389617,0.4469024948799512,0.25329376829728634,0.38703222723476394,0.3456066186127962,0.47161843104249374,0.2843219717228853,0.8068072976209054,0.19413787117002032,0.4408379797822245,0.23359314965869593,0.42662599755295777
23,0.43466910652138296,0.603973441809831,0.26018122093850615,0.9547292608538311,0.3946851080255607,0.5909035946652491,0.28318223148915894,1.000543164467643,0.4139525839427823,0.5870149596958916,0.2319331782959422,0.991139428635871,0.4004468279878913,0.5957055356413344,0.26473255959617414,0.9743817785845901,0.40209262841685117,0.6054158864489746,0.297281370583613,1.0268729449430296,0.38049220514696896,0.6505911916088417,0.30148306192661434,0.9785063979746026,0.45010423791861215,0.6735626287893703,0.23648813896977827,0.9511632996999064,0.47244570027446386,0.6641185820162803,0.266288890178578,1.0073957599188463,0.4520145507641985,0.6701188092704673,0.21084711920855068,1.0011827778542044,0.3891088559509169,0.6475695119942896,0.2565092890167601,1.0019432016361587,0.39853002384783204,0.586581238676136,0.30883751234428336,1.0391383646955767,0.47100513821906886,0.5804379889667264,0.285927391264906,0.9901694940849022,0.38121968634616016,0.6116548686289056,0.27897463379463117,0.9532160665531041,0.45197802550296146,0.6231340750496169,0.30911719668526366,0.9670778058279191,0.32068802369782945,0.6150758227968043,0.269430072196601,0.9207855726132466,0.5345095511430575,0.6862587448780617,0.30356063030682123,1.0482668216444335,0.34989780250992464,0.7168794587944324,0.2112558381939467,0.9228730362377748,0.5584244707140773,0.7363848428279787,0.2749440604867129,1.0250147401611358,0.2982452910608758,0.7026682227133656,0.19806803281210186,0.9318973975870118,0.5267820449814913,0.6643297398424791,0.32896057538031387,1.0156633798493064,0.3762331167843611,0.685473444441693,0.19964870598553508,0.9798431819742377,0.5065767484004775,0.7380002720700651,0.31216928848599707,1.009836515484293,0.3039695228561987,0.7427734837133771,0.22452854670447403,0.9350851880776065,0.3660177598490862,0.513578298687234,0.23250776838602843,1.0464969565244735,0.26869522518592137,0.4733667638835737,0.21829127446522098,1.0420985122586042,0.3529571037104923,0.4831540505799511,0.23875249952194555,1.0059062565755688,0.2202446910148641,0.4835711359785474,0.25479601853904793,0.43938276108405283,0.20584186892267264,0.47112880196819007,0.27620543609276416,0.8942192237076698,0.1154589080044656,0.4465287845156714,0.2429882280221172,0.5125085377504823,0.1970898228346156,0.3818891384860463,0.22781185380244662,0.9331698190870508,0.11607208497811371,0.4198085777485273,0.24965527518495795,0.6337741181420516,0.22972699606184005,0.45235561056023976,0.27736215873216863,0.7889400304891,0.16135646275532203,0.4178831581956156,0.2315319965494262,0.5813981897927192
24,0.3920556620816611,0.6015509898368696,0.2618204285109833,0.9547292608538311,0.35145069616344693,0.5906046773717005,0.28492486884859297,1.000543164467643,0.3705328969470193,0.5870522125988762,0.23352373396017503,0.9911393094265815,0.35688330321148565,0.5960629250914077,0.2661710050506354,0.9743817785845901,0.358554737206173,0.6047180352679443,0.29923620975407506,1.0268729449430296,0.33702257572582395,0.6498936980556801,0.30347071664289405,0.9785063979746026,0.4066980578903018,0.6728772349790981,0.23850515195999283,0.9511632996999064,0.4333189927033653,0.6659743130267173,0.2673136465863999,1.0073956407095568,0.4153910149927352,0.670777798223104,0.2127629445089387,1.0011827778542044,0.3471671850346312,0.6458105789269678,0.25730089478020274,1.001942009543263,0.35629000669738436,0.5840932811985664,0.30994961888423456,1.0391366957655228,0.4440270910146804,0.5804782221019498,0.28546631017934637,0.9902975248618796,0.35513701524002717,0.608091643359588,0.27929831111194453,0.9539672042865637,0.43927011998822924,0.6203279479782363,0.3090938277498537,0.9671034358251727,0.3046824225137179,0.6067139467859095,0.266117707465281,0.9857386613736223,0.5194881175213559,0.6832670685474953,0.30215127170727657,1.0485007102705322,0.35272064276429,0.7054461554382617,0.20454936108059202,0.9437219065151796,0.5469934936232357,0.7333072165996462,0.27378391170107647,1.0256964384834322,0.30585538206940494,0.6907352536200428,0.1908212567029406,0.9557772236558899,0.5061517286088079,0.6621087515688585,0.3273915047490713,1.0164231006516136,0.3846842769719629,0.6740536117352416,0.19239966970462047,1.0046208924120121,0.5000469337960487,0.7360637171613127,0.3115337892993674,1.0113460031132295,0.3078109756437079,0.7319115504820234,0.21690682122494231,0.9601609217392582,0.36882147057759085,0.5049597650759364,0.23333838716583916,1.0465033938261095,0.2671684005371068,0.46207120686147896,0.21849197859997752,1.0421024461651593,0.3594663331872781,0.4889199058922985,0.24251894923615286,1.0159505928945383,0.21169667254437963,0.4738577246473706,0.2458308546659674,0.8059181862702101,0.22681125840904603,0.48418791141757667,0.27646531155401494,0.9580309431252418,0.13486688426495078,0.4470456163905189,0.22547187093161442,0.7890029811670778,0.21864319122955378,0.3962915578147358,0.22732045551061647,0.9915041100683436,0.13696199813028778,0.4224827401363752,0.2307203450907827,0.8826802537011337,0.2486625378383568,0.46766348404771224,0.2754313025687329,0.9050210298634896,0.1790036820325687,0.4203487639313944,0.2103284304983648,0.9034388072586921
25,0.4491038475784611,0.6073139841262678,0.2682877329442289,0.9547292608538311,0.4136326698100316,0.5951766516491969,0.2919658241371108,1.000543164467643,0.43298983179896394,0.5918882950573723,0.2407562785680238,0.9911391902172918,0.4196049613438337,0.6011888649374465,0.2735964849148446,0.9743817785845901,0.42493630588146,0.6080737767687988,0.30639414398217835,1.0268729449430296,0.4034155937577801,0.6527237861942604,0.31068123070220366,0.978506278765313,0.4731107691973068,0.6752016969160488,0.2457711583813701,0.9511632996999064,0.48658085883610824,0.6711405456126243,0.2754310152922458,1.0073923028494496,0.4822419048670781,0.6722497349258323,0.22116930862201226,1.0011813473427298,0.4012202621254428,0.6531115518655054,0.26434684069186254,1.0019309230793347,0.4171443448536662,0.5900760378132515,0.31720610105443325,1.0391295432081498,0.48096561451005215,0.5917167970836392,0.29564556523718555,0.9829423116965964,0.4197619029594111,0.6138242392801507,0.28903181710138603,0.9464462306041601,0.49103337625565563,0.6433086975853225,0.316767594883475,0.9668864749181901,0.38903862171650905,0.6116108855867213,0.2745464586707566,0.960132684792049,0.601415718471291,0.6963026043598732,0.3088724944630674,1.04792677714599,0.44668405291090524,0.7130348996017749,0.2110636190862561,0.9428738516293153,0.6290201210307047,0.7409494261295229,0.27931719683916173,1.0246413170616182,0.4056894836018575,0.6946316688536549,0.19702075662053814,0.9542476492616638,0.5898785974771323,0.6673351848459886,0.3329156389258039,1.0155267660034812,0.4832401938789536,0.6781343841351439,0.19834848655098533,1.0022277063196356,0.5826894881405136,0.7433404310094267,0.31760843514366394,1.0090753045658665,0.4000036477909479,0.737890969236601,0.22284883922072754,0.9583768951164859,0.36187686962309695,0.5072119861834193,0.24005530084654247,1.0464194704862655,0.2913496162907145,0.46736040382955757,0.22560432747597012,1.0420548816586286,0.36097139641578196,0.4810361783417919,0.24240146164124465,1.0077294434499582,0.2872190851922713,0.47719743249878055,0.24309906017763847,0.9665094905724256,0.23763618486152166,0.49281323995837867,0.2741884451068146,0.9519879858193334,0.23613228736296943,0.4544755737803504,0.21572722756481136,0.9516805076410768,0.23184568566724628,0.4080976584216542,0.22624283099507375,0.9978378188314659,0.2422515792337841,0.4292307607853315,0.22131382520839948,0.9967905447053146,0.24791432380403344,0.47989584727174184,0.2674804336807963,0.8703729094601999,0.27972911296498215,0.4320444469338663,0.1950497476838796,1.0020516522026923
26,0.41032313811761617,0.6005411083404402,0.26364757759561425,0.9547292608538311,0.3654067027170221,0.5894338037297328,0.2856959292130975,1.000543164467643,0.38430109115189653,0.5861068829327385,0.23414108247378976,0.9911393094265815,0.37045378852812866,0.5953418877035598,0.26663227022442376,0.9743817785845901,0.3757726032072776,0.6025978980532837,0.30060577336089017,1.0268729449430296,0.35449587393093246,0.6473836868595436,0.30504044677881925,0.978506278765313,0.4244274645335526,0.670007032914584,0.24028017628436582,0.9511632996999064,0.4290773427222814,0.6643652856410056,0.2668488488894983,1.0073950446631093,0.4379026183342855,0.6664654617782493,0.2152584518366448,1.0011826586449148,0.3594769725457465,0.6445742593850367,0.2588693937601889,1.0019422479618423,0.3728227638609951,0.5820900286923103,0.3123517571967628,1.0391372918119706,0.4261847972058662,0.5804765531718961,0.28711748260666564,0.9910098003669456,0.37141347849608747,0.5999120979570611,0.2839993467583598,0.9541458990116003,0.4235908190543209,0.6234309061805984,0.3102653565614236,0.9658085845220719,0.32544930693642776,0.5802103838586634,0.2663291479383527,0.9567839170346331,0.5073219076970068,0.6836745258991799,0.30271718026711425,1.0442587073065122,0.4181110152515579,0.6673236206863696,0.2026316557250191,0.9185060423336611,0.5302910583548628,0.733044002488318,0.2735136682581048,1.0193034827034029,0.32908607023371145,0.6472164719580555,0.18557158508368976,0.9411764102670654,0.49399404377401485,0.6603312814570116,0.3275293342586283,1.0107505862129844,0.4158828947553638,0.6319703483380248,0.1870692771587,0.9896616166895085,0.489896272558204,0.7341673357831389,0.3121122339171954,1.0009197798351839,0.3451318242635893,0.6912589773733503,0.21231986515058035,0.9405278670059818,0.35436349106248616,0.4942592710249568,0.23374589676295432,1.0465217520567003,0.2859555154366119,0.45259511142347536,0.22142544840234427,1.0421023269558698,0.2953322812460827,0.4551061313065746,0.22495102994122684,1.0157864417028268,0.19599681853728285,0.4640622079180158,0.2392106475045724,0.9257117801537245,0.15159292799859814,0.45341752019176185,0.2579151217264253,0.9821850697693763,0.07986882513512156,0.44491859483938667,0.21567056508555757,0.9401543998529909,0.14410592952623286,0.36569220211710396,0.20981831269470852,1.0149261724653467,0.07845747572434762,0.4203832559311292,0.22149571405328503,0.9855847522782516,0.18268423760978647,0.43555797858125106,0.2556043894257813,0.9415538491345773,0.12061909685718533,0.4196392600423105,0.19873413886261865,1.0101243860817817
27,,,,,,,,,,,,,,,,,,,,,,,,,,,,,,,,,,,,,,,,,,,,,,,,,,,,,,,,,,,,,,,,,,,,,,,,,,,,,,,,,,,,,,,,,,,,,,,,,,,,,,,,,,,,,,,,,,,,,,,,,,,,,,,,,,,,
28,,,,,,,,,,,,,,,,,,,,,,,,,,,,,,,,,,,,,,,,,,,,,,,,,,,,,,,,,,,,,,,,,,,,,,,,,,,,,,,,,,,,,,,,,,,,,,,,,,,,,,,,,,,,,,,,,,,,,,,,,,,,,,,,,,,,
29,0.6595308611523911,0.4217189485732893,0.3432698671147274,0.9547292608538311,0.6145485094293388,0.3989482368752558,0.36918090776634377,1.000543164467643,0.6342362583687997,0.3956388398438255,0.31824473524175967,0.991139428635871,0.6212084145762693,0.4053298499495009,0.35143894974797896,0.9743817785845901,0.6309383177831251,0.41306347231781,0.38324974398270384,1.0268729449430296,0.6089751871421887,0.45785093005412364,0.3871529708226582,0.9785063979746026,0.6782024857992053,0.48076237515968595,0.32190032526365864,0.9511632996999064,0.6289405800031962,0.48380842209463404,0.3469834447781336,1.0073959983374257,0.6469821742351184,0.4905403857704063,0.2920486571872941,1.001182897063494,0.5836191692934822,0.4817033456410639,0.3345089228885176,1.0019448705662122,0.602695330331048,0.41943708913428107,0.38616798746528624,1.0391409872999466,0.46437544492457583,0.4196188459098568,0.3310692045564834,0.991147963933535,0.6101988562049306,0.5188861995004876,0.3627679491786622,0.9535064007778051,0.33101712866344785,0.4901553972999831,0.32470736903262404,-0.00719884859436409,0.6109434883273553,0.5746763310098475,0.370399718932117,0.9923153782734944,0.3953218076321093,0.5432881828968605,0.32614190380146485,0.13507612153066015,0.7154036906145619,0.6941753939483936,0.3392794148344796,0.9034935992680176,0.41032957470814596,0.5895549397022157,0.2993753486322325,0.1994952976028474,0.7000878448471282,0.6920228927611256,0.3324676993953407,0.8746430235597596,0.3926773886343162,0.5161198699808763,0.3575012405698932,0.14397935015093455,0.7645134772743448,0.6691127443112304,0.336937237022697,0.8925083702867681,0.38765248531773455,0.5943200571881682,0.3410796660869497,0.10144915252729217,0.6671464583848653,0.719794045408476,0.3566921747877378,0.7574310409294742,0.30109021933420266,0.49741533696581375,0.22052286065014554,1.0465210368009628,0.33093562503486657,0.5137195852336713,0.2283410357357659,1.0417632957363874,0.34581225547342137,0.4477828364285686,0.1869194262489984,1.0069611991834484,0.21844956514648417,0.6683258354471601,0.25256306754769076,0.5625691109528272,0.20093386656897103,0.41969178166637117,0.188630875204652,0.9634978811440407,0.07292002260448358,0.6831510882399604,0.2363368789183489,0.4151199126055237,0.18760450621089741,0.32926136639322706,0.13602240890012232,1.0031233203115686,0.06381520460501401,0.6685706786835096,0.2389804297597667,0.7407787606286239,0.22924124116414002,0.39183975977784535,0.1753168962233143,0.8943652094937691,0.11679460353498525,0.6571843032723673,0.2271568331951992,0.5712389357186225
30,0.7082181082355419,0.41352518746298356,0.3447679861116014,0.9547292608538311,0.6762989295900463,0.3928072001263697,0.3710089400650982,1.000543164467643,0.6955038648392973,0.3889846369057457,0.31965459394995754,0.991139428635871,0.6819086198096125,0.3981479372889022,0.3523846089695367,0.9743817785845901,0.6837116939902254,0.4099922535887909,0.38579679519465065,1.0268729449430296,0.6624874909801002,0.456716504652436,0.39031164285035425,0.9785063979746026,0.7323752700358936,0.4814777799086026,0.3256020724467965,0.9511632996999064,0.7318976267265771,0.4790082812369376,0.3502976993812338,1.0073959983374257,0.7112246720977977,0.4983511274333854,0.2973337923550018,1.0011826586449148,0.6454012868297071,0.4726513670529597,0.33650220187184277,1.0019440361011853,0.6536800173832784,0.4133482064495735,0.38909516739593286,1.0391339539518631,0.5732762103425235,0.4208265254199734,0.33585261723043225,0.9911175655646997,0.6368857952605214,0.527514091041015,0.36420714007867894,0.9497700836200597,0.4228535099301054,0.4559239431659956,0.3247564866108975,0.4515383086908494,0.6221950149973076,0.577788468327505,0.3685326245748497,0.9916168714413716,0.4492416582039818,0.49755893318105543,0.3075232461630162,0.5671769316412292,0.7147893022172628,0.6881552056167896,0.3355211688553068,0.9135270875416385,0.4668110707715981,0.5428451041728883,0.2761178338814165,0.5642803727905306,0.7002346859169727,0.6881394713400746,0.32710434476672046,0.9034564452859865,0.45118272677087773,0.47641191128260363,0.3345975270870263,0.4758664314163841,0.7684569628722713,0.6598073863781859,0.331125704955223,0.9344945973222905,0.43757178619036957,0.5537833555089384,0.3191072825223738,0.36024801999135775,0.669668430224157,0.7081940874655134,0.3521910828085586,0.8462079869972843,0.3206166692907604,0.49545204937387954,0.21987652904861493,1.0465304543348375,0.3104099559417623,0.5099604991016218,0.22827222556092494,1.0420814653301986,0.34392597208892434,0.4465328078183391,0.18767033794451532,1.0166385497045358,0.21352380512682267,0.6347545325563825,0.264851360192286,0.6380477839340895,0.18208396696552398,0.42472518530139625,0.1923419999378389,0.9839534203705727,0.02398499086134285,0.6459078412077949,0.23887344186290768,0.4898892009069916,0.16999323839767408,0.34581980493273207,0.14089758804996916,1.0180651914777978,0.014619240272783007,0.6344844512665174,0.24188714053229252,0.5143848523663711,0.2376749314609073,0.38493867440110585,0.18177478063080316,0.9359532178975473,0.08567074075445627,0.6333532934075602,0.22888734173352626,0.5195717520810034
31,0.5297389866667761,0.41294010826986827,0.33285845933192937,0.9547292608538311,0.5023738241383964,0.39121751444788766,0.359510165993775,1.000543164467643,0.5212019428020565,0.3875169023304741,0.3079126527863002,0.991139428635871,0.5072427406792379,0.3967396285444716,0.34038690884887657,0.9743817785845901,0.5141973909573733,0.4097883162966919,0.3751414568614614,1.0268729449430296,0.493271433355479,0.4566213160347297,0.37993995620021614,0.9785063979746026,0.5633848327230992,0.48134539799255643,0.31547495456623814,0.9511632996999064,0.6272220448771172,0.47863283157949743,0.3419497441480906,1.0073959983374257,0.6010029808782876,0.4983277922149558,0.2907182503191612,1.001182897063494,0.48394900622502496,0.4733633147324793,0.32495435727568567,1.0019448705662122,0.4976085430208672,0.4143683399449043,0.378592719600922,1.0391411065092362,0.49504875308479046,0.4179492304027309,0.3284910255697895,0.99114665263135,0.5835998004974302,0.5348013549112542,0.36150826226203203,0.9542992021579625,0.37413072436313427,0.4557038828174849,0.314264370748486,0.6444174192655717,0.5493808621182777,0.5857589802408045,0.35984399273062107,1.0032946134457659,0.38565884465365263,0.4838574346726021,0.2957137476740344,0.5422713990427337,0.5717403036680373,0.6975632027481372,0.31136931291139985,0.94282348570448,0.39620779596756384,0.5303401093036562,0.26230301069500955,0.46764109723968816,0.5394466588492028,0.6943396060942555,0.3004077125264001,0.9557316261026368,0.3764411436224013,0.4595172429419206,0.3188522960314805,0.4312988762272514,0.610655116985446,0.6731751584805419,0.30478927188329213,1.0021570152109318,0.3709240022127477,0.5354909880505949,0.30456171542185007,0.3878689911942081,0.5248472344243947,0.7224212393362409,0.3272004318929771,0.9579617487656253,0.3123471925274674,0.4948111206286097,0.21855539093417475,1.0465311695905746,0.3202626634384056,0.5142663982448408,0.2306956856010022,1.0421090026760846,0.2964976964462836,0.437036685219691,0.18542107285394407,1.018339070219978,0.19718829147009528,0.6391881048487104,0.28855015848236937,1.0093368583550184,0.13227766373847188,0.43474541154155427,0.1825991021696041,0.9880363385376868,-0.04609587828374203,0.6880189995787666,0.2640473188305369,0.9918387794306276,0.11667035395891978,0.355420921113152,0.13016458335811154,1.0297555696668848,-0.06414446719384252,0.6776699237549207,0.2664846930735807,1.0294900104569626,0.1462045298972171,0.39989631099587813,0.16985497289894502,0.9514175237752327,-0.04487045337046472,0.6887837057000407,0.2545943112167439,1.0201600201226142
32,,,,,,,,,,,,,,,,,,,,,,,,,,,,,,,,,,,,,,,,,,,,,,,,,,,,,,,,,,,,,,,,,,,,,,,,,,,,,,,,,,,,,,,,,,,,,,,,,,,,,,,,,,,,,,,,,,,,,,,,,,,,,,,,,,,,
33,,,,,,,,,,,,,,,,,,,,,,,,,,,,,,,,,,,,,,,,,,,,,,,,,,,,,,,,,,,,,,,,,,,,,,,,,,,,,,,,,,,,,,,,,,,,,,,,,,,,,,,,,,,,,,,,,,,,,,,,,,,,,,,,,,,,
34,0.6880884008315618,0.4051211709682326,0.3399861129884144,0.9547292608538311,0.6504888742360364,0.3885546471402246,0.36680424276943757,1.000543164467643,0.6697762269930985,0.3865909739762108,0.31550014438944374,0.991139428635871,0.6563017943907237,0.3974854912668685,0.3483357824875284,0.9743817785845901,0.6567178371686605,0.4011351821891021,0.38159379430145013,1.0268729449430296,0.6355469032842971,0.4460240870308234,0.3861911117603293,0.9785063979746026,0.7054875596716781,0.46898872928184776,0.32156738113479866,0.9511632996999064,0.6903446763638849,0.4819883644640952,0.3465615126032526,1.007395879128136,0.6623580273059677,0.48183482937773664,0.2932813172853509,1.0011825394356253,0.620836935189891,0.46545312271969247,0.3312217697178921,1.001943320845448,0.6272288049260459,0.4013725902329139,0.3837619732496864,1.0391314505567826,0.5978884048757325,0.4267585584819546,0.3366948735273164,0.9911491560264304,0.582870883531731,0.49588625719778373,0.3576755522589129,0.9524543191928747,0.5591303130304366,0.41775220477984143,0.3235410241697831,0.8732255242574847,0.5178817576789586,0.4626118800306147,0.3267490031699131,0.49167075404024846,0.6168752036135496,0.4101428505604347,0.29217707937753024,0.8920270736433349,0.5428157733978589,0.5246164516304309,0.2511085411709665,0.28156451997381304,0.6404170631386905,0.4444136957675843,0.25600412938082434,0.7452572404663118,0.49704627768267706,0.5025538533209706,0.2346871934828474,0.25154187853069165,0.6031252451547181,0.36731812599665387,0.312286950057025,0.7404948417557395,0.5739858253224002,0.4821625375546385,0.23552798436903477,0.25038312137777147,0.5943381465797182,0.4516413195477873,0.2992198937308011,0.5807311740498142,0.4908744264592926,0.5412220463354475,0.25965450062784073,0.1357143031822817,0.3233648900355984,0.4961834281675959,0.22445130115622525,1.0465306927534164,0.3196857965790876,0.4891621735629865,0.23328966017252203,1.042068590726927,0.30206813823643447,0.4511711220654705,0.18104622076521684,1.0072521294545969,0.25964418616227647,0.565755480508653,0.2561775846538727,0.9613281184067458,0.13785797024647184,0.43239144530543977,0.19243278033836117,0.9810574094948706,0.08681084296088276,0.6100387196562812,0.22741931708013044,0.8277511262705324,0.12678870896567337,0.34497937944139906,0.14116267743331243,1.0232913267317039,0.07867525886112402,0.597661536189308,0.22996271882355263,0.9347354337739181,0.18130067164435024,0.41738172097093007,0.1831762035525666,0.9359997095204721,0.14281622927778587,0.6019815211182841,0.2104756544850606,0.8413140184975532
35,,,,,,,,,,,,,,,,,,,,,,,,,,,,,,,,,,,,,,,,,,,,,,,,,,,,,,,,,,,,,,,,,,,,,,,,,,,,,,,,,,,,,,,,,,,,,,,,,,,,,,,,,,,,,,,,,,,,,,,,,,,,,,,,,,,,
36,0.7493826003469996,0.39259918877523936,0.34923154810365353,0.9547292608538311,0.6948939197845294,0.37545804636927427,0.37449295231603286,1.000543164467643,0.7145102394534872,0.3748717769413749,0.32345913885104327,0.991139428635871,0.7014208190208326,0.3870669271856765,0.3565582934121277,0.9743817785845901,0.7085253963748236,0.3829162476531219,0.38849081303376387,1.0268729449430296,0.6867648287111685,0.42597388919108653,0.39251547015801547,0.978506278765313,0.7561223514841349,0.4471308417753628,0.3272952284280274,0.9511632996999064,0.6893267935556114,0.47517164946203516,0.3522703660466504,1.0073959983374257,0.6975232411920246,0.4562970107074638,0.2966288451225908,1.0011826586449148,0.6697655346486481,0.45954531894581246,0.3405452890266931,1.00194022140392,0.6854498935914438,0.38900152700049206,0.39204343132166175,1.039129781626729,0.5822334963800448,0.492605836123251,0.3481433459435508,0.9910767959876732,0.6437114216064969,0.4445644824766381,0.3549332762623427,0.9517004992504005,0.5315354630555298,0.5659868701736709,0.3486958149407673,0.9103877089727554,0.6614381395074246,0.43559634300707034,0.34230577915619687,0.9862488175282551,0.6957218433316659,0.6088553783123574,0.34300280747243017,1.0265181596494994,0.7962838872760183,0.4905317739342028,0.2937474550464158,0.9138534825764284,0.7394630284743601,0.6537524203807741,0.31566657685373883,0.9918149530212436,0.7761760675482884,0.4620340197562122,0.2848196041709426,0.9023168044778811,0.7219547866009858,0.5727819526529955,0.3733392076802042,0.9898315612686791,0.8564525252812152,0.443011673668759,0.2874282769989717,0.9555482095544989,0.6899620650834386,0.6466662867413908,0.3558677979190996,0.964024325905283,0.7572776651610734,0.5098309025366193,0.30932329896695426,0.9032290684448856,0.32367486321474886,0.5541234046213771,0.23517543968910493,1.046521513638121,0.33142312772494004,0.4837948349056074,0.23214011487389016,1.0420702596569806,0.17719323864868167,0.5195819358739117,0.22202559421268508,0.9548657263707956,0.19477548945965364,0.5031715869711315,0.2533359064504636,1.0340422683586805,-0.1106377235126737,0.4968664750123948,0.24868294511025688,0.6866416971383033,-0.08764595272132117,0.4638802032492682,0.23227347752804609,0.5260148906519411,-0.12930995058243627,0.4053446390887684,0.2026400271832866,0.6340098750295862,-0.10380295052225479,0.4383798651420972,0.2398908690283034,0.7135688230561447,-0.09168738756606021,0.48263426346665755,0.24172446394312716,0.7854406417943368,-0.08196818166444622,0.4262544219380625,0.20935388005756334,0.8518292315102485
37,,,,,,,,,,,,,,,,,,,,,,,,,,,,,,,,,,,,,,,,,,,,,,,,,,,,,,,,,,,,,,,,,,,,,,,,,,,,,,,,,,,,,,,,,,,,,,,,,,,,,,,,,,,,,,,,,,,,,,,,,,,,,,,,,,,,
38,,,,,,,,,,,,,,,,,,,,,,,,,,,,,,,,,,,,,,,,,,,,,,,,,,,,,,,,,,,,,,,,,,,,,,,,,,,,,,,,,,,,,,,,,,,,,,,,,,,,,,,,,,,,,,,,,,,,,,,,,,,,,,,,,,,,
39,,,,,,,,,,,,,,,,,,,,,,,,,,,,,,,,,,,,,,,,,,,,,,,,,,,,,,,,,,,,,,,,,,,,,,,,,,,,,,,,,,,,,,,,,,,,,,,,,,,,,,,,,,,,,,,,,,,,,,,,,,,,,,,,,,,,
40,0.40011939753528886,0.43083676049154795,0.32825195041067295,0.9547292608538311,0.3382575618598773,0.40634284871073556,0.3509986926040871,1.000543164467643,0.35666481266951594,0.4023183449536125,0.2991123831382879,0.9911339450085518,0.34243810735106506,0.4111162986666182,0.33135217133726746,0.9743817785845901,0.37241726808171466,0.421105122374649,0.36754450767440433,1.0268729449430296,0.35097101326808294,0.4654428332638099,0.37184083319201733,0.978504132998101,0.4206770047353408,0.48778562025589256,0.3068911764355139,0.9511632996999064,0.3243870308477699,0.48495762944822596,0.3235921817979624,1.0073942101980824,0.4267893719312029,0.4909552937026878,0.27829117196320186,1.0011800360405447,0.31850382114034015,0.4888394223298304,0.3179430112135393,1.0019187637318006,0.36255652697795226,0.4263239290009193,0.37283840187941464,1.0391202448835648,0.20517355267654916,0.4259053477943172,0.3139460446784553,0.9910384105964378,0.4682640539561412,0.5107799082063897,0.3521240844330843,0.9542691614169957,0.14686487993635897,0.49525123680041033,0.335053569963011,0.042582533489528805,0.5182182033549063,0.5694466790818995,0.3676682916101841,1.0014115239033772,0.25546571933374584,0.5656144138996682,0.3443694639261078,0.19184393539203023,0.569354663804971,0.6921744660232837,0.33307307534909913,0.9481569689236268,0.2598079719924682,0.6086716393978029,0.31787517157294026,0.20350163870258647,0.5459890160653454,0.6798146098135853,0.3284460550670901,0.9558385568353639,0.2445319537124281,0.5353947604036974,0.3760611367898228,0.22270433050524355,0.5993053501835325,0.6535102152623107,0.33055608792163205,1.0040194815462284,0.25221970290461054,0.6179497821675688,0.3604423683233634,0.17841056555314816,0.5165190944235555,0.7108240828115827,0.3505530347334685,0.9569926368462222,0.23931683051154173,0.5009868174784327,0.21590976758229485,1.0464664389463487,0.38640406252888215,0.48627552061651436,0.2277011584582068,1.0418272515202314,0.28610931349497,0.5711280922803142,0.23704877305835964,0.7115002001714549,0.4886895448451138,0.6133190333650983,0.28247508772062946,1.0213445716728893,0.12798044491268298,0.6346911593938798,0.23870768670576553,0.639918033331388,0.28652645604734955,0.6090448718092963,0.23019190877026643,0.7806303167154787,0.11817301435634256,0.5500649848243183,0.18683699900728168,0.6729579937162622,0.2723021417571532,0.5807864479744337,0.23120374371002575,0.7070244118737411,0.14181337314913228,0.657167094181837,0.2270551012049568,0.6935379685498605,0.2761629536303999,0.6099911932832011,0.20367954999531163,0.8635845191574958
41,,,,,,,,,,,,,,,,,,,,,,,,,,,,,,,,,,,,,,,,,,,,,,,,,,,,,,,,,,,,,,,,,,,,,,,,,,,,,,,,,,,,,,,,,,,,,,,,,,,,,,,,,,,,,,,,,,,,,,,,,,,,,,,,,,,,
42,,,,,,,,,,,,,,,,,,,,,,,,,,,,,,,,,,,,,,,,,,,,,,,,,,,,,,,,,,,,,,,,,,,,,,,,,,,,,,,,,,,,,,,,,,,,,,,,,,,,,,,,,,,,,,,,,,,,,,,,,,,,,,,,,,,,
43,,,,,,,,,,,,,,,,,,,,,,,,,,,,,,,,,,,,,,,,,,,,,,,,,,,,,,,,,,,,,,,,,,,,,,,,,,,,,,,,,,,,,,,,,,,,,,,,,,,,,,,,,,,,,,,,,,,,,,,,,,,,,,,,,,,,
44,,,,,,,,,,,,,,,,,,,,,,,,,,,,,,,,,,,,,,,,,,,,,,,,,,,,,,,,,,,,,,,,,,,,,,,,,,,,,,,,,,,,,,,,,,,,,,,,,,,,,,,,,,,,,,,,,,,,,,,,,,,,,,,,,,,,
45,,,,,,,,,,,,,,,,,,,,,,,,,,,,,,,,,,,,,,,,,,,,,,,,,,,,,,,,,,,,,,,,,,,,,,,,,,,,,,,,,,,,,,,,,,,,,,,,,,,,,,,,,,,,,,,,,,,,,,,,,,,,,,,,,,,,
46,,,,,,,,,,,,,,,,,,,,,,,,,,,,,,,,,,,,,,,,,,,,,,,,,,,,,,,,,,,,,,,,,,,,,,,,,,,,,,,,,,,,,,,,,,,,,,,,,,,,,,,,,,,,,,,,,,,,,,,,,,,,,,,,,,,,
47,,,,,,,,,,,,,,,,,,,,,,,,,,,,,,,,,,,,,,,,,,,,,,,,,,,,,,,,,,,,,,,,,,,,,,,,,,,,,,,,,,,,,,,,,,,,,,,,,,,,,,,,,,,,,,,,,,,,,,,,,,,,,,,,,,,,
48,,,,,,,,,,,,,,,,,,,,,,,,,,,,,,,,,,,,,,,,,,,,,,,,,,,,,,,,,,,,,,,,,,,,,,,,,,,,,,,,,,,,,,,,,,,,,,,,,,,,,,,,,,,,,,,,,,,,,,,,,,,,,,,,,,,,
49,,,,,,,,,,,,,,,,,,,,,,,,,,,,,,,,,,,,,,,,,,,,,,,,,,,,,,,,,,,,,,,,,,,,,,,,,,,,,,,,,,,,,,,,,,,,,,,,,,,,,,,,,,,,,,,,,,,,,,,,,,,,,,,,,,,,
50,,,,,,,,,,,,,,,,,,,,,,,,,,,,,,,,,,,,,,,,,,,,,,,,,,,,,,,,,,,,,,,,,,,,,,,,,,,,,,,,,,,,,,,,,,,,,,,,,,,,,,,,,,,,,,,,,,,,,,,,,,,,,,,,,,,,
51,,,,,,,,,,,,,,,,,,,,,,,,,,,,,,,,,,,,,,,,,,,,,,,,,,,,,,,,,,,,,,,,,,,,,,,,,,,,,,,,,,,,,,,,,,,,,,,,,,,,,,,,,,,,,,,,,,,,,,,,,,,,,,,,,,,,
52,,,,,,,,,,,,,,,,,,,,,,,,,,,,,,,,,,,,,,,,,,,,,,,,,,,,,,,,,,,,,,,,,,,,,,,,,,,,,,,,,,,,,,,,,,,,,,,,,,,,,,,,,,,,,,,,,,,,,,,,,,,,,,,,,,,,
53,,,,,,,,,,,,,,,,,,,,,,,,,,,,,,,,,,,,,,,,,,,,,,,,,,,,,,,,,,,,,,,,,,,,,,,,,,,,,,,,,,,,,,,,,,,,,,,,,,,,,,,,,,,,,,,,,,,,,,,,,,,,,,,,,,,,
54,,,,,,,,,,,,,,,,,,,,,,,,,,,,,,,,,,,,,,,,,,,,,,,,,,,,,,,,,,,,,,,,,,,,,,,,,,,,,,,,,,,,,,,,,,,,,,,,,,,,,,,,,,,,,,,,,,,,,,,,,,,,,,,,,,,,
55,,,,,,,,,,,,,,,,,,,,,,,,,,,,,,,,,,,,,,,,,,,,,,,,,,,,,,,,,,,,,,,,,,,,,,,,,,,,,,,,,,,,,,,,,,,,,,,,,,,,,,,,,,,,,,,,,,,,,,,,,,,,,,,,,,,,
56,,,,,,,,,,,,,,,,,,,,,,,,,,,,,,,,,,,,,,,,,,,,,,,,,,,,,,,,,,,,,,,,,,,,,,,,,,,,,,,,,,,,,,,,,,,,,,,,,,,,,,,,,,,,,,,,,,,,,,,,,,,,,,,,,,,,
57,,,,,,,,,,,,,,,,,,,,,,,,,,,,,,,,,,,,,,,,,,,,,,,,,,,,,,,,,,,,,,,,,,,,,,,,,,,,,,,,,,,,,,,,,,,,,,,,,,,,,,,,,,,,,,,,,,,,,,,,,,,,,,,,,,,,
58,,,,,,,,,,,,,,,,,,,,,,,,,,,,,,,,,,,,,,,,,,,,,,,,,,,,,,,,,,,,,,,,,,,,,,,,,,,,,,,,,,,,,,,,,,,,,,,,,,,,,,,,,,,,,,,,,,,,,,,,,,,,,,,,,,,,
59,,,,,,,,,,,,,,,,,,,,,,,,,,,,,,,,,,,,,,,,,,,,,,,,,,,,,,,,,,,,,,,,,,,,,,,,,,,,,,,,,,,,,,,,,,,,,,,,,,,,,,,,,,,,,,,,,,,,,,,,,,,,,,,,,,,,
60,,,,,,,,,,,,,,,,,,,,,,,,,,,,,,,,,,,,,,,,,,,,,,,,,,,,,,,,,,,,,,,,,,,,,,,,,,,,,,,,,,,,,,,,,,,,,,,,,,,,,,,,,,,,,,,,,,,,,,,,,,,,,,,,,,,,
61,,,,,,,,,,,,,,,,,,,,,,,,,,,,,,,,,,,,,,,,,,,,,,,,,,,,,,,,,,,,,,,,,,,,,,,,,,,,,,,,,,,,,,,,,,,,,,,,,,,,,,,,,,,,,,,,,,,,,,,,,,,,,,,,,,,,
62,,,,,,,,,,,,,,,,,,,,,,,,,,,,,,,,,,,,,,,,,,,,,,,,,,,,,,,,,,,,,,,,,,,,,,,,,,,,,,,,,,,,,,,,,,,,,,,,,,,,,,,,,,,,,,,,,,,,,,,,,,,,,,,,,,,,
63,,,,,,,,,,,,,,,,,,,,,,,,,,,,,,,,,,,,,,,,,,,,,,,,,,,,,,,,,,,,,,,,,,,,,,,,,,,,,,,,,,,,,,,,,,,,,,,,,,,,,,,,,,,,,,,,,,,,,,,,,,,,,,,,,,,,
64,,,,,,,,,,,,,,,,,,,,,,,,,,,,,,,,,,,,,,,,,,,,,,,,,,,,,,,,,,,,,,,,,,,,,,,,,,,,,,,,,,,,,,,,,,,,,,,,,,,,,,,,,,,,,,,,,,,,,,,,,,,,,,,,,,,,
65,,,,,,,,,,,,,,,,,,,,,,,,,,,,,,,,,,,,,,,,,,,,,,,,,,,,,,,,,,,,,,,,,,,,,,,,,,,,,,,,,,,,,,,,,,,,,,,,,,,,,,,,,,,,,,,,,,,,,,,,,,,,,,,,,,,,
66,,,,,,,,,,,,,,,,,,,,,,,,,,,,,,,,,,,,,,,,,,,,,,,,,,,,,,,,,,,,,,,,,,,,,,,,,,,,,,,,,,,,,,,,,,,,,,,,,,,,,,,,,,,,,,,,,,,,,,,,,,,,,,,,,,,,
