frame,NOSE.x,NOSE.y,NOSE.z,NOSE.v,LEFT_EYE_INNER.x,LEFT_EYE_INNER.y,LEFT_EYE_INNER.z,LEFT_EYE_INNER.v,LEFT_EYE.x,LEFT_EYE.y,LEFT_EYE.z,LEFT_EYE.v,LEFT_EYE_OUTER.x,LEFT_EYE_OUTER.y,LEFT_EYE_OUTER.z,LEFT_EYE_OUTER.v,RIGHT_EYE_INNER.x,RIGHT_EYE_INNER.y,RIGHT_EYE_INNER.z,RIGHT_EYE_INNER.v,RIGHT_EYE.x,RIGHT_EYE.y,RIGHT_EYE.z,RIGHT_EYE.v,RIGHT_EYE_OUTER.x,RIGHT_EYE_OUTER.y,RIGHT_EYE_OUTER.z,RIGHT_EYE_OUTER.v,LEFT_EAR.x,LEFT_EAR.y,LEFT_EAR.z,LEFT_EAR.v,RIGHT_EAR.x,RIGHT_EAR.y,RIGHT_EAR.z,RIGHT_EAR.v,MOUTH_LEFT.x,MOUTH_LEFT.y,MOUTH_LEFT.z,MOUTH_LEFT.v,MOUTH_RIGHT.x,MOUTH_RIGHT.y,MOUTH_RIGHT.z,MOUTH_RIGHT.v,LEFT_SHOULDER.x,LEFT_SHOULDER.y,LEFT_SHOULDER.z,LEFT_SHOULDER.v,RIGHT_SHOULDER.x,RIGHT_SHOULDER.y,RIGHT_SHOULDER.z,RIGHT_SHOULDER.v,LEFT_ELBOW.x,LEFT_ELBOW.y,LEFT_ELBOW.z,LEFT_ELBOW.v,RIGHT_ELBOW.x,RIGHT_ELBOW.y,RIGHT_ELBOW.z,RIGHT_ELBOW.v,LEFT_WRIST.x,LEFT_WRIST.y,LEFT_WRIST.z,LEFT_WRIST.v,RIGHT_WRIST.x,RIGHT_WRIST.y,RIGHT_WRIST.z,RIGHT_WRIST.v,LEFT_PINKY.x,LEFT_PINKY.y,LEFT_PINKY.z,LEFT_PINKY.v,RIGHT_PINKY.x,RIGHT_PINKY.y,RIGHT_PINKY.z,RIGHT_PINKY.v,LEFT_INDEX.x,LEFT_INDEX.y,LEFT_INDEX.z,LEFT_INDEX.v,RIGHT_INDEX.x,RIGHT_INDEX.y,RIGHT_INDEX.z,RIGHT_INDEX.v,LEFT_THUMB.x,LEFT_THUMB.y,LEFT_THUMB.z,LEFT_THUMB.v,RIGHT_THUMB.x,RIGHT_THUMB.y,RIGHT_THUMB.z,RIGHT_THUMB.v,LEFT_HIP.x,LEFT_HIP.y,LEFT_HIP.z,LEFT_HIP.v,RIGHT_HIP.x,RIGHT_HIP.y,RIGHT_HIP.z,RIGHT_HIP.v,LEFT_KNEE.x,LEFT_KNEE.y,LEFT_KNEE.z,LEFT_KNEE.v,RIGHT_KNEE.x,RIGHT_KNEE.y,RIGHT_KNEE.z,RIGHT_KNEE.v,LEFT_ANKLE.x,LEFT_ANKLE.y,LEFT_ANKLE.z,LEFT_ANKLE.v,RIGHT_ANKLE.x,RIGHT_ANKLE.y,RIGHT_ANKLE.z,RIGHT_ANKLE.v,LEFT_HEEL.x,LEFT_HEEL.y,LEFT_HEEL.z,LEFT_HEEL.v,RIGHT_HEEL.x,RIGHT_HEEL.y,RIGHT_HEEL.z,RIGHT_HEEL.v,LEFT_FOOT_INDEX.x,LEFT_FOOT_INDEX.y,LEFT_FOOT_INDEX.z,LEFT_FOOT_INDEX.v,RIGHT_FOOT_INDEX.x,RIGHT_FOOT_INDEX.y,RIGHT_FOOT_INDEX.z,RIGHT_FOOT_INDEX.v
0,,,,,,,,,,,,,,,,,,,,,,,,,,,,,,,,,,,,,,,,,,,,,,,,,,,,,,,,,,,,,,,,,,,,,,,,,,,,,,,,,,,,,,,,,,,,,,,,,,,,,,,,,,,,,,,,,,,,,,,,,,,,,,,,,,,,
1,,,,,,,,,,,,,,,,,,,,,,,,,,,,,,,,,,,,,,,,,,,,,,,,,,,,,,,,,,,,,,,,,,,,,,,,,,,,,,,,,,,,,,,,,,,,,,,,,,,,,,,,,,,,,,,,,,,,,,,,,,,,,,,,,,,,
2,,,,,,,,,,,,,,,,,,,,,,,,,,,,,,,,,,,,,,,,,,,,,,,,,,,,,,,,,,,,,,,,,,,,,,,,,,,,,,,,,,,,,,,,,,,,,,,,,,,,,,,,,,,,,,,,,,,,,,,,,,,,,,,,,,,,
3,,,,,,,,,,,,,,,,,,,,,,,,,,,,,,,,,,,,,,,,,,,,,,,,,,,,,,,,,,,,,,,,,,,,,,,,,,,,,,,,,,,,,,,,,,,,,,,,,,,,,,,,,,,,,,,,,,,,,,,,,,,,,,,,,,,,
4,,,,,,,,,,,,,,,,,,,,,,,,,,,,,,,,,,,,,,,,,,,,,,,,,,,,,,,,,,,,,,,,,,,,,,,,,,,,,,,,,,,,,,,,,,,,,,,,,,,,,,,,,,,,,,,,,,,,,,,,,,,,,,,,,,,,
5,,,,,,,,,,,,,,,,,,,,,,,,,,,,,,,,,,,,,,,,,,,,,,,,,,,,,,,,,,,,,,,,,,,,,,,,,,,,,,,,,,,,,,,,,,,,,,,,,,,,,,,,,,,,,,,,,,,,,,,,,,,,,,,,,,,,
6,,,,,,,,,,,,,,,,,,,,,,,,,,,,,,,,,,,,,,,,,,,,,,,,,,,,,,,,,,,,,,,,,,,,,,,,,,,,,,,,,,,,,,,,,,,,,,,,,,,,,,,,,,,,,,,,,,,,,,,,,,,,,,,,,,,,
7,,,,,,,,,,,,,,,,,,,,,,,,,,,,,,,,,,,,,,,,,,,,,,,,,,,,,,,,,,,,,,,,,,,,,,,,,,,,,,,,,,,,,,,,,,,,,,,,,,,,,,,,,,,,,,,,,,,,,,,,,,,,,,,,,,,,
8,,,,,,,,,,,,,,,,,,,,,,,,,,,,,,,,,,,,,,,,,,,,,,,,,,,,,,,,,,,,,,,,,,,,,,,,,,,,,,,,,,,,,,,,,,,,,,,,,,,,,,,,,,,,,,,,,,,,,,,,,,,,,,,,,,,,
9,,,,,,,,,,,,,,,,,,,,,,,,,,,,,,,,,,,,,,,,,,,,,,,,,,,,,,,,,,,,,,,,,,,,,,,,,,,,,,,,,,,,,,,,,,,,,,,,,,,,,,,,,,,,,,,,,,,,,,,,,,,,,,,,,,,,
10,,,,,,,,,,,,,,,,,,,,,,,,,,,,,,,,,,,,,,,,,,,,,,,,,,,,,,,,,,,,,,,,,,,,,,,,,,,,,,,,,,,,,,,,,,,,,,,,,,,,,,,,,,,,,,,,,,,,,,,,,,,,,,,,,,,,
11,,,,,,,,,,,,,,,,,,,,,,,,,,,,,,,,,,,,,,,,,,,,,,,,,,,,,,,,,,,,,,,,,,,,,,,,,,,,,,,,,,,,,,,,,,,,,,,,,,,,,,,,,,,,,,,,,,,,,,,,,,,,,,,,,,,,
12,,,,,,,,,,,,,,,,,,,,,,,,,,,,,,,,,,,,,,,,,,,,,,,,,,,,,,,,,,,,,,,,,,,,,,,,,,,,,,,,,,,,,,,,,,,,,,,,,,,,,,,,,,,,,,,,,,,,,,,,,,,,,,,,,,,,
13,,,,,,,,,,,,,,,,,,,,,,,,,,,,,,,,,,,,,,,,,,,,,,,,,,,,,,,,,,,,,,,,,,,,,,,,,,,,,,,,,,,,,,,,,,,,,,,,,,,,,,,,,,,,,,,,,,,,,,,,,,,,,,,,,,,,
14,,,,,,,,,,,,,,,,,,,,,,,,,,,,,,,,,,,,,,,,,,,,,,,,,,,,,,,,,,,,,,,,,,,,,,,,,,,,,,,,,,,,,,,,,,,,,,,,,,,,,,,,,,,,,,,,,,,,,,,,,,,,,,,,,,,,
15,,,,,,,,,,,,,,,,,,,,,,,,,,,,,,,,,,,,,,,,,,,,,,,,,,,,,,,,,,,,,,,,,,,,,,,,,,,,,,,,,,,,,,,,,,,,,,,,,,,,,,,,,,,,,,,,,,,,,,,,,,,,,,,,,,,,
16,,,,,,,,,,,,,,,,,,,,,,,,,,,,,,,,,,,,,,,,,,,,,,,,,,,,,,,,,,,,,,,,,,,,,,,,,,,,,,,,,,,,,,,,,,,,,,,,,,,,,,,,,,,,,,,,,,,,,,,,,,,,,,,,,,,,
17,,,,,,,,,,,,,,,,,,,,,,,,,,,,,,,,,,,,,,,,,,,,,,,,,,,,,,,,,,,,,,,,,,,,,,,,,,,,,,,,,,,,,,,,,,,,,,,,,,,,,,,,,,,,,,,,,,,,,,,,,,,,,,,,,,,,
18,,,,,,,,,,,,,,,,,,,,,,,,,,,,,,,,,,,,,,,,,,,,,,,,,,,,,,,,,,,,,,,,,,,,,,,,,,,,,,,,,,,,,,,,,,,,,,,,,,,,,,,,,,,,,,,,,,,,,,,,,,,,,,,,,,,,
19,0.003472258768718317,0.37768407807570703,-0.02391008748348114,0.9576386504889616,-0.014076057543840673,0.374584029832064,0.06293112077119378,0.9544440175467465,0.025694644090641892,0.37784846259843907,-0.026887598520136828,0.9962201140864407,-0.000472867965466953,0.43393523606895634,-0.005441292391324473,0.9630090013251873,-0.013017301882454653,0.40965978109066997,0.06364372183779872,1.0398719139750154,0.02512767093059071,0.3993133131924508,-0.014546855357925444,0.9665800009252461,0.06140442841393216,0.3992734373386071,0.047669054702668356,1.0190254048067784,-0.08890000382352059,0.4707694209183871,0.08982236466220735,0.9610587043874742,-0.07606426954845691,0.4542825991750252,0.007264427706375025,1.0264570268666038,-0.013900751542892463,0.4295963417906876,0.06744739307781916,0.9657447443024071,0.05842416360069297,0.38716944056468605,0.006042416053410021,1.0176314067313608,-0.09482937074895458,0.4856846077940801,0.05379230080848971,0.9618983470290552,-0.11065699228240217,0.4164797554801878,0.06340061355942264,1.0279426590985614,-0.11227797103107569,0.4684510493750677,0.06973492736789776,0.1486522222489207,-0.09532099864858867,0.4034265237346497,0.08127106652096663,0.9260873587962006,-0.08241927699200283,0.5047302753649958,0.07361596756891248,0.031750018531466744,-0.2248486038301989,0.48405824438484496,0.19346972209491087,0.721007600349744,-0.11075957022613142,0.5522623932984081,0.07718259435624486,0.10931138667834103,-0.190477857427144,0.4710037210387336,0.1333380227141601,0.47391361448618713,-0.149302288700974,0.5431433583972338,0.10295964166669094,0.030323867709399425,-0.2034540756103219,0.4799672829233159,0.1928882976949411,0.3982316062148431,-0.11313519964698959,0.563366244598398,0.1369132353014358,0.04372332020350204,-0.18003428287767934,0.48503758572545785,0.16334833060225318,0.3849923991923187,-0.06856095828010184,0.5379618982164084,0.05203996822598065,1.0366746679149,-0.07336060232557504,0.6029692037076608,0.10863514036984909,1.0443214624467074,-0.10461230473657981,0.6989973456389031,0.024224687658855486,0.48678991096181734,-0.030788110299556033,0.6082811495445244,0.041160146850485566,0.49237077646857846,0.0029746651847168057,0.6965552068090357,0.059331829379687784,0.5989245118283496,-0.008533342778783738,0.69599982315387,-0.019422853282265663,0.24614749645749887,-0.07857707668758177,0.7626347186478359,0.043810888405991656,0.7640713743130788,-0.012520790279868379,0.748050643786093,-0.013346406199961476,0.6000879805404801,-0.05219535388717758,0.77828524086786,0.09675131527577219,0.1456423876300184,-0.03969183892094104,0.8063114892830764,0.05135515205037783,0.11586137845632466
20,0.18171386323527391,0.3703066323779226,-0.12965528743670834,0.9576386504889616,0.16132922602067695,0.36731834284323345,-0.04087390847253729,0.9544440175467465,0.20112236257920088,0.37071116401445475,-0.13071453276943304,0.9979976438029325,0.17501368150752672,0.42687551293014714,-0.10930501024097294,0.9630090013251873,0.1645445051403964,0.40300334297841106,-0.041418860667337555,1.0398719139750154,0.20253684788572957,0.3930674020710824,-0.11950062177840706,0.9673060451032549,0.23871474115504449,0.3934370101268456,-0.05721214601089277,1.0190254048067784,0.06362628528512973,0.4658175564374148,-0.00027907036594730997,0.967991261016655,0.09100054015039197,0.4509646768212807,-0.09149832935008133,1.0318022522007715,0.15563145532697356,0.42415241116477204,-0.033326749003579494,0.9725668535248191,0.23165950603027124,0.3819216986270487,-0.09694713385814044,1.027019019074195,0.002236121716310935,0.4808857782385687,-0.00486570322741027,0.9649647079795252,0.04685443908377358,0.4278249035667357,-0.0303431811096571,1.0272821204251605,-0.0727311928395938,0.46945830826712703,0.04468395442579727,0.17340071150959419,0.06401323154249461,0.4652107911601868,-0.015106169778935051,0.8316653164263581,-0.061302342271001405,0.5185136110507258,0.05917619758103503,0.0017902802769196521,-0.029328854892354483,0.5818245245591004,0.07532809129840184,0.3465714602893192,-0.08560305644037972,0.5749075687554088,0.060140307696103304,0.08744410026443303,0.02024508537527244,0.5766662755412209,0.006086193355201983,0.20773096833082974,-0.11794598241227705,0.5655833746669177,0.08245454591710275,0.00479289612269522,0.013565040829171237,0.5879701243959417,0.06178516283602433,0.14050358089765097,-0.09099018149140357,0.5836795075378511,0.12217734826079367,0.028522798406560232,0.01973648907592414,0.588344058026941,0.0424775542600379,0.15332236228035429,-0.09888691868345649,0.5292713621942221,0.07076681963128001,1.0374704495272962,-0.04742903490020673,0.6031952245206491,0.09414927862644473,1.044508680635947,-0.19170745565179717,0.6840735942846856,0.07618969669798256,0.9766603400008189,0.017436114382973135,0.6061167260787956,0.014389483656572166,0.6996864598334467,-0.20049373913152668,0.6860644913053431,0.181590120446996,0.9039906205319629,-0.045365739562386036,0.6786383014329838,0.0064759765940591366,0.34957663511792975,-0.294079169128718,0.7549748661431057,0.173542587936479,0.9368973664204702,-0.05877667807427711,0.7284471529566252,0.018470125202781802,0.857163826735701,-0.24781931127708623,0.76810297940088,0.21359161103394975,0.4572818306699125,-0.06094055136539084,0.7923550617089187,0.06785815329803185,0.23244405522462766
21,,,,,,,,,,,,,,,,,,,,,,,,,,,,,,,,,,,,,,,,,,,,,,,,,,,,,,,,,,,,,,,,,,,,,,,,,,,,,,,,,,,,,,,,,,,,,,,,,,,,,,,,,,,,,,,,,,,,,,,,,,,,,,,,,,,,
22,,,,,,,,,,,,,,,,,,,,,,,,,,,,,,,,,,,,,,,,,,,,,,,,,,,,,,,,,,,,,,,,,,,,,,,,,,,,,,,,,,,,,,,,,,,,,,,,,,,,,,,,,,,,,,,,,,,,,,,,,,,,,,,,,,,,
23,-0.26889886497290644,0.3356517468474508,0.14251704239584195,0.9576386504889616,-0.26343412262404253,0.329995464005648,0.21611861160119303,0.9544440175467465,-0.22500973742097669,0.33158110214960185,0.12754005705168564,0.9980175517542874,-0.2524345942442489,0.38603965553878966,0.1501656235716195,0.9630090013251873,-0.26047699408502056,0.37054250442212133,0.21437406419030341,1.0398719139750154,-0.22097469404629883,0.3624032561245797,0.13489932789872872,0.9673216615201861,-0.18349324639445108,0.3645425558860467,0.19592601851930705,1.0190254048067784,-0.20435824149223383,0.4221131659115969,0.1633167840717169,0.9682247324102402,-0.18414629565779225,0.4229962105393898,0.07213887829311677,1.0319104942356834,-0.23808972385949542,0.3866934549231644,0.20538057881790037,0.9727807745949181,-0.1637057260314474,0.350605924901539,0.141338492809228,1.0272324633071357,-0.12772012427595353,0.4401799185774664,0.08021331959236415,0.9653955303519618,-0.16181095906862517,0.4116465936492857,0.08986243141637419,1.0278726236409503,-0.2771633157953702,0.4019823337073431,0.1790968725750095,0.9826029057234614,-0.21240203605192182,0.4398204045787659,0.14227533341681475,0.4782022031184053,-0.37405507964119167,0.3854913921080836,0.25828914279301435,0.8363608744088662,-0.4435662995609145,0.47398336068542785,0.3180206568590444,0.4373618512576419,-0.42490559472266715,0.4181670523312297,0.275586003996966,0.7627424446083337,-0.4422172264673624,0.4510211744708168,0.2784770235218485,0.38261902782770935,-0.45935285186906516,0.4111885394332293,0.29818472833139487,0.7046193825314058,-0.4483456653343822,0.4536946879945744,0.33425780259442983,0.34661967608293087,-0.4064585922672939,0.4395996137104128,0.32160039873515683,0.6948894277090619,-0.4036352005071484,0.46089928411451114,0.2919779066401425,0.3312729978327606,-0.08633852391832723,0.511345622905892,0.06615967170312564,1.0376210108599988,-0.057013998071278195,0.583928321120228,0.09559620087508758,1.0446846931519687,-0.17783910828813054,0.6937667996412835,0.07178778240882303,0.9967105676428782,-0.0797896998718424,0.5883072158477776,0.06862155664902636,1.0206831615508234,-0.047501582754405774,0.6967104173040308,0.09446855298779082,1.0213658751630053,-0.01813783447278918,0.6722719889291691,-0.014631279479002939,0.8141411969618019,-0.12858418995434953,0.7586521747025234,0.07893976755733514,0.7716986826817617,-0.022140663490476855,0.7221347826563322,-0.007657733966723472,0.5208795469123978,-0.15336674253581692,0.7883500215799877,0.16136329026720753,0.8943820623174039,-0.08658292343777285,0.7857306610932265,0.07661840119286221,0.8464358223926727
24,-0.03811947893092664,0.34487291321975,0.004201526773903917,0.9576386504889616,-0.05710318208250274,0.34059355727690344,0.0920290667505378,0.9544440175467465,-0.01733077372531388,0.34309454395067296,0.002212378299936646,0.9980163596613918,-0.04357224881370892,0.39845005783676335,0.023723856329818886,0.9630090013251873,-0.06207811058494866,0.3786890288514426,0.09629993059648054,1.0398719139750154,-0.023842016516817954,0.3695709232750772,0.018010126274439833,0.9673214231016071,0.012422928838342673,0.37075937994076474,0.08018813613929118,1.0190254048067784,-0.11132484246896464,0.43545575505153533,0.10661500229446899,0.9682241363637926,-0.12332328865242521,0.4281423861623299,0.038471208905785814,1.0319096597706567,-0.04339326703155639,0.39605478161765295,0.08809181877480188,0.9727613434807213,0.021018115999872716,0.35678487020450234,0.03140766305611376,1.0272219728896552,-0.05365229214103247,0.45230958299854795,0.030505175515771782,0.963805397638644,-0.14062567362039718,0.4103436659168181,0.08296496294909596,1.027981521326955,0.020966333027858764,0.4320495689387426,-0.012599182244436076,0.6601588244170039,-0.03510300954060559,0.43848037295492553,0.04383706542351851,0.936420241200528,0.16790955609043176,0.4355660588465937,-0.08163674546706876,0.27906352543273094,-0.0408317236948056,0.48995841876419377,0.0818005423505512,0.686532810253461,0.16504390145088257,0.4783178246643749,-0.09391746045323275,0.3738678840137751,0.004825506615713201,0.47189618138495554,0.015284347237579696,0.5925826475367243,0.11955483494078692,0.4681721593615893,-0.06367271301905394,0.3085648464272034,-0.0073937801134547985,0.4766508208833684,0.07422534039987747,0.5319898531134942,0.1358447502624757,0.49244354204750995,-0.017488442429644934,0.30009457616754276,0.005814180410669087,0.48261388205495614,0.05062266315104859,0.5316723072295044,-0.05641236487998197,0.5162106136171042,0.045247715751953195,1.0375844136081067,-0.08798024086691666,0.5897707684011118,0.11756475187680734,1.0446762292924106,-0.12230834651971836,0.6852826148993096,0.03560773804156465,0.9973976303832041,-0.08531660816142637,0.5986121436737053,0.07625150202067289,1.037851146990124,0.001085586469406881,0.68516040805339,0.06064621247036749,1.0335398854397997,-0.04684437110063632,0.6920045238145756,0.008387953746324804,0.9482227394537147,-0.07676893933521427,0.7471795918854458,0.04277687099604449,0.9640839985768421,-0.048775417072012356,0.7415045636736357,0.013564814538267703,0.9698574941475053,-0.04142308708880796,0.7757687923700878,0.0899607087278557,0.9064993289723722,-0.07678096577947933,0.8070942770829116,0.07886208537878421,0.9159562362682525
25,,,,,,,,,,,,,,,,,,,,,,,,,,,,,,,,,,,,,,,,,,,,,,,,,,,,,,,,,,,,,,,,,,,,,,,,,,,,,,,,,,,,,,,,,,,,,,,,,,,,,,,,,,,,,,,,,,,,,,,,,,,,,,,,,,,,
26,,,,,,,,,,,,,,,,,,,,,,,,,,,,,,,,,,,,,,,,,,,,,,,,,,,,,,,,,,,,,,,,,,,,,,,,,,,,,,,,,,,,,,,,,,,,,,,,,,,,,,,,,,,,,,,,,,,,,,,,,,,,,,,,,,,,
27,,,,,,,,,,,,,,,,,,,,,,,,,,,,,,,,,,,,,,,,,,,,,,,,,,,,,,,,,,,,,,,,,,,,,,,,,,,,,,,,,,,,,,,,,,,,,,,,,,,,,,,,,,,,,,,,,,,,,,,,,,,,,,,,,,,,
28,,,,,,,,,,,,,,,,,,,,,,,,,,,,,,,,,,,,,,,,,,,,,,,,,,,,,,,,,,,,,,,,,,,,,,,,,,,,,,,,,,,,,,,,,,,,,,,,,,,,,,,,,,,,,,,,,,,,,,,,,,,,,,,,,,,,
29,,,,,,,,,,,,,,,,,,,,,,,,,,,,,,,,,,,,,,,,,,,,,,,,,,,,,,,,,,,,,,,,,,,,,,,,,,,,,,,,,,,,,,,,,,,,,,,,,,,,,,,,,,,,,,,,,,,,,,,,,,,,,,,,,,,,
30,,,,,,,,,,,,,,,,,,,,,,,,,,,,,,,,,,,,,,,,,,,,,,,,,,,,,,,,,,,,,,,,,,,,,,,,,,,,,,,,,,,,,,,,,,,,,,,,,,,,,,,,,,,,,,,,,,,,,,,,,,,,,,,,,,,,
31,,,,,,,,,,,,,,,,,,,,,,,,,,,,,,,,,,,,,,,,,,,,,,,,,,,,,,,,,,,,,,,,,,,,,,,,,,,,,,,,,,,,,,,,,,,,,,,,,,,,,,,,,,,,,,,,,,,,,,,,,,,,,,,,,,,,
32,,,,,,,,,,,,,,,,,,,,,,,,,,,,,,,,,,,,,,,,,,,,,,,,,,,,,,,,,,,,,,,,,,,,,,,,,,,,,,,,,,,,,,,,,,,,,,,,,,,,,,,,,,,,,,,,,,,,,,,,,,,,,,,,,,,,
33,,,,,,,,,,,,,,,,,,,,,,,,,,,,,,,,,,,,,,,,,,,,,,,,,,,,,,,,,,,,,,,,,,,,,,,,,,,,,,,,,,,,,,,,,,,,,,,,,,,,,,,,,,,,,,,,,,,,,,,,,,,,,,,,,,,,
34,,,,,,,,,,,,,,,,,,,,,,,,,,,,,,,,,,,,,,,,,,,,,,,,,,,,,,,,,,,,,,,,,,,,,,,,,,,,,,,,,,,,,,,,,,,,,,,,,,,,,,,,,,,,,,,,,,,,,,,,,,,,,,,,,,,,
35,,,,,,,,,,,,,,,,,,,,,,,,,,,,,,,,,,,,,,,,,,,,,,,,,,,,,,,,,,,,,,,,,,,,,,,,,,,,,,,,,,,,,,,,,,,,,,,,,,,,,,,,,,,,,,,,,,,,,,,,,,,,,,,,,,,,
36,,,,,,,,,,,,,,,,,,,,,,,,,,,,,,,,,,,,,,,,,,,,,,,,,,,,,,,,,,,,,,,,,,,,,,,,,,,,,,,,,,,,,,,,,,,,,,,,,,,,,,,,,,,,,,,,,,,,,,,,,,,,,,,,,,,,
37,,,,,,,,,,,,,,,,,,,,,,,,,,,,,,,,,,,,,,,,,,,,,,,,,,,,,,,,,,,,,,,,,,,,,,,,,,,,,,,,,,,,,,,,,,,,,,,,,,,,,,,,,,,,,,,,,,,,,,,,,,,,,,,,,,,,
38,,,,,,,,,,,,,,,,,,,,,,,,,,,,,,,,,,,,,,,,,,,,,,,,,,,,,,,,,,,,,,,,,,,,,,,,,,,,,,,,,,,,,,,,,,,,,,,,,,,,,,,,,,,,,,,,,,,,,,,,,,,,,,,,,,,,
39,,,,,,,,,,,,,,,,,,,,,,,,,,,,,,,,,,,,,,,,,,,,,,,,,,,,,,,,,,,,,,,,,,,,,,,,,,,,,,,,,,,,,,,,,,,,,,,,,,,,,,,,,,,,,,,,,,,,,,,,,,,,,,,,,,,,
40,,,,,,,,,,,,,,,,,,,,,,,,,,,,,,,,,,,,,,,,,,,,,,,,,,,,,,,,,,,,,,,,,,,,,,,,,,,,,,,,,,,,,,,,,,,,,,,,,,,,,,,,,,,,,,,,,,,,,,,,,,,,,,,,,,,,
41,,,,,,,,,,,,,,,,,,,,,,,,,,,,,,,,,,,,,,,,,,,,,,,,,,,,,,,,,,,,,,,,,,,,,,,,,,,,,,,,,,,,,,,,,,,,,,,,,,,,,,,,,,,,,,,,,,,,,,,,,,,,,,,,,,,,
42,-0.16476901891365525,0.38492738352042444,0.08808376823891506,0.9576386504889616,-0.1698912043362409,0.38238738051909094,0.16762943451658055,0.9544440175467465,-0.13006146195291932,0.38526593281519017,0.07780110547173033,0.9980167172892606,-0.15636531429324194,0.44108052167534056,0.09935409446935556,0.9630090013251873,-0.17687912156857497,0.41957718931859045,0.17299465424440666,1.0398719139750154,-0.13852682571332747,0.4101535503331063,0.09459767636914494,0.9673205886365801,-0.10209305792988545,0.41112144001080253,0.15663513290064474,1.0190254048067784,-0.1768824486743532,0.4796588874425113,0.15333471506622448,0.9682222290151598,-0.20349213503489458,0.4690794522405159,0.09409738191254223,1.0319027456318626,-0.1554620585137305,0.43787247652007294,0.16312006282442748,0.9727197394386681,-0.09455806364136696,0.39727925258594154,0.10848490736968364,1.0271690439650947,-0.10832951369044302,0.4998188658259252,0.07123870434440877,0.9652223788588892,-0.22298922945737107,0.44426997407187785,0.13930943724427472,1.0280932800359088,-0.11212392788245969,0.4221039081091985,0.07607238211681165,0.927558075878033,-0.1102710736573855,0.39347409777792364,0.09315458560088202,0.9246822389002656,-0.025612324235468865,0.3923516781054744,0.04490761687306235,0.5332242276612771,-0.14629108184078407,0.40189014212044066,0.1499309997575988,0.989946022552808,-0.043605924959580204,0.4262670851376262,0.0417409792600712,0.49069224271548095,-0.11556323169290181,0.3732417622012245,0.09275648537158798,0.926177267764538,-0.08796673320116272,0.4175179864642505,0.07142066533050115,0.3946226584026825,-0.12161323241223052,0.37990544906482593,0.14820300517061208,0.869833032816253,-0.059174167341940094,0.4429467721424196,0.1099504056462222,0.3936986043924878,-0.09909449470289894,0.38951092027631534,0.118807772891301,0.8784359180693482,-0.05168991257985339,0.5705493668405234,0.04839705229754975,1.0376192227206555,-0.12607186163159895,0.6373979790181772,0.14612558320299918,1.0446879118027865,0.010635045287410112,0.7126338750845513,-0.041126901596858806,0.9039767672316539,-0.15054181653938953,0.62987680641632,0.11666843848168719,1.0427955906928217,0.2571169240622289,0.67419929269313,-0.09290372688325618,0.9704462231778369,-0.11283684762574522,0.6913965564378666,0.0419250106949206,0.9396076033071693,0.19149301665368776,0.7317602875145657,-0.11856790566775988,0.9162559203068837,-0.11189221764815394,0.7330126899324858,0.04411056025405037,0.9126248162109513,0.21327043848884658,0.7455354091913768,-0.06324259249384517,0.8080028918996183,-0.15994232317896434,0.8059369932999526,0.1214946524393997,0.971490658665866
43,-0.13884621902083077,0.382410458185494,0.07625479907454237,0.9576386504889616,-0.13470422527466525,0.37882349959868084,0.15012018158252122,0.9544440175467465,-0.09506427151346783,0.38091783358347026,0.06043353107777683,0.9980168364985501,-0.12145681429417346,0.43590046081184575,0.08206086193222091,0.9630090013251873,-0.15736591711909886,0.4184827288312247,0.1647231121564827,1.0398719139750154,-0.11865589898678656,0.4100752298298715,0.08597504650553613,0.9673186812879473,-0.08202350715380978,0.4119178176696465,0.14774924742905207,1.0190254048067784,-0.09613220573285543,0.4734500802125155,0.10792951058695621,0.968224493991661,-0.19197689995915085,0.4712821120858681,0.08981818250612718,1.031892016795803,-0.11318228725058685,0.43385327571822363,0.14136934123555012,0.9727484688774499,-0.07228444702348633,0.39591189223247164,0.098551766862954,1.027145559735053,0.03117680019273053,0.49471751289585625,-0.011074494740186833,0.96539600718912,-0.2669099998991198,0.45093815429915757,0.1666531958066891,1.0262223498410543,0.11635691859389607,0.4503207767481909,-0.06291782612656001,0.0616483728021471,-0.36438053187632685,0.46408202819975286,0.24367137708671502,0.5686419995661591,0.2166508113920245,0.456889024468542,-0.10457124657109357,-0.028908684095357653,-0.6084956815810418,0.5035462810173829,0.4250907341285366,0.2968109696334201,0.20656952114090166,0.5041677928593364,-0.11286701009257996,0.07414277802777594,-0.6050823201121512,0.4813054898184883,0.38573091380684954,0.33142757866236516,0.15388880259606874,0.494959649014223,-0.07842729729727199,-0.005146692483662375,-0.6082457031331723,0.4880237149320592,0.43905753306448364,0.2813763127024987,0.1800318390602549,0.5168450577697847,-0.03798901667759745,0.020871242123324633,-0.5648204973636314,0.49589042924848337,0.3959902142036407,0.2454725587134216,0.005023792646173822,0.5720539072839438,0.014688466774017112,1.0376155272326792,-0.18496397214328392,0.6425862057180063,0.18185468204572644,1.044685408407706,-0.030191396584268414,0.7184638649946771,-0.01451396268638333,0.4067697514788614,-0.25127782805171683,0.645559146084594,0.18010486438018683,1.0430623214781916,0.0917885638294736,0.6865195131635584,0.007940391452092119,0.6627392710828052,-0.25642534022874086,0.6951294761308597,0.12898476850350732,0.9520248005346473,0.012845914704502769,0.7434602024468167,-0.010063569137568396,0.7390328935544118,-0.2576724965196333,0.7330621617876494,0.13181319090021534,0.9504257242996353,0.024786054554753467,0.7632361409456798,0.05243816848299526,0.5553239015355436,-0.3081372993157046,0.813357175528041,0.21165610197623663,0.9981186760914033
44,-0.1540577292449161,0.38724043116790063,0.08604769202578823,0.9576386504889616,-0.15694433364800905,0.38346240989225994,0.1642457194331307,0.9544440175467465,-0.11704192195941893,0.3853152258564195,0.0743254172497719,0.9976917527659451,-0.14319780792628575,0.44006521615623656,0.09573390736900497,0.9630090013251873,-0.1743120930635402,0.4238165398759177,0.17587059838311542,1.0398719139750154,-0.13584291901705414,0.4155692283573983,0.09736073105726469,0.9665012035848529,-0.09937576993450965,0.4175946534450219,0.15932545101596945,1.0190254048067784,-0.14087389457287006,0.4766175306405246,0.13537157594970856,0.9680720253103258,-0.21328483030829534,0.4767725343347084,0.10379075378401102,1.0297778996502647,-0.13518781253308199,0.4366643499751206,0.1549782086017699,0.968975375653878,-0.08752656460922109,0.39931850629764193,0.10831782709317195,1.0201339077422555,-0.03347787280511483,0.481958453228269,0.027603103155433004,0.9652480088561428,-0.2632116661594638,0.4541664312671599,0.16523224470013648,1.0213428155965167,0.09312635459659867,0.4213072622294531,-0.04866378776563064,0.0717949050098746,-0.3670323398310663,0.46410601906927496,0.24858712034026173,0.06384507735928045,0.29236876856326444,0.4187294156275996,-0.14823413928614723,-0.03215675539336085,-0.5946313608738756,0.4887461794987519,0.42079261115146965,0.0945820472365218,0.29126985468501226,0.4623609758045879,-0.16159378881683698,0.06839471842718423,-0.5771287102937783,0.4650162258547889,0.3710074105119438,0.11008891913744755,0.2414866211578215,0.453984763788927,-0.12892253385260094,-0.01224624642634278,-0.5813053262623641,0.4705939160905827,0.4250972862776335,0.062098588078818566,0.25849589657371536,0.4781934125862215,-0.08300367604675352,0.020648637401540132,-0.5497706165235361,0.47966211103406686,0.3906591335644843,0.07574646261976697,-0.023494330386608725,0.5520681718675314,0.032205929235791846,1.0376166001162852,-0.15962051735959557,0.6268101675481454,0.16726358470289684,1.0446881502213654,-0.0845847190413595,0.7089964420324883,0.019544384352269815,0.24301321702165474,-0.21017003774027657,0.6219970723770134,0.1548346232757892,0.9982933323920405,0.026510044644097064,0.6924752688741602,0.052647962639796805,0.3398675264500842,-0.23143121511896841,0.6863852363237308,0.11603213061986292,0.8467626998380836,-0.05408732149726527,0.7518591525467617,0.036191522406273983,0.43686497129603474,-0.23672977461467803,0.7273884552561247,0.1218885518068368,0.6925768654663224,-0.0477631174034165,0.7796345708162853,0.10243544400313948,0.12473781681207102,-0.28696890908410594,0.8078681837906753,0.20060858612892918,0.7369276060115997
45,-0.18577453515333492,0.38209795103293664,0.10847547417271704,0.9576386504889616,-0.17939758044565463,0.3774585830356467,0.1812062441898918,0.9544440175467465,-0.13967823357867273,0.37998451425325475,0.09145184846446752,0.9980155251963649,-0.16597968290773002,0.43535039934753605,0.11300341050371937,0.9630090013251873,-0.2139510699058064,0.41507909499829326,0.20289000542767796,1.0398719139750154,-0.17493710316080768,0.4054325346413491,0.12385848087216826,0.9673145089628132,-0.13786214336831681,0.4060429156596826,0.18526670553299696,1.0190254048067784,-0.1236644469339672,0.470686242636603,0.12803534937950084,0.9682243747823716,-0.26965812983879245,0.4613484317899239,0.1398373748875017,1.031840518382717,-0.15534369093553915,0.43447948211623383,0.17011120428189805,0.9727714762703331,-0.1279238472858683,0.3937967916102945,0.13538135920813182,1.027200515217536,-0.00010103409067287183,0.4857570274374822,0.010953838588933937,0.965451201090182,-0.34296068842530875,0.43931325181235636,0.21282864732051326,1.0281838790959674,0.06850747707233988,0.4621588254447088,-0.029207550975696068,0.031923264506468,-0.4501268291271333,0.46371474437864685,0.2992671820730369,0.7891025336619233,0.1440646004834295,0.49611758300888625,-0.05559880202263937,-0.03951118159106855,-0.6297056838491328,0.505128367103656,0.44521362321411556,0.37914885572846707,0.13018099406973122,0.5524535453942028,-0.061357144354070706,0.06166373259944023,-0.6177157696312279,0.4847915270728218,0.3992059707815716,0.30451742265078374,0.07566046317995323,0.5392970110652331,-0.026279318829545602,-0.02055548222267508,-0.6127465209794795,0.48969929090366254,0.4481550118928632,0.24514163586457757,0.10709688888415911,0.55785662965394,0.010793478487959144,0.006183850193996233,-0.5801813486368604,0.49618580006566776,0.41294241275606347,0.1931730890040253,0.008271358878781998,0.5576452592698752,0.01593985630680298,1.0376198187671033,-0.19957548862841276,0.6294688923329965,0.1912650794783912,1.0446944683137118,-0.05144531001754297,0.7154279024130425,0.006125273465505912,0.5214709331290233,-0.2647873896522949,0.6314609786651604,0.1874438814349422,1.0426344793379938,0.15145888789982076,0.692140171561233,-0.014747014198596961,0.8395655693196521,-0.2676709683342119,0.6830838542589115,0.13709962136307613,0.9602587053732093,0.08166240026660468,0.7549539449127896,-0.03812802264306602,0.7678024462620839,-0.2702000184679476,0.7261412876688444,0.14132318835528832,0.9805586140472549,0.09287671998692829,0.782533561924226,0.027857796494047283,0.8047117618337003,-0.33196937333298887,0.8036916863312636,0.22716487574912994,1.021633781338901
46,0.10285851922918066,0.3798024271510244,-0.06625412753053901,0.9576386504889616,0.0987685440214791,0.3727092551376212,0.012564227840205514,0.9544440175467465,0.13848245362127548,0.37520544363748637,-0.07721171932860915,0.998017670963577,0.11225955221439096,0.43058956775306884,-0.055731925032634536,0.9630090013251873,0.0740963099123155,0.41047776543324505,0.028578727226522806,1.0398719139750154,0.1128197300747417,0.4009973530236123,-0.05013679524616567,0.9673218999387653,0.14943457467201265,0.4017223239715264,0.011681658392160503,1.0190254048067784,0.08873169923059261,0.4648080623711764,-0.0005296911765405136,0.9682248516195298,-0.01020609882024795,0.4564222271085274,-0.016445901064615433,1.0319114479099998,0.10957617196469946,0.4305702816863175,0.01000240924403454,0.9727826819435509,0.14912328567181468,0.3902617593379557,-0.03188941365195532,1.0272421192595893,0.13145799910290917,0.47847927050808464,-0.06945758010667342,0.9653755031913172,-0.12429009453601193,0.43241991503943766,0.083536220859561,1.0282101051396686,0.06740175799183007,0.4485404754157171,-0.02896016598102361,0.018335919835799797,-0.20263754261131015,0.4554686503902283,0.15116567267292516,0.5006274374361848,0.042820435675044656,0.4575747163020381,0.0044309632018738054,-0.03842710814437745,-0.38549494610900503,0.4859882129803498,0.29855208182123766,0.3173311798995334,0.04213597759041785,0.5070293522503582,-0.009433927857577531,0.06718111198020284,-0.37460014775799505,0.45977816967192764,0.2527508498927496,0.4963943109259302,-0.06548393201547095,0.4921924139735583,0.058213159714855,-0.011820946796773677,-0.3721547000874836,0.4664877223096837,0.302732691913234,0.4410665735896447,0.02293933409000721,0.5123331053695772,0.06081734163523096,0.01637685446687443,-0.3386212804794054,0.47469674610105295,0.26718238666360355,0.3695741379027222,-0.021566983443928184,0.5358707288591086,0.03417603548501357,1.0376229182086316,-0.1825702218212274,0.605921660181965,0.18522860576983333,1.0446939914765534,-0.11195505682395199,0.6965241105085931,0.03821892954101467,0.9983433772818553,-0.2009619688220682,0.5756993433616631,0.16235020488385488,1.0356172245085868,-0.08954593423660263,0.6860100126600184,0.12374492647007085,1.0385860146664845,-0.2537165202764763,0.6811040263780521,0.15158321608694186,0.9533446261839087,-0.18352723261574136,0.7482760193260891,0.11841431932475058,0.9744590214650257,-0.2608916968158717,0.7388968008600676,0.15915751117922597,0.9956741135437149,-0.11603529637046081,0.7687550542147228,0.14220966548967254,0.9452005056157438,-0.28945711793304485,0.7876768123497878,0.22894835635825325,0.9382547511112397
47,,,,,,,,,,,,,,,,,,,,,,,,,,,,,,,,,,,,,,,,,,,,,,,,,,,,,,,,,,,,,,,,,,,,,,,,,,,,,,,,,,,,,,,,,,,,,,,,,,,,,,,,,,,,,,,,,,,,,,,,,,,,,,,,,,,,
48,,,,,,,,,,,,,,,,,,,,,,,,,,,,,,,,,,,,,,,,,,,,,,,,,,,,,,,,,,,,,,,,,,,,,,,,,,,,,,,,,,,,,,,,,,,,,,,,,,,,,,,,,,,,,,,,,,,,,,,,,,,,,,,,,,,,
49,,,,,,,,,,,,,,,,,,,,,,,,,,,,,,,,,,,,,,,,,,,,,,,,,,,,,,,,,,,,,,,,,,,,,,,,,,,,,,,,,,,,,,,,,,,,,,,,,,,,,,,,,,,,,,,,,,,,,,,,,,,,,,,,,,,,
50,,,,,,,,,,,,,,,,,,,,,,,,,,,,,,,,,,,,,,,,,,,,,,,,,,,,,,,,,,,,,,,,,,,,,,,,,,,,,,,,,,,,,,,,,,,,,,,,,,,,,,,,,,,,,,,,,,,,,,,,,,,,,,,,,,,,
51,,,,,,,,,,,,,,,,,,,,,,,,,,,,,,,,,,,,,,,,,,,,,,,,,,,,,,,,,,,,,,,,,,,,,,,,,,,,,,,,,,,,,,,,,,,,,,,,,,,,,,,,,,,,,,,,,,,,,,,,,,,,,,,,,,,,
52,-0.023514122742311017,0.39772000060302026,0.016349368378745933,0.9576386504889616,-0.025945952500429487,0.3916692542220939,0.09458668653406914,0.9544440175467465,0.01279631825231154,0.39289261533510295,0.005726877775099913,0.998017670963577,-0.014410007331953268,0.4468937328779621,0.02812908911294511,0.9630090013251873,-0.011520156513906026,0.43297863804524456,0.08629209224730677,1.0398719139750154,0.027413286573134566,0.424851161665046,0.007319330519423087,0.9673218999387653,0.06450662730615912,0.4270077467734979,0.06873802807283705,1.0190254048067784,-0.022735260819159293,0.48099790578739043,0.07546895969367741,0.9682248516195298,0.05121252289829767,0.4829737717748177,-0.046868743790709474,1.0319114479099998,-0.014166495075993497,0.4467013251204605,0.09215903673559489,0.9727831587807091,0.0750310690071252,0.41134156781154274,0.01953971251295121,1.0272423576781682,-0.0421116084359075,0.4766053898833135,0.04844456341142704,0.9653292499869716,0.08505046355055787,0.4625874648879942,-0.032801498251028,1.027952672678884,-0.1698810494661511,0.4330573642726049,0.12784435215151915,1.0052452797621578,0.1448844947749783,0.48514478974493414,-0.046943139891666284,-0.015038162640133048,-0.1152708691368492,0.4279487640582332,0.11472632072675154,0.7454324986878884,0.061995508567575214,0.5543778969422181,0.03778345643172056,0.0811149179166156,-0.14271456798362617,0.4657915211346355,0.11763808610830709,0.7777667489982873,0.1041084926824482,0.5452937283915626,-0.027015639598339525,0.12418211701962295,-0.17379842951731264,0.4628466631648425,0.13905244673266534,0.7066041575977815,0.09473322008919524,0.5511112677179326,0.031151690373772363,0.07430801096519016,-0.14501402241266478,0.49052722291565876,0.17732634653044674,0.6947385683531354,0.10524817822808179,0.5524380412003114,0.00942053133622003,0.10659788636015398,-0.20957851428479451,0.5371557453958212,0.1636105644802774,1.0376086130938855,-0.07725186618653782,0.6195408446759836,0.13394233600767438,1.0446836202683627,-0.36103443078385994,0.7202430040365777,0.2068352612687728,0.9984895278708444,-0.15567726356451048,0.6212382456443779,0.14123473043185253,0.9650723856032526,-0.359193058781123,0.6738045907354273,0.3167715766715496,1.03134649411671,-0.21888860142448746,0.6978128772386478,0.13699942710905008,0.8359256217436012,-0.44943862447705085,0.7259993793877346,0.30842012832791493,0.967483191863738,-0.23542147676802835,0.7459761637293303,0.15231145795761117,0.8775125544387955,-0.43245176526017126,0.7826305982859203,0.3664584153382395,0.9430009154095975,-0.269554203262328,0.8262961518158828,0.21764948069940998,0.9805976523410981
53,,,,,,,,,,,,,,,,,,,,,,,,,,,,,,,,,,,,,,,,,,,,,,,,,,,,,,,,,,,,,,,,,,,,,,,,,,,,,,,,,,,,,,,,,,,,,,,,,,,,,,,,,,,,,,,,,,,,,,,,,,,,,,,,,,,,
54,,,,,,,,,,,,,,,,,,,,,,,,,,,,,,,,,,,,,,,,,,,,,,,,,,,,,,,,,,,,,,,,,,,,,,,,,,,,,,,,,,,,,,,,,,,,,,,,,,,,,,,,,,,,,,,,,,,,,,,,,,,,,,,,,,,,
55,,,,,,,,,,,,,,,,,,,,,,,,,,,,,,,,,,,,,,,,,,,,,,,,,,,,,,,,,,,,,,,,,,,,,,,,,,,,,,,,,,,,,,,,,,,,,,,,,,,,,,,,,,,,,,,,,,,,,,,,,,,,,,,,,,,,
56,,,,,,,,,,,,,,,,,,,,,,,,,,,,,,,,,,,,,,,,,,,,,,,,,,,,,,,,,,,,,,,,,,,,,,,,,,,,,,,,,,,,,,,,,,,,,,,,,,,,,,,,,,,,,,,,,,,,,,,,,,,,,,,,,,,,
57,,,,,,,,,,,,,,,,,,,,,,,,,,,,,,,,,,,,,,,,,,,,,,,,,,,,,,,,,,,,,,,,,,,,,,,,,,,,,,,,,,,,,,,,,,,,,,,,,,,,,,,,,,,,,,,,,,,,,,,,,,,,,,,,,,,,
58,,,,,,,,,,,,,,,,,,,,,,,,,,,,,,,,,,,,,,,,,,,,,,,,,,,,,,,,,,,,,,,,,,,,,,,,,,,,,,,,,,,,,,,,,,,,,,,,,,,,,,,,,,,,,,,,,,,,,,,,,,,,,,,,,,,,
59,,,,,,,,,,,,,,,,,,,,,,,,,,,,,,,,,,,,,,,,,,,,,,,,,,,,,,,,,,,,,,,,,,,,,,,,,,,,,,,,,,,,,,,,,,,,,,,,,,,,,,,,,,,,,,,,,,,,,,,,,,,,,,,,,,,,
60,,,,,,,,,,,,,,,,,,,,,,,,,,,,,,,,,,,,,,,,,,,,,,,,,,,,,,,,,,,,,,,,,,,,,,,,,,,,,,,,,,,,,,,,,,,,,,,,,,,,,,,,,,,,,,,,,,,,,,,,,,,,,,,,,,,,
61,,,,,,,,,,,,,,,,,,,,,,,,,,,,,,,,,,,,,,,,,,,,,,,,,,,,,,,,,,,,,,,,,,,,,,,,,,,,,,,,,,,,,,,,,,,,,,,,,,,,,,,,,,,,,,,,,,,,,,,,,,,,,,,,,,,,
62,,,,,,,,,,,,,,,,,,,,,,,,,,,,,,,,,,,,,,,,,,,,,,,,,,,,,,,,,,,,,,,,,,,,,,,,,,,,,,,,,,,,,,,,,,,,,,,,,,,,,,,,,,,,,,,,,,,,,,,,,,,,,,,,,,,,
63,,,,,,,,,,,,,,,,,,,,,,,,,,,,,,,,,,,,,,,,,,,,,,,,,,,,,,,,,,,,,,,,,,,,,,,,,,,,,,,,,,,,,,,,,,,,,,,,,,,,,,,,,,,,,,,,,,,,,,,,,,,,,,,,,,,,
64,,,,,,,,,,,,,,,,,,,,,,,,,,,,,,,,,,,,,,,,,,,,,,,,,,,,,,,,,,,,,,,,,,,,,,,,,,,,,,,,,,,,,,,,,,,,,,,,,,,,,,,,,,,,,,,,,,,,,,,,,,,,,,,,,,,,
65,,,,,,,,,,,,,,,,,,,,,,,,,,,,,,,,,,,,,,,,,,,,,,,,,,,,,,,,,,,,,,,,,,,,,,,,,,,,,,,,,,,,,,,,,,,,,,,,,,,,,,,,,,,,,,,,,,,,,,,,,,,,,,,,,,,,
66,-0.34233564615354667,0.34462913022261865,0.18719969896618927,0.9576386504889616,-0.33009693929315626,0.3388101565029014,0.25487571927990416,0.9544440175467465,-0.2908037485182924,0.3338314457107743,0.16546732987150523,0.997875454281143,-0.3173997147573054,0.38165013107895085,0.18727563989632087,0.9630090013251873,-0.32719719608977454,0.3969411929768851,0.2539258947524289,1.0398719139750154,-0.2883846875944195,0.3961447898808358,0.17509916183297275,0.9671052370550068,-0.25175409663611614,0.4054796219642327,0.23688787521966073,1.0190254048067784,-0.24337401274371556,0.4054040766324221,0.18470840400263708,0.9681776447408678,-0.22291450798946497,0.4664567286611092,0.09583731166850594,1.0317548069035303,-0.301289140500202,0.3747406374831314,0.24457625141928804,0.9720774397865685,-0.2282511866200589,0.3627777298064768,0.18232462104584,1.0251054715583259,-0.18930672446507568,0.3312789841196874,0.11947424072943329,0.9636379085868252,-0.13783882848329856,0.45269970997084946,0.08231495176702928,1.0247861163205463,-0.23693573122394201,0.2148634160037145,0.16037688424365526,0.926019143554577,-0.05473909861266599,0.5559745984569398,0.05602839959110351,0.867344120347104,-0.20673367524433375,0.284750899764181,0.15651208822939575,0.6338845517579568,-0.15223830253498422,0.593098623909076,0.14817274199368716,0.7201238422816593,-0.23873143564007968,0.3490339494374004,0.1602478866265404,0.6389782277084619,-0.1360048751041836,0.5739907422465431,0.09882305154052515,0.6218097254976923,-0.2704890453400954,0.3477456535575274,0.18020534212929984,0.5639064060757173,-0.13477156287151396,0.5682535039506902,0.14973347839994527,0.5715065405066827,-0.2308056760129796,0.36836440400696735,0.21300576734117282,0.61049688010164,-0.10713762424264239,0.5682656969925477,0.11813594324608895,0.6567608797316407,-0.2035222851744975,0.2739881554929433,0.1616797955696984,1.0352249637446729,-0.09325117666327953,0.43311930131622706,0.14542272189709793,1.0417812913003146,-0.3312403222207468,0.42896866507593007,0.1999918139634696,0.8919784118430125,-0.1347650442123219,0.43027527538757243,0.14030877997500807,0.6157478612006342,-0.09054744871853969,0.27383113864421027,0.16700852358456697,0.5790596546315417,0.043311690036786164,0.33095457369174225,-0.0041974021388713895,0.23687062954465707,-0.15383588269685286,0.30247014187896076,0.1412364659130216,0.4706853023926839,0.05711851908970192,0.33699260531296377,-0.007906695331859517,0.4178338747341294,-0.15365275938973647,0.3612704334051677,0.21723140551324274,0.5414693979039518,0.013859835066369768,0.44126916044854275,0.07263088241002814,0.3385915531170074
67,,,,,,,,,,,,,,,,,,,,,,,,,,,,,,,,,,,,,,,,,,,,,,,,,,,,,,,,,,,,,,,,,,,,,,,,,,,,,,,,,,,,,,,,,,,,,,,,,,,,,,,,,,,,,,,,,,,,,,,,,,,,,,,,,,,,
68,,,,,,,,,,,,,,,,,,,,,,,,,,,,,,,,,,,,,,,,,,,,,,,,,,,,,,,,,,,,,,,,,,,,,,,,,,,,,,,,,,,,,,,,,,,,,,,,,,,,,,,,,,,,,,,,,,,,,,,,,,,,,,,,,,,,
69,-0.4844373056955011,0.33577128396254785,0.2730224479699248,0.9576386504889616,-0.46996115436838354,0.331144760766207,0.3389456138226741,0.9544440175467465,-0.4303236321877948,0.32468967272531596,0.24919765343486117,0.9974501751406706,-0.4565043812319371,0.37104437861084166,0.27062661523302456,0.9630090013251873,-0.4714837438004742,0.3939359565896323,0.3410038643811673,1.0398719139750154,-0.4330714665465637,0.394548279470527,0.26253819460698957,0.966459778356734,-0.39689842882715115,0.4053577900703118,0.3247199697725728,1.0190254048067784,-0.3656957473709985,0.3895626223649203,0.2578805139035946,0.9680432362668991,-0.35850514163736624,0.4667747790456307,0.178190740920446,1.0311408790623435,-0.4354672603280929,0.3586615096945877,0.32561860449779456,0.9704367027298363,-0.3657202327862922,0.3520430822940409,0.2658162597367315,1.0203702997634347,-0.2642601799014543,0.2924006922743658,0.16622029832656227,0.9610116683333766,-0.28519257798038733,0.4404995034526762,0.17256788324128308,0.9885815398282367,-0.3541681977446471,0.161590289520751,0.2348095084835744,0.8055266256064265,-0.20350969740641336,0.5161368208423462,0.14934032347220821,0.748093345963559,-0.4116027523950052,0.2630450339041957,0.28514651433057875,0.5507116939965737,-0.2565542023399734,0.5153328313008149,0.21406622775661252,0.4391586332743961,-0.45886692516395455,0.3375740922119823,0.2986178640278858,0.5347578075863153,-0.2327454159538858,0.4805617132586586,0.16020279396543266,0.3640449092135126,-0.4804631334036698,0.3349354829070453,0.3118443785199333,0.45652473440861824,-0.228755380308201,0.4811197983346928,0.20919268045479505,0.30907724353631527,-0.43274901097598073,0.35176942782021503,0.3394956674482908,0.4520005002493452,-0.20751569582361928,0.48751204275098575,0.18142330591156938,0.3776078009371613,-0.17479063158901664,0.25257384575287684,0.1466792813647775,0.9755198255381908,-0.13528412830407685,0.43369719814964686,0.17295393102589496,0.9637842624726473,-0.2809220343193996,0.3265114993578515,0.1776809091669226,0.11764308707876074,-0.13127373079977225,0.36157919374923625,0.14462154472820649,0.19611983709937686,0.005649461759941285,0.25180269244670056,0.1195840158650266,0.07922431618802403,0.07751694346382318,0.35537289792384374,-0.0140206613712913,0.009971583093803763,-0.05885988603797724,0.3004040660771114,0.09514538389754679,0.021716780142031548,0.08781516006416676,0.38243619976868276,-0.01456301025962449,0.05805199107715073,-0.13109893429500938,0.34477511618447987,0.21387371196235824,0.03418430215266621,-0.03504019382903416,0.45706454032563315,0.11251036031315588,0.10915822520372306
70,-0.23704181967944327,0.3491719578288198,0.12296000361779878,0.9576386504889616,-0.22854608608404237,0.34862584940451274,0.19309385126286213,0.9544440175467465,-0.18906864215193184,0.34531547261964884,0.10347589848086686,0.9920554183466945,-0.21535767351357968,0.3947663119757099,0.12500031553040702,0.9630090013251873,-0.22484794286331392,0.40216253005688696,0.1919466613615131,1.0398719139750154,-0.1863478810942527,0.3993858520451425,0.11341697230322602,0.9601337585927875,-0.15002425334386332,0.4067809105689691,0.1754920666147318,1.0190254048067784,-0.17361965280125347,0.41750438576595184,0.14179445836771548,0.9665034694784166,-0.14157598867461002,0.4638847286344063,0.046863749085947995,1.0270456227337608,-0.20817291322172607,0.37794674152327734,0.18736801328416253,0.9666740403191003,-0.1318258591951475,0.35987414914088844,0.1234919362454808,1.0035193514296943,-0.13409723540174395,0.3214289589426855,0.08535390385197437,0.9638292991011987,-0.10177579066232276,0.43301998480071396,0.060884332714518194,1.0178601758069354,-0.21656336315234848,0.19518112783385366,0.1487099330159618,0.8678264732092708,-0.05932280512288014,0.4692093389526215,0.06268311522940231,0.550454893910489,-0.2430247596639599,0.2607027203761348,0.1811108313097145,0.7294982697907937,-0.18610032707706736,0.47663886681946105,0.1699777764115274,0.48943163446839627,-0.2830415023069064,0.3262854195263591,0.19037406496478507,0.7641308155990869,-0.1652237065650322,0.444469908754264,0.11728650482401265,0.5134377226576501,-0.315462981683566,0.3225164677379016,0.21042822276107342,0.6912669884274019,-0.16309644296342377,0.45079289546832935,0.16706956156433606,0.4666375026400903,-0.26697706174020414,0.3434589906177614,0.2375491095072615,0.7088007941717694,-0.13623781502069016,0.45442374609914554,0.13588713851285425,0.5212711775069092,-0.18958932410485652,0.2708400169698415,0.15265770452399016,1.0332801237902964,-0.10338903798338035,0.4292943818540231,0.15082586369062698,1.0390146225037753,-0.31063138268252516,0.3964901835447869,0.18867868768351706,0.6786115457312571,-0.11689215190804732,0.39217017499427714,0.12855960581806875,0.36031412296897525,-0.14643221475945883,0.2662744915819087,0.20396463461457284,0.3433822335385547,-0.0019865626200341394,0.3504226725706028,0.02551701288135274,0.08711698448221047,-0.21937675937206894,0.2996418418797237,0.18444591834005736,0.25983235158129775,0.002365540390279728,0.36599390087952255,0.02821469746173924,0.18924653044530335,-0.24103977271588273,0.3586213049681255,0.2728814379481328,0.3065897849812833,-0.0627766505729019,0.46626910680436245,0.12121540972878571,0.20398981108781736
71,,,,,,,,,,,,,,,,,,,,,,,,,,,,,,,,,,,,,,,,,,,,,,,,,,,,,,,,,,,,,,,,,,,,,,,,,,,,,,,,,,,,,,,,,,,,,,,,,,,,,,,,,,,,,,,,,,,,,,,,,,,,,,,,,,,,
72,,,,,,,,,,,,,,,,,,,,,,,,,,,,,,,,,,,,,,,,,,,,,,,,,,,,,,,,,,,,,,,,,,,,,,,,,,,,,,,,,,,,,,,,,,,,,,,,,,,,,,,,,,,,,,,,,,,,,,,,,,,,,,,,,,,,
73,,,,,,,,,,,,,,,,,,,,,,,,,,,,,,,,,,,,,,,,,,,,,,,,,,,,,,,,,,,,,,,,,,,,,,,,,,,,,,,,,,,,,,,,,,,,,,,,,,,,,,,,,,,,,,,,,,,,,,,,,,,,,,,,,,,,
74,,,,,,,,,,,,,,,,,,,,,,,,,,,,,,,,,,,,,,,,,,,,,,,,,,,,,,,,,,,,,,,,,,,,,,,,,,,,,,,,,,,,,,,,,,,,,,,,,,,,,,,,,,,,,,,,,,,,,,,,,,,,,,,,,,,,
75,,,,,,,,,,,,,,,,,,,,,,,,,,,,,,,,,,,,,,,,,,,,,,,,,,,,,,,,,,,,,,,,,,,,,,,,,,,,,,,,,,,,,,,,,,,,,,,,,,,,,,,,,,,,,,,,,,,,,,,,,,,,,,,,,,,,
76,,,,,,,,,,,,,,,,,,,,,,,,,,,,,,,,,,,,,,,,,,,,,,,,,,,,,,,,,,,,,,,,,,,,,,,,,,,,,,,,,,,,,,,,,,,,,,,,,,,,,,,,,,,,,,,,,,,,,,,,,,,,,,,,,,,,
77,,,,,,,,,,,,,,,,,,,,,,,,,,,,,,,,,,,,,,,,,,,,,,,,,,,,,,,,,,,,,,,,,,,,,,,,,,,,,,,,,,,,,,,,,,,,,,,,,,,,,,,,,,,,,,,,,,,,,,,,,,,,,,,,,,,,
78,,,,,,,,,,,,,,,,,,,,,,,,,,,,,,,,,,,,,,,,,,,,,,,,,,,,,,,,,,,,,,,,,,,,,,,,,,,,,,,,,,,,,,,,,,,,,,,,,,,,,,,,,,,,,,,,,,,,,,,,,,,,,,,,,,,,
79,,,,,,,,,,,,,,,,,,,,,,,,,,,,,,,,,,,,,,,,,,,,,,,,,,,,,,,,,,,,,,,,,,,,,,,,,,,,,,,,,,,,,,,,,,,,,,,,,,,,,,,,,,,,,,,,,,,,,,,,,,,,,,,,,,,,
80,-0.4082478079079523,0.3147425864718557,0.22891127301290048,0.9576386504889616,-0.3963149678533162,0.31397918931501995,0.29703845056443345,0.9544440175467465,-0.3569057459671766,0.31030754877817235,0.20753759199655158,0.9954383395655666,-0.3832828178752113,0.35942203912376586,0.22918823980333444,0.9630090013251873,-0.39876623236855757,0.36976964079564123,0.2994481228757879,1.0398719139750154,-0.36023970372742475,0.3682564918461679,0.22086327593093363,0.9650773678304585,-0.32368794142311363,0.3769044400031732,0.2827600843201467,1.0190254048067784,-0.31125294372087486,0.3866033113564669,0.22805130683304436,0.967206863891411,-0.30644682001069024,0.439626383268882,0.1491428853037321,1.0307701381718406,-0.36736826687446955,0.34616921061469275,0.28653827746183846,0.9715262756363303,-0.29873624227000634,0.3305597503753244,0.22713614492729764,1.024628515190833,-0.22603814694370883,0.32241175012806456,0.14512276776647337,0.9649654232352626,-0.25799572881240324,0.405696381170648,0.15964733106175755,1.0274889485425311,-0.28418625863084146,0.20449068789435482,0.19298585533431364,0.8116750831335872,-0.1985745881437497,0.40938207082899475,0.15583497180835768,0.5715614946719025,-0.30708983881809176,0.2682547778807887,0.22808603093930924,0.4949795629922402,-0.3717168130191991,0.45432109967621154,0.30159310806522166,0.4676902740424472,-0.3586513064190045,0.3253425038483348,0.24551431997997908,0.47561816844713994,-0.3740688181255269,0.44146726516905893,0.2656930431910818,0.48395833823534795,-0.3995919492352579,0.3312990333316211,0.2716103733643137,0.4044391559669983,-0.39507192780015304,0.4371731447301854,0.33000985685882167,0.4471210047896722,-0.3408478353184142,0.35121230320549945,0.29211760095540573,0.42556372432656986,-0.337708966267158,0.43751909398046274,0.27925364015630366,0.4637155914072846,-0.1742212500363821,0.2737050632325826,0.14882438494562325,1.020549167712721,-0.1496629170573913,0.4198064250917093,0.18392948674162837,1.032309338385123,-0.3056748766501619,0.3865185648924432,0.193466172767079,0.3387067903773294,-0.17544480280811373,0.36380578485946574,0.1719346810289134,0.3720704536975061,-0.08078548321724392,0.2914876139497676,0.17264803786596078,0.33407884255878784,-0.02768987136850016,0.36805834585513336,0.04938097835799079,0.24639515375654067,-0.15242121738503678,0.3378817083748561,0.1527928383716051,0.21575607277556505,-0.024609337854617188,0.39726991830696706,0.053554815354833904,0.31501851490327304,-0.19917732986904763,0.37576512072396956,0.2547579080334528,0.34348705685285014,-0.11866722376814935,0.47812956684731595,0.16130825771929908,0.3784781171333496
81,-0.3480341053678683,0.29960485444289453,0.19228501474085008,0.9576386504889616,-0.3308740185992644,0.2938990699436057,0.25707066476931284,0.9544440175467465,-0.2917720721326608,0.28852720691454015,0.1678302793894797,0.9978942893488918,-0.3185168576853008,0.33595494541763493,0.18978655857974255,0.9630090013251873,-0.334902248061136,0.35463640891736065,0.26019192748926845,1.0398719139750154,-0.2960176358511034,0.3549303237858651,0.18127769576919095,0.9671672854902179,-0.25931825878162823,0.36543188698841794,0.24298230515007227,1.0190254048067784,-0.22804372756139518,0.363251522835654,0.17750914661844489,0.968210188876915,-0.2334402817348454,0.4334185893178475,0.10390765171979084,1.031842664149929,-0.3020890128667378,0.332052357139122,0.24699445476941745,0.9725749597565087,-0.23612209202437168,0.32174750166850685,0.18894677425905962,1.026507372803443,-0.1438823302061188,0.29632720785358946,0.09463064180785934,0.964897891172732,-0.17880853289874893,0.4257172535251555,0.10955665745087934,1.021734954554494,-0.17269823882325544,0.172462623762618,0.12133613270438877,0.8967247719496577,-0.1148455484296095,0.45612495713385015,0.0968083357581215,0.6201205047007416,-0.16499731951052474,0.2678626687251338,0.13115547430947685,0.6141029026452554,-0.2303426270592762,0.48807348147781676,0.19840681716993963,0.4334514885371524,-0.2031505603788489,0.338748571934959,0.13896932670054862,0.5735191551185876,-0.2154176821808283,0.46777618912879104,0.14952229545013745,0.44261506650301763,-0.23292244856779837,0.3383300270316485,0.15797150680366376,0.49843159785962227,-0.21883975617480175,0.4694191979490269,0.20296982531964097,0.39645997735818417,-0.190435358434132,0.3566699428997133,0.18897963371174015,0.5250521316999982,-0.18477396264902157,0.4698460605045869,0.167471953539433,0.4638316416506622,-0.17900903124826156,0.2698286751596151,0.15003137250722928,1.0318911567530957,-0.13468283531456743,0.44277981352516566,0.17306035824039298,1.0377052276673495,-0.34656506609856513,0.37655004568162775,0.21229075126497784,0.5919019867674815,-0.2190426843687171,0.4298409065387717,0.19352542126030026,0.45139052682525266,-0.06269726717009326,0.28080821994303845,0.15367335295618717,0.2749264182233081,0.013030076966946878,0.38946460896815527,0.017890509354464214,0.07780334150354226,-0.12544134822833589,0.3264471831234676,0.12784195318687044,0.17766103066607564,0.03142409123781839,0.4087638693891967,0.011809758843030163,0.15738862267323914,-0.14864936078303395,0.3655973729879924,0.2165698439066866,0.3049474385991422,-0.03449925583139847,0.4912467312207137,0.10488029245466175,0.20066647961255946
82,,,,,,,,,,,,,,,,,,,,,,,,,,,,,,,,,,,,,,,,,,,,,,,,,,,,,,,,,,,,,,,,,,,,,,,,,,,,,,,,,,,,,,,,,,,,,,,,,,,,,,,,,,,,,,,,,,,,,,,,,,,,,,,,,,,,
83,-0.4584659995111651,0.8206016634486318,0.2972868971008306,0.9576386504889616,-0.47244124119704334,0.8315434264327873,0.3825534475280824,0.9544440175467465,-0.43326638965126407,0.8332626981903276,0.2932876387106404,0.998017670963577,-0.45982333198673114,0.8878748229467792,0.31512845634419434,0.9630090013251873,-0.470722748493775,0.8706577500027946,0.38208553212579643,1.0398719139750154,-0.4318410686770907,0.8617015306416391,0.3031739983405849,0.9673218999387653,-0.3948397450536818,0.8627845168883965,0.36466864824954065,1.0190254048067784,-0.46229178535970994,0.9062103486622989,0.35821623801851527,0.9682248516195298,-0.44174786417253065,0.902593570435096,0.2683941926971734,1.0319114479099998,-0.4370204944688185,0.847132183255684,0.3647924388451286,0.9727830395714195,-0.3639805767962576,0.808627565679127,0.302528224141395,1.0272424768874577,-0.33523581452854556,0.8000613494418005,0.24422444868024107,0.9654337965339076,-0.3590637955903188,0.7785917709659513,0.24432352063253177,1.0280147807187396,-0.24696637138642752,0.6860705280776128,0.19564779428246087,0.3019681687086909,-0.19013848384475276,0.7153196292415467,0.1587262206200739,0.9112828763361789,-0.10709812126000051,0.751854410859228,0.13059243993572336,0.15508924686350944,-0.21424834400059384,0.8113635017052491,0.2098523270305802,0.661736622375806,-0.1289551602919721,0.8126703179505077,0.12978169739895323,0.29888792309534856,-0.18060433799265735,0.8049716153544533,0.15029875376640656,0.6450043365702326,-0.17254581058345522,0.8074432279345873,0.1577543970995066,0.24327069988942263,-0.19655901106773635,0.8151143657289495,0.21324294091626222,0.6020049855407098,-0.1376650641674662,0.8229814870796297,0.19202359200283642,0.28361472635217416,-0.17354626454487676,0.8136344756981446,0.18439977093894533,0.6003254139189576,-0.19864836528080576,0.5537649968949973,0.167743409324821,1.0376148119769422,-0.13666201624143873,0.6428233129949228,0.17574656922570067,1.0446554868760287,-0.3609040978009009,0.531000760269793,0.2233046288467269,0.9927243282095897,0.0036583838791724495,0.48869146315078654,0.05153742727799861,0.4945184808314478,-0.27867786673040035,0.2760648525094905,0.2765235048101248,1.0239043177746998,0.1850890606641004,0.37960951739634735,-0.10589941822447929,0.42851237749616466,-0.3566614792188757,0.30145710133635817,0.25815941684208527,0.948809891120635,0.19839824882795318,0.3940739768587554,-0.11049360464529878,0.6031647723037857,-0.3536538392375319,0.3046662864477703,0.32903706795144627,0.8722471026196805,0.17838407803591766,0.45143610352181546,-0.04933958497159803,0.3317626787674133
84,,,,,,,,,,,,,,,,,,,,,,,,,,,,,,,,,,,,,,,,,,,,,,,,,,,,,,,,,,,,,,,,,,,,,,,,,,,,,,,,,,,,,,,,,,,,,,,,,,,,,,,,,,,,,,,,,,,,,,,,,,,,,,,,,,,,
85,-0.5685955831156508,0.8007661913416982,0.36843009698288887,0.9576386504889616,-0.5679237079490578,0.815349559703051,0.4440108245441775,0.9544440175467465,-0.5273230155198172,0.8177683515716753,0.35343356850309815,0.998017670963577,-0.5527433718699,0.8730895331823749,0.37415173695019743,0.9630090013251873,-0.555004247345399,0.8530904134434989,0.4378839796952852,1.0398719139750154,-0.5170981891249902,0.8438615028324961,0.35989234847719886,0.9673218999387653,-0.4810226474160325,0.8445996762092278,0.42227668025047815,1.0190254048067784,-0.5137695506452961,0.8961555815304935,0.3909244517586721,0.9682248516195298,-0.4427674949491419,0.8880402023435128,0.2743647779050026,1.0319114479099998,-0.5353310592873187,0.8288801681418534,0.42771534472845707,0.9727831587807091,-0.44791197247665515,0.788612802800709,0.3580137106442688,1.027242715306037,-0.490393090019845,0.8020905895731787,0.3337002532493345,0.9653517805426968,-0.3138389266982751,0.7676735113452848,0.22517895822712988,1.0281859056538898,-0.670618115420151,0.7441543603415594,0.44609598783337934,1.00606597611607,-0.1973392753764315,0.7756599741474,0.1766377646003773,0.4993124993677949,-0.7226891247392085,0.8091147453509577,0.4996665989215769,0.8815470364038003,-0.3160658534867621,0.9027208520546753,0.28329385628967335,0.5998698621218997,-0.7877357794978103,0.8753319061424938,0.5255882317134153,0.8063220230079919,-0.28212348862445863,0.9042588272494423,0.2234038562391125,0.5095705733046229,-0.8147577652937085,0.8679877783534411,0.5441077114376156,0.7144062267849458,-0.3007700421575239,0.9136755334459294,0.2868809938189567,0.4596821770366052,-0.7536479662218208,0.8827106459579561,0.5627016717075685,0.7526038303846906,-0.27768196300457143,0.9103596415421082,0.2576634651531614,0.4890626156096314,-0.237825381942192,0.5643169263688742,0.186180930644376,1.0372256532512036,-0.08881465608425895,0.6428318364591257,0.14900864587392262,1.0446515529694735,-0.31496059849574387,0.5313831836706719,0.19132614626203384,0.992018847634028,-0.07743136328772174,0.44157011715392985,0.10813771677700244,0.575023941332165,-0.08888689084162997,0.3424764073228755,0.1577435044276459,0.9953754486226305,0.04629815915485779,0.33145626598681677,-0.008948510074123228,0.37956885790387945,-0.15764550016455176,0.3709850253971797,0.13392767931935162,0.7307070187489614,0.0515637500688525,0.33966083703865646,-0.008109495300938713,0.44324500373193215,-0.1906396249785739,0.38477361772371016,0.22748101962352782,0.8705454496159881,-0.019538126711450377,0.41076132768296353,0.08705653052471832,0.639527894402713
86,,,,,,,,,,,,,,,,,,,,,,,,,,,,,,,,,,,,,,,,,,,,,,,,,,,,,,,,,,,,,,,,,,,,,,,,,,,,,,,,,,,,,,,,,,,,,,,,,,,,,,,,,,,,,,,,,,,,,,,,,,,,,,,,,,,,
87,,,,,,,,,,,,,,,,,,,,,,,,,,,,,,,,,,,,,,,,,,,,,,,,,,,,,,,,,,,,,,,,,,,,,,,,,,,,,,,,,,,,,,,,,,,,,,,,,,,,,,,,,,,,,,,,,,,,,,,,,,,,,,,,,,,,
88,,,,,,,,,,,,,,,,,,,,,,,,,,,,,,,,,,,,,,,,,,,,,,,,,,,,,,,,,,,,,,,,,,,,,,,,,,,,,,,,,,,,,,,,,,,,,,,,,,,,,,,,,,,,,,,,,,,,,,,,,,,,,,,,,,,,
89,,,,,,,,,,,,,,,,,,,,,,,,,,,,,,,,,,,,,,,,,,,,,,,,,,,,,,,,,,,,,,,,,,,,,,,,,,,,,,,,,,,,,,,,,,,,,,,,,,,,,,,,,,,,,,,,,,,,,,,,,,,,,,,,,,,,
90,,,,,,,,,,,,,,,,,,,,,,,,,,,,,,,,,,,,,,,,,,,,,,,,,,,,,,,,,,,,,,,,,,,,,,,,,,,,,,,,,,,,,,,,,,,,,,,,,,,,,,,,,,,,,,,,,,,,,,,,,,,,,,,,,,,,
91,,,,,,,,,,,,,,,,,,,,,,,,,,,,,,,,,,,,,,,,,,,,,,,,,,,,,,,,,,,,,,,,,,,,,,,,,,,,,,,,,,,,,,,,,,,,,,,,,,,,,,,,,,,,,,,,,,,,,,,,,,,,,,,,,,,,
92,,,,,,,,,,,,,,,,,,,,,,,,,,,,,,,,,,,,,,,,,,,,,,,,,,,,,,,,,,,,,,,,,,,,,,,,,,,,,,,,,,,,,,,,,,,,,,,,,,,,,,,,,,,,,,,,,,,,,,,,,,,,,,,,,,,,
93,,,,,,,,,,,,,,,,,,,,,,,,,,,,,,,,,,,,,,,,,,,,,,,,,,,,,,,,,,,,,,,,,,,,,,,,,,,,,,,,,,,,,,,,,,,,,,,,,,,,,,,,,,,,,,,,,,,,,,,,,,,,,,,,,,,,
94,-0.3722426761624791,0.36690067396384485,0.23156461274989176,0.9576386504889616,-0.36441782300588316,0.36060837975996624,0.30382735360515956,0.9544440175467465,-0.3256477003574566,0.3632461590934953,0.21497042779211162,0.9980019353373561,-0.3528018334856045,0.41871983918785277,0.23736364741855046,0.9630090013251873,-0.374890334729964,0.39865098201458965,0.31023804418988016,1.0398719139750154,-0.3353723979978703,0.3894167069855569,0.23072805078214337,0.9673105750562581,-0.297854068957688,0.3904860437686608,0.29170318480189356,1.0190254048067784,-0.28060251400908215,0.4549447751607119,0.23523114199408288,0.9682165069692612,-0.3262852337409762,0.4467756325841439,0.18413499902786973,1.0318804534947166,-0.3297642049756668,0.4201529991049881,0.2867670023737648,0.9727407202736291,-0.27422903382236147,0.38013299303966164,0.23424883567123897,1.0271896671721872,-0.1697964557060643,0.4668864055178503,0.1294593065673066,0.965376099237765,-0.31910837038325557,0.4352864812206206,0.20925553580026804,1.028053464133199,-0.25716754931983826,0.4121840262885198,0.1891872255658362,0.19984888682068278,-0.37848120760378284,0.44105511479528814,0.2660906050457847,0.4673483165140962,-0.31521844199325527,0.3991847247802028,0.24360049943019113,0.14174090587535026,-0.5690750750942245,0.45794717804344487,0.41952206898192407,0.2878376542752582,-0.3513306041123194,0.436820921960136,0.2514593069276965,0.1867459115721017,-0.5684208111134654,0.43097455290976633,0.3809108372688469,0.19538142237517184,-0.3972741635675484,0.4277607168433551,0.2810470702100684,0.11808355620598912,-0.56315941902125,0.4374837743364323,0.4297850077532592,0.14494517001470117,-0.35143479325894444,0.4543678565464113,0.3091636385451473,0.12764263300843934,-0.5243301273243752,0.4476738479038789,0.3907113554560652,0.15083415148304438,-0.10447883642419441,0.5459759811250388,0.1019645461298086,1.0375757113299695,-0.1835576583660984,0.622227881667103,0.19667667102791114,1.0446550100388705,-0.16945382427092123,0.7339211375242791,0.09474540867370179,0.7510195662276256,-0.24016468334044386,0.629609598793792,0.1882280267996082,1.0323738377631342,0.03306170449241157,0.7196325755453028,0.07570121602487265,0.8265033306264148,-0.184053610145277,0.7187328558572696,0.10650203025182925,0.927883667703074,-0.039973237823883546,0.7802528383644802,0.054884623555089614,0.324005304948531,-0.1882998346064855,0.7679771321855986,0.11315790955652605,0.26663483193704074,-0.07575960727493596,0.8182877061159679,0.14690420977641228,0.6223666099324552,-0.276779829058641,0.8451721083512221,0.21326631606984076,0.9038972033512298
95,-0.36692253491378773,0.35828062043410547,0.22780616919005764,0.9576386504889616,-0.35656898849612834,0.35150853864210735,0.2985513742000335,0.9544440175467465,-0.31804978772663717,0.3539012534786424,0.20990916408816723,0.99801421389418,-0.34541933359673344,0.40914804849266234,0.23249666406515698,0.9630090013251873,-0.3634170316088964,0.38984528981869726,0.3026367880724001,1.0398719139750154,-0.32369351729672846,0.3807214025917886,0.22295363600340018,0.9673173699857625,-0.28604082597108593,0.3818785966212914,0.28379652883534173,1.0190254048067784,-0.2624432330922611,0.4450700140561282,0.22394243469925756,0.968221871387291,-0.2882041752351334,0.4383118028283608,0.16026517319804068,1.0318959507023582,-0.32110518262131305,0.41110867971373755,0.2811058037346382,0.9727634892479331,-0.2601134954299148,0.37177287536578774,0.2250405176375481,1.027197058148139,-0.16051407099763418,0.46455511884907286,0.12349467319888761,0.9654059015601528,-0.24245190947976278,0.4279978762458739,0.16156684261238197,1.0280489937848407,-0.2679340713375921,0.444487627791892,0.19327634193853524,0.0470549839168875,-0.2860905375289621,0.46567272715719604,0.20652113503380784,0.17827060242851725,-0.3820292888690486,0.454588523598791,0.27977185676137534,-0.017324504619454152,-0.5374203140157963,0.5178016556874115,0.39503453133405103,0.1894942670291263,-0.428887643340873,0.5030277646210399,0.29367334065720835,0.07873697179925743,-0.5420026036030005,0.5029262402457344,0.35914119380458165,0.19686420712324926,-0.4721484076833358,0.4892346526858691,0.321678362920623,0.0025083804736149226,-0.5466168790160054,0.504444705160712,0.41439461837312286,0.15362466427644275,-0.41744621792851067,0.511360059543619,0.3445581340162289,0.027810213702399535,-0.4970883892265852,0.509406378497751,0.3690293705383026,0.1437455796961639,-0.13138040044191845,0.541435418495339,0.11725023079833546,1.037611950953993,-0.1490371143119457,0.6149615986318246,0.1742149061678573,1.0446763485017,-0.23635957337235675,0.7268284828192315,0.13448121223317194,0.8262176205412852,-0.14029696785154414,0.6237861653945915,0.12627690386948348,0.9005225818694269,-0.02259724011082903,0.7207195258474268,0.10908844072103555,0.7966331781529651,0.01099599468935799,0.701708458007233,-0.012672152029592633,0.6596554348425087,-0.09561951926172063,0.7802659513863308,0.08843875255285769,0.11117377795382587,0.015720035370624278,0.7482602137171233,-0.011114015540021019,0.13836483171769565,-0.1440644707380128,0.8243583199770519,0.18729575381446784,0.5185078409924833,-0.07098505897621914,0.8312437545647536,0.08683421337980336,0.620955146695346
96,,,,,,,,,,,,,,,,,,,,,,,,,,,,,,,,,,,,,,,,,,,,,,,,,,,,,,,,,,,,,,,,,,,,,,,,,,,,,,,,,,,,,,,,,,,,,,,,,,,,,,,,,,,,,,,,,,,,,,,,,,,,,,,,,,,,
97,,,,,,,,,,,,,,,,,,,,,,,,,,,,,,,,,,,,,,,,,,,,,,,,,,,,,,,,,,,,,,,,,,,,,,,,,,,,,,,,,,,,,,,,,,,,,,,,,,,,,,,,,,,,,,,,,,,,,,,,,,,,,,,,,,,,
98,-0.262821484590372,0.40267046437484033,0.1595034194673166,0.9576386504889616,-0.2730536165008761,0.3996401833679069,0.24186847122394453,0.9544440175467465,-0.23293861052940232,0.40287561847459874,0.1517581265473183,0.9978827260478054,-0.2590157265802664,0.45898787293075743,0.17306479180274806,0.9630090013251873,-0.28802231649887394,0.43595752917950664,0.25226731891150544,1.0398719139750154,-0.2497017591772525,0.4263299827042459,0.17392408432810214,0.9671681199552449,-0.2134094244976371,0.4270589769656823,0.23608016050619243,1.0190254048067784,-0.27405680272861016,0.4984539902772128,0.22318137632845042,0.9681992216222763,-0.33416308080460655,0.4856888527513039,0.18491574525874221,1.0316325577770957,-0.24818414370119443,0.4558604728598709,0.2309483181273386,0.9720403060928735,-0.19793591044946707,0.4140799840064585,0.18302169610023422,1.0262789082000192,-0.17415532304491377,0.51924869852284,0.12084433373947144,0.9643041693061244,-0.32682798459849155,0.4552270363162932,0.21360963018936763,1.0275172607487995,-0.12049579128055636,0.48819431309653377,0.09077657128656966,0.2990650350779383,-0.28036263434887165,0.402453448106369,0.2084443154294973,0.8327079208727692,-0.022217622376574937,0.48931657383072463,0.05135500254577855,0.026786553496505043,-0.396113722857777,0.40661991969497985,0.3142982034957141,0.8526229410594303,-0.0318386012187909,0.5336350477364269,0.043053657755258073,0.11829752448571032,-0.38204980583733594,0.37761263040724863,0.26730941315615087,0.806831781600445,-0.08234606157915636,0.524967041182268,0.07661935248913121,0.03972204497552032,-0.38352659609302625,0.3821395503602971,0.31974097395340384,0.7272485897239068,-0.0589939999709383,0.5473861201248262,0.11857329227754031,0.060837084042508434,-0.3496204320795367,0.39309110306707157,0.2834302829704272,0.6540398084883545,-0.09032031915414247,0.5815895179597556,0.08386855378900401,1.0375432864032117,-0.16295341588824988,0.647990022417988,0.1820709222781793,1.044607087904471,-0.1278003461760352,0.7264250189787469,0.055451486348410066,0.9321141530768381,-0.1675634472219288,0.6362710734985344,0.148110842124295,0.9625051539481317,-0.03255657905700078,0.7112251615857996,0.09782588944770723,1.0087759436749684,-0.1533444896250324,0.7272502403863834,0.09514399933211315,0.8974863717512306,-0.11206802923907758,0.7690759541901333,0.0810979752726621,0.9482789925496206,-0.15588181589162078,0.7769267695986235,0.10032058181594677,0.9221718709785599,-0.0856546977559603,0.804991578796632,0.13417085134677062,0.8614318398251861,-0.1944272516354839,0.8478826891770278,0.17354014544329768,0.8291798604976837
