frame,NOSE.x,NOSE.y,NOSE.z,NOSE.v,LEFT_EYE_INNER.x,LEFT_EYE_INNER.y,LEFT_EYE_INNER.z,LEFT_EYE_INNER.v,LEFT_EYE.x,LEFT_EYE.y,LEFT_EYE.z,LEFT_EYE.v,LEFT_EYE_OUTER.x,LEFT_EYE_OUTER.y,LEFT_EYE_OUTER.z,LEFT_EYE_OUTER.v,RIGHT_EYE_INNER.x,RIGHT_EYE_INNER.y,RIGHT_EYE_INNER.z,RIGHT_EYE_INNER.v,RIGHT_EYE.x,RIGHT_EYE.y,RIGHT_EYE.z,RIGHT_EYE.v,RIGHT_EYE_OUTER.x,RIGHT_EYE_OUTER.y,RIGHT_EYE_OUTER.z,RIGHT_EYE_OUTER.v,LEFT_EAR.x,LEFT_EAR.y,LEFT_EAR.z,LEFT_EAR.v,RIGHT_EAR.x,RIGHT_EAR.y,RIGHT_EAR.z,RIGHT_EAR.v,MOUTH_LEFT.x,MOUTH_LEFT.y,MOUTH_LEFT.z,MOUTH_LEFT.v,MOUTH_RIGHT.x,MOUTH_RIGHT.y,MOUTH_RIGHT.z,MOUTH_RIGHT.v,LEFT_SHOULDER.x,LEFT_SHOULDER.y,LEFT_SHOULDER.z,LEFT_SHOULDER.v,RIGHT_SHOULDER.x,RIGHT_SHOULDER.y,RIGHT_SHOULDER.z,RIGHT_SHOULDER.v,LEFT_ELBOW.x,LEFT_ELBOW.y,LEFT_ELBOW.z,LEFT_ELBOW.v,RIGHT_ELBOW.x,RIGHT_ELBOW.y,RIGHT_ELBOW.z,RIGHT_ELBOW.v,LEFT_WRIST.x,LEFT_WRIST.y,LEFT_WRIST.z,LEFT_WRIST.v,RIGHT_WRIST.x,RIGHT_WRIST.y,RIGHT_WRIST.z,RIGHT_WRIST.v,LEFT_PINKY.x,LEFT_PINKY.y,LEFT_PINKY.z,LEFT_PINKY.v,RIGHT_PINKY.x,RIGHT_PINKY.y,RIGHT_PINKY.z,RIGHT_PINKY.v,LEFT_INDEX.x,LEFT_INDEX.y,LEFT_INDEX.z,LEFT_INDEX.v,RIGHT_INDEX.x,RIGHT_INDEX.y,RIGHT_INDEX.z,RIGHT_INDEX.v,LEFT_THUMB.x,LEFT_THUMB.y,LEFT_THUMB.z,LEFT_THUMB.v,RIGHT_THUMB.x,RIGHT_THUMB.y,RIGHT_THUMB.z,RIGHT_THUMB.v,LEFT_HIP.x,LEFT_HIP.y,LEFT_HIP.z,LEFT_HIP.v,RIGHT_HIP.x,RIGHT_HIP.y,RIGHT_HIP.z,RIGHT_HIP.v,LEFT_KNEE.x,LEFT_KNEE.y,LEFT_KNEE.z,LEFT_KNEE.v,RIGHT_KNEE.x,RIGHT_KNEE.y,RIGHT_KNEE.z,RIGHT_KNEE.v,LEFT_ANKLE.x,LEFT_ANKLE.y,LEFT_ANKLE.z,LEFT_ANKLE.v,RIGHT_ANKLE.x,RIGHT_ANKLE.y,RIGHT_ANKLE.z,RIGHT_ANKLE.v,LEFT_HEEL.x,LEFT_HEEL.y,LEFT_HEEL.z,LEFT_HEEL.v,RIGHT_HEEL.x,RIGHT_HEEL.y,RIGHT_HEEL.z,RIGHT_HEEL.v,LEFT_FOOT_INDEX.x,LEFT_FOOT_INDEX.y,LEFT_FOOT_INDEX.z,LEFT_FOOT_INDEX.v,RIGHT_FOOT_INDEX.x,RIGHT_FOOT_INDEX.y,RIGHT_FOOT_INDEX.z,RIGHT_FOOT_INDEX.v
0,0.34496876056213893,0.30109661147068945,0.14461436681743317,1.0126723421735542,0.2719512052832279,0.2564428993805811,0.12573552989671782,0.9834175214681067,0.34608152541088494,0.2969887248936918,0.1274997608510615,1.015446102443117,0.32947298475074316,0.28986089813480403,0.12586493549290007,0.97472575777874,0.3489818764120105,0.31695287991453547,0.19225562598904292,0.9864734131106431,0.3537289737133856,0.2727138961333026,0.16772455445149936,0.9573408127412693,0.2839239722999436,0.24190058084077426,0.18920112878120562,1.0228613331220286,0.2811551213089681,0.25902669502569503,0.023914474980311823,1.0491216010092528,0.3431936448385593,0.2964928899945149,0.15339249034620417,0.9585099544727559,0.29424745088724197,0.25904867359161465,0.1617696167144837,0.9823271225525025,0.2964143934278571,0.3072744693554313,0.12664490172122,0.9614813072508117,0.1488782739659223,0.37747604490825004,-0.046275734784927046,1.0432092849981895,0.32153539416668037,0.32825697432779155,0.06361806535812645,0.9574401300294122,0.18853303039471514,0.3654951450909341,0.060251098245436396,1.0340096939150616,0.37064974617271207,0.33397990324847354,0.0040639170697686945,0.9776207692788478,0.20878682878763125,0.3689946318600202,0.16421745963507875,0.6565974430930169,0.460501275198274,0.3546645677507361,-0.06743714424029387,1.0052828484433545,0.19538139347928096,0.3756582414537873,0.16910734267129224,0.4129154258760417,0.4341289702901127,0.4025311975634966,-0.04389161003634022,0.9146492384664757,0.25336543936179945,0.3281456576903608,0.13177548625963637,0.3542077589249506,0.39360312445971635,0.41776936965246436,-0.08884065888563428,0.9618564678273046,0.26662879918916726,0.35802075009421797,0.20839262031637562,0.282562063716836,0.43628205359883343,0.38435021599325725,-0.07068692992522763,0.9539188296258121,0.21556769729953068,0.513309426415447,-0.17080944144005955,1.043942686890846,0.3680604566796585,0.48625469964690565,-0.014659247989480921,0.976916576518707,0.2576191570503862,0.6816839603549495,-0.1614495469657533,0.982629769160843,0.265306751235041,0.5897314448118148,-0.0422981492302939,0.9371173257174106,0.21273138740542477,0.7643869220203179,-0.143251554270223,0.9821626845225215,0.27328463585741,0.7369643689799783,-0.015906469163675156,0.9687399569226547,0.2014787685573222,0.7620459723008176,-0.1777315977249383,1.0084918910590623,0.26794242804171864,0.8017321507444891,0.04143964843687842,0.9683620886219655,0.16913697341499276,0.8397946412849617,-0.1791892276676499,0.9898649761122944,0.2867127309775253,0.7582871364838131,-0.050119266989709574,0.9449760232956292
1,0.2191768823566062,0.3043539457030197,-0.09910891540519362,1.0126723421735542,0.14575041680175366,0.2585671493157312,-0.11724481271883588,0.9834175214681067,0.2206572412193284,0.2983227066460874,-0.1159439077531278,1.015372669520754,0.204922209541245,0.29051505911121395,-0.11783194187595154,0.97472575777874,0.22089841012200567,0.3206981377689971,-0.04712807875786402,0.9864734131106431,0.22476468983684855,0.2768989170569171,-0.07113124009204262,0.9572499752626317,0.1541041908768988,0.24634905429429604,-0.04916244333714209,1.0228613331220286,0.1807882295128943,0.2583884484894402,-0.17339499408712827,1.0490704602240355,0.2397362285365444,0.3015324627102741,-0.029308266108720893,0.9583447303974384,0.18116909276538104,0.26126739688873385,-0.06428843777302265,0.9821363280845765,0.1816680790514588,0.31200409791835854,-0.09496586967006929,0.9610012514417907,0.09739302318610532,0.37006718756266904,-0.20075474902312868,1.0431593363058678,0.243086234032552,0.33584413896821813,-0.061842720586762615,0.9567112248284539,0.17071160757158,0.3600817916477883,-0.18536947915351915,0.9991108167712017,0.27122523466399673,0.34856980898730405,-0.08692153312077719,0.8964568264649746,0.11769232576613121,0.42290455946660277,-0.26682892991191515,0.8377754168402703,0.3375497438367713,0.36085477833156193,-0.16233089301411444,0.7165493660825148,0.09273652956869549,0.4457777416140046,-0.30545074399434874,0.7284696572813,0.26009975756197,0.4087076096690569,-0.1416845562891001,0.5430992149107202,0.1360108723668018,0.4007044481356886,-0.34800566829948,0.7003282058453455,0.21639098911452995,0.42487227635641334,-0.1917918968904216,0.5963974429211463,0.16622947888273013,0.42662429552154035,-0.23049495172232337,0.6857372389068079,0.27987370542238993,0.39161623080763414,-0.15972238543574058,0.6128118187844425,0.22159521973760635,0.5382195187692678,-0.16619018630002738,1.043704387521034,0.351187037835274,0.5113511459226167,-0.014779858239875855,0.976311529769592,0.23318422685660592,0.7108586458331599,-0.190148746746244,0.980241172626114,0.22828868301451036,0.6151346463918624,-0.06377968070964252,0.8363204473795505,0.21530868215611745,0.7933854161685723,-0.16556114098731403,0.9771674576624751,0.2777354060645504,0.7603211046863076,-0.024067920390881105,0.7840420904828354,0.20780966789961833,0.7892485188973447,-0.20167234028690423,0.9807792479125476,0.2808873967730405,0.8188719431868109,0.031092794509377783,0.8288027004612598,0.172987191691602,0.8721127565193367,-0.2149072421733953,0.9687546798629048,0.28161550987232287,0.7981698560005672,-0.0750068286322683,0.793342701056707
2,0.12109122038310494,0.30935134813260046,-0.29213876347208506,1.0126723421735542,0.05958425040559297,0.26115384188737123,-0.2971352288363093,0.9834175214681067,0.136753185105924,0.2998498968545225,-0.29668747137567436,1.0154468176988543,0.12020819714549434,0.29085420953998586,-0.29829301947691866,0.97472575777874,0.12567197921715167,0.32483392525602717,-0.22473059482580432,0.9864734131106431,0.12631728131220052,0.2811717356222857,-0.2473697021582889,0.9573410511598485,0.05229082054103811,0.25063224406785556,-0.2241448034788676,1.0228613331220286,0.14186278769962463,0.2531489319927818,-0.28391082504869325,1.0491238659857542,0.1704151047892259,0.3045901511849293,-0.1339647757015412,0.9585111465656513,0.10187371109857037,0.26477632232666104,-0.23262103590812247,0.9823305796218993,0.09322063229137298,0.3167932119167716,-0.26103227638379667,0.9614810688322325,0.1441180619709061,0.35060835720607114,-0.25488447281634213,1.0432082121145836,0.14537265567552335,0.3380903400065788,-0.12248175908054049,0.9572899263245781,0.2775150562311489,0.3373527226532662,-0.22668902273525132,1.0375160563532635,0.07972894116313682,0.34805577853076114,-0.1388665370427979,0.953997481601083,0.2694437706582257,0.4209949458572888,-0.31276239747568013,0.9476600365530999,0.07609202704696487,0.322716954988285,-0.2522274010773671,0.9751589589970961,0.2680698135418534,0.4474262868792024,-0.3409626298415699,0.9655443304571117,0.004613158249966125,0.35848408033022017,-0.25657193102942777,0.8518957399122461,0.29344258834834197,0.40805754533608224,-0.40396080674646195,0.9529306638455285,-0.023925144332797105,0.37169536667127845,-0.3056155876439047,0.9107603860936011,0.3128945702527862,0.4357884798534342,-0.2847605217604467,0.9729311332930994,0.04741302233966782,0.34485334714445665,-0.2635726231424284,0.939908102220264,0.24885644824474262,0.5297101808671987,-0.1564446548124245,1.043749985074287,0.3073457078791196,0.5229736344213044,-0.018428872069511534,0.9762472759625241,0.265452592613321,0.7045441893702998,-0.19844192781490183,0.9649771383548739,0.17468874698026016,0.6199485559225021,-0.11860805636831624,0.8476653570475192,0.24453448789937207,0.7938947974628228,-0.13392196426148875,0.9524715844019771,0.25391266519985056,0.7561547400165078,-0.038232957436757635,0.7206970754338546,0.22910001536687508,0.7872492599022886,-0.16444847054716308,0.7944178158370471,0.26014850849835736,0.8057204763403448,0.019603321207002602,0.6028464989079151,0.20354229617613356,0.8817787225532723,-0.2142382977925419,0.9357300707740069,0.25505149173679303,0.8003227757698543,-0.11993101699148247,0.7587967430145622
3,0.15365831339797392,0.30545183345746,-0.22019805892764427,1.0126723421735542,0.09400459914297891,0.25801258770074104,-0.22425115910693755,0.9834175214681067,0.17226497160796234,0.2964893571797636,-0.22426973981944012,1.015446102443117,0.15864690225325048,0.28731658446559927,-0.22704302098056534,0.97472575777874,0.15916176357530215,0.32303183842588795,-0.15029794900232718,0.9864734131106431,0.15954284561965534,0.2799597347754229,-0.1727991891922925,0.9573391438112157,0.08528360393165935,0.2501104948098142,-0.1495340772259434,1.0228613331220286,0.17930670371147756,0.2508673854000694,-0.21017630190154693,1.0491236275671751,0.20523637729714378,0.3036288474739918,-0.054219884154757175,0.9585018482410662,0.13568747033241305,0.25986802884101956,-0.16189435425411722,0.982328076226819,0.12493357868727735,0.31390128395923683,-0.1882241644561199,0.9614550812071104,0.1693405445490616,0.3459614002854473,-0.2000504284028471,1.0431986753714195,0.17938255556063415,0.3385398782374748,-0.044112577326926465,0.953882924829217,0.3017629794179002,0.3306666014279092,-0.16487709426508063,1.038339077288322,0.14000224142299328,0.34741064765803464,-0.043596188840987496,0.7882704026864407,0.2796043409557708,0.4128929162952924,-0.26737923674179537,0.9564614372145686,0.12971877270969923,0.31524634723071665,-0.13642124024635252,0.8253837519544021,0.2777521881310345,0.4409435963064637,-0.2983761166999559,0.9928544038328138,0.05693321675940967,0.34966813613542647,-0.13849029915294997,0.6633136771909937,0.29773533216117204,0.4024979816993025,-0.3611643659469164,0.9753995883679285,0.024386374413500056,0.36172830777425996,-0.18851541129598012,0.74142525921677,0.3182728216869303,0.42983981709556074,-0.2375509426789148,0.9996490941276026,0.0955700505522679,0.33497483094725206,-0.14658289273451297,0.7823728472649722,0.2420714872297859,0.5288016272668874,-0.163030169540886,1.0439009636395031,0.2988425465773169,0.5267336742276704,-0.0058527472917947534,0.9753185759922788,0.26223577607582993,0.7046796111232295,-0.2119953493336039,0.9046863249088288,0.1485613398434153,0.6102356214284835,-0.14619491595239772,0.49339641874452544,0.23802346653977177,0.7975660859531182,-0.1497812237210377,0.7699320617541194,0.22740800301493347,0.7381422759700296,-0.07444868535883399,0.3651787343694015,0.2256063252423314,0.7888337301743528,-0.17600152277363987,0.546398299368999,0.23525310326851706,0.7868347446432623,-0.017637664923916718,0.37889194053541747,0.19431390522124026,0.8958351667213631,-0.2350729521070331,0.7104401895446063,0.22869763094747547,0.788524513173724,-0.15761035843460772,0.4136832271606804
4,0.1479808263500399,0.30360245034169164,-0.22006982527738433,1.0126723421735542,0.08735326828981503,0.2561423429593012,-0.22871973850111066,0.9834175214681067,0.1659561960901751,0.2945025555554655,-0.22879420035201953,1.0154468176988543,0.1536168551856178,0.28522019970188167,-0.23206959308812633,0.97472575777874,0.15597173020782668,0.32118770051885975,-0.15017459391243063,0.9864734131106431,0.15715853826262147,0.278036978341936,-0.17299916412231867,0.9573402166948216,0.0836782873089757,0.24820588799066134,-0.150026375694982,1.0228613331220286,0.1692535887193053,0.24783473087621993,-0.2302200219167283,1.0491238659857542,0.20957405151013736,0.3000337933243641,-0.052347055302471385,0.9585092392170185,0.12866318211601444,0.25773617931366055,-0.16787506163654864,0.9823299835754516,0.12231582179324109,0.31176067254909584,-0.18785053619155767,0.9614730818098327,0.15945389242405725,0.34685031415530515,-0.2229782151884614,1.0432055895102137,0.18770317708130058,0.34234575401567297,-0.037093223220503284,0.9555987637383662,0.2811213809720936,0.33256420470130094,-0.2116440425592342,1.0387547004763409,0.17469169257931327,0.3488244400297846,0.012079140553430807,0.6546100266145107,0.2595361844614505,0.4144317890141034,-0.32387911100022176,0.9558100180518181,0.185369245473528,0.31941503648166264,-0.034527003774369625,0.8580339246648208,0.26081288534980296,0.44265734905304577,-0.3540966806851516,0.9890901320966685,0.11899638417835941,0.35574113418230147,-0.023518484480328457,0.7184796236746057,0.2814626892912689,0.40471572151978286,-0.4200440483705156,0.9716906297421349,0.08642389443841045,0.36668345051069495,-0.07368068999089804,0.7907864285549964,0.30125901800100857,0.43235894780234785,-0.29746228369841626,0.9957268700828028,0.1514299441663064,0.33920205195936753,-0.04248620756463759,0.829716280168262,0.2346104238659257,0.5310639215593373,-0.16802345521742365,1.0439510315411147,0.30092970020174026,0.5299556033010041,0.0012558494122025601,0.9765538822552488,0.2619699329090935,0.7054225830203548,-0.21071832840269428,0.9648752740169526,0.17824102968370995,0.6186680693387924,-0.09677161274409275,0.33015762513299896,0.24271085132920786,0.7980556189006585,-0.13695267891111212,0.9167646470888973,0.24959968257314052,0.7587215544391153,-0.029839843218510957,0.28968644172680813,0.22998011436769078,0.7906253861916562,-0.1664903396525635,0.6943631345359301,0.2545138263531948,0.8105190078726324,0.02453144991321629,0.32029446524511906,0.19522959489713745,0.8960722143936348,-0.2167022361136307,0.8967963764113666,0.25225733511989823,0.794598822522784,-0.10386247562979176,0.3968197320492149
5,0.16021389225760707,0.3067717187113663,-0.1926952470627542,1.0126723421735542,0.09807389389624004,0.2587393769368097,-0.20442394538851857,0.9834175214681067,0.1766411255891231,0.2969658963147428,-0.20444671606701398,1.0154469369081438,0.16450154840885547,0.28751998531589534,-0.20774434918167778,0.97472575777874,0.169144000538611,0.3239368753521575,-0.12300827429075445,0.9864734131106431,0.17081043931034764,0.2808483804243792,-0.14606558440635659,0.9573409319505588,0.09778381336582748,0.25109689207620217,-0.12325948068827172,1.0228613331220286,0.17293318320831755,0.25029103828741384,-0.22372852644267563,1.0491238659857542,0.22282591008657857,0.3032392417134175,-0.031223590074749216,0.9585115041935198,0.13797397902354236,0.26147777148246854,-0.14710499214168785,0.9823304604126097,0.13476728138851324,0.31587014458545754,-0.1628844020872507,0.9614801151579161,0.15704298772400643,0.3514154338986523,-0.22694620284579559,1.0432082121145836,0.2055051109102942,0.34933863054536657,-0.018276019310394125,0.9570034067971429,0.271122580334089,0.3303751049126351,-0.241361512940714,1.038838266188316,0.23433924560759578,0.35623404243342527,0.09904295194537636,0.6305298097298977,0.25627038951232983,0.4125827635262036,-0.35878618559318776,0.9537567572485955,0.3027749164920965,0.3249196446359595,0.18805174910542152,0.8886015706914321,0.26231944526546985,0.43492576235832836,-0.38571398504446586,0.9803535812887157,0.24620782003356317,0.35862686325677967,0.22172768105379104,0.771526803850387,0.2857972349501931,0.39597136250336434,-0.4508727836120744,0.9634759772038355,0.21054030081547911,0.36868637519140474,0.17140926272830392,0.8421702219090308,0.30180536965981614,0.42545020322875465,-0.3345224407991983,0.9883484111060572,0.26587851798291345,0.34228820165190293,0.1838465609614509,0.8923502118050723,0.23266717141471627,0.5391839815263784,-0.17378435772128503,1.0438466638081128,0.31177941877627846,0.533431984602884,0.0035439032889053243,0.976628924503021,0.25789181225758695,0.7207350162631526,-0.21732453019480963,0.977085881545639,0.21856547402332135,0.6323342818975387,-0.06885099488139594,0.26717092340608545,0.24720951900078564,0.8068731128162163,-0.14724429563071267,0.9522157016619563,0.27209519527472015,0.7817034365344522,-0.023409619320649812,0.2725201252175613,0.23582527692684663,0.7956218051445981,-0.17792452323684627,0.9151141220656848,0.28154043615960883,0.8343551437368902,0.02644010223090107,0.40923189681898686,0.21064154137755145,0.907388096599598,-0.21596027187654449,0.9575579473418475,0.26511674284998255,0.8082094835525997,-0.08060374171050355,0.4284084056408287
6,0.1552954106318677,0.30721082612942663,-0.21216904737037334,1.0126723421735542,0.09153630953414264,0.2599239894493982,-0.2229607578794213,0.9834175214681067,0.16936480069349732,0.29847752971089153,-0.222798207501158,1.0154396651414812,0.1562718646027958,0.28917550432453176,-0.22577632272092146,0.97472575777874,0.16304132838353072,0.3247710125534667,-0.14330731954574077,0.9864734131106431,0.16473992930131137,0.2823874319571246,-0.16631583937734407,0.957327938137998,0.09172665327363067,0.2532780346447904,-0.14349030585120584,1.0228613331220286,0.16390955851949285,0.2521486468441612,-0.24317371811581454,1.04912231626499,0.21282476249636012,0.3050293480099568,-0.05556861676152468,0.9584943380558246,0.1302180155913346,0.26220637866020297,-0.16647176952866394,0.9823104332519653,0.1286050706467181,0.3162042286194236,-0.18438424189060088,0.9613513691252012,0.1404457395424278,0.35317657233783073,-0.2569665208087822,1.043171495653402,0.19806089955123957,0.35250921021722637,-0.046945912782735424,0.9522893946511469,0.2608097155269235,0.33575192070853355,-0.2617679551609145,1.0379722703043743,0.21470551298853274,0.35964473941676267,0.03430847434174142,0.6652806885407803,0.24601330656549036,0.41184581169820067,-0.3594346227048811,0.9495188074004205,0.2627131468789686,0.3354719615400275,0.07246237016605657,0.7186644965070144,0.24482297845497725,0.4345089768797364,-0.391378747831133,0.9661719077619517,0.2135506877831948,0.3722745983756456,0.11567581972433916,0.5558538340322717,0.2693186507517269,0.39496613016922744,-0.4503126892742191,0.9500264275288477,0.19453018857361312,0.38285657482404944,0.10059473638361918,0.6485674811444129,0.28816487533266955,0.4242408547885844,-0.3302866427865459,0.9727797971000148,0.2314182633314129,0.35434306224379136,0.07621965228954386,0.7142416984498172,0.23193998527093113,0.5389089656953847,-0.17402476423581167,1.0438209146015698,0.3138018688014307,0.5357525722379243,0.0032558790886814057,0.9754870783230588,0.25985683600034715,0.7171005634433284,-0.20703870059050156,0.9693604043270112,0.23190769560855898,0.6326034564733444,-0.028833819333975334,0.38795913999696685,0.25094090389316875,0.8036803900188225,-0.12924468411755236,0.925212234578979,0.3131116686342007,0.7581110240626809,0.0625601365688658,0.20817403525841674,0.24096704157768872,0.7955673264992734,-0.15813827216393098,0.7846282297698474,0.3270349751864253,0.8047558347692999,0.11889495751563259,0.3299316422356281,0.2102899050493111,0.9011955912399483,-0.19546256494237715,0.9103675195616961,0.3098183262585047,0.8031883882767208,0.0017028705755409018,0.3739652846844078
7,0.181963786277479,0.31497617885540924,-0.16190514513744458,1.0126723421735542,0.11307405676061365,0.2686923393353388,-0.17531908824309522,0.9834175214681067,0.18977396948729958,0.30708929819500713,-0.17470978610731416,1.0151502845910967,0.17581932979556833,0.29791408169040706,-0.1773334016378053,0.97472575777874,0.18801754558093486,0.3330801384537353,-0.09688362661980304,0.9864734131106431,0.19091335421084824,0.2898327673453082,-0.12044980925040243,0.956031596718778,0.11922388856777699,0.25987436147279336,-0.09818356994386493,1.0228613331220286,0.16849921523658842,0.2612239904530174,-0.2174961538551484,1.0488698905943663,0.22283899832822393,0.3120944355667958,-0.05121059216973768,0.9568212356769794,0.15345625633113183,0.26800349660873507,-0.12394508881133867,0.9810274432731749,0.1548332161376466,0.322070398548928,-0.14301338759538296,0.9552903516119261,0.13184527651053138,0.3632015371472485,-0.22244402014747572,1.0429799859297388,0.2298023193153412,0.3500532306315788,-0.07037580128429433,0.9554160158974847,0.2253798355595628,0.3435864446247781,-0.2429210185325636,0.9763708699290081,0.3080091499413165,0.36259400704257144,-0.049907297253601296,0.70342241598829,0.17012945276654323,0.4044105792973065,-0.30921590125449,0.7417769508254083,0.34295547889766326,0.3586501515329322,-0.0835244820393948,0.8689438396352187,0.15883198547946326,0.42883825058045055,-0.33706742737458295,0.6463911407979931,0.34647697518415504,0.40845783640512556,-0.0670393587693861,0.8156176708929285,0.1848596040072756,0.3833726691325453,-0.3859412793447544,0.6485603797650232,0.31950306519377447,0.41543945389051673,-0.10961161697163627,0.8679711056790198,0.2090449370120285,0.41001388173179115,-0.2731766342384089,0.6222432718505335,0.34818749927932546,0.38153669794592454,-0.1188674111502891,0.8216143400132327,0.2225389323221291,0.54828972350407,-0.16848132516066264,1.0426068871967846,0.33221367318966966,0.5340753571385896,-0.005952928102401327,0.9729891668698117,0.25952960844286105,0.7274167565471187,-0.1832416341544251,0.5062759450222016,0.2595268686974935,0.6402935285329757,-0.0402312286264743,0.17852726822515436,0.2597460345101382,0.8228013812488335,-0.1194217628205109,0.6184584203585506,0.3279816363556907,0.7785312177348611,0.02278556474702003,0.26183620125782925,0.25398589434827407,0.8128530907166501,-0.1516019390695496,0.3402210945216631,0.3346005362458084,0.8320898096075567,0.07788500552388833,0.27682061058413115,0.21554570446544288,0.9181461389351082,-0.1892889595750758,0.5242829033774615,0.3251398494249243,0.8201675462013729,-0.047827166432929544,0.3583947037250877
8,0.15164228483404424,0.31766488477658233,-0.22124712214108266,1.0126723421735542,0.0861001667654495,0.2708826610192224,-0.22851235163130046,0.9834175214681067,0.16301787143518143,0.3090303830567625,-0.22798429070479279,1.0153115151552143,0.14934883709593688,0.29955776917705557,-0.23075272764561192,0.97472575777874,0.16051984975748898,0.3363270120709075,-0.15096660119889,0.9864734131106431,0.16257569219156187,0.2933742965239276,-0.1741479348047774,0.9569118381128208,0.08989787660224174,0.26373787494248935,-0.15147149945684849,1.0228613331220286,0.15891381834533655,0.26149995995832753,-0.23685644149867746,1.049091560268286,0.2131490236720316,0.3148999665917286,-0.057737397272478244,0.9579141464435811,0.12966657062494397,0.26973775335311984,-0.17091257490190015,0.9821148704124573,0.12826109861374446,0.3246465112961203,-0.19113631544194215,0.9600335700338622,0.13794482072512873,0.35747722627230955,-0.23047438399809866,1.0431296531927696,0.2027913359798029,0.3557094133975395,-0.05385367814615986,0.9555475037438593,0.2512103539930815,0.34117448306929715,-0.23326262978933204,1.0322996366564556,0.2064253286621951,0.37215360858790525,0.001960414060307992,0.7348329909013149,0.19205187763392753,0.4054479981396222,-0.3031649557272531,0.9170381502997429,0.24120929068345898,0.3542613125265082,-0.03318091748987691,0.6633166962521926,0.18625568530438985,0.4289069151312318,-0.33112047439369624,0.8703905814680065,0.1875151336627479,0.3949537782824907,-0.02868191701711548,0.4378015600435479,0.20234277451442878,0.38422114125092294,-0.3869077646199346,0.8650465357518091,0.1571245367066142,0.404256817867949,-0.08500534652173528,0.5298732353291358,0.23049663625608982,0.4100547705181071,-0.27176522598413844,0.8758677706946802,0.22314229457870624,0.37415478189978196,-0.04939910786346366,0.5775896460473209,0.22439355358724472,0.53682971726704,-0.16573172374777392,1.0430951684467846,0.3213513960565793,0.5350562707776582,-0.005112828902171983,0.9745945583721921,0.26158028717361603,0.7179094580775752,-0.19881225353776957,0.9266556432987214,0.2372796991628773,0.6389908690214096,-0.057794200291921866,0.34650959318300195,0.2563325623282011,0.815956562656762,-0.1392686379796828,0.9125775400027156,0.31173336734606333,0.7783843518901346,-0.0011055366818837967,0.3923485878182693,0.24581279702509434,0.8094136046898862,-0.1706552711332808,0.6030706936446643,0.3186611737079379,0.8335177580824408,0.05321612153604832,0.41765981477629277,0.21287196399479943,0.9126748497772408,-0.22354211332680077,0.877011329833913,0.30438830077919193,0.8203746723419674,-0.08917599218525635,0.472231826642263
9,0.18988189950968237,0.31607639119099584,-0.13330714085631862,1.0126723421735542,0.12264441502747804,0.2686035284146234,-0.14740490527387703,0.9834175214681067,0.19983002507331057,0.3066188089314726,-0.14696178245465955,1.015446102443117,0.18638267936318295,0.29706024515399954,-0.14975592103012025,0.97472575777874,0.19848228865520162,0.33376794625212086,-0.06509657908460376,0.9864734131106431,0.20111221586004244,0.2906186545866717,-0.08859215937974368,0.9573395014390844,0.12913463651479484,0.26075025172776767,-0.0662020096363011,1.0228613331220286,0.1607968083704486,0.25908334924055404,-0.22934883280922255,1.0491236275671751,0.24643897534807124,0.3121455465496906,0.007756305712157456,0.9585101928913349,0.16082042983314176,0.2686765522575388,-0.09861236634808809,0.9823198507858397,0.16319832601123813,0.3235474016464621,-0.11218461007417535,0.9614481670683165,0.1352516196157883,0.3542771721036083,-0.2212017547545465,1.0431875889074913,0.24263482212695422,0.35505334507249675,-0.008722043590051555,0.9569172184807977,0.2106420469463428,0.33112055040251853,-0.2751829643418642,1.0368930686060711,0.27297727786411424,0.37343278386942996,0.011447622911732309,0.5018662102387783,0.14464711715027034,0.4084371710751081,-0.3598920878901068,0.9404063300978693,0.30064661141849236,0.3693000710428199,-0.05295023507468376,0.586958675946559,0.14327617703859646,0.43646505230965277,-0.3972938354416404,0.946681784966847,0.24328147678596512,0.41205673505434126,-0.04710507951244541,0.5259459518186792,0.17350117482230207,0.3882472561915663,-0.4431420627663374,0.9306610572552577,0.20317127138791294,0.42380609827299354,-0.09753177705286806,0.5913920832714881,0.18653174364329017,0.41309058408812965,-0.3226736527563874,0.9449132547606898,0.2673691345888523,0.39069402774366924,-0.06166507760415993,0.5961953551232486,0.22528214390622378,0.5394118500833547,-0.1777561896323818,1.0439345806591567,0.3331773178619905,0.5334496275777375,0.0020500455385231917,0.9767603527447506,0.24714445874553795,0.7177261141902461,-0.20927718249176958,0.9645143082881928,0.2474255501087306,0.645044912791246,-0.05523395580015149,0.5961069340052219,0.23530305150386283,0.8122262059634942,-0.17168860259110996,0.9501620832308648,0.3084975158041185,0.7821800352740762,-0.01741858058716856,0.608088702268724,0.22803083098945087,0.8040305304062864,-0.20620927654135823,0.8278227025596118,0.3152891413610821,0.8375122825613531,0.035961979415004425,0.6575394229305896,0.18892003568872356,0.909301942138691,-0.23790684881719454,0.9429635116500139,0.30325119742661716,0.8214082764870174,-0.08648115202108428,0.7304514561684013
10,0.189066752307471,0.31611054465245214,-0.16055439081200434,1.0126723421735542,0.12761610670536028,0.2691980549439356,-0.16236048956015467,0.9834175214681067,0.20533226138132218,0.3076525620881345,-0.16148634024746905,1.0154223797944963,0.19218553160006926,0.29853921520481136,-0.16425461766201171,0.97472575777874,0.19601468814700052,0.33413996864248646,-0.09012965887185817,0.9864734131106431,0.1977148568792636,0.2912170852202166,-0.11312106900341977,0.9572852612123388,0.12475748477389048,0.26156772943086215,-0.09038750722517466,1.0228613331220286,0.17627726816631845,0.26393987609220815,-0.2173825162805145,1.049117547893408,0.23568655459689966,0.3166214679421314,-0.01810102233770143,0.9584584560596698,0.16586037424807354,0.27105161853790377,-0.11092920449341395,0.9822203110290649,0.15794026934246552,0.3256982948578269,-0.13995566140427113,0.9610890490835449,0.14413688029401153,0.36655319572993583,-0.21772996423984387,1.04311367914797,0.2196793425736139,0.36183841000818096,-0.035210109977009095,0.9565392654282769,0.2288426571802682,0.35280218697440274,-0.23190736458182348,1.025848923975639,0.22683118898192745,0.3787207589422907,-0.04294291870327499,0.840058375136697,0.16090270984423097,0.41166199097371337,-0.3191955187783974,0.8995786385428461,0.2775373668581515,0.35756746296290964,-0.14915949785440297,0.8242621713536635,0.1570779314752076,0.4353224312693086,-0.35872213945244164,0.869626986363789,0.22519180215892018,0.3991492896235857,-0.1548970611959244,0.7048087619535669,0.18982875660897244,0.3857076214869764,-0.40900950990062723,0.862803672573556,0.1896327685679507,0.40924870686788795,-0.20220205693021823,0.7575241161427344,0.20117831992918053,0.4120258365161845,-0.2839816635897362,0.8636734948386622,0.25281897630357825,0.3781420346120317,-0.1590448044709153,0.7492235452592044,0.23739685213926767,0.5503713561182058,-0.17468008655132394,1.0435813635342175,0.33144395535442356,0.5432654992932832,-0.005099114836718745,0.9765269409558102,0.25437131564242693,0.7232056287890926,-0.21023669741920314,0.9507143429065706,0.23970724321521328,0.6480798024892745,-0.0642165815908393,0.6419322962107272,0.241613787838244,0.8164232670253533,-0.18024656671613032,0.9268312755450128,0.29922726603783656,0.7876735569644449,-0.03417850312569224,0.6778042021466537,0.23259183024792374,0.8079286741745969,-0.21539437585948246,0.7291490012732958,0.3059638565193252,0.8432343880644354,0.018645249782368672,0.6786926941288624,0.20071997909615003,0.9130410607147408,-0.25060269476002905,0.8902980396193744,0.2950010818641846,0.8298891233688839,-0.10191560193554246,0.7283114706070305
11,0.2099940491549856,0.32128178402852026,-0.10903474612219863,1.0126723421735542,0.13858230921082149,0.27486422148789613,-0.12834221370496457,0.9834175214681067,0.21572625637709905,0.3138380042973783,-0.12784222345099996,1.0150748847154558,0.20289243408388233,0.30530118334064504,-0.1308655289762567,0.97472575777874,0.21300461950585056,0.33817669320989985,-0.05180233884169911,0.9864734131106431,0.21631750708720227,0.2945015395659198,-0.07556860884538437,0.9569493890390294,0.14516104823310427,0.26416318388528415,-0.053537700984154155,1.0228613331220286,0.18434097146671066,0.27110834790541005,-0.20042592505047727,1.04826520147312,0.2444771188940761,0.3178081070126423,-0.01504740522159833,0.9581623401844258,0.17566988678364198,0.27607554503440945,-0.07940949480793244,0.9798721264434938,0.17711403437118847,0.3284729804790885,-0.10071997089462008,0.9579921109503051,0.09824191778939334,0.3773321592957623,-0.22868379777678277,1.0430588428747765,0.25780181064998486,0.35379816066049413,-0.0597145819529924,0.9572387259347162,0.08580681170493636,0.35517227626692893,-0.2463082513752431,1.0310406673495098,0.32271121509902845,0.3633607313906397,-0.07726052176050695,0.8088703639672634,-0.008223335604155325,0.4020088995430493,-0.2803393243202523,0.8649814801108393,0.41786488374294994,0.33894846205119694,-0.15779822756626402,0.8854844265836135,-0.04084441412358632,0.42709567898811956,-0.3080230754893509,0.7917473190816845,0.380988705594375,0.3829327135241899,-0.15722424061611565,0.8123754762403711,0.0018109763220954759,0.37653017512162,-0.347981666871836,0.7638895261502161,0.3412045133520911,0.39108928756971595,-0.20310018381735004,0.857646567924961,0.033300307809696804,0.40042397122458906,-0.2383569612766091,0.6719715461959315,0.3942821276615741,0.3588342126229722,-0.16534402845733853,0.7962123901307254,0.2342618408448793,0.5515352560167348,-0.1741102475992861,1.043598231648689,0.3520489284817393,0.5341865198010957,-0.012634402654533729,0.9764832507511898,0.26635782033125205,0.7233404544955745,-0.18380535822388247,0.8611937096858979,0.27629401714629803,0.6384693879842697,-0.030874141084551766,0.38861800974031396,0.25829378983002216,0.8134827910846489,-0.1371862288880361,0.8669358197077632,0.32217244185269184,0.779119038741636,0.009853607958874515,0.40089175135624844,0.25131661116158827,0.8094216513169309,-0.1733531061966475,0.6513656550971484,0.3238471232138444,0.8364762942305121,0.0642863206315647,0.5070145086659107,0.18170245514722153,0.8958247359085274,-0.23080423644524395,0.6887122103614093,0.31801058845169733,0.8150929259544857,-0.061464632209328574,0.4636039052994133
12,0.12450884232472943,0.32065012380551305,-0.276929805277673,1.0126723421735542,0.06535410234447107,0.2740626284226343,-0.2768498060572617,0.9834175214681067,0.14356871446732328,0.3125989131394651,-0.27682579088093917,1.0154466984895647,0.13131565458738723,0.3035549460626605,-0.2801002062540443,0.97472575777874,0.13293186718873648,0.3386302249519958,-0.20128175377967522,0.9864734131106431,0.1338248604281495,0.2951709593313922,-0.22397778668317797,0.9573406935319798,0.05996459994449361,0.26478816838807656,-0.20084648121040197,1.0228613331220286,0.15708370090501622,0.2700564451344139,-0.26007388721860614,1.0491237467764647,0.1900465506387103,0.3198588942231068,-0.09122412160285606,0.9585104313099139,0.10816055804115987,0.2751404673671732,-0.218467546342513,0.9823301027847413,0.1008885175885227,0.32914576790699074,-0.24124108860546473,0.9614776117628356,0.10527214809757651,0.37389857412883115,-0.23626132579771186,1.0432066623938197,0.1935260161364518,0.36262241970323406,-0.07877732178890465,0.9570243876321037,0.13663263304542425,0.351467966803428,-0.21015253337810813,1.0385615218226238,0.20756581318644923,0.3802009806906427,-0.012016518619723426,0.8917942531274198,0.029961889803229915,0.4063081229660535,-0.2593979145523864,0.9375542478453669,0.29522828068742074,0.3405064976633033,0.03597064950755759,0.8746462160008803,0.04535375304684869,0.43239509815277716,-0.29505056745563296,0.9188868278058971,0.24509962905709964,0.3836472242034349,0.05627179267567055,0.6907021306745752,0.07109862840064483,0.3840445326884535,-0.35466696094028893,0.9115945446705713,0.20913496176605736,0.39166429357786414,0.003689059900153134,0.7699380351147498,0.08432056659553883,0.4061961148269602,-0.23445790757512525,0.9409582481612636,0.2670959762971721,0.35951027830633714,0.028075741953295374,0.8349718005120426,0.24461742939834857,0.5452597809915578,-0.17682978905736246,1.0437707274906691,0.34989690827525344,0.5426718370313203,-0.012961491766889217,0.9763278614422606,0.2764423206251775,0.7208443311816707,-0.19892186064912465,0.9750983646656038,0.26184434921408684,0.6457049150228439,-0.03446616908913555,0.5062263185324283,0.2701060949508838,0.8111449181026238,-0.12688312524902648,0.9398885670527339,0.3321691719109764,0.7784021736789224,0.03904752777344472,0.3866611722184463,0.2616722497553182,0.8054034041893979,-0.15817398632578014,0.8139319593039965,0.3385889803671032,0.8351878802290472,0.09632067594257329,0.42928656500708195,0.21423523904843098,0.9050155337143135,-0.20889851443490817,0.9282044479293108,0.3282521414045058,0.8180170106178768,-0.03335357605578568,0.5229858671219231
13,0.12332277728473404,0.32450299784611664,-0.29528717085386585,1.0126723421735542,0.06548833311548015,0.2763039120778009,-0.2918332195292822,0.9834175214681067,0.14383191655695035,0.3141581408444669,-0.2918442895713011,1.0154466984895647,0.13120814653552693,0.30438985812435176,-0.2950116371669265,0.97472575777874,0.12852851301501617,0.34350570608068837,-0.22051085696264788,0.9864734131106431,0.12815355057612157,0.3013889754790057,-0.24280728176283195,0.9573404551134008,0.053012474784947604,0.27243699403352334,-0.2192273032571505,1.0228613331220286,0.16497506174214865,0.2708380110390312,-0.25639900496874757,1.0491236275671751,0.18087083654368896,0.3293232475460896,-0.10525099250336414,0.958506974240517,0.11157245045369604,0.27892470665931796,-0.22978724335092324,0.9823289106918457,0.09764092466255309,0.3361656453407676,-0.2577693189189862,0.9614691479032776,0.13508449376479106,0.37136275412150693,-0.2419717902664072,1.0431928341162315,0.17655475728162387,0.37500734101556615,-0.07999947736640514,0.9571416299683769,0.24930136310218032,0.3459695873345101,-0.2418221801298771,1.0294843304697796,0.15127208894115263,0.39019951084010257,-0.054154347540080486,0.8090734369920132,0.21614283665120132,0.3960819924805188,-0.36529910564076523,0.8360564188849481,0.11962675114904127,0.3655166364133796,-0.15476798064808528,0.8798539930241958,0.21430452336907896,0.41622054332794806,-0.4011064079676374,0.7050270908864941,0.045787657535065036,0.4031437246955309,-0.14589240185676997,0.7227058910124048,0.23785818903542824,0.37062687149842055,-0.4647911821278416,0.7297183025097742,0.0063584333262818385,0.41002148108740083,-0.2032776023059922,0.8029231263241614,0.2587337143942996,0.40041798095778913,-0.3415415056961255,0.7641404137839747,0.07736952891802686,0.38209751804861614,-0.16565316505593164,0.8473907858788639,0.2534057489810761,0.5428413821344411,-0.1739557128473302,1.042907473420387,0.331723239386521,0.5473070518369233,-0.012083652790304357,0.9758559118649289,0.2722522642915971,0.711728516019012,-0.2347328130818916,0.9288800290370942,0.21585667679566256,0.6412200827360092,-0.09420932476970459,0.19614818936010303,0.2709502510088156,0.7983674704021233,-0.16333065022760276,0.8009431067332149,0.3006198422905514,0.7733905555415628,-0.01900928121232693,0.23886349827778774,0.25133646879826815,0.7909668015969297,-0.19148206313114363,0.5004752749530291,0.30966786595737605,0.8277728240004095,0.03660066911007204,0.32985567611586186,0.23280938490479106,0.8950873072433663,-0.24643197267715278,0.7075744578284503,0.29058418235086503,0.8176704692131527,-0.10016904198282912,0.305730304578054
14,0.1364377108877502,0.3321500949568649,-0.28684133430902714,1.0126723421735542,0.07861478489015358,0.2822398194416925,-0.28848962637963815,0.9834175214681067,0.1577738773451453,0.3204217247430113,-0.28885026349846,1.0154457448152483,0.14621317138398865,0.31103309380779287,-0.2923813016328955,0.97472575777874,0.14290730472084978,0.3487200396149291,-0.2115820767281662,0.9864734131106431,0.1424907808440893,0.3063068057078112,-0.23391205562884543,0.9573362827882664,0.06740131038252148,0.27719681234902926,-0.21036012390998535,1.0228613331220286,0.17086922513355152,0.2768373973496086,-0.2701349198874827,1.0491142100333006,0.1945528662431772,0.3329982315243611,-0.09983173296457615,0.9584910001957172,0.12068743435219227,0.28771877594947903,-0.2293489016628655,0.9823005388809325,0.10865957765487462,0.3436063911713034,-0.2509920572874166,0.9614295704191467,0.10451039920666863,0.3832034552247173,-0.3123528754828754,1.0430646841299644,0.1968802827047891,0.37985042701982336,-0.08579769981732355,0.9567407291276178,0.0910280829685687,0.37353780842673423,-0.323441330066948,1.0295533526484295,0.19217973090520996,0.41563775995127805,-0.03875721082248365,0.05251923574670521,-0.029268866435966896,0.4270684505436444,-0.3465978664868025,0.8445269541632684,0.19891708742034325,0.4027249551237067,-0.07507278887491199,0.14938939299758808,-0.0751915773270386,0.44919332617821356,-0.38451833310523664,0.6357046240362133,0.12284150657134547,0.4409663586772356,-0.07472955056075782,0.11326261389181448,-0.030403869065074564,0.3983049439509657,-0.4158384375427997,0.6016804325795069,0.0881533031185282,0.45043334083814857,-0.11759269143997722,0.17447122763012288,0.004247264119593565,0.4253288183696696,-0.30164434935859574,0.5931597218741846,0.15780260584229117,0.42012620528730943,-0.08075952640206559,0.20374494797584097,0.2629640599547562,0.5448156071786916,-0.18117380223902632,1.041031536435371,0.3430359502289209,0.5424863473767793,-0.013153983509639026,0.9744994293591306,0.309485494454275,0.7071700123912349,-0.23782115496600842,0.9048637083316804,0.2187949761147759,0.6433666248083053,-0.09257359256992806,0.26216469948907806,0.33720353796738717,0.7918903528636712,-0.15590749744816693,0.8912688794955135,0.2904321055933799,0.7811884524035928,-0.014228673809591079,0.31965136558545076,0.329534136986787,0.7858648824227353,-0.18645504578517022,0.47524972501673457,0.29622607522224864,0.8371592442503485,0.043069763049146795,0.3155218319309864,0.2937752365439616,0.8782985861587715,-0.2394201613215692,0.8290241071624042,0.2728659118404053,0.820268099237109,-0.09666009141105261,0.5040625844986321
15,0.12193695832734182,0.3341163031763931,-0.3496574787092291,1.0126723421735542,0.06516527836219231,0.2837775894745752,-0.34716446650177674,0.9834175214681067,0.14471039100004812,0.3219503156605985,-0.34770975590406983,1.0154281018403948,0.13353909968681296,0.31257068502674124,-0.35142169273622315,0.97472575777874,0.12285604389705182,0.35043769646574396,-0.2786227289130785,0.9864734131106431,0.12125872402393498,0.308309491969942,-0.3004971029383326,0.9572951555833714,0.04494830686119778,0.27948715062684604,-0.2764864537172466,1.0228613331220286,0.16772095149626548,0.2795568592674858,-0.3028867790177453,1.0491063422201903,0.16305627291884195,0.3378319297970661,-0.17068921907402324,0.9584336605274433,0.11106606991567339,0.2908715636348734,-0.2802962824895901,0.9822467754913453,0.09022460996172728,0.3471919383800895,-0.31324244564887505,0.9612912280386229,0.1414491704697493,0.39178259016581846,-0.2915833354457192,1.0429247920286766,0.1560287745321484,0.38752515088342504,-0.14626380716507828,0.9568414609772882,0.12859927724111306,0.4050388929928506,-0.28640358888154543,0.8692978013102337,0.11383102708435884,0.42844319203250064,-0.17344954928070005,0.7618185765908596,0.07848417857234617,0.46003151783681157,-0.37600184167054423,0.3742500917803795,0.1328536731069103,0.40297618870143503,-0.3126580944064992,0.5629504018681899,0.04648801013272999,0.48495578521790167,-0.4128628021766499,0.23945746062125814,0.07055508644778358,0.44268279363283247,-0.3205365806506419,0.40759386646673523,0.08337001661192295,0.43085310331185134,-0.4525223670938135,0.2391929078316583,0.0358224101815728,0.45088955478925935,-0.36370558479558185,0.4553333951077307,0.11451228786806883,0.45609470944480385,-0.3360413049036279,0.2521285579432917,0.10449043625010775,0.4205133672574479,-0.31997575851135485,0.46398647136088894,0.27845788265127824,0.5482143832330739,-0.16768514303821141,1.0414281457417067,0.333073536878595,0.5465605632657563,-0.028689098199908343,0.9753226291081234,0.29905602072396686,0.712229791081573,-0.2341146733260055,0.870750480010605,0.20421014262815432,0.6456221241712509,-0.12001379696481355,0.5993150944056125,0.30530153023516804,0.7956310211604851,-0.1369525801122068,0.6858449879511714,0.2838735826369502,0.7854565622020242,-0.02212811643694753,0.37771230966580355,0.29516648787367206,0.7888215112221738,-0.16496882886956493,0.37949259820856807,0.2914996704205704,0.8406790177336249,0.03723515269265018,0.3584437028778705,0.26331155609092205,0.8916959221649361,-0.2175676862880298,0.5565624544066669,0.27105172173866887,0.8227673815971859,-0.10714276667684855,0.3859864388496757
16,0.1485552669308035,0.33392768427800146,-0.3467179987572093,1.0126723421735542,0.09445787982529473,0.2854953059300348,-0.3384791465491622,0.9834175214681067,0.17378295146843065,0.323932229704025,-0.3389274117868959,1.0153756497529924,0.1624200076844668,0.31480544197330496,-0.342536181230334,0.97472575777874,0.15142339160143092,0.35168578792501826,-0.2722205954230262,0.9864734131106431,0.1499364568506691,0.3095739151018847,-0.2941621676970196,0.9572393656358616,0.07377867446769781,0.28075240822381564,-0.2702146752625483,1.0228613331220286,0.20016683799429436,0.28376929832769704,-0.28292841673030744,1.049049121761206,0.19379825858419414,0.3408408020676502,-0.16041380438242622,0.9581637706959002,0.13792505482981948,0.29164198347091763,-0.27435826242170114,0.9820675443245057,0.11604862820557883,0.3474613215721518,-0.31016219392360206,0.9609506470983765,0.1796352704996605,0.3995953285843975,-0.26252645026240334,1.0423067514670006,0.17088583744875158,0.40193841825746374,-0.14308145220385982,0.9558069031579217,0.23940995996601075,0.41490095830809715,-0.2825506016556413,0.8408636439387127,0.15861650615770645,0.46370667078845157,-0.1800816591066489,0.5516348369286892,0.12177330363284546,0.4554201150867963,-0.41978966961994096,0.5465882496726068,0.15808078456699945,0.44663352136020273,-0.31887533923078815,0.534109144772853,0.08406256274180726,0.4775087212950196,-0.46106827946482737,0.4008506411107982,0.10363132594541834,0.48944663097032637,-0.332285768762554,0.4493004583112939,0.1199650678877485,0.42332175842125686,-0.5025837854559599,0.39546478273629093,0.06729095076057998,0.4957315595652604,-0.38050636052288844,0.4964875711045111,0.15238577801170472,0.4502432916648814,-0.3802779392756869,0.40848405816454414,0.13421374561038762,0.46210143526587083,-0.32988212360962066,0.4919501692711978,0.28918865022902074,0.5536019874696767,-0.16043971544092314,1.0418083637707287,0.3286949384129106,0.5508237258786713,-0.038305744461504344,0.9757255565068051,0.27932476506638937,0.71048844138446,-0.2821510160316624,0.8115369013095857,0.16648715150377508,0.642257203555101,-0.1845899693124708,0.7745368952097507,0.3008780740699021,0.7979834376758355,-0.16004575038637792,0.6437821093424678,0.23265027662777152,0.789699340026426,-0.11344545906876835,0.5408917966557785,0.28018183859918894,0.7905069517624875,-0.20163944974982995,0.3344387585250353,0.2391895519644125,0.846504656504682,-0.056721927278767306,0.4318140999687824,0.2511703832593164,0.8943800385284615,-0.27214015314344653,0.538203568164754,0.2161585737681747,0.8398078727013119,-0.2132882758299258,0.4797873412163139
17,0.1678187070322395,0.33071266934346166,-0.366707248210192,1.0126723421735542,0.11527292014819147,0.2827462503060266,-0.35663371980783454,0.9834175214681067,0.1949621480133259,0.3223673991624143,-0.3571865818802151,1.0153251050142231,0.18397702957944245,0.3144155679918292,-0.36088318337855874,0.97472575777874,0.1677036771261004,0.34569608736921686,-0.29525697280432883,0.9864734131106431,0.1652961883435688,0.3024045790213336,-0.31680820463261755,0.9572218418702976,0.08819186335941978,0.27241759272164895,-0.2925315410407902,1.0228613331220286,0.2229217548556813,0.2855977602131493,-0.2893828201909088,1.0490571087836058,0.1957900837845159,0.33247174369706,-0.19350815403094543,0.9583061661922686,0.1560594614171768,0.29278150506973355,-0.28930953892201783,0.9821925352645997,0.12777901169156308,0.34428829810985634,-0.3323538377623128,0.9612056357687256,0.1975663397414085,0.40767706276484794,-0.26506394082175155,1.0429506604445091,0.15596369266058316,0.39871693621896587,-0.16868276368173,0.9564438383919915,0.2828306309948587,0.4109114704216683,-0.306320057002524,0.9763688433710859,0.08747257868596237,0.45705813029162534,-0.22356446828329826,0.816808748977029,0.14903385363335137,0.44246260175442936,-0.46501121149235797,0.7667505817305597,0.08069073339092168,0.4405143297136268,-0.3810609326552686,0.6435153776067153,0.11406630636017676,0.462861386480948,-0.503265539048847,0.6762515181096996,0.014578882687085253,0.4815722017444048,-0.3925752013098079,0.5179453395597681,0.14932974598290888,0.4066676246245649,-0.5382571361264707,0.6953356015896692,-0.013262720451238164,0.4864140124823594,-0.4334766795340733,0.5884827209553565,0.17852986004205945,0.4362921689041087,-0.42172514849185744,0.6702411637534571,0.057622867628610644,0.45703098734411784,-0.38839054871538803,0.5816086680352359,0.2932314590468452,0.5908876730089223,-0.15348696362829095,1.0419648259632641,0.31952023995594914,0.5853028075093781,-0.04317888763394006,0.9738486062428282,0.2799806950970536,0.7401187447673335,-0.262955294732138,0.9016789129520418,0.15593734459941633,0.669319381213182,-0.2012814367145488,0.9204322571100804,0.3069686992219182,0.8093829451984185,-0.10625514373053975,0.7116006317957759,0.26289809170804096,0.7896924854922769,-0.06108311051857913,0.8211409750653549,0.2973010746332364,0.7974506544602414,-0.12665397672709186,0.46133978906550166,0.2737240272876902,0.8389363567343268,0.0014343856161378177,0.6279104904545459,0.2710459303392891,0.9171159918594551,-0.17945802944808187,0.6857143351477862,0.26137488472138365,0.8497882532364376,-0.14422916973415983,0.7654214416534783
18,,,,,,,,,,,,,,,,,,,,,,,,,,,,,,,,,,,,,,,,,,,,,,,,,,,,,,,,,,,,,,,,,,,,,,,,,,,,,,,,,,,,,,,,,,,,,,,,,,,,,,,,,,,,,,,,,,,,,,,,,,,,,,,,,,,,
19,,,,,,,,,,,,,,,,,,,,,,,,,,,,,,,,,,,,,,,,,,,,,,,,,,,,,,,,,,,,,,,,,,,,,,,,,,,,,,,,,,,,,,,,,,,,,,,,,,,,,,,,,,,,,,,,,,,,,,,,,,,,,,,,,,,,
20,0.24194678832489502,0.7008202604956528,-0.15627324921482344,1.0126723421735542,0.16467618937592976,0.6742677637680934,-0.17686862522268892,0.9834175214681067,0.2418704477220324,0.7163732342187193,-0.17622314285335935,1.015425956073183,0.22823563185024937,0.7107933102823261,-0.17902876225447645,0.97472575777874,0.2288728589511274,0.7278830366222991,-0.11204358671522507,0.9864734131106431,0.23012257572665779,0.6810636187571276,-0.1349998400410129,0.9573276997194188,0.15684999569146948,0.6472868797356566,-0.11220688289991018,1.0228613331220286,0.2035854306595744,0.6673059351570733,-0.25374525470847775,1.0491076535223756,0.22060405272968597,0.6827419851960073,-0.13640464927012458,0.9584988680088274,0.21208288816110293,0.6406277448749551,-0.12816675732043523,0.9821658323837401,0.20114955219522762,0.6835721816814812,-0.16591458753718163,0.9612063510244628,0.19381907449918767,0.7204828345925457,-0.26686215581163997,1.0415526335013023,0.20237571412366326,0.585118541825045,-0.18477713084976857,0.9564506333214959,0.3121681954253997,0.7221371231163705,-0.1167825294939157,0.5841695654932781,0.20883398756584998,0.5853012786184992,-0.11129910043787408,0.6142979152367947,0.2701930994984204,0.7799603129360699,0.013812807925293557,0.43755502270574875,0.24755229032569953,0.6381072140157661,-0.058193345452616084,0.5829719000714675,0.23965911248628374,0.8137069022089448,0.008218784045369151,0.5077919238599743,0.18332321376830635,0.6799874811328326,-0.029187674325693396,0.5950513981573328,0.27679428123894556,0.7554152356704024,-0.03070061105633485,0.5015594709133997,0.14637512419304824,0.7121422262694382,-0.07832965565908377,0.6232809258541907,0.299318850911437,0.7719649348743388,0.06098417762581413,0.514485584281869,0.21022798925558084,0.6831008251527269,-0.05987418175557829,0.6235084683358341,0.42558513075184146,0.5725243760232961,-0.21268091589023555,1.0439548462383803,0.4836560782164402,0.5007368699903046,-0.09869405861911515,0.9767266165158077,0.6273118972793621,0.6326225427752986,-0.06963856935538573,0.4016256562019349,0.5560771631263126,0.4705963630437789,0.04253025420551411,0.10422086214443155,0.7198592646672671,0.605804830688836,0.09252581339410722,0.46501025589550726,0.7224745791912826,0.48200210348849265,0.21443224507773287,0.14897113323939284,0.7214278862868477,0.5711587595475217,0.0762523666235379,0.5655629211989855,0.7384902437316634,0.5151236931791815,0.28730045255406433,0.14194068622719377,0.7411894773010286,0.6991090829658699,0.09757715330791684,0.5159048745078326,0.7874260816879056,0.4884614991432675,0.21777149405827728,0.16358437285732041
21,0.05636858036473964,0.7620797686285874,-0.502398504528132,1.0126723421735542,-0.023531743637665734,0.7283495017632411,-0.5242039694613742,0.9834175214681067,0.05296669563468284,0.7686298183861998,-0.5233017716537077,1.0154466984895647,0.03864182348033719,0.7611913620210651,-0.5257018091619233,0.97472575777874,0.04503026827206834,0.7846362547962799,-0.4542607434374125,0.9864734131106431,0.0472149222316537,0.7385338808077563,-0.4773809417301757,0.9573405743226903,-0.02515246485003502,0.7054966566140135,-0.4546511616800006,1.0228613331220286,0.04547995655766597,0.7102439291603692,-0.5352337687208157,1.0491235083578856,0.07712035095162191,0.7334292386711965,-0.3932121888606516,0.9585085239612811,0.040633973406851945,0.6953682334041604,-0.44486061652536935,0.9823223541809205,0.03670221927217528,0.7422358479298027,-0.47716856271267166,0.9614690286939881,0.09917176699025088,0.7644685590417034,-0.4534671443872291,1.04301682160021,0.08397117499710782,0.6066419578673728,-0.3616276318404744,0.9570180695397578,0.3041105919954691,0.6959516105736459,-0.32239228362574496,0.8574058998171612,0.1383789478790411,0.5277016148840632,-0.2724260838609198,0.8037742264436123,0.3105604649115733,0.7323180223438763,-0.30599170527310243,0.751385279167846,0.18460992111056296,0.5482148266256294,-0.24494767878381973,0.6120493107694045,0.2970064850008524,0.7486691748529878,-0.32965789127864364,0.74999647078838,0.1166084272649192,0.5833576231158648,-0.23124868063054244,0.5705097221128687,0.3312697350620928,0.6942769633849409,-0.3811471223885917,0.7381676185345545,0.08180286525519356,0.6243879170920396,-0.27969599594644284,0.59596125613068,0.3520746438436808,0.7150395784862468,-0.26841145631544744,0.6307893262137843,0.1516163738309909,0.5977328475335557,-0.24760507417221828,0.531031981176105,0.4180866756339617,0.6183070613031423,-0.19422020413242166,1.0440009802334362,0.44789213065575656,0.5328231231565034,-0.10035575494496846,0.9768315802952574,0.6524103379139401,0.6194975999957576,0.02383689610199144,0.2963970533157349,0.560553575693067,0.4816979665517745,0.08931781306827906,0.36794905608316375,0.8110169359157041,0.5537148415035027,0.28159793152905416,0.6769050660952449,0.7746551649027207,0.4658561588931557,0.3289217663296754,0.5241447094155594,0.8223791975675623,0.5184489416611692,0.2763947982006659,0.7170540267554736,0.7997093494704155,0.48802280230431877,0.4115034994430064,0.5978817896259937,0.8434964273516252,0.622219091205616,0.30420303218827444,0.46876728624527464,0.8449956865878475,0.4726269292122372,0.3388784349890463,0.369952819207418
22,,,,,,,,,,,,,,,,,,,,,,,,,,,,,,,,,,,,,,,,,,,,,,,,,,,,,,,,,,,,,,,,,,,,,,,,,,,,,,,,,,,,,,,,,,,,,,,,,,,,,,,,,,,,,,,,,,,,,,,,,,,,,,,,,,,,
23,,,,,,,,,,,,,,,,,,,,,,,,,,,,,,,,,,,,,,,,,,,,,,,,,,,,,,,,,,,,,,,,,,,,,,,,,,,,,,,,,,,,,,,,,,,,,,,,,,,,,,,,,,,,,,,,,,,,,,,,,,,,,,,,,,,,
24,,,,,,,,,,,,,,,,,,,,,,,,,,,,,,,,,,,,,,,,,,,,,,,,,,,,,,,,,,,,,,,,,,,,,,,,,,,,,,,,,,,,,,,,,,,,,,,,,,,,,,,,,,,,,,,,,,,,,,,,,,,,,,,,,,,,
25,,,,,,,,,,,,,,,,,,,,,,,,,,,,,,,,,,,,,,,,,,,,,,,,,,,,,,,,,,,,,,,,,,,,,,,,,,,,,,,,,,,,,,,,,,,,,,,,,,,,,,,,,,,,,,,,,,,,,,,,,,,,,,,,,,,,
26,,,,,,,,,,,,,,,,,,,,,,,,,,,,,,,,,,,,,,,,,,,,,,,,,,,,,,,,,,,,,,,,,,,,,,,,,,,,,,,,,,,,,,,,,,,,,,,,,,,,,,,,,,,,,,,,,,,,,,,,,,,,,,,,,,,,
27,,,,,,,,,,,,,,,,,,,,,,,,,,,,,,,,,,,,,,,,,,,,,,,,,,,,,,,,,,,,,,,,,,,,,,,,,,,,,,,,,,,,,,,,,,,,,,,,,,,,,,,,,,,,,,,,,,,,,,,,,,,,,,,,,,,,
28,,,,,,,,,,,,,,,,,,,,,,,,,,,,,,,,,,,,,,,,,,,,,,,,,,,,,,,,,,,,,,,,,,,,,,,,,,,,,,,,,,,,,,,,,,,,,,,,,,,,,,,,,,,,,,,,,,,,,,,,,,,,,,,,,,,,
29,,,,,,,,,,,,,,,,,,,,,,,,,,,,,,,,,,,,,,,,,,,,,,,,,,,,,,,,,,,,,,,,,,,,,,,,,,,,,,,,,,,,,,,,,,,,,,,,,,,,,,,,,,,,,,,,,,,,,,,,,,,,,,,,,,,,
30,,,,,,,,,,,,,,,,,,,,,,,,,,,,,,,,,,,,,,,,,,,,,,,,,,,,,,,,,,,,,,,,,,,,,,,,,,,,,,,,,,,,,,,,,,,,,,,,,,,,,,,,,,,,,,,,,,,,,,,,,,,,,,,,,,,,
31,,,,,,,,,,,,,,,,,,,,,,,,,,,,,,,,,,,,,,,,,,,,,,,,,,,,,,,,,,,,,,,,,,,,,,,,,,,,,,,,,,,,,,,,,,,,,,,,,,,,,,,,,,,,,,,,,,,,,,,,,,,,,,,,,,,,
32,,,,,,,,,,,,,,,,,,,,,,,,,,,,,,,,,,,,,,,,,,,,,,,,,,,,,,,,,,,,,,,,,,,,,,,,,,,,,,,,,,,,,,,,,,,,,,,,,,,,,,,,,,,,,,,,,,,,,,,,,,,,,,,,,,,,
33,,,,,,,,,,,,,,,,,,,,,,,,,,,,,,,,,,,,,,,,,,,,,,,,,,,,,,,,,,,,,,,,,,,,,,,,,,,,,,,,,,,,,,,,,,,,,,,,,,,,,,,,,,,,,,,,,,,,,,,,,,,,,,,,,,,,
34,,,,,,,,,,,,,,,,,,,,,,,,,,,,,,,,,,,,,,,,,,,,,,,,,,,,,,,,,,,,,,,,,,,,,,,,,,,,,,,,,,,,,,,,,,,,,,,,,,,,,,,,,,,,,,,,,,,,,,,,,,,,,,,,,,,,
35,,,,,,,,,,,,,,,,,,,,,,,,,,,,,,,,,,,,,,,,,,,,,,,,,,,,,,,,,,,,,,,,,,,,,,,,,,,,,,,,,,,,,,,,,,,,,,,,,,,,,,,,,,,,,,,,,,,,,,,,,,,,,,,,,,,,
36,,,,,,,,,,,,,,,,,,,,,,,,,,,,,,,,,,,,,,,,,,,,,,,,,,,,,,,,,,,,,,,,,,,,,,,,,,,,,,,,,,,,,,,,,,,,,,,,,,,,,,,,,,,,,,,,,,,,,,,,,,,,,,,,,,,,
37,,,,,,,,,,,,,,,,,,,,,,,,,,,,,,,,,,,,,,,,,,,,,,,,,,,,,,,,,,,,,,,,,,,,,,,,,,,,,,,,,,,,,,,,,,,,,,,,,,,,,,,,,,,,,,,,,,,,,,,,,,,,,,,,,,,,
38,,,,,,,,,,,,,,,,,,,,,,,,,,,,,,,,,,,,,,,,,,,,,,,,,,,,,,,,,,,,,,,,,,,,,,,,,,,,,,,,,,,,,,,,,,,,,,,,,,,,,,,,,,,,,,,,,,,,,,,,,,,,,,,,,,,,
39,,,,,,,,,,,,,,,,,,,,,,,,,,,,,,,,,,,,,,,,,,,,,,,,,,,,,,,,,,,,,,,,,,,,,,,,,,,,,,,,,,,,,,,,,,,,,,,,,,,,,,,,,,,,,,,,,,,,,,,,,,,,,,,,,,,,
40,0.26969945805812034,0.5852231316275498,-0.7460384823466739,1.0126723421735542,0.2031683509607216,0.5502429553612636,-0.7631978997569884,0.9834175214681067,0.28046391096469037,0.5919045500222472,-0.7626276073759801,1.0140362737802446,0.2668358372974525,0.5859545408464435,-0.765212538462087,0.97472575777874,0.26769806073806274,0.6044490890591278,-0.6979355530143613,0.9864734131106431,0.2696234048637228,0.5579525495547045,-0.7211429160521832,0.9549370170221226,0.19701081248281516,0.5244532105500181,-0.6985041727337316,1.0228613331220286,0.2960904282024362,0.5404692776329644,-0.7301518055841364,1.044410151862982,0.31549004406426445,0.5593945835770497,-0.6085313324771789,0.9303772773945086,0.257674396205716,0.5269933969593057,-0.668874984440909,0.9740221689773682,0.24784224213478245,0.5706488575733574,-0.7063201499715188,0.9447757346456787,0.3415484500629415,0.6154748881013042,-0.6002278744224543,1.042967230535757,0.31845303960737587,0.47745774160646276,-0.5251006411985586,0.9354989450318536,0.5024198623557455,0.6115786132897103,-0.4542101556475113,1.0359699714724346,0.30490597528525487,0.39250868418566837,-0.4540760012179551,0.9767618067429897,0.486878498227292,0.6873633051846051,-0.4422750310143531,0.9512090759169609,0.3036679410431037,0.35231247906093205,-0.4747217702398372,1.0210506611722365,0.4694158395871072,0.7183550273806062,-0.46691576179546457,0.983790563920399,0.23017272947888162,0.3713129370368395,-0.46727695425336535,0.9616961382620081,0.4989733035784377,0.65924701562722,-0.5202646345742109,0.9653654444432153,0.19784068001744864,0.4029111536051774,-0.5107552304917057,1.0075412822804297,0.5237952075531683,0.6782569561489055,-0.403430648524361,0.9694625601996852,0.26849395929276465,0.38496479948553636,-0.4741828037140941,1.0148762614190248,0.5881190009193974,0.4761926902418172,-0.2540145891394528,1.0436310142033154,0.6225898528061986,0.4157747403974092,-0.17471481072688452,0.9739172111889646,0.7764591275897714,0.4847929505473627,-0.04241771363502972,0.2189415475870133,0.6946823891184667,0.38769309709071487,-0.005263057153362494,0.25044271593709894,0.9110426820401055,0.38785526146352467,0.24634920104645408,0.6524997058733821,0.8940851227753823,0.3463834466147896,0.2631812748458001,0.6358492079449936,0.9169025042197323,0.34701513524179656,0.24385415703816682,0.6415083581534838,0.9120767706882373,0.36722323102860777,0.3482371279732919,0.6672763780964527,0.9211109172716514,0.45206490710260394,0.24353818155776996,0.24787962526504995,0.9565353961713455,0.3601710545307644,0.24746012480719226,0.4049395237953544
41,0.4790784262256471,0.5917178921408555,-0.3606096289477508,1.0126723421735542,0.40631127112221005,0.5629898258789943,-0.3712942327301164,0.9834175214681067,0.48131470328812764,0.6017743639413146,-0.36997936624928174,1.015442406955141,0.4655516270308898,0.5930473147607807,-0.3717924314324551,0.97472575777874,0.481147144297844,0.625748689660324,-0.2957989557389013,0.9864734131106431,0.483934272982173,0.5821558500307787,-0.319333499580229,0.9573368788347142,0.4121586766537882,0.5516200539643248,-0.2970388850944646,1.0228613331220286,0.453043015454967,0.5472707636482842,-0.4026545673262786,1.049100024127844,0.5155501225421288,0.5930088614167104,-0.2345451249538596,0.9584489193165059,0.44748131546951525,0.526032152853013,-0.31803940323113045,0.9822448681427125,0.4506674344322198,0.5787739839352043,-0.34230717020696294,0.9613134605711241,0.39371913354160976,0.5766387665421612,-0.44757251477826815,1.0431594555151573,0.5248292908143412,0.5316888190390953,-0.18387358494261016,0.9570572893960198,0.503670330586431,0.5676282343949044,-0.4435480576280239,1.036437212282829,0.6126756176533835,0.5478134141241755,-0.11244815934849989,0.1197860427068111,0.4979238908229525,0.6781453872654462,-0.4656156258685182,0.9511948304068597,0.707478103883811,0.5782855487287483,-0.115183555401664,0.2705061429398909,0.47535050551071767,0.7164697920710054,-0.5040609483760792,0.9809159511121716,0.6686322809192575,0.6260015278018389,-0.08127979829052694,0.292904337524627,0.5152895895435936,0.6760663734992293,-0.5366712811099047,0.9622398364758387,0.6222919662739305,0.6464993925597214,-0.14217355242352842,0.35170651803825737,0.5406817697653761,0.6924409542568156,-0.42190322977040157,0.9775717125167322,0.6778396740158402,0.6138023789742906,-0.12475623261986905,0.40708534426089804,0.5634054636713903,0.43837875853824976,-0.3232015107077234,1.0437708466999587,0.6889247430009323,0.40630621474929207,-0.12161055833998913,0.976859236850433,0.6542730814165452,0.5670967129832759,-0.3573008203953405,0.9809454015041352,0.6709133215620107,0.4535412389993605,-0.1398664197557748,0.32584528868814416,0.7329474395713579,0.5116615592426079,-0.32251439314350594,0.9804067316874385,0.7807142666962796,0.4076953770328041,-0.10096968717897925,0.5591321888638778,0.7370429865541117,0.46266367311601836,-0.355336130221691,0.999847012194774,0.7886411314851024,0.4236140827646765,-0.04351441020396729,0.7189466909779224,0.7468736932975062,0.6206054146576119,-0.3719377209598289,0.9918822357100727,0.8346144203195897,0.43378669493260463,-0.15892391417407903,0.6933678899795891
42,0.5279858449272479,0.5921052627272507,-0.25929332070182104,1.0126723421735542,0.44909705012727424,0.5622031041726039,-0.2820796019940015,0.9834175214681067,0.524891407804929,0.6015115670624999,-0.2810974753579254,1.0154469369081438,0.5099754806389672,0.5930786071992877,-0.2832494823199363,0.97472575777874,0.5237906380966904,0.6205673174946441,-0.20406473390180585,0.9864734131106431,0.5263890983770122,0.575809445478319,-0.22753709694367447,0.957341170369138,0.45457553590902927,0.5444441911751707,-0.20514057198299498,1.0228613331220286,0.47611457671750673,0.5464671142227776,-0.3626099634057852,1.0491238659857542,0.5396398541397449,0.5824087713898549,-0.18211040114695407,0.958511742612099,0.49039499287212035,0.5298700363254556,-0.23483350865431704,0.9823308180404785,0.4926745101335295,0.5794718351162346,-0.2546377363719222,0.9614833338087341,0.43242526669832965,0.5897004091889507,-0.40291940761486184,1.0432104770910853,0.5312627242657376,0.514526853668917,-0.17343481553261691,0.9574012678010185,0.5405403915721937,0.576231628426429,-0.3842809610805645,1.0387907016817852,0.5511624868244438,0.4973524794851984,-0.06283586093665056,0.8889543898270962,0.529862005472012,0.6704644943211102,-0.4301815591695299,0.9549866990935357,0.6332743187591429,0.5132976508558235,0.020146416189151473,0.977172821130122,0.4999402694051156,0.7057392870813813,-0.4792607689606442,0.9878679984601941,0.5873927051677785,0.553342333332387,0.07285097526658711,0.9187020562879785,0.5447679174394608,0.6645286428054121,-0.5036355104575672,0.9675172913288965,0.5452522473838507,0.5806562276389146,0.015080201025399954,0.9635657502255286,0.5726094863198078,0.6863591347225139,-0.38606646023003005,0.98550687887568,0.5974892084150251,0.5540189202645738,0.01813623127446813,0.9739952833115724,0.5751193010608497,0.4377670658712423,-0.3402664136482952,1.0440324514858779,0.7081596390328283,0.4023374692792451,-0.11646774922527495,0.9769599687001034,0.6616835512719087,0.5741531876689449,-0.3955388990435502,0.982722633197403,0.7122556253036474,0.4742758769750533,-0.13786036050773806,0.36190544312616296,0.7250295862964664,0.5292249022907036,-0.37726006127136874,0.9829403463229061,0.8700720801326989,0.48288836495165793,-0.05801445181972418,0.8542985621167465,0.7270885715732154,0.48551248784189427,-0.413864479774786,1.0149058276740528,0.887938401886594,0.507915047835401,0.004657699234091428,0.9152463035000477,0.7276421420789186,0.6400167401123238,-0.4336368270016416,0.9997391411704304,0.9350375421065406,0.5303056287056453,-0.09440084997464704,0.9973003779442192
43,,,,,,,,,,,,,,,,,,,,,,,,,,,,,,,,,,,,,,,,,,,,,,,,,,,,,,,,,,,,,,,,,,,,,,,,,,,,,,,,,,,,,,,,,,,,,,,,,,,,,,,,,,,,,,,,,,,,,,,,,,,,,,,,,,,,
44,,,,,,,,,,,,,,,,,,,,,,,,,,,,,,,,,,,,,,,,,,,,,,,,,,,,,,,,,,,,,,,,,,,,,,,,,,,,,,,,,,,,,,,,,,,,,,,,,,,,,,,,,,,,,,,,,,,,,,,,,,,,,,,,,,,,
45,,,,,,,,,,,,,,,,,,,,,,,,,,,,,,,,,,,,,,,,,,,,,,,,,,,,,,,,,,,,,,,,,,,,,,,,,,,,,,,,,,,,,,,,,,,,,,,,,,,,,,,,,,,,,,,,,,,,,,,,,,,,,,,,,,,,
46,,,,,,,,,,,,,,,,,,,,,,,,,,,,,,,,,,,,,,,,,,,,,,,,,,,,,,,,,,,,,,,,,,,,,,,,,,,,,,,,,,,,,,,,,,,,,,,,,,,,,,,,,,,,,,,,,,,,,,,,,,,,,,,,,,,,
47,,,,,,,,,,,,,,,,,,,,,,,,,,,,,,,,,,,,,,,,,,,,,,,,,,,,,,,,,,,,,,,,,,,,,,,,,,,,,,,,,,,,,,,,,,,,,,,,,,,,,,,,,,,,,,,,,,,,,,,,,,,,,,,,,,,,
48,,,,,,,,,,,,,,,,,,,,,,,,,,,,,,,,,,,,,,,,,,,,,,,,,,,,,,,,,,,,,,,,,,,,,,,,,,,,,,,,,,,,,,,,,,,,,,,,,,,,,,,,,,,,,,,,,,,,,,,,,,,,,,,,,,,,
49,0.8080746717913423,0.34894057437848053,-0.07548361174031039,1.0126723421735542,0.740782103272945,0.3033763417347834,-0.09465011180518432,0.9834175214681067,0.8168912775657377,0.3425365380708006,-0.09382312994282102,1.0154469369081438,0.8023949108637891,0.33414160597095516,-0.0962584220765945,0.97472575777874,0.8181943457101126,0.36755501795698536,-0.016171147233427115,0.9864734131106431,0.8219691085980368,0.32419418940722833,-0.04014499309209056,0.957341170369138,0.7510135968341674,0.29420458050317355,-0.018367276353829374,1.0228613331220286,0.7687387411671734,0.30031504107786483,-0.1818092680681773,1.0491238659857542,0.8380445728410274,0.3485995982827076,-8.277425980068864e-05,0.958511742612099,0.763610451312287,0.3039476008033762,-0.05400553232673166,0.9823308180404785,0.7673313609573146,0.3558105315960318,-0.07372173581536846,0.9614833338087341,0.6548062841826395,0.38401518107959104,-0.24987014899138082,1.0432083313238731,0.8207713877493445,0.39888004432939367,-0.04834046818348756,0.9574221294266901,0.6942105841136039,0.3262427744950021,-0.13627306536964168,1.0364794719759747,0.8320023584002203,0.42961203911654605,0.012763635443963726,0.06017485632165631,0.7417118608519782,0.32445014366841557,0.0057845266323746205,0.7036482767951043,0.9050337317979178,0.39016995195750803,0.08547630194248745,0.06282856624897859,0.7320204096446733,0.3344935452372041,0.010767276516701818,0.6468461030515636,0.8616529028826955,0.42328416396745777,0.13187440576360743,0.027080976992104794,0.7834426019498558,0.286884521158531,-0.028191452686897038,0.6236771095013514,0.823866471397067,0.43556764440794227,0.0871935356704954,0.0761989338240469,0.7956108983241481,0.3178066883571574,0.04829814773199081,0.6085901723136378,0.8697540565361613,0.40638942082914903,0.08514541006872427,0.10631979263421577,0.6411985358414952,0.525494940388683,-0.3375748571627773,1.0440106361858899,0.7850617906984718,0.536952652155832,-0.17436145375142506,0.9769569884678647,0.6261683243171963,0.6362393526202693,-0.30745768614596697,0.9823559454227448,0.7106486039990749,0.6353790659666,-0.21911785578561394,0.988008307868442,0.5343148620326816,0.6778810321277398,-0.28359132805257853,0.9804832640513301,0.7347847003762111,0.7720115424800393,-0.23770270633282178,1.0158403220845504,0.5212293693040588,0.6705961155426999,-0.31347339665822044,1.010995524558208,0.7329302129617317,0.8253813664427313,-0.1857478804824279,1.0069044784916552,0.5027665510790266,0.7432664687919808,-0.2877542748301677,0.9834193894309283,0.761177294056723,0.8152313875442989,-0.280144971627163,0.9630733047516228
50,,,,,,,,,,,,,,,,,,,,,,,,,,,,,,,,,,,,,,,,,,,,,,,,,,,,,,,,,,,,,,,,,,,,,,,,,,,,,,,,,,,,,,,,,,,,,,,,,,,,,,,,,,,,,,,,,,,,,,,,,,,,,,,,,,,,
51,0.594055900664844,0.3169723682112595,-0.48934879873740367,1.0126723421735542,0.5396724452925223,0.2693166383847162,-0.48500270080793667,0.9834175214681067,0.6190133778186857,0.3079661719266203,-0.4854223851026378,1.0154452679780903,0.6076847170037163,0.29907038199672725,-0.48907869905135154,0.97472575777874,0.5998326596063719,0.3348023550598754,-0.4137171081569498,0.9864734131106431,0.5987802765179189,0.292268779374956,-0.4357623671139393,0.9573263884172336,0.523094404071992,0.26300402255601474,-0.41196684422192,1.0228613331220286,0.6393552488240921,0.2680752165444023,-0.4462221248369601,1.0491190976141722,0.6477763683781035,0.3218058799446949,-0.299637721455731,0.9584281769001238,0.5806908194169256,0.2737596661663065,-0.42371439103872216,0.9822619150711182,0.5628407103242573,0.32825289032825533,-0.452602074004887,0.9611640913313171,0.6106758467820662,0.3938307845742352,-0.41618972844528596,1.0430100266707056,0.6335328346056842,0.37643600474618755,-0.28118951816444127,0.955545954023095,0.6940181077699293,0.43427976942908414,-0.36032422552762866,0.6244065750185772,0.6398561732032578,0.44533842661730894,-0.2787471180305868,0.08930974079831801,0.6392375243275586,0.536516525838139,-0.44687011603807897,0.3648296074759514,0.6670629714843345,0.47453382973079294,-0.38817565588554254,0.08887883957799819,0.6240056762345597,0.572085646334311,-0.47615647052956034,0.2857223921808208,0.605998471166853,0.5300827531970416,-0.39607857503775434,0.0410632692568048,0.6557232474220213,0.5240776287635115,-0.5364917089947878,0.2992597568249597,0.5691937617234651,0.5399465532805466,-0.44795555493571904,0.0940087718806112,0.6809430783980268,0.546428826857371,-0.41712126333738375,0.3158879444827509,0.6390593036982669,0.5025642569879014,-0.4000241747147179,0.10453963286277336,0.6803487059914874,0.5490702463274038,-0.3259724105050968,1.0409836143009719,0.7443330267938479,0.5306702033872163,-0.18533938610725226,0.9739485036274718,0.7078842034751563,0.7129478482371822,-0.3590008376459528,0.06947708190927511,0.645225316827525,0.6163006920576034,-0.23466321893602993,0.06239788850565855,0.7108946503167006,0.7932559548801201,-0.25839571906828723,0.06071312012518636,0.6926517478491132,0.7418492080379007,-0.14417047338408456,0.08733996779454192,0.7011874466847414,0.7813370155823728,-0.285344283111164,0.0857429230538821,0.6924432330428485,0.7950953523626837,-0.08450664991819923,0.08475391504298777,0.6701568891145593,0.8915232475090218,-0.3327210665676438,0.07936365247194774,0.6874174531874013,0.7816281961685665,-0.2305540498601278,0.11395043031286012
52,,,,,,,,,,,,,,,,,,,,,,,,,,,,,,,,,,,,,,,,,,,,,,,,,,,,,,,,,,,,,,,,,,,,,,,,,,,,,,,,,,,,,,,,,,,,,,,,,,,,,,,,,,,,,,,,,,,,,,,,,,,,,,,,,,,,
53,,,,,,,,,,,,,,,,,,,,,,,,,,,,,,,,,,,,,,,,,,,,,,,,,,,,,,,,,,,,,,,,,,,,,,,,,,,,,,,,,,,,,,,,,,,,,,,,,,,,,,,,,,,,,,,,,,,,,,,,,,,,,,,,,,,,
54,,,,,,,,,,,,,,,,,,,,,,,,,,,,,,,,,,,,,,,,,,,,,,,,,,,,,,,,,,,,,,,,,,,,,,,,,,,,,,,,,,,,,,,,,,,,,,,,,,,,,,,,,,,,,,,,,,,,,,,,,,,,,,,,,,,,
55,,,,,,,,,,,,,,,,,,,,,,,,,,,,,,,,,,,,,,,,,,,,,,,,,,,,,,,,,,,,,,,,,,,,,,,,,,,,,,,,,,,,,,,,,,,,,,,,,,,,,,,,,,,,,,,,,,,,,,,,,,,,,,,,,,,,
56,,,,,,,,,,,,,,,,,,,,,,,,,,,,,,,,,,,,,,,,,,,,,,,,,,,,,,,,,,,,,,,,,,,,,,,,,,,,,,,,,,,,,,,,,,,,,,,,,,,,,,,,,,,,,,,,,,,,,,,,,,,,,,,,,,,,
57,,,,,,,,,,,,,,,,,,,,,,,,,,,,,,,,,,,,,,,,,,,,,,,,,,,,,,,,,,,,,,,,,,,,,,,,,,,,,,,,,,,,,,,,,,,,,,,,,,,,,,,,,,,,,,,,,,,,,,,,,,,,,,,,,,,,
58,,,,,,,,,,,,,,,,,,,,,,,,,,,,,,,,,,,,,,,,,,,,,,,,,,,,,,,,,,,,,,,,,,,,,,,,,,,,,,,,,,,,,,,,,,,,,,,,,,,,,,,,,,,,,,,,,,,,,,,,,,,,,,,,,,,,
59,,,,,,,,,,,,,,,,,,,,,,,,,,,,,,,,,,,,,,,,,,,,,,,,,,,,,,,,,,,,,,,,,,,,,,,,,,,,,,,,,,,,,,,,,,,,,,,,,,,,,,,,,,,,,,,,,,,,,,,,,,,,,,,,,,,,
60,,,,,,,,,,,,,,,,,,,,,,,,,,,,,,,,,,,,,,,,,,,,,,,,,,,,,,,,,,,,,,,,,,,,,,,,,,,,,,,,,,,,,,,,,,,,,,,,,,,,,,,,,,,,,,,,,,,,,,,,,,,,,,,,,,,,
61,,,,,,,,,,,,,,,,,,,,,,,,,,,,,,,,,,,,,,,,,,,,,,,,,,,,,,,,,,,,,,,,,,,,,,,,,,,,,,,,,,,,,,,,,,,,,,,,,,,,,,,,,,,,,,,,,,,,,,,,,,,,,,,,,,,,
62,,,,,,,,,,,,,,,,,,,,,,,,,,,,,,,,,,,,,,,,,,,,,,,,,,,,,,,,,,,,,,,,,,,,,,,,,,,,,,,,,,,,,,,,,,,,,,,,,,,,,,,,,,,,,,,,,,,,,,,,,,,,,,,,,,,,
63,,,,,,,,,,,,,,,,,,,,,,,,,,,,,,,,,,,,,,,,,,,,,,,,,,,,,,,,,,,,,,,,,,,,,,,,,,,,,,,,,,,,,,,,,,,,,,,,,,,,,,,,,,,,,,,,,,,,,,,,,,,,,,,,,,,,
