frame,NOSE.x,NOSE.y,NOSE.z,NOSE.v,LEFT_EYE_INNER.x,LEFT_EYE_INNER.y,LEFT_EYE_INNER.z,LEFT_EYE_INNER.v,LEFT_EYE.x,LEFT_EYE.y,LEFT_EYE.z,LEFT_EYE.v,LEFT_EYE_OUTER.x,LEFT_EYE_OUTER.y,LEFT_EYE_OUTER.z,LEFT_EYE_OUTER.v,RIGHT_EYE_INNER.x,RIGHT_EYE_INNER.y,RIGHT_EYE_INNER.z,RIGHT_EYE_INNER.v,RIGHT_EYE.x,RIGHT_EYE.y,RIGHT_EYE.z,RIGHT_EYE.v,RIGHT_EYE_OUTER.x,RIGHT_EYE_OUTER.y,RIGHT_EYE_OUTER.z,RIGHT_EYE_OUTER.v,LEFT_EAR.x,LEFT_EAR.y,LEFT_EAR.z,LEFT_EAR.v,RIGHT_EAR.x,RIGHT_EAR.y,RIGHT_EAR.z,RIGHT_EAR.v,MOUTH_LEFT.x,MOUTH_LEFT.y,MOUTH_LEFT.z,MOUTH_LEFT.v,MOUTH_RIGHT.x,MOUTH_RIGHT.y,MOUTH_RIGHT.z,MOUTH_RIGHT.v,LEFT_SHOULDER.x,LEFT_SHOULDER.y,LEFT_SHOULDER.z,LEFT_SHOULDER.v,RIGHT_SHOULDER.x,RIGHT_SHOULDER.y,RIGHT_SHOULDER.z,RIGHT_SHOULDER.v,LEFT_ELBOW.x,LEFT_ELBOW.y,LEFT_ELBOW.z,LEFT_ELBOW.v,RIGHT_ELBOW.x,RIGHT_ELBOW.y,RIGHT_ELBOW.z,RIGHT_ELBOW.v,LEFT_WRIST.x,LEFT_WRIST.y,LEFT_WRIST.z,LEFT_WRIST.v,RIGHT_WRIST.x,RIGHT_WRIST.y,RIGHT_WRIST.z,RIGHT_WRIST.v,LEFT_PINKY.x,LEFT_PINKY.y,LEFT_PINKY.z,LEFT_PINKY.v,RIGHT_PINKY.x,RIGHT_PINKY.y,RIGHT_PINKY.z,RIGHT_PINKY.v,LEFT_INDEX.x,LEFT_INDEX.y,LEFT_INDEX.z,LEFT_INDEX.v,RIGHT_INDEX.x,RIGHT_INDEX.y,RIGHT_INDEX.z,RIGHT_INDEX.v,LEFT_THUMB.x,LEFT_THUMB.y,LEFT_THUMB.z,LEFT_THUMB.v,RIGHT_THUMB.x,RIGHT_THUMB.y,RIGHT_THUMB.z,RIGHT_THUMB.v,LEFT_HIP.x,LEFT_HIP.y,LEFT_HIP.z,LEFT_HIP.v,RIGHT_HIP.x,RIGHT_HIP.y,RIGHT_HIP.z,RIGHT_HIP.v,LEFT_KNEE.x,LEFT_KNEE.y,LEFT_KNEE.z,LEFT_KNEE.v,RIGHT_KNEE.x,RIGHT_KNEE.y,RIGHT_KNEE.z,RIGHT_KNEE.v,LEFT_ANKLE.x,LEFT_ANKLE.y,LEFT_ANKLE.z,LEFT_ANKLE.v,RIGHT_ANKLE.x,RIGHT_ANKLE.y,RIGHT_ANKLE.z,RIGHT_ANKLE.v,LEFT_HEEL.x,LEFT_HEEL.y,LEFT_HEEL.z,LEFT_HEEL.v,RIGHT_HEEL.x,RIGHT_HEEL.y,RIGHT_HEEL.z,RIGHT_HEEL.v,LEFT_FOOT_INDEX.x,LEFT_FOOT_INDEX.y,LEFT_FOOT_INDEX.z,LEFT_FOOT_INDEX.v,RIGHT_FOOT_INDEX.x,RIGHT_FOOT_INDEX.y,RIGHT_FOOT_INDEX.z,RIGHT_FOOT_INDEX.v
0,0.21628817915916443,0.2917909026145935,0.32019421458244324,1.0,0.21450738608837128,0.2820061445236206,0.2957296669483185,1.0,0.21262457966804504,0.2827765643596649,0.2958577573299408,0.9999991655349731,0.21083864569664001,0.283359169960022,0.29574447870254517,1.0,0.22181065380573273,0.2803298830986023,0.3109552562236786,1.0,0.22455890476703644,0.279770165681839,0.3107782304286957,0.9999996423721313,0.2273285835981369,0.27943649888038635,0.3107375204563141,1.0,0.21274951100349426,0.29079920053482056,0.17953132092952728,0.9999977350234985,0.2355344593524933,0.284591943025589,0.2481616735458374,0.9999982118606567,0.21514979004859924,0.30456385016441345,0.2802394926548004,0.9999963045120239,0.22209171950817108,0.3022764325141907,0.3002443015575409,0.9999979734420776,0.19086287915706635,0.35840505361557007,0.055734626948833466,0.9999980926513672,0.28091415762901306,0.3350362777709961,0.2316168248653412,0.9999921321868896,0.14195849001407623,0.3998251259326935,0.10276822745800018,0.9949890971183777,0.3539876937866211,0.3568696975708008,0.19827313721179962,0.9962639212608337,0.13666260242462158,0.3677891492843628,0.2694990336894989,0.6995006799697876,0.4051920771598816,0.39905330538749695,0.13156452775001526,0.9802039265632629,0.1311807930469513,0.35433095693588257,0.27859798073768616,0.41843077540397644,0.42424440383911133,0.4109586477279663,0.14360983669757843,0.9451445937156677,0.14199823141098022,0.35323411226272583,0.2943161129951477,0.3774004876613617,0.42174363136291504,0.4101799726486206,0.12635043263435364,0.9440577030181885,0.1464284360408783,0.3567734360694885,0.28139880299568176,0.2808014750480652,0.411776065826416,0.40612873435020447,0.12767912447452545,0.9201767444610596,0.2780519723892212,0.5105084776878357,-0.08638696372509003,0.9998998641967773,0.315787672996521,0.4970265328884125,0.08658422529697418,0.9999446868896484,0.26058411598205566,0.6470346450805664,-0.0606994703412056,0.9999041557312012,0.28286945819854736,0.6292715072631836,0.09227746725082397,0.9285515546798706,0.2596184015274048,0.7739657759666443,-0.059798307716846466,0.9992069602012634,0.26373499631881714,0.766958475112915,0.12086745351552963,0.928169846534729,0.2670047879219055,0.7990753054618835,-0.0630761981010437,0.9930631518363953,0.26384228467941284,0.7974920272827148,0.12040331214666367,0.9379003643989563,0.225676491856575,0.7954866886138916,-0.12181031703948975,0.9900456070899963,0.2372056543827057,0.7844555377960205,0.09098413586616516,0.9031674265861511
1,0.21318939328193665,0.29504823684692383,0.002940060803666711,1.0,0.21069853007793427,0.28413039445877075,-0.020890463143587112,1.0,0.20973210036754608,0.28411054611206055,-0.02093857154250145,0.9999257326126099,0.2088548243045807,0.2840133309364319,-0.02095934934914112,1.0,0.21465227007865906,0.28407514095306396,-0.002554779639467597,1.0,0.2163599729537964,0.2839551866054535,-0.002529395744204521,0.9999088048934937,0.21812836825847626,0.2838849723339081,-0.0023957653902471066,1.0,0.21157535910606384,0.2901609539985657,-0.07668831944465637,0.9999465942382812,0.22489288449287415,0.28963151574134827,0.0064897798001766205,0.9998329877853394,0.2155410498380661,0.3067825734615326,-0.012508313171565533,0.9998055100440979,0.21894057095050812,0.3070060610771179,0.011619583703577518,0.9995179176330566,0.21454744040966034,0.350996196269989,-0.1334778219461441,0.9999481439590454,0.2668824791908264,0.34262344241142273,0.0625479593873024,0.9992632269859314,0.23776915669441223,0.39441177248954773,-0.17115990817546844,0.9600902199745178,0.3051895499229431,0.37145960330963135,0.05778467655181885,0.9150999784469604,0.25048360228538513,0.42169907689094543,-0.23636937141418457,0.880678653717041,0.3368118703365326,0.40524351596832275,-0.023052768781781197,0.6914704442024231,0.25435298681259155,0.42445045709609985,-0.27932482957839966,0.7339850068092346,0.31080418825149536,0.4171350598335266,-0.03562226891517639,0.5735945701599121,0.25419455766677856,0.4257929027080536,-0.2754554748535156,0.7235209345817566,0.30776509642601013,0.4172828793525696,-0.05981503799557686,0.57859867811203,0.25537532567977905,0.4253769814968109,-0.23688650131225586,0.6839766502380371,0.3103436827659607,0.4133947491645813,-0.03464656323194504,0.5790697336196899,0.28141915798187256,0.5354185700416565,-0.07884262502193451,0.9996615648269653,0.30052047967910767,0.5221229791641235,0.07936085015535355,0.9993396401405334,0.2514813244342804,0.6762093305587769,-0.1021018847823143,0.9975155591964722,0.25904935598373413,0.6546747088432312,0.05341525003314018,0.8277546763420105,0.272131085395813,0.8029642701148987,-0.08291531354188919,0.994211733341217,0.271497905254364,0.7903152108192444,0.11388514190912247,0.7434719800949097,0.28366973996162415,0.8262778520584106,-0.08638481795787811,0.9653505086898804,0.28031495213508606,0.8146318197250366,0.11462081968784332,0.7983409762382507,0.24545881152153015,0.8278048038482666,-0.15893706679344177,0.9689353108406067,0.2439248263835907,0.8243382573127747,0.061844777315855026,0.751534104347229
2,0.2121354043483734,0.3000456392765045,-0.24767836928367615,1.0,0.21447715163230896,0.28671708703041077,-0.2522456645965576,1.0,0.21595387160778046,0.2856377363204956,-0.25226837396621704,0.9999998807907104,0.2142122983932495,0.28435248136520386,-0.252323180437088,1.0,0.20916037261486053,0.288210928440094,-0.23523655533790588,1.0,0.20732125639915466,0.28822800517082214,-0.2350854128599167,0.9999998807907104,0.20546039938926697,0.28816816210746765,-0.23500406742095947,1.0,0.22661951184272766,0.28492143750190735,-0.2129323035478592,1.0,0.20966410636901855,0.2926892042160034,-0.1361747682094574,0.9999994039535522,0.22028887271881104,0.31029149889945984,-0.2284381091594696,0.9999997615814209,0.21434441208839417,0.311795175075531,-0.2056989222764969,0.9999977350234985,0.28165799379348755,0.3315373659133911,-0.17255476117134094,0.9999970197677612,0.20580115914344788,0.3448696434497833,-0.044303037226200104,0.9998419284820557,0.35359394550323486,0.37168270349502563,-0.17108774185180664,0.9984954595565796,0.15498313307762146,0.3709455728530884,-0.07905592024326324,0.9726406335830688,0.4092279374599457,0.41978946328163147,-0.22240880131721497,0.9905632734298706,0.14038027822971344,0.3671056926250458,-0.23046875,0.9500800371170044,0.42975935339927673,0.4260990023612976,-0.24414709210395813,0.9710596799850464,0.13118965923786163,0.36691153049468994,-0.2676372230052948,0.882391095161438,0.42266646027565,0.43314599990844727,-0.26997828483581543,0.9761233925819397,0.14144136011600494,0.3641059696674347,-0.28429943323135376,0.8929616212844849,0.4133000373840332,0.43454116582870483,-0.23410217463970184,0.9711705446243286,0.1466057002544403,0.3666318655014038,-0.24501030147075653,0.9061660170555115,0.30173057317733765,0.5269092321395874,-0.056812215596437454,0.9997071623802185,0.2623734474182129,0.5337454676628113,0.056974392384290695,0.9992753863334656,0.2845645248889923,0.6698948740959167,-0.09753429144620895,0.9822515249252319,0.23537671566009521,0.6594886183738708,-0.028589975088834763,0.8390995860099792,0.28424379229545593,0.8034736514091492,-0.036309968680143356,0.969515860080719,0.25632399320602417,0.7861488461494446,0.08850599825382233,0.680126965045929,0.286030113697052,0.8242785930633545,-0.037057049572467804,0.7789890766143799,0.2667214274406433,0.8014803528785706,0.09344025701284409,0.572384774684906,0.272899866104126,0.8374707698822021,-0.14536795020103455,0.935910701751709,0.2402866631746292,0.8264911770820618,0.0019473569700494409,0.7169881463050842
3,0.20890624821186066,0.29614612460136414,-0.15595144033432007,1.0,0.21250073611736298,0.2835758328437805,-0.15871642529964447,1.0,0.21518118679523468,0.2822771966457367,-0.15878622233867645,0.9999991655349731,0.21662989258766174,0.28081485629081726,-0.158877432346344,1.0,0.20563285052776337,0.28640884160995483,-0.1404186487197876,1.0,0.2034909427165985,0.28701600432395935,-0.1402290165424347,0.9999979734420776,0.20140036940574646,0.28764641284942627,-0.1402018964290619,1.0,0.22700092196464539,0.28263989090919495,-0.11720961332321167,0.9999997615814209,0.20492348074913025,0.2917279005050659,-0.035034723579883575,0.9999901056289673,0.21874532103538513,0.30538320541381836,-0.13750407099723816,0.9999972581863403,0.20994412899017334,0.3089032471179962,-0.11339010298252106,0.9999717473983765,0.2795594334602356,0.32689040899276733,-0.10247151553630829,0.9999874830245972,0.20095102488994598,0.3453191816806793,0.05500365421175957,0.9964349269866943,0.3474287688732147,0.3649965822696686,-0.09384487569332123,0.9993184804916382,0.16627562046051025,0.37030044198036194,0.04962383583188057,0.8069135546684265,0.39776140451431274,0.411687433719635,-0.1689085066318512,0.9993646740913391,0.13627369701862335,0.3596350848674774,-0.08230655640363693,0.8003048300743103,0.4191337525844574,0.41961631178855896,-0.19388146698474884,0.9983697533607483,0.12485899031162262,0.35809558629989624,-0.11755596101284027,0.6938090324401855,0.4070509970188141,0.4275864362716675,-0.221750408411026,0.9985923171043396,0.13191817700862885,0.35413891077041626,-0.1369677484035492,0.7236264944076538,0.3966580629348755,0.4285925030708313,-0.1806308627128601,0.9978885054588318,0.13699258863925934,0.3567533493041992,-0.09786336123943329,0.7486307621002197,0.2985721230506897,0.5260006785392761,-0.0668078362941742,0.9998581409454346,0.24891777336597443,0.5375055074691772,0.06704214960336685,0.9983466863632202,0.28782328963279724,0.6700302958488464,-0.11358852684497833,0.921960711479187,0.2242298573255539,0.6497756838798523,-0.06949719041585922,0.4848306477069855,0.28556257486343384,0.8071449398994446,-0.05625014379620552,0.7869763374328613,0.24876900017261505,0.7681363821029663,0.038080036640167236,0.32460862398147583,0.2881253659725189,0.8258630633354187,-0.051057763397693634,0.5309695601463318,0.26109522581100464,0.782594621181488,0.04257857799530029,0.34843021631240845,0.27401968836784363,0.851527214050293,-0.171847403049469,0.7106208205223083,0.23353596031665802,0.8146929144859314,-0.050002872943878174,0.3718746304512024
4,0.2036922425031662,0.2942967414855957,-0.15819880366325378,1.0,0.20849838852882385,0.2817055881023407,-0.1663595288991928,1.0,0.2115153819322586,0.2802903950214386,-0.16634595394134521,0.9999998807907104,0.21435420215129852,0.2787184715270996,-0.166444331407547,1.0,0.202679842710495,0.28456470370292664,-0.14162573218345642,1.0,0.2014170140028,0.2850932478904724,-0.14144815504550934,0.9999990463256836,0.20016710460186005,0.28574180603027344,-0.141410693526268,1.0,0.22701120376586914,0.27960723638534546,-0.14317776262760162,1.0,0.20800843834877014,0.28813284635543823,-0.0311798807233572,0.9999974966049194,0.21509377658367157,0.30325135588645935,-0.14694422483444214,0.9999991655349731,0.20739667117595673,0.3067626357078552,-0.11408515274524689,0.9999897480010986,0.2810359001159668,0.3277793228626251,-0.13149818778038025,0.9999943971633911,0.20530614256858826,0.34912505745887756,0.0661153793334961,0.9981507658958435,0.3500087857246399,0.3668941855430603,-0.15325181186199188,0.999734103679657,0.17239010334014893,0.3717142343521118,0.12459899485111237,0.6732531785964966,0.40529999136924744,0.41322630643844604,-0.2386322021484375,0.9987132549285889,0.14034810662269592,0.36380377411842346,0.05161531642079353,0.832955002784729,0.42915821075439453,0.421330064535141,-0.261444628238678,0.9946054816246033,0.12879367172718048,0.36416858434677124,0.03324732556939125,0.7489749789237976,0.41912126541137695,0.4298041760921478,-0.29246020317077637,0.9948833584785461,0.1358920782804489,0.3590940535068512,0.013676045462489128,0.7729876637458801,0.4085257053375244,0.4311116337776184,-0.2527712881565094,0.993966281414032,0.14025293290615082,0.3609805703163147,0.038535647094249725,0.7959741950035095,0.2940737307071686,0.5282629728317261,-0.07536047697067261,0.9999082088470459,0.24757179617881775,0.540727436542511,0.07563051581382751,0.9995819926261902,0.2869996130466461,0.6707732677459717,-0.11231502145528793,0.9821496605873108,0.22864583134651184,0.6582081317901611,-0.003409715835005045,0.321591854095459,0.2839697003364563,0.8076344728469849,-0.04036408290266991,0.9338089227676392,0.24858057498931885,0.788715660572052,0.09579752385616302,0.24911633133888245,0.28776031732559204,0.8276547193527222,-0.038902029395103455,0.6789343953132629,0.2593577206134796,0.8062788844108582,0.09641757607460022,0.28983274102211,0.2664748430252075,0.8517642617225647,-0.15153485536575317,0.8969770073890686,0.2304227352142334,0.8207672238349915,0.01820322871208191,0.35501113533973694
5,0.20231890678405762,0.2974660098552704,-0.12336218357086182,1.0,0.20715546607971191,0.28430262207984924,-0.13549835979938507,1.0,0.21011647582054138,0.28275373578071594,-0.13544371724128723,1.0,0.21314683556556702,0.2810182571411133,-0.13548225164413452,1.0,0.20225432515144348,0.28731387853622437,-0.10662023723125458,1.0,0.20153315365314484,0.28790464997291565,-0.1064935177564621,0.9999997615814209,0.20077116787433624,0.2886328101158142,-0.10644619166851044,1.0,0.22739264369010925,0.2820635437965393,-0.13458943367004395,1.0,0.21041050553321838,0.2913382947444916,-0.002695922739803791,0.9999997615814209,0.21407823264598846,0.30699294805526733,-0.12050019204616547,0.9999996423721313,0.20731981098651886,0.3108721077442169,-0.08176929503679276,0.9999967813491821,0.2806558907032013,0.3323444426059723,-0.1368158608675003,0.9999970197677612,0.21289154887199402,0.35611793398857117,0.09401018917560577,0.9995554089546204,0.35447925329208374,0.36470508575439453,-0.1896907389163971,0.9998176693916321,0.18690183758735657,0.37912383675575256,0.2440052032470703,0.6491729617118835,0.4182507395744324,0.41137728095054626,-0.27787041664123535,0.9966599941253662,0.14547276496887207,0.36930838227272034,0.34240788221359253,0.8635226488113403,0.44494256377220154,0.4135984778404236,-0.29510825872421265,0.9858689308166504,0.13248713314533234,0.3670543134212494,0.35275012254714966,0.8020221590995789,0.43711405992507935,0.42105981707572937,-0.3240797221660614,0.9866687059402466,0.13684627413749695,0.36109697818756104,0.3317084312438965,0.8243714570999146,0.42591986060142517,0.42420288920402527,-0.29274266958236694,0.9865878224372864,0.14098066091537476,0.3640667200088501,0.3321574032306671,0.8586081266403198,0.2949358820915222,0.5363830327987671,-0.08242644369602203,0.9998038411140442,0.2563807964324951,0.5442038178443909,0.08267303556203842,0.9996570348739624,0.2863085865974426,0.6860857009887695,-0.12119529396295547,0.9943602681159973,0.25253236293792725,0.6718743443489075,0.04382710158824921,0.25860515236854553,0.2927473783493042,0.8164519667625427,-0.04963696002960205,0.9692599773406982,0.26607605814933777,0.8116975426673889,0.11222843825817108,0.23195001482963562,0.2982816696166992,0.8326511383056641,-0.04884832352399826,0.8996853828430176,0.2830294072628021,0.830115020275116,0.10984830558300018,0.3787701725959778,0.28013160824775696,0.8630801439285278,-0.1442517787218094,0.9577385783195496,0.23149482905864716,0.8343778848648071,0.04883845895528793,0.3865998089313507
6,0.206731915473938,0.2979051172733307,-0.14655382931232452,1.0,0.2096709907054901,0.28548723459243774,-0.15835417807102203,1.0,0.21187667548656464,0.2842653691768646,-0.1584090292453766,0.9999927282333374,0.21389563381671906,0.28267377614974976,-0.15850169956684113,1.0,0.20596829056739807,0.28814801573753357,-0.13120482861995697,1.0,0.20525407791137695,0.289443701505661,-0.13101166486740112,0.9999867677688599,0.2044953554868698,0.29081395268440247,-0.13093765079975128,1.0,0.2280648648738861,0.28392115235328674,-0.15947559475898743,0.9999984502792358,0.2124292105436325,0.2931284010410309,-0.03330807387828827,0.9999825954437256,0.215865820646286,0.3077215552330017,-0.14476844668388367,0.9999796152114868,0.21152722835540771,0.311206191778183,-0.10768147557973862,0.9998680353164673,0.2792726159095764,0.33410558104515076,-0.17635688185691833,0.9999603033065796,0.2192040979862213,0.3592885136604309,0.05978141352534294,0.9948413968086243,0.3544190526008606,0.37008190155029297,-0.21616153419017792,0.9989516735076904,0.19858957827091217,0.38253453373908997,0.16553162038326263,0.6839238405227661,0.4092322885990143,0.41064032912254333,-0.28288525342941284,0.9924220442771912,0.1617984026670456,0.37986069917678833,0.2001827210187912,0.6935855746269226,0.4316375255584717,0.41318169236183167,-0.3086075484752655,0.9716872572898865,0.151187926530838,0.38070204854011536,0.22398324310779572,0.5863491892814636,0.42189502716064453,0.4200545847415924,-0.3303987383842468,0.9732191562652588,0.15459677577018738,0.3752671778202057,0.2481626570224762,0.6307687163352966,0.4116020202636719,0.422993540763855,-0.29388150572776794,0.9710192084312439,0.15876226127147675,0.3761215806007385,0.2009240686893463,0.6804996132850647,0.29438516497612,0.5361080169677734,-0.08299288898706436,0.9997780919075012,0.25834864377975464,0.5465244054794312,0.08321071416139603,0.9985151886940002,0.2834030091762543,0.6824512481689453,-0.1092117577791214,0.9866347908973694,0.24640166759490967,0.6721435189247131,0.09284400939941406,0.3793933689594269,0.28792858123779297,0.8132592439651489,-0.028543423861265182,0.942256510257721,0.26412278413772583,0.7881051301956177,0.22272498905658722,0.16760392487049103,0.29392895102500916,0.8325966596603394,-0.02522389218211174,0.7691994905471802,0.28218555450439453,0.8005157113075256,0.2292618751525879,0.299469918012619,0.2704661190509796,0.8568876385688782,-0.12216468155384064,0.9105481505393982,0.2345581352710724,0.8293567895889282,0.15691040456295013,0.3321566879749298
7,0.20803013443946838,0.30567046999931335,-0.08082028478384018,1.0,0.20750589668750763,0.2942555844783783,-0.09762170165777206,1.0,0.20848305523395538,0.2928771376609802,-0.09766632318496704,0.9997033476829529,0.2095578908920288,0.291412353515625,-0.097736656665802,1.0,0.20748090744018555,0.2964571416378021,-0.07034823298454285,1.0,0.2081081122159958,0.2968890368938446,-0.07025676220655441,0.9986904263496399,0.20880651473999023,0.2974102795124054,-0.07023299485445023,1.0,0.22052457928657532,0.29299649596214294,-0.12969262897968292,0.9997460246086121,0.2195357084274292,0.3001934885978699,-0.02437133714556694,0.9983094930648804,0.21757712960243225,0.3135186731815338,-0.08886967599391937,0.9986966252326965,0.2164805829524994,0.3170723617076874,-0.051779717206954956,0.9938070178031921,0.2557218670845032,0.3441305458545685,-0.14252367615699768,0.9997687935829163,0.2587105631828308,0.3568325340747833,0.04770795628428459,0.9979680180549622,0.3136528730392456,0.3779164254665375,-0.21060983836650848,0.9373502731323242,0.32171469926834106,0.3854838013648987,0.11339758336544037,0.7220655679702759,0.317426860332489,0.40320509672164917,-0.26030734181404114,0.784680187702179,0.3057878911495209,0.403038889169693,0.0647047832608223,0.843864917755127,0.32878807187080383,0.4075109660625458,-0.28583860397338867,0.6519064903259277,0.35520505905151367,0.41688528656959534,0.081656813621521,0.8461130261421204,0.3158496618270874,0.4084611237049103,-0.29607316851615906,0.6717531085014343,0.36392661929130554,0.407850056886673,0.0726720318198204,0.8501723408699036,0.3137158453464508,0.40876656770706177,-0.2651885151863098,0.6204826831817627,0.3537488281726837,0.4033152163028717,0.03838580101728439,0.7878722548484802,0.2833207845687866,0.5454887747764587,-0.08093126118183136,0.9985640645027161,0.2792666554450989,0.5448471903800964,0.08096063882112503,0.9960172772407532,0.2722553014755249,0.6927674412727356,-0.08353541791439056,0.5235503315925598,0.27667850255966187,0.6798335909843445,0.09209005534648895,0.16996149718761444,0.2914453446865082,0.8323802351951599,-0.014186869375407696,0.6355026960372925,0.2957614064216614,0.8085253238677979,0.18582990765571594,0.22126609086990356,0.30277061462402344,0.8498824238777161,-0.012661278247833252,0.32479235529899597,0.3077545762062073,0.8278496861457825,0.18795639276504517,0.24635888636112213,0.27242380380630493,0.8738381862640381,-0.11325864493846893,0.5244635343551636,0.2710549235343933,0.8463359475135803,0.10962288081645966,0.31658610701560974
8,0.207553893327713,0.30835917592048645,-0.15793682634830475,1.0,0.2072659283876419,0.29644590616226196,-0.16666129231452942,1.0,0.2084778994321823,0.2948182225227356,-0.1667024940252304,0.9998645782470703,0.2098781168460846,0.29305604100227356,-0.16680987179279327,1.0,0.20717096328735352,0.29970401525497437,-0.14057311415672302,1.0,0.20685994625091553,0.300430566072464,-0.14041724801063538,0.9995706677436829,0.20647382736206055,0.30127379298210144,-0.14036396145820618,1.0,0.22064796090126038,0.293272465467453,-0.15472282469272614,0.9999676942825317,0.21371254324913025,0.30299901962280273,-0.035524360835552216,0.9994024038314819,0.21738991141319275,0.3152529299259186,-0.14981740713119507,0.9997840523719788,0.21429356932640076,0.31964847445487976,-0.11515037715435028,0.9985502362251282,0.26492220163345337,0.3384062349796295,-0.1486707478761673,0.9999184608459473,0.22664932906627655,0.362488716840744,0.054276593029499054,0.9980995059013367,0.3327048420906067,0.3755044639110565,-0.1892753392457962,0.9932790398597717,0.20582011342048645,0.39504340291023254,0.12696155905723572,0.7534761428833008,0.3345748782157898,0.40424251556396484,-0.24452874064445496,0.9599413871765137,0.1904408186674118,0.39865005016326904,0.07654719054698944,0.6382377743721008,0.3509790301322937,0.407579630613327,-0.26786041259765625,0.8759059309959412,0.1933675855398178,0.40338122844696045,0.056447338312864304,0.46829691529273987,0.33216622471809387,0.40930959582328796,-0.28977271914482117,0.8882392644882202,0.20525658130645752,0.3966674208641052,0.031109798699617386,0.5120744705200195,0.33255186676979065,0.4088074564933777,-0.25464051961898804,0.8741071820259094,0.20852454006671906,0.3959333002567291,0.06118031591176987,0.5438475608825684,0.2837511897087097,0.5340287685394287,-0.07716906070709229,0.9990523457527161,0.2690199315547943,0.545828104019165,0.0773061066865921,0.9976226687431335,0.2812170684337616,0.6832601428031921,-0.09956368058919907,0.9439300298690796,0.2644846439361572,0.6785309314727783,0.0636872723698616,0.33794382214546204,0.29739511013031006,0.8255354166030884,-0.03715059533715248,0.9296218156814575,0.2919003367424011,0.8083784580230713,0.15308424830436707,0.35177847743034363,0.3040364980697632,0.8464429378509521,-0.03676486015319824,0.5876419544219971,0.3045286536216736,0.8292776346206665,0.15449687838554382,0.3871980905532837,0.285614013671875,0.8683668971061707,-0.1515386551618576,0.877191960811615,0.2710646390914917,0.8465430736541748,0.05604704096913338,0.43042322993278503
9,0.20218069851398468,0.3067706823348999,-0.046470291912555695,1.0,0.20346860587596893,0.29416677355766296,-0.06331898272037506,1.0,0.2049625813961029,0.2924066483974457,-0.0633397102355957,0.9999991655349731,0.20657582581043243,0.29055851697921753,-0.06338178366422653,1.0,0.20248989760875702,0.29714494943618774,-0.031468477100133896,1.0,0.20284347236156464,0.29767492413520813,-0.03141218051314354,0.9999983310699463,0.20322374999523163,0.29828616976737976,-0.031375106424093246,1.0,0.21893465518951416,0.29085585474967957,-0.14578744769096375,0.9999997615814209,0.2140793800354004,0.30024459958076477,0.04951302334666252,0.9999984502792358,0.21271352469921112,0.3141917288303375,-0.058294542133808136,0.9999890327453613,0.21001990139484406,0.31854936480522156,-0.014822001568973064,0.9999648332595825,0.25824862718582153,0.33520618081092834,-0.13974431157112122,0.999976396560669,0.24225154519081116,0.3618326485157013,0.11998090893030167,0.9994692206382751,0.3149802088737488,0.36545053124427795,-0.25180086493492126,0.9978724718093872,0.26192790269851685,0.3963225781917572,0.16522714495658875,0.5205093622207642,0.31739363074302673,0.4072316884994507,-0.32598957419395447,0.9833095669746399,0.2534279227256775,0.4136888086795807,0.08008618652820587,0.5618797540664673,0.3421233296394348,0.41513776779174805,-0.3577079474925995,0.9521971344947815,0.25240740180015564,0.42048418521881104,0.059903524816036224,0.5564413070678711,0.3316168487071991,0.4133357107639313,-0.3628961443901062,0.9538537859916687,0.2527816593647003,0.4162167012691498,0.036876946687698364,0.5735933184623718,0.3158411383628845,0.41184327006340027,-0.32834360003471375,0.943152666091919,0.2542782723903656,0.41247254610061646,0.06646502763032913,0.5624532699584961,0.2900407910346985,0.5366109013557434,-0.08983910083770752,0.9998917579650879,0.2764926552772522,0.5442214608192444,0.09004692733287811,0.9997884631156921,0.2728799879550934,0.683076798915863,-0.11698345094919205,0.981788694858551,0.27253037691116333,0.6845849752426147,0.07072918862104416,0.5875411629676819,0.2930811941623688,0.8218050599098206,-0.08115768432617188,0.9672063589096069,0.2964000999927521,0.8121741414070129,0.13402850925922394,0.5675185918807983,0.30410057306289673,0.8410598635673523,-0.0828065350651741,0.8123939633369446,0.309333860874176,0.8332721590995789,0.13436304032802582,0.6270776987075806,0.2704138457775116,0.8649939894676208,-0.1771887242794037,0.9431441426277161,0.26880332827568054,0.8475766777992249,0.058492302894592285,0.6886428594589233
10,0.21386420726776123,0.3068048357963562,-0.07636940479278564,1.0,0.21480241417884827,0.2947613000869751,-0.07745227217674255,1.0,0.21658162772655487,0.29344040155410767,-0.07678243517875671,0.9999754428863525,0.21845605969429016,0.2920374870300293,-0.0766700953245163,1.0,0.21166329085826874,0.29751697182655334,-0.05966035649180412,1.0,0.21094270050525665,0.29827335476875305,-0.05944797396659851,0.9999440908432007,0.21027667820453644,0.29910364747047424,-0.05945022776722908,1.0,0.22753575444221497,0.2957123816013336,-0.12629994750022888,0.9999936819076538,0.21610543131828308,0.30472052097320557,0.016944613307714462,0.9999467134475708,0.22290614247322083,0.3165667951107025,-0.06953676044940948,0.9998894929885864,0.21790778636932373,0.3207002580165863,-0.04715683311223984,0.9996057152748108,0.26473402976989746,0.34748220443725586,-0.13224346935749054,0.9999024868011475,0.23348399996757507,0.3686177134513855,0.08159889280796051,0.9990912675857544,0.3117755353450775,0.3871321678161621,-0.19720721244812012,0.9868283271789551,0.24482421576976776,0.4016105532646179,0.08682999759912491,0.8587015271186829,0.3135986924171448,0.41045650839805603,-0.2750110924243927,0.9424818754196167,0.2763109803199768,0.4019562005996704,-0.033990584313869476,0.7991832494735718,0.33706900477409363,0.4139951467514038,-0.3100658655166626,0.8751423358917236,0.2851298451423645,0.4075767397880554,-0.06462769210338593,0.7353041172027588,0.33088022470474243,0.41079607605934143,-0.3190077245235443,0.885996401309967,0.28821349143981934,0.4016593098640442,-0.08235497027635574,0.7397253513336182,0.31149911880493164,0.4107785224914551,-0.28021591901779175,0.8619129061698914,0.2854672372341156,0.3999205529689789,-0.04528369382023811,0.7154814600944519,0.29963916540145874,0.5475704073905945,-0.08141002058982849,0.9995385408401489,0.2781783938407898,0.55403733253479,0.08156327158212662,0.9995550513267517,0.27987995743751526,0.6885563135147095,-0.11498656123876572,0.9679887294769287,0.26961737871170044,0.6876198649406433,0.05774097889661789,0.6333665251731873,0.30271387100219727,0.8260021209716797,-0.08778829872608185,0.9438755512237549,0.2956239879131317,0.8176676630973816,0.11195152997970581,0.637234091758728,0.31243032217025757,0.8449580073356628,-0.09085291624069214,0.7137202620506287,0.3087616562843323,0.8389942646026611,0.11165893077850342,0.6482309699058533,0.2869178056716919,0.8687331080436707,-0.18600058555603027,0.8904786705970764,0.26834920048713684,0.8560575246810913,0.03828193247318268,0.6865028738975525
11,0.20937657356262207,0.3119760751724243,-0.011686887592077255,1.0,0.20924940705299377,0.30042746663093567,-0.03594140708446503,1.0,0.21067962050437927,0.29962584376335144,-0.03591796010732651,0.999627947807312,0.21295447647571564,0.29879945516586304,-0.035950735211372375,1.0,0.20961546897888184,0.3015536963939667,-0.010943248867988586,1.0,0.21071264147758484,0.3015578091144562,-0.010893508791923523,0.9996082186698914,0.21200235188007355,0.30169910192489624,-0.01090097427368164,1.0,0.2271265685558319,0.3028808534145355,-0.10451678931713104,0.9991413354873657,0.2226955145597458,0.30590716004371643,0.02395203709602356,0.9996505975723267,0.21744203567504883,0.32159072160720825,-0.031222417950630188,0.9975413084030151,0.21742884814739227,0.3234749436378479,0.003463578876107931,0.996508777141571,0.22805288434028625,0.3582611680030823,-0.1634170562028885,0.9998476505279541,0.2792748510837555,0.36057746410369873,0.07104197889566422,0.9997907280921936,0.188455730676651,0.38950225710868835,-0.27295202016830444,0.9920200705528259,0.34753718972206116,0.3862505257129669,0.0899059921503067,0.8275135159492493,0.14230403304100037,0.40080341696739197,-0.3039519488811493,0.9078847169876099,0.407676637172699,0.38333719968795776,0.015623567625880241,0.8604055047035217,0.1342254877090454,0.40576839447021484,-0.3382643461227417,0.7972626686096191,0.4276649057865143,0.39136016368865967,-0.0016647065058350563,0.842870831489563,0.13232117891311646,0.401618629693985,-0.33183878660202026,0.7870822548866272,0.42626023292541504,0.3834998905658722,-0.01961781457066536,0.8398478031158447,0.13825157284736633,0.3991766571998596,-0.30129003524780273,0.6702109575271606,0.416797399520874,0.38061273097991943,0.007345589343458414,0.7624703049659729,0.296532541513443,0.5487343072891235,-0.08210965245962143,0.9995554089546204,0.3003248870372772,0.5449583530426025,0.08205042034387589,0.9995113611221313,0.27871280908584595,0.6886911392211914,-0.08127675950527191,0.8784680962562561,0.28763771057128906,0.6780094504356384,0.1092880368232727,0.38005223870277405,0.298226535320282,0.8230616450309753,-0.03406732156872749,0.8839800953865051,0.29638275504112244,0.8091131448745728,0.16936013102531433,0.36032164096832275,0.3102644383907318,0.8464509844779968,-0.03737787529826164,0.6359369158744812,0.3041902482509613,0.8322361707687378,0.16868513822555542,0.4765527844429016,0.2606212794780731,0.8515167832374573,-0.17251798510551453,0.6888928413391113,0.2707992494106293,0.8412613272666931,0.09183292835950851,0.4217953085899353
12,0.20830412209033966,0.3113444149494171,-0.22974388301372528,1.0,0.2104671746492386,0.29962587356567383,-0.22781574726104736,1.0,0.21308664977550507,0.29838675260543823,-0.22785857319831848,0.9999997615814209,0.21600337326526642,0.2970532178878784,-0.22791962325572968,1.0,0.20506104826927185,0.3020072281360626,-0.20674879848957062,1.0,0.2034728080034256,0.3022272288799286,-0.2065552920103073,0.9999995231628418,0.20180554687976837,0.3023240864276886,-0.20650561153888702,1.0,0.2295723706483841,0.30182895064353943,-0.18067723512649536,0.9999998807907104,0.20800264179706573,0.3079579472541809,-0.08155996352434158,0.9999986886978149,0.21954429149627686,0.3206556439399719,-0.21044249832630157,0.9999992847442627,0.21228332817554474,0.3241477310657501,-0.18100731074810028,0.9999942779541016,0.23789186775684357,0.3548275828361511,-0.16868171095848083,0.9999954700469971,0.22960004210472107,0.3694017231464386,0.023346083238720894,0.9995763897895813,0.21812331676483154,0.3857979476451874,-0.21236804127693176,0.9995409250259399,0.21322870254516602,0.40309077501296997,0.11227945983409882,0.9104374051094055,0.16743026673793793,0.4051026403903961,-0.26518502831459045,0.9804574847221375,0.20796315371990204,0.3848952353000641,0.17426565289497375,0.8495672941207886,0.20658418536186218,0.41106781363487244,-0.287960022687912,0.9244021773338318,0.20692245662212372,0.39207467436790466,0.17280590534210205,0.7211974859237671,0.1982872188091278,0.4091329872608185,-0.30996641516685486,0.9347872734069824,0.21204420924186707,0.3840748965740204,0.14918309450149536,0.7521392703056335,0.18280354142189026,0.40494880080223083,-0.27561476826667786,0.9391976594924927,0.21311180293560028,0.3812887966632843,0.16369663178920746,0.80122971534729,0.3071761131286621,0.5424588322639465,-0.08070682734251022,0.9997279047966003,0.2985198497772217,0.5534436702728271,0.08079103380441666,0.9993559718132019,0.2947627604007721,0.6861950159072876,-0.09343549609184265,0.9923727512359619,0.2761542797088623,0.6852449774742126,0.09931783378124237,0.4976605474948883,0.30425506830215454,0.8207237720489502,-0.01792585849761963,0.9569328427314758,0.2921491265296936,0.8083962798118591,0.20523026585578918,0.34609106183052063,0.31274694204330444,0.8424327373504639,-0.01655944250524044,0.7985032200813293,0.30297037959098816,0.830947756767273,0.20963099598884583,0.3988248407840729,0.28017503023147583,0.8607075810432434,-0.1350809633731842,0.9283850789070129,0.2672816812992096,0.8441854119300842,0.12663133442401886,0.48117727041244507
13,0.21559736132621765,0.31519728899002075,-0.25015559792518616,1.0,0.21742093563079834,0.30186715722084045,-0.24401259422302246,1.0,0.22017352283000946,0.29994598031044006,-0.24403926730155945,0.9999997615814209,0.22270479798316956,0.2978881299495697,-0.24413999915122986,1.0,0.20983025431632996,0.30688270926475525,-0.22945848107337952,1.0,0.2069084197282791,0.3084452450275421,-0.22936446964740753,0.9999992847442627,0.20387351512908936,0.3099729120731354,-0.2293664664030075,1.0,0.2350626438856125,0.30261051654815674,-0.17337386310100555,0.9999997615814209,0.20606620609760284,0.3174223005771637,-0.10063252598047256,0.999995231628418,0.22780387103557587,0.3244398832321167,-0.22128739953041077,0.9999980926513672,0.21687054634094238,0.331167608499527,-0.2003014087677002,0.9999858140945435,0.2675672173500061,0.3522917628288269,-0.16234487295150757,0.9999816417694092,0.21474626660346985,0.38178664445877075,0.01488668005913496,0.9996936321258545,0.3348741829395294,0.38029956817626953,-0.19936273992061615,0.9904637336730957,0.18132351338863373,0.4130893051624298,0.04290801286697388,0.827716588973999,0.3847818970680237,0.39487650990486145,-0.30180245637893677,0.8789596557617188,0.13547489047050476,0.4099053740501404,-0.10645025968551636,0.854775071144104,0.40836018323898315,0.39489325881004333,-0.3319877088069916,0.7105424404144287,0.11811316013336182,0.4115711748600006,-0.13027030229568481,0.7532012462615967,0.399928480386734,0.3957153260707855,-0.35932832956314087,0.7529110312461853,0.1222786083817482,0.40243208408355713,-0.16055887937545776,0.7851243615150452,0.3900083601474762,0.3991706669330597,-0.31846126914024353,0.7623798251152039,0.12916062772274017,0.40387603640556335,-0.12620022892951965,0.8136487007141113,0.31384602189064026,0.5400404334068298,-0.07389510422945023,0.9988646507263184,0.2816166877746582,0.5580788850784302,0.0741041824221611,0.9988840222358704,0.3072863519191742,0.6770792007446289,-0.13404269516468048,0.9461544156074524,0.26163503527641296,0.6807601451873779,0.015181022696197033,0.18758241832256317,0.3216403126716614,0.8079463243484497,-0.057107508182525635,0.8179873824119568,0.2899719476699829,0.8033846616744995,0.12899170815944672,0.19829338788986206,0.3185485899448395,0.8279961347579956,-0.0570349283516407,0.48504653573036194,0.3039381504058838,0.8235327005386353,0.13269302248954773,0.2993939518928528,0.3141554296016693,0.8507793545722961,-0.16798798739910126,0.7077550888061523,0.2635419964790344,0.8438388705253601,0.03831992298364639,0.26392170786857605
14,0.2236556112766266,0.32284438610076904,-0.23548126220703125,1.0,0.22781607508659363,0.30780306458473206,-0.23486807942390442,1.0,0.2314685881137848,0.3062095642089844,-0.23493115603923798,0.9999988079071045,0.23513102531433105,0.30453136563301086,-0.2349795550107956,1.0,0.21881596744060516,0.31209704279899597,-0.21372902393341064,1.0,0.2158716917037964,0.31336307525634766,-0.21368888020515442,0.9999951124191284,0.2128964364528656,0.31473273038864136,-0.213699609041214,1.0,0.24667799472808838,0.30860990285873413,-0.1857963651418686,0.9999903440475464,0.2160194218158722,0.3210972845554352,-0.08900289982557297,0.9999792575836182,0.2358810156583786,0.33323395252227783,-0.21698053181171417,0.9999697208404541,0.22378604114055634,0.33860835433006287,-0.18831820785999298,0.9999462366104126,0.27189502120018005,0.36413246393203735,-0.25154227018356323,0.9998534917831421,0.23584696650505066,0.38662973046302795,0.017140649259090424,0.9992927312850952,0.22836676239967346,0.40786778926849365,-0.3544274866580963,0.9905327558517456,0.21144986152648926,0.43852755427360535,0.07680511474609375,0.0711623877286911,0.15340468287467957,0.42586296796798706,-0.3846721947193146,0.8874301910400391,0.17113779485225677,0.44711369276046753,0.01332792080938816,0.12431047111749649,0.13791492581367493,0.42786604166030884,-0.4356800615787506,0.641219973564148,0.15563561022281647,0.4493938088417053,-0.020687665790319443,0.14375796914100647,0.13400807976722717,0.4233933985233307,-0.41898760199546814,0.624873161315918,0.15748471021652222,0.4428439438343048,-0.03323059529066086,0.15667246282100677,0.14072613418102264,0.4240815043449402,-0.382153183221817,0.5913991332054138,0.1634909212589264,0.4419047236442566,-0.00030269159469753504,0.17000286281108856,0.3258167803287506,0.5420146584510803,-0.0777072086930275,0.9969887137413025,0.29237741231918335,0.5532581806182861,0.07769830524921417,0.997527539730072,0.3425047695636749,0.6725206971168518,-0.12174222618341446,0.9221380949020386,0.2635573744773865,0.6829066872596741,0.01819046400487423,0.2535989284515381,0.3784180283546448,0.8014692068099976,-0.0212064478546381,0.9083131551742554,0.27854102849960327,0.8111825585365295,0.1298951804637909,0.279081255197525,0.387265145778656,0.8228942155838013,-0.018712397664785385,0.4598209857940674,0.2887824475765228,0.8329191207885742,0.13406027853488922,0.2850601077079773,0.36631935834884644,0.8339906334877014,-0.13475564122200012,0.8292047381401062,0.24585267901420593,0.8464365005493164,0.03467859327793121,0.46225398778915405
15,0.23912975192070007,0.32481059432029724,-0.3097163438796997,1.0,0.242356538772583,0.30934083461761475,-0.3041689991950989,1.0,0.24644377827644348,0.30773815512657166,-0.3042701184749603,0.999981164932251,0.2505423128604889,0.30606895685195923,-0.3043510615825653,1.0,0.23117609322071075,0.3138146996498108,-0.2948797345161438,1.0,0.22695183753967285,0.3153657615184784,-0.2948417067527771,0.9999539852142334,0.22265872359275818,0.31702306866645813,-0.2948680520057678,1.0,0.2587527632713318,0.31132936477661133,-0.2226473093032837,0.999982476234436,0.21972675621509552,0.32593098282814026,-0.17910483479499817,0.9999219179153442,0.2503742575645447,0.3363867402076721,-0.2762899696826935,0.9999159574508667,0.23542968928813934,0.3421939015388489,-0.26359328627586365,0.9998078942298889,0.2959677577018738,0.3727115988731384,-0.2134857177734375,0.9997135996818542,0.22632133960723877,0.39430445432662964,-0.06562145799398422,0.9993934631347656,0.24559609591960907,0.43936887383461,-0.29845815896987915,0.8302772045135498,0.20171864330768585,0.4513329863548279,-0.10223545879125595,0.7804617285728455,0.26465871930122375,0.4588260352611542,-0.3712754547595978,0.41715332865715027,0.21947774291038513,0.4473649263381958,-0.27216190099716187,0.5378714799880981,0.26133209466934204,0.46362850069999695,-0.41528016328811646,0.2449728101491928,0.22023478150367737,0.45111024379730225,-0.30930501222610474,0.4380892217159271,0.25404882431030273,0.4559415578842163,-0.410957008600235,0.26238563656806946,0.222182959318161,0.44330015778541565,-0.32219842076301575,0.4375346302986145,0.2565378248691559,0.45484739542007446,-0.37311670184135437,0.2503679692745209,0.22415348887443542,0.44229188561439514,-0.2822018265724182,0.4302443861961365,0.3337358832359314,0.5454134345054626,-0.05656272917985916,0.9973853230476379,0.29041430354118347,0.5573323965072632,0.056658994406461716,0.9983507394790649,0.3313440978527069,0.6775804758071899,-0.12210552394390106,0.8880248665809631,0.262825071811676,0.6851621866226196,-0.017705881968140602,0.5907493233680725,0.34080615639686584,0.8052098751068115,-0.014054720290005207,0.7028892636299133,0.27618730068206787,0.8154506683349609,0.11856945604085922,0.3371421992778778,0.346260130405426,0.8258508443832397,-0.009851244278252125,0.3640638589859009,0.28715091943740845,0.8364388942718506,0.12574449181556702,0.32798197865486145,0.32869240641593933,0.847387969493866,-0.12385620176792145,0.5567430853843689,0.24898497760295868,0.8489357829093933,0.02254492975771427,0.34417784214019775
16,0.2619606554508209,0.3246219754219055,-0.29533904790878296,1.0,0.2649959921836853,0.31105855107307434,-0.2824347913265228,1.0,0.26883918046951294,0.30972006916999817,-0.28252315521240234,0.9999287128448486,0.2727166414260864,0.30830371379852295,-0.28257274627685547,1.0,0.25419801473617554,0.3150627911090851,-0.2759270668029785,1.0,0.2501046359539032,0.31663018465042114,-0.2759155333042145,0.9998981952667236,0.2459789216518402,0.31828832626342773,-0.2759462296962738,1.0,0.2791155278682709,0.3155418038368225,-0.18735921382904053,0.9999252557754517,0.24295732378959656,0.32893985509872437,-0.1550365388393402,0.9996520280838013,0.2720564901828766,0.33715716004371643,-0.25855883955955505,0.9997367262840271,0.2574751377105713,0.34246328473091125,-0.2493971586227417,0.9994673132896423,0.3173944354057312,0.38052433729171753,-0.16591516137123108,0.9990955591201782,0.23836150765419006,0.40871772170066833,-0.05592440441250801,0.9983589053153992,0.3444627523422241,0.44923093914985657,-0.24770066142082214,0.8018430471420288,0.24541082978248596,0.4865964651107788,-0.09060459583997726,0.570277988910675,0.3239337205886841,0.4542146325111389,-0.40057826042175293,0.5894914865493774,0.24522046744823456,0.4910222589969635,-0.26830214262008667,0.5090302228927612,0.317432165145874,0.45618143677711487,-0.45177707076072693,0.4063659906387329,0.2556273937225342,0.49787408113479614,-0.30814674496650696,0.47979581356048584,0.31010568141937256,0.4484102129936218,-0.44987887144088745,0.418657511472702,0.258419007062912,0.4881421625614166,-0.3271956443786621,0.4786888062953949,0.31109970808029175,0.448995977640152,-0.40518274903297424,0.4067234694957733,0.25566115975379944,0.483879953622818,-0.2804539203643799,0.4582080841064453,0.3401764929294586,0.5508010387420654,-0.04419269412755966,0.9977655410766602,0.2908230721950531,0.5615955591201782,0.044386837631464005,0.9987536668777466,0.3353295624256134,0.6758391261100769,-0.18250678479671478,0.8288112878799438,0.25801438093185425,0.6817972660064697,-0.10361135005950928,0.7659711241722107,0.34731897711753845,0.8075622916221619,-0.04096440225839615,0.6608263850212097,0.27131038904190063,0.8196934461593628,-0.002018215600401163,0.5003216862678528,0.3493734896183014,0.8275362849235535,-0.05592834949493408,0.31901001930236816,0.28249073028564453,0.8422645330429077,0.001836534240283072,0.4013523757457733,0.3425503969192505,0.8500720858573914,-0.1881571263074875,0.538384199142456,0.24753668904304504,0.8659762740135193,-0.11567018181085587,0.43797874450683594
17,0.2885674834251404,0.3214069604873657,-0.30892524123191833,1.0,0.2921752333641052,0.30830949544906616,-0.293378621339798,1.0,0.29639679193496704,0.30815523862838745,-0.29342737793922424,0.9998781681060791,0.30065739154815674,0.3079138398170471,-0.2934134304523468,1.0,0.2794853150844574,0.3090730905532837,-0.29407256841659546,1.0,0.2743780314922333,0.30946084856987,-0.2940245568752289,0.9998806715011597,0.26924270391464233,0.309953510761261,-0.29409605264663696,1.0,0.30272147059440613,0.3173702657222748,-0.18479587137699127,0.9999332427978516,0.25985580682754517,0.32057079672813416,-0.19009841978549957,0.9997944235801697,0.29534095525741577,0.33829668164253235,-0.26715466380119324,0.9998617172241211,0.2782456576824188,0.3392902612686157,-0.26853883266448975,0.9997223019599915,0.3348340392112732,0.38860607147216797,-0.16113059222698212,0.9997394680976868,0.23648443818092346,0.4054962396621704,-0.08996779471635818,0.998995840549469,0.3947295844554901,0.44524145126342773,-0.2552332282066345,0.9373482465744019,0.2006339281797409,0.47994792461395264,-0.1676771193742752,0.8354519009590149,0.36930742859840393,0.441257119178772,-0.43817371129989624,0.8096538186073303,0.20329943299293518,0.4849030673503876,-0.3682880103588104,0.6184364557266235,0.36391791701316833,0.4415341019630432,-0.4849388599395752,0.6817668676376343,0.20225155353546143,0.4899996519088745,-0.41097790002822876,0.54844069480896,0.35303646326065063,0.43175607919692993,-0.47623246908187866,0.7185283303260803,0.20942337810993195,0.4788246154785156,-0.41851502656936646,0.5706839561462402,0.3537386357784271,0.4350448548793793,-0.4391532838344574,0.6684805750846863,0.21278917789459229,0.47880950570106506,-0.3761150538921356,0.5478665828704834,0.3406774401664734,0.588086724281311,-0.0349513441324234,0.9979220032691956,0.2847138047218323,0.596074640750885,0.03524421527981758,0.9968767166137695,0.3271726667881012,0.7054694294929504,-0.16140849888324738,0.9189532995223999,0.2560451328754425,0.7088594436645508,-0.1261519193649292,0.9118664860725403,0.3283231854438782,0.8189617991447449,0.01994512230157852,0.7286449074745178,0.2749021649360657,0.8196865916252136,0.06749619543552399,0.7805708646774292,0.33072835206985474,0.8344799876213074,0.032608069479465485,0.4459110498428345,0.28733325004577637,0.8346962332725525,0.07943779975175858,0.5974487662315369,0.31833916902542114,0.872808039188385,-0.07926566898822784,0.6858949661254883,0.25710776448249817,0.875956654548645,-0.021752119064331055,0.7236128449440002
18
19
20,0.2599307596683502,0.6915145516395569,-0.04949793219566345,1.0,0.25507059693336487,0.6998310089111328,-0.07761221379041672,1.0,0.2564801573753357,0.7021610736846924,-0.07740979641675949,0.9999790191650391,0.25792840123176575,0.704291582107544,-0.07754312455654144,1.0,0.25149261951446533,0.691260039806366,-0.06961996108293533,1.0,0.25034695863723755,0.6881198883056641,-0.06955878436565399,0.9999865293502808,0.2493676245212555,0.6848227977752686,-0.06962910294532776,1.0,0.2689134180545807,0.6990784406661987,-0.15426579117774963,0.9999837875366211,0.256351500749588,0.6708410382270813,-0.11772508919239044,0.9999871253967285,0.2727389335632324,0.6861429214477539,-0.06880611926317215,0.9998350143432617,0.2689809799194336,0.6785741448402405,-0.057153284549713135,0.9997230172157288,0.3322511911392212,0.7014118432998657,-0.16465632617473602,0.99834144115448,0.2859680652618408,0.5918978452682495,-0.08791742473840714,0.9990026354789734,0.3349480926990509,0.7564671039581299,-0.03730054944753647,0.5451489686965942,0.259649395942688,0.6081910729408264,0.005115665029734373,0.6329410672187805,0.26100242137908936,0.7787548303604126,0.13215887546539307,0.48045825958251953,0.20760540664196014,0.6824959516525269,0.0520811453461647,0.5578929781913757,0.24474701285362244,0.79237961769104,0.12268561124801636,0.5133072733879089,0.18979164958000183,0.6884149312973022,0.054136693477630615,0.6255467534065247,0.23735614120960236,0.7805036902427673,0.12791807949543,0.5247521996498108,0.19245153665542603,0.7045528292655945,0.03383287042379379,0.6054821610450745,0.2433258593082428,0.7707176208496094,0.13523826003074646,0.5127249956130981,0.20157372951507568,0.7048793435096741,0.04438909515738487,0.5897663831710815,0.4878535866737366,0.5697234272956848,-0.0435287207365036,0.9999120235443115,0.45907288789749146,0.5115087032318115,0.04401665925979614,0.9997547268867493,0.5544273853302002,0.5979732275009155,0.19428855180740356,0.4189000427722931,0.5082297921180725,0.5101364254951477,0.3065170645713806,0.09565509110689163,0.6126186847686768,0.6153836846351624,0.4091266095638275,0.48205453157424927,0.5666036009788513,0.5119962096214294,0.559539258480072,0.10840102285146713,0.6233460903167725,0.6081880927085876,0.4309875965118408,0.5501341819763184,0.5790277719497681,0.5108835697174072,0.5848902463912964,0.11147896200418472,0.6189432144165039,0.6548011302947998,0.4188677668571472,0.5160855054855347,0.5697386264801025,0.5146299004554749,0.5920478105545044,0.12177577614784241
21,0.2492334395647049,0.7527740597724915,-0.5029631853103638,1.0,0.24253706634044647,0.7539127469062805,-0.5334954857826233,1.0,0.2431977242231369,0.7544176578521729,-0.5333070755004883,0.9999997615814209,0.24383442103862762,0.754689633846283,-0.5332905054092407,1.0,0.24058941006660461,0.7480132579803467,-0.5181163549423218,1.0,0.24036748707294464,0.7455901503562927,-0.5178400278091431,0.9999994039535522,0.24023893475532532,0.7430325746536255,-0.5175983905792236,1.0,0.25369125604629517,0.7420164346694946,-0.5260684490203857,0.9999996423721313,0.24315328896045685,0.7215282917022705,-0.45660895109176636,0.9999967813491821,0.2614523470401764,0.7408834099769592,-0.48440656065940857,0.9999915361404419,0.2615719139575958,0.737237811088562,-0.463909775018692,0.9999856948852539,0.3313899636268616,0.7453975677490234,-0.4068601131439209,0.9998056292533875,0.259086012840271,0.6134212613105774,-0.3295260965824127,0.9995700716972351,0.42138153314590454,0.7302815914154053,-0.26372280716896057,0.8183853030204773,0.2691393494606018,0.5505914092063904,-0.19928190112113953,0.8224173784255981,0.44347745180130005,0.731112539768219,-0.19778136909008026,0.7942885160446167,0.235602468252182,0.5926035642623901,-0.1769578456878662,0.5869703888893127,0.4508812427520752,0.727341890335083,-0.21972107887268066,0.7555118203163147,0.22134236991405487,0.5917850732803345,-0.19309191405773163,0.6010050773620605,0.4466138482093811,0.7193654179573059,-0.22933092713356018,0.7613603472709656,0.22563107311725616,0.6167985200881958,-0.2117416113615036,0.5781624913215637,0.44142359495162964,0.7137922644615173,-0.1998986303806305,0.6290287375450134,0.23394867777824402,0.6195113658905029,-0.18388883769512177,0.49728989601135254,0.47262710332870483,0.615506112575531,-0.02665533684194088,0.9999581575393677,0.42735451459884644,0.5435949563980103,0.027181178331375122,0.9998596906661987,0.5345971584320068,0.5848482847213745,0.3062359690666199,0.31367143988609314,0.49096131324768066,0.5212380290031433,0.3591515123844147,0.3593832850456238,0.6091861724853516,0.5632936954498291,0.6525397896766663,0.6939493417739868,0.5617841482162476,0.49585026502609253,0.7056653499603271,0.48357459902763367,0.6237592101097107,0.5554782748222351,0.6905259490013123,0.7016252875328064,0.5779868960380554,0.48378267884254456,0.7453523278236389,0.5674200654029846,0.6176311373710632,0.5779111385345459,0.686008870601654,0.4689479172229767,0.5667954683303833,0.4987953305244446,0.7476173639297485,0.32814422249794006
22
23
24
25
26
27
28
29
30
31
32
33
34
35
36
37
38
39
40,0.5540426969528198,0.5759174227714539,-0.677580714225769,1.0,0.5573680400848389,0.575806200504303,-0.6974536180496216,1.0,0.5589038729667664,0.5776923894882202,-0.6972901821136475,0.9985893368721008,0.560257613658905,0.5794528126716614,-0.6971812844276428,1.0,0.5538930892944336,0.5678260922431946,-0.688847005367279,1.0,0.5534754395484924,0.565008819103241,-0.6887742280960083,0.9975958466529846,0.5531657338142395,0.5619891285896301,-0.6887344121932983,1.0,0.5701375007629395,0.5722417831420898,-0.6321647763252258,0.9952862858772278,0.557786226272583,0.5474936366081238,-0.5899806618690491,0.9718655347824097,0.5606815814971924,0.5725085735321045,-0.6361759305000305,0.9916913509368896,0.5577855706214905,0.5656508207321167,-0.6237319111824036,0.9832924008369446,0.6184014678001404,0.5964038968086243,-0.46417874097824097,0.9997560381889343,0.5465486645698547,0.48423704504966736,-0.40829187631607056,0.978050947189331,0.661563515663147,0.6459085941314697,-0.32335537672042847,0.9969493746757507,0.5031824707984924,0.4153984785079956,-0.3263291120529175,0.9954049587249756,0.6657260060310364,0.6861578226089478,-0.2715016007423401,0.9941123127937317,0.4484833776950836,0.39670121669769287,-0.3761608302593231,0.9959717392921448,0.6700248122215271,0.6970277428627014,-0.2961414158344269,0.9893059134483337,0.4320862889289856,0.3797403872013092,-0.40138834714889526,0.9921914935112,0.6623321771621704,0.684335470199585,-0.30974653363227844,0.9885581731796265,0.4363554120063782,0.3953217566013336,-0.4136081635951996,0.9897425174713135,0.65892094373703,0.677009642124176,-0.2741800844669342,0.9677019715309143,0.44339218735694885,0.4067433178424835,-0.3805410861968994,0.9811341762542725,0.6542917490005493,0.47339174151420593,-0.020046254619956017,0.9995881915092468,0.6198965907096863,0.426546573638916,0.01995226740837097,0.996945321559906,0.6774513125419617,0.45014363527297974,0.2865086793899536,0.23621593415737152,0.6558845043182373,0.42723315954208374,0.3129343092441559,0.24187694489955902,0.7160882949829102,0.3974341154098511,0.6563483476638794,0.669543981552124,0.7002096772193909,0.37637755274772644,0.6845542788505554,0.5952790975570679,0.7244299650192261,0.38404446840286255,0.6949592232704163,0.6260796189308167,0.708871066570282,0.3629831075668335,0.7239564061164856,0.6368146538734436,0.7157711386680603,0.4077569544315338,0.6528269648551941,0.24806025624275208,0.7097642421722412,0.3863394558429718,0.6953356862068176,0.36313092708587646
41,0.5684317350387573,0.5824121832847595,-0.17147648334503174,1.0,0.5631420612335205,0.5885530710220337,-0.1869470775127411,1.0,0.5622569918632507,0.5875622034072876,-0.18693943321704865,0.9999954700469971,0.5613200664520264,0.5865455865859985,-0.18689067661762238,1.0,0.5643599629402161,0.5891256928443909,-0.16290821135044098,1.0,0.5648740530014038,0.5892121195793152,-0.16282810270786285,0.9999957084655762,0.5654813051223755,0.5891559720039368,-0.16280975937843323,1.0,0.5633345246315002,0.5790432691574097,-0.2109387218952179,0.9999761581420898,0.5689305067062378,0.5811079144477844,-0.1002059355378151,0.9999371767044067,0.5730711221694946,0.5715473294258118,-0.1758236587047577,0.9999140501022339,0.5759881734848022,0.5737759470939636,-0.14361336827278137,0.9998301267623901,0.5961708426475525,0.5575677752494812,-0.2766563892364502,0.999948263168335,0.5783653855323792,0.5384681224822998,0.04860226437449455,0.9996092915534973,0.6578375101089478,0.6019582152366638,-0.3112640380859375,0.997416615486145,0.6268883943557739,0.5707032084465027,0.17361930012702942,0.138429194688797,0.6863983869552612,0.6769399046897888,-0.2921775281429291,0.9940980672836304,0.6512340307235718,0.622674286365509,0.18358537554740906,0.2454272210597992,0.6923506855964661,0.6951425075531006,-0.3339401185512543,0.9864313006401062,0.6542366147041321,0.6344289779663086,0.20162367820739746,0.32339969277381897,0.6846292614936829,0.7011548280715942,-0.3206852972507477,0.9854325652122498,0.6537261009216309,0.6389099955558777,0.1646241992712021,0.33390775322914124,0.6826778650283813,0.6911936402320862,-0.28712016344070435,0.9758111238479614,0.655780017375946,0.6355808973312378,0.17056331038475037,0.37334325909614563,0.6633968353271484,0.4355778098106384,-0.10548486560583115,0.9997280240058899,0.6559195518493652,0.41707804799079895,0.10544023662805557,0.9998873472213745,0.7100730538368225,0.5324473977088928,-0.10642047971487045,0.9982197880744934,0.6956746578216553,0.49308130145072937,0.15693216025829315,0.31727951765060425,0.8137462735176086,0.5212404131889343,-0.035587113350629807,0.9974510073661804,0.7633004784584045,0.43768948316574097,0.2418871372938156,0.5185620784759521,0.834313690662384,0.49969300627708435,-0.030614733695983887,0.9844182729721069,0.7754071950912476,0.4193739593029022,0.24711890518665314,0.6884849667549133,0.8381859064102173,0.5762974619865417,-0.08804956078529358,0.9920628666877747,0.784347653388977,0.459955096244812,0.20326223969459534,0.6515592932701111
42,0.5666465163230896,0.5827995538711548,-0.041015882045030594,1.0,0.5613158941268921,0.5877663493156433,-0.07218693941831589,1.0,0.5613007545471191,0.5872994065284729,-0.07220777869224548,1.0,0.5612876415252686,0.5865768790245056,-0.07217060029506683,1.0,0.5612557530403137,0.5839443206787109,-0.04547475278377533,1.0,0.5615701675415039,0.5828657150268555,-0.04540649801492691,1.0,0.5620964765548706,0.5819801092147827,-0.04529356583952904,1.0,0.5660262107849121,0.5782396197319031,-0.15780244767665863,1.0,0.5668973326683044,0.570507824420929,-0.033201493322849274,1.0,0.5741008520126343,0.5753852128982544,-0.06752774119377136,1.0,0.5741594433784485,0.5744737982749939,-0.030856702476739883,1.0,0.610958456993103,0.5706294178962708,-0.21194922924041748,0.9999992847442627,0.5794476866722107,0.5213061571121216,0.06262994557619095,0.9999532699584961,0.664294421672821,0.6105616092681885,-0.23147611320018768,0.9997701048851013,0.5484090447425842,0.5202422738075256,0.2015799582004547,0.907597541809082,0.6992437243461609,0.6692590117454529,-0.24031558632850647,0.9978899359703064,0.5221467018127441,0.5576863884925842,0.29919397830963135,0.9520938992500305,0.7033718824386597,0.6844120025634766,-0.2967020869255066,0.9933833479881287,0.5101878643035889,0.5617697834968567,0.3346690535545349,0.9491974115371704,0.6963344812393188,0.6896170973777771,-0.27245885133743286,0.9907100200653076,0.5120671391487122,0.5730668306350708,0.3028225898742676,0.9457669854164124,0.6953301429748535,0.6851118206977844,-0.2348257601261139,0.9837462902069092,0.5176628828048706,0.575797438621521,0.2917916476726532,0.9402531981468201,0.6818147301673889,0.434966117143631,-0.11907225847244263,0.9999896287918091,0.6710411906242371,0.41310930252075195,0.1191040650010109,0.9999880790710449,0.7342373728752136,0.5395038723945618,-0.1447843611240387,0.9999970197677612,0.7323015332221985,0.5138159394264221,0.17648598551750183,0.35333967208862305,0.831518292427063,0.53880375623703,-0.09830069541931152,0.999984622001648,0.8248573541641235,0.5128824710845947,0.32604336738586426,0.8137284517288208,0.8519611358642578,0.5225418210029602,-0.09828762710094452,0.9994770884513855,0.8436110615730286,0.5036749243736267,0.34111207723617554,0.8847845792770386,0.8488548398017883,0.5957087874412537,-0.1630614697933197,0.9999197721481323,0.8461184501647949,0.5564740300178528,0.31546536087989807,0.9554917812347412
43
44
45
46
47
48
49,0.7371755242347717,0.33963486552238464,0.2761038839817047,1.0,0.7407245635986328,0.3289395868778229,0.25373372435569763,1.0,0.741066038608551,0.3283243775367737,0.2536769211292267,1.0,0.741563081741333,0.3276398777961731,0.253583163022995,1.0,0.7429215312004089,0.33093202114105225,0.2820920944213867,1.0,0.7445327639579773,0.33125045895576477,0.2821108102798462,1.0,0.7461203932762146,0.33174049854278564,0.281913161277771,1.0,0.7493101358413696,0.33208754658699036,0.16132237017154694,1.0,0.7548709511756897,0.33669865131378174,0.2896840274333954,1.0,0.739747941493988,0.3494627773761749,0.24346844851970673,1.0,0.7410752773284912,0.35081249475479126,0.28084084391593933,1.0,0.7431105375289917,0.364944189786911,0.04754631593823433,0.9999971389770508,0.7853025197982788,0.40565934777259827,0.3200176954269409,0.9999741315841675,0.6907549500465393,0.3605727553367615,0.10214409977197647,0.9974588751792908,0.7689598202705383,0.4525018334388733,0.4016343057155609,0.07881800830364227,0.692833423614502,0.3232446610927582,0.3216475546360016,0.746551513671875,0.7391343712806702,0.4345586895942688,0.4842914938926697,0.03774964436888695,0.6906818151473999,0.3131662607192993,0.3324083685874939,0.6523614525794983,0.7323219180107117,0.4317116141319275,0.5139768123626709,0.05757633224129677,0.6962824463844299,0.311972975730896,0.34360355138778687,0.6468698382377625,0.7321864366531372,0.4279782474040985,0.498159795999527,0.058400169014930725,0.6997764110565186,0.316559374332428,0.3300876021385193,0.6068295836448669,0.7343438267707825,0.4281679391860962,0.4789232313632965,0.07257770746946335,0.740591824054718,0.5226939916610718,-0.0883769616484642,0.9999678134918213,0.7672708034515381,0.5477244853973389,0.08862873911857605,0.9999850988388062,0.6618254780769348,0.6015900373458862,-0.0641666054725647,0.999630331993103,0.767892599105835,0.6749191284179688,0.08766636252403259,0.9794425368309021,0.6156272292137146,0.6874598860740662,-0.07685815542936325,0.997527539730072,0.783938467502594,0.8020056486129761,0.0742599368095398,0.9752702116966248,0.6192527413368225,0.7076254487037659,-0.07591881603002548,0.9955667853355408,0.7896710634231567,0.821141242980957,0.06941360980272293,0.9764427542686462,0.5781359076499939,0.6989585161209106,-0.0993390679359436,0.9836000204086304,0.772934079170227,0.8413997888565063,0.04089917242527008,0.9212647080421448
50
51,0.7315391302108765,0.3076666593551636,-0.26279696822166443,1.0,0.7360896468162537,0.29487988352775574,-0.2542356252670288,1.0,0.7399342060089111,0.2937540113925934,-0.2542863190174103,0.9999983310699463,0.7438644766807556,0.2925686538219452,-0.25437307357788086,1.0,0.7259005308151245,0.29817935824394226,-0.24093195796012878,1.0,0.7222490310668945,0.29932504892349243,-0.24085023999214172,0.9999852180480957,0.7186211347579956,0.30053994059562683,-0.2408474236726761,1.0,0.7523835897445679,0.29984772205352783,-0.17988450825214386,0.999995231628418,0.7186805009841919,0.30990493297576904,-0.11523543298244476,0.9999164342880249,0.742218017578125,0.3192748427391052,-0.23446163535118103,0.9999310970306396,0.7281392812728882,0.32325485348701477,-0.2161051332950592,0.999680757522583,0.7788726091384888,0.3747597932815552,-0.15141868591308594,0.9997988343238831,0.7214478254318237,0.3832153081893921,-0.01126901339739561,0.9980979561805725,0.7927390336990356,0.4686097502708435,-0.14097647368907928,0.5853859782218933,0.7273961901664734,0.46822822093963623,0.004651403520256281,0.10795289278030396,0.8061733245849609,0.5353110432624817,-0.21244379878044128,0.40773284435272217,0.7390084862709045,0.5189225673675537,-0.12953104078769684,0.0637999176979065,0.8146160840988159,0.5507583618164062,-0.241185262799263,0.2912377417087555,0.7408972978591919,0.5385102033615112,-0.16618192195892334,0.0715586245059967,0.8120704889297485,0.5491660833358765,-0.2614608705043793,0.32245248556137085,0.7449344396591187,0.5323571562767029,-0.18939226865768433,0.07621000707149506,0.8078640699386597,0.5451815128326416,-0.2229757308959961,0.3141273558139801,0.7460766434669495,0.5243427753448486,-0.14433467388153076,0.07079754769802094,0.7708525061607361,0.5462692975997925,-0.0593348853290081,0.9969407916069031,0.7352918982505798,0.5414420366287231,0.05960056185722351,0.9969766139984131,0.7595306634902954,0.6782985329627991,-0.08572977036237717,0.08675146847963333,0.7155719995498657,0.6558407545089722,0.043303608894348145,0.05383211746811867,0.7644851803779602,0.8028348088264465,0.02469603717327118,0.07775739580392838,0.7030317783355713,0.7718433141708374,0.15800900757312775,0.04676985740661621,0.7698408365249634,0.8183663487434387,0.03023752197623253,0.0703141838312149,0.7067440152168274,0.7908552289009094,0.1622168868780136,0.054292190819978714,0.7506406307220459,0.8472152948379517,-0.07775627076625824,0.07954428344964981,0.6833436489105225,0.8077965974807739,0.06368888169527054,0.07214183360338211
52
53
54
55
56
57
58
59
60
61
62
63
