frame,NOSE.x,NOSE.y,NOSE.z,NOSE.v,LEFT_EYE_INNER.x,LEFT_EYE_INNER.y,LEFT_EYE_INNER.z,LEFT_EYE_INNER.v,LEFT_EYE.x,LEFT_EYE.y,LEFT_EYE.z,LEFT_EYE.v,LEFT_EYE_OUTER.x,LEFT_EYE_OUTER.y,LEFT_EYE_OUTER.z,LEFT_EYE_OUTER.v,RIGHT_EYE_INNER.x,RIGHT_EYE_INNER.y,RIGHT_EYE_INNER.z,RIGHT_EYE_INNER.v,RIGHT_EYE.x,RIGHT_EYE.y,RIGHT_EYE.z,RIGHT_EYE.v,RIGHT_EYE_OUTER.x,RIGHT_EYE_OUTER.y,RIGHT_EYE_OUTER.z,RIGHT_EYE_OUTER.v,LEFT_EAR.x,LEFT_EAR.y,LEFT_EAR.z,LEFT_EAR.v,RIGHT_EAR.x,RIGHT_EAR.y,RIGHT_EAR.z,RIGHT_EAR.v,MOUTH_LEFT.x,MOUTH_LEFT.y,MOUTH_LEFT.z,MOUTH_LEFT.v,MOUTH_RIGHT.x,MOUTH_RIGHT.y,MOUTH_RIGHT.z,MOUTH_RIGHT.v,LEFT_SHOULDER.x,LEFT_SHOULDER.y,LEFT_SHOULDER.z,LEFT_SHOULDER.v,RIGHT_SHOULDER.x,RIGHT_SHOULDER.y,RIGHT_SHOULDER.z,RIGHT_SHOULDER.v,LEFT_ELBOW.x,LEFT_ELBOW.y,LEFT_ELBOW.z,LEFT_ELBOW.v,RIGHT_ELBOW.x,RIGHT_ELBOW.y,RIGHT_ELBOW.z,RIGHT_ELBOW.v,LEFT_WRIST.x,LEFT_WRIST.y,LEFT_WRIST.z,LEFT_WRIST.v,RIGHT_WRIST.x,RIGHT_WRIST.y,RIGHT_WRIST.z,RIGHT_WRIST.v,LEFT_PINKY.x,LEFT_PINKY.y,LEFT_PINKY.z,LEFT_PINKY.v,RIGHT_PINKY.x,RIGHT_PINKY.y,RIGHT_PINKY.z,RIGHT_PINKY.v,LEFT_INDEX.x,LEFT_INDEX.y,LEFT_INDEX.z,LEFT_INDEX.v,RIGHT_INDEX.x,RIGHT_INDEX.y,RIGHT_INDEX.z,RIGHT_INDEX.v,LEFT_THUMB.x,LEFT_THUMB.y,LEFT_THUMB.z,LEFT_THUMB.v,RIGHT_THUMB.x,RIGHT_THUMB.y,RIGHT_THUMB.z,RIGHT_THUMB.v,LEFT_HIP.x,LEFT_HIP.y,LEFT_HIP.z,LEFT_HIP.v,RIGHT_HIP.x,RIGHT_HIP.y,RIGHT_HIP.z,RIGHT_HIP.v,LEFT_KNEE.x,LEFT_KNEE.y,LEFT_KNEE.z,LEFT_KNEE.v,RIGHT_KNEE.x,RIGHT_KNEE.y,RIGHT_KNEE.z,RIGHT_KNEE.v,LEFT_ANKLE.x,LEFT_ANKLE.y,LEFT_ANKLE.z,LEFT_ANKLE.v,RIGHT_ANKLE.x,RIGHT_ANKLE.y,RIGHT_ANKLE.z,RIGHT_ANKLE.v,LEFT_HEEL.x,LEFT_HEEL.y,LEFT_HEEL.z,LEFT_HEEL.v,RIGHT_HEEL.x,RIGHT_HEEL.y,RIGHT_HEEL.z,RIGHT_HEEL.v,LEFT_FOOT_INDEX.x,LEFT_FOOT_INDEX.y,LEFT_FOOT_INDEX.z,LEFT_FOOT_INDEX.v,RIGHT_FOOT_INDEX.x,RIGHT_FOOT_INDEX.y,RIGHT_FOOT_INDEX.z,RIGHT_FOOT_INDEX.v
0,,,,,,,,,,,,,,,,,,,,,,,,,,,,,,,,,,,,,,,,,,,,,,,,,,,,,,,,,,,,,,,,,,,,,,,,,,,,,,,,,,,,,,,,,,,,,,,,,,,,,,,,,,,,,,,,,,,,,,,,,,,,,,,,,,,,
1,,,,,,,,,,,,,,,,,,,,,,,,,,,,,,,,,,,,,,,,,,,,,,,,,,,,,,,,,,,,,,,,,,,,,,,,,,,,,,,,,,,,,,,,,,,,,,,,,,,,,,,,,,,,,,,,,,,,,,,,,,,,,,,,,,,,
2,,,,,,,,,,,,,,,,,,,,,,,,,,,,,,,,,,,,,,,,,,,,,,,,,,,,,,,,,,,,,,,,,,,,,,,,,,,,,,,,,,,,,,,,,,,,,,,,,,,,,,,,,,,,,,,,,,,,,,,,,,,,,,,,,,,,
3,,,,,,,,,,,,,,,,,,,,,,,,,,,,,,,,,,,,,,,,,,,,,,,,,,,,,,,,,,,,,,,,,,,,,,,,,,,,,,,,,,,,,,,,,,,,,,,,,,,,,,,,,,,,,,,,,,,,,,,,,,,,,,,,,,,,
4,,,,,,,,,,,,,,,,,,,,,,,,,,,,,,,,,,,,,,,,,,,,,,,,,,,,,,,,,,,,,,,,,,,,,,,,,,,,,,,,,,,,,,,,,,,,,,,,,,,,,,,,,,,,,,,,,,,,,,,,,,,,,,,,,,,,
5,,,,,,,,,,,,,,,,,,,,,,,,,,,,,,,,,,,,,,,,,,,,,,,,,,,,,,,,,,,,,,,,,,,,,,,,,,,,,,,,,,,,,,,,,,,,,,,,,,,,,,,,,,,,,,,,,,,,,,,,,,,,,,,,,,,,
6,,,,,,,,,,,,,,,,,,,,,,,,,,,,,,,,,,,,,,,,,,,,,,,,,,,,,,,,,,,,,,,,,,,,,,,,,,,,,,,,,,,,,,,,,,,,,,,,,,,,,,,,,,,,,,,,,,,,,,,,,,,,,,,,,,,,
7,,,,,,,,,,,,,,,,,,,,,,,,,,,,,,,,,,,,,,,,,,,,,,,,,,,,,,,,,,,,,,,,,,,,,,,,,,,,,,,,,,,,,,,,,,,,,,,,,,,,,,,,,,,,,,,,,,,,,,,,,,,,,,,,,,,,
8,,,,,,,,,,,,,,,,,,,,,,,,,,,,,,,,,,,,,,,,,,,,,,,,,,,,,,,,,,,,,,,,,,,,,,,,,,,,,,,,,,,,,,,,,,,,,,,,,,,,,,,,,,,,,,,,,,,,,,,,,,,,,,,,,,,,
9,,,,,,,,,,,,,,,,,,,,,,,,,,,,,,,,,,,,,,,,,,,,,,,,,,,,,,,,,,,,,,,,,,,,,,,,,,,,,,,,,,,,,,,,,,,,,,,,,,,,,,,,,,,,,,,,,,,,,,,,,,,,,,,,,,,,
10,,,,,,,,,,,,,,,,,,,,,,,,,,,,,,,,,,,,,,,,,,,,,,,,,,,,,,,,,,,,,,,,,,,,,,,,,,,,,,,,,,,,,,,,,,,,,,,,,,,,,,,,,,,,,,,,,,,,,,,,,,,,,,,,,,,,
11,,,,,,,,,,,,,,,,,,,,,,,,,,,,,,,,,,,,,,,,,,,,,,,,,,,,,,,,,,,,,,,,,,,,,,,,,,,,,,,,,,,,,,,,,,,,,,,,,,,,,,,,,,,,,,,,,,,,,,,,,,,,,,,,,,,,
12,,,,,,,,,,,,,,,,,,,,,,,,,,,,,,,,,,,,,,,,,,,,,,,,,,,,,,,,,,,,,,,,,,,,,,,,,,,,,,,,,,,,,,,,,,,,,,,,,,,,,,,,,,,,,,,,,,,,,,,,,,,,,,,,,,,,
13,,,,,,,,,,,,,,,,,,,,,,,,,,,,,,,,,,,,,,,,,,,,,,,,,,,,,,,,,,,,,,,,,,,,,,,,,,,,,,,,,,,,,,,,,,,,,,,,,,,,,,,,,,,,,,,,,,,,,,,,,,,,,,,,,,,,
14,,,,,,,,,,,,,,,,,,,,,,,,,,,,,,,,,,,,,,,,,,,,,,,,,,,,,,,,,,,,,,,,,,,,,,,,,,,,,,,,,,,,,,,,,,,,,,,,,,,,,,,,,,,,,,,,,,,,,,,,,,,,,,,,,,,,
15,,,,,,,,,,,,,,,,,,,,,,,,,,,,,,,,,,,,,,,,,,,,,,,,,,,,,,,,,,,,,,,,,,,,,,,,,,,,,,,,,,,,,,,,,,,,,,,,,,,,,,,,,,,,,,,,,,,,,,,,,,,,,,,,,,,,
16,,,,,,,,,,,,,,,,,,,,,,,,,,,,,,,,,,,,,,,,,,,,,,,,,,,,,,,,,,,,,,,,,,,,,,,,,,,,,,,,,,,,,,,,,,,,,,,,,,,,,,,,,,,,,,,,,,,,,,,,,,,,,,,,,,,,
17,,,,,,,,,,,,,,,,,,,,,,,,,,,,,,,,,,,,,,,,,,,,,,,,,,,,,,,,,,,,,,,,,,,,,,,,,,,,,,,,,,,,,,,,,,,,,,,,,,,,,,,,,,,,,,,,,,,,,,,,,,,,,,,,,,,,
18,,,,,,,,,,,,,,,,,,,,,,,,,,,,,,,,,,,,,,,,,,,,,,,,,,,,,,,,,,,,,,,,,,,,,,,,,,,,,,,,,,,,,,,,,,,,,,,,,,,,,,,,,,,,,,,,,,,,,,,,,,,,,,,,,,,,
19,,,,,,,,,,,,,,,,,,,,,,,,,,,,,,,,,,,,,,,,,,,,,,,,,,,,,,,,,,,,,,,,,,,,,,,,,,,,,,,,,,,,,,,,,,,,,,,,,,,,,,,,,,,,,,,,,,,,,,,,,,,,,,,,,,,,
20,,,,,,,,,,,,,,,,,,,,,,,,,,,,,,,,,,,,,,,,,,,,,,,,,,,,,,,,,,,,,,,,,,,,,,,,,,,,,,,,,,,,,,,,,,,,,,,,,,,,,,,,,,,,,,,,,,,,,,,,,,,,,,,,,,,,
21,,,,,,,,,,,,,,,,,,,,,,,,,,,,,,,,,,,,,,,,,,,,,,,,,,,,,,,,,,,,,,,,,,,,,,,,,,,,,,,,,,,,,,,,,,,,,,,,,,,,,,,,,,,,,,,,,,,,,,,,,,,,,,,,,,,,
22,,,,,,,,,,,,,,,,,,,,,,,,,,,,,,,,,,,,,,,,,,,,,,,,,,,,,,,,,,,,,,,,,,,,,,,,,,,,,,,,,,,,,,,,,,,,,,,,,,,,,,,,,,,,,,,,,,,,,,,,,,,,,,,,,,,,
23,,,,,,,,,,,,,,,,,,,,,,,,,,,,,,,,,,,,,,,,,,,,,,,,,,,,,,,,,,,,,,,,,,,,,,,,,,,,,,,,,,,,,,,,,,,,,,,,,,,,,,,,,,,,,,,,,,,,,,,,,,,,,,,,,,,,
24,,,,,,,,,,,,,,,,,,,,,,,,,,,,,,,,,,,,,,,,,,,,,,,,,,,,,,,,,,,,,,,,,,,,,,,,,,,,,,,,,,,,,,,,,,,,,,,,,,,,,,,,,,,,,,,,,,,,,,,,,,,,,,,,,,,,
25,,,,,,,,,,,,,,,,,,,,,,,,,,,,,,,,,,,,,,,,,,,,,,,,,,,,,,,,,,,,,,,,,,,,,,,,,,,,,,,,,,,,,,,,,,,,,,,,,,,,,,,,,,,,,,,,,,,,,,,,,,,,,,,,,,,,
26,,,,,,,,,,,,,,,,,,,,,,,,,,,,,,,,,,,,,,,,,,,,,,,,,,,,,,,,,,,,,,,,,,,,,,,,,,,,,,,,,,,,,,,,,,,,,,,,,,,,,,,,,,,,,,,,,,,,,,,,,,,,,,,,,,,,
27,,,,,,,,,,,,,,,,,,,,,,,,,,,,,,,,,,,,,,,,,,,,,,,,,,,,,,,,,,,,,,,,,,,,,,,,,,,,,,,,,,,,,,,,,,,,,,,,,,,,,,,,,,,,,,,,,,,,,,,,,,,,,,,,,,,,
28,,,,,,,,,,,,,,,,,,,,,,,,,,,,,,,,,,,,,,,,,,,,,,,,,,,,,,,,,,,,,,,,,,,,,,,,,,,,,,,,,,,,,,,,,,,,,,,,,,,,,,,,,,,,,,,,,,,,,,,,,,,,,,,,,,,,
29,,,,,,,,,,,,,,,,,,,,,,,,,,,,,,,,,,,,,,,,,,,,,,,,,,,,,,,,,,,,,,,,,,,,,,,,,,,,,,,,,,,,,,,,,,,,,,,,,,,,,,,,,,,,,,,,,,,,,,,,,,,,,,,,,,,,
30,,,,,,,,,,,,,,,,,,,,,,,,,,,,,,,,,,,,,,,,,,,,,,,,,,,,,,,,,,,,,,,,,,,,,,,,,,,,,,,,,,,,,,,,,,,,,,,,,,,,,,,,,,,,,,,,,,,,,,,,,,,,,,,,,,,,
31,,,,,,,,,,,,,,,,,,,,,,,,,,,,,,,,,,,,,,,,,,,,,,,,,,,,,,,,,,,,,,,,,,,,,,,,,,,,,,,,,,,,,,,,,,,,,,,,,,,,,,,,,,,,,,,,,,,,,,,,,,,,,,,,,,,,
32,,,,,,,,,,,,,,,,,,,,,,,,,,,,,,,,,,,,,,,,,,,,,,,,,,,,,,,,,,,,,,,,,,,,,,,,,,,,,,,,,,,,,,,,,,,,,,,,,,,,,,,,,,,,,,,,,,,,,,,,,,,,,,,,,,,,
33,,,,,,,,,,,,,,,,,,,,,,,,,,,,,,,,,,,,,,,,,,,,,,,,,,,,,,,,,,,,,,,,,,,,,,,,,,,,,,,,,,,,,,,,,,,,,,,,,,,,,,,,,,,,,,,,,,,,,,,,,,,,,,,,,,,,
34,,,,,,,,,,,,,,,,,,,,,,,,,,,,,,,,,,,,,,,,,,,,,,,,,,,,,,,,,,,,,,,,,,,,,,,,,,,,,,,,,,,,,,,,,,,,,,,,,,,,,,,,,,,,,,,,,,,,,,,,,,,,,,,,,,,,
35,,,,,,,,,,,,,,,,,,,,,,,,,,,,,,,,,,,,,,,,,,,,,,,,,,,,,,,,,,,,,,,,,,,,,,,,,,,,,,,,,,,,,,,,,,,,,,,,,,,,,,,,,,,,,,,,,,,,,,,,,,,,,,,,,,,,
36,,,,,,,,,,,,,,,,,,,,,,,,,,,,,,,,,,,,,,,,,,,,,,,,,,,,,,,,,,,,,,,,,,,,,,,,,,,,,,,,,,,,,,,,,,,,,,,,,,,,,,,,,,,,,,,,,,,,,,,,,,,,,,,,,,,,
37,,,,,,,,,,,,,,,,,,,,,,,,,,,,,,,,,,,,,,,,,,,,,,,,,,,,,,,,,,,,,,,,,,,,,,,,,,,,,,,,,,,,,,,,,,,,,,,,,,,,,,,,,,,,,,,,,,,,,,,,,,,,,,,,,,,,
38,,,,,,,,,,,,,,,,,,,,,,,,,,,,,,,,,,,,,,,,,,,,,,,,,,,,,,,,,,,,,,,,,,,,,,,,,,,,,,,,,,,,,,,,,,,,,,,,,,,,,,,,,,,,,,,,,,,,,,,,,,,,,,,,,,,,
39,,,,,,,,,,,,,,,,,,,,,,,,,,,,,,,,,,,,,,,,,,,,,,,,,,,,,,,,,,,,,,,,,,,,,,,,,,,,,,,,,,,,,,,,,,,,,,,,,,,,,,,,,,,,,,,,,,,,,,,,,,,,,,,,,,,,
40,,,,,,,,,,,,,,,,,,,,,,,,,,,,,,,,,,,,,,,,,,,,,,,,,,,,,,,,,,,,,,,,,,,,,,,,,,,,,,,,,,,,,,,,,,,,,,,,,,,,,,,,,,,,,,,,,,,,,,,,,,,,,,,,,,,,
41,,,,,,,,,,,,,,,,,,,,,,,,,,,,,,,,,,,,,,,,,,,,,,,,,,,,,,,,,,,,,,,,,,,,,,,,,,,,,,,,,,,,,,,,,,,,,,,,,,,,,,,,,,,,,,,,,,,,,,,,,,,,,,,,,,,,
42,,,,,,,,,,,,,,,,,,,,,,,,,,,,,,,,,,,,,,,,,,,,,,,,,,,,,,,,,,,,,,,,,,,,,,,,,,,,,,,,,,,,,,,,,,,,,,,,,,,,,,,,,,,,,,,,,,,,,,,,,,,,,,,,,,,,
43,,,,,,,,,,,,,,,,,,,,,,,,,,,,,,,,,,,,,,,,,,,,,,,,,,,,,,,,,,,,,,,,,,,,,,,,,,,,,,,,,,,,,,,,,,,,,,,,,,,,,,,,,,,,,,,,,,,,,,,,,,,,,,,,,,,,
44,,,,,,,,,,,,,,,,,,,,,,,,,,,,,,,,,,,,,,,,,,,,,,,,,,,,,,,,,,,,,,,,,,,,,,,,,,,,,,,,,,,,,,,,,,,,,,,,,,,,,,,,,,,,,,,,,,,,,,,,,,,,,,,,,,,,
45,,,,,,,,,,,,,,,,,,,,,,,,,,,,,,,,,,,,,,,,,,,,,,,,,,,,,,,,,,,,,,,,,,,,,,,,,,,,,,,,,,,,,,,,,,,,,,,,,,,,,,,,,,,,,,,,,,,,,,,,,,,,,,,,,,,,
46,,,,,,,,,,,,,,,,,,,,,,,,,,,,,,,,,,,,,,,,,,,,,,,,,,,,,,,,,,,,,,,,,,,,,,,,,,,,,,,,,,,,,,,,,,,,,,,,,,,,,,,,,,,,,,,,,,,,,,,,,,,,,,,,,,,,
47,,,,,,,,,,,,,,,,,,,,,,,,,,,,,,,,,,,,,,,,,,,,,,,,,,,,,,,,,,,,,,,,,,,,,,,,,,,,,,,,,,,,,,,,,,,,,,,,,,,,,,,,,,,,,,,,,,,,,,,,,,,,,,,,,,,,
48,,,,,,,,,,,,,,,,,,,,,,,,,,,,,,,,,,,,,,,,,,,,,,,,,,,,,,,,,,,,,,,,,,,,,,,,,,,,,,,,,,,,,,,,,,,,,,,,,,,,,,,,,,,,,,,,,,,,,,,,,,,,,,,,,,,,
49,,,,,,,,,,,,,,,,,,,,,,,,,,,,,,,,,,,,,,,,,,,,,,,,,,,,,,,,,,,,,,,,,,,,,,,,,,,,,,,,,,,,,,,,,,,,,,,,,,,,,,,,,,,,,,,,,,,,,,,,,,,,,,,,,,,,
50,,,,,,,,,,,,,,,,,,,,,,,,,,,,,,,,,,,,,,,,,,,,,,,,,,,,,,,,,,,,,,,,,,,,,,,,,,,,,,,,,,,,,,,,,,,,,,,,,,,,,,,,,,,,,,,,,,,,,,,,,,,,,,,,,,,,
51,,,,,,,,,,,,,,,,,,,,,,,,,,,,,,,,,,,,,,,,,,,,,,,,,,,,,,,,,,,,,,,,,,,,,,,,,,,,,,,,,,,,,,,,,,,,,,,,,,,,,,,,,,,,,,,,,,,,,,,,,,,,,,,,,,,,
52,-0.019628754788546664,0.6964911379175481,0.017173190134094185,0.9620483539706326,-0.006003135737592774,0.7685069313250175,0.06563594486116778,0.9705390988443585,-0.007479082634273035,0.7736044566466519,0.008212731128459203,0.988807006767806,-0.03284643727805693,0.7323375896098294,0.016946879197806484,0.9529900557875411,-0.061729076675007634,0.710752474789809,-0.014080523939789875,0.9793733268863415,-0.02911158922563724,0.744830322772726,0.04784050352346972,0.969123664008298,0.004980097147313071,0.7229203998762276,0.043041979702869416,1.0092866755838636,0.02082781372195642,0.7669969428102358,-0.009957357559553693,1.005231809356706,-0.0558747028869022,0.7034087716555943,0.0217999560312212,0.9856314724646097,-0.03383994899046615,0.7411557321608301,0.03739905129253357,0.963729145763438,-0.06413256149043883,0.7680976255341649,0.06553860613483228,0.9503998280437645,0.09386999510911256,0.6585515482503251,-0.05024358594949494,0.9983009722902545,-0.11909000754035609,0.6449363356580612,0.06702388735168308,0.9618184795056629,0.051937272487459545,0.6718088539582514,0.008130842022358975,0.08174239829779134,-0.25073374186361136,0.6095689476483079,0.14797978157739883,0.6854502410375222,-0.015456809975880635,0.6840380912029297,0.0155537947898634,0.09501081423315103,-0.2292065119091038,0.7264506230316508,0.1516119822171528,0.34404735737005493,-0.13134276806951453,0.6587619797773743,0.036457280874204065,0.16995304262345431,-0.20577795265416307,0.70555286379935,0.15795713753230467,0.31563868299264436,-0.1053553554259913,0.6683081423386632,0.10962097517790617,0.1374514118484191,-0.21640660010766308,0.7435021323908431,0.2630713001502199,0.36371764468322115,-0.09167980180578125,0.7365879834672587,0.020577881236795846,0.09233257144737565,-0.2805853902387804,0.716806179937787,0.21775797458325988,0.301971570030901,-0.041893767749703575,0.46598813421688856,0.013783108895566054,0.9703344815809778,-0.11739848146365603,0.4808389714454047,0.14444134929827618,1.0311377777058839,-0.1564432795473199,0.28977159735507296,0.09856764620715616,0.30482351387973267,-0.24604217345077836,0.389379690746466,0.164219947262184,0.9548183871211182,-0.2203272339567907,0.19054392220742988,0.185081316761358,0.303634679179832,-0.3393764828959664,0.203177471940265,0.30613821897890026,0.818611572960714,-0.18832347561747373,0.12115133682384799,0.11858617510413644,0.38024985618941176,-0.35606444688569744,0.15064032561176108,0.25129834331603246,0.8818174087217052,-0.2182231765402108,0.16876388060374703,0.20152437710288218,0.18677089141577508,-0.43407443010049107,0.11260695054934716,0.27800807932814786,0.5910621858355241
53,0.0758182023807564,0.6961721338587102,-0.056456731920369756,0.9620483539706326,0.07695516902175621,0.7696583738527885,0.0017257219101245516,0.9705390988443585,0.07538047335215485,0.7751942913367459,-0.05560785325664539,0.9888056954656211,0.04999846065143726,0.7342392758013883,-0.04685194917744586,0.9529900557875411,0.03102160607434539,0.710658776288222,-0.08566630262873144,0.9793733268863415,0.06384288680497982,0.7443877582852687,-0.023940552370748335,0.9691230679618503,0.098024336651952,0.7221428572851326,-0.02884619856263725,1.0092866755838636,0.06538894932631603,0.7709860432664736,-0.044081996278426086,1.0052303788452317,0.030677790673011456,0.7052141963458409,-0.045194402929805075,0.9856299227438455,0.0496231566274246,0.7430944924414392,-0.02697399376455578,0.9637012507896833,0.03136675908028461,0.7693857415124059,-0.008275860134184077,0.9503719330700098,0.11445026540102317,0.6735883696156816,-0.06578044543144364,0.9981447485162984,-0.030599614295990882,0.6483757024755356,-0.0019344047086330696,0.9616595735226917,0.09428418725789754,0.6706796439629816,-0.024094789181681463,0.46566545948982707,-0.14754891346234764,0.6259806097500535,0.06766032050360862,0.94209967560402,0.06781001045839821,0.6707851176464111,-0.04932833927545469,0.29778220222744045,-0.16043873349058252,0.7583523402176249,0.09723183258727225,0.8015698390499714,-0.03698490573458466,0.6439994589872742,-0.037155913428243134,0.3661545011967957,-0.14485205758376196,0.7405272004234955,0.1093421845049719,0.7499506987645103,-0.01512630879667004,0.655841890488535,0.0389254010180022,0.34664565480267323,-0.1450063580644325,0.7814837021578414,0.20632737620538621,0.7991227798379453,-0.005992568180274185,0.7256425441285747,-0.046515266020371177,0.29544588893699975,-0.20777293607898392,0.7544149226517152,0.16002399388837907,0.6986822638671132,-0.069703367767179,0.4886740196462709,0.03569755734127841,0.970354627950912,-0.0906746052697675,0.4960121086333625,0.12362211504048574,1.0311692489583255,-0.16280319962947742,0.30778048512286466,0.10370711722525447,1.0038843115710778,-0.21216176792401603,0.4016324089566863,0.13758783203715852,1.025027473062433,-0.2213312807301463,0.20589971782930178,0.1859074041867064,0.8934310136849133,-0.2819214318010391,0.2133251180097917,0.26108638324327893,0.9411757695473228,-0.18798274289636682,0.13852100947990728,0.1183181061789583,0.8568110448872267,-0.2967115851953173,0.16606843656890669,0.2047023190093648,0.8841390692403515,-0.20853317620893366,0.18272055404706444,0.19439578128434695,0.6464067302820089,-0.3606791028937499,0.11413539245532256,0.22047585548122478,0.7377775288340287
54,-0.01164412568991368,0.7044997371988592,0.01192468311741655,0.9620483539706326,-0.019871751109983838,0.7782953252993217,0.0772675702593637,0.9705390988443585,-0.021257091541749845,0.7835593263938138,0.019753056286380223,0.9888048610005942,-0.046427121069974264,0.7424277619006314,0.02831137516434867,0.9529900557875411,-0.038043403440369584,0.7203470344593036,-0.03162008658805956,0.9793733268863415,-0.005250806085317633,0.7545331840817775,0.030144966832483036,0.9691206837760591,0.029005023681111703,0.7327508747297432,0.025197635624354772,1.0092866755838636,-0.012670527132302468,0.7802874076883181,0.016684840832691297,1.0052295443802046,-0.03045343074184719,0.717161947391068,0.0026619457326901436,0.9856255120001323,-0.03678372341668788,0.7515219931662317,0.04052290808018871,0.9637141253929546,-0.0427302799013566,0.7786631448670507,0.049741171079359416,0.9503907681377587,0.04055246317234136,0.6795337541180925,-0.008418239228788307,0.9984612491800557,-0.06301107172877306,0.6559360152234909,0.023790399000643954,0.9620158900891591,-0.03858323077645615,0.6681984814149164,0.07990554410601779,0.6127922533512162,-0.22992292812153292,0.6133550346844407,0.13340719582797428,0.9265537113629921,-0.08584678058776501,0.6808249836170227,0.07087165364810422,0.4144069449737936,-0.346191395316561,0.6949765095672953,0.24283606291075374,0.8297402458683613,-0.19902962992084808,0.6618909256048584,0.08950666360280958,0.4042466673821748,-0.3377473677606993,0.6660407659638092,0.2604930258232212,0.7271042980267478,-0.1707046832364083,0.6672162448510228,0.16049616409585568,0.37413799918209834,-0.33550758502590383,0.7087212128389937,0.3553327037625269,0.7765484146989378,-0.15567591224508656,0.7344872773667949,0.07049540940120391,0.28042635291862816,-0.3927304764517001,0.6846031612724732,0.30473915663955764,0.666725352780077,-0.067456410377327,0.4833860147710878,0.03415465656867385,0.9703553432066492,-0.095904749735547,0.49639846594079656,0.1280934409775264,1.0311893953282596,-0.14575596099865037,0.30515853640384005,0.09076105617076079,0.9209005197429223,-0.20710650075397036,0.4035714672605193,0.13393988912424848,1.027565438836969,-0.1572315836162098,0.208539771459177,0.13647263984490324,0.6942198334747998,-0.2678196352914889,0.2166645129368165,0.2503481147511961,0.9632126199997458,-0.11845412365517488,0.1403787521471055,0.06465494076897298,0.6283048374211012,-0.2814090733934708,0.16872537321441458,0.1930702907082964,0.910193213145991,-0.15027023721882218,0.18757697659059014,0.14922712859386603,0.45022641645640155,-0.36088970357338185,0.11934005513594848,0.22074354990486478,0.8139975643870072
55,-0.05676719723791268,0.7052007474260625,0.047080468697852526,0.9620483539706326,-0.057941669222250976,0.7788247933588615,0.10697595806703386,0.9705390988443585,-0.05946917782163038,0.7842455546691128,0.04960306102100409,0.9887998542104331,-0.08481328699064056,0.7432178214671292,0.05832652060409302,0.9529900557875411,-0.09750453645437115,0.7205108876277911,0.014630128337215345,0.9793733268863415,-0.06458292603343796,0.754827869445547,0.0762688613081663,0.9691168690787936,-0.03025143350993217,0.7330846607404854,0.07123785774180769,1.0092866755838636,-0.06524636698585742,0.7806717980424746,0.05777209005981552,1.0052145240097212,-0.08229069151319304,0.717101448676621,0.042914297160029674,0.9856077498159891,-0.08240950293444399,0.7531177287161585,0.07611724800333938,0.963543119667094,-0.09434412884527127,0.7796189053460241,0.08989839110223838,0.9502492667110619,-0.015244244319578007,0.6782822353917436,0.03541144906306513,0.9980656531526815,-0.09908437681455023,0.651709151839244,0.0516288621747829,0.9616289963399222,-0.06941020570211952,0.6854599865418696,0.10405690819029513,0.6668257711887406,-0.21704127998697173,0.6166955770008775,0.12269586771387385,0.9783190936528786,-0.08469551618624116,0.7099539523326904,0.07011158751151929,0.5686364965275198,-0.2627520422050467,0.7469564089737284,0.17793897643523163,0.9326438503758075,-0.19169306524817756,0.6936355249472046,0.08396011178498018,0.5932593736619294,-0.24239164023039234,0.728481638156192,0.18637279225279416,0.8448523201062156,-0.1626587671544062,0.6988530789956151,0.1542736926861225,0.5561717764190368,-0.24896521317901646,0.769383720849858,0.2882338186163598,0.895056336394647,-0.1531187984693244,0.764651876785435,0.0686011621403941,0.4823748764400515,-0.3127024667557827,0.7420693702072572,0.24266105550102085,0.8000780496756764,-0.06633552141155982,0.4770703066106874,0.03341534740159732,0.9703917020399622,-0.09677291488251108,0.48733796388848943,0.12858441688644423,1.0312059654195072,-0.12470500175999417,0.30380059358424466,0.07462090027460751,0.9623451789760156,-0.1939239048705709,0.4018960403005279,0.12368681460082134,1.03073229321853,-0.10462006600794721,0.20752793791063118,0.09598471502080501,0.8690201698357312,-0.23859825466586923,0.2194307495996812,0.22780716511320367,0.9978722440994775,-0.06212659575990886,0.14123893657818148,0.021270820179816866,0.8006346804653822,-0.25118920607014045,0.17518504149310868,0.16978512510030075,0.9508057915380198,-0.08555037142577393,0.18809117095990624,0.0992420738848724,0.6754645310518148,-0.3280127497586724,0.11888941421912408,0.19542752996858515,0.9004384852167802
56,-0.07104444385877447,0.6957113899545965,0.05769703959540955,0.9620483539706326,-0.07102637581187189,0.767995165844976,0.11675315146879688,0.9705390988443585,-0.07283823855858494,0.7735089700057217,0.05965380820127561,0.9888066491399375,-0.09847631632938458,0.7325994328143277,0.06865845201596076,0.9529900557875411,-0.12218325495694296,0.7093450899173724,0.033312335816080854,0.9793733268863415,-0.089158812643729,0.7433912878339137,0.09484797872598141,0.9691227103339816,-0.05463150559688536,0.7214236676412727,0.08964366188341698,1.0092866755838636,-0.07587304774912437,0.7687220800439699,0.0658954148813733,1.0052310941009688,-0.13862592898405565,0.7034168778872838,0.08624213729039266,0.9856281346045023,-0.0952592212890959,0.7420573120177026,0.08576112634592509,0.9637110259514264,-0.12089921141660578,0.7684148414536596,0.11006815358106896,0.9503676415355857,-0.014414732928055417,0.6613858683186845,0.03495592976465457,0.9984252479746114,-0.17247942980547498,0.6367613202085373,0.10827297508296221,0.9611687292729665,-0.06695511605151373,0.6626520307999872,0.10269943195200024,0.5986881850719499,-0.325566117925181,0.593512708043358,0.20650535004927567,0.9651563019239052,-0.11894197181047009,0.6981685047351868,0.09756850257328062,0.7371690468624502,-0.3980467531203107,0.7223321804962504,0.28323761620212906,0.8850147920147541,-0.23072350067284797,0.6850978152342224,0.11518424187353822,0.7603238019913972,-0.39014762125916375,0.7052150246727631,0.3015834512700969,0.7889465011670066,-0.20528199603556357,0.6917119657143651,0.18818115739957858,0.7344743624976806,-0.3958103940793239,0.7433355970133406,0.4028326046144569,0.8402436666406187,-0.18981955881927282,0.7565449298402446,0.09785594146929505,0.6570807990436587,-0.4490552626833263,0.716362721380658,0.3490569113441085,0.7364918742339345,-0.057401556707073406,0.44908345229588326,0.026575638247128455,0.9704014772017053,-0.10546117521805101,0.46201573521836914,0.13509116793893702,1.0312127603490115,-0.08750962955381841,0.2742499816114359,0.04573091541419079,0.7838274797343774,-0.20269687486267285,0.3706551598111785,0.13040651567893094,1.0321313334406983,-0.044987036365767716,0.18726495148904607,0.04943012003319786,0.7208462415749279,-0.23781859748289727,0.1950475176021913,0.2272221981741226,1.011536549309591,-0.0017305426234386434,0.12236348668232269,-0.025846520833934686,0.654563008025807,-0.24988370839404705,0.15384677237861438,0.16883811110275898,0.9745699845960338,-0.03679145952243199,0.17293767350240194,0.06096662468054157,0.578305264579952,-0.3411161271363861,0.09380672171519497,0.20549203956123102,0.9428705549952225
57,-0.07067166766652992,0.6893331565218267,0.057931504964594066,0.9620483539706326,-0.08084611159620998,0.7600597014628043,0.12496035410453056,0.9705390988443585,-0.08284275400628884,0.7647613327338406,0.06804417614005256,0.9888056954656211,-0.10864891511803487,0.7230464771868863,0.07721771710136069,0.9529900557875411,-0.1260771268295825,0.7021474118282306,0.03678733767043277,0.9793733268863415,-0.09274061271944835,0.7359560256306972,0.09802991033175487,0.9691221142875339,-0.05797831222002264,0.7137038528638985,0.09258990143056112,1.0092866755838636,-0.12084312506529163,0.7535847652475222,0.10147470535231255,1.0052289483337569,-0.15732918644943142,0.691226237914597,0.10098521847988376,0.9856274193487651,-0.10443414470726267,0.7331000452101465,0.09342579480720081,0.9635154631119183,-0.12299725699782812,0.7603131993218541,0.1120905367895024,0.9500385046871361,-0.044141391195975196,0.641858194597371,0.05877653725377917,0.9972862628175985,-0.17235601239283227,0.6214641457548019,0.10785901489326738,0.9604203333531666,0.013229792026254775,0.6688016208153986,0.04068369793109217,0.32242628917694555,-0.21191185543713006,0.6334740460865709,0.11620633496363676,0.9828259796582802,0.12266644821411588,0.7168422227108032,-0.08983462368596934,0.4203121857479482,-0.16456503089270064,0.7813382754288065,0.0988690235302935,0.9642235832707049,0.029999671610517413,0.7048241512365723,-0.08691471884077329,0.5091976020306885,-0.15215895429020534,0.763526963912265,0.11338493629143473,0.8587968267514182,0.04256966905647602,0.7156973516091405,-0.003738264224831145,0.46404302275692744,-0.15568421188165313,0.8053039831865889,0.21293337226774636,0.8928510837472471,0.049362055492420884,0.780194085933842,-0.08747512674088273,0.39842638343620623,-0.21318295832834896,0.7780857748360108,0.16266007304719693,0.7918336544196339,-0.06788272323134943,0.43638259656391915,0.0349973391686377,0.970360707624679,-0.09537405944412705,0.45225729257806463,0.12715900344377626,1.0311612619359256,-0.1018695394092311,0.2667067753965311,0.056970140101258976,0.25159085895057154,-0.1768227297956168,0.3707866178552306,0.11024703163793484,0.9649943901003967,-0.07923945370633914,0.17428715767629427,0.07590675563846068,0.3102491258198467,-0.20935511720204447,0.1931746651575425,0.2050362647431904,0.7846039044655357,-0.03578290524305535,0.10616516450538949,0.00030499727011079614,0.35614266820303786,-0.22049268997957205,0.14779302663200178,0.14585184346583596,0.8070157252958019,-0.058781468006509345,0.16502480673118075,0.07828574211301333,0.21971400605410357,-0.2946666177990691,0.09869828119681578,0.16950720627755728,0.4930666065928177
58,-0.009354056913716081,0.6887823499994573,0.009680754417527873,0.9620483539706326,-0.03201866734469171,0.7576788535318961,0.08640023451520754,0.9705390988443585,-0.033869399079039145,0.7618826668097683,0.02937290970676864,0.9887280902181236,-0.059714574914150255,0.7196931198718228,0.038579076016556434,0.9529900557875411,-0.07503017860566455,0.7007039065410602,-0.0035110352339003045,0.9793733268863415,-0.04158076698634496,0.73464698842214,0.05764293101625416,0.9690507079230929,-0.006584518040606394,0.712554138870826,0.052022278829614764,1.0092866755838636,-0.03700702356353091,0.7496947277109011,0.03577376120122435,1.0051381108551192,-0.08710101072954426,0.6899042664981236,0.045821998184759044,0.9854798382483011,-0.05347778140087006,0.7332427387297388,0.053274970555992694,0.9608823683243206,-0.07202710243553731,0.7617007358475805,0.07193758931612108,0.9478822470577417,0.020086373265026075,0.6403116924840287,0.008434649216191777,0.9957345154955157,-0.09228019476455113,0.625228655909526,0.04529292990279669,0.9577438463841725,0.09662357173388894,0.6607847364884638,-0.024272029704296944,0.6967640517711686,-0.07849522952732806,0.636175745820305,0.011698075331342296,1.016547665067826,0.2018178413439752,0.715442467232898,-0.15120593305843766,0.6378495292499929,-0.0004738583078225775,0.7870586523971903,-0.0299150277759624,0.9449885683552387,0.10969383097286917,0.7058084623403931,-0.1485822943927229,0.6960446629494965,0.021623822578911066,0.7708003995049164,-0.023122249262392876,0.845345786960311,0.13301429517808755,0.7179476653679906,-0.07376561516236829,0.6551989332488708,0.01784931469875157,0.8147857112635237,0.07672519718790072,0.8871373228944334,0.13194107197342866,0.7821109713098185,-0.15142684759007616,0.5974663195018801,-0.047755055187682235,0.7873650259346436,0.032806532131181065,0.7854065451781483,-0.07988654070060287,0.45701352245770277,0.044271779531633526,0.9703083747465662,-0.08317574388834997,0.4746047428344123,0.11768863915740506,1.0310083760220767,-0.1360903426672295,0.2884728121454172,0.0835667044872801,0.712052639379458,-0.19454220107785797,0.3910720156232513,0.12418013727052868,0.9718657327593935,-0.1940379250706224,0.19098818542726317,0.1652222645391163,0.4104732035214153,-0.26557710883257196,0.2114294369861939,0.24891809100343712,0.7220774996079002,-0.16034892481047894,0.12379271665706948,0.09713339861185707,0.582432983592671,-0.2797695660588882,0.1640574801623134,0.19213081029110202,0.8723151170423229,-0.18693456006973272,0.16952995675130333,0.17832473811303967,0.18734838591784256,-0.34089698916470884,0.11228903427527648,0.2057020824781533,0.32991167671649013
59,0.05073394806718672,0.7281353034334478,-0.03610579208791971,0.9620483539706326,0.04935746412398659,0.8003632297716727,0.02397933390245399,0.9705390988443585,0.04773956413671296,0.8052730004622647,-0.03330324376116524,0.9888005694661703,0.022250276829979446,0.7637988880755582,-0.024447718110634762,0.9529900557875411,0.004074765746644733,0.7422907824565875,-0.06399311992518669,0.9793733268863415,0.03715410333988658,0.7760402684514369,-0.0025031937790956325,0.9691182995902683,0.07169055088562792,0.753821593495002,-0.007720565329778258,1.0092866755838636,0.04277705170793473,0.7967521775285585,-0.025785654752708338,1.0052242991714644,0.0027519504026062066,0.7327321111178746,-0.02301685442614368,0.9856085842810159,0.023837253520265334,0.7727109675467249,-0.006116148642767293,0.9636353280525617,0.005716366394033327,0.7996145947381139,0.012403488767421953,0.9502875328930077,0.09753850064243867,0.6808078630048112,-0.052030180743496114,0.9981007602884542,-0.060034383236246866,0.6616032844533798,0.021161432673292797,0.9612857927953053,0.06951543143526198,0.6650427134972834,-0.003693277130057338,0.33105209455490575,-0.21261676321706768,0.6109199465267869,0.11739441634523916,0.9014063925229653,0.0066645874263791885,0.658891785641864,0.0005810798765876549,0.4703050749138265,-0.2903843183449758,0.7400623569450724,0.1963731865869116,0.6559090810314777,-0.1115604818166254,0.627375663954773,0.023477650967988692,0.48860732650464184,-0.284519175724199,0.7184629914391205,0.2157151976551225,0.5813914455487205,-0.08640157004962337,0.6429926191910802,0.09696880298349517,0.45913490808522023,-0.2808600350700944,0.7642082495440108,0.3098577989984198,0.6219138197816404,-0.0669986912078015,0.7147517622491496,0.0034229318439180575,0.35611516207504595,-0.33717194779929105,0.7381880349487733,0.25867685829739856,0.4554213736216755,-0.06205634088781348,0.49062285311184706,0.030104805626627193,0.9703952783186488,-0.10081265957995758,0.5063820055220954,0.13169935989063156,1.0312047733266116,-0.19669572233649893,0.3182829725439005,0.13055396026403987,0.8281297644519372,-0.23632322441875644,0.41149638162056573,0.15667959842790308,1.013848443120874,-0.2310059227207787,0.2092879289603977,0.19422813572060166,0.6488651691490857,-0.327946630149588,0.2235881735727647,0.29750608210342466,0.8262019264496361,-0.19293381592050732,0.140715026651767,0.12299178519836412,0.6612373573338209,-0.3445095072184747,0.17513601667278098,0.242620041298985,0.717693396728297,-0.24640132911153997,0.18210287111325704,0.22455058147523446,0.46695368515223284,-0.43250672493704845,0.11939210489199859,0.2766448955172197,0.6307056523081498
60,,,,,,,,,,,,,,,,,,,,,,,,,,,,,,,,,,,,,,,,,,,,,,,,,,,,,,,,,,,,,,,,,,,,,,,,,,,,,,,,,,,,,,,,,,,,,,,,,,,,,,,,,,,,,,,,,,,,,,,,,,,,,,,,,,,,
61,,,,,,,,,,,,,,,,,,,,,,,,,,,,,,,,,,,,,,,,,,,,,,,,,,,,,,,,,,,,,,,,,,,,,,,,,,,,,,,,,,,,,,,,,,,,,,,,,,,,,,,,,,,,,,,,,,,,,,,,,,,,,,,,,,,,
62,,,,,,,,,,,,,,,,,,,,,,,,,,,,,,,,,,,,,,,,,,,,,,,,,,,,,,,,,,,,,,,,,,,,,,,,,,,,,,,,,,,,,,,,,,,,,,,,,,,,,,,,,,,,,,,,,,,,,,,,,,,,,,,,,,,,
63,,,,,,,,,,,,,,,,,,,,,,,,,,,,,,,,,,,,,,,,,,,,,,,,,,,,,,,,,,,,,,,,,,,,,,,,,,,,,,,,,,,,,,,,,,,,,,,,,,,,,,,,,,,,,,,,,,,,,,,,,,,,,,,,,,,,
64,,,,,,,,,,,,,,,,,,,,,,,,,,,,,,,,,,,,,,,,,,,,,,,,,,,,,,,,,,,,,,,,,,,,,,,,,,,,,,,,,,,,,,,,,,,,,,,,,,,,,,,,,,,,,,,,,,,,,,,,,,,,,,,,,,,,
65,,,,,,,,,,,,,,,,,,,,,,,,,,,,,,,,,,,,,,,,,,,,,,,,,,,,,,,,,,,,,,,,,,,,,,,,,,,,,,,,,,,,,,,,,,,,,,,,,,,,,,,,,,,,,,,,,,,,,,,,,,,,,,,,,,,,
66,-0.43459205594839184,0.6408181943254766,0.34377199416187476,0.9620483539706326,-0.44408353870261486,0.7030855288706412,0.41039495824593053,0.9705390988443585,-0.4458762148590639,0.7079451124503323,0.3532800872161242,0.9888068875585165,-0.4714048916251689,0.6664341643931546,0.36219756779220347,0.9529900557875411,-0.48232318183017775,0.6446365590145099,0.31684989715541906,0.9793733268863415,-0.44896429702182644,0.677742076427206,0.3780735700203468,0.9691233063804293,-0.4141171081067124,0.6548563658910896,0.3725644087241159,1.0092866755838636,-0.44308291000479727,0.6986183155099733,0.3546199711072263,1.0052319285659956,-0.4535954681686512,0.6328916489100804,0.3341432257386083,0.9856290882788187,-0.45251489611263723,0.6921282296240564,0.36657327790873995,0.9637494113426617,-0.46328822824749866,0.7173575623437047,0.3792385189123636,0.9504153252514062,-0.2800253749751272,0.614941690691121,0.24325686418550996,0.9983082440569173,-0.3877599514229385,0.6081625348081466,0.27677232974234833,0.9620695938741017,-0.17848223744191352,0.677843228195312,0.18959045721560475,0.43153738961220256,-0.3940764644494048,0.668118888234398,0.2583530463187493,0.956370517679368,-0.10373411475539071,0.6785407548152954,0.08593473319454095,0.15604605243953762,-0.38118482755291583,0.7793676266632426,0.26728281532876885,0.6574840145603779,-0.19509658701382915,0.6529873029776001,0.08775769909873672,0.18374186193650371,-0.3824749833096302,0.7527800676453278,0.2923257457815496,0.557211569698043,-0.18550636894114148,0.655293646965891,0.17344631524333967,0.1434601560882262,-0.39723542612813156,0.7898195309389693,0.40070130956075756,0.583657353392938,-0.17749128544617318,0.7266105831643718,0.08882343368505022,0.11860428720760664,-0.4355248090143131,0.7645763820976685,0.33556869311803905,0.4639910910289021,-0.07547440505335211,0.4659389007803041,0.040939499794345004,0.9703754895765832,-0.08900848901895961,0.4942122867797248,0.12236523297561377,1.0311461223561527,-0.08948392752838535,0.3948648678953104,0.04717776058348111,0.982374902620272,-0.13436019806152222,0.5100271509687102,0.07797248295377543,0.9951237035693299,0.007277233536450212,0.3956580186105518,0.008395918935878332,0.9540836273247448,-0.06072938978967877,0.4648243983433107,0.09056728747524746,0.9797749030388391,0.059719765147970345,0.3421571938146622,-0.07416994712004348,0.8761337382351576,-0.05920393377729774,0.44013785011165424,0.02138417129355566,0.8698647700956066,-0.002704152444070511,0.39648142176194634,0.0346354488938831,0.879661580192745,-0.17349433273774928,0.3976776380817721,0.07726648382143672,0.9279660559412675
67,,,,,,,,,,,,,,,,,,,,,,,,,,,,,,,,,,,,,,,,,,,,,,,,,,,,,,,,,,,,,,,,,,,,,,,,,,,,,,,,,,,,,,,,,,,,,,,,,,,,,,,,,,,,,,,,,,,,,,,,,,,,,,,,,,,,
68,,,,,,,,,,,,,,,,,,,,,,,,,,,,,,,,,,,,,,,,,,,,,,,,,,,,,,,,,,,,,,,,,,,,,,,,,,,,,,,,,,,,,,,,,,,,,,,,,,,,,,,,,,,,,,,,,,,,,,,,,,,,,,,,,,,,
69,,,,,,,,,,,,,,,,,,,,,,,,,,,,,,,,,,,,,,,,,,,,,,,,,,,,,,,,,,,,,,,,,,,,,,,,,,,,,,,,,,,,,,,,,,,,,,,,,,,,,,,,,,,,,,,,,,,,,,,,,,,,,,,,,,,,
70,,,,,,,,,,,,,,,,,,,,,,,,,,,,,,,,,,,,,,,,,,,,,,,,,,,,,,,,,,,,,,,,,,,,,,,,,,,,,,,,,,,,,,,,,,,,,,,,,,,,,,,,,,,,,,,,,,,,,,,,,,,,,,,,,,,,
71,,,,,,,,,,,,,,,,,,,,,,,,,,,,,,,,,,,,,,,,,,,,,,,,,,,,,,,,,,,,,,,,,,,,,,,,,,,,,,,,,,,,,,,,,,,,,,,,,,,,,,,,,,,,,,,,,,,,,,,,,,,,,,,,,,,,
72,,,,,,,,,,,,,,,,,,,,,,,,,,,,,,,,,,,,,,,,,,,,,,,,,,,,,,,,,,,,,,,,,,,,,,,,,,,,,,,,,,,,,,,,,,,,,,,,,,,,,,,,,,,,,,,,,,,,,,,,,,,,,,,,,,,,
73,,,,,,,,,,,,,,,,,,,,,,,,,,,,,,,,,,,,,,,,,,,,,,,,,,,,,,,,,,,,,,,,,,,,,,,,,,,,,,,,,,,,,,,,,,,,,,,,,,,,,,,,,,,,,,,,,,,,,,,,,,,,,,,,,,,,
74,,,,,,,,,,,,,,,,,,,,,,,,,,,,,,,,,,,,,,,,,,,,,,,,,,,,,,,,,,,,,,,,,,,,,,,,,,,,,,,,,,,,,,,,,,,,,,,,,,,,,,,,,,,,,,,,,,,,,,,,,,,,,,,,,,,,
75,,,,,,,,,,,,,,,,,,,,,,,,,,,,,,,,,,,,,,,,,,,,,,,,,,,,,,,,,,,,,,,,,,,,,,,,,,,,,,,,,,,,,,,,,,,,,,,,,,,,,,,,,,,,,,,,,,,,,,,,,,,,,,,,,,,,
76,,,,,,,,,,,,,,,,,,,,,,,,,,,,,,,,,,,,,,,,,,,,,,,,,,,,,,,,,,,,,,,,,,,,,,,,,,,,,,,,,,,,,,,,,,,,,,,,,,,,,,,,,,,,,,,,,,,,,,,,,,,,,,,,,,,,
77,,,,,,,,,,,,,,,,,,,,,,,,,,,,,,,,,,,,,,,,,,,,,,,,,,,,,,,,,,,,,,,,,,,,,,,,,,,,,,,,,,,,,,,,,,,,,,,,,,,,,,,,,,,,,,,,,,,,,,,,,,,,,,,,,,,,
78,,,,,,,,,,,,,,,,,,,,,,,,,,,,,,,,,,,,,,,,,,,,,,,,,,,,,,,,,,,,,,,,,,,,,,,,,,,,,,,,,,,,,,,,,,,,,,,,,,,,,,,,,,,,,,,,,,,,,,,,,,,,,,,,,,,,
79,-0.1905989966422673,0.6207137860613164,0.15414480822114696,0.9620483539706326,-0.18757488365326525,0.68273197319132,0.21111030413193332,0.9705390988443585,-0.18927867952993332,0.6871545951201626,0.15390745067482736,0.9888060530934896,-0.2147119088357276,0.645197267878262,0.16273160542519718,0.9529900557875411,-0.23822507251177516,0.6241298193981158,0.12730842592124755,0.9793733268863415,-0.20512632556581584,0.6568843846623744,0.18878751924395887,0.9691231871711398,-0.170443481406033,0.633638066025367,0.18345980537593354,1.0092866755838636,-0.1643276885397896,0.677061044029413,0.13805496316724591,1.005231570938127,-0.22997249086451402,0.6121327220416417,0.16078245652912668,0.9856281346045023,-0.20311369689872244,0.6711591963827844,0.17267555103494153,0.9637496497612409,-0.22911732906430607,0.6966722472115636,0.197250628221605,0.9504160405071433,-0.036359547967135905,0.6038568360883073,0.05336985300068857,0.9985979226305257,-0.2480553626422246,0.582566691016185,0.16868961821140874,0.9620943894063283,-0.02215259079393344,0.6975830944520258,0.06590061437202918,0.7807550428867387,-0.3124991417754172,0.6282201946728441,0.19569167503871188,1.0292200297795877,-0.05657914578699647,0.7062421326839478,0.04604486048952379,0.5896066622570425,-0.2802395639999609,0.730310619827305,0.1900763073863917,0.8929430442349079,-0.15203377104745536,0.6858025805540466,0.05078493179061677,0.5380826983422577,-0.28060735338505305,0.7042825100052521,0.2146748486109398,0.7807024635388328,-0.15050465437952668,0.6863078509911595,0.1431120567699358,0.5060144678405456,-0.27552857608678055,0.7401193303812605,0.3075509194459427,0.8068451576150449,-0.13638341573097826,0.7544136465570109,0.05383026649314276,0.5009163317089114,-0.3264139167436536,0.713949984964795,0.2520133609747161,0.7317802462737294,-0.0388349062599848,0.4415174771066743,0.012116754413927212,0.970327567442184,-0.12490333260290334,0.47064747125848455,0.1504610859787351,1.0308980478245975,-0.045012798697892334,0.4238402354413919,0.011883262048951671,1.0268014034175441,-0.147733443264433,0.6393128739396727,0.0880854105156055,1.0327874613703858,0.04874315878530261,0.48308909179933357,-0.024561619342597114,1.0344513712937085,-0.07417229923314578,0.6885403891250947,0.09945413886636334,1.029739032963613,0.10211226246602115,0.4370959488500626,-0.10796373444228831,1.0245205742870986,-0.07095798803375147,0.6730914879500179,0.028598837950867935,0.9976054512670238,0.06572729580346287,0.5065125496916338,-0.01919800211504099,1.0069061123010519,-0.1569586981694503,0.6597570855896304,0.06278236111986045,1.002038714956923
80,,,,,,,,,,,,,,,,,,,,,,,,,,,,,,,,,,,,,,,,,,,,,,,,,,,,,,,,,,,,,,,,,,,,,,,,,,,,,,,,,,,,,,,,,,,,,,,,,,,,,,,,,,,,,,,,,,,,,,,,,,,,,,,,,,,,
81,,,,,,,,,,,,,,,,,,,,,,,,,,,,,,,,,,,,,,,,,,,,,,,,,,,,,,,,,,,,,,,,,,,,,,,,,,,,,,,,,,,,,,,,,,,,,,,,,,,,,,,,,,,,,,,,,,,,,,,,,,,,,,,,,,,,
82,,,,,,,,,,,,,,,,,,,,,,,,,,,,,,,,,,,,,,,,,,,,,,,,,,,,,,,,,,,,,,,,,,,,,,,,,,,,,,,,,,,,,,,,,,,,,,,,,,,,,,,,,,,,,,,,,,,,,,,,,,,,,,,,,,,,
83,,,,,,,,,,,,,,,,,,,,,,,,,,,,,,,,,,,,,,,,,,,,,,,,,,,,,,,,,,,,,,,,,,,,,,,,,,,,,,,,,,,,,,,,,,,,,,,,,,,,,,,,,,,,,,,,,,,,,,,,,,,,,,,,,,,,
84,,,,,,,,,,,,,,,,,,,,,,,,,,,,,,,,,,,,,,,,,,,,,,,,,,,,,,,,,,,,,,,,,,,,,,,,,,,,,,,,,,,,,,,,,,,,,,,,,,,,,,,,,,,,,,,,,,,,,,,,,,,,,,,,,,,,
85,,,,,,,,,,,,,,,,,,,,,,,,,,,,,,,,,,,,,,,,,,,,,,,,,,,,,,,,,,,,,,,,,,,,,,,,,,,,,,,,,,,,,,,,,,,,,,,,,,,,,,,,,,,,,,,,,,,,,,,,,,,,,,,,,,,,
86,,,,,,,,,,,,,,,,,,,,,,,,,,,,,,,,,,,,,,,,,,,,,,,,,,,,,,,,,,,,,,,,,,,,,,,,,,,,,,,,,,,,,,,,,,,,,,,,,,,,,,,,,,,,,,,,,,,,,,,,,,,,,,,,,,,,
87,,,,,,,,,,,,,,,,,,,,,,,,,,,,,,,,,,,,,,,,,,,,,,,,,,,,,,,,,,,,,,,,,,,,,,,,,,,,,,,,,,,,,,,,,,,,,,,,,,,,,,,,,,,,,,,,,,,,,,,,,,,,,,,,,,,,
88,,,,,,,,,,,,,,,,,,,,,,,,,,,,,,,,,,,,,,,,,,,,,,,,,,,,,,,,,,,,,,,,,,,,,,,,,,,,,,,,,,,,,,,,,,,,,,,,,,,,,,,,,,,,,,,,,,,,,,,,,,,,,,,,,,,,
89,,,,,,,,,,,,,,,,,,,,,,,,,,,,,,,,,,,,,,,,,,,,,,,,,,,,,,,,,,,,,,,,,,,,,,,,,,,,,,,,,,,,,,,,,,,,,,,,,,,,,,,,,,,,,,,,,,,,,,,,,,,,,,,,,,,,
90,,,,,,,,,,,,,,,,,,,,,,,,,,,,,,,,,,,,,,,,,,,,,,,,,,,,,,,,,,,,,,,,,,,,,,,,,,,,,,,,,,,,,,,,,,,,,,,,,,,,,,,,,,,,,,,,,,,,,,,,,,,,,,,,,,,,
91,,,,,,,,,,,,,,,,,,,,,,,,,,,,,,,,,,,,,,,,,,,,,,,,,,,,,,,,,,,,,,,,,,,,,,,,,,,,,,,,,,,,,,,,,,,,,,,,,,,,,,,,,,,,,,,,,,,,,,,,,,,,,,,,,,,,
92,,,,,,,,,,,,,,,,,,,,,,,,,,,,,,,,,,,,,,,,,,,,,,,,,,,,,,,,,,,,,,,,,,,,,,,,,,,,,,,,,,,,,,,,,,,,,,,,,,,,,,,,,,,,,,,,,,,,,,,,,,,,,,,,,,,,
93,,,,,,,,,,,,,,,,,,,,,,,,,,,,,,,,,,,,,,,,,,,,,,,,,,,,,,,,,,,,,,,,,,,,,,,,,,,,,,,,,,,,,,,,,,,,,,,,,,,,,,,,,,,,,,,,,,,,,,,,,,,,,,,,,,,,
94,,,,,,,,,,,,,,,,,,,,,,,,,,,,,,,,,,,,,,,,,,,,,,,,,,,,,,,,,,,,,,,,,,,,,,,,,,,,,,,,,,,,,,,,,,,,,,,,,,,,,,,,,,,,,,,,,,,,,,,,,,,,,,,,,,,,
95,-0.4087549982219285,0.7082831420259771,0.32358558636725543,0.9620483539706326,-0.4293690034070123,0.7762526145182242,0.3987396746607377,0.9705390988443585,-0.43112061262539725,0.7799622456862637,0.34159317904462166,0.9888073643956747,-0.4565886572733941,0.7372316077830472,0.3504653931283974,0.9529900557875411,-0.45945827701770814,0.7208380575229633,0.2988395903801735,0.9793733268863415,-0.42608639048837654,0.7553004746739711,0.360043916103211,0.9691237832175875,-0.3911640291387546,0.7337146818357613,0.35446747710408866,1.0092866755838636,-0.4662502349980433,0.7620131600419863,0.3725125191929831,1.0052320477752852,-0.43983542628741845,0.7070848881221166,0.3232628742561266,0.9856318300924783,-0.4410935426383235,0.7497741465628381,0.35775598521834917,0.9637510802727153,-0.44147632822320837,0.7789981825753332,0.3623697940076861,0.9504187823208031,-0.3466683100243949,0.6538383109647111,0.29557577655327966,0.9983533051683673,-0.357852774189203,0.6324560767164108,0.2535646896273952,0.9614277710591603,-0.26021606751508597,0.7171874793511652,0.2536820036850387,0.7681942580699967,-0.34110974776055564,0.6450270355694505,0.21753841048935346,0.9830159992658242,-0.1881750881506479,0.7453696613513977,0.1521645183269101,0.49522121713909206,-0.32713844138018544,0.7443085322342264,0.22649948527807814,0.7323950129047992,-0.28679773328875774,0.7284520880766296,0.15961909105923477,0.4860548171967805,-0.3141833099468342,0.7163967368233368,0.24068313076631795,0.5912061847760154,-0.2728428136449143,0.7288923298462926,0.24181299533268408,0.43960023081814564,-0.3338463771621265,0.7542192859400374,0.3528419850365129,0.6324826769746336,-0.26120171608776244,0.795826774933018,0.15441021334666555,0.42477032512474383,-0.3824920859375731,0.7307191557259034,0.2956936327346066,0.5409637842337819,-0.11722856693173801,0.4717512477155763,0.07429727243577179,0.9703973048765712,-0.054280573432382885,0.49108882457956,0.09595979155402982,1.0311902297932865,-0.10477535542714972,0.47646317955798434,0.06024684494291155,1.0022417863750024,-0.0532466655812294,0.6096304164926207,0.01511116503737437,0.79388280639068,0.0570419636886893,0.5275276029325275,-0.028763104694898674,0.9677218257004467,0.08710814921512333,0.6315298576996187,-0.024818449560699812,0.882648597935537,0.11444244850169125,0.4805157569994004,-0.11535826735143911,0.8455426675831496,0.09094216922954113,0.6121048498808651,-0.09586827207360123,0.6914998375585277,0.06471536381379994,0.5540095539621874,-0.015747275207043193,0.8781655632135275,-0.0012729928052320205,0.5991343934814761,-0.057106357442880736,0.8244236684557633
96,-0.28568632342657746,0.6886624254541692,0.22739618244392262,0.9620483539706326,-0.3038815427146186,0.757987784405767,0.3007490158007117,0.9705390988443585,-0.30578255202421023,0.7620749513938138,0.24373189239228094,0.9888066491399375,-0.33125394079772613,0.7196197465541043,0.2526195152956794,0.9529900557875411,-0.33850605354617336,0.7019989962627399,0.2043589593167276,0.9793733268863415,-0.3050622337687597,0.7364158158604945,0.2655057900805407,0.9691222334968234,-0.2700646580458324,0.7148255526739266,0.2598692898620504,1.0092866755838636,-0.3542719611862404,0.746587775997339,0.28512157224295603,1.0052319285659956,-0.3476332995773813,0.689462059638535,0.25120777372858744,0.9856127566061503,-0.3254315529359695,0.7315122370779749,0.2673841709257208,0.9637494113426617,-0.33128148726103557,0.7601815922661901,0.27619420423987207,0.9504138947399315,-0.28768033293634665,0.6461927039700822,0.2493216351349255,0.9985179331972369,-0.2886440755644294,0.6256442790975448,0.19994293927532872,0.9620255460416127,-0.2663794056519571,0.7353018077355646,0.2583009845033434,0.25650544450283513,-0.29192935227149164,0.6839602530949327,0.18047809976587986,0.2849015147172554,-0.2676747887934686,0.785731602212146,0.21401106363250458,0.13286886082443292,-0.31525968034030344,0.8096322426758158,0.21881421499552425,0.25638108425298956,-0.3854126257967593,0.7753202931471253,0.23642628907418306,0.14089002644723062,-0.311395457889722,0.7878504869568512,0.24014053254719012,0.1751402981593085,-0.3641202124940556,0.7809523378953038,0.31299674068455013,0.08555460131680281,-0.3213425485682117,0.8288875145662886,0.3446989600864797,0.199314980975488,-0.3410278456835823,0.8446928680917399,0.21671643241815614,0.06419284611988395,-0.36841021152216047,0.8032857841820191,0.2862856853807897,0.1025583002726765,-0.11895293802937146,0.47837034351788343,0.07533647976705782,0.9703764432508996,-0.05202742214268651,0.5088159611914985,0.09441606022480596,1.0311939252812623,-0.1323919407301259,0.4547315048868112,0.08092838592592329,0.9833813270473046,-0.07351611701123884,0.6995207773248351,0.03114748117334345,0.1689494592847,-0.040834940371866926,0.4893120849347858,0.04645079650300993,0.9186958132797924,0.030455396381895185,0.7923114796326021,0.01999642983213447,0.45763535378346787,0.01116289406478247,0.4395141390909226,-0.03595435865061087,0.8481247407948195,0.028870301249662347,0.7811697889029293,-0.046683140122259076,0.39911893836762496,-0.02272479665669136,0.5047748954824969,0.0511364287392917,0.8189698659059408,-0.04635248936198619,0.7807231624405215,-0.021484345789761168,0.4153491831537918
97,,,,,,,,,,,,,,,,,,,,,,,,,,,,,,,,,,,,,,,,,,,,,,,,,,,,,,,,,,,,,,,,,,,,,,,,,,,,,,,,,,,,,,,,,,,,,,,,,,,,,,,,,,,,,,,,,,,,,,,,,,,,,,,,,,,,
98,,,,,,,,,,,,,,,,,,,,,,,,,,,,,,,,,,,,,,,,,,,,,,,,,,,,,,,,,,,,,,,,,,,,,,,,,,,,,,,,,,,,,,,,,,,,,,,,,,,,,,,,,,,,,,,,,,,,,,,,,,,,,,,,,,,,
99,,,,,,,,,,,,,,,,,,,,,,,,,,,,,,,,,,,,,,,,,,,,,,,,,,,,,,,,,,,,,,,,,,,,,,,,,,,,,,,,,,,,,,,,,,,,,,,,,,,,,,,,,,,,,,,,,,,,,,,,,,,,,,,,,,,,
100,-0.3609978754826879,0.6967977442102727,0.2859782579293606,0.9620483539706326,-0.3794807017323084,0.7659799924097648,0.3594071983062334,0.9705390988443585,-0.3812360052213245,0.7702257673575589,0.30224900153927436,0.9888028344426719,-0.40679679243641,0.7280508235575833,0.3111757983822279,0.9529900557875411,-0.4102123887404686,0.710044192795943,0.2600290717024248,0.9793733268863415,-0.3768210715464182,0.7444024806325282,0.3212224962809598,0.9691198493110323,-0.3419018963532353,0.722734254570594,0.31565168194715854,1.0092866755838636,-0.4077891200689273,0.7577400434533937,0.326436832036689,1.0052276370315718,-0.38217675633334514,0.7000159560656896,0.2779215710598454,0.9856221741400247,-0.3892927831091819,0.7410337214529749,0.31701212760419323,0.96371007227711,-0.390469343846491,0.769615517418015,0.3222612167171829,0.9503498793514428,-0.28204777817726123,0.6532497150975541,0.24451174912772278,0.9980828192903766,-0.29716590461099524,0.6411908989896652,0.20625437337659358,0.9619763126050281,-0.18122810484759447,0.6435810478669428,0.19155536723967365,0.38616719827652446,-0.3446391917376143,0.682244831418297,0.22095386132435035,1.0403395742856607,-0.11374996534621898,0.5911753659450562,0.09365318927025171,0.1768697546556859,-0.37891167118764557,0.7982469210586893,0.2681076944569679,1.0254569249645833,-0.2055959559839911,0.5482492463179016,0.09582350115920886,0.18847049212163092,-0.3731802254593345,0.7747381207573578,0.2881406219192649,0.9429691948010397,-0.19095665255047503,0.5526626144990026,0.17757812523908933,0.1648928240588835,-0.3916454241062178,0.8107889814127547,0.39931225426548744,0.9915701441682372,-0.18496169357836176,0.6285234511872905,0.09458400244019369,0.14682358473587365,-0.4358301687513607,0.7854721016258668,0.338516082770698,0.9214803133170337,-0.11748406474791237,0.4964748371358949,0.07403322157548674,0.9704064839918664,-0.05066803801773525,0.5076669028495185,0.09302414210855513,1.0312180055577518,-0.18522854656314597,0.4431972014600687,0.12214500754308154,0.7520360907458825,-0.11678974700275553,0.4669252143899596,0.06407285019694198,0.9942195607127319,-0.1070268816198555,0.43154829981096077,0.09801479542344514,0.8079716025406567,-0.06996126447316772,0.3533375163719514,0.09672002564243487,0.9735871660507714,-0.06085415772704853,0.3755112675775559,0.02019321092111831,0.7575888616596876,-0.0740369597227509,0.31920944339626117,0.031809118464966715,0.9126573287656506,-0.12321794317273571,0.4377533765368029,0.129485801237872,0.6565342746850851,-0.17424161877893635,0.26190114810870385,0.07674371955692194,0.9188799834963515
101,,,,,,,,,,,,,,,,,,,,,,,,,,,,,,,,,,,,,,,,,,,,,,,,,,,,,,,,,,,,,,,,,,,,,,,,,,,,,,,,,,,,,,,,,,,,,,,,,,,,,,,,,,,,,,,,,,,,,,,,,,,,,,,,,,,,
102,,,,,,,,,,,,,,,,,,,,,,,,,,,,,,,,,,,,,,,,,,,,,,,,,,,,,,,,,,,,,,,,,,,,,,,,,,,,,,,,,,,,,,,,,,,,,,,,,,,,,,,,,,,,,,,,,,,,,,,,,,,,,,,,,,,,
103,,,,,,,,,,,,,,,,,,,,,,,,,,,,,,,,,,,,,,,,,,,,,,,,,,,,,,,,,,,,,,,,,,,,,,,,,,,,,,,,,,,,,,,,,,,,,,,,,,,,,,,,,,,,,,,,,,,,,,,,,,,,,,,,,,,,
104,,,,,,,,,,,,,,,,,,,,,,,,,,,,,,,,,,,,,,,,,,,,,,,,,,,,,,,,,,,,,,,,,,,,,,,,,,,,,,,,,,,,,,,,,,,,,,,,,,,,,,,,,,,,,,,,,,,,,,,,,,,,,,,,,,,,
105,,,,,,,,,,,,,,,,,,,,,,,,,,,,,,,,,,,,,,,,,,,,,,,,,,,,,,,,,,,,,,,,,,,,,,,,,,,,,,,,,,,,,,,,,,,,,,,,,,,,,,,,,,,,,,,,,,,,,,,,,,,,,,,,,,,,
106,0.026347599088725047,0.567046479161292,-0.01727094879377943,0.9620483539706326,0.030737927176485737,0.6344967355929008,0.03836689777250349,0.9705390988443585,0.029159190937182944,0.6399107615782925,-0.0189564561583176,0.9887928208623495,0.0037736565726582544,0.5989304736735501,-0.010189683142421142,0.9529900557875411,-0.011615927552317905,0.5752401824047076,-0.051848391660030996,0.9793733268863415,0.0212197830707486,0.6084324841801967,0.009840559472117663,0.9690888548957491,0.055661639858804374,0.5857265412527229,0.0047096691732034695,1.0092866755838636,0.013498629650685663,0.6347389448205812,-0.003181771783047108,1.0052062985687422,-0.005102043088471975,0.5667800246692052,-0.016919909107484036,0.9854940241537575,-0.004283530394163043,0.6170970683157678,0.015554677548359142,0.9635775711517742,-0.018351440209761753,0.6421322091027379,0.030954888855671894,0.9499782443912681,0.05529796851671483,0.5494665248471574,-0.0196625722924857,0.9986236718370687,-0.06530165269641497,0.5208986526479599,0.025294879989466758,0.9619816770230581,-0.011161747249755221,0.5510870369416498,0.056877718128204,0.029536994031076343,-0.18415707464204648,0.47242634901931013,0.09581302477671565,0.4764783234082802,-0.09838773836929521,0.4900596921646148,0.07865237644679074,0.009287529601183425,-0.2258476502390896,0.5209372649155009,0.14762015387551922,0.25831126146475103,-0.2015381154025531,0.4465456919260407,0.08935948038056789,0.06439181974237562,-0.20268348539553277,0.4785891053307221,0.15401377300503982,0.2251003898693991,-0.18145949384049276,0.450388554249674,0.16720559261740892,0.03619864365970411,-0.20356957815264518,0.5152324361551863,0.25128428303325334,0.2816056899941953,-0.17252673066549717,0.5265913725873607,0.08197987044746627,-0.002131510823485054,-0.27169128033500733,0.49712801640934456,0.2090962282829099,0.1710842702548237,-0.07180151366822723,0.41845727450810255,0.037531295915409,0.970380615576034,-0.09048931903737659,0.43405567319139166,0.12365741857419052,1.0311771167714359,-0.1242975485065527,0.30597500082797335,0.07386728453803375,0.4253870209598108,-0.1823458619416088,0.3958169327775634,0.11440544533606453,1.0026250673236021,-0.12096416745030032,0.27321258427865786,0.10778457469558689,0.6583232937866894,-0.21427714568481618,0.2872290511772493,0.20802495117868589,0.9325836407936607,-0.07971842756682546,0.2137575087894471,0.033953264804032615,0.7688127738987623,-0.2230203128932504,0.25311760789745136,0.14672995050572574,0.898650177638789,-0.08832464119395811,0.2688344688944384,0.10046974296481265,0.3321321509954336,-0.28296868603025177,0.19614414170191977,0.16008345039884025,0.628884372782393
107,,,,,,,,,,,,,,,,,,,,,,,,,,,,,,,,,,,,,,,,,,,,,,,,,,,,,,,,,,,,,,,,,,,,,,,,,,,,,,,,,,,,,,,,,,,,,,,,,,,,,,,,,,,,,,,,,,,,,,,,,,,,,,,,,,,,
108,,,,,,,,,,,,,,,,,,,,,,,,,,,,,,,,,,,,,,,,,,,,,,,,,,,,,,,,,,,,,,,,,,,,,,,,,,,,,,,,,,,,,,,,,,,,,,,,,,,,,,,,,,,,,,,,,,,,,,,,,,,,,,,,,,,,
109,,,,,,,,,,,,,,,,,,,,,,,,,,,,,,,,,,,,,,,,,,,,,,,,,,,,,,,,,,,,,,,,,,,,,,,,,,,,,,,,,,,,,,,,,,,,,,,,,,,,,,,,,,,,,,,,,,,,,,,,,,,,,,,,,,,,
110,,,,,,,,,,,,,,,,,,,,,,,,,,,,,,,,,,,,,,,,,,,,,,,,,,,,,,,,,,,,,,,,,,,,,,,,,,,,,,,,,,,,,,,,,,,,,,,,,,,,,,,,,,,,,,,,,,,,,,,,,,,,,,,,,,,,
111,,,,,,,,,,,,,,,,,,,,,,,,,,,,,,,,,,,,,,,,,,,,,,,,,,,,,,,,,,,,,,,,,,,,,,,,,,,,,,,,,,,,,,,,,,,,,,,,,,,,,,,,,,,,,,,,,,,,,,,,,,,,,,,,,,,,
112,,,,,,,,,,,,,,,,,,,,,,,,,,,,,,,,,,,,,,,,,,,,,,,,,,,,,,,,,,,,,,,,,,,,,,,,,,,,,,,,,,,,,,,,,,,,,,,,,,,,,,,,,,,,,,,,,,,,,,,,,,,,,,,,,,,,
113,,,,,,,,,,,,,,,,,,,,,,,,,,,,,,,,,,,,,,,,,,,,,,,,,,,,,,,,,,,,,,,,,,,,,,,,,,,,,,,,,,,,,,,,,,,,,,,,,,,,,,,,,,,,,,,,,,,,,,,,,,,,,,,,,,,,
114,,,,,,,,,,,,,,,,,,,,,,,,,,,,,,,,,,,,,,,,,,,,,,,,,,,,,,,,,,,,,,,,,,,,,,,,,,,,,,,,,,,,,,,,,,,,,,,,,,,,,,,,,,,,,,,,,,,,,,,,,,,,,,,,,,,,
115,,,,,,,,,,,,,,,,,,,,,,,,,,,,,,,,,,,,,,,,,,,,,,,,,,,,,,,,,,,,,,,,,,,,,,,,,,,,,,,,,,,,,,,,,,,,,,,,,,,,,,,,,,,,,,,,,,,,,,,,,,,,,,,,,,,,
116,,,,,,,,,,,,,,,,,,,,,,,,,,,,,,,,,,,,,,,,,,,,,,,,,,,,,,,,,,,,,,,,,,,,,,,,,,,,,,,,,,,,,,,,,,,,,,,,,,,,,,,,,,,,,,,,,,,,,,,,,,,,,,,,,,,,
117,,,,,,,,,,,,,,,,,,,,,,,,,,,,,,,,,,,,,,,,,,,,,,,,,,,,,,,,,,,,,,,,,,,,,,,,,,,,,,,,,,,,,,,,,,,,,,,,,,,,,,,,,,,,,,,,,,,,,,,,,,,,,,,,,,,,
118,,,,,,,,,,,,,,,,,,,,,,,,,,,,,,,,,,,,,,,,,,,,,,,,,,,,,,,,,,,,,,,,,,,,,,,,,,,,,,,,,,,,,,,,,,,,,,,,,,,,,,,,,,,,,,,,,,,,,,,,,,,,,,,,,,,,
119,,,,,,,,,,,,,,,,,,,,,,,,,,,,,,,,,,,,,,,,,,,,,,,,,,,,,,,,,,,,,,,,,,,,,,,,,,,,,,,,,,,,,,,,,,,,,,,,,,,,,,,,,,,,,,,,,,,,,,,,,,,,,,,,,,,,
120,,,,,,,,,,,,,,,,,,,,,,,,,,,,,,,,,,,,,,,,,,,,,,,,,,,,,,,,,,,,,,,,,,,,,,,,,,,,,,,,,,,,,,,,,,,,,,,,,,,,,,,,,,,,,,,,,,,,,,,,,,,,,,,,,,,,
121,,,,,,,,,,,,,,,,,,,,,,,,,,,,,,,,,,,,,,,,,,,,,,,,,,,,,,,,,,,,,,,,,,,,,,,,,,,,,,,,,,,,,,,,,,,,,,,,,,,,,,,,,,,,,,,,,,,,,,,,,,,,,,,,,,,,
122,,,,,,,,,,,,,,,,,,,,,,,,,,,,,,,,,,,,,,,,,,,,,,,,,,,,,,,,,,,,,,,,,,,,,,,,,,,,,,,,,,,,,,,,,,,,,,,,,,,,,,,,,,,,,,,,,,,,,,,,,,,,,,,,,,,,
123,,,,,,,,,,,,,,,,,,,,,,,,,,,,,,,,,,,,,,,,,,,,,,,,,,,,,,,,,,,,,,,,,,,,,,,,,,,,,,,,,,,,,,,,,,,,,,,,,,,,,,,,,,,,,,,,,,,,,,,,,,,,,,,,,,,,
124,,,,,,,,,,,,,,,,,,,,,,,,,,,,,,,,,,,,,,,,,,,,,,,,,,,,,,,,,,,,,,,,,,,,,,,,,,,,,,,,,,,,,,,,,,,,,,,,,,,,,,,,,,,,,,,,,,,,,,,,,,,,,,,,,,,,
125,,,,,,,,,,,,,,,,,,,,,,,,,,,,,,,,,,,,,,,,,,,,,,,,,,,,,,,,,,,,,,,,,,,,,,,,,,,,,,,,,,,,,,,,,,,,,,,,,,,,,,,,,,,,,,,,,,,,,,,,,,,,,,,,,,,,
126,,,,,,,,,,,,,,,,,,,,,,,,,,,,,,,,,,,,,,,,,,,,,,,,,,,,,,,,,,,,,,,,,,,,,,,,,,,,,,,,,,,,,,,,,,,,,,,,,,,,,,,,,,,,,,,,,,,,,,,,,,,,,,,,,,,,
127,,,,,,,,,,,,,,,,,,,,,,,,,,,,,,,,,,,,,,,,,,,,,,,,,,,,,,,,,,,,,,,,,,,,,,,,,,,,,,,,,,,,,,,,,,,,,,,,,,,,,,,,,,,,,,,,,,,,,,,,,,,,,,,,,,,,
128,,,,,,,,,,,,,,,,,,,,,,,,,,,,,,,,,,,,,,,,,,,,,,,,,,,,,,,,,,,,,,,,,,,,,,,,,,,,,,,,,,,,,,,,,,,,,,,,,,,,,,,,,,,,,,,,,,,,,,,,,,,,,,,,,,,,
129,,,,,,,,,,,,,,,,,,,,,,,,,,,,,,,,,,,,,,,,,,,,,,,,,,,,,,,,,,,,,,,,,,,,,,,,,,,,,,,,,,,,,,,,,,,,,,,,,,,,,,,,,,,,,,,,,,,,,,,,,,,,,,,,,,,,
130,,,,,,,,,,,,,,,,,,,,,,,,,,,,,,,,,,,,,,,,,,,,,,,,,,,,,,,,,,,,,,,,,,,,,,,,,,,,,,,,,,,,,,,,,,,,,,,,,,,,,,,,,,,,,,,,,,,,,,,,,,,,,,,,,,,,
131,,,,,,,,,,,,,,,,,,,,,,,,,,,,,,,,,,,,,,,,,,,,,,,,,,,,,,,,,,,,,,,,,,,,,,,,,,,,,,,,,,,,,,,,,,,,,,,,,,,,,,,,,,,,,,,,,,,,,,,,,,,,,,,,,,,,
132,,,,,,,,,,,,,,,,,,,,,,,,,,,,,,,,,,,,,,,,,,,,,,,,,,,,,,,,,,,,,,,,,,,,,,,,,,,,,,,,,,,,,,,,,,,,,,,,,,,,,,,,,,,,,,,,,,,,,,,,,,,,,,,,,,,,
