frame,NOSE.x,NOSE.y,NOSE.z,NOSE.v,LEFT_EYE_INNER.x,LEFT_EYE_INNER.y,LEFT_EYE_INNER.z,LEFT_EYE_INNER.v,LEFT_EYE.x,LEFT_EYE.y,LEFT_EYE.z,LEFT_EYE.v,LEFT_EYE_OUTER.x,LEFT_EYE_OUTER.y,LEFT_EYE_OUTER.z,LEFT_EYE_OUTER.v,RIGHT_EYE_INNER.x,RIGHT_EYE_INNER.y,RIGHT_EYE_INNER.z,RIGHT_EYE_INNER.v,RIGHT_EYE.x,RIGHT_EYE.y,RIGHT_EYE.z,RIGHT_EYE.v,RIGHT_EYE_OUTER.x,RIGHT_EYE_OUTER.y,RIGHT_EYE_OUTER.z,RIGHT_EYE_OUTER.v,LEFT_EAR.x,LEFT_EAR.y,LEFT_EAR.z,LEFT_EAR.v,RIGHT_EAR.x,RIGHT_EAR.y,RIGHT_EAR.z,RIGHT_EAR.v,MOUTH_LEFT.x,MOUTH_LEFT.y,MOUTH_LEFT.z,MOUTH_LEFT.v,MOUTH_RIGHT.x,MOUTH_RIGHT.y,MOUTH_RIGHT.z,MOUTH_RIGHT.v,LEFT_SHOULDER.x,LEFT_SHOULDER.y,LEFT_SHOULDER.z,LEFT_SHOULDER.v,RIGHT_SHOULDER.x,RIGHT_SHOULDER.y,RIGHT_SHOULDER.z,RIGHT_SHOULDER.v,LEFT_ELBOW.x,LEFT_ELBOW.y,LEFT_ELBOW.z,LEFT_ELBOW.v,RIGHT_ELBOW.x,RIGHT_ELBOW.y,RIGHT_ELBOW.z,RIGHT_ELBOW.v,LEFT_WRIST.x,LEFT_WRIST.y,LEFT_WRIST.z,LEFT_WRIST.v,RIGHT_WRIST.x,RIGHT_WRIST.y,RIGHT_WRIST.z,RIGHT_WRIST.v,LEFT_PINKY.x,LEFT_PINKY.y,LEFT_PINKY.z,LEFT_PINKY.v,RIGHT_PINKY.x,RIGHT_PINKY.y,RIGHT_PINKY.z,RIGHT_PINKY.v,LEFT_INDEX.x,LEFT_INDEX.y,LEFT_INDEX.z,LEFT_INDEX.v,RIGHT_INDEX.x,RIGHT_INDEX.y,RIGHT_INDEX.z,RIGHT_INDEX.v,LEFT_THUMB.x,LEFT_THUMB.y,LEFT_THUMB.z,LEFT_THUMB.v,RIGHT_THUMB.x,RIGHT_THUMB.y,RIGHT_THUMB.z,RIGHT_THUMB.v,LEFT_HIP.x,LEFT_HIP.y,LEFT_HIP.z,LEFT_HIP.v,RIGHT_HIP.x,RIGHT_HIP.y,RIGHT_HIP.z,RIGHT_HIP.v,LEFT_KNEE.x,LEFT_KNEE.y,LEFT_KNEE.z,LEFT_KNEE.v,RIGHT_KNEE.x,RIGHT_KNEE.y,RIGHT_KNEE.z,RIGHT_KNEE.v,LEFT_ANKLE.x,LEFT_ANKLE.y,LEFT_ANKLE.z,LEFT_ANKLE.v,RIGHT_ANKLE.x,RIGHT_ANKLE.y,RIGHT_ANKLE.z,RIGHT_ANKLE.v,LEFT_HEEL.x,LEFT_HEEL.y,LEFT_HEEL.z,LEFT_HEEL.v,RIGHT_HEEL.x,RIGHT_HEEL.y,RIGHT_HEEL.z,RIGHT_HEEL.v,LEFT_FOOT_INDEX.x,LEFT_FOOT_INDEX.y,LEFT_FOOT_INDEX.z,LEFT_FOOT_INDEX.v,RIGHT_FOOT_INDEX.x,RIGHT_FOOT_INDEX.y,RIGHT_FOOT_INDEX.z,RIGHT_FOOT_INDEX.v
0,0.2802580871766868,0.38680622390222175,0.19203762770049826,0.9622507519798107,0.29664830228922157,0.4007339707728189,0.23263999565073212,0.9961098311610319,0.30040693318703726,0.3100151620753803,0.2023091956346677,0.9984848847214393,0.21637563658623626,0.3827763304496478,0.2764454545297498,1.0164736001177135,0.32384826825860713,0.39436668095516436,0.2186449350099458,0.9621480446390187,0.25145136324412287,0.3363716694231078,0.24386984925863942,1.0085189579703995,0.3238633534868275,0.39629650197659505,0.2516560906938008,1.0377783605747353,0.1702851421306857,0.39293309801147747,0.18534380579603188,1.0128912273381387,0.37645937473801966,0.3065471887255095,0.2422330991549997,0.984173021150317,0.23176970951173437,0.3992358282253207,0.24578959604074502,0.9628755158732738,0.28295106631120204,0.3292378416043608,0.26082610470150097,0.9944172352509797,0.14262855850548545,0.35952346828497594,0.15427227247608502,1.0018697969520765,0.43085237602905596,0.3586459246627863,0.3244519348248757,0.980946723346656,-0.015192248403302876,0.3675813295786436,0.0401688589800699,0.08052471485643291,0.6254744043516742,0.3968022715979899,0.41985641877468705,0.8463875115386001,-0.14831289807265105,0.3048254574568925,0.043221397548715075,0.03379469837303568,0.7396954380786425,0.3837301829053379,0.49872690253809454,0.5021708313985718,-0.20922320854128065,0.33009180531661403,0.02884631790008206,0.07303951479406663,0.7789478784065427,0.3022411756240023,0.5013483298146965,0.44756778544962017,-0.1633286876036774,0.3252143906706935,0.024104500849645806,0.0150841578316782,0.7773188649174646,0.3603822252687399,0.4715128043230964,0.44794595862684095,-0.2003452104380872,0.33455510801425076,0.030437663763367113,0.01299354354920029,0.6772976383697978,0.3200122476484419,0.5021989717596229,0.2661920358055553,0.10064854635996297,0.4982856189689859,0.18396625324248672,0.99446153134478,0.31571065854591285,0.5533986676749592,0.29200443470796095,0.991353286148602,0.10688265888651535,0.6249008030180818,0.12201330767601276,0.5833860893141383,0.2738364860137789,0.6696555690298822,0.2560712784530435,1.0125435040909558,0.0959961794714375,0.7862495626498467,0.14222638725509182,0.7209318188518953,0.38423151921177945,0.8093528710554113,0.2801305505823456,0.9551808231584715,0.09792671035118199,0.812439179159347,0.12405348021282057,0.7499980800749222,0.40266598568538464,0.8643622971177046,0.2378879534423401,0.9005605341785469,0.09856379806280323,0.7925850034004919,0.14315723203698447,0.6706140803027184,0.3875865304800996,0.8221216500341294,0.3569402371685258,0.8830794647566007
1,0.2727178536523127,0.37403452804994214,0.1861268463034511,0.9622507519798107,0.2922824308907235,0.3888499072905344,0.22875058911361787,0.9961098311610319,0.2960096783812783,0.2979181013949909,0.19839260578276657,0.9985005011383705,0.21199135394092428,0.37042779777295104,0.27252266821472626,1.0164736001177135,0.31785115052272606,0.3830553883068489,0.21400658290693733,0.9621480446390187,0.2455865687166321,0.3250975104684875,0.2393723832691799,1.0085230110862442,0.31801898067699413,0.38509750447903646,0.24723474257278247,1.0377783605747353,0.17748285186164003,0.37989920132683086,0.1877839588578289,1.0128930154774818,0.37482416828988,0.29410078522209154,0.240307674136361,0.9841795776612423,0.22750406296159711,0.3847196832343997,0.24156026795019467,0.9630511707614269,0.27742085689315216,0.31483932637990397,0.2560867251100771,0.9945209473328889,0.14222746149975385,0.34316887763060283,0.1531235476735242,1.0028321139419754,0.43627220376381487,0.3399212149135645,0.32537127836334817,0.9811402596282417,-0.04809767610289103,0.3593954958860929,0.02376131976811581,0.1166185962101688,0.6271408728978753,0.3824329328471507,0.4205906610032051,0.9395579159728042,-0.21714142482880078,0.31208578002769327,0.009203984855704124,0.06536839257235927,0.7209807293789658,0.3792493143273808,0.48897078360224117,0.7178232972188843,-0.28560128585156214,0.34020197496573823,-0.008608990877557968,0.09737580068321533,0.7570063589918699,0.3013375096045626,0.4899521886128268,0.626614624925252,-0.2388509731009846,0.3407308208102352,-0.012807233889172369,0.043328202463397796,0.7574809476674066,0.3594912550386373,0.46119501001294705,0.6267849269038185,-0.268878275966514,0.34968565768351656,-0.0031844495364868435,0.047427066742202095,0.6582937251183283,0.3178760171796919,0.49234663204783896,0.4713447560184917,0.10593275477098481,0.4900095140419229,0.18655825127591885,0.994478220645317,0.3087299993524897,0.54234444985956,0.28784894128391125,0.9913599618688168,0.08218269419624175,0.6215720624213106,0.10863538963849155,0.8715942759405727,0.24814463919646368,0.6746702270041254,0.2413847995877892,1.0350899146515637,0.06335633542556553,0.7859362806369072,0.1244249094230788,0.9296714571804475,0.3513184297541592,0.8047555051992407,0.2618689610884204,0.9953609698526549,0.06495876664482193,0.8120672461759486,0.10630160916182511,0.906429635822908,0.36958459820861844,0.8556152558922713,0.21975631335373752,0.9466212155216253,0.06352902897678833,0.7931915402657262,0.12321926197759148,0.8669539855647118,0.3466465815058227,0.8206895292341111,0.3336388863765795,0.9579654887548611
2,0.4903020158665914,0.404185805830475,0.2989593691318285,0.9622507519798107,0.5070199368619678,0.4186249307509226,0.34021925391388746,0.9961098311610319,0.5109916051861945,0.32797076329074293,0.3100785689192763,0.9985006203476601,0.42709209262194375,0.40080271218068114,0.38436795534870183,1.0164736001177135,0.5318107056440827,0.41222444114612805,0.3248496306584232,0.9621480446390187,0.45943538788046717,0.3540667983408019,0.35010771864251505,1.0085230110862442,0.531749872556812,0.41397294483815206,0.35786188610695957,1.0377783605747353,0.3463697986348815,0.4098703240685301,0.2757175259028136,1.0128930154774818,0.539278408910957,0.32184755202774035,0.32530748824820016,0.9841796968705319,0.4285142188159843,0.4156394437000216,0.3457986771739467,0.9630541509936656,0.4759921264219202,0.3450318505746214,0.3589249798665037,0.9945251196580229,0.29649522573139864,0.3797966471008177,0.23539839465733867,1.0029124610031326,0.557703685893526,0.3651001540176447,0.38631061832489,0.9811763800429756,0.3337266369767625,0.36355369471955845,0.22982811842495127,0.581412233605074,0.7710315224855544,0.3841696333819712,0.49265515397943244,0.9833239973059646,0.40074280849857596,0.31462753069717264,0.33341762301074757,0.46331423620934886,0.9284063556998445,0.3911379971696354,0.596497274296351,1.0136368577047243,0.3718311558957048,0.3433151553646792,0.33512666192183294,0.39428722657175375,0.9802602223321526,0.31500011608230005,0.6052806360441747,0.9723479694801531,0.41049901494841506,0.3400439070815212,0.32593224345418403,0.35950579414487827,0.9775360569298254,0.37762569999064843,0.5751043402502564,0.9805408778315527,0.3501507010068216,0.34915896123995876,0.320317033325145,0.3154481697368825,0.8656098900269756,0.33470953115483537,0.5995500144482213,0.8456404079311809,0.11385418577998842,0.5046953832588419,0.19089496670443185,0.9944796511567916,0.29789714987898763,0.55551743398279,0.2807676678099524,0.9913607963338436,0.1213352496099676,0.6242011040930635,0.12919311498502864,0.9526269693266505,0.37187262800942134,0.6668380574713495,0.30736349342505564,1.0381348775345594,0.07075279877772438,0.7887432421733147,0.12809356703779035,1.0073326138348053,0.5024692509285165,0.8184910975645056,0.34077155008041843,1.0015361898653197,0.06792775665076232,0.8182293531667628,0.10766546944759003,0.9668037765623488,0.5248859137412316,0.8780037737488692,0.3004718022223925,0.9571332694881477,0.11380300441883995,0.7906108379608862,0.14948175286399815,1.014808671348098,0.5339069755532264,0.8289957345067857,0.4312392513062224,0.9710746959081815
3,0.2885675426822579,0.38880190661859143,0.19358155554218698,0.9622507519798107,0.32614302824499664,0.4039351574297708,0.24549712501207022,0.9961098311610319,0.3296604637958605,0.31308870538554573,0.21502172010470638,0.9984757056061441,0.2451571061543118,0.3857503340030383,0.2888979726951796,1.0164736001177135,0.3376892677870063,0.39792421398090594,0.2235384263111852,0.9621480446390187,0.2655199925866929,0.3400763365144775,0.2490418269695055,1.0085160969474503,0.3377693813402793,0.4002151497427084,0.25690309687381113,1.0377783605747353,0.22639589079561237,0.3947529768280821,0.2124453126290447,1.0128871742222938,0.3747139541877827,0.3092296957636259,0.23993964108375337,0.9841715906388423,0.2587506958157746,0.4005733266517581,0.2570519799305546,0.9629403061221444,0.28608400845595333,0.3306383123380034,0.25998782858278424,0.9944475144105255,0.18353284237668852,0.361131750612628,0.17418881260970462,1.0026390544975476,0.45484928592220886,0.3545106736175593,0.33592302284284303,0.9810017980384285,0.23524003482513708,0.3717949607317503,0.1736311316828671,0.1502176376125088,0.6822921321226545,0.3876524221831645,0.4546075501930482,0.9816534579268448,0.35055786665972416,0.33063569915611124,0.3050129292077418,0.13385377179141447,0.7843340570095692,0.4048063256932713,0.5251038813886818,0.8979912106557739,0.3367828179826561,0.365622640706705,0.3152131385312706,0.15747649766416863,0.8152577919102117,0.3300837568961275,0.5222825338421352,0.7362486071068011,0.36761831059293204,0.3618172155970699,0.30182395185493777,0.11465496490121829,0.8177848714544209,0.39582880949344085,0.49456589944039875,0.7444872918253883,0.29768837192850994,0.3683422691260825,0.2909685462907834,0.08787598940612919,0.7215627778461103,0.3520190776254774,0.5276271976991529,0.6289891470783672,0.08992742164594729,0.491096702762626,0.17655566573922676,0.9944763132966842,0.3166669317020325,0.5472449649390583,0.2904019158502769,0.9913566240087094,0.15030588519353863,0.6115386933569795,0.14945778921548042,0.29396897148004714,0.3615169442517356,0.6539422945509699,0.30542648930119654,1.0378472255188733,0.13400001783294654,0.7858355487872368,0.16775016573713575,0.7444178966373872,0.48323226543529985,0.8059128485868444,0.3326142488563217,1.0006198280565428,0.13603310712801592,0.8163615224134364,0.1491053013796333,0.7425130479933182,0.4990668957387528,0.8639151430725996,0.2881611063246838,0.9537982704036748,0.14328093727147434,0.7950472712761633,0.17322214422883675,0.6041442321467431,0.47156177381900233,0.8243993223249314,0.4015718601866301,0.9660989001623319
4,0.3202835062211458,0.3562741618485413,0.20808237322306805,0.9622507519798107,0.3502385432906173,0.374638759266929,0.25587272090377466,0.9961098311610319,0.3538910123819161,0.2849104903586903,0.225521235293263,0.9974400749031717,0.2697042888112937,0.358740101792879,0.2996195464965282,1.0164736001177135,0.36064199729209995,0.36808100280689465,0.2333469549403563,0.9621480446390187,0.2889857398177474,0.3113334866876647,0.2592112409900227,1.0082205771186539,0.3620293196173297,0.37259149633084315,0.2675774093847351,1.0377783605747353,0.26916780894215875,0.37948441260383897,0.23316435008907305,1.0122968498204383,0.3949052972793737,0.29358067509178143,0.24899785543620656,0.983930728269305,0.2905327706622646,0.3765530422374667,0.2721585886490404,0.9554983085940685,0.3171421595770977,0.306444608209738,0.27463498394651,0.9902610629754365,0.2920960933920114,0.36399792936361974,0.22943831041773205,0.9996805779541214,0.48243386461883436,0.3597132948391016,0.3517356368950882,0.9805980957793647,0.45498375240877953,0.3726780035440977,0.28535335552758423,0.06496990118830111,0.7506985875453012,0.39361461519540203,0.4926837879353254,0.9607132137289992,0.674389272506778,0.33033415925819254,0.4725666602775046,0.06170231203790118,0.8809448335635162,0.4081274368955113,0.5756360908157452,0.6221560542150391,0.6672890986209707,0.361643822051691,0.4865703467492186,0.13772717662067724,0.9182229314934311,0.3297607593260897,0.5762204059947743,0.5161906427818498,0.7016408249025676,0.3545367764586574,0.4755072626536688,0.1087473771941756,0.9107658434917298,0.39659469937648223,0.5431285540126299,0.5187097253924354,0.6278202676873907,0.3631543702517996,0.4626553925886544,0.08442954453708769,0.817293841917645,0.3547471822168471,0.5776277189616648,0.3973269928806743,0.10568871716058194,0.48501834029772123,0.18232109466393764,0.9943940588868941,0.2941946565889473,0.5450437058028583,0.2784520559117706,0.9912352689519468,0.14623135715332256,0.6235272735838777,0.14157639169352784,0.24016791175714672,0.31684947970776595,0.6485516504774835,0.2794088135705547,0.9961544321495801,0.1700380819402789,0.7963478411723381,0.18290955584590482,0.8453858403057527,0.40114375918298506,0.8002236448476782,0.28844884667934634,0.952198743175714,0.17890294511638377,0.8253684994947352,0.16886430244290762,0.8791345828176896,0.41801491246440164,0.858553228437895,0.24501371906375274,0.9200502397411384,0.1681410452574173,0.8011263489968053,0.1816217910304162,0.5349552797007592,0.3651414643567633,0.813409119898021,0.3443863188770292,0.773536916100137
5,0.38102855150378767,0.38206160477113355,0.23908823587353295,0.9622507519798107,0.4024136406707394,0.3999208740111154,0.282530259093251,0.9961098311610319,0.4062770742337053,0.3103757999785938,0.25230544078385475,0.9984789242569618,0.32218742715586246,0.3843751058364581,0.32646850216044065,1.0164736001177135,0.4187251110599745,0.39164128837513196,0.2628695069853355,0.9621480446390187,0.34657978555432484,0.3339149149770782,0.2883481693571277,1.0084995268562027,0.41914864240762806,0.39412415109311116,0.29633423923448965,1.0377783605747353,0.2712935778548691,0.40030991786049175,0.23356705952789708,1.012888485524479,0.42794045503389583,0.30868529674056994,0.26487173957280247,0.9841066215760372,0.3308297718660359,0.3997507825538577,0.29236958874336405,0.9626670188258493,0.3674546242553567,0.3279755046349852,0.29993663970459844,0.9943585842805205,0.2314617528958961,0.38051398900068945,0.19769406441784915,1.0024874202812393,0.475690291079053,0.3643375721923884,0.3449753268975286,0.9811623133468088,0.2147072614392305,0.38569142603326395,0.16110982399388832,0.9155868070265523,0.6569620899017796,0.3866468322211588,0.4395277662653105,0.9840397298804276,0.2369332397367787,0.34447971237022257,0.24648282567691465,0.7808529744600814,0.7695716276958069,0.4248976805402256,0.5198914870044893,1.0167489354177368,0.2013926050776248,0.377991945602106,0.24560162640204392,0.7055076340577157,0.8021324104231478,0.35894304439650904,0.519700080103607,0.950448865361806,0.24672833533630423,0.3729468630904323,0.24070152212628182,0.6561927414906119,0.8009354300256173,0.4235017857488577,0.4903223532951131,0.9501197996264443,0.18825272120670644,0.37942029899706936,0.23576010460751795,0.6293918538379872,0.7100722389518241,0.37558976420422807,0.5253998576869561,0.841562436949583,0.09183476909787582,0.4908358728370889,0.17450832153094115,0.9944744059480514,0.3013543635298351,0.5425316084441547,0.2799008683808857,0.9913553127065243,0.12864730740119412,0.616696819711197,0.13635327541902584,0.8931199569594019,0.3425892033448757,0.6421163157950189,0.29257171229071843,1.0381706403214246,0.06552149720334093,0.8074034894992119,0.1339724978098236,0.9788190630764437,0.42163514363912025,0.7977498732755651,0.29929214495751916,1.0016068809740233,0.06534219854584476,0.8363185879957118,0.11478757513777595,0.8225165479780594,0.4380223623118824,0.8552153087258284,0.2557047590301203,0.9546617032878912,0.09894207008250004,0.8146015286690466,0.15282998412878793,0.9768070148158103,0.44359604507359596,0.8045922816335557,0.3860042387008486,0.9712486222616359
6,0.35778478176812006,0.38974187186669934,0.22523458246855982,0.9622507519798107,0.3822020331958906,0.4088523022051615,0.270474304982279,0.9961098311610319,0.38598367558196756,0.31934588178477674,0.24018259717713092,0.9984753479782753,0.30180311324012216,0.39333624694592473,0.3142753751481776,1.0164736001177135,0.3975445709107402,0.39990329680370557,0.2504312675788025,0.9621480446390187,0.3255852112830553,0.3418015333528564,0.2760707232201598,1.0085102556922623,0.39836507396151233,0.40168723545704854,0.2842269700693552,1.0377783605747353,0.26481503943924045,0.40698912494705486,0.22879091765600096,1.0128864589665567,0.417947991227562,0.31309145089630114,0.2586149162461618,0.9841214035279414,0.31123234536654204,0.4060117438480319,0.2803610860507571,0.9623122519801464,0.3474546609617362,0.3334404160958616,0.2879294667341078,0.9942161291795073,0.21407132446026106,0.37646972444571203,0.18732273561569812,1.0017991654480178,0.4627218613057203,0.3646978524677332,0.33733064775536087,0.981089238052314,0.174475156644972,0.38592921876359537,0.14079434171138389,0.7107750551840535,0.5798439312323993,0.3874728035861338,0.40006812280491455,0.9814479411116592,0.19101459541955473,0.35970586788970804,0.2243107316365467,0.6924646506762069,0.5926308174603907,0.44222129370703467,0.43009231801113806,0.9825771753354918,0.14681818837869695,0.3964109133259524,0.21901745564122327,0.6730396131417306,0.637275411872999,0.3797935239993227,0.43679287827678287,0.9025232738929949,0.19831258669300098,0.3926264988536007,0.21753653221669522,0.6341467715275382,0.6338498466034591,0.4396749994691793,0.4066206323652094,0.9018973770266517,0.14420896239627432,0.39866735405078035,0.21472166083290803,0.5958957720089162,0.5309846345408019,0.3902302742864729,0.43524932319878207,0.7940665949696025,0.08578763465950058,0.4925954615555032,0.16909617268423394,0.9944609352983321,0.2961794320530853,0.5447168339309101,0.27493437529180104,0.9913427957311216,0.08841691786223554,0.6182376593832857,0.11329139891205638,0.8765512366186731,0.3121386266705154,0.638027735186651,0.2766986281226038,1.0381048367935926,-0.005292275165004644,0.8060200656939751,0.09353142277545234,0.9869187382549713,0.3809776478616694,0.7919970713804235,0.2791327671809616,1.0013947480432677,-0.01072472495195768,0.8330662605535426,0.07153799011821435,0.8884097808004776,0.3922652853508435,0.8498399830460494,0.23319054774219683,0.9555238248699225,-0.00026346935585026647,0.8150724053627721,0.09678879990771697,0.9846391247439416,0.38571655820725703,0.7952482998906968,0.35677763710589605,0.9707181409231351
7,0.046389853492522254,0.3851390819878541,0.06216324519227413,0.9622507519798107,0.07533989939797078,0.4014000526781839,0.10996837755739175,0.9961098311610319,0.07913199198876211,0.3115690551646748,0.07973024546213103,0.9984987129990273,-0.0048891887883474455,0.38528032157666203,0.15394513232442836,1.0164736001177135,0.0893414254005725,0.39359384713100665,0.08894665999048595,0.9621480446390187,0.01721386625297179,0.33571974362087703,0.11440388097963855,1.0085221766212173,0.08984754494682887,0.39573425136242885,0.12241987154847167,1.0377783605747353,0.018344781514271075,0.40079402678535747,0.09928247342257225,1.0128913465474283,0.16629653998790855,0.3091579913759611,0.12627320812331164,0.9841762398011349,0.02629974005432715,0.4020787611648501,0.13094455553585366,0.9630295938800182,0.060547608116272675,0.3301556041222899,0.13741309301953103,0.9945174902634917,0.06692895114382856,0.3811894288352842,0.10912276190790046,1.0007798068130689,0.29498238996434323,0.36053199443741396,0.2496931959587603,0.9811871088790352,0.14140317555738857,0.4039425470774229,0.1194584107801192,0.09949611891715432,0.4525552832584219,0.4017693948680247,0.3303492940482716,0.9792500794402116,0.2912474977754348,0.36129430187064976,0.2721685775261853,0.30597156386132646,0.49859806316740435,0.4427332678033329,0.37406113320756207,0.9654257599874391,0.26306679175845316,0.3980316828266849,0.2755606588789353,0.42800649799318624,0.526613230334639,0.3797039978228701,0.37084046780482355,0.8995979375320635,0.2991592892992902,0.3894780027026302,0.2657497346893017,0.40794905195356357,0.5241430776716924,0.44030788158740447,0.34080615025980787,0.9029516639834388,0.24192795783796786,0.39474593466868496,0.26111909765145713,0.36736843469621777,0.4356411824521653,0.3916908861066939,0.37739351578976305,0.7783761490696391,0.08578580240491346,0.4913333332023843,0.16869981992002914,0.9944651076234664,0.29713519491997986,0.5345641959723835,0.276212866468818,0.991355670334393,0.09808251187129625,0.623243257451523,0.11634341331637336,0.9033642668615931,0.28349980539684394,0.6368790940771845,0.26076176075811963,1.0381502555329114,0.06998157198724793,0.8013843740512139,0.13038909975155885,0.9836207536549043,0.39403139838858037,0.7861249409864416,0.2867162016719815,1.0015330904237916,0.0723152789364256,0.8266494629156032,0.11265662464556368,0.9317529671789566,0.4121617758913506,0.8429093337655013,0.24457940143181872,0.9566662074916876,0.04057948555309336,0.8161483884102575,0.11539192062556405,0.8998657034564049,0.3810645852434916,0.7981243432103989,0.35554942432265063,0.9695830896726773
8,0.172534108679244,0.3877694051594697,0.127373286648304,0.9622507519798107,0.18974179361447488,0.4036252728815836,0.1687385055983341,0.9961098311610319,0.19345550373202905,0.31387840732417494,0.13841415697457904,0.9985006203476601,0.10934156864652798,0.38762665841824523,0.21254213736947913,1.0164736001177135,0.21098816279977128,0.3949040764324593,0.15174779038047054,0.9621480446390187,0.13895214742940581,0.3364446851129577,0.17729749812434836,1.0085230110862442,0.21170260287163534,0.39585474215184224,0.18539324804579047,1.0377783605747353,0.07570286149466443,0.40158378832863145,0.12870825408865166,1.0128930154774818,0.2524502150107819,0.30671581026557904,0.17069844334075024,0.9841795776612423,0.13129862150775012,0.4039190247699679,0.18538927094938412,0.9630543894122447,0.17355201038591073,0.3311881055814116,0.19590381870664791,0.9945260733323393,0.06438591072281181,0.38316782620466894,0.1078963992367517,1.0026739828193862,0.37438252891608104,0.355505743359762,0.29103679548846123,0.9811910427855903,0.1129878511291054,0.42364846848893717,0.10537666021225797,0.5174502508780232,0.6017478451814435,0.4029396426612223,0.40609526038078403,0.9837824166289322,0.22892657109700654,0.37759667885619974,0.24052196816770954,0.8957393179392379,0.7221621863642349,0.4527364769174076,0.4906353952850392,1.031737000183667,0.19327572058124626,0.4130572091118564,0.24108062911556322,0.9366403798005135,0.7632164599310391,0.3911755971633089,0.49456574769439704,1.002576882310506,0.23179146161806874,0.4022969352358944,0.2326393392946359,0.8919400192272757,0.7551798407476871,0.45325612639750884,0.46180040194768107,1.0158976378565772,0.18055540613324755,0.40753998226275545,0.2307248440790568,0.8674715209293569,0.6592441875642787,0.4046775163080336,0.4943533674687254,0.9255569447391949,0.0725145733437541,0.49345615262605985,0.16243879293946345,0.9944777438081588,0.3114687149141181,0.5384297956046467,0.28336056446827274,0.9913598426595271,0.10264071780584745,0.6352971047644502,0.11857197578176806,0.9585087556730859,0.3193677807883732,0.6409593896399286,0.27935153588885714,1.038173978181532,0.08306113886936277,0.8128211344767815,0.13650935687244492,1.006994119057126,0.4288109576062493,0.7939060889432897,0.3052758404734574,1.001637517761438,0.08506044062209608,0.8373662588369288,0.11827474203411618,0.9543949835897843,0.4471491746618248,0.8522210693955367,0.2633321031632725,0.9578571082943,0.09046344446801909,0.8251512527710668,0.14161564202372262,1.011087136142257,0.43063088976204644,0.7986191213666795,0.3820223227474018,0.9714567616811917
9,0.33542920482779515,0.39165956190538037,0.21278439356212325,0.9622507519798107,0.35712871702738797,0.4086721471663278,0.2563930376390605,0.9961098311610319,0.3608617519068901,0.31911178454242134,0.2260862085528072,0.9985003819290809,0.27674147747789274,0.39305911515004155,0.3002232889117503,1.0164736001177135,0.3753254454271017,0.4003505104534554,0.2377491781214437,0.9621480446390187,0.3031860312232721,0.3423947485799835,0.26321024476765686,1.0085228918769547,0.37573810363917337,0.4023505457464315,0.27116550821863633,1.0377783605747353,0.22544685708568654,0.40918799989746385,0.20714305180376164,1.0128930154774818,0.3888657044986576,0.31611126061920153,0.24208819448506802,0.9841794584519526,0.2844426183288651,0.4089027181312503,0.26574471183472054,0.963050813133558,0.322817019619631,0.3369180788976042,0.2742199666529315,0.9945235699372589,0.1719951724381561,0.38922070768393224,0.1642203572127626,1.0025741450393872,0.43210853254688697,0.3783894268028315,0.32043105377873415,0.9811053313064033,0.23687541917474847,0.4275793650095518,0.17031978686596277,0.9798211829802266,0.5606717206677432,0.4399163079196299,0.3862720888288701,0.9843509257307999,0.3772939447646578,0.3806491817267594,0.32034613923919036,0.915385724112944,0.5511357395180443,0.4565636315537907,0.4017565552952626,1.0345924202962768,0.338067617798494,0.4125372479931582,0.3184014789868223,0.931697724237159,0.5824685725065908,0.3848056189738405,0.4012154433624261,1.0029177016693316,0.38760407094363164,0.4067057119959957,0.31559355779273063,0.877363166905651,0.578562689123749,0.44442480420436303,0.3701440459372469,1.0158204498415933,0.33095350358707193,0.41312955683817965,0.311151450125955,0.8437776017475331,0.4871317118242342,0.3993564010526778,0.4049703083640378,0.9318808187359293,0.07407968762646984,0.5037264501533731,0.1638875608253823,0.9944783398546065,0.3118474477470232,0.5544878233489399,0.28380964045197143,0.9913586505666317,0.11953695141075778,0.6366546601538545,0.12940041600072757,0.9625566263090723,0.3304243497029597,0.6544179992209223,0.28561933940778494,1.0381730245072156,0.08295562500825919,0.8298573936511284,0.13832335114631453,1.0091060904354525,0.42492499002079454,0.8110688887784948,0.3023130387928458,1.0016265505067992,0.08292880023084366,0.8581211921941676,0.11897536269089942,0.9585208767057816,0.4408321519094869,0.8705595708489363,0.2585766690692332,0.9576855065219917,0.10500851098081172,0.8391378402954809,0.1533779863127132,1.0223621295619043,0.43415818352127833,0.8086452782689927,0.38252174176025494,0.9714107468954251
10,0.1122616782818914,0.42708394339990247,0.09245852642577024,0.9622507519798107,0.12423596197192058,0.446445309292869,0.131155209096046,0.9961098311610319,0.12805692141912164,0.3574333690055409,0.10090401899862116,0.9985005011383705,0.04414060753384978,0.43185533139950744,0.17515784092462447,1.0164736001177135,0.1444879910095902,0.43636128244327776,0.11352074912556392,0.9621480446390187,0.0723057524415281,0.3775021227712676,0.13892001869539095,1.0085230110862442,0.14478245962449884,0.43653610430394185,0.14679209132240742,1.0377783605747353,0.009290005119758832,0.4488624905876952,0.09078799167331598,1.0128930154774818,0.18457256060736504,0.34817489382270794,0.13159242479238872,0.9841795776612423,0.0710016178384772,0.4445329442665042,0.15053530178819222,0.9630495018313732,0.11342894854231295,0.3700544168931334,0.16098766103308307,0.9945224970536529,0.00899004046123232,0.42617946174658483,0.07537836297676752,0.9988800875747879,0.27282584553928285,0.3919869450084742,0.2340334673978943,0.981178406600898,-0.0011869111899546689,0.43611540579248026,0.0446972768979933,0.8500246184012166,0.3837992301203018,0.4157198321753825,0.293191621369934,0.9839327991477004,0.018542486650082374,0.37121606123763895,0.13041435457102482,0.8598665008997481,0.4012623253041379,0.4553583660317875,0.32519373579406435,1.0349210207029236,-0.0347071451606645,0.3963016580120791,0.1205080092937844,0.8650833944222481,0.4448606268460212,0.3872825793944491,0.3314319935497043,1.0046166128593645,0.00838142897254504,0.3888058113211757,0.11480864541014954,0.8128510929119681,0.43595254579566506,0.44767379378642486,0.2982417375795873,1.0161171021586404,-0.030046474409474173,0.3964007384215842,0.12015672310010019,0.8040919351864064,0.3386035211023224,0.402076786842549,0.32982705048160493,0.9306009281986675,0.0815800048510968,0.5104964053116068,0.16658338830543556,0.9944047877229537,0.2990052551748844,0.5500583041724567,0.27613480672231777,0.9913078674092831,0.14199733643247167,0.6461307853941805,0.14162043511858122,0.9439690966498011,0.2941768170973729,0.6618174390326288,0.26465417710724304,1.037930373998335,0.13220763058863544,0.8226166810084587,0.1690271191190785,0.9921138194889497,0.36986386170121244,0.7981110178182592,0.2749477855012227,1.000370621036737,0.13696622516781082,0.8458853122960963,0.1531242987033845,0.9263065331579604,0.38200312507143697,0.8524694419503157,0.23085094002201006,0.9528153898113289,0.1571435201654117,0.8325342417008154,0.18302645925249209,0.9865304993319544,0.3699155246008624,0.7914635837613938,0.3488642725229798,0.9675344184271023
11,-0.17647410738068484,0.39192265680741895,-0.055714525397980885,0.9622507519798107,-0.1444875586532238,0.41045098818500464,-0.007407354796542187,0.9961098311610319,-0.14127781263346526,0.321464379871706,-0.03821648135831972,0.9984805931870157,-0.22583505186530894,0.3959085747981738,0.035457014991229274,1.0164736001177135,-0.13489047760446987,0.40216079292225115,-0.02981230682866908,0.9621480446390187,-0.20632640372696415,0.3447828980798766,-0.003726452575386119,1.0084856985786148,-0.13307338286653883,0.40512731753026027,0.004834766819648529,1.0377783605747353,-0.15950594568428159,0.4199279522232848,0.0035729763672715936,1.0128795448277625,-0.03860419623358088,0.32481032010559063,0.018459642204728177,0.9841124628312252,-0.17907063440054202,0.4118264451667727,0.022428865420592303,0.9629038280795421,-0.15218319941446642,0.3397981157285063,0.025512437117954295,0.9942598193841277,-0.05014496975157019,0.41402312424696636,0.04292424202051629,1.0026938907707412,0.09689858215938112,0.38048903021736696,0.14816758904570673,0.9811847246932444,-0.009209167650555537,0.46149258994508335,0.02898803697625124,0.16391652096717263,0.22839804273911019,0.4189801168376292,0.2150417870547995,0.967986828135585,0.07060908780942055,0.44959330809432835,0.14449353047219143,0.07217730309124397,0.35040319134269843,0.4525205590917088,0.30166541152161475,1.0203542415662659,0.033346430205603884,0.48562958941619294,0.14278156011541562,0.10276721961708374,0.3951407896173144,0.3799463205062044,0.3084201084752157,0.9812871164756976,0.07496867427740211,0.48339140883628195,0.13741234967112698,0.0421481087279414,0.38721155178676964,0.43955593919124053,0.2756979960782202,0.9910483422404274,0.025184290434480054,0.4864302760993491,0.13698823183968697,0.03593799579026338,0.2905836100890187,0.3965852023031355,0.3075036906274033,0.8733637799137552,0.12612026430587103,0.49279257411577543,0.1897689618654732,0.9944323250688399,0.26278329843109716,0.5343835342940693,0.26092579553767165,0.9913332589879575,0.15474522522331527,0.6328477710966951,0.14406579570765973,0.9280992407690639,0.2477259393923988,0.6584051923285272,0.24428627717210985,1.0372676299530774,0.23680157436964316,0.8062516893435723,0.21695384439144838,0.9363092092365694,0.39952146032912034,0.7807686887929907,0.2905304752747127,0.9930560582391905,0.24997879489211614,0.8338673469793239,0.20598630413465563,0.9453367465139786,0.4135821619452297,0.8342442489266341,0.24642889977109828,0.9527636529796636,0.21467481573715239,0.8115364194161169,0.20410353881895413,0.7133782671618493,0.40267769345716653,0.7807471454679368,0.3664108171485884,0.9092355922094509
12,,,,,,,,,,,,,,,,,,,,,,,,,,,,,,,,,,,,,,,,,,,,,,,,,,,,,,,,,,,,,,,,,,,,,,,,,,,,,,,,,,,,,,,,,,,,,,,,,,,,,,,,,,,,,,,,,,,,,,,,,,,,,,,,,,,,
13,,,,,,,,,,,,,,,,,,,,,,,,,,,,,,,,,,,,,,,,,,,,,,,,,,,,,,,,,,,,,,,,,,,,,,,,,,,,,,,,,,,,,,,,,,,,,,,,,,,,,,,,,,,,,,,,,,,,,,,,,,,,,,,,,,,,
14,,,,,,,,,,,,,,,,,,,,,,,,,,,,,,,,,,,,,,,,,,,,,,,,,,,,,,,,,,,,,,,,,,,,,,,,,,,,,,,,,,,,,,,,,,,,,,,,,,,,,,,,,,,,,,,,,,,,,,,,,,,,,,,,,,,,
15,,,,,,,,,,,,,,,,,,,,,,,,,,,,,,,,,,,,,,,,,,,,,,,,,,,,,,,,,,,,,,,,,,,,,,,,,,,,,,,,,,,,,,,,,,,,,,,,,,,,,,,,,,,,,,,,,,,,,,,,,,,,,,,,,,,,
16,,,,,,,,,,,,,,,,,,,,,,,,,,,,,,,,,,,,,,,,,,,,,,,,,,,,,,,,,,,,,,,,,,,,,,,,,,,,,,,,,,,,,,,,,,,,,,,,,,,,,,,,,,,,,,,,,,,,,,,,,,,,,,,,,,,,
17,,,,,,,,,,,,,,,,,,,,,,,,,,,,,,,,,,,,,,,,,,,,,,,,,,,,,,,,,,,,,,,,,,,,,,,,,,,,,,,,,,,,,,,,,,,,,,,,,,,,,,,,,,,,,,,,,,,,,,,,,,,,,,,,,,,,
18,,,,,,,,,,,,,,,,,,,,,,,,,,,,,,,,,,,,,,,,,,,,,,,,,,,,,,,,,,,,,,,,,,,,,,,,,,,,,,,,,,,,,,,,,,,,,,,,,,,,,,,,,,,,,,,,,,,,,,,,,,,,,,,,,,,,
19,,,,,,,,,,,,,,,,,,,,,,,,,,,,,,,,,,,,,,,,,,,,,,,,,,,,,,,,,,,,,,,,,,,,,,,,,,,,,,,,,,,,,,,,,,,,,,,,,,,,,,,,,,,,,,,,,,,,,,,,,,,,,,,,,,,,
20,,,,,,,,,,,,,,,,,,,,,,,,,,,,,,,,,,,,,,,,,,,,,,,,,,,,,,,,,,,,,,,,,,,,,,,,,,,,,,,,,,,,,,,,,,,,,,,,,,,,,,,,,,,,,,,,,,,,,,,,,,,,,,,,,,,,
21,,,,,,,,,,,,,,,,,,,,,,,,,,,,,,,,,,,,,,,,,,,,,,,,,,,,,,,,,,,,,,,,,,,,,,,,,,,,,,,,,,,,,,,,,,,,,,,,,,,,,,,,,,,,,,,,,,,,,,,,,,,,,,,,,,,,
22,,,,,,,,,,,,,,,,,,,,,,,,,,,,,,,,,,,,,,,,,,,,,,,,,,,,,,,,,,,,,,,,,,,,,,,,,,,,,,,,,,,,,,,,,,,,,,,,,,,,,,,,,,,,,,,,,,,,,,,,,,,,,,,,,,,,
23,,,,,,,,,,,,,,,,,,,,,,,,,,,,,,,,,,,,,,,,,,,,,,,,,,,,,,,,,,,,,,,,,,,,,,,,,,,,,,,,,,,,,,,,,,,,,,,,,,,,,,,,,,,,,,,,,,,,,,,,,,,,,,,,,,,,
24,,,,,,,,,,,,,,,,,,,,,,,,,,,,,,,,,,,,,,,,,,,,,,,,,,,,,,,,,,,,,,,,,,,,,,,,,,,,,,,,,,,,,,,,,,,,,,,,,,,,,,,,,,,,,,,,,,,,,,,,,,,,,,,,,,,,
25,,,,,,,,,,,,,,,,,,,,,,,,,,,,,,,,,,,,,,,,,,,,,,,,,,,,,,,,,,,,,,,,,,,,,,,,,,,,,,,,,,,,,,,,,,,,,,,,,,,,,,,,,,,,,,,,,,,,,,,,,,,,,,,,,,,,
26,,,,,,,,,,,,,,,,,,,,,,,,,,,,,,,,,,,,,,,,,,,,,,,,,,,,,,,,,,,,,,,,,,,,,,,,,,,,,,,,,,,,,,,,,,,,,,,,,,,,,,,,,,,,,,,,,,,,,,,,,,,,,,,,,,,,
27,,,,,,,,,,,,,,,,,,,,,,,,,,,,,,,,,,,,,,,,,,,,,,,,,,,,,,,,,,,,,,,,,,,,,,,,,,,,,,,,,,,,,,,,,,,,,,,,,,,,,,,,,,,,,,,,,,,,,,,,,,,,,,,,,,,,
28,,,,,,,,,,,,,,,,,,,,,,,,,,,,,,,,,,,,,,,,,,,,,,,,,,,,,,,,,,,,,,,,,,,,,,,,,,,,,,,,,,,,,,,,,,,,,,,,,,,,,,,,,,,,,,,,,,,,,,,,,,,,,,,,,,,,
29,,,,,,,,,,,,,,,,,,,,,,,,,,,,,,,,,,,,,,,,,,,,,,,,,,,,,,,,,,,,,,,,,,,,,,,,,,,,,,,,,,,,,,,,,,,,,,,,,,,,,,,,,,,,,,,,,,,,,,,,,,,,,,,,,,,,
30,,,,,,,,,,,,,,,,,,,,,,,,,,,,,,,,,,,,,,,,,,,,,,,,,,,,,,,,,,,,,,,,,,,,,,,,,,,,,,,,,,,,,,,,,,,,,,,,,,,,,,,,,,,,,,,,,,,,,,,,,,,,,,,,,,,,
31,,,,,,,,,,,,,,,,,,,,,,,,,,,,,,,,,,,,,,,,,,,,,,,,,,,,,,,,,,,,,,,,,,,,,,,,,,,,,,,,,,,,,,,,,,,,,,,,,,,,,,,,,,,,,,,,,,,,,,,,,,,,,,,,,,,,
32,,,,,,,,,,,,,,,,,,,,,,,,,,,,,,,,,,,,,,,,,,,,,,,,,,,,,,,,,,,,,,,,,,,,,,,,,,,,,,,,,,,,,,,,,,,,,,,,,,,,,,,,,,,,,,,,,,,,,,,,,,,,,,,,,,,,
33,,,,,,,,,,,,,,,,,,,,,,,,,,,,,,,,,,,,,,,,,,,,,,,,,,,,,,,,,,,,,,,,,,,,,,,,,,,,,,,,,,,,,,,,,,,,,,,,,,,,,,,,,,,,,,,,,,,,,,,,,,,,,,,,,,,,
34,,,,,,,,,,,,,,,,,,,,,,,,,,,,,,,,,,,,,,,,,,,,,,,,,,,,,,,,,,,,,,,,,,,,,,,,,,,,,,,,,,,,,,,,,,,,,,,,,,,,,,,,,,,,,,,,,,,,,,,,,,,,,,,,,,,,
35,,,,,,,,,,,,,,,,,,,,,,,,,,,,,,,,,,,,,,,,,,,,,,,,,,,,,,,,,,,,,,,,,,,,,,,,,,,,,,,,,,,,,,,,,,,,,,,,,,,,,,,,,,,,,,,,,,,,,,,,,,,,,,,,,,,,
36,,,,,,,,,,,,,,,,,,,,,,,,,,,,,,,,,,,,,,,,,,,,,,,,,,,,,,,,,,,,,,,,,,,,,,,,,,,,,,,,,,,,,,,,,,,,,,,,,,,,,,,,,,,,,,,,,,,,,,,,,,,,,,,,,,,,
37,,,,,,,,,,,,,,,,,,,,,,,,,,,,,,,,,,,,,,,,,,,,,,,,,,,,,,,,,,,,,,,,,,,,,,,,,,,,,,,,,,,,,,,,,,,,,,,,,,,,,,,,,,,,,,,,,,,,,,,,,,,,,,,,,,,,
38,,,,,,,,,,,,,,,,,,,,,,,,,,,,,,,,,,,,,,,,,,,,,,,,,,,,,,,,,,,,,,,,,,,,,,,,,,,,,,,,,,,,,,,,,,,,,,,,,,,,,,,,,,,,,,,,,,,,,,,,,,,,,,,,,,,,
39,,,,,,,,,,,,,,,,,,,,,,,,,,,,,,,,,,,,,,,,,,,,,,,,,,,,,,,,,,,,,,,,,,,,,,,,,,,,,,,,,,,,,,,,,,,,,,,,,,,,,,,,,,,,,,,,,,,,,,,,,,,,,,,,,,,,
40,,,,,,,,,,,,,,,,,,,,,,,,,,,,,,,,,,,,,,,,,,,,,,,,,,,,,,,,,,,,,,,,,,,,,,,,,,,,,,,,,,,,,,,,,,,,,,,,,,,,,,,,,,,,,,,,,,,,,,,,,,,,,,,,,,,,
41,,,,,,,,,,,,,,,,,,,,,,,,,,,,,,,,,,,,,,,,,,,,,,,,,,,,,,,,,,,,,,,,,,,,,,,,,,,,,,,,,,,,,,,,,,,,,,,,,,,,,,,,,,,,,,,,,,,,,,,,,,,,,,,,,,,,
42,,,,,,,,,,,,,,,,,,,,,,,,,,,,,,,,,,,,,,,,,,,,,,,,,,,,,,,,,,,,,,,,,,,,,,,,,,,,,,,,,,,,,,,,,,,,,,,,,,,,,,,,,,,,,,,,,,,,,,,,,,,,,,,,,,,,
43,,,,,,,,,,,,,,,,,,,,,,,,,,,,,,,,,,,,,,,,,,,,,,,,,,,,,,,,,,,,,,,,,,,,,,,,,,,,,,,,,,,,,,,,,,,,,,,,,,,,,,,,,,,,,,,,,,,,,,,,,,,,,,,,,,,,
44,0.05501157251425601,0.34079078248452765,0.06656866798814601,0.9622507519798107,0.09010254880524868,0.355491243969993,0.1165434476702391,0.9961098311610319,0.09357285914980479,0.2658701740153828,0.08591906170066843,0.9984397044006996,0.009129002559962837,0.33973387930638305,0.15970298492558685,1.0164736001177135,0.10091967638851995,0.3485074335091042,0.09472102723976839,0.9621480446390187,0.0293314992138113,0.2915224822874114,0.12072913527677206,1.008495473740358,0.10254434507513549,0.35242626152668965,0.1292889186251373,1.0377783605747353,0.06498725290715332,0.36247852199600505,0.1223896517731707,1.0128442588780555,0.188530496138042,0.2743039965296171,0.13851617854863843,0.9841398809678219,0.044722508045039584,0.3619295492813052,0.14067456625393854,0.9625510877917614,0.07202548997075901,0.2911339631062834,0.14387170632792334,0.9937487095551789,0.13719141507751753,0.36377876308478063,0.14317538463250642,1.002921640118428,0.2824027767487343,0.3599198845378931,0.24648195253059316,0.980647388820594,0.16709183697311772,0.3791464188044126,0.11886613329191592,1.000620462193178,0.45320927274833894,0.437308098071226,0.32845907801405083,0.6525797307959549,0.2675650118768483,0.3279894019396958,0.23537203909125073,0.9057015190577071,0.5905628100164353,0.48083425547613867,0.4171760433602601,0.49029764576395873,0.25363448236017916,0.36119854555289643,0.24308335096549138,0.9107381085297616,0.6302418327789007,0.4115578524790896,0.41903041117032275,0.4633890337425432,0.2877296767475156,0.3504052507037288,0.23265621548228152,0.8476456023228263,0.6358741745414476,0.47485720729197906,0.3937544364536832,0.48901254559812385,0.21512572629181845,0.35682653254618746,0.22148186714530393,0.7363708067226613,0.5353446500371709,0.4287650049593092,0.4244007616371445,0.3337867726200542,0.1123123903625028,0.5006186639747843,0.18450816432862144,0.9944786974824752,0.2911453047674727,0.5515635002669697,0.2795912280411682,0.9913575776830258,0.10630325809344725,0.629533574033249,0.11646620765289382,0.9000414867292995,0.2066317536542796,0.6482926682959345,0.22582560526166776,1.0313112185913833,0.11726766927114601,0.7946722353984124,0.14990445999345364,0.9779148010105562,0.3021841768106279,0.7695259414861669,0.23985849159870495,0.9812750809900452,0.12398325163357507,0.8244950530301967,0.13505585402741044,0.9499813192488112,0.3188666919492201,0.8187148547768538,0.19682635980148128,0.9462260963314092,0.08297538949062781,0.7800060391670934,0.13076635043087806,0.8126507567095788,0.24285662534627306,0.7721166313230393,0.2823788302498945,0.8691031292310879
45,0.08668883415019521,0.3567612510056459,0.0858524647077793,0.9622507519798107,0.11764980132847999,0.37137644804676,0.13368206681877762,0.9961098311610319,0.121087962983985,0.28131442293010145,0.10302168977009991,0.9985005011383705,0.036738094393196905,0.3546902344012927,0.17683937675713876,1.0164736001177135,0.13449516354704727,0.36545500097202527,0.1148824743624618,0.9621480446390187,0.06270997676282782,0.3087387772913024,0.14071033856044712,1.0085228918769547,0.13557973578794258,0.36990752897892965,0.1490108096137016,1.0377783605747353,0.07022818377023567,0.37634220474289226,0.12775774948878116,1.0128930154774818,0.21958763400579215,0.29185449477676373,0.15700025728378433,0.9841794584519526,0.06800407710159748,0.3767322137996615,0.15549138533260054,0.9630485481570568,0.10343619906920422,0.3073956003171293,0.16292995556917808,0.9945108145432769,0.11493125084945834,0.3775307169250364,0.13356373658980242,1.0029218785370069,0.3071100856575184,0.3713686851017054,0.26049399044357696,0.9810571707534248,0.09884390882231872,0.3864805319254453,0.08189397371376327,1.0329178350111712,0.47088523547504907,0.4331555616790141,0.3411376047387975,0.9684723079672805,0.1629045887216022,0.33709162724334574,0.17509622322169496,0.9821441779589216,0.5971384230815244,0.45967678215040936,0.42700733409371056,0.953577727512921,0.14192587521104488,0.3706344972626437,0.1781566632449208,0.9924273470780404,0.634570346031301,0.38618713543044453,0.42688704847733605,0.8604277319389544,0.17659616998473107,0.3602665709609157,0.1681323320287836,0.9308516598713493,0.6383810791417486,0.44501977776851104,0.40155878028611697,0.8657707038050636,0.1085723013280564,0.3654938227569113,0.15955105289757593,0.8556951332378591,0.5393930554372378,0.400474196758473,0.4330551606110494,0.7024345864170513,0.10371702693600772,0.5112042104683145,0.1816500963638823,0.9944735714830245,0.30479837169510277,0.5587099183616047,0.2870819307355455,0.9913478025212827,0.09290565787313393,0.6332450956587679,0.11001847867905412,0.8192882199179286,0.24874417118446718,0.6493882016669061,0.24825862381339941,1.0355911897141248,0.07271855599638773,0.7914363588382012,0.12574070596839473,0.9289131072849701,0.3375635457558222,0.7776707969854345,0.2586986600992905,0.9902130954973387,0.07420354563954895,0.8204685208570399,0.10768825051152588,0.9031896465422072,0.3513304232815398,0.8307422376275008,0.21370667974122204,0.9506447674625432,0.046025210297742425,0.7783861041313879,0.11102802168794923,0.8163233565020592,0.29755315524373277,0.7776702940999863,0.31203490724676985,0.9373946145406887
46,0.4809312480841837,0.36210725120019543,0.29338781123729846,0.9622507519798107,0.4738735307404868,0.380005233656959,0.32158370721732515,0.9961098311610319,0.47830142963050043,0.29090302213511854,0.29184835177806473,0.9985006203476601,0.3947149390958082,0.36521230194813725,0.3664680463589082,1.0164736001177135,0.4984595392297535,0.37164831099437945,0.3048575278675846,0.9621480446390187,0.42733150224010674,0.3140116425867126,0.3311993759904843,1.0085230110862442,0.4996472990157023,0.37432056747113246,0.3388237630574727,1.0377783605747353,0.2544042022330384,0.38576984160469346,0.22681354069769788,1.0128930154774818,0.4616253695257821,0.2930283486509703,0.2822692658179369,0.9841796968705319,0.40422225711362847,0.3832561507865847,0.33344381808718676,0.9630558199237194,0.4547757568155167,0.31173210644544047,0.34706511970951487,0.9945264309602081,0.15394630827165914,0.39883553293265056,0.16348217909568166,1.0029291503036697,0.49159721446785043,0.368963995312887,0.35045647473305996,0.9811914004134592,-0.024215256046606314,0.40101318740296915,0.043428069568002575,0.40591464210955996,0.6798872554753672,0.4014533412391032,0.4342456808427939,0.9841769993773453,-0.1841290032619442,0.34201339137870646,0.03241885971285855,0.27948701481576366,0.8671210001093721,0.43388018991484417,0.5475505429650099,0.9960422222181214,-0.255289832046287,0.3691764186398257,0.013355008463567061,0.1882259080550225,0.9289541432210908,0.35666668340789204,0.5606698774998575,0.8691793031173907,-0.20473725515281338,0.3649751888865596,0.01047510274481759,0.15742578277708041,0.9374711700624335,0.42036154484118865,0.5370837895050299,0.889946884167765,-0.2336045818798477,0.375680286351348,0.020978976698519437,0.1527698236990178,0.8142017914329418,0.3797151804830672,0.5563703303407552,0.7052731980198345,0.09637947835186104,0.5157233154258951,0.18567369846286907,0.9944701144136275,0.32108706733143766,0.5625170458373432,0.2912896335512672,0.9913597234502376,0.1962470044884359,0.6200945824866182,0.18691406329635657,0.9591048617254847,0.3634222496599925,0.6806388573179987,0.2910063340479946,1.0381733821350843,0.13145576438563225,0.7905196394015557,0.18577823505751204,1.0001994875759554,0.3850269729338307,0.7625587545583715,0.25701194490428797,1.001602947067468,0.1304127823152493,0.8218083140623011,0.16631069430861184,0.9430883401037612,0.39924912035183113,0.8022391772866194,0.21239229303408397,0.9424665929668464,0.1777914062833053,0.7908776283509008,0.2125511816025206,1.0245163606333765,0.43540503436752354,0.7724042833387254,0.3522444399844799,0.9713674143186735
47,0.3678821637637716,0.37810144236993415,0.23481535027087164,0.9622507519798107,0.37162613723790355,0.3935277692194742,0.2683412937462074,0.9961098311610319,0.3755279161149491,0.3036042056926289,0.2381607818448101,0.9984983553711585,0.2915736193406258,0.37714640352971074,0.31242043994966506,1.0164736001177135,0.4010201248030117,0.3864710622780251,0.25503257210260405,0.9621480446390187,0.32846066100974136,0.3287871869916961,0.2800613742951685,1.0085209845283218,0.40059777964078935,0.38901758275662435,0.28754279679586486,1.0377783605747353,0.20181445755908795,0.39402210467384624,0.19850907754784491,1.0128927770589027,0.417595643414449,0.3056836068296812,0.259257988215592,0.9841701601273679,0.3074583622496518,0.3958831563636721,0.28279619711743226,0.9630425876925792,0.3614887967113258,0.3252141406518309,0.29880242831825715,0.9945179671006501,0.1486143259097934,0.39046671298063945,0.15649700664166155,1.0029259316528518,0.4674578411080841,0.3739746895782526,0.3387553170491019,0.9811856783675608,-0.02138473809466606,0.41487296604562357,0.033346440818063414,0.05199161004929441,0.6835721130354109,0.4025832366877879,0.43927606865356705,0.9698298633566849,-0.14133106561505446,0.35339811694938517,0.04226400311334453,0.014728978111029675,0.8523148967455274,0.4326203265382267,0.5483510320458013,0.8441941444440735,-0.2017083949111298,0.3753070543781985,0.028449813767440532,0.05293711515986933,0.902429853290208,0.35731312558280354,0.5561432428114192,0.7547439879852496,-0.14887282456870785,0.3686048435324794,0.02720938225651163,-0.006501562526738202,0.8884431335184493,0.42139765238131927,0.5207766929457692,0.7992410125857338,-0.18882162678461933,0.37769715851893526,0.031990768618486556,-0.009700757543796911,0.7884960430668225,0.3801686824228407,0.5517703427664475,0.5671046246403179,0.09752458946393207,0.5155051624260172,0.18434202226971286,0.994445318881401,0.3176015894786453,0.5679272402343158,0.2903482170352536,0.9913514980092588,0.20720337615966927,0.6068146080260164,0.19017297274067904,0.44619717787615004,0.31214882096446683,0.6876532511244562,0.2678920004460726,1.0302893565613538,0.16516166470082705,0.7888383711863762,0.20408864517442013,0.9982694295734833,0.31866735520373857,0.7457652651021948,0.22355711025926195,0.9939691417925047,0.1675590382563158,0.8216565010320582,0.1870570707511391,0.9417309635282912,0.3278332192944391,0.7799945450425093,0.17555935925266658,0.9368233444088019,0.19996674275632326,0.7905956983811132,0.22640144233937262,1.0166346000361475,0.3207060090792593,0.7649265826284287,0.29335707810760553,0.9615339592329191
48,,,,,,,,,,,,,,,,,,,,,,,,,,,,,,,,,,,,,,,,,,,,,,,,,,,,,,,,,,,,,,,,,,,,,,,,,,,,,,,,,,,,,,,,,,,,,,,,,,,,,,,,,,,,,,,,,,,,,,,,,,,,,,,,,,,,
49,,,,,,,,,,,,,,,,,,,,,,,,,,,,,,,,,,,,,,,,,,,,,,,,,,,,,,,,,,,,,,,,,,,,,,,,,,,,,,,,,,,,,,,,,,,,,,,,,,,,,,,,,,,,,,,,,,,,,,,,,,,,,,,,,,,,
50,,,,,,,,,,,,,,,,,,,,,,,,,,,,,,,,,,,,,,,,,,,,,,,,,,,,,,,,,,,,,,,,,,,,,,,,,,,,,,,,,,,,,,,,,,,,,,,,,,,,,,,,,,,,,,,,,,,,,,,,,,,,,,,,,,,,
51,,,,,,,,,,,,,,,,,,,,,,,,,,,,,,,,,,,,,,,,,,,,,,,,,,,,,,,,,,,,,,,,,,,,,,,,,,,,,,,,,,,,,,,,,,,,,,,,,,,,,,,,,,,,,,,,,,,,,,,,,,,,,,,,,,,,
52,,,,,,,,,,,,,,,,,,,,,,,,,,,,,,,,,,,,,,,,,,,,,,,,,,,,,,,,,,,,,,,,,,,,,,,,,,,,,,,,,,,,,,,,,,,,,,,,,,,,,,,,,,,,,,,,,,,,,,,,,,,,,,,,,,,,
53,,,,,,,,,,,,,,,,,,,,,,,,,,,,,,,,,,,,,,,,,,,,,,,,,,,,,,,,,,,,,,,,,,,,,,,,,,,,,,,,,,,,,,,,,,,,,,,,,,,,,,,,,,,,,,,,,,,,,,,,,,,,,,,,,,,,
54,0.8138601601406884,0.6212216060490571,0.45981262634785497,0.9622507519798107,0.8358805707351671,0.6689034632559581,0.5036432453334154,0.9961098311610319,0.8390079858871613,0.5836858354457417,0.4726895792488865,0.99610963962714,0.7540714859851572,0.6619922027373981,0.5460411921424715,1.0164736001177135,0.8249326557259294,0.6524512463562416,0.4709014473704477,0.9621480446390187,0.7541193107484265,0.5929594429845856,0.49760305152738205,1.0019974349715899,0.8281002662595127,0.6511062987867453,0.506862715819215,1.0377783605747353,0.6592329072204874,0.6868585025601226,0.4304650531115937,1.0107054058049354,0.684809313085426,0.5658072173262023,0.3974819093531801,0.9771814559228085,0.7408663669771379,0.6311612859413088,0.500642013155947,0.9619455642054882,0.7419155959831515,0.5495325257760374,0.4912640614265349,0.9914792031007109,0.6476066908480779,0.6107820203594083,0.4081086248298388,1.002501486977406,0.5417096195326419,0.5500746158115443,0.38078509051300286,0.9794006980704719,0.6644887893167333,0.5026727237646635,0.38287648202895574,1.011705316795992,0.5085040572125725,0.4646294963294352,0.35215418884662686,0.8170235217085831,0.6943916425179129,0.35849073779899454,0.46974865548781397,0.6502656350588363,0.5733021451413625,0.42351515080466046,0.4011192382293577,0.5665395562215698,0.6939506787500338,0.3623677502648105,0.48595565635932747,0.45201071895571066,0.6083265203743593,0.33213287517653833,0.4009929051540373,0.43657627172052477,0.7395974165246217,0.3587282346839077,0.48271631469626974,0.45152150759817106,0.6449220063457684,0.39502411698665063,0.39190137456164353,0.477127379429911,0.645732238218541,0.3721100873385916,0.45954246140924004,0.40114939692499285,0.5270076203434297,0.3573110164072157,0.41282092451389235,0.3897720147484264,0.2090966924832966,0.4141171550235971,0.23187134225458433,0.9921959587968672,0.17260112616265813,0.44088187704652587,0.21213868777034556,0.9847074874654356,0.37683691854986096,0.41836099331425486,0.26250573357162144,0.630734052170431,0.0779928320956918,0.4234660045634057,0.14617521429247454,0.21785994336192913,0.03998712492087607,0.39716149821770247,0.11778491540060462,0.2811464277595949,-0.2397917091510252,0.3670869730661382,-0.05611973232346355,0.06482852930948015,0.010836586472897359,0.39808732841128486,0.08442047006827895,0.29770885640396266,-0.26140920713479376,0.3931508339047377,-0.11857471264716143,0.09748270231418976,0.05572207720249968,0.32238020303313647,0.12461956221172032,0.4670048223662408,-0.27386316061056476,0.2880911231576798,-0.003541914530868412,0.10220844598924365
55,,,,,,,,,,,,,,,,,,,,,,,,,,,,,,,,,,,,,,,,,,,,,,,,,,,,,,,,,,,,,,,,,,,,,,,,,,,,,,,,,,,,,,,,,,,,,,,,,,,,,,,,,,,,,,,,,,,,,,,,,,,,,,,,,,,,
56,,,,,,,,,,,,,,,,,,,,,,,,,,,,,,,,,,,,,,,,,,,,,,,,,,,,,,,,,,,,,,,,,,,,,,,,,,,,,,,,,,,,,,,,,,,,,,,,,,,,,,,,,,,,,,,,,,,,,,,,,,,,,,,,,,,,
57,,,,,,,,,,,,,,,,,,,,,,,,,,,,,,,,,,,,,,,,,,,,,,,,,,,,,,,,,,,,,,,,,,,,,,,,,,,,,,,,,,,,,,,,,,,,,,,,,,,,,,,,,,,,,,,,,,,,,,,,,,,,,,,,,,,,
58,,,,,,,,,,,,,,,,,,,,,,,,,,,,,,,,,,,,,,,,,,,,,,,,,,,,,,,,,,,,,,,,,,,,,,,,,,,,,,,,,,,,,,,,,,,,,,,,,,,,,,,,,,,,,,,,,,,,,,,,,,,,,,,,,,,,
59,,,,,,,,,,,,,,,,,,,,,,,,,,,,,,,,,,,,,,,,,,,,,,,,,,,,,,,,,,,,,,,,,,,,,,,,,,,,,,,,,,,,,,,,,,,,,,,,,,,,,,,,,,,,,,,,,,,,,,,,,,,,,,,,,,,,
60,,,,,,,,,,,,,,,,,,,,,,,,,,,,,,,,,,,,,,,,,,,,,,,,,,,,,,,,,,,,,,,,,,,,,,,,,,,,,,,,,,,,,,,,,,,,,,,,,,,,,,,,,,,,,,,,,,,,,,,,,,,,,,,,,,,,
61,,,,,,,,,,,,,,,,,,,,,,,,,,,,,,,,,,,,,,,,,,,,,,,,,,,,,,,,,,,,,,,,,,,,,,,,,,,,,,,,,,,,,,,,,,,,,,,,,,,,,,,,,,,,,,,,,,,,,,,,,,,,,,,,,,,,
62,0.7332109617390897,0.33296069911431897,0.39756706262495684,0.9622507519798107,0.7420188703533908,0.3517176143046183,0.43497723217730144,0.9961098311610319,0.747561427691245,0.26307167633853346,0.4063181693746679,0.9985005011383705,0.665207335541254,0.33783559057957646,0.4820784312092592,1.0164736001177135,0.7402100069963743,0.34335184035228955,0.40413920636096695,0.9621480446390187,0.6666641528158828,0.2861620577688262,0.4282990167531382,1.0085228918769547,0.7379277926848123,0.3469037421766378,0.4350305643466601,1.0377783605747353,0.5416796945901571,0.36407163494156175,0.3529468331802013,1.0128928962681922,0.6197015905922758,0.27049371000770556,0.3374815922154378,0.9841795776612423,0.6582948533325721,0.3564399018928469,0.4398719899806633,0.9630524820636119,0.6717413255303206,0.2845200529080717,0.43307996206725613,0.9945235699372589,0.45245151941091416,0.37268214729345983,0.2972374155668354,1.0028861157501416,0.5151214001260659,0.3469602254383143,0.33761989060552183,0.9805263317870552,0.45307952929781586,0.4278552153055723,0.2696694297823979,0.9426356332442036,0.4514063428652853,0.4246570420199717,0.2919865890941188,0.9417920768729202,0.5856340305950762,0.39380258572418064,0.40937574398955445,0.5979348431086104,0.4875510615592841,0.5058947601510502,0.3278659524619571,0.7134416405721558,0.5791332455899393,0.4269946228043307,0.4231171609487321,0.515490380897239,0.5284240970635873,0.44857510850058924,0.3304090894464112,0.47053420013963787,0.636285517703151,0.4195541190261013,0.42410833477504295,0.4990425325405692,0.5618408605244986,0.5108457169469778,0.32074268099504166,0.4798124196654304,0.5424145159746088,0.4247994012271414,0.40050880577939446,0.4435958910274709,0.4423254007003891,0.4585673869516493,0.3417897990409717,0.3798077870720348,0.09913443411119184,0.45174506063082054,0.1663393131311855,0.9944788166917647,0.21680198298536327,0.49519038091272155,0.21657864529404763,0.9913574584737364,0.1784941656288327,0.5633066148047334,0.15061139353679442,0.9222339053045863,0.2526400514152523,0.6037300900946405,0.22075993088149057,1.0282696531731397,0.044441788772725796,0.7130138124514824,0.10944443065374027,0.8979895023197603,0.18454632226977508,0.6955333911130895,0.14637057464737013,0.9315620654337096,0.039249913846766,0.7350709793340602,0.08778209037250229,0.6924033635260025,0.19211806689663768,0.7369176722168868,0.09894969957279517,0.5603294135921515,0.1068716380038675,0.7270210862404577,0.1421520676895295,0.858029262893203,0.22150368340567317,0.7116927803098557,0.23571579622226746,0.8514295771948025
63,0.6171660159552265,0.33021626285028083,0.3372586225422683,0.9622507519798107,0.6279736633383484,0.3500855795260233,0.3759191390144998,0.9961098311610319,0.6335358507193848,0.26207142099223524,0.3472614593238274,0.9985006203476601,0.5511990788851149,0.33752731535679814,0.4230257006275778,1.0164736001177135,0.6283013110065205,0.3401688629143166,0.3462875048165883,0.9621480446390187,0.5549016200262591,0.2825936468954131,0.3705604498246791,1.0085230110862442,0.626296408284737,0.34322363219891566,0.37738811558792346,1.0377783605747353,0.44188836626472194,0.36450394743011766,0.3011828337757498,1.0128930154774818,0.527877532608027,0.26712458726409893,0.29013864454851107,0.9841795776612423,0.5483468335867266,0.3543038204357089,0.38257458231993896,0.96305558150514,0.5636086318930466,0.2806910505277006,0.3768097514070368,0.9945259541230499,0.3678560114148671,0.36801459696806615,0.2523787338744566,1.0028665654266553,0.4954289094670622,0.3426170137874659,0.32831636037671563,0.9789816178130564,0.4172017396044071,0.39273428105760166,0.2498420880236965,0.5651057140967122,0.5673420492911618,0.394652749293455,0.3604642465704416,0.8411557138434402,0.5542669064933478,0.3198599840434251,0.3903169397491105,0.5945867310022872,0.590982621790634,0.38284743811621436,0.39638014488072965,0.6887076203390015,0.5410271711944883,0.3452500711457004,0.39991120552936,0.6010429242989571,0.6324070119469583,0.30213674828635584,0.401456603638749,0.553112382360097,0.5824419733893638,0.3360550748461849,0.3925968018016356,0.5740819192898368,0.6360894732830886,0.3596032819684927,0.37463217626347023,0.5806325736170753,0.5039747568484991,0.3427475578223715,0.3772363941253317,0.5435367870617116,0.5341058056881239,0.3175627649690749,0.4039622593458952,0.5039416421764812,0.08708859057004185,0.4576617752990945,0.15906714925246557,0.994479055110344,0.22453865736878778,0.5034251798209552,0.21973447116755052,0.9913553127065243,0.20910840459136792,0.5590169877295381,0.16700656758884133,0.9243142862211817,0.24558978680805904,0.6112483815680292,0.2168774934535807,1.0264999316651138,0.09550309877384185,0.7091780747462517,0.13829874937806877,0.8467665819019746,0.15621189615309555,0.6916289292524328,0.13103770993232616,0.8349199884645628,0.09058129699475984,0.7299227473508754,0.11715352482753151,0.5881404154898087,0.15818451658199878,0.7283794856667464,0.0804707114814121,0.4410409690731085,0.13544294399849932,0.7280473590142004,0.15890833470288057,0.7699182199168236,0.15318683647454331,0.7129376233159898,0.19959341109923612,0.7511585906377957
64,0.35888032549147747,0.3255863230557405,0.20245169413016942,0.9622507519798107,0.365454496753642,0.3473452857847971,0.23890170776176797,0.9961098311610319,0.37085051444844574,0.25997223481021314,0.21006808659383353,0.9984914412323647,0.2882681399999147,0.3360146686816882,0.28561383237129073,1.0164736001177135,0.37406619331248364,0.33557495412754285,0.21377468569616212,0.9621480446390187,0.30091279564016754,0.2771471532697723,0.23825709668002976,1.008520150063295,0.372607246217061,0.3366739162031271,0.24532676057993816,1.0377783605747353,0.17918636341309882,0.36282539122627544,0.16384274926103776,1.0128871742222938,0.30667448533994873,0.25741111632827746,0.17516966388611777,0.9841744516617916,0.29145458451796363,0.3507275417491854,0.2482495814626532,0.9629977649997081,0.3193860479606171,0.2746653785687773,0.24949698773352869,0.9944867342667877,0.13352776576877512,0.36158754733122533,0.1277743746035365,1.0028457038009841,0.3056199961942444,0.3229526666156824,0.2301119196708663,0.9803406633185798,0.10210418562000842,0.37075307154107645,0.07338578271974308,0.7602175848623982,0.34380487399769083,0.3519819927150095,0.23358303226792526,0.9451543152800552,0.1481621030559163,0.29893082630950785,0.15662625878113628,0.5725531588053268,0.42053827724227916,0.3826859095288731,0.28365849925144854,0.9185956422849548,0.13669903781242526,0.32678237662475,0.16450478796143142,0.5286764780423195,0.46140932265192036,0.3038591139041079,0.28433986331246375,0.8517493552643023,0.1687652844740771,0.3126462148779995,0.15211630654253144,0.49283250341535556,0.48654182580059263,0.3674299380716268,0.2698913629842099,0.8845260205393776,0.09238411728694115,0.32104455298533535,0.13910798645821706,0.37920141699792986,0.37000233723221565,0.327722436275685,0.29314583039942227,0.7718286384457073,0.045942748737772085,0.4618790423355325,0.1360611958233756,0.9944661805070724,0.2610875958118805,0.5009373415526752,0.23863289837450974,0.9912947543874325,0.20724406355743247,0.556318745065201,0.16637613881045338,0.5284255404364222,0.32776300209015136,0.5897020177374628,0.26075153252239613,1.017862801404646,0.10932303830949655,0.7072087372828728,0.1423393061362549,0.762250831493802,0.29741159120748123,0.691776689166831,0.20377225783619585,0.8970320814363646,0.10828525287059544,0.7297450063001552,0.12258776047403029,0.7202557199598709,0.30193987086119134,0.7327667451500838,0.1540423253281257,0.6435019733303107,0.14556874715126727,0.7168498516327612,0.16104277711201123,0.8415270613360436,0.2998411028304162,0.7111648619710801,0.27585967566794084,0.8521256402364895
65,0.29860797825660895,0.31963164022874463,0.17149598030389146,0.9622507519798107,0.30690815189941556,0.3412255874987406,0.20771380279164628,0.9961098311610319,0.3114421106295033,0.25260197147212415,0.17808227839813,0.9985006203476601,0.22837299693220509,0.32742850039250365,0.25311602868248584,1.0164736001177135,0.3264398874893447,0.33264195856975787,0.18910366571697962,0.9621480446390187,0.2537620087032301,0.2751860412473724,0.21403732980901935,1.0085230110862442,0.3258717606914837,0.3355864592615225,0.22151872134124687,1.0377783605747353,0.15488495711839198,0.35296585910843187,0.15031548054914212,1.0128930154774818,0.32442187070633505,0.25738277431968676,0.18480325823797888,0.9841796968705319,0.24329789756269907,0.3419055774852694,0.22320503828830246,0.96305558150514,0.2846382957002719,0.2704123189431517,0.23252307865213398,0.9945259541230499,0.09478197801798643,0.35362979081190776,0.10567369231003715,1.002641677101918,0.3790532124342697,0.3265025404445704,0.2707638907328338,0.9797080792235788,-0.02478681926653658,0.36036508464265415,0.012747617010068386,0.2336325572869053,0.5688264734364517,0.3330325734549845,0.3635515256123384,0.9129511178008072,-0.1155084397558527,0.27792588126975865,0.034723719499870694,0.14174348215814037,0.6899899467359214,0.33306936409010657,0.44654590243193015,0.7202341262861145,-0.17032816466621176,0.2966873060242404,0.022598176599494132,0.15731082655401543,0.740993813110037,0.24878039881812464,0.4553577413654739,0.5898237175422869,-0.12387086344104312,0.2897116886729366,0.01802345530168719,0.11117534259677869,0.7346573039803395,0.31360792731608794,0.42297203674450234,0.5852495494013771,-0.16707528535007068,0.30058531827082735,0.02141448146078125,0.10740252318861129,0.6295979322190056,0.2752699316408278,0.45115332868836416,0.4485992361420116,0.03972814632633656,0.46550717706301054,0.1321305436639641,0.9944729754365768,0.26920517785911174,0.5104007113990192,0.24422433114222852,0.9913547166600766,0.12445368624097043,0.5657203048949129,0.12161525578977789,0.43052938174120126,0.2688158915702516,0.6073210911284235,0.2281873099823888,1.0283581064659866,0.06493418093812317,0.7059877361346489,0.11873822392892983,0.6668652800411653,0.258449172908699,0.6941117011259069,0.18321977959635696,0.9713653915636229,0.06246800816963559,0.7261944172155299,0.09862718324294883,0.6329425447584549,0.26704300142658915,0.735135910570616,0.13548350484470612,0.8165371181362189,0.1069618077369842,0.7107748866326086,0.14050008649014195,0.7619489597010644,0.2766192938938957,0.7031125724851487,0.2630761223069733,0.9199713424078151
66,,,,,,,,,,,,,,,,,,,,,,,,,,,,,,,,,,,,,,,,,,,,,,,,,,,,,,,,,,,,,,,,,,,,,,,,,,,,,,,,,,,,,,,,,,,,,,,,,,,,,,,,,,,,,,,,,,,,,,,,,,,,,,,,,,,,
67,,,,,,,,,,,,,,,,,,,,,,,,,,,,,,,,,,,,,,,,,,,,,,,,,,,,,,,,,,,,,,,,,,,,,,,,,,,,,,,,,,,,,,,,,,,,,,,,,,,,,,,,,,,,,,,,,,,,,,,,,,,,,,,,,,,,
68,,,,,,,,,,,,,,,,,,,,,,,,,,,,,,,,,,,,,,,,,,,,,,,,,,,,,,,,,,,,,,,,,,,,,,,,,,,,,,,,,,,,,,,,,,,,,,,,,,,,,,,,,,,,,,,,,,,,,,,,,,,,,,,,,,,,
69,,,,,,,,,,,,,,,,,,,,,,,,,,,,,,,,,,,,,,,,,,,,,,,,,,,,,,,,,,,,,,,,,,,,,,,,,,,,,,,,,,,,,,,,,,,,,,,,,,,,,,,,,,,,,,,,,,,,,,,,,,,,,,,,,,,,
70,,,,,,,,,,,,,,,,,,,,,,,,,,,,,,,,,,,,,,,,,,,,,,,,,,,,,,,,,,,,,,,,,,,,,,,,,,,,,,,,,,,,,,,,,,,,,,,,,,,,,,,,,,,,,,,,,,,,,,,,,,,,,,,,,,,,
71,,,,,,,,,,,,,,,,,,,,,,,,,,,,,,,,,,,,,,,,,,,,,,,,,,,,,,,,,,,,,,,,,,,,,,,,,,,,,,,,,,,,,,,,,,,,,,,,,,,,,,,,,,,,,,,,,,,,,,,,,,,,,,,,,,,,
72,,,,,,,,,,,,,,,,,,,,,,,,,,,,,,,,,,,,,,,,,,,,,,,,,,,,,,,,,,,,,,,,,,,,,,,,,,,,,,,,,,,,,,,,,,,,,,,,,,,,,,,,,,,,,,,,,,,,,,,,,,,,,,,,,,,,
73,,,,,,,,,,,,,,,,,,,,,,,,,,,,,,,,,,,,,,,,,,,,,,,,,,,,,,,,,,,,,,,,,,,,,,,,,,,,,,,,,,,,,,,,,,,,,,,,,,,,,,,,,,,,,,,,,,,,,,,,,,,,,,,,,,,,
74,,,,,,,,,,,,,,,,,,,,,,,,,,,,,,,,,,,,,,,,,,,,,,,,,,,,,,,,,,,,,,,,,,,,,,,,,,,,,,,,,,,,,,,,,,,,,,,,,,,,,,,,,,,,,,,,,,,,,,,,,,,,,,,,,,,,
75,,,,,,,,,,,,,,,,,,,,,,,,,,,,,,,,,,,,,,,,,,,,,,,,,,,,,,,,,,,,,,,,,,,,,,,,,,,,,,,,,,,,,,,,,,,,,,,,,,,,,,,,,,,,,,,,,,,,,,,,,,,,,,,,,,,,
76,,,,,,,,,,,,,,,,,,,,,,,,,,,,,,,,,,,,,,,,,,,,,,,,,,,,,,,,,,,,,,,,,,,,,,,,,,,,,,,,,,,,,,,,,,,,,,,,,,,,,,,,,,,,,,,,,,,,,,,,,,,,,,,,,,,,
77,,,,,,,,,,,,,,,,,,,,,,,,,,,,,,,,,,,,,,,,,,,,,,,,,,,,,,,,,,,,,,,,,,,,,,,,,,,,,,,,,,,,,,,,,,,,,,,,,,,,,,,,,,,,,,,,,,,,,,,,,,,,,,,,,,,,
78,,,,,,,,,,,,,,,,,,,,,,,,,,,,,,,,,,,,,,,,,,,,,,,,,,,,,,,,,,,,,,,,,,,,,,,,,,,,,,,,,,,,,,,,,,,,,,,,,,,,,,,,,,,,,,,,,,,,,,,,,,,,,,,,,,,,
79,,,,,,,,,,,,,,,,,,,,,,,,,,,,,,,,,,,,,,,,,,,,,,,,,,,,,,,,,,,,,,,,,,,,,,,,,,,,,,,,,,,,,,,,,,,,,,,,,,,,,,,,,,,,,,,,,,,,,,,,,,,,,,,,,,,,
80,,,,,,,,,,,,,,,,,,,,,,,,,,,,,,,,,,,,,,,,,,,,,,,,,,,,,,,,,,,,,,,,,,,,,,,,,,,,,,,,,,,,,,,,,,,,,,,,,,,,,,,,,,,,,,,,,,,,,,,,,,,,,,,,,,,,
81,,,,,,,,,,,,,,,,,,,,,,,,,,,,,,,,,,,,,,,,,,,,,,,,,,,,,,,,,,,,,,,,,,,,,,,,,,,,,,,,,,,,,,,,,,,,,,,,,,,,,,,,,,,,,,,,,,,,,,,,,,,,,,,,,,,,
82,,,,,,,,,,,,,,,,,,,,,,,,,,,,,,,,,,,,,,,,,,,,,,,,,,,,,,,,,,,,,,,,,,,,,,,,,,,,,,,,,,,,,,,,,,,,,,,,,,,,,,,,,,,,,,,,,,,,,,,,,,,,,,,,,,,,
83,,,,,,,,,,,,,,,,,,,,,,,,,,,,,,,,,,,,,,,,,,,,,,,,,,,,,,,,,,,,,,,,,,,,,,,,,,,,,,,,,,,,,,,,,,,,,,,,,,,,,,,,,,,,,,,,,,,,,,,,,,,,,,,,,,,,
84,,,,,,,,,,,,,,,,,,,,,,,,,,,,,,,,,,,,,,,,,,,,,,,,,,,,,,,,,,,,,,,,,,,,,,,,,,,,,,,,,,,,,,,,,,,,,,,,,,,,,,,,,,,,,,,,,,,,,,,,,,,,,,,,,,,,
85,,,,,,,,,,,,,,,,,,,,,,,,,,,,,,,,,,,,,,,,,,,,,,,,,,,,,,,,,,,,,,,,,,,,,,,,,,,,,,,,,,,,,,,,,,,,,,,,,,,,,,,,,,,,,,,,,,,,,,,,,,,,,,,,,,,,
86,,,,,,,,,,,,,,,,,,,,,,,,,,,,,,,,,,,,,,,,,,,,,,,,,,,,,,,,,,,,,,,,,,,,,,,,,,,,,,,,,,,,,,,,,,,,,,,,,,,,,,,,,,,,,,,,,,,,,,,,,,,,,,,,,,,,
87,,,,,,,,,,,,,,,,,,,,,,,,,,,,,,,,,,,,,,,,,,,,,,,,,,,,,,,,,,,,,,,,,,,,,,,,,,,,,,,,,,,,,,,,,,,,,,,,,,,,,,,,,,,,,,,,,,,,,,,,,,,,,,,,,,,,
88,,,,,,,,,,,,,,,,,,,,,,,,,,,,,,,,,,,,,,,,,,,,,,,,,,,,,,,,,,,,,,,,,,,,,,,,,,,,,,,,,,,,,,,,,,,,,,,,,,,,,,,,,,,,,,,,,,,,,,,,,,,,,,,,,,,,
89,,,,,,,,,,,,,,,,,,,,,,,,,,,,,,,,,,,,,,,,,,,,,,,,,,,,,,,,,,,,,,,,,,,,,,,,,,,,,,,,,,,,,,,,,,,,,,,,,,,,,,,,,,,,,,,,,,,,,,,,,,,,,,,,,,,,
