frame,NOSE.x,NOSE.y,NOSE.z,NOSE.v,LEFT_EYE_INNER.x,LEFT_EYE_INNER.y,LEFT_EYE_INNER.z,LEFT_EYE_INNER.v,LEFT_EYE.x,LEFT_EYE.y,LEFT_EYE.z,LEFT_EYE.v,LEFT_EYE_OUTER.x,LEFT_EYE_OUTER.y,LEFT_EYE_OUTER.z,LEFT_EYE_OUTER.v,RIGHT_EYE_INNER.x,RIGHT_EYE_INNER.y,RIGHT_EYE_INNER.z,RIGHT_EYE_INNER.v,RIGHT_EYE.x,RIGHT_EYE.y,RIGHT_EYE.z,RIGHT_EYE.v,RIGHT_EYE_OUTER.x,RIGHT_EYE_OUTER.y,RIGHT_EYE_OUTER.z,RIGHT_EYE_OUTER.v,LEFT_EAR.x,LEFT_EAR.y,LEFT_EAR.z,LEFT_EAR.v,RIGHT_EAR.x,RIGHT_EAR.y,RIGHT_EAR.z,RIGHT_EAR.v,MOUTH_LEFT.x,MOUTH_LEFT.y,MOUTH_LEFT.z,MOUTH_LEFT.v,MOUTH_RIGHT.x,MOUTH_RIGHT.y,MOUTH_RIGHT.z,MOUTH_RIGHT.v,LEFT_SHOULDER.x,LEFT_SHOULDER.y,LEFT_SHOULDER.z,LEFT_SHOULDER.v,RIGHT_SHOULDER.x,RIGHT_SHOULDER.y,RIGHT_SHOULDER.z,RIGHT_SHOULDER.v,LEFT_ELBOW.x,LEFT_ELBOW.y,LEFT_ELBOW.z,LEFT_ELBOW.v,RIGHT_ELBOW.x,RIGHT_ELBOW.y,RIGHT_ELBOW.z,RIGHT_ELBOW.v,LEFT_WRIST.x,LEFT_WRIST.y,LEFT_WRIST.z,LEFT_WRIST.v,RIGHT_WRIST.x,RIGHT_WRIST.y,RIGHT_WRIST.z,RIGHT_WRIST.v,LEFT_PINKY.x,LEFT_PINKY.y,LEFT_PINKY.z,LEFT_PINKY.v,RIGHT_PINKY.x,RIGHT_PINKY.y,RIGHT_PINKY.z,RIGHT_PINKY.v,LEFT_INDEX.x,LEFT_INDEX.y,LEFT_INDEX.z,LEFT_INDEX.v,RIGHT_INDEX.x,RIGHT_INDEX.y,RIGHT_INDEX.z,RIGHT_INDEX.v,LEFT_THUMB.x,LEFT_THUMB.y,LEFT_THUMB.z,LEFT_THUMB.v,RIGHT_THUMB.x,RIGHT_THUMB.y,RIGHT_THUMB.z,RIGHT_THUMB.v,LEFT_HIP.x,LEFT_HIP.y,LEFT_HIP.z,LEFT_HIP.v,RIGHT_HIP.x,RIGHT_HIP.y,RIGHT_HIP.z,RIGHT_HIP.v,LEFT_KNEE.x,LEFT_KNEE.y,LEFT_KNEE.z,LEFT_KNEE.v,RIGHT_KNEE.x,RIGHT_KNEE.y,RIGHT_KNEE.z,RIGHT_KNEE.v,LEFT_ANKLE.x,LEFT_ANKLE.y,LEFT_ANKLE.z,LEFT_ANKLE.v,RIGHT_ANKLE.x,RIGHT_ANKLE.y,RIGHT_ANKLE.z,RIGHT_ANKLE.v,LEFT_HEEL.x,LEFT_HEEL.y,LEFT_HEEL.z,LEFT_HEEL.v,RIGHT_HEEL.x,RIGHT_HEEL.y,RIGHT_HEEL.z,RIGHT_HEEL.v,LEFT_FOOT_INDEX.x,LEFT_FOOT_INDEX.y,LEFT_FOOT_INDEX.z,LEFT_FOOT_INDEX.v,RIGHT_FOOT_INDEX.x,RIGHT_FOOT_INDEX.y,RIGHT_FOOT_INDEX.z,RIGHT_FOOT_INDEX.v
0,,,,,,,,,,,,,,,,,,,,,,,,,,,,,,,,,,,,,,,,,,,,,,,,,,,,,,,,,,,,,,,,,,,,,,,,,,,,,,,,,,,,,,,,,,,,,,,,,,,,,,,,,,,,,,,,,,,,,,,,,,,,,,,,,,,,
1,,,,,,,,,,,,,,,,,,,,,,,,,,,,,,,,,,,,,,,,,,,,,,,,,,,,,,,,,,,,,,,,,,,,,,,,,,,,,,,,,,,,,,,,,,,,,,,,,,,,,,,,,,,,,,,,,,,,,,,,,,,,,,,,,,,,
2,,,,,,,,,,,,,,,,,,,,,,,,,,,,,,,,,,,,,,,,,,,,,,,,,,,,,,,,,,,,,,,,,,,,,,,,,,,,,,,,,,,,,,,,,,,,,,,,,,,,,,,,,,,,,,,,,,,,,,,,,,,,,,,,,,,,
3,,,,,,,,,,,,,,,,,,,,,,,,,,,,,,,,,,,,,,,,,,,,,,,,,,,,,,,,,,,,,,,,,,,,,,,,,,,,,,,,,,,,,,,,,,,,,,,,,,,,,,,,,,,,,,,,,,,,,,,,,,,,,,,,,,,,
4,,,,,,,,,,,,,,,,,,,,,,,,,,,,,,,,,,,,,,,,,,,,,,,,,,,,,,,,,,,,,,,,,,,,,,,,,,,,,,,,,,,,,,,,,,,,,,,,,,,,,,,,,,,,,,,,,,,,,,,,,,,,,,,,,,,,
5,,,,,,,,,,,,,,,,,,,,,,,,,,,,,,,,,,,,,,,,,,,,,,,,,,,,,,,,,,,,,,,,,,,,,,,,,,,,,,,,,,,,,,,,,,,,,,,,,,,,,,,,,,,,,,,,,,,,,,,,,,,,,,,,,,,,
6,,,,,,,,,,,,,,,,,,,,,,,,,,,,,,,,,,,,,,,,,,,,,,,,,,,,,,,,,,,,,,,,,,,,,,,,,,,,,,,,,,,,,,,,,,,,,,,,,,,,,,,,,,,,,,,,,,,,,,,,,,,,,,,,,,,,
7,,,,,,,,,,,,,,,,,,,,,,,,,,,,,,,,,,,,,,,,,,,,,,,,,,,,,,,,,,,,,,,,,,,,,,,,,,,,,,,,,,,,,,,,,,,,,,,,,,,,,,,,,,,,,,,,,,,,,,,,,,,,,,,,,,,,
8,,,,,,,,,,,,,,,,,,,,,,,,,,,,,,,,,,,,,,,,,,,,,,,,,,,,,,,,,,,,,,,,,,,,,,,,,,,,,,,,,,,,,,,,,,,,,,,,,,,,,,,,,,,,,,,,,,,,,,,,,,,,,,,,,,,,
9,,,,,,,,,,,,,,,,,,,,,,,,,,,,,,,,,,,,,,,,,,,,,,,,,,,,,,,,,,,,,,,,,,,,,,,,,,,,,,,,,,,,,,,,,,,,,,,,,,,,,,,,,,,,,,,,,,,,,,,,,,,,,,,,,,,,
10,,,,,,,,,,,,,,,,,,,,,,,,,,,,,,,,,,,,,,,,,,,,,,,,,,,,,,,,,,,,,,,,,,,,,,,,,,,,,,,,,,,,,,,,,,,,,,,,,,,,,,,,,,,,,,,,,,,,,,,,,,,,,,,,,,,,
11,,,,,,,,,,,,,,,,,,,,,,,,,,,,,,,,,,,,,,,,,,,,,,,,,,,,,,,,,,,,,,,,,,,,,,,,,,,,,,,,,,,,,,,,,,,,,,,,,,,,,,,,,,,,,,,,,,,,,,,,,,,,,,,,,,,,
12,,,,,,,,,,,,,,,,,,,,,,,,,,,,,,,,,,,,,,,,,,,,,,,,,,,,,,,,,,,,,,,,,,,,,,,,,,,,,,,,,,,,,,,,,,,,,,,,,,,,,,,,,,,,,,,,,,,,,,,,,,,,,,,,,,,,
13,,,,,,,,,,,,,,,,,,,,,,,,,,,,,,,,,,,,,,,,,,,,,,,,,,,,,,,,,,,,,,,,,,,,,,,,,,,,,,,,,,,,,,,,,,,,,,,,,,,,,,,,,,,,,,,,,,,,,,,,,,,,,,,,,,,,
14,,,,,,,,,,,,,,,,,,,,,,,,,,,,,,,,,,,,,,,,,,,,,,,,,,,,,,,,,,,,,,,,,,,,,,,,,,,,,,,,,,,,,,,,,,,,,,,,,,,,,,,,,,,,,,,,,,,,,,,,,,,,,,,,,,,,
15,,,,,,,,,,,,,,,,,,,,,,,,,,,,,,,,,,,,,,,,,,,,,,,,,,,,,,,,,,,,,,,,,,,,,,,,,,,,,,,,,,,,,,,,,,,,,,,,,,,,,,,,,,,,,,,,,,,,,,,,,,,,,,,,,,,,
16,,,,,,,,,,,,,,,,,,,,,,,,,,,,,,,,,,,,,,,,,,,,,,,,,,,,,,,,,,,,,,,,,,,,,,,,,,,,,,,,,,,,,,,,,,,,,,,,,,,,,,,,,,,,,,,,,,,,,,,,,,,,,,,,,,,,
17,,,,,,,,,,,,,,,,,,,,,,,,,,,,,,,,,,,,,,,,,,,,,,,,,,,,,,,,,,,,,,,,,,,,,,,,,,,,,,,,,,,,,,,,,,,,,,,,,,,,,,,,,,,,,,,,,,,,,,,,,,,,,,,,,,,,
18,,,,,,,,,,,,,,,,,,,,,,,,,,,,,,,,,,,,,,,,,,,,,,,,,,,,,,,,,,,,,,,,,,,,,,,,,,,,,,,,,,,,,,,,,,,,,,,,,,,,,,,,,,,,,,,,,,,,,,,,,,,,,,,,,,,,
19,,,,,,,,,,,,,,,,,,,,,,,,,,,,,,,,,,,,,,,,,,,,,,,,,,,,,,,,,,,,,,,,,,,,,,,,,,,,,,,,,,,,,,,,,,,,,,,,,,,,,,,,,,,,,,,,,,,,,,,,,,,,,,,,,,,,
20,,,,,,,,,,,,,,,,,,,,,,,,,,,,,,,,,,,,,,,,,,,,,,,,,,,,,,,,,,,,,,,,,,,,,,,,,,,,,,,,,,,,,,,,,,,,,,,,,,,,,,,,,,,,,,,,,,,,,,,,,,,,,,,,,,,,
21,,,,,,,,,,,,,,,,,,,,,,,,,,,,,,,,,,,,,,,,,,,,,,,,,,,,,,,,,,,,,,,,,,,,,,,,,,,,,,,,,,,,,,,,,,,,,,,,,,,,,,,,,,,,,,,,,,,,,,,,,,,,,,,,,,,,
22,,,,,,,,,,,,,,,,,,,,,,,,,,,,,,,,,,,,,,,,,,,,,,,,,,,,,,,,,,,,,,,,,,,,,,,,,,,,,,,,,,,,,,,,,,,,,,,,,,,,,,,,,,,,,,,,,,,,,,,,,,,,,,,,,,,,
23,,,,,,,,,,,,,,,,,,,,,,,,,,,,,,,,,,,,,,,,,,,,,,,,,,,,,,,,,,,,,,,,,,,,,,,,,,,,,,,,,,,,,,,,,,,,,,,,,,,,,,,,,,,,,,,,,,,,,,,,,,,,,,,,,,,,
24,,,,,,,,,,,,,,,,,,,,,,,,,,,,,,,,,,,,,,,,,,,,,,,,,,,,,,,,,,,,,,,,,,,,,,,,,,,,,,,,,,,,,,,,,,,,,,,,,,,,,,,,,,,,,,,,,,,,,,,,,,,,,,,,,,,,
25,-0.04837333120327944,0.4470049029662085,-0.08394235962855966,1.0049608112593766,0.002524305364883704,0.4105032007611131,-0.06042604977247292,0.9900350328563716,-0.008392320370334015,0.36036242091230736,-0.02209505949436679,0.9669197057319199,-0.036886627398699495,0.40172029272585924,-0.021513347925262997,0.9839436826502113,-0.053863509895994414,0.3710545017681642,-0.02100352022806641,1.0488032667525733,-0.09134558436120904,0.4255407407272201,-0.04805693079377812,0.9620167294502256,-0.058218018537163706,0.36120811261250874,-0.0870692421992375,1.043144723269651,0.06814159723134666,0.36447304223520066,0.02336919252962454,1.029202786431071,0.004329997739639602,0.4349066092128116,-0.02994984724606551,1.001835511408696,-0.030698086323925265,0.4483877183137249,-0.02960077195127765,0.9528402492944822,-0.08976197988153037,0.38567334184702573,-0.09823686908641736,1.0158842028067145,0.10915425143185026,0.46075285592243426,0.06685846899373876,0.9559392207494111,-0.06467719652489588,0.45928402452411715,-0.07328293736051747,1.0360417985295185,0.1494604672305759,0.44929154896312906,0.12161758077391664,1.004709609079677,-0.06273701804786325,0.3639347424602976,-0.1477002664092407,0.8672367352762538,0.12351477869842416,0.414194644004347,0.15257305892967146,0.989787661151061,-0.021669948841015342,0.3593517824383911,-0.044733938577039306,0.9361419746023043,0.17027675125631916,0.3683821391039926,0.12394430736327447,0.9713479877096914,-0.034612165058006454,0.3250584746995226,-0.10146669518595769,0.8246253311464133,0.11344858972830814,0.37638268595047236,0.12357453408511344,0.9957098784513547,-0.009774497768209142,0.39466037368882345,-0.03557723749242694,0.8870821815014254,0.12600126966419364,0.4084871214115853,0.09543566958353922,0.9210265267725902,-0.0677096697323236,0.3596242645649442,-0.048858605736651003,0.8738986787080049,0.04178028770920371,0.5284438642038642,-0.01060412105020251,0.9578169907983033,-0.10206547626697321,0.4848091720090841,-0.13700560953742405,1.0401366784094284,-0.012628804424134294,0.6323471402055753,0.04432357538899509,0.9631016659743944,-0.10225009881926644,0.5822380806109217,-0.16206755282514762,0.7811217837214376,-0.07179143184375347,0.6530956272429762,-0.01542044584566667,1.0278514733632103,-0.17974430421454612,0.7211775260827108,-0.22394169392413493,0.8466047084457592,-0.03649795659839317,0.6508137318290093,-0.023207943310439478,0.9980616143653845,-0.19644570253607146,0.7308018885170259,-0.1586605819318319,0.953843654624356,-0.0015877681627361508,0.7109501582880081,0.042867861798883605,0.9504436864297783,-0.16953207781900365,0.6457310043457212,-0.14829289862589887,0.7702175251427866
26,-0.00035323022495140424,0.4280152803732824,-0.03152769104503325,1.0049608112593766,0.05156453248654942,0.3917073826706743,-0.006902721180474403,0.9900350328563716,0.04056077546898547,0.34151400172285423,0.03133265209702349,0.9669197057319199,0.011975839197623139,0.3828279151108842,0.03181540102675122,0.9839436826502113,-0.0036673735824347773,0.3519255533180757,0.033783823709732895,1.0488032667525733,-0.04120091861684272,0.4060656383025985,0.006675480480059255,0.9620167294502256,-0.007966882820067765,0.3413754717262019,-0.03221943740587644,1.043144723269651,0.11239296394027212,0.34476461742860576,0.07166618877897406,1.029202786431071,0.05144632192322535,0.4144281221980411,0.021476781181762,1.001835511408696,0.0160988598444215,0.42919564854481934,0.021486560662195835,0.952840010875903,-0.04167078258480417,0.36627661953028373,-0.04573350299426325,1.0158838451788461,0.14232486378563375,0.44636334099933855,0.10312243938493618,0.9558114283910126,0.0005348942532157897,0.4410974255079276,-0.002031199830340018,1.0359728955601581,0.2803256060323579,0.4639395692306157,0.2646871534102536,1.005734749365169,0.07254849688380353,0.3740862777328959,0.00011135031304312232,0.2540559787073451,0.3783025896007729,0.426425815135481,0.43101256466225546,0.9949798813620899,0.12473278048927972,0.3699148877831635,0.11519902908637755,0.7638458677869661,0.43809916082063777,0.3802842031889993,0.416625969072897,0.9868888259512686,0.11046890972992421,0.3348594452538744,0.05702133762274954,0.756302136165792,0.38299588543996804,0.38631368403740163,0.4181362066065894,1.00901947642041,0.1257102557183654,0.40992837166894125,0.1124098960419061,0.8246205668926607,0.3878336017079031,0.4179835420334573,0.38156747003408936,0.9324546445246654,0.07385229911483657,0.3755938688187131,0.1057707940590879,0.8012827572106599,0.03817874984983953,0.5284763487352668,-0.014564489512671093,0.9578236665185181,-0.09848342838280089,0.4835999725805257,-0.13307223375495533,1.0401390625952194,-0.011651974501040833,0.6383782361871732,0.04525981410958243,0.9637442636497177,-0.07835383004977178,0.5797130490443019,-0.13582659668707192,0.9868245653986838,-0.019565727890628194,0.6680647377318678,0.041387473790345075,1.0300366392453209,-0.1272798193070502,0.7125445085427328,-0.16626124672559045,0.9675077235824779,0.02077484643725109,0.6675290795958855,0.03909183629393873,1.0065876415679909,-0.14010954043039553,0.7141282043968477,-0.09669677673330279,1.0366987600244413,0.057050639960558244,0.7209512812395157,0.10665886670788285,0.9673444046419062,-0.10751247631782682,0.6532165132644834,-0.08012549185081534,0.9635665885392405
27,0.05644529492053425,0.4164467638804388,0.03049966320413907,1.0049608112593766,0.11110536804109081,0.3800257663643693,0.05810907568488553,0.9900350328563716,0.10025750269629269,0.33023942553572044,0.09650850486210458,0.9669192288947617,0.07169925853531454,0.37200925485163744,0.09701397936235885,0.9839436826502113,0.05661181504456278,0.3390860869846864,0.09961868211757502,1.0488032667525733,0.01900443371761988,0.39293494367483667,0.07243596274484083,0.9620166102409361,0.05206325753524593,0.32793653167798414,0.03335605493148599,1.043144723269651,0.17026673994889607,0.33588370417100694,0.13483259829513194,1.0292017135474651,0.11002634287643671,0.40172252789681734,0.08547713246523442,1.001835511408696,0.06927244778053462,0.41907543551305054,0.07953855842169279,0.9528119966928585,0.012061141222928229,0.3549153781896465,0.012946963728353873,1.0158719242498908,0.18007279422708053,0.4457775167481636,0.14429471977260416,0.9555864804616303,0.026050528477891282,0.43969752101841036,0.02589072523870423,1.036047162947548,0.2935366445923005,0.47104807877117355,0.2791308551167195,0.9114120679381669,0.060801667875427734,0.42203183675770667,-0.012595654054531061,0.3791731614389735,0.36416163634632476,0.4311809842886945,0.41557827550897564,0.8689348331252431,0.11492976222182072,0.47467726313793035,0.10470867765655928,0.2624988326173646,0.42382040900316637,0.3838766645365793,0.40103926488176145,0.839802444039037,0.09875815120494327,0.4567033197083727,0.0444650183182904,0.21037185488432075,0.36350336243851583,0.38733086710281606,0.39685836372308786,0.8837680640287473,0.12715133393059005,0.5304490230094258,0.11422884093647123,0.300291768837012,0.3706125670191119,0.41878138000609827,0.36277438103604764,0.7303049553271252,0.07011216064186476,0.4886474588779935,0.10190544089047897,0.2727127608536958,0.04010428874172413,0.5290563019289314,-0.01250869515565339,0.9578228320534913,-0.09983416259749077,0.4810028789983724,-0.13456345787869628,1.0401385857580612,-0.022473130506233997,0.6419179176218045,0.03348514839418297,0.9636441278464952,-0.08922641413477397,0.5778065348765162,-0.1477213506637948,0.97513597534894,-0.07981894704251077,0.6741261724776564,-0.024383268561628802,1.0291636100132957,-0.17089912985509328,0.711506314840035,-0.2139395144435025,0.949952665580006,-0.04265706842677618,0.6731719109214165,-0.030128283361132838,1.0018673113296483,-0.1870077617291242,0.7175049863373079,-0.14796765105735318,1.0029900088228116,-0.004417955496755398,0.7300281149644913,0.03953749763611049,0.9473478211801445,-0.15850487902915372,0.6437400303962888,-0.13589947138015046,0.8537760845605112
28,-0.01895176321057404,0.4217311924769354,-0.05182418302817087,1.0049608112593766,0.031934044660844436,0.38526009725693217,-0.028319154913081145,0.9900350328563716,0.02098426722308566,0.3349562689023433,0.009977199524207725,0.966918871266893,-0.00757765123343522,0.37618169919520433,0.01048684923340774,0.9839436826502113,-0.02328282707472757,0.3462276771030946,0.012377853460672453,1.0488032667525733,-0.06085492721433915,0.4007508411395889,-0.014773650158523622,0.9620164910316464,-0.027652596895480254,0.3364403561504115,-0.05370429151336065,1.043144723269651,0.10750896832513211,0.33983698223573466,0.0663571746127108,1.0292005214545694,0.03137579185567064,0.4110268427485782,-0.00043585315134465896,1.001835272990117,-0.003751149027901912,0.4237507642445874,-0.00018382230471191904,0.9527461931650265,-0.06167742262516372,0.3616420901780957,-0.06757923838241818,1.0157982529089484,0.14727040419605256,0.44342071929142235,0.10851380178349807,0.955751048885855,-0.04189163157278959,0.4446073046201712,-0.04837678755774208,1.0360010289524921,0.2333217298872442,0.45447715305858805,0.21331257368835269,0.910765595960933,0.009824552800729122,0.3789767792320719,-0.06844132344929282,-0.014896217756597482,0.2644663393242552,0.4221025710406324,0.30665703573090924,0.7883936396399831,-0.10035848140609185,0.37954491221629943,-0.13066430603255624,0.2073698261123521,0.31538375064081914,0.37787557949362577,0.2825871215180038,0.7314896584135793,-0.12165637274819349,0.3472283031144396,-0.19652002729677454,0.27326847909181734,0.2609602529984225,0.38311082845039607,0.2848242947346609,0.6880209269590452,-0.10169337531633449,0.4213568172465627,-0.13595334265335143,0.34553378038410054,0.2715477250504292,0.41450263077857447,0.2545366733364672,0.5171186316843945,-0.1499357776527541,0.38667991551442227,-0.13865113309005417,0.32327365248196116,0.04192300433766383,0.5268229754938423,-0.010507963849814117,0.9578222360070435,-0.10136811334625916,0.4888844607816671,-0.13626743649859524,1.040138108920903,-0.014947087609039924,0.6358788346178067,0.04166249551813775,0.9636266040809313,-0.0951793645436345,0.5819115067621974,-0.15417369536673628,0.9613127641558554,-0.03571365061474971,0.670369172508174,0.02373705268137476,1.0295094361622825,-0.14556910165256182,0.7121600585839315,-0.18626572514936746,0.9571076071388438,0.0015477140350247248,0.6704480978644707,0.018095442610418934,1.0039984157989479,-0.15982107523641464,0.7152955613647737,-0.11816857168401243,1.0190022601999176,0.03205082001778228,0.7276042324800552,0.07933322214217807,0.9596923603456413,-0.13028039000018785,0.6476294718864621,-0.10492774592802578,0.9265752903405405
29,-0.10043641577040688,0.42330380142468926,-0.14079934924012888,1.0049608112593766,-0.0502770275596929,0.38661148356560227,-0.1180979858714007,0.9900350328563716,-0.06122114890770289,0.3362100228028713,-0.07979700284273096,0.9669050429893051,-0.08975088424358461,0.3773156179574113,-0.07925385128126358,0.9839436826502113,-0.10087098638802995,0.3476471319160982,-0.07234654141936417,1.0488032667525733,-0.1383918081793433,0.4021952106941086,-0.09944183713967969,0.9620141068458556,-0.10514293863250317,0.3379118756206264,-0.13832160541346847,1.043144723269651,0.018786489579011426,0.34054922793847825,-0.030539759185287573,1.029183951363322,-0.02419515276081083,0.41235653296655,-0.06110946669942975,1.0018322927578782,-0.08131884963901391,0.4241162301240277,-0.08487932115797063,0.9522083804552182,-0.1335505986226279,0.36234539518412284,-0.14605517432442236,1.0154286445066962,0.07572884094577756,0.44229249277279137,0.030370731155418586,0.9554776423802704,-0.05553235319609398,0.44312308936061917,-0.06321200658696108,1.0360434674595722,0.19944223209353298,0.464612207646906,0.17627198899342209,0.8056551294806779,-0.049904961623603035,0.3748528530693522,-0.13341909721385284,0.13000783508208572,0.2699485673240643,0.4376366739573499,0.31249823430625834,0.5637091627875661,-0.08395770827850624,0.3706293686600861,-0.11237005172779373,0.1878491857391221,0.32125524920521026,0.3953822981291849,0.2888424988964518,0.5297963023764394,-0.10793435267608942,0.3381096269288317,-0.18114006247439784,0.12994678614824434,0.2628723184584434,0.40028635387726064,0.28674261393560246,0.5295316996641233,-0.08795850024692176,0.41042395448792623,-0.1205645815219911,0.20097651295665614,0.2764396902685494,0.4305227201664681,0.25971122613674125,0.29712563642224854,-0.13421696619794293,0.3748191872505673,-0.12110155126700074,0.1732622620343446,0.03527375722006229,0.5250244649423896,-0.017772209943255582,0.9578194941933839,-0.09493771350272034,0.48854644284114584,-0.12920165624771784,1.0401384665487716,-0.012042331129360071,0.6335532401926053,0.044846515948383486,0.9634426641471544,-0.08983035277269996,0.582161846270254,-0.14826995397506654,0.9157170586466694,-0.031037542410529348,0.6669072155303297,0.02879589714953675,1.0272970309575098,-0.1333781425804454,0.7171350198647543,-0.17281735174043883,0.9215993917114452,0.007545652450785707,0.6657950612700798,0.024586677018851786,0.9991711548278785,-0.145704991621332,0.7222271643196382,-0.10270512789963698,0.9761189832605254,0.039968029718151096,0.7277328593034805,0.08794889590665816,0.9353863610666191,-0.1101805262685667,0.6516906343582334,-0.08291089281164385,0.7959996930543162
30,-0.07291104125874259,0.422808576233573,-0.11075276676084354,1.0049608112593766,-0.019230502831456157,0.38600849317673197,-0.0842012113174669,0.9900350328563716,-0.030189753712571987,0.33545796119741783,-0.045914211045524594,0.966918871266893,-0.05872265784217125,0.3764176441815477,-0.045371815440770666,0.9839436826502113,-0.07586200536033927,0.3472976698837801,-0.045049718403786417,1.0488032667525733,-0.1133261662541574,0.4018847599017959,-0.07208424211004741,0.9620166102409361,-0.08019948365650516,0.3376320020110835,-0.11109830079057936,1.043144723269651,0.051481092434911495,0.33856588338357707,0.005167708521092253,1.0292002830359905,-0.009987752994733562,0.4113449825400668,-0.04561326241771563,1.001835272990117,-0.05226870368939668,0.42340395461896174,-0.05316312138817966,0.9527570412103757,-0.11236637927984333,0.36195167670305906,-0.12293470045616031,1.0158212603018317,0.10392288165115088,0.43851546564266436,0.06118642699874111,0.9558048718800874,-0.06024107994526254,0.44075207619609896,-0.06837193720689162,1.0360444211338886,0.24629551771800962,0.4561352052646275,0.22749543278507206,0.9810625391486466,-0.05772954612548498,0.3696070184803476,-0.14203868266895425,0.11202797477629953,0.3452638633313658,0.4342795615496656,0.3948464136051908,0.9227556815902089,-0.11531958720584431,0.36703693711482854,-0.14671840195834768,0.2929744788747652,0.4042989268983597,0.3936972152167398,0.37963705928887964,0.8882972002608083,-0.14438488227698557,0.333869859138991,-0.22102916623936686,0.25602861045091774,0.34671402341506097,0.39860031729049916,0.37840431722962414,0.8831310095853879,-0.12347234508862462,0.40696152067292374,-0.15944461824517783,0.33368086032871114,0.35320060276451143,0.42850149685981226,0.3436373399663807,0.7088850129481274,-0.1659375670529332,0.3721144178776273,-0.1558449717890509,0.3185666140794038,0.04026313076817595,0.5232673200144111,-0.012310672148359222,0.9578222360070435,-0.10006271378693476,0.48791576609477744,-0.13480361006846875,1.0401387049673505,-0.00705297836949861,0.631573114288522,0.050274978014403456,0.9637301969535508,-0.08868501852694627,0.583559813608816,-0.14704216283184107,0.9791233472704793,-0.021246450864926797,0.6651783828086195,0.039486023070347334,1.029865156682302,-0.13640065878693072,0.713965244855599,-0.17610003611539357,0.960220936549397,0.01756784518692789,0.6645653578437187,0.03553568405606404,1.0060861876914955,-0.14928272784035862,0.7178084931885041,-0.10660014338492899,1.0274872198022733,0.049179149861228635,0.7252961618204178,0.0979878489276712,0.9650591029565727,-0.11773718381916211,0.6496476255539121,-0.09116333727983225,0.9416772595826365
31,-0.01312196657748295,0.4262942856623602,-0.04546513200339479,1.0049608112593766,0.03797587257500256,0.3908666591561174,-0.021736339857368545,0.9900350328563716,0.02702499780616464,0.3405370815949855,0.016558666694877752,0.9669197057319199,-0.00155390072323678,0.38174486891299303,0.017049967188373663,0.9839436826502113,-0.015185654333132083,0.3515350236855074,0.02120592441440241,1.0488032667525733,-0.05270169986190844,0.4058804764736038,-0.00588479465031958,0.9620167294502256,-0.01948679492312051,0.3413920716197719,-0.044801974416972465,1.043144723269651,0.09322547738543965,0.34423652027589585,0.05073705716426542,1.0292026672217816,0.0413379415888811,0.4149530006999331,0.010431333277232157,1.001835511408696,0.000979178091787429,0.42701084029057734,0.0049796664359843205,0.9528341696207151,-0.05455239775355684,0.36473890910204587,-0.05979994241290655,1.0158759773657358,0.10921171592340922,0.44223029532596825,0.06696359007963446,0.9558241837849947,0.0025272904835043387,0.44439800291004244,0.00015808330803683372,1.0360344075535663,0.2291937453268409,0.45008935713344767,0.208927312761706,0.6901263075354874,0.07445494641846155,0.3690793683624735,0.002314902875232342,0.3177392501154261,0.3459717184989678,0.4222751860919019,0.3957186679792612,0.8214760652343129,0.12952693375216054,0.36525833451473083,0.12060635598712102,0.5354851552587373,0.40296285140826904,0.3805254529887277,0.37842481912056286,0.812573075352361,0.11833942821243126,0.3319178964295641,0.0658147686845283,0.5042917907068076,0.3513069692055273,0.38604272132225276,0.3836707387240607,0.8318082513876035,0.13673303748939722,0.4068476459990804,0.12463015744858678,0.58542265706066,0.3548296788106829,0.4163216453278298,0.34562554249093425,0.6877749551173169,0.08037121446766862,0.3719136396317014,0.11305890448863726,0.5683035191773652,0.031021969135491833,0.5284541758074104,-0.022367420022495723,0.9578230704720705,-0.09159522783761356,0.49164469227657065,-0.12553459532765393,1.0401389433859298,-0.02554669017167375,0.6345444058305753,0.030073020810050526,0.9637018251426376,-0.0846875429195634,0.581722917666128,-0.1426373941421147,0.9852124385714438,-0.04406070590612615,0.6638177279776869,0.014568759184452305,1.0297436824162498,-0.13521738388280435,0.7147786694428487,-0.17479839264336094,0.9647985136635022,-0.005735349384208228,0.6632241937316277,0.010083524157501144,1.0052049926231361,-0.14830284315753334,0.7211265049492158,-0.10551355456199707,1.0302534117616546,0.027801366830848554,0.7194025737543167,0.07465150595949702,0.9621806754510798,-0.11882355240773285,0.6461315475586118,-0.0923247586177632,0.9449460379067637
32,0.15953521881336893,0.4390071219279242,0.14313002501406397,1.0049608112593766,0.2130399600846036,0.4031818132317399,0.16947509912123587,0.9900350328563716,0.20213761265005747,0.35277230584196434,0.2078229335142342,0.9669070695472275,0.17356558820605705,0.3939205481198411,0.20832113209561207,0.9839436826502113,0.1555244616171503,0.36335623406987627,0.2076600059360459,1.0488032667525733,0.11796906504666524,0.4174889876830917,0.18052656958053057,0.962009457683563,0.15112511731182676,0.352761836424612,0.14154561371321162,1.043144723269651,0.2533174282981203,0.35459518168908855,0.2255903732599888,1.029170957550761,0.1809472782330937,0.4242474807853061,0.16291724657001044,1.0018288356884812,0.16475784465889964,0.4386879862485241,0.18387852633088395,0.952099423164569,0.10392304699678745,0.37613087663706474,0.11330767219034205,1.0151987493917976,0.23016388463156942,0.45374609151050804,0.19909171745472487,0.9550733440747591,0.06384458997192373,0.44590668587627474,0.06717898869991876,1.035910310683144,0.29696292492317594,0.48651441120678146,0.2829125010335811,0.75585783295663,0.04905538354690402,0.4020674100018015,-0.02534925352465154,0.22364941423323922,0.33905877368880694,0.4548472767176649,0.38816373230190127,0.8569535246650075,0.05634948378162418,0.4252878113957581,0.040770314374054,0.2834027775865419,0.3941982440134935,0.4109325241023142,0.3687098219675773,0.8148283959013722,0.0310767251116224,0.3993115271725908,-0.029427628510214538,0.24039109347551485,0.33606878880584873,0.41549531345672847,0.36691886266260254,0.8719482245512082,0.061460045758569504,0.4741057059775655,0.04250268685538775,0.33332651071552144,0.34358639870214447,0.4457346301758523,0.33327623402744855,0.7302684176798779,0.010139806577376696,0.4356993416218289,0.03643920416015669,0.31337099640362254,0.036277468482201855,0.5320277126802742,-0.016573878301259226,0.9578008975442139,-0.097614506094744,0.48561407313213095,-0.13209260141588788,1.0401185585974164,-0.02440035846068059,0.6442569826967252,0.031431923492718235,0.9621121096618332,-0.0914174065683473,0.5814862872263697,-0.1501566307678261,0.9441623620867634,-0.09666782659392814,0.6716639642066298,-0.04274818192931511,1.0223175397236839,-0.19195055304960865,0.7159962135216756,-0.23703093394016153,0.9028798973686414,-0.06178778421526277,0.6693671080268242,-0.05099073440773962,0.9639935067604041,-0.2093981558578722,0.7228931866203584,-0.1725230749477506,0.9160414352334869,-0.010973035297555913,0.7282382470865311,0.032433570259797234,0.8895013942163386,-0.16507357737596212,0.6468550883415403,-0.14317967766600923,0.7605296842042185
33,0.21546187875359515,0.4369831568076086,0.2042180827166322,1.0049608112593766,0.26685974039468163,0.4009532551682329,0.22825770287037705,0.9900350328563716,0.2560210084799923,0.3504701062398372,0.2666749836150924,0.9669189904761827,0.22743057465596067,0.39153901473551805,0.2671531999446313,0.9839436826502113,0.21113819811532328,0.3612062051258607,0.268400684005772,1.0488032667525733,0.17356430596822933,0.4153496875751358,0.24124593484740242,0.9620164910316464,0.20668186957534646,0.3506200329215755,0.2022217295824974,1.043144723269651,0.29521977122645965,0.35191723440629746,0.2713503019846521,1.0292011175010174,0.22871341777076484,0.422008313095029,0.2150789906355495,1.0018351537808274,0.21542420856369246,0.4368687928853344,0.23922053051073155,0.9527872011606321,0.15633504142519086,0.37443250188883476,0.1705556041976823,1.0158203066275153,0.24682975406478375,0.4514008871571755,0.2173184787466633,0.9558127396931977,0.1015193121638274,0.44483043460788785,0.10828291122463153,1.036013545927895,0.30273922114173596,0.5024674155669804,0.2893658964812895,0.9546160774710954,0.12158786044785863,0.4120890071487894,0.05384892412031056,0.5711883920946437,0.346797000031898,0.4852485959830305,0.3968120013409377,0.946965955809722,0.18285209067043787,0.44903328859531255,0.1789212763597005,0.5935085484128816,0.40247294208541734,0.4480764101916391,0.3779394452136094,0.9098035693747304,0.165229276312628,0.42864538685467396,0.11706847554077605,0.5503686249086204,0.35125677643705455,0.44892216449089284,0.38369770193025615,0.9579947414465025,0.19664026779557595,0.5025923452388112,0.19013686812906402,0.659064493703879,0.3540289712502202,0.47672883684279865,0.3448635023960267,0.8543139088984448,0.13779887812358563,0.4614762643246182,0.17586175557087386,0.6621095475434541,0.04133266758988456,0.5276400359644233,-0.011043878539059901,0.9578188981469361,-0.10261380938960638,0.4852435706602071,-0.13757659706505626,1.0401316716192672,-0.003045751973165197,0.6418181394464505,0.05476576881398134,0.9636647510535874,-0.09148596679585608,0.5797493482729701,-0.15016409958200855,0.9739842944025898,-0.07195925512786623,0.6708304528540907,-0.01581223074642982,1.0292422881443992,-0.20343307201107708,0.711779661740975,-0.24945983457689103,0.9527351892120556,-0.03406495233306087,0.6706348988211968,-0.020776558695886967,0.9946242145011879,-0.22112092902099229,0.7192979536567964,-0.18520572024741921,1.0002978458322418,0.03992348991293078,0.7256244045991959,0.08798906277487033,0.9576524509828486,-0.16427210780617127,0.6441537462356748,-0.14220977881922256,0.9123337141457772
34,0.12570360098315747,0.4350732153727484,0.10614330785831838,1.0049608112593766,0.17808145664536904,0.3990650396263933,0.1312533791491284,0.9900350328563716,0.16719493815486436,0.34878251993231163,0.1696177376631411,0.9669193481040511,0.13861043335919793,0.3900501801159959,0.17010179644139714,0.9839436826502113,0.12110240403592876,0.3587709977589174,0.17002523451019377,1.0488032667525733,0.08356404273214191,0.41267752194288787,0.14290988950069586,0.9620164910316464,0.11668416747269932,0.34774416841580763,0.1038891978969535,1.043144723269651,0.22384823133340787,0.35031032298547526,0.19336142562003528,1.0292018327567547,0.15133127355450407,0.4183571113700229,0.1305323571711505,1.0018351537808274,0.13409379404752167,0.43467599760869263,0.15035459886117156,0.9528048441354857,0.0729637578712472,0.3715205765729778,0.07946333915570264,1.0158490360662973,0.21064357526419206,0.447490375425074,0.17777234578583842,0.9558071368565888,0.06234443218869873,0.4384707084173209,0.0655295849695453,1.0360400103901752,0.32313685636273554,0.46392401241832926,0.31161848265088543,0.6598594861510575,0.06865911717376724,0.376376109371232,-0.0037314372812988286,0.6349951643266993,0.41369555079940346,0.4444247787299177,0.46995413588882556,0.8029558888236379,0.08867883753339337,0.3873119040700134,0.07649056171325833,0.668301708374582,0.47512861811853535,0.4028940330916483,0.4574037103430558,0.7369581461531423,0.07186880500255105,0.35786180154469166,0.015607648165711065,0.5586533725091758,0.4204570002649739,0.40935040240593196,0.45938083173484484,0.8082631650037839,0.09771941337368278,0.432237168313152,0.08256622144812653,0.664051852750815,0.42080484644492205,0.4390647512161965,0.4178938910598684,0.6355496633883435,0.0406500704109156,0.3955539444355496,0.07019912740255772,0.598168068814206,0.04388714318767266,0.5294507654680549,-0.008203297663732033,0.9578162755425661,-0.10625201852779458,0.4846388815389608,-0.1414783501021222,1.0401341750143478,-0.007269279855802575,0.642075154674722,0.05016527852712682,0.9630489158637681,-0.11589970675100877,0.5806243444582728,-0.17685501498587036,0.9542739920496845,-0.11003715543302477,0.6680268887824354,-0.05734668988615603,1.0243811717350975,-0.23093982533011514,0.7131810861489339,-0.27957458982436406,0.9257601535446361,-0.07704538048714057,0.6664115521109917,-0.0676457615649598,0.9803443721244789,-0.24968830050699764,0.7213465056930818,-0.21648368562562428,0.9760879888452422,-0.0301965204427814,0.7252480012674393,0.01146087726466103,0.9243960394304194,-0.20698959198688643,0.6455337725761594,-0.18892588358127474,0.8742694727364757
35,0.06062905925551969,0.4452894812895727,0.035137949695326826,1.0049608112593766,0.11482461981486686,0.4087708513653612,0.06223724061980669,0.9900350328563716,0.10398541287973546,0.35843415104917864,0.10065076274727404,0.9669182752204453,0.07547160371174304,0.3996342493680101,0.10120941046366759,0.9839436826502113,0.05984170191635442,0.3688029959164186,0.1031955923261276,1.0488032667525733,0.02231546463281186,0.4227768435466629,0.07609544465912084,0.9620151797294615,0.05543902310818857,0.357949824705862,0.037080254235993766,1.043144723269651,0.17387528074269804,0.35924070809823777,0.13884731791204755,1.029200163826701,0.11010140756285908,0.42777822152322115,0.08558167455498511,1.001834200106511,0.07397451532061362,0.4444202245412182,0.08475116073431356,0.9527644321863279,0.015494612255738796,0.38131084809359245,0.016762377436477714,1.015797656862501,0.19441757475355614,0.45457873859569786,0.1600761423553663,0.9558425420155855,0.0197556057052115,0.4456456175321585,0.019057083619686846,1.0360026978825456,0.3355903165837906,0.46969806336933334,0.3250897256346873,0.936998732614833,-0.0007944789980876762,0.37514533306126496,-0.07961401074391537,0.5254310983934718,0.4355481503784282,0.44865864565992564,0.4935525384993045,0.881710313872466,-0.015584337523321189,0.3758234366151032,-0.03741205246726197,0.5578875013929231,0.5013915484145068,0.4055270980769235,0.485786025714375,0.7924398780447743,-0.03841297411626842,0.34310100928929005,-0.10487628372350231,0.41675676701753755,0.4417061605379992,0.41234473114319087,0.48228324853577326,0.8479615273542478,-0.01356515774412241,0.41593637085068863,-0.038993039206227806,0.521997831392325,0.44120719242249656,0.44263706619384235,0.4398799557388598,0.6522875417109448,-0.06486890809925991,0.3801555016903409,-0.04506182285207802,0.4277162787198304,0.05046553149833745,0.5363728912844001,-0.0009925856517647297,0.9578136529381959,-0.11330884457241988,0.4898302076803182,-0.14915674383591548,1.0401284529684494,-0.005296160639647097,0.6484831904298795,0.052377215641121765,0.9634712147720016,-0.1402483061957815,0.5861979151865748,-0.2034478582106714,0.8221963577151205,-0.09669464394737712,0.6742000822371779,-0.04269358802710431,1.0252435913403526,-0.25862597840233387,0.7180463152787252,-0.30986414524623973,0.7613161838180736,-0.0635863695111472,0.672367427030883,-0.05286114913235551,0.9850627354095437,-0.2785229944252361,0.7257446728264131,-0.2480365997217647,0.8698920621789825,-0.020861675752789525,0.7300629836816849,0.02170385884693679,0.9244646443765556,-0.2430266162434206,0.6484690033081235,-0.22835664849504533,0.7175904385033823
36,,,,,,,,,,,,,,,,,,,,,,,,,,,,,,,,,,,,,,,,,,,,,,,,,,,,,,,,,,,,,,,,,,,,,,,,,,,,,,,,,,,,,,,,,,,,,,,,,,,,,,,,,,,,,,,,,,,,,,,,,,,,,,,,,,,,
37,,,,,,,,,,,,,,,,,,,,,,,,,,,,,,,,,,,,,,,,,,,,,,,,,,,,,,,,,,,,,,,,,,,,,,,,,,,,,,,,,,,,,,,,,,,,,,,,,,,,,,,,,,,,,,,,,,,,,,,,,,,,,,,,,,,,
38,,,,,,,,,,,,,,,,,,,,,,,,,,,,,,,,,,,,,,,,,,,,,,,,,,,,,,,,,,,,,,,,,,,,,,,,,,,,,,,,,,,,,,,,,,,,,,,,,,,,,,,,,,,,,,,,,,,,,,,,,,,,,,,,,,,,
39,,,,,,,,,,,,,,,,,,,,,,,,,,,,,,,,,,,,,,,,,,,,,,,,,,,,,,,,,,,,,,,,,,,,,,,,,,,,,,,,,,,,,,,,,,,,,,,,,,,,,,,,,,,,,,,,,,,,,,,,,,,,,,,,,,,,
40,,,,,,,,,,,,,,,,,,,,,,,,,,,,,,,,,,,,,,,,,,,,,,,,,,,,,,,,,,,,,,,,,,,,,,,,,,,,,,,,,,,,,,,,,,,,,,,,,,,,,,,,,,,,,,,,,,,,,,,,,,,,,,,,,,,,
41,,,,,,,,,,,,,,,,,,,,,,,,,,,,,,,,,,,,,,,,,,,,,,,,,,,,,,,,,,,,,,,,,,,,,,,,,,,,,,,,,,,,,,,,,,,,,,,,,,,,,,,,,,,,,,,,,,,,,,,,,,,,,,,,,,,,
42,,,,,,,,,,,,,,,,,,,,,,,,,,,,,,,,,,,,,,,,,,,,,,,,,,,,,,,,,,,,,,,,,,,,,,,,,,,,,,,,,,,,,,,,,,,,,,,,,,,,,,,,,,,,,,,,,,,,,,,,,,,,,,,,,,,,
43,,,,,,,,,,,,,,,,,,,,,,,,,,,,,,,,,,,,,,,,,,,,,,,,,,,,,,,,,,,,,,,,,,,,,,,,,,,,,,,,,,,,,,,,,,,,,,,,,,,,,,,,,,,,,,,,,,,,,,,,,,,,,,,,,,,,
44,,,,,,,,,,,,,,,,,,,,,,,,,,,,,,,,,,,,,,,,,,,,,,,,,,,,,,,,,,,,,,,,,,,,,,,,,,,,,,,,,,,,,,,,,,,,,,,,,,,,,,,,,,,,,,,,,,,,,,,,,,,,,,,,,,,,
45,,,,,,,,,,,,,,,,,,,,,,,,,,,,,,,,,,,,,,,,,,,,,,,,,,,,,,,,,,,,,,,,,,,,,,,,,,,,,,,,,,,,,,,,,,,,,,,,,,,,,,,,,,,,,,,,,,,,,,,,,,,,,,,,,,,,
46,,,,,,,,,,,,,,,,,,,,,,,,,,,,,,,,,,,,,,,,,,,,,,,,,,,,,,,,,,,,,,,,,,,,,,,,,,,,,,,,,,,,,,,,,,,,,,,,,,,,,,,,,,,,,,,,,,,,,,,,,,,,,,,,,,,,
47,,,,,,,,,,,,,,,,,,,,,,,,,,,,,,,,,,,,,,,,,,,,,,,,,,,,,,,,,,,,,,,,,,,,,,,,,,,,,,,,,,,,,,,,,,,,,,,,,,,,,,,,,,,,,,,,,,,,,,,,,,,,,,,,,,,,
48,,,,,,,,,,,,,,,,,,,,,,,,,,,,,,,,,,,,,,,,,,,,,,,,,,,,,,,,,,,,,,,,,,,,,,,,,,,,,,,,,,,,,,,,,,,,,,,,,,,,,,,,,,,,,,,,,,,,,,,,,,,,,,,,,,,,
49,,,,,,,,,,,,,,,,,,,,,,,,,,,,,,,,,,,,,,,,,,,,,,,,,,,,,,,,,,,,,,,,,,,,,,,,,,,,,,,,,,,,,,,,,,,,,,,,,,,,,,,,,,,,,,,,,,,,,,,,,,,,,,,,,,,,
50,,,,,,,,,,,,,,,,,,,,,,,,,,,,,,,,,,,,,,,,,,,,,,,,,,,,,,,,,,,,,,,,,,,,,,,,,,,,,,,,,,,,,,,,,,,,,,,,,,,,,,,,,,,,,,,,,,,,,,,,,,,,,,,,,,,,
51,,,,,,,,,,,,,,,,,,,,,,,,,,,,,,,,,,,,,,,,,,,,,,,,,,,,,,,,,,,,,,,,,,,,,,,,,,,,,,,,,,,,,,,,,,,,,,,,,,,,,,,,,,,,,,,,,,,,,,,,,,,,,,,,,,,,
52,,,,,,,,,,,,,,,,,,,,,,,,,,,,,,,,,,,,,,,,,,,,,,,,,,,,,,,,,,,,,,,,,,,,,,,,,,,,,,,,,,,,,,,,,,,,,,,,,,,,,,,,,,,,,,,,,,,,,,,,,,,,,,,,,,,,
53,,,,,,,,,,,,,,,,,,,,,,,,,,,,,,,,,,,,,,,,,,,,,,,,,,,,,,,,,,,,,,,,,,,,,,,,,,,,,,,,,,,,,,,,,,,,,,,,,,,,,,,,,,,,,,,,,,,,,,,,,,,,,,,,,,,,
54,,,,,,,,,,,,,,,,,,,,,,,,,,,,,,,,,,,,,,,,,,,,,,,,,,,,,,,,,,,,,,,,,,,,,,,,,,,,,,,,,,,,,,,,,,,,,,,,,,,,,,,,,,,,,,,,,,,,,,,,,,,,,,,,,,,,
55,,,,,,,,,,,,,,,,,,,,,,,,,,,,,,,,,,,,,,,,,,,,,,,,,,,,,,,,,,,,,,,,,,,,,,,,,,,,,,,,,,,,,,,,,,,,,,,,,,,,,,,,,,,,,,,,,,,,,,,,,,,,,,,,,,,,
56,,,,,,,,,,,,,,,,,,,,,,,,,,,,,,,,,,,,,,,,,,,,,,,,,,,,,,,,,,,,,,,,,,,,,,,,,,,,,,,,,,,,,,,,,,,,,,,,,,,,,,,,,,,,,,,,,,,,,,,,,,,,,,,,,,,,
57,,,,,,,,,,,,,,,,,,,,,,,,,,,,,,,,,,,,,,,,,,,,,,,,,,,,,,,,,,,,,,,,,,,,,,,,,,,,,,,,,,,,,,,,,,,,,,,,,,,,,,,,,,,,,,,,,,,,,,,,,,,,,,,,,,,,
58,,,,,,,,,,,,,,,,,,,,,,,,,,,,,,,,,,,,,,,,,,,,,,,,,,,,,,,,,,,,,,,,,,,,,,,,,,,,,,,,,,,,,,,,,,,,,,,,,,,,,,,,,,,,,,,,,,,,,,,,,,,,,,,,,,,,
59,,,,,,,,,,,,,,,,,,,,,,,,,,,,,,,,,,,,,,,,,,,,,,,,,,,,,,,,,,,,,,,,,,,,,,,,,,,,,,,,,,,,,,,,,,,,,,,,,,,,,,,,,,,,,,,,,,,,,,,,,,,,,,,,,,,,
60,,,,,,,,,,,,,,,,,,,,,,,,,,,,,,,,,,,,,,,,,,,,,,,,,,,,,,,,,,,,,,,,,,,,,,,,,,,,,,,,,,,,,,,,,,,,,,,,,,,,,,,,,,,,,,,,,,,,,,,,,,,,,,,,,,,,
61,,,,,,,,,,,,,,,,,,,,,,,,,,,,,,,,,,,,,,,,,,,,,,,,,,,,,,,,,,,,,,,,,,,,,,,,,,,,,,,,,,,,,,,,,,,,,,,,,,,,,,,,,,,,,,,,,,,,,,,,,,,,,,,,,,,,
62,,,,,,,,,,,,,,,,,,,,,,,,,,,,,,,,,,,,,,,,,,,,,,,,,,,,,,,,,,,,,,,,,,,,,,,,,,,,,,,,,,,,,,,,,,,,,,,,,,,,,,,,,,,,,,,,,,,,,,,,,,,,,,,,,,,,
63,,,,,,,,,,,,,,,,,,,,,,,,,,,,,,,,,,,,,,,,,,,,,,,,,,,,,,,,,,,,,,,,,,,,,,,,,,,,,,,,,,,,,,,,,,,,,,,,,,,,,,,,,,,,,,,,,,,,,,,,,,,,,,,,,,,,
64,,,,,,,,,,,,,,,,,,,,,,,,,,,,,,,,,,,,,,,,,,,,,,,,,,,,,,,,,,,,,,,,,,,,,,,,,,,,,,,,,,,,,,,,,,,,,,,,,,,,,,,,,,,,,,,,,,,,,,,,,,,,,,,,,,,,
65,,,,,,,,,,,,,,,,,,,,,,,,,,,,,,,,,,,,,,,,,,,,,,,,,,,,,,,,,,,,,,,,,,,,,,,,,,,,,,,,,,,,,,,,,,,,,,,,,,,,,,,,,,,,,,,,,,,,,,,,,,,,,,,,,,,,
66,,,,,,,,,,,,,,,,,,,,,,,,,,,,,,,,,,,,,,,,,,,,,,,,,,,,,,,,,,,,,,,,,,,,,,,,,,,,,,,,,,,,,,,,,,,,,,,,,,,,,,,,,,,,,,,,,,,,,,,,,,,,,,,,,,,,
67,,,,,,,,,,,,,,,,,,,,,,,,,,,,,,,,,,,,,,,,,,,,,,,,,,,,,,,,,,,,,,,,,,,,,,,,,,,,,,,,,,,,,,,,,,,,,,,,,,,,,,,,,,,,,,,,,,,,,,,,,,,,,,,,,,,,
68,,,,,,,,,,,,,,,,,,,,,,,,,,,,,,,,,,,,,,,,,,,,,,,,,,,,,,,,,,,,,,,,,,,,,,,,,,,,,,,,,,,,,,,,,,,,,,,,,,,,,,,,,,,,,,,,,,,,,,,,,,,,,,,,,,,,
