frame,NOSE.x,NOSE.y,NOSE.z,NOSE.v,LEFT_EYE_INNER.x,LEFT_EYE_INNER.y,LEFT_EYE_INNER.z,LEFT_EYE_INNER.v,LEFT_EYE.x,LEFT_EYE.y,LEFT_EYE.z,LEFT_EYE.v,LEFT_EYE_OUTER.x,LEFT_EYE_OUTER.y,LEFT_EYE_OUTER.z,LEFT_EYE_OUTER.v,RIGHT_EYE_INNER.x,RIGHT_EYE_INNER.y,RIGHT_EYE_INNER.z,RIGHT_EYE_INNER.v,RIGHT_EYE.x,RIGHT_EYE.y,RIGHT_EYE.z,RIGHT_EYE.v,RIGHT_EYE_OUTER.x,RIGHT_EYE_OUTER.y,RIGHT_EYE_OUTER.z,RIGHT_EYE_OUTER.v,LEFT_EAR.x,LEFT_EAR.y,LEFT_EAR.z,LEFT_EAR.v,RIGHT_EAR.x,RIGHT_EAR.y,RIGHT_EAR.z,RIGHT_EAR.v,MOUTH_LEFT.x,MOUTH_LEFT.y,MOUTH_LEFT.z,MOUTH_LEFT.v,MOUTH_RIGHT.x,MOUTH_RIGHT.y,MOUTH_RIGHT.z,MOUTH_RIGHT.v,LEFT_SHOULDER.x,LEFT_SHOULDER.y,LEFT_SHOULDER.z,LEFT_SHOULDER.v,RIGHT_SHOULDER.x,RIGHT_SHOULDER.y,RIGHT_SHOULDER.z,RIGHT_SHOULDER.v,LEFT_ELBOW.x,LEFT_ELBOW.y,LEFT_ELBOW.z,LEFT_ELBOW.v,RIGHT_ELBOW.x,RIGHT_ELBOW.y,RIGHT_ELBOW.z,RIGHT_ELBOW.v,LEFT_WRIST.x,LEFT_WRIST.y,LEFT_WRIST.z,LEFT_WRIST.v,RIGHT_WRIST.x,RIGHT_WRIST.y,RIGHT_WRIST.z,RIGHT_WRIST.v,LEFT_PINKY.x,LEFT_PINKY.y,LEFT_PINKY.z,LEFT_PINKY.v,RIGHT_PINKY.x,RIGHT_PINKY.y,RIGHT_PINKY.z,RIGHT_PINKY.v,LEFT_INDEX.x,LEFT_INDEX.y,LEFT_INDEX.z,LEFT_INDEX.v,RIGHT_INDEX.x,RIGHT_INDEX.y,RIGHT_INDEX.z,RIGHT_INDEX.v,LEFT_THUMB.x,LEFT_THUMB.y,LEFT_THUMB.z,LEFT_THUMB.v,RIGHT_THUMB.x,RIGHT_THUMB.y,RIGHT_THUMB.z,RIGHT_THUMB.v,LEFT_HIP.x,LEFT_HIP.y,LEFT_HIP.z,LEFT_HIP.v,RIGHT_HIP.x,RIGHT_HIP.y,RIGHT_HIP.z,RIGHT_HIP.v,LEFT_KNEE.x,LEFT_KNEE.y,LEFT_KNEE.z,LEFT_KNEE.v,RIGHT_KNEE.x,RIGHT_KNEE.y,RIGHT_KNEE.z,RIGHT_KNEE.v,LEFT_ANKLE.x,LEFT_ANKLE.y,LEFT_ANKLE.z,LEFT_ANKLE.v,RIGHT_ANKLE.x,RIGHT_ANKLE.y,RIGHT_ANKLE.z,RIGHT_ANKLE.v,LEFT_HEEL.x,LEFT_HEEL.y,LEFT_HEEL.z,LEFT_HEEL.v,RIGHT_HEEL.x,RIGHT_HEEL.y,RIGHT_HEEL.z,RIGHT_HEEL.v,LEFT_FOOT_INDEX.x,LEFT_FOOT_INDEX.y,LEFT_FOOT_INDEX.z,LEFT_FOOT_INDEX.v,RIGHT_FOOT_INDEX.x,RIGHT_FOOT_INDEX.y,RIGHT_FOOT_INDEX.z,RIGHT_FOOT_INDEX.v
0,,,,,,,,,,,,,,,,,,,,,,,,,,,,,,,,,,,,,,,,,,,,,,,,,,,,,,,,,,,,,,,,,,,,,,,,,,,,,,,,,,,,,,,,,,,,,,,,,,,,,,,,,,,,,,,,,,,,,,,,,,,,,,,,,,,,
1,,,,,,,,,,,,,,,,,,,,,,,,,,,,,,,,,,,,,,,,,,,,,,,,,,,,,,,,,,,,,,,,,,,,,,,,,,,,,,,,,,,,,,,,,,,,,,,,,,,,,,,,,,,,,,,,,,,,,,,,,,,,,,,,,,,,
2,,,,,,,,,,,,,,,,,,,,,,,,,,,,,,,,,,,,,,,,,,,,,,,,,,,,,,,,,,,,,,,,,,,,,,,,,,,,,,,,,,,,,,,,,,,,,,,,,,,,,,,,,,,,,,,,,,,,,,,,,,,,,,,,,,,,
3,,,,,,,,,,,,,,,,,,,,,,,,,,,,,,,,,,,,,,,,,,,,,,,,,,,,,,,,,,,,,,,,,,,,,,,,,,,,,,,,,,,,,,,,,,,,,,,,,,,,,,,,,,,,,,,,,,,,,,,,,,,,,,,,,,,,
4,,,,,,,,,,,,,,,,,,,,,,,,,,,,,,,,,,,,,,,,,,,,,,,,,,,,,,,,,,,,,,,,,,,,,,,,,,,,,,,,,,,,,,,,,,,,,,,,,,,,,,,,,,,,,,,,,,,,,,,,,,,,,,,,,,,,
5,,,,,,,,,,,,,,,,,,,,,,,,,,,,,,,,,,,,,,,,,,,,,,,,,,,,,,,,,,,,,,,,,,,,,,,,,,,,,,,,,,,,,,,,,,,,,,,,,,,,,,,,,,,,,,,,,,,,,,,,,,,,,,,,,,,,
6,0.5685096262473431,0.22113354471171823,0.38881338418732836,0.9713179411516087,0.6204977464764143,0.19959723570758117,0.35593451964773154,1.0334045626322885,0.5488825393503025,0.18202628356303815,0.38667706713719124,0.9533118470959352,0.6313627807815221,0.2438751346952386,0.36357303101447813,0.9547936416453064,0.5643854112099447,0.2646495221797694,0.39746727813460525,1.0491999305526487,0.5749621012965428,0.19707333973232502,0.3723545389452183,1.0305539390086143,0.6199945673229958,0.1969925601366039,0.3546649045057951,1.0229547227258375,0.5842048670533396,0.2035342768852514,0.306279623662874,0.9577072758467643,0.6039971257794482,0.24709926750480063,0.34974822057300686,1.016285719521034,0.5447952614543954,0.2703183518671661,0.28709446034643216,0.9973299261335202,0.5629465535360073,0.23300387821507104,0.3070963317960462,0.9711084887491706,0.5369391693853315,0.3205682104975469,0.13670270825599518,1.0218375587827047,0.6503839047410757,0.25363188267838854,0.33973781207389303,1.0456645017785973,0.4669400989559184,0.28081970032243897,0.001471344270913534,0.026814516012159104,0.5480006701247027,0.3652736154624374,0.22489420929280693,0.8496929917722313,0.4820618734665956,0.26702333536559764,-0.02572712809178703,0.24579872765511196,0.5651530165999565,0.3218986904400474,0.07141988718615996,0.37201254942958195,0.4570062913394515,0.32610409817441255,-0.02924272260580101,0.3997513018024794,0.5695720564253031,0.28512060047757365,0.04499952634379434,0.42173003302127293,0.5154198923411113,0.32266862594025914,0.028908718563041974,0.42216423602247827,0.5161625100246178,0.25427555686417347,0.06489146721162478,0.40650560092643706,0.4488177005071473,0.311859897856336,-0.039477116845804856,0.35292163820722056,0.49056658132289105,0.2662347529895796,0.017475671405140697,0.4114605506530463,0.5159980543608285,0.38504079185837803,0.06165967480257642,0.9977330110869241,0.592425587053176,0.46732420055308005,0.19078705138097615,0.9628325502750181,0.43475678184884337,0.5198130871612406,-0.0010039741743273975,0.8262058552066979,0.5238668150471498,0.5734797208703932,0.14972820546432966,0.9670125133841725,0.34717400747712673,0.6198515810764954,-0.14078791447882824,0.7425486391798797,0.5141467715599874,0.6538343821157777,0.06164286252913126,0.9988725484164105,0.35325563467749166,0.616944564847542,-0.239558715421866,0.7246051244328031,0.5423830400155619,0.6439850396872242,0.060367164210495844,0.9228843060104053,0.37746055291613384,0.6561568605141818,-0.15196003934660565,0.5766590994992744,0.47675236382654,0.7217664769681984,0.06170922379792495,0.9582013503181891
7,,,,,,,,,,,,,,,,,,,,,,,,,,,,,,,,,,,,,,,,,,,,,,,,,,,,,,,,,,,,,,,,,,,,,,,,,,,,,,,,,,,,,,,,,,,,,,,,,,,,,,,,,,,,,,,,,,,,,,,,,,,,,,,,,,,,
8,0.5614360896060347,0.22551935878241983,0.38431799345634055,0.9713179411516087,0.6109987649658427,0.20016078272277127,0.3297192322072601,1.0334045626322885,0.5422709723011038,0.18181255620803474,0.36142068846543046,0.9533100589565919,0.6275775847124029,0.2427899427301355,0.3391810806338388,0.9547936416453064,0.5476422793892798,0.2670039056483973,0.370334814799996,1.0491999305526487,0.5556104192794489,0.1998214267808556,0.3444832854608628,1.0305517932414021,0.598034933520367,0.2000734050157542,0.32607303416464495,1.0229547227258375,0.5675246434443835,0.2009916172449392,0.21690115402821503,0.9577042956145254,0.5609349626767605,0.24997197296439544,0.2530971177443784,1.0162810703587415,0.5384453326909454,0.2749515550160079,0.26620291432579546,0.9973308798078366,0.5477194992666021,0.23987739644360195,0.283730663109118,0.9711052700983527,0.5718476322802366,0.3288562065512426,0.11992524878681196,1.0218543672925313,0.5923036892650916,0.2661679911721935,0.2767952051103951,1.0459836846513695,0.6052130817566388,0.30294205363779236,0.2935147531356626,0.7201191888494165,0.5399647632188643,0.3916077521869095,0.3752977736646681,0.6396080766110985,0.6809421098247624,0.26684657779151616,0.5666396008013583,0.8369874564644687,0.6409209141645169,0.3835148429649955,0.4781558633582573,0.5937556562716231,0.6642409270516181,0.31720208487256313,0.6102638769076302,0.8190245590580336,0.6562807145591191,0.35362693072926743,0.4914056043403505,0.5837550674489158,0.7097117225720583,0.30561549865144083,0.6451021597401545,0.8274601444735586,0.6095164067035538,0.32193848139229536,0.511946820310306,0.564023570534744,0.634648083552186,0.297324768786054,0.5479559428997908,0.6990106734798189,0.5783259388267883,0.3320757125385298,0.43268218485169585,0.5305340012183845,0.5425113781443177,0.40558776460999546,0.06816736732681443,0.9977299116453959,0.5689752611314015,0.49230522243418356,0.1851620648453023,0.9628275434848569,0.5038810637704065,0.5845632817108012,0.11374105290262074,0.8755071814815697,0.5190762678862256,0.6212970106996474,0.16887077158535638,0.9614101536124439,0.45454933930289826,0.7167637266911194,0.004224975934106506,0.8012320345656219,0.5418966037090605,0.7082412634481752,0.09141035131389809,0.9711395204813825,0.46443721656061593,0.7177333369537127,-0.08630811368239236,0.3484163395950803,0.5782952475080481,0.6991061634779652,0.09562864169252021,0.7678960171310107,0.5211476308531726,0.7646920906739413,0.09430658822204965,0.7128861111798774,0.525581436289358,0.7799199274572426,0.15781924455034216,0.9297190323936896
9,,,,,,,,,,,,,,,,,,,,,,,,,,,,,,,,,,,,,,,,,,,,,,,,,,,,,,,,,,,,,,,,,,,,,,,,,,,,,,,,,,,,,,,,,,,,,,,,,,,,,,,,,,,,,,,,,,,,,,,,,,,,,,,,,,,,
10,,,,,,,,,,,,,,,,,,,,,,,,,,,,,,,,,,,,,,,,,,,,,,,,,,,,,,,,,,,,,,,,,,,,,,,,,,,,,,,,,,,,,,,,,,,,,,,,,,,,,,,,,,,,,,,,,,,,,,,,,,,,,,,,,,,,
11,,,,,,,,,,,,,,,,,,,,,,,,,,,,,,,,,,,,,,,,,,,,,,,,,,,,,,,,,,,,,,,,,,,,,,,,,,,,,,,,,,,,,,,,,,,,,,,,,,,,,,,,,,,,,,,,,,,,,,,,,,,,,,,,,,,,
12,,,,,,,,,,,,,,,,,,,,,,,,,,,,,,,,,,,,,,,,,,,,,,,,,,,,,,,,,,,,,,,,,,,,,,,,,,,,,,,,,,,,,,,,,,,,,,,,,,,,,,,,,,,,,,,,,,,,,,,,,,,,,,,,,,,,
13,,,,,,,,,,,,,,,,,,,,,,,,,,,,,,,,,,,,,,,,,,,,,,,,,,,,,,,,,,,,,,,,,,,,,,,,,,,,,,,,,,,,,,,,,,,,,,,,,,,,,,,,,,,,,,,,,,,,,,,,,,,,,,,,,,,,
14,,,,,,,,,,,,,,,,,,,,,,,,,,,,,,,,,,,,,,,,,,,,,,,,,,,,,,,,,,,,,,,,,,,,,,,,,,,,,,,,,,,,,,,,,,,,,,,,,,,,,,,,,,,,,,,,,,,,,,,,,,,,,,,,,,,,
15,,,,,,,,,,,,,,,,,,,,,,,,,,,,,,,,,,,,,,,,,,,,,,,,,,,,,,,,,,,,,,,,,,,,,,,,,,,,,,,,,,,,,,,,,,,,,,,,,,,,,,,,,,,,,,,,,,,,,,,,,,,,,,,,,,,,
16,,,,,,,,,,,,,,,,,,,,,,,,,,,,,,,,,,,,,,,,,,,,,,,,,,,,,,,,,,,,,,,,,,,,,,,,,,,,,,,,,,,,,,,,,,,,,,,,,,,,,,,,,,,,,,,,,,,,,,,,,,,,,,,,,,,,
17,0.5480830142303652,0.22245621648276773,0.3907055151414967,0.9713179411516087,0.5985563792621933,0.20057443895751248,0.33153889225708244,1.0334045626322885,0.5301369025073484,0.18361197573032023,0.36330693268272113,0.9533002837948488,0.6158330392797052,0.2460419423467584,0.3412029035052334,0.9547936416453064,0.5331386458903505,0.26431941675584214,0.36883133892359177,1.0491999305526487,0.5410043439333532,0.1962814771253227,0.3429817329579345,1.0305020829676594,0.5833237371245188,0.1957033712747569,0.3246634547368193,1.0229547227258375,0.5569178254716111,0.20695455531523638,0.21667793327026452,0.957647909620568,0.541625419539654,0.24580124225436584,0.23638365419103757,1.0160855075192332,0.5250416449774112,0.2761037127995162,0.27308391645998453,0.9973072763685055,0.5322453734720971,0.23686751089405664,0.28610347840049816,0.971026115130091,0.5983482656859875,0.3464859193712957,0.19946135448888117,1.021720912492879,0.5679495117458354,0.26447906376016045,0.298022159327324,1.0456324344797083,0.6483849891968518,0.30778496082811524,0.47302751329490805,0.27864624125191284,0.5601078581637271,0.3554437366553696,0.536899245569988,0.8755394134908288,0.7039894883512768,0.272072444824521,0.7362052043961376,0.15046586670845669,0.7028301016623575,0.29787173030554115,0.6625060630940638,0.4559354720408186,0.6840390415280394,0.32880284747823024,0.7752879740641067,0.10437899822720198,0.7311885456007119,0.25866764189374186,0.6870819916777918,0.14475937829524443,0.7226779181141786,0.31780768834489176,0.7975167602280373,0.10153988079572318,0.6769356667287314,0.22663274055901295,0.6811209508045302,0.09861952197269405,0.6505783588314465,0.3076112787767462,0.7094473747432456,0.008274379687094276,0.6429662661133659,0.24425053343849318,0.609338937446444,0.07854857497126452,0.5488969112512896,0.4277385195385843,0.1096626229872437,0.9971228979430031,0.5200118424624317,0.5048196050349679,0.13130260742272834,0.9618062775012753,0.5268329363518548,0.5852642323333598,0.21897124039932517,0.05608299557968939,0.438471171486619,0.6069436161912856,0.054580269370107716,0.024761315390417014,0.4553610875068647,0.7027961530483887,0.04464900817056272,0.006769883205855141,0.419153725133327,0.663480499803003,-0.14319632898200038,0.012214745469545051,0.4653088527689087,0.7002425923629534,-0.05196197732276031,-0.004842796955979597,0.4529080768777587,0.6479902333975514,-0.14967658253771055,0.03170061479470379,0.5146637650912755,0.7575623022751986,0.15154781853628221,-0.0039691540202607175,0.3981644539750776,0.7479193857702309,-0.08465134900730364,0.04155690749167957
18,0.5556175533850186,0.22584181991065472,0.4267794663519928,0.9713179411516087,0.6056763864807979,0.20429896929675356,0.3685894759397189,1.0334045626322885,0.5368635138267744,0.18721416753615974,0.400224924570984,0.9533132776074098,0.6221609665019013,0.2494520283824868,0.3779657242592238,0.9547936416453064,0.5428032281211809,0.2681201069299449,0.4100966958862717,1.0491999305526487,0.5510863521040359,0.1999994211513161,0.38437543284210035,1.0305553695200886,0.5937897662129139,0.19935472201137502,0.3660393853421178,1.0229547227258375,0.5608130983069857,0.20985768894598894,0.2487639497817679,0.957708110311791,0.5547586510179959,0.24953378941832913,0.2838550767136337,1.0162932297062757,0.5316361771828807,0.2776570694470077,0.3073860151266933,0.997338747620947,0.5413129705999202,0.23873015604328765,0.32477411853909943,0.9711174294458866,0.5766223002617107,0.3449613219649083,0.1560762702508564,1.021805610693105,0.5914240288783534,0.26564269543778796,0.3622075086323535,1.0459629422349876,0.6183672616099558,0.31752763803987666,0.3423075135068591,0.6086124883336694,0.6032246419851054,0.3460285273620041,0.5731504035113093,1.0016221914678185,0.6823092925297175,0.27973497953826604,0.5975324025474679,0.42763613738983786,0.7330559626623461,0.28646614310919105,0.6433173993581189,0.8212562141710982,0.662415440294599,0.33225350937588954,0.6321642635978957,0.28371877590545325,0.7594244708529719,0.24519791604649765,0.6625356405559861,0.42466866121798924,0.7041375838642111,0.32155649267571756,0.6660041986337066,0.2788631811871588,0.70417500483728,0.21680292135658985,0.6539307379947314,0.35970543455795256,0.6308076865899684,0.31225135136089843,0.5767884790000964,0.13290971847035837,0.6714302772208847,0.2346704576976789,0.5866205837849529,0.2912527044883429,0.5397220248859526,0.4221202453267007,0.0849557870332641,0.9976564787230325,0.5343137024287251,0.5069104763690437,0.15771711973272035,0.9627554218646788,0.5190248319244646,0.5967425968009806,0.1564975155906279,0.7600519712726769,0.46147044152832045,0.6248378842271742,0.09259578392508583,0.7720081693976611,0.4489172973355684,0.7214754738606141,-0.010259761398995926,0.21382039249103682,0.44114801106756674,0.6873166356672609,-0.10929487945442758,0.24469971664265264,0.4574015195711095,0.7188468113227617,-0.10632195315253615,0.020569402713538004,0.4749439954823487,0.6723071403265675,-0.11637485341695171,0.06486492424885429,0.5134947258747249,0.7801790463166415,0.09622120461140804,0.16283309582858188,0.4196041139998809,0.7721919468435341,-0.042530348917160045,0.2648978397715048
19,,,,,,,,,,,,,,,,,,,,,,,,,,,,,,,,,,,,,,,,,,,,,,,,,,,,,,,,,,,,,,,,,,,,,,,,,,,,,,,,,,,,,,,,,,,,,,,,,,,,,,,,,,,,,,,,,,,,,,,,,,,,,,,,,,,,
20,,,,,,,,,,,,,,,,,,,,,,,,,,,,,,,,,,,,,,,,,,,,,,,,,,,,,,,,,,,,,,,,,,,,,,,,,,,,,,,,,,,,,,,,,,,,,,,,,,,,,,,,,,,,,,,,,,,,,,,,,,,,,,,,,,,,
21,0.5577406582454119,0.22274087336505383,0.4643342049062005,0.9713179411516087,0.6109549499079757,0.20043240108901278,0.4097071397417169,1.0334045626322885,0.5425360262276377,0.18352535528030045,0.4414898345841964,0.9533114894680665,0.62824168544365,0.2459346092826791,0.4194272074233406,0.9547936416453064,0.5451152075495924,0.2637030004207362,0.44372890620474303,1.0491999305526487,0.5533905349661773,0.19537599316421742,0.417992909505077,1.0305522700785603,0.5960866815641943,0.1944959450843807,0.399731676430025,1.0229547227258375,0.5687877393614738,0.2071042076771062,0.28808261073234726,0.9577058453352897,0.5504990423807942,0.24417419936477072,0.2901383911599446,1.0162871500325086,0.5343449289526576,0.2755242960476546,0.34422562495925635,0.9973319526914426,0.5406493203688676,0.23571596405815734,0.352113108402936,0.9710985943781378,0.5921883057592884,0.3425517743975408,0.20163383471345594,1.0218463802701314,0.5663595822973515,0.26603966237199206,0.3074410248824143,1.0458230501336998,0.6457740404183338,0.31645916517763306,0.3866241843018462,0.8826828108472498,0.5405217916763897,0.3608003762790115,0.5027677554838738,0.9398143802075951,0.7000103054081166,0.32706649151260075,0.6774328059933569,0.4570613113877169,0.679268994393596,0.3069335436600333,0.6752631119922723,0.5731767950350508,0.6772835944160157,0.39755325875027925,0.7232144585979927,0.23915487150081308,0.7076669013811571,0.26548116804730637,0.7116162235352874,0.32513948426753453,0.7177598933707346,0.38195045195954624,0.7584886269739006,0.27697626204634307,0.6537219850423961,0.23320832497063404,0.7152760751292645,0.3136250538797757,0.6446149819112582,0.3673215131803564,0.6562011700127592,0.14205675156571818,0.6180514373944979,0.2493067060478224,0.627473243334783,0.2530715187659918,0.5409891453474865,0.43406769834870396,0.10135591291280145,0.997707023461802,0.5196335596320215,0.5133981439296211,0.13733823881582152,0.9627594749805235,0.5268982168068543,0.6194304491836405,0.19200080769945838,0.9960221703808008,0.43406299318665265,0.6398769705690321,0.06495513926115873,0.9506335146277637,0.4577449183724331,0.754699043253772,0.02275964224880564,0.8601353710905852,0.40262365239008174,0.7009796891798341,-0.15213911660478208,0.6316939891131269,0.46611401016848536,0.750931335954262,-0.07248564280376274,0.1384357176611432,0.43704101207603363,0.6827221579313953,-0.16026849678062582,0.1118860822884242,0.5281869822307059,0.8161007987694918,0.1496401126242573,0.6856126350560676,0.3787527344354968,0.7887616208585793,-0.08186705145362891,0.5919204369652228
22,0.4686091913177751,0.22439914908851114,0.14408944190666656,0.9713179411516087,0.5281079518645818,0.20169002929145108,0.13699115859357172,1.0334045626322885,0.4542925157625801,0.18497668367709763,0.16709117941269822,0.9533095821194337,0.5346303112606465,0.2475604749805398,0.14333813475067828,0.9547936416453064,0.4763008349309178,0.26479680525700944,0.17164050954877938,1.0491999305526487,0.4895180217623366,0.1965587877351403,0.14719148910855626,1.0305542966364827,0.5364478427521022,0.19577707241802172,0.12996644659437792,1.0229547227258375,0.5260051834169523,0.21170680384085588,0.2132389802338639,0.9577056069167107,0.5295331769776708,0.24790936913310424,0.2144241250905481,1.016292633659828,0.4569210480287632,0.2766887025856643,0.08920905174761334,0.9973147865537473,0.47866157564961564,0.23683772347283014,0.09923739958329145,0.9710821434961798,0.5197695362414115,0.3507002061754949,0.19618090689271933,1.0201540255910237,0.6224054163141636,0.2669881808866253,0.25232549559288514,1.045530033699984,0.4734091591428969,0.34995009120493104,0.2002652359978546,0.6654881940526636,0.566923804892982,0.3636887577601822,0.21028603980529212,0.9885138187795252,0.48540470782416917,0.40560899224693,0.24014376258960438,0.6262808052536838,0.5818555506373321,0.36136703846632295,0.0813992868075723,0.5563828883463606,0.4521522126348524,0.4778743918870285,0.2347885753065884,0.6795844397915236,0.5824191564420145,0.32492437364232285,0.04733696095917522,0.49820756063968114,0.5078884835473482,0.47922603689568827,0.2742139590836087,0.6679808244242728,0.5286906354734324,0.3016882205623699,0.07396851679478031,0.4608167870016477,0.4497221264047533,0.4617482941194586,0.2164125659753007,0.44577396245458084,0.5036140599237221,0.3157320891387953,0.02874240705504641,0.39828589759976263,0.4951459159725161,0.4455842991959482,0.0794688785207072,0.997719778855784,0.569726246588071,0.5243888827983346,0.15983371268136523,0.9628202717181945,0.46735249270338924,0.6331281925994731,0.09524623724858111,0.9717541392605004,0.49709895823857003,0.660041698733705,0.08457101689288449,0.9700754172652453,0.4247371648940177,0.780559650877826,0.0001463109686146158,0.8625997251288238,0.5214329949326932,0.76039717537063,0.016596254845947473,0.9731266201289045,0.4384410287107106,0.7791365518852007,-0.09049077910830511,0.8246673159191618,0.5563932268895441,0.7522171206236561,0.01886370575334841,0.9939832296935718,0.4672811078004947,0.822437249346274,0.01663142196239454,0.42322601501135926,0.4886671853886871,0.7929040840658241,0.011097289303579137,0.697173656569715
23,0.5131724866504285,0.23298248615706893,0.3076740953268232,0.9713179411516087,0.5711182307375805,0.21053693809920557,0.30105245061885927,1.0334045626322885,0.49737966883178675,0.19316475254382734,0.33117766671796417,0.9523394569210694,0.5778042464770389,0.2552062309867807,0.3074344005673123,0.9547936416453064,0.518826508447046,0.27480561720769303,0.3333492945702618,1.0491999305526487,0.5327682503324501,0.206733270795977,0.3092127657497609,1.0301682373522727,0.5819374519508922,0.20620095621375992,0.29267262575357483,1.0229547227258375,0.5619631604070083,0.21643734137461595,0.3519576214143989,0.9569110173972099,0.5841110129549422,0.2566916814070834,0.34850205234422044,1.0157285949063184,0.49920182290818593,0.2819934116625457,0.24214301007086914,0.9938660022023984,0.521005025576675,0.24353886506867065,0.24980181412867894,0.9691614434229374,0.5501514398142432,0.3461616403013952,0.2910173524546744,1.0163722300893145,0.6547204553112491,0.26800795675408745,0.36909807480570017,1.0442922836465782,0.4909672342938231,0.30785916861086055,0.2898589353387066,0.15551568133064808,0.6163687284308944,0.3558847514220627,0.3975346874959578,0.8815579924970238,0.5290283027040993,0.30977145877296147,0.35591273318218963,0.1861802546021334,0.663826946568936,0.34053175804792696,0.3921170848561384,0.3517873225504621,0.5042988834705153,0.3710064228509262,0.36400933022764803,0.267417903937184,0.6643878270884699,0.30693786741864426,0.3674530791285814,0.29385294662028716,0.5597382447554003,0.37094233833688084,0.4055104438252638,0.2857436582579672,0.6101263136413037,0.282506969036491,0.3906835951349563,0.2764162583322904,0.4962725166446116,0.3580225627466253,0.3362083619863032,0.16912016602017838,0.5848560742074317,0.2946160112388624,0.3399062282108265,0.2500771900287329,0.4945900998302626,0.445757093061152,0.08064620654542297,0.9976773403487039,0.5683652041855118,0.5244955155078378,0.15803908903394762,0.9628022711154721,0.4364335551341606,0.6213187243301249,0.05821371313576317,0.276864713029116,0.5063101432278057,0.6598777859605727,0.11290775912986634,0.782952357038805,0.38390896297948013,0.7534771480358765,-0.04336471722333157,0.12789001524608754,0.5352855025303136,0.7557494435896241,0.05872112085594486,0.5283379257471906,0.397547619578298,0.7580948009773028,-0.13379013545382906,0.2142583839485654,0.5690021395331833,0.7487903899908741,0.062447610104000253,0.39900439053455994,0.4212460698720686,0.7854234801964938,-0.04135897450738254,0.04411308590560058,0.5080773618625087,0.8148589185270363,0.05778085119030684,0.16157251750111137
24,0.5701529451098353,0.22327020731414282,0.5452865933532806,0.9713179411516087,0.6267323329437403,0.19869206467086087,0.49483818326857715,1.0334045626322885,0.5588430966447281,0.18163150709952955,0.5267998306698876,0.9533133968166994,0.645036326010656,0.2439352459794946,0.5048137832008915,0.9547936416453064,0.5574563153560113,0.262384426469015,0.5174343706767696,1.0491999305526487,0.5659973344248564,0.19416092267814872,0.4918221140597773,1.0305556079386677,0.6090111332579791,0.1934476036909099,0.47376687053520344,1.0229547227258375,0.5908790527447161,0.20644673864291124,0.3773969567173509,0.9577083487303703,0.560507610604829,0.24395522680102713,0.3394632096251943,1.016295017845619,0.5500718452256407,0.2769148873114257,0.4276456802455809,0.9973394628766843,0.5517052652759602,0.23748462758373864,0.42186411246228755,0.9711194560038092,0.6251852950948144,0.3448180323988683,0.31927506037967246,1.0218639040356954,0.5740797008859918,0.2688108015168896,0.3361829479086956,1.0459452992601344,0.6910561329836813,0.27970896776704957,0.5478140490107053,0.9472546086949976,0.5185035372735286,0.3394369689055832,0.5220082329801015,0.9689090762525171,0.7305152978224178,0.29506437030250254,0.8135128440441994,0.6410902945038669,0.6661428504361024,0.30951323268591224,0.7855763333691819,0.45283191779200876,0.707198173120961,0.3634073372815445,0.8660148508888939,0.25357487419971136,0.6935653063190917,0.27338417770039775,0.8386507372987142,0.25918953762561253,0.7468758787655414,0.35346756779092137,0.8974661380903217,0.30991277547026275,0.6452780922708173,0.24312439209404707,0.8492465497519338,0.27262099218086217,0.6744323423337616,0.3407134931131414,0.7911718487132405,0.19725372226693585,0.6069417935930579,0.258096662617494,0.7456371481454533,0.2563723345866858,0.5392801904793576,0.44434404574746184,0.11117045196993523,0.9976928375563455,0.5132967886992698,0.5199802550498451,0.12487317892947546,0.9628051321384213,0.4951148884382913,0.6281586553413249,0.13279498823460398,1.0014949496547874,0.4303233677256645,0.6507071941293654,0.044503492544579935,0.9693045503943652,0.4045058638837346,0.7544245042599366,-0.09997451174504987,0.7363352125899139,0.42889078126295155,0.7355575953115785,-0.07889256480983504,0.8311277926714765,0.4124507346436143,0.7521305814071428,-0.20003338502751233,0.1101219318697461,0.4905313842270219,0.7238460845709522,0.007847468429882532,0.1721532252399127,0.4667724539548856,0.8114028798775851,0.014807766493994491,0.483966962734748,0.4090820059236578,0.816554193833738,0.005561402158142291,0.6289219275581793
25,0.5781640677992267,0.22200816836799112,0.5454224596592707,0.9713179411516087,0.6409072746389968,0.19866385677272097,0.527069289757372,1.0334045626322885,0.5701151394535094,0.18175709408607124,0.5580599214718791,0.9533110126309083,0.6517489961647547,0.2442055977470346,0.534738480571088,0.9547936416453064,0.5871830573365732,0.26209816026132,0.5633591872105052,1.0491999305526487,0.6017841300658489,0.1937958740312218,0.5393640312528515,1.0305544158457722,0.6504030741872753,0.1930278826835628,0.5226141450142254,1.0229547227258375,0.6172888999005783,0.20683993558333325,0.5142815872968654,0.9577071566374746,0.6437091236010122,0.24410903658687003,0.5299490948110102,1.016294183380592,0.5633185761602617,0.2752783076786666,0.45841817372266724,0.9972690101865599,0.5826722258127343,0.23531334958386074,0.4700795028403925,0.9710709378229618,0.5790314767185551,0.3450874155909307,0.36336914949259447,1.0189416671162923,0.6899297031514875,0.26977591992509264,0.510085232509109,1.0449690943880028,0.49667491860109314,0.28355135139017273,0.25918060375432295,0.5131473050756128,0.6598779119668431,0.34301938687051853,0.5746149904483836,1.0182406816869347,0.49799262522946264,0.30743999329024974,0.2348298528705766,0.4152294603821627,0.7237054331688928,0.3236737763661033,0.6252772689770895,0.9168125329310164,0.46112780221446126,0.38204988202794343,0.2178718208537696,0.44440859178432135,0.7291605740306641,0.28321134449612834,0.6145212605638637,0.8655537282040733,0.5209628068193563,0.36022971474068943,0.2702282887541267,0.4964562401309073,0.6684519176500281,0.2579451466220928,0.6292031276892053,0.8548357648821255,0.4621980239072897,0.3501360933824591,0.21406589083951366,0.37714356513478714,0.6412635518257781,0.2718386922843946,0.5704205390505641,0.816705675946778,0.49270578195091086,0.44011160932892857,0.07891333489371259,0.997729315598948,0.5532783410394315,0.5199428233329263,0.1547139793015865,0.9628304045078061,0.45718795545489566,0.6172018911201335,0.0849564124497498,0.9650854523937401,0.4699120110261515,0.6502565234102187,0.08894686424320566,0.9417632109969348,0.3865294096224324,0.7557976164616272,-0.076406078545255,0.8353637403265777,0.4718168992512317,0.7446344886411989,-0.03728480326617263,0.865850299671446,0.3984523342288485,0.7548872962280047,-0.16917544653059663,0.5743072442600736,0.505433692476779,0.7370264596701344,-0.0351644070714132,0.5632879343597095,0.4375681246384471,0.789785586519736,-0.012308735608667486,0.3784519297280799,0.44437375325069983,0.8093177131208473,-0.003142793198085213,0.5325104609596686
26,0.46718099154742926,0.22483500805343123,0.12265950033971791,0.9713179411516087,0.5275973075761109,0.20144311705046908,0.1198750809984341,1.0334045626322885,0.4529524010890471,0.18383734089221604,0.14971167187448736,0.9533040984921144,0.5323740111227618,0.2455853707677789,0.12588280481440767,0.9547936416453064,0.47919658376410534,0.2668347774688471,0.15922200973799494,1.0491999305526487,0.4936780745135373,0.1992527984696984,0.13523725391921976,1.0305496474741902,0.5424197699460116,0.1991924781682964,0.11866937083047485,1.0229547227258375,0.5254369483401978,0.20739622573302208,0.20698807615400827,0.9577057261260002,0.5677056081079842,0.25092175807773004,0.2394711509611493,1.016290964729774,0.4531334516867481,0.2754370050453811,0.06710567222038177,0.9972605463270017,0.4799034447911822,0.23797451815914764,0.08393797381877202,0.9709816500650883,0.5053946602177208,0.33979836763446397,0.1468063498974231,1.0106316471463521,0.6256348347282242,0.27327575565469164,0.2709746224091028,1.0302348261995262,0.3958562994929499,0.30413065966158076,-0.04886589560527193,0.1081787751359612,0.5428961731312518,0.35821687255586704,0.12000899328966763,1.0117895517736046,0.37596053046274525,0.29616187062675176,-0.20639616581767878,0.024272820138632387,0.5313953098599432,0.28941192386328035,-0.12857609279876592,0.6615980205828413,0.34266999210336313,0.3552381332848861,-0.23753975035281444,0.10611215601094878,0.5305326140557971,0.24281262756955363,-0.17586031649010883,0.5951850925496238,0.39991758738662286,0.34950084887879673,-0.19123384940588384,0.10461286158705348,0.4712057576397017,0.21171027070465803,-0.15923989499382343,0.5634457035036465,0.3432521133880193,0.3384779315038733,-0.22880077343363334,0.023878272192263177,0.4491833088304779,0.227804390049745,-0.18769562454721644,0.5320786555877387,0.47880942505979135,0.44983813368195585,0.07668817401823731,0.9970848105749918,0.551255564463077,0.5345895621005502,0.15258103569597609,0.9620036880847715,0.4272990420723913,0.6427532102424479,0.09206206295138461,0.8197448309223351,0.45463382487264015,0.668680021087068,0.07648375261636878,0.7919253594725818,0.3750638717697399,0.8009464063442872,0.03664902948037653,0.40187158644359733,0.4501827412310428,0.7631423864950502,0.00010115754007901726,0.6238093674929487,0.3893477482177669,0.8026274576469195,-0.0508709784376781,0.4018473438808926,0.4815313889506514,0.7472225494147022,0.0018464156763259472,0.6198591199485461,0.39911212683425984,0.8474465238290011,0.035225105634640534,0.05763016764311889,0.40705827208420337,0.8368824771436745,-0.018008768118972167,0.15332921002983607
27,,,,,,,,,,,,,,,,,,,,,,,,,,,,,,,,,,,,,,,,,,,,,,,,,,,,,,,,,,,,,,,,,,,,,,,,,,,,,,,,,,,,,,,,,,,,,,,,,,,,,,,,,,,,,,,,,,,,,,,,,,,,,,,,,,,,
28,,,,,,,,,,,,,,,,,,,,,,,,,,,,,,,,,,,,,,,,,,,,,,,,,,,,,,,,,,,,,,,,,,,,,,,,,,,,,,,,,,,,,,,,,,,,,,,,,,,,,,,,,,,,,,,,,,,,,,,,,,,,,,,,,,,,
29,,,,,,,,,,,,,,,,,,,,,,,,,,,,,,,,,,,,,,,,,,,,,,,,,,,,,,,,,,,,,,,,,,,,,,,,,,,,,,,,,,,,,,,,,,,,,,,,,,,,,,,,,,,,,,,,,,,,,,,,,,,,,,,,,,,,
30,,,,,,,,,,,,,,,,,,,,,,,,,,,,,,,,,,,,,,,,,,,,,,,,,,,,,,,,,,,,,,,,,,,,,,,,,,,,,,,,,,,,,,,,,,,,,,,,,,,,,,,,,,,,,,,,,,,,,,,,,,,,,,,,,,,,
31,,,,,,,,,,,,,,,,,,,,,,,,,,,,,,,,,,,,,,,,,,,,,,,,,,,,,,,,,,,,,,,,,,,,,,,,,,,,,,,,,,,,,,,,,,,,,,,,,,,,,,,,,,,,,,,,,,,,,,,,,,,,,,,,,,,,
32,,,,,,,,,,,,,,,,,,,,,,,,,,,,,,,,,,,,,,,,,,,,,,,,,,,,,,,,,,,,,,,,,,,,,,,,,,,,,,,,,,,,,,,,,,,,,,,,,,,,,,,,,,,,,,,,,,,,,,,,,,,,,,,,,,,,
33,,,,,,,,,,,,,,,,,,,,,,,,,,,,,,,,,,,,,,,,,,,,,,,,,,,,,,,,,,,,,,,,,,,,,,,,,,,,,,,,,,,,,,,,,,,,,,,,,,,,,,,,,,,,,,,,,,,,,,,,,,,,,,,,,,,,
34,,,,,,,,,,,,,,,,,,,,,,,,,,,,,,,,,,,,,,,,,,,,,,,,,,,,,,,,,,,,,,,,,,,,,,,,,,,,,,,,,,,,,,,,,,,,,,,,,,,,,,,,,,,,,,,,,,,,,,,,,,,,,,,,,,,,
35,,,,,,,,,,,,,,,,,,,,,,,,,,,,,,,,,,,,,,,,,,,,,,,,,,,,,,,,,,,,,,,,,,,,,,,,,,,,,,,,,,,,,,,,,,,,,,,,,,,,,,,,,,,,,,,,,,,,,,,,,,,,,,,,,,,,
36,,,,,,,,,,,,,,,,,,,,,,,,,,,,,,,,,,,,,,,,,,,,,,,,,,,,,,,,,,,,,,,,,,,,,,,,,,,,,,,,,,,,,,,,,,,,,,,,,,,,,,,,,,,,,,,,,,,,,,,,,,,,,,,,,,,,
37,,,,,,,,,,,,,,,,,,,,,,,,,,,,,,,,,,,,,,,,,,,,,,,,,,,,,,,,,,,,,,,,,,,,,,,,,,,,,,,,,,,,,,,,,,,,,,,,,,,,,,,,,,,,,,,,,,,,,,,,,,,,,,,,,,,,
38,0.49660192265926684,0.24357749488795724,0.243989386267788,0.9713179411516087,0.5515034900828518,0.22059228637629757,0.22103943103867707,1.0334045626322885,0.4781741042603118,0.20253072840060835,0.25131375732194616,0.9533118470959352,0.5589848868941194,0.2638663388378091,0.22782759705853783,0.9547936416453064,0.501645184503211,0.28635178195874583,0.2685600835504635,1.0491999305526487,0.5141666718349295,0.2185461216289162,0.2439558855566766,1.0305548926829307,0.5610564338769912,0.218192293155479,0.22675704178234218,1.0229547227258375,0.5279282758477137,0.21958382586882524,0.22860408977773727,0.957707871893212,0.5680023680475277,0.2636243125420702,0.2977589869497194,1.016294183380592,0.47597622587057176,0.2893267499231963,0.1639050003755689,0.9973078724149534,0.501656799366116,0.25222436449837343,0.19190901535246233,0.9710752293573859,0.4989544538538867,0.3242220050246007,0.11709136085539082,1.0192026758557637,0.613231499690746,0.2665359008420696,0.32375524708721787,1.044066501252169,0.4236274811494743,0.28626312430887385,-0.016663260079353044,0.011356144521919007,0.5310690886823409,0.37089719448770603,0.22037763747858383,1.008095255890426,0.4196922280862828,0.29681191888267217,-0.10109484887643419,0.12174067475765858,0.5332672487091481,0.32609527466474825,0.003557385101708433,0.5743169126803145,0.38656523373435825,0.36172985396130825,-0.12714313191119353,0.2140505723131529,0.5359008442475446,0.2849971294559214,-0.03382361449691565,0.5181977067998069,0.4401007227702648,0.35511644088166544,-0.07853921429131205,0.24075745494509337,0.4797294008781159,0.25423270112457996,-0.024727477557713217,0.47646923494056675,0.38105373489113753,0.3413071851774267,-0.12401650644916706,0.16958935888268906,0.4589183751412749,0.2680798743732466,-0.05676140082246307,0.46610895000607366,0.4669236465097972,0.3782312890183359,0.03798683119412062,0.997695936997874,0.5445772311925438,0.46412250725664755,0.18609145191867524,0.962742666470697,0.42098849216042533,0.509526457961259,-0.003548655979110492,0.5338704641620812,0.46502743297784416,0.5375768630899367,0.07389497244462134,0.9208012707083912,0.38370334846421245,0.6215648569859192,-0.11121561703004623,0.6062066501395049,0.48090712274048486,0.6048503313650453,-0.027415270772464983,0.9404736460001814,0.3964995738256749,0.622299744157387,-0.20536744181860211,0.4476398639271268,0.5133245560589745,0.5931220121145924,-0.030734611890356044,0.8386535254089038,0.42841071850522905,0.653114579840201,-0.10760463372799045,0.449540213982154,0.4501897877404718,0.669313495496183,-0.04876007457231491,0.7349365964996771
39,0.4831828795234582,0.23865930703128302,0.19493725731969913,0.9713179411516087,0.5386939759083217,0.21631322422438867,0.17603641470763462,1.0334045626322885,0.46519856526433634,0.19820319277133583,0.20622517256895156,0.9531751140408206,0.5458381711332999,0.2594913728124566,0.18269513854344843,0.9547936416453064,0.4883987402395392,0.28228483783643143,0.22103242227369518,1.0491999305526487,0.5008810473814852,0.2146152698117851,0.19646482933594087,1.0304909965037314,0.5477052502800479,0.21440532695083572,0.17927384706414554,1.0229547227258375,0.5191519123271787,0.21651871661589556,0.20021074767255595,0.9576462406905143,0.5561729602181775,0.2615445723754061,0.25763952074417845,1.016166271812904,0.46347238770572674,0.2847433315539031,0.11938963669794614,0.9960928913358519,0.4884413768048408,0.24789858720612185,0.14405342830393367,0.9699197337137702,0.48684884414716645,0.3235842055231817,0.10489677284874097,1.0150074625378926,0.6057641592541749,0.26048304916512866,0.2841921825122801,1.0425376421136803,0.39480976043943783,0.29088242467432185,-0.0666719085134852,0.026629100863424,0.528492468841751,0.3634720054694565,0.16852614554963125,1.0196858559041586,0.37663386033199325,0.29178882685119334,-0.20276648010892465,0.18202384390801107,0.5493429678234637,0.3310753619450217,-0.03911033953774627,0.9101968941981062,0.3418994715582751,0.35392113885625154,-0.23271400009202448,0.30427330354579596,0.5555356360247038,0.29550152422559006,-0.07580631983503963,0.8946221386006492,0.39676859512259843,0.34820069276231114,-0.18451909806359812,0.3186720654501974,0.5016126657758825,0.26403283721390486,-0.06819226359011844,0.8608487410517117,0.3393330847730051,0.3355097990079931,-0.22598449240580035,0.25218648047902537,0.4787000913907931,0.2756890331275953,-0.09938706999241313,0.8230986913314521,0.4723475226993718,0.38615316354149876,0.0547978663888274,0.9975530646643471,0.5489098579295867,0.46782288281359335,0.17218662332018997,0.9626933138248229,0.4067035516117584,0.523525800879655,-0.0405609230844664,0.2979554887573418,0.4526777400704589,0.554818162242311,0.018760109641192714,0.949807036623308,0.3545689687531422,0.6395902552403138,-0.17892654211798117,0.4560543543116393,0.4548190882443497,0.6244710479368532,-0.10124626256316173,0.9746893347056257,0.3664451069175076,0.6399309768958819,-0.2782791838042562,0.3881529681274899,0.48420634855690325,0.6138717598677357,-0.10806842676701937,0.971149882373015,0.3874932415124505,0.6664679872231661,-0.19074725797747724,0.20002441231398688,0.4206846380964813,0.6804817966016823,-0.13122149378534617,0.7946992531883673
40,,,,,,,,,,,,,,,,,,,,,,,,,,,,,,,,,,,,,,,,,,,,,,,,,,,,,,,,,,,,,,,,,,,,,,,,,,,,,,,,,,,,,,,,,,,,,,,,,,,,,,,,,,,,,,,,,,,,,,,,,,,,,,,,,,,,
41,,,,,,,,,,,,,,,,,,,,,,,,,,,,,,,,,,,,,,,,,,,,,,,,,,,,,,,,,,,,,,,,,,,,,,,,,,,,,,,,,,,,,,,,,,,,,,,,,,,,,,,,,,,,,,,,,,,,,,,,,,,,,,,,,,,,
42,,,,,,,,,,,,,,,,,,,,,,,,,,,,,,,,,,,,,,,,,,,,,,,,,,,,,,,,,,,,,,,,,,,,,,,,,,,,,,,,,,,,,,,,,,,,,,,,,,,,,,,,,,,,,,,,,,,,,,,,,,,,,,,,,,,,
43,,,,,,,,,,,,,,,,,,,,,,,,,,,,,,,,,,,,,,,,,,,,,,,,,,,,,,,,,,,,,,,,,,,,,,,,,,,,,,,,,,,,,,,,,,,,,,,,,,,,,,,,,,,,,,,,,,,,,,,,,,,,,,,,,,,,
44,,,,,,,,,,,,,,,,,,,,,,,,,,,,,,,,,,,,,,,,,,,,,,,,,,,,,,,,,,,,,,,,,,,,,,,,,,,,,,,,,,,,,,,,,,,,,,,,,,,,,,,,,,,,,,,,,,,,,,,,,,,,,,,,,,,,
45,,,,,,,,,,,,,,,,,,,,,,,,,,,,,,,,,,,,,,,,,,,,,,,,,,,,,,,,,,,,,,,,,,,,,,,,,,,,,,,,,,,,,,,,,,,,,,,,,,,,,,,,,,,,,,,,,,,,,,,,,,,,,,,,,,,,
46,,,,,,,,,,,,,,,,,,,,,,,,,,,,,,,,,,,,,,,,,,,,,,,,,,,,,,,,,,,,,,,,,,,,,,,,,,,,,,,,,,,,,,,,,,,,,,,,,,,,,,,,,,,,,,,,,,,,,,,,,,,,,,,,,,,,
47,,,,,,,,,,,,,,,,,,,,,,,,,,,,,,,,,,,,,,,,,,,,,,,,,,,,,,,,,,,,,,,,,,,,,,,,,,,,,,,,,,,,,,,,,,,,,,,,,,,,,,,,,,,,,,,,,,,,,,,,,,,,,,,,,,,,
48,,,,,,,,,,,,,,,,,,,,,,,,,,,,,,,,,,,,,,,,,,,,,,,,,,,,,,,,,,,,,,,,,,,,,,,,,,,,,,,,,,,,,,,,,,,,,,,,,,,,,,,,,,,,,,,,,,,,,,,,,,,,,,,,,,,,
49,,,,,,,,,,,,,,,,,,,,,,,,,,,,,,,,,,,,,,,,,,,,,,,,,,,,,,,,,,,,,,,,,,,,,,,,,,,,,,,,,,,,,,,,,,,,,,,,,,,,,,,,,,,,,,,,,,,,,,,,,,,,,,,,,,,,
50,,,,,,,,,,,,,,,,,,,,,,,,,,,,,,,,,,,,,,,,,,,,,,,,,,,,,,,,,,,,,,,,,,,,,,,,,,,,,,,,,,,,,,,,,,,,,,,,,,,,,,,,,,,,,,,,,,,,,,,,,,,,,,,,,,,,
51,,,,,,,,,,,,,,,,,,,,,,,,,,,,,,,,,,,,,,,,,,,,,,,,,,,,,,,,,,,,,,,,,,,,,,,,,,,,,,,,,,,,,,,,,,,,,,,,,,,,,,,,,,,,,,,,,,,,,,,,,,,,,,,,,,,,
52,,,,,,,,,,,,,,,,,,,,,,,,,,,,,,,,,,,,,,,,,,,,,,,,,,,,,,,,,,,,,,,,,,,,,,,,,,,,,,,,,,,,,,,,,,,,,,,,,,,,,,,,,,,,,,,,,,,,,,,,,,,,,,,,,,,,
53,,,,,,,,,,,,,,,,,,,,,,,,,,,,,,,,,,,,,,,,,,,,,,,,,,,,,,,,,,,,,,,,,,,,,,,,,,,,,,,,,,,,,,,,,,,,,,,,,,,,,,,,,,,,,,,,,,,,,,,,,,,,,,,,,,,,
54,0.4486655642444627,0.25557559695685833,0.16046524807067536,0.9713179411516087,0.507878499242326,0.23462183394843356,0.15511457992328384,1.0334045626322885,0.4338742678324583,0.21740870338763835,0.1852075275339005,0.9532844289593385,0.5140512842363117,0.2796615100986429,0.16148889007399747,0.9547936416453064,0.4569451808386809,0.299100917452978,0.19016335332903642,1.0491999305526487,0.4707400630240065,0.2313240014630913,0.16596778793078645,1.0305418988703694,0.5189037564577457,0.23109769712715109,0.14912260190359003,1.0229547227258375,0.5018944894637767,0.24211943308756767,0.22093497812091042,0.9576806921751945,0.534190141729153,0.2828433534127368,0.23339214647415185,1.016280951149452,0.434332514346232,0.3065705524706512,0.09928197511241532,0.9972867723707028,0.4580952659911986,0.2681859221250976,0.11068423018884868,0.9710150286661627,0.48934149440104185,0.3647669023424871,0.14549695691179612,1.0170778894788106,0.5953005882017207,0.30085005642068285,0.261297146458035,1.0433508282823512,0.4481898714552642,0.32546855624704524,0.08209042898660401,0.0548676879448564,0.5189800934025295,0.3941252735682877,0.14882081978151118,1.0046961818128197,0.47908823107122916,0.34269384589606944,0.1054049100297973,0.2903154698845736,0.519843414802595,0.33482535836874305,-0.07042508326059586,0.40089320519511545,0.45579670028755404,0.41057019791348726,0.10982451731135066,0.4607411585224501,0.5247799690988997,0.29402708412778117,-0.10610355245565192,0.412895700793566,0.5107769656440042,0.40576930247681925,0.15853120808435212,0.4800311967864096,0.46717224106768485,0.26324429756584883,-0.0927277660606808,0.3837924761743924,0.4446118616520186,0.3927176814123205,0.08805767577992063,0.36167610021092844,0.4429593323746498,0.2765059147842421,-0.12816854357236723,0.3759248872867285,0.4720915644803897,0.4625020345341593,0.07259967706684384,0.9977178715071512,0.5437024424292158,0.5425775679770913,0.15255847773362924,0.9628106157657408,0.3810873904215131,0.5665353204566813,-0.0678591399887846,0.5973158534328636,0.4606318964634056,0.5746005862153944,-0.0049205083824571064,0.9191605336516588,0.3383767180208497,0.68046491525542,-0.21399030815024309,0.45423364103000785,0.4343603741488638,0.6493046675314271,-0.15650036630649033,0.8703946173937666,0.3548145842984032,0.679000867871834,-0.3143591427540522,0.5690089873859892,0.46393688468550276,0.6383566922903736,-0.16598809667014602,0.7892974820701282,0.3513482158496159,0.7198365556435763,-0.27146859792875333,0.24172984186797247,0.3713173936803869,0.714417164662748,-0.23483402913936552,0.5880447641479926
55,,,,,,,,,,,,,,,,,,,,,,,,,,,,,,,,,,,,,,,,,,,,,,,,,,,,,,,,,,,,,,,,,,,,,,,,,,,,,,,,,,,,,,,,,,,,,,,,,,,,,,,,,,,,,,,,,,,,,,,,,,,,,,,,,,,,
56,0.46994890407149337,0.26479083266700243,0.13239793955442625,0.9713179411516087,0.5290123917283417,0.24055905261451016,0.1278257924330988,1.0334045626322885,0.4550452601832875,0.22270788413371684,0.1579336588996591,0.9526858195118594,0.5352472294746059,0.2842107750064798,0.13428922771446536,0.9547936416453064,0.4775829552536347,0.30640045988004105,0.16122783192000223,1.0491999305526487,0.49108692075404636,0.2390047155934929,0.13680033687824678,1.0300492068766562,0.5390421046382146,0.2390966702583309,0.11983901379261153,1.0229547227258375,0.5267516499196843,0.24546325365946708,0.20794028635856754,0.9569537539275138,0.5554018716439986,0.29042628612338434,0.2093659817746803,1.0154838582348704,0.4570700239607698,0.31392531860109857,0.07658977194680183,0.9959528204206296,0.47955208504267843,0.2769276287348236,0.08519554271070295,0.9668560549723151,0.530886329988554,0.3775680130869634,0.21449180695122017,1.018416252172597,0.6165271415658218,0.30355849147927666,0.22655272772172308,1.044864190213198,0.4758211795812046,0.3861249547818201,0.20666258715089336,0.3265191720170648,0.5571226833732548,0.40935563121522983,0.22857263763033617,0.20729788283401412,0.4730777019099614,0.43750707354957286,0.21308062859689658,0.13481473007172268,0.5895314545297596,0.3959948634880668,0.1694490799857888,0.041081265896008766,0.4383695753819222,0.512866103265126,0.20396473479371283,0.185840036667668,0.5901065150178149,0.36524909140240885,0.14245679661134697,0.06188944623977116,0.49211225078152077,0.5120471259250003,0.2410221945776891,0.18864401133204098,0.5346123775251198,0.33986860162201643,0.15712853336969868,0.035198265132465045,0.4341826679197092,0.493752352480512,0.1883353043418597,0.06459168674209068,0.5123205612079035,0.3504949484832777,0.11536385608295256,0.0070008916428744225,0.49994614132479376,0.47508290611619053,0.10993348797413117,0.997635140260203,0.5631837794507034,0.5560735496703592,0.12890138706027146,0.9627529184695981,0.41137125468851266,0.6176755692321635,0.02519644438355175,0.17145452459260788,0.48371927931007114,0.6607854454912123,-0.023648105843546673,0.26635770867759884,0.37668602366087256,0.7369648136891053,-0.06260176487965656,0.23063696384590293,0.5254710074153492,0.7292739544500673,-0.08156423156096738,0.33423465497807137,0.39411735651057067,0.7364319100662005,-0.15688284542142222,0.4291913024971493,0.5636134198092742,0.7145196265936573,-0.08205381360328272,0.4739609566299121,0.3971889319309922,0.772560142202872,-0.09555623018398696,0.09202157084136109,0.47419352679226606,0.7991934469732338,-0.13254454461721313,0.16560179148792775
57,0.4850979285952336,0.27587628331626385,0.2074627206615106,0.9713179411516087,0.5429486808118863,0.24985642352515475,0.1971261853629548,1.0334045626322885,0.4693284683916604,0.23160188061084397,0.22729069780076752,0.9523411258511232,0.5499265386169837,0.2926711774951883,0.20369300412713193,0.9547936416453064,0.4905764177651306,0.31674979316632645,0.22811384772051052,1.0491999305526487,0.5040495516235397,0.2495989047605156,0.2038159437351237,1.0302669426440205,0.5520721695458863,0.2499600638034816,0.186931032436407,1.0229547227258375,0.5396638026970149,0.2533811048691076,0.26424399416405303,0.9557393092902152,0.5638762055630308,0.30190488900958434,0.25206882835452243,1.0161168595623853,0.47234973909115296,0.3245163189196258,0.1479967074024478,0.9910189267400571,0.49324565822358524,0.28876546881508486,0.15376398157384624,0.9663379117952826,0.5419153556500357,0.3789622253329046,0.2519352418862633,1.0212930107480367,0.6263868040020976,0.32553323389184374,0.2706505161387792,1.0456899529619164,0.4740127025816389,0.35378466661958863,0.24932991319243816,0.39575357300468994,0.5550690772884499,0.4923987594672592,0.29107347908782816,0.4796231899648277,0.44164085087865007,0.36004639711791697,0.20554928853032464,0.12964594938725146,0.6261063661565178,0.5687920069473869,0.29030395830342304,0.17664051929061256,0.40041888742370496,0.42637037596448213,0.19401382831081707,0.1895754001510969,0.6315954541359129,0.5636243760741924,0.26725055355170424,0.19897379622966216,0.4524157140947006,0.41821311317818943,0.22556859610880553,0.19407713861609097,0.5817639933102486,0.537980761589439,0.28303300703159656,0.15495485198215453,0.39973095289967814,0.4022143106504492,0.18030582544071347,0.06768728377082298,0.556135664820384,0.5356477473743452,0.23603665357848952,0.08879241548687813,0.5049223184248888,0.4919323047291666,0.10915215885860198,0.9977239511809184,0.5702291354020518,0.5759316715423074,0.13301711786963963,0.962814788090875,0.40456057896736225,0.6399337317306376,0.04850192083685755,0.4929635282318291,0.5014212895348389,0.6641067355073866,0.006972086143138051,0.5475633032172412,0.3796592802132624,0.7635545053280518,0.025528565706966183,0.7971647924200835,0.5656520883910361,0.7223301325430238,0.044824144773833216,0.7887239754946577,0.3971904489436869,0.7648315563483965,-0.06022317690673884,0.9164329580852995,0.6028133949961039,0.7056355542898853,0.054888704760727866,0.9516830053893726,0.4109689115719317,0.8023907767968356,0.026973180020073158,0.6070867342153083,0.5242214365254112,0.7990609458478981,0.00765460793465101,0.7290138617622809
58,0.5649096912032301,0.27180120315993755,0.4558333662783451,0.9713179411516087,0.6155519810843915,0.24677554884368197,0.39845080136053107,1.0334045626322885,0.5470313676842851,0.22902552944507243,0.430202848976548,0.9533131583981201,0.6326703700725036,0.2905902303344674,0.40813950788882325,0.9547936416453064,0.5516666059419059,0.31215206968228715,0.43906933008165766,1.0491999305526487,0.5606876622873188,0.24444718590561149,0.4134405902615186,1.030555250310799,0.6060824531139646,0.24422550092964132,0.39606898590878187,1.0229547227258375,0.5671626618965799,0.2503960744564336,0.2621601833969249,0.9577082295210807,0.5611898500369019,0.29427889194308654,0.3021637720190967,1.0162925144505384,0.5394870628423191,0.32266520726915887,0.3287178574388609,0.9973375555280515,0.5484400775596032,0.2853707160742248,0.34730981063104166,0.971115283678675,0.5717993362542145,0.3878780967146642,0.13200512856167582,1.0215236807233175,0.5734294817947685,0.3098188865293255,0.30292370019758463,1.041347337357516,0.5213558742577963,0.38609187420396973,0.08177066211124115,0.109382550541845,0.5091165245870635,0.4274381605216415,0.5098929197907005,0.8818070803075402,0.550871742752998,0.45358718481475535,0.19489712355291272,0.07181981035441079,0.6476191920838728,0.3636555588024741,0.7166167587327413,0.7093829450899825,0.5236676660455427,0.5374178822968796,0.19979632296093688,0.12099177757629068,0.6644753336700285,0.3237447679198954,0.741291407843825,0.615435174565615,0.5797121462111879,0.5308756073607762,0.2631169588823573,0.13087376655483837,0.6169934439432461,0.29450747019234425,0.746106996603464,0.5928092164965054,0.509235655864625,0.5093055884882025,0.1829758354944485,0.03531019719102337,0.587317967763537,0.3108156298168196,0.6680545911611233,0.5594927986732184,0.544324294453362,0.4747252186428934,0.07852257581242393,0.9965159438452555,0.5484577528995417,0.5573387774650064,0.1692874556398562,0.9625494878169797,0.5348995279982547,0.6298672820884562,0.2137886186502824,0.5595885570804772,0.4935514300459097,0.6582965939439711,0.21982167542696882,0.693608034357378,0.4557862475569459,0.7549041428364441,0.05443863612693503,0.19915718794029372,0.4929703685399943,0.7382771168341005,0.10093385762753634,0.5320737660677778,0.4623108114095549,0.7520392670913469,-0.040995843682733984,0.054017897684336506,0.5302271826835673,0.7248218126059254,0.10317766347093743,0.10570897727886838,0.5160098061192862,0.8079772221284091,0.14650502606540772,0.18475777033953766,0.4740888458995803,0.8157475641759926,0.17650129156546773,0.5108152941334203
59,0.515107279648604,0.27947393026793926,0.251638902233458,0.9713179411516087,0.5686186276911741,0.2537352255862357,0.2368951825184035,1.0334045626322885,0.4939210400598063,0.23667572599734904,0.2671567027571246,0.9533133968166994,0.573162178992437,0.299102906096644,0.24270844619796106,0.9547936416453064,0.5025084425698355,0.31743402468602555,0.2139358278431405,1.0491999305526487,0.5159788750982106,0.2491437934953331,0.18949213895502595,1.0305556079386677,0.5639393940067585,0.24838074933319051,0.17255039134964392,1.0229547227258375,0.530645262959652,0.2628762737934392,0.2090198133250954,0.9577083487303703,0.576799609111462,0.30069583859263793,0.2551887292562746,1.016295017845619,0.49616989054670113,0.33250518906351617,0.17998165695376317,0.9973392244581051,0.5058063010114456,0.29319692514252316,0.1396316651034973,0.9711187407480719,0.5288828966572092,0.405552989855457,0.19101460491478944,1.0217431450253802,0.6563638261107935,0.32325481654298205,0.35088915309648394,1.0439459806604332,0.5168920882096869,0.40043141063242127,0.2701158054268609,0.0774582506460816,0.5984620778587317,0.4617438224383743,0.4333144778289848,0.6386905227094262,0.5586384468125515,0.43868518915588084,0.39206250653830743,0.13498865642517727,0.6534431249367917,0.47812353727995216,0.4462474069432313,0.2822470901304945,0.533482165315796,0.5194779273007706,0.41125231761339276,0.21564957121738107,0.6572230884837091,0.45724918843877055,0.43520509077617403,0.29748364434749053,0.588211159687832,0.5080501874579747,0.45850719924711747,0.21280491800451867,0.6058995075497483,0.43260675317230946,0.4475016108584654,0.2557574374647519,0.5223384178186541,0.4865067820592932,0.3760252526191317,0.06196181805589158,0.5798970823734246,0.438866880989839,0.39289745792237674,0.21581959925801156,0.5114425802362034,0.5032237490307718,0.07696828216841438,0.9977289579710795,0.5986728336766135,0.5760101708594766,0.17533579157710014,0.9628164570209288,0.37745472889202114,0.49947026031797886,-0.15121091907516201,0.02625591863796079,0.4425631180210676,0.51473090938701,-0.15263371485074018,0.12143834303314391,0.2537901352405918,0.5966490425862,-0.462952010557636,0.055900136233979644,0.3593280158760454,0.5579281244863832,-0.48069435626677365,0.09345620132998095,0.2557251472621295,0.5983256235404741,-0.5789706179032484,0.08201218022799571,0.37870017842895154,0.5462058253050526,-0.511937173952399,0.3225730267135302,0.2753772195906617,0.6078583227830111,-0.5135566607753876,0.10263860348849399,0.281940664619988,0.6041248491796547,-0.6058097363467649,0.18966129575848137
60,0.5711316414452263,0.27548232641662096,0.4576382661264843,0.9713179411516087,0.6245241127795818,0.25294674554282437,0.4389578057797496,1.0334045626322885,0.5503648048657344,0.23602993947353013,0.4689984267003687,0.9533130391888306,0.630341408666478,0.2974578477031656,0.44519139349906733,0.9547936416453064,0.5754808989817364,0.3148574052993525,0.4844440572014443,1.0491999305526487,0.5881544710125276,0.2463661574441552,0.4598658547243626,1.0305553695200886,0.6352913736243,0.2454657245758052,0.44275745509287506,1.0229547227258375,0.5936975575575807,0.2602630869571966,0.43027045700752603,0.9577082295210807,0.6347981476797881,0.29914289917765985,0.4854395961448021,1.0162948986363294,0.5477049749430735,0.3310928868078857,0.36769724035200274,0.9973314758542843,0.5728508500604119,0.29008830449890743,0.3907385948553936,0.9711098000513556,0.5633927962060025,0.39995989860599107,0.31232637784269907,1.0216294789677938,0.6909033393014518,0.32068827034127617,0.49375381665237855,1.0452839261217064,0.4939577005730037,0.39118011411218806,0.24503774453694335,0.8739242063207299,0.6556422906483363,0.4397641328402908,0.5793333276154696,0.9974855695157615,0.49325438525322035,0.425001333622281,0.2792157409072149,0.7356249300476901,0.758841257224677,0.43800463435827547,0.6689847570666021,0.8623684583002791,0.45972305850315454,0.5034340854619339,0.29127429712895836,0.7490296326053969,0.7780166426467339,0.41109862329137065,0.684244899494848,0.831380478005709,0.5193298301675462,0.49473164879220316,0.34171625960725577,0.7455738529696524,0.7254173970373478,0.39768957740250355,0.7035886783072426,0.8001538677187344,0.456148563617891,0.4750394742532782,0.2621442789013568,0.5363647970721956,0.6892155760587653,0.4092753206260694,0.6212131228131019,0.6985258182159125,0.5082382584635194,0.49107095800751743,0.07553465880762207,0.9977333687147928,0.5980976957361531,0.566352966708323,0.17595408677846358,0.962831238972833,0.40741353586075313,0.5263468291122294,-0.04312421339428112,0.9644337352077659,0.4732152892360933,0.6306420653261122,-0.06967246124331167,0.8631774670928211,0.3066258683377065,0.7192791619099305,-0.26312658328041894,0.9455243295447173,0.4578884405915297,0.6886913571943605,-0.26836797282907565,0.9038617313654768,0.3153123027720199,0.7318630352302324,-0.367514118959833,0.9380823783466825,0.4869096146665838,0.6595268316031178,-0.28505009732307557,0.9479678478805225,0.33613575235875,0.7347881423669039,-0.2533283256644253,0.8170299095311653,0.41080012334578436,0.762122755387693,-0.2983018827266496,0.8454571381676154
61,0.5499645405524941,0.28661456671203106,0.3037175080286491,0.9713179411516087,0.6063392952066842,0.2639917544406058,0.2955768841428834,1.0334045626322885,0.5320478328589477,0.24650921088542582,0.32557973520224165,0.9533020719341921,0.6119396667227369,0.308303538668818,0.30178128666267123,0.9547936416453064,0.5568114899026209,0.3286661325637568,0.337492730979706,1.0491999305526487,0.5697936586947728,0.2608146809655785,0.3130043090829751,1.0305472632883992,0.617189417404505,0.26053720604209857,0.29603650512624374,1.0229547227258375,0.5891213058382646,0.2695046977226537,0.3384241542668774,0.9577047724516838,0.6268062092774844,0.31166103687106506,0.376255067217919,1.016284646637428,0.5310804658534176,0.33685600030657337,0.23269233633475084,0.9972829576734372,0.5560088898122592,0.29862517974686276,0.251217300529331,0.971007995318079,0.5651487949376051,0.3956975108534581,0.2633265908414312,1.0213455224400838,0.6851408681054656,0.32159122110497856,0.40168240186488585,1.0443000918550438,0.47137748505972443,0.38876842077760865,0.14505777648556717,0.6276282773656519,0.6348218763048264,0.419408073765889,0.35362760848592883,1.0075009975820153,0.45695991739392267,0.39977992620879826,0.09880350790203024,0.3747948614594332,0.7164735469538784,0.3499191319721824,0.3366900452674385,0.8387513695055708,0.42364429083905186,0.47374790272458345,0.09945441145453059,0.41928994277843146,0.7275498219349058,0.31418200732838847,0.30579654287688995,0.8059877668431419,0.48322439440411674,0.46523041926759073,0.15269510902492142,0.41939512343550317,0.6800113620965967,0.2813533509391857,0.3480028105039346,0.7721831960649869,0.42035382539654875,0.4488869528814367,0.08077427913959584,0.2614285680816408,0.6631408543907921,0.2941120837696089,0.34452931968422423,0.7033871134391486,0.520213883608079,0.49095663629883823,0.0927213305339359,0.997722997506602,0.594856262478051,0.5708264741126504,0.16149007066901047,0.9628175299045347,0.38514163412023733,0.5510018135864115,-0.13194803938001118,0.7071058209697899,0.4499702322701394,0.6115161865152297,-0.1448642762859218,0.7739826328604907,0.27646765108709903,0.7005920924938843,-0.3954259582225673,0.5937160795943084,0.4042243494252222,0.6712093744863832,-0.41988643804577963,0.7836275995524274,0.2840974856884934,0.7054090633674395,-0.5085316760635894,0.7298834137508878,0.42743703208037037,0.6578067011595448,-0.4452243122100859,0.9051045981017749,0.2855614659801341,0.7234296428399264,-0.44865690249381707,0.40423645202307806,0.3431722549823493,0.7289802483114296,-0.5049375909139059,0.6808460370171027
62,0.5391109102221289,0.28976118531669115,0.23289241264948435,0.9713179411516087,0.5977235501315462,0.2664063087981345,0.22761396693403618,1.0334045626322885,0.5230703226806289,0.24885477286662705,0.25747704012070094,0.953309224491565,0.6026537115918545,0.3107362724430032,0.2336814908141675,0.9547936416453064,0.5498964831878285,0.3316268442813624,0.27144076159145086,1.0491999305526487,0.5632950010861884,0.2638550840932488,0.24715760565649977,1.0305548926829307,0.6110701498356623,0.26370799433021497,0.23032189824328758,1.0229547227258375,0.5828785953175839,0.2716710285370153,0.2849071044317169,0.9577075142653434,0.6272973897713763,0.31465250458537475,0.33637328712523945,1.0162944217991712,0.5187533786940434,0.33961348998781726,0.16610448256435822,0.9973035808805294,0.5463097891238833,0.3015021469385589,0.1883534998231101,0.9710794016825202,0.5544110178973565,0.3931732541472204,0.21012218188491438,1.0202632213002523,0.6735190751779998,0.3250768411267986,0.3545784052705707,1.044825208775515,0.4541063220726893,0.34948574121980835,0.04845639818870948,0.30128712517448974,0.6076750283741735,0.3889108506270798,0.2872154291438342,0.9989378962903587,0.4354425258965856,0.32319657054359135,-0.06984921123513987,0.3042150048252932,0.612848761919425,0.306044510580886,0.0564128309405572,0.796845906763719,0.400353945227827,0.3809159036610916,-0.08699722613174936,0.4212887249363295,0.6200828738696588,0.26077508331906535,0.021790948226286744,0.78224294529468,0.45880071503903713,0.37363777958291355,-0.04084361366161818,0.42255363316679595,0.5623333691219976,0.22921853906098133,0.03367043428915269,0.7390104098291775,0.39978397948002736,0.3633100907846502,-0.09205959412958131,0.31422412724950266,0.5382357037310745,0.24509605512695448,-0.000707702844665356,0.7177352031341254,0.5159559884886044,0.4933610280644327,0.08017603298647973,0.99760676844929,0.5983084182104969,0.5785527857963052,0.17370488683792568,0.9627216856357359,0.3615156255446947,0.5769890810806132,-0.19751734147166505,0.5541420634548363,0.47664986843825136,0.6143254726327834,-0.12029585381467192,0.8456092364638538,0.24818167614591752,0.6986583390034363,-0.44645936314120793,0.6634263938681426,0.4202146552751029,0.685315707742151,-0.36407173100652823,0.8546052873881208,0.2512746279400703,0.7027231588645708,-0.5608117328425882,0.8140807561466703,0.4528305815344434,0.6738308138609608,-0.3846526729753069,0.9334024396506946,0.24867526242639304,0.7218199001984774,-0.5329178582167576,0.4780527216592322,0.3633632309116859,0.7477098754438454,-0.48071419025472195,0.6321263328659491
63,,,,,,,,,,,,,,,,,,,,,,,,,,,,,,,,,,,,,,,,,,,,,,,,,,,,,,,,,,,,,,,,,,,,,,,,,,,,,,,,,,,,,,,,,,,,,,,,,,,,,,,,,,,,,,,,,,,,,,,,,,,,,,,,,,,,
64,,,,,,,,,,,,,,,,,,,,,,,,,,,,,,,,,,,,,,,,,,,,,,,,,,,,,,,,,,,,,,,,,,,,,,,,,,,,,,,,,,,,,,,,,,,,,,,,,,,,,,,,,,,,,,,,,,,,,,,,,,,,,,,,,,,,
65,,,,,,,,,,,,,,,,,,,,,,,,,,,,,,,,,,,,,,,,,,,,,,,,,,,,,,,,,,,,,,,,,,,,,,,,,,,,,,,,,,,,,,,,,,,,,,,,,,,,,,,,,,,,,,,,,,,,,,,,,,,,,,,,,,,,
66,,,,,,,,,,,,,,,,,,,,,,,,,,,,,,,,,,,,,,,,,,,,,,,,,,,,,,,,,,,,,,,,,,,,,,,,,,,,,,,,,,,,,,,,,,,,,,,,,,,,,,,,,,,,,,,,,,,,,,,,,,,,,,,,,,,,
67,,,,,,,,,,,,,,,,,,,,,,,,,,,,,,,,,,,,,,,,,,,,,,,,,,,,,,,,,,,,,,,,,,,,,,,,,,,,,,,,,,,,,,,,,,,,,,,,,,,,,,,,,,,,,,,,,,,,,,,,,,,,,,,,,,,,
68,,,,,,,,,,,,,,,,,,,,,,,,,,,,,,,,,,,,,,,,,,,,,,,,,,,,,,,,,,,,,,,,,,,,,,,,,,,,,,,,,,,,,,,,,,,,,,,,,,,,,,,,,,,,,,,,,,,,,,,,,,,,,,,,,,,,
69,,,,,,,,,,,,,,,,,,,,,,,,,,,,,,,,,,,,,,,,,,,,,,,,,,,,,,,,,,,,,,,,,,,,,,,,,,,,,,,,,,,,,,,,,,,,,,,,,,,,,,,,,,,,,,,,,,,,,,,,,,,,,,,,,,,,
70,,,,,,,,,,,,,,,,,,,,,,,,,,,,,,,,,,,,,,,,,,,,,,,,,,,,,,,,,,,,,,,,,,,,,,,,,,,,,,,,,,,,,,,,,,,,,,,,,,,,,,,,,,,,,,,,,,,,,,,,,,,,,,,,,,,,
71,,,,,,,,,,,,,,,,,,,,,,,,,,,,,,,,,,,,,,,,,,,,,,,,,,,,,,,,,,,,,,,,,,,,,,,,,,,,,,,,,,,,,,,,,,,,,,,,,,,,,,,,,,,,,,,,,,,,,,,,,,,,,,,,,,,,
72,0.5449645239632176,0.31373199787581896,0.22740063569871222,0.9713179411516087,0.5994011172338094,0.29325736680442105,0.21082452218440145,1.0334045626322885,0.5258649612547706,0.27546297174777634,0.2410582950355873,0.953312443142383,0.6064663124415988,0.3370871878749795,0.21750586869149402,0.9547936416453064,0.5480893915297184,0.3593866943065394,0.24980738495254395,1.0491999305526487,0.5610124395850263,0.2921552800256371,0.22523189547339106,1.030553700590035,0.6084031972354456,0.2924275387409206,0.20821101450332216,1.0229547227258375,0.5868614697836397,0.297795356911878,0.2504387713101774,0.9577079911025015,0.6181269194295652,0.3434358259659899,0.27591875533495974,1.0162919184040904,0.5306228167239271,0.3614422904276519,0.15934679085647785,0.9973338600400754,0.5533811728619723,0.32490400336098324,0.1742148351935542,0.9710835740076542,0.5739827766685409,0.4146607285887487,0.1829520661004208,1.0216833615666707,0.6884125042621052,0.34697400809419054,0.32595701447216946,1.0454110628290123,0.49091935072931836,0.38298498209505244,0.08327954625862569,0.38166512114235474,0.5981417035294303,0.4414267149993332,0.2570192813112689,0.7472517404943078,0.470367671192759,0.38150371160918894,-0.0018193637423317352,0.10868302562206898,0.6204878273639086,0.40285273549734407,0.11847876270580783,0.11079692968671166,0.43243668356787046,0.44366433582051545,-0.024662272434888544,0.18875853339561138,0.6232072227812192,0.36681997181546433,0.08527937896523487,0.17403700099498204,0.49034948333860423,0.43869410358804056,0.02079539555107293,0.19085699768210046,0.567399881305187,0.33804618960800886,0.09388592605333648,0.13154108953193633,0.43455937116926924,0.4259955804391912,-0.02451241673005459,0.08107330979564148,0.5455383659157864,0.3497081671722425,0.05952725259034855,0.09639744661957614,0.5414207539256997,0.4757139404904276,0.08504365691371664,0.9977334879240823,0.61864224048091,0.5581455263320413,0.1824681626761543,0.9628275434848569,0.46607337705860313,0.5687402750808573,-0.06657567838096684,0.13616258461877667,0.5332902904199901,0.5783164589799819,-0.01740231017249421,0.5405603535025806,0.4308925110565812,0.652063123206012,-0.19485947033139744,0.23957894206207414,0.5256180277920479,0.6186172161688173,-0.15179825328887325,0.4420194626601087,0.44623457525085664,0.6465539470000994,-0.29403311966951307,0.3394844941685208,0.554901826950855,0.6019579238653858,-0.16345456029689454,0.5904776659576099,0.45115077454652197,0.6806000696854769,-0.24728695257944414,0.15762998286872007,0.4612663014424963,0.6760023883375221,-0.25064423966903704,0.3152076021301703
73,0.5504167499287203,0.30846333470786547,0.2643348908562991,0.9713179411516087,0.6066682350249997,0.28821809211188565,0.25244591673280187,1.0334045626322885,0.5334172246448856,0.27082528334941514,0.282716843432578,0.9529861673168826,0.6143391220236701,0.3328598476535745,0.25932849736385954,0.9547936416453064,0.5538203725686249,0.3526679991428126,0.2875283769934811,1.0491999305526487,0.566771216466744,0.2848010205346703,0.2630424495350014,1.0303971787928548,0.6141469218940188,0.2844825078132625,0.24605483333801093,1.0229547227258375,0.5990260288798038,0.29448628584788256,0.30255115778715813,0.9576351542265861,0.6244552782696221,0.33484524693309203,0.31424201201867485,1.0162269493412852,0.5378389487734887,0.3572497593187957,0.19965523681150787,0.996823882699377,0.5589486350352483,0.319291361788031,0.21047076871500867,0.9697121307360175,0.5878881709141435,0.4153740173727758,0.22899929507041722,1.01299801114858,0.6935101310788168,0.3357493805993786,0.3387471083249708,1.0447849756402916,0.48946200533867,0.38228507455377747,0.07506405311288736,-0.026614161829861895,0.6196094554559923,0.41144173417772373,0.2178709233455097,0.7234222803502648,0.45697832859022,0.38010920134002385,-0.07631565707244078,-0.006404129630626112,0.6254198867264281,0.37289070246397316,0.005379764682394223,0.055963517516301464,0.4208060784399805,0.4422182675336197,-0.10089336835100073,0.06961230742164758,0.628178487243109,0.33759873510968424,-0.035637939712978184,0.09395339236766266,0.4780309096259137,0.43712453447717015,-0.05646120833383897,0.06550232583129997,0.5728850175127925,0.31034144407692676,-0.020237522214698,0.06283325087741815,0.4215850354137033,0.4248077194734625,-0.10015897445582209,-0.020982178358650627,0.5498905061275352,0.3227802191741957,-0.052265463158544676,0.049008572625225726,0.5568296214619969,0.4760197719227701,0.09916645012487978,0.9977051161131691,0.6259132275617224,0.5549733075324502,0.17493372995228557,0.9627945225116513,0.45537664958583923,0.5726255442458964,-0.1070868667553947,0.01981768195435369,0.5138403146221827,0.5962800472177443,-0.062219144441403106,0.06911041955644781,0.389887826976591,0.6340114989079163,-0.310606244955427,0.01954203680318024,0.4773877648939355,0.6329864059080446,-0.2991334082846778,0.046701286062751854,0.4034638940707203,0.6277862921043169,-0.417615904077721,0.06533667071557131,0.5027388052624728,0.6170466012716969,-0.3200802348341592,0.16399054795185727,0.4030601167225714,0.6530502664284884,-0.37689288730791404,0.006853712091733081,0.419593876905708,0.6886473945173317,-0.39773639498228763,0.05138372597276727
74,0.5844175832407701,0.30305352774108385,0.36443482586789694,0.9713179411516087,0.641598748236752,0.28438396373206387,0.35181441253341894,1.0334045626322885,0.5684915084193596,0.26727773410167344,0.3821229201471687,0.9522994622044252,0.6495322691455835,0.3295428789741464,0.358621080561724,0.9547936416453064,0.5879955512212934,0.34875987159650224,0.38473615999454885,1.0491999305526487,0.6006775362394292,0.2810925089437127,0.360161086162629,1.030003847741982,0.647840084792842,0.2809445549133296,0.34310269136601296,1.0229547227258375,0.6288256573829918,0.2944997564976018,0.3825579495614609,0.9572643537314383,0.6502791497805849,0.33436274733363525,0.38334385998542736,1.0159345289540174,0.5690668443493152,0.35386808979746387,0.2915032558870202,0.99621144497431,0.5889244958836374,0.31565172336411135,0.29951663709256554,0.9697837159143927,0.6129619158958188,0.415945029869724,0.30825074541311787,1.018872227705129,0.7143929502453344,0.33748545528542895,0.3838578865047859,1.045600069157595,0.5237275246731301,0.37909357365160157,0.20660459149946847,0.5158601508779199,0.6427405479097149,0.415300807101384,0.25923684720476736,0.9824005279927819,0.4997906089976756,0.37654049244338694,0.12549867090359834,0.14192438700169246,0.693929335607428,0.38439401147543245,0.13642204020787008,0.7455755410486922,0.46276793899222124,0.4408840473626449,0.11355483261884315,0.21809537330993328,0.7062177995959822,0.3539946019805644,0.11204170365362999,0.7518175755551475,0.5210561042887591,0.43142755233186075,0.15929587820636376,0.20197800250197048,0.6530032682916935,0.32173183208885914,0.12739344128792104,0.699215368744888,0.4625782225591272,0.4169608871980719,0.10229709752309876,0.07666042776563117,0.6245010301302469,0.3320471917160047,0.08125895934436592,0.595329852925843,0.569180675054897,0.46359464727753696,0.11261376848475825,0.9976992748579812,0.6337913685775594,0.5469067129317727,0.1673132864761933,0.9628139536258481,0.4606670640462879,0.5407062436897135,-0.10240027617923189,0.08578821082517468,0.5121780150447885,0.6080306260980544,-0.062210179962998734,0.7617725617736072,0.37776863113357256,0.6071652092732117,-0.35383229978041375,0.09180244267147204,0.4918023973319574,0.6527196560491884,-0.27301879283493635,0.7070715130122053,0.3890082791358706,0.6034702196403277,-0.46473295809905013,0.246224176127673,0.5209198265245776,0.6380674309492786,-0.29063788634087556,0.8464399185744922,0.3904605057794801,0.6241061317162692,-0.4137285154762687,0.05071624119072059,0.43887548312400443,0.7106009772810036,-0.34240074833872797,0.5005095020401433
75,,,,,,,,,,,,,,,,,,,,,,,,,,,,,,,,,,,,,,,,,,,,,,,,,,,,,,,,,,,,,,,,,,,,,,,,,,,,,,,,,,,,,,,,,,,,,,,,,,,,,,,,,,,,,,,,,,,,,,,,,,,,,,,,,,,,
76,,,,,,,,,,,,,,,,,,,,,,,,,,,,,,,,,,,,,,,,,,,,,,,,,,,,,,,,,,,,,,,,,,,,,,,,,,,,,,,,,,,,,,,,,,,,,,,,,,,,,,,,,,,,,,,,,,,,,,,,,,,,,,,,,,,,
77,,,,,,,,,,,,,,,,,,,,,,,,,,,,,,,,,,,,,,,,,,,,,,,,,,,,,,,,,,,,,,,,,,,,,,,,,,,,,,,,,,,,,,,,,,,,,,,,,,,,,,,,,,,,,,,,,,,,,,,,,,,,,,,,,,,,
78,,,,,,,,,,,,,,,,,,,,,,,,,,,,,,,,,,,,,,,,,,,,,,,,,,,,,,,,,,,,,,,,,,,,,,,,,,,,,,,,,,,,,,,,,,,,,,,,,,,,,,,,,,,,,,,,,,,,,,,,,,,,,,,,,,,,
79,,,,,,,,,,,,,,,,,,,,,,,,,,,,,,,,,,,,,,,,,,,,,,,,,,,,,,,,,,,,,,,,,,,,,,,,,,,,,,,,,,,,,,,,,,,,,,,,,,,,,,,,,,,,,,,,,,,,,,,,,,,,,,,,,,,,
80,,,,,,,,,,,,,,,,,,,,,,,,,,,,,,,,,,,,,,,,,,,,,,,,,,,,,,,,,,,,,,,,,,,,,,,,,,,,,,,,,,,,,,,,,,,,,,,,,,,,,,,,,,,,,,,,,,,,,,,,,,,,,,,,,,,,
81,,,,,,,,,,,,,,,,,,,,,,,,,,,,,,,,,,,,,,,,,,,,,,,,,,,,,,,,,,,,,,,,,,,,,,,,,,,,,,,,,,,,,,,,,,,,,,,,,,,,,,,,,,,,,,,,,,,,,,,,,,,,,,,,,,,,
82,,,,,,,,,,,,,,,,,,,,,,,,,,,,,,,,,,,,,,,,,,,,,,,,,,,,,,,,,,,,,,,,,,,,,,,,,,,,,,,,,,,,,,,,,,,,,,,,,,,,,,,,,,,,,,,,,,,,,,,,,,,,,,,,,,,,
83,,,,,,,,,,,,,,,,,,,,,,,,,,,,,,,,,,,,,,,,,,,,,,,,,,,,,,,,,,,,,,,,,,,,,,,,,,,,,,,,,,,,,,,,,,,,,,,,,,,,,,,,,,,,,,,,,,,,,,,,,,,,,,,,,,,,
84,,,,,,,,,,,,,,,,,,,,,,,,,,,,,,,,,,,,,,,,,,,,,,,,,,,,,,,,,,,,,,,,,,,,,,,,,,,,,,,,,,,,,,,,,,,,,,,,,,,,,,,,,,,,,,,,,,,,,,,,,,,,,,,,,,,,
85,,,,,,,,,,,,,,,,,,,,,,,,,,,,,,,,,,,,,,,,,,,,,,,,,,,,,,,,,,,,,,,,,,,,,,,,,,,,,,,,,,,,,,,,,,,,,,,,,,,,,,,,,,,,,,,,,,,,,,,,,,,,,,,,,,,,
86,,,,,,,,,,,,,,,,,,,,,,,,,,,,,,,,,,,,,,,,,,,,,,,,,,,,,,,,,,,,,,,,,,,,,,,,,,,,,,,,,,,,,,,,,,,,,,,,,,,,,,,,,,,,,,,,,,,,,,,,,,,,,,,,,,,,
87,,,,,,,,,,,,,,,,,,,,,,,,,,,,,,,,,,,,,,,,,,,,,,,,,,,,,,,,,,,,,,,,,,,,,,,,,,,,,,,,,,,,,,,,,,,,,,,,,,,,,,,,,,,,,,,,,,,,,,,,,,,,,,,,,,,,
88,,,,,,,,,,,,,,,,,,,,,,,,,,,,,,,,,,,,,,,,,,,,,,,,,,,,,,,,,,,,,,,,,,,,,,,,,,,,,,,,,,,,,,,,,,,,,,,,,,,,,,,,,,,,,,,,,,,,,,,,,,,,,,,,,,,,
89,0.520584691108578,0.30520355668509935,0.21380358080026213,0.9713179411516087,0.5764810407125297,0.2848568073790671,0.198361722430056,1.0334045626322885,0.5028866035712595,0.26735361081447245,0.22854144925638545,0.9532348378948854,0.58345563842297,0.3292279578334756,0.2050616571671603,0.9547936416453064,0.5245119005025118,0.3493003963176478,0.2353769674087837,1.0491999305526487,0.537760131136787,0.2814589881021141,0.21103841166015327,1.0305163880824055,0.5853440354471531,0.28112894188194226,0.19418130599108802,1.0229547227258375,0.5632131528456945,0.2878065125171941,0.23664782256923073,0.9576944012434928,0.5943819842671106,0.32893899287997613,0.2621564559393711,1.0162567516636731,0.5048148831922176,0.351656608464685,0.14559598351485203,0.9969328995946715,0.528242462889108,0.31346321962189333,0.16088928719769205,0.9705178067194462,0.5445856643601121,0.3972869879156835,0.15861872600781005,0.9795518780118306,0.6464711851189007,0.3201433050740948,0.27029003027248594,1.0272837406320519,0.4371417534268957,0.35302467759637995,-0.02567831843698668,0.018724817161050497,0.5649641365867767,0.3721603957244308,0.15648062699060075,0.9781466040998071,0.41003697005594253,0.34345794763976756,-0.21124896625655906,-0.002215839764774713,0.5768590441839455,0.30263932702719026,-0.027201558060443703,0.6901274857813582,0.3737853066188924,0.40336286387189174,-0.25167931213902534,0.07933545666166458,0.5807157431104246,0.25739287735593064,-0.062315312236466774,0.7306438003590721,0.42977574764608023,0.39951933823960606,-0.20630216837746285,0.07834192068720458,0.5250179987894885,0.22766655332031965,-0.049524953710142885,0.7066425843210599,0.3754551302137897,0.3876067023321203,-0.23646316133031217,0.0010489370093579725,0.5023758312772554,0.24428519353943,-0.08399021082025614,0.6599282940498054,0.5150006898290421,0.45069751345032744,0.08584238050832464,0.994546487172587,0.580392083028352,0.5341528686706033,0.16256777991317511,0.960908393132379,0.4615928796602221,0.5925426151115275,0.0793827926679313,0.21774605472490158,0.5014058581242211,0.6226822226442275,0.09407303107658288,0.6696196682303638,0.4295311194276077,0.7030568041599915,0.03738314623171066,0.13637324631374503,0.5160237485067642,0.6953845415701234,0.0535690627845682,0.5939312279970991,0.44631964311242217,0.700867904691292,-0.049271541223814774,0.2232455871889599,0.5478292115675834,0.6838616795302113,0.057872074599580534,0.6514600720969836,0.4593411945085594,0.7380364166932284,0.036441503250391576,0.04264256108789548,0.483246534416193,0.7564787319692665,0.04148815831609056,0.19822018002152006
90,0.5348102085759008,0.30147954788650005,0.2548224664165711,0.9713179411516087,0.5895712933607794,0.28211988130027066,0.23406879661719043,1.0334045626322885,0.5156052202012469,0.2647709713586772,0.2641131034118563,0.9533123239330934,0.5957675888607731,0.326825324404902,0.24038273004456345,0.9547936416453064,0.5382561158630643,0.3467374263946284,0.27189788041071267,1.0491999305526487,0.5514727583610135,0.2789894782621025,0.24744095127187973,1.0305542966364827,0.5991013232682079,0.27871537100105237,0.23054383325566918,1.0229547227258375,0.5689969671117733,0.2871950284664434,0.2546202907746535,0.9577073950560538,0.6016944788585863,0.32821819391070733,0.2787159642453789,1.0162925144505384,0.5157923873369721,0.3489569650911956,0.18091601498234283,0.9973141905072994,0.5396770322014661,0.31056837103676455,0.19585057886129112,0.9710675999628546,0.5541607592959857,0.3971958524138219,0.19067876842924306,1.0199495220547994,0.6484852215949026,0.32178645611894036,0.28978085810773735,1.044416022889132,0.5029247182292166,0.33921493705301453,0.17218378070070695,0.23521394592949463,0.5538864773905328,0.3579153028556259,0.19643755316031722,0.8002532635121911,0.5261595622700933,0.34725205150062266,0.20914195513755823,0.09834458508461628,0.5748182227125108,0.28855647800146395,0.04181619801973717,0.63646250346248,0.4947788218065241,0.41435199341519624,0.2029501846061905,0.15473105380662588,0.5806299357017514,0.24386643768918254,0.014947138944440358,0.6198148046544212,0.5555912657751174,0.41058091722863505,0.256591390109679,0.16128851176643957,0.5265016057738533,0.21478381401482344,0.02781450591141892,0.5828194184275052,0.49369241992868884,0.3961509983583502,0.19354606583884232,0.08871201010205695,0.502291103783467,0.23047342643814223,-0.012806184560991599,0.5551386197677314,0.5204408748084453,0.43793484770173124,0.09160519413729408,0.9977284811339212,0.5820676283221075,0.522427413148066,0.1588773942915295,0.9628280203220153,0.456118679837687,0.5774863030273295,0.072517479345025,0.5302904303829369,0.5091684119610477,0.6155844419397292,0.10181384590763806,0.8004526979773731,0.4076159034558275,0.6902241029537842,-0.018480881188915083,0.3152955418841185,0.5079120136167878,0.6797629986395204,0.015431438175663243,0.7087371052058088,0.4227206317988282,0.6872214808746111,-0.10841502159972172,0.24946058912968722,0.5376658095662961,0.6629660792113026,0.01532898058933881,0.5187638607589404,0.4435998176465086,0.7276594268517672,0.004281096323131818,0.15757925931601627,0.4756916709771169,0.7465213588270241,0.017721178326860758,0.4348095372784094
91,,,,,,,,,,,,,,,,,,,,,,,,,,,,,,,,,,,,,,,,,,,,,,,,,,,,,,,,,,,,,,,,,,,,,,,,,,,,,,,,,,,,,,,,,,,,,,,,,,,,,,,,,,,,,,,,,,,,,,,,,,,,,,,,,,,,
92,,,,,,,,,,,,,,,,,,,,,,,,,,,,,,,,,,,,,,,,,,,,,,,,,,,,,,,,,,,,,,,,,,,,,,,,,,,,,,,,,,,,,,,,,,,,,,,,,,,,,,,,,,,,,,,,,,,,,,,,,,,,,,,,,,,,
93,,,,,,,,,,,,,,,,,,,,,,,,,,,,,,,,,,,,,,,,,,,,,,,,,,,,,,,,,,,,,,,,,,,,,,,,,,,,,,,,,,,,,,,,,,,,,,,,,,,,,,,,,,,,,,,,,,,,,,,,,,,,,,,,,,,,
94,,,,,,,,,,,,,,,,,,,,,,,,,,,,,,,,,,,,,,,,,,,,,,,,,,,,,,,,,,,,,,,,,,,,,,,,,,,,,,,,,,,,,,,,,,,,,,,,,,,,,,,,,,,,,,,,,,,,,,,,,,,,,,,,,,,,
95,,,,,,,,,,,,,,,,,,,,,,,,,,,,,,,,,,,,,,,,,,,,,,,,,,,,,,,,,,,,,,,,,,,,,,,,,,,,,,,,,,,,,,,,,,,,,,,,,,,,,,,,,,,,,,,,,,,,,,,,,,,,,,,,,,,,
96,,,,,,,,,,,,,,,,,,,,,,,,,,,,,,,,,,,,,,,,,,,,,,,,,,,,,,,,,,,,,,,,,,,,,,,,,,,,,,,,,,,,,,,,,,,,,,,,,,,,,,,,,,,,,,,,,,,,,,,,,,,,,,,,,,,,
97,,,,,,,,,,,,,,,,,,,,,,,,,,,,,,,,,,,,,,,,,,,,,,,,,,,,,,,,,,,,,,,,,,,,,,,,,,,,,,,,,,,,,,,,,,,,,,,,,,,,,,,,,,,,,,,,,,,,,,,,,,,,,,,,,,,,
98,,,,,,,,,,,,,,,,,,,,,,,,,,,,,,,,,,,,,,,,,,,,,,,,,,,,,,,,,,,,,,,,,,,,,,,,,,,,,,,,,,,,,,,,,,,,,,,,,,,,,,,,,,,,,,,,,,,,,,,,,,,,,,,,,,,,
99,,,,,,,,,,,,,,,,,,,,,,,,,,,,,,,,,,,,,,,,,,,,,,,,,,,,,,,,,,,,,,,,,,,,,,,,,,,,,,,,,,,,,,,,,,,,,,,,,,,,,,,,,,,,,,,,,,,,,,,,,,,,,,,,,,,,
100,0.5717533141128203,0.29267933931792706,0.49552188328801205,0.9713179411516087,0.6285815625890163,0.27375192561560885,0.48020756565785655,1.0334045626322885,0.5556465671435463,0.25711073142375596,0.5107323624805649,0.9505492314152405,0.6367625406361727,0.3197688795215554,0.48723524802776697,0.9547936416453064,0.5725655630844644,0.336701106900381,0.50783558507093,1.0491999305526487,0.5853941372087564,0.2684856497365593,0.4833172777140336,1.0278176089762654,0.6326805137476015,0.26771211515693616,0.46616532333201327,1.0229547227258375,0.6118627934036182,0.27974543134615837,0.494838607594904,0.9560651082785574,0.6258234135295883,0.31604466047107116,0.471092761691474,1.0147632380795362,0.554114460317642,0.341360114695993,0.4165254941249616,0.9919418450597592,0.5727863396266106,0.301280536869284,0.41858410570573273,0.96600424499383,0.6140651695653587,0.3977617091089971,0.42204735957004225,1.0208609962827047,0.6550160978801478,0.31020625711572075,0.391641619899682,1.0447909361047691,0.5696430742769633,0.38008363660364314,0.404120146154801,0.8817362294835719,0.580849638320852,0.4229120520182999,0.37020451895941,0.8902085934072106,0.5846601975053546,0.40305391993934336,0.44313193515853955,0.5671753493782871,0.636427683951,0.43959545252500826,0.3777010370756537,0.5344010529810652,0.5575062378422703,0.47110899648412013,0.45552565800795386,0.44785195211299567,0.6372804708040323,0.41508322359692795,0.35519397229297855,0.48001208053142,0.6127685364835204,0.464561357129987,0.49611420500918946,0.5099147305026114,0.5900253066036752,0.3923058176654888,0.3898099584347322,0.5005076689691922,0.5480506394409914,0.447046540264707,0.42196229875718233,0.36479479403951126,0.5632848514237052,0.3995200966365828,0.3316556808532457,0.4489480575195014,0.5506349777800104,0.4059947749268442,0.14780634551116245,0.997612609704478,0.5716348548752475,0.47550472943224564,0.10839773421596045,0.9624023835536741,0.5291283204293783,0.5489310290176249,0.20704008497070012,0.9949371274273096,0.5001091215772394,0.5668083517946181,0.08480713290039196,0.7919372207968921,0.49376122078163026,0.6443735279835389,0.12192030141507261,0.9154820388571563,0.5147400163649722,0.6177273188223207,-0.007029006246530838,0.7224591077120649,0.5108759362450074,0.6390828624053728,0.034285400154146176,0.841150205571414,0.5533353888905481,0.6024294562102039,-0.0053531093902551945,0.6182378140060107,0.5378397111814222,0.6823137628274142,0.16430153188203298,0.6147671503224861,0.46095555154461504,0.6832811883482033,-0.011428361781506073,0.5148549989330724
101,0.5022660043211917,0.2966115769430492,0.2177067134767804,0.9713179411516087,0.5580172680341468,0.27732781687194125,0.1999549290755888,1.0334045626322885,0.4848801829361249,0.26013873678531296,0.2303430135093347,0.9531165226750061,0.5658290356993114,0.32221770654983,0.20683270931237824,0.9547936416453064,0.503837394111657,0.3412064729873408,0.23210927077862561,1.0491999305526487,0.5166468703986996,0.2731847309190392,0.2076006689153815,1.0301899930476155,0.5639068840290853,0.2725936461570735,0.19048139180745222,1.0229547227258375,0.5477958606935914,0.28042847077296196,0.24184599581545113,0.9576135773451775,0.5681101498887058,0.32034442033587823,0.2368319343173429,1.015545608646858,0.48764692173552526,0.3432022856497436,0.15099005346520028,0.9968072530034848,0.507878548502341,0.3044148769171203,0.15806708058578064,0.9698990509020331,0.5539489663579588,0.38806302012507987,0.2185256588601146,1.0216172004109698,0.620340348598442,0.3102933991063824,0.23911647273453973,1.041573358170504,0.501764271990432,0.35814137872247864,0.2037246150018237,0.9067013965291651,0.5407390249685604,0.41969477210725864,0.2152551286574004,0.6015162978559105,0.49997920854110045,0.39350975599700627,0.22658214662025938,0.6631914583680026,0.5829133768216137,0.4246731614845878,0.1610720993521049,0.2509660957152113,0.46761592307459265,0.4675129290555313,0.22688211412569295,0.6164651475323073,0.580753126708054,0.39899685384404404,0.12428095138014489,0.24671839819461272,0.5174309147734611,0.4627060731543858,0.2609768737146411,0.6416231736674368,0.529094653713643,0.37210496908608204,0.14422668818692502,0.22592075299934353,0.4582633152642849,0.4430364291711859,0.2020475315706932,0.47559684844472366,0.5087232227898916,0.3792785678871168,0.10863008555432992,0.19025971196801064,0.5339528162945375,0.41027644478196196,0.11341397784932718,0.9977243088087869,0.5854105235188926,0.48460534541048667,0.14198868831882075,0.962825993764093,0.46961508214185543,0.5215602781135417,0.12461043796982954,0.9516165908138451,0.5115088250316346,0.5694019287027297,0.09462830320439966,0.9461704976409169,0.4458224563534729,0.5944254317082093,0.09364843300338023,0.9023689574019256,0.5550660991257437,0.6214424763311708,0.10577208416520947,0.9872334302218305,0.46186434429978984,0.5852745309158098,0.006847818508230005,0.9401977471897611,0.5933166381883951,0.6057825751066883,0.11416089262643005,0.9987237063018483,0.47739977732413064,0.6296992527680575,0.07436791956547587,0.7070279878774177,0.5009969610119975,0.6878205588850075,0.07626638915952832,0.8999948516952948
102,0.4712315072134976,0.29613357749427294,0.12057897650723086,0.9713179411516087,0.527896961161238,0.27510384836608187,0.10235165023558151,1.0334045626322885,0.4554059445792049,0.2575637267240489,0.1329028466328008,0.9507836564831421,0.536997602080091,0.3192956484443612,0.1095527873609376,0.9547936416453064,0.470364990226125,0.3396442352477778,0.12614069867979777,1.0491999305526487,0.48292315715632894,0.2717459940034508,0.101596363950092,1.0285597464083638,0.5299949183449184,0.27124914418487506,0.08446952389936171,1.0229547227258375,0.5248607519199924,0.27594781081126146,0.1578568330250207,0.9551371831686942,0.530309243113139,0.31783530320941344,0.114773273689745,1.0134927650761487,0.4596315623257514,0.34203129279848626,0.06037403045564808,0.9942564722303219,0.4753512100645386,0.30398056767296444,0.05650576491772857,0.9655411169039252,0.5557768558471614,0.3818648225218541,0.19580794523376296,1.0210954213506063,0.5853087709641882,0.31283380867135424,0.11691056423555259,1.044713211647982,0.5192457503335579,0.36100246127634217,0.2262281294341841,0.9139341221494347,0.5109924879627566,0.4313610104152115,0.11066624893844887,0.48232459167533803,0.5129660232563995,0.40193680968696294,0.2466087183556874,0.8058630434510105,0.5633132380035972,0.44888623712240516,0.08660550284963763,0.16665477433745707,0.47986746539682257,0.4767924483750656,0.2484190465966553,0.7345591149700514,0.5613497447942518,0.42528324724805094,0.04548105086872349,0.15922466562301085,0.5263507454332323,0.47015656434434244,0.2731339740943189,0.7478368029131949,0.5115652527955405,0.39968442565384626,0.07236670142582825,0.13523028921798674,0.4676480250494637,0.4508975665613226,0.21630124458141295,0.5516716870830294,0.4909000050933983,0.4060163472660078,0.03705884212903686,0.11901003323704593,0.5467106978547788,0.40983543001526884,0.1376865837322257,0.9977139376005959,0.5817028216790122,0.4889179798785652,0.12102133860385945,0.9628182451602721,0.4991137866559997,0.5371918942291117,0.17903741020206793,0.9738747533123191,0.510008555660816,0.5778774111665663,0.07416763346323874,0.7442937977164478,0.47163879140901205,0.6224833049572632,0.14775759211694303,0.8518774455801787,0.5460079823292183,0.6299030576338136,0.05488544943190518,0.6961323321612226,0.49088443608384175,0.6166566744132769,0.06296809097132827,0.9298643283436308,0.5847227776945704,0.6136606402159412,0.06096893377778162,0.8049813714591663,0.49183904108575277,0.6583313571648776,0.13158507848233905,0.6621374649205696,0.49064707356313847,0.6975294998678261,0.026950954124114947,0.4869942084419684
103,0.49375765909265,0.29352995720351666,0.17002390672945855,0.9713179411516087,0.5509479121434497,0.2739549092333914,0.15690114620897286,1.0334045626322885,0.4778670623885428,0.25664849740352275,0.18735127891737577,0.9532340034298585,0.5588699072806982,0.3187066651470132,0.1638991307216991,0.9547936416453064,0.495794810651656,0.3378780900184382,0.18559681542071652,1.0491999305526487,0.5086851526946018,0.2698043428975701,0.16113173952610613,1.0305050631998982,0.5560103195611015,0.2692027975204463,0.1440695536747187,1.0229547227258375,0.5444001762658235,0.27587393085406237,0.21220058315885384,0.9576465983183831,0.5605368962095,0.3159518858414782,0.19366426396867165,1.0162094255757212,0.4800559493929605,0.33912315237757257,0.10862391384800202,0.9971804376844234,0.4995264842229955,0.30020386836838375,0.1116497012863577,0.9709505364405158,0.5627191747422934,0.3781505590826757,0.22324594961493388,1.0216526055699666,0.6100357286242649,0.30320733071458245,0.19511618656079252,1.0451843267602867,0.5206788137402764,0.32668583210497065,0.25072661564441745,0.7976890907926233,0.5327748902343288,0.3918882218429001,0.16952737687129932,0.5434864077954857,0.5283101247430313,0.31180034127647105,0.28587629781970475,0.41332059183090847,0.579623179903813,0.35398199317632967,0.1295818404798364,0.21663240471427286,0.49763074191733725,0.3705699678395584,0.289671153233633,0.3939580879581801,0.578832544372532,0.31592657567631943,0.09606845405746195,0.24680863962680266,0.55026202713442,0.36505906187432596,0.3221040649799887,0.41404393763685815,0.5271375615599905,0.28774767762604475,0.11696174403439101,0.22905652355865444,0.48935004997219744,0.3520032088800482,0.2617724110774853,0.26158571572759104,0.506667271695474,0.2990153406627668,0.0786755456681771,0.19372399352700112,0.5419146360355479,0.4073722680699258,0.13666636703522328,0.9977016590437724,0.5747986768733793,0.48084178893007895,0.11820405083725448,0.9627796213504576,0.4615521637369523,0.511869933779893,0.09784017421284472,0.7454418595592675,0.473010040965045,0.5310928016103682,0.01412390358615354,0.5890270955413074,0.41933647785979206,0.5897350230015442,0.020616137682010205,0.7374020761267486,0.4758381032306786,0.5641478095640504,-0.04529077017568699,0.757509440258299,0.4342388965201178,0.5828710928245318,-0.07182368811588816,0.7991286925861845,0.5084527630790281,0.546913451647826,-0.04611377784584851,0.7810523715583484,0.4412951209030871,0.6226501690583407,-0.005899727549296817,0.5200771850743782,0.4169119678756888,0.6273593357595497,-0.09681227627967018,0.6218215242493109
104,,,,,,,,,,,,,,,,,,,,,,,,,,,,,,,,,,,,,,,,,,,,,,,,,,,,,,,,,,,,,,,,,,,,,,,,,,,,,,,,,,,,,,,,,,,,,,,,,,,,,,,,,,,,,,,,,,,,,,,,,,,,,,,,,,,,
105,,,,,,,,,,,,,,,,,,,,,,,,,,,,,,,,,,,,,,,,,,,,,,,,,,,,,,,,,,,,,,,,,,,,,,,,,,,,,,,,,,,,,,,,,,,,,,,,,,,,,,,,,,,,,,,,,,,,,,,,,,,,,,,,,,,,
106,0.5705215016954123,0.29614245858634447,0.3916744244747722,0.9713179411516087,0.6263601884075859,0.2772732488196494,0.3743976345608783,1.0334045626322885,0.5526804072239708,0.25929372173633225,0.40455554935906296,0.9517723783306764,0.6331230779869528,0.3206504620201059,0.380905496950091,0.9547936416453064,0.5742660618861266,0.344147395962881,0.4097583894601304,1.0491999305526487,0.5873849763265923,0.2773646854478478,0.38533846385575204,1.0285805484293906,0.6348789277140898,0.2780556667926784,0.36832542710982497,1.0229547227258375,0.608207275538682,0.2803925887768072,0.3975202055871539,0.9560411472113578,0.6359695826808219,0.3298091610890521,0.40636339243433,1.0134588500332715,0.5518681349576289,0.3419946359419494,0.31607791991801437,0.9947811123136351,0.5743739735205757,0.30598674080681454,0.327054937015323,0.9657459184633734,0.5950228765472171,0.3851781553179509,0.31792805679593383,1.0206544065839132,0.6742263602766769,0.33003696085107226,0.37241813588964695,1.0135023718995995,0.5042194477316735,0.36068125184564753,0.22718230825759336,0.9312554703397423,0.5589149057151673,0.436962297303334,0.27309891142702203,0.8425892506032555,0.4752051517529038,0.3862542017977876,0.17952405796596776,0.8513618318077915,0.5728600307678009,0.4203631496208793,0.1352721752396863,0.5096279321009383,0.4332261916878313,0.45854529103978425,0.16314760669295075,0.8595440349949233,0.5672746764664821,0.39122759701382853,0.08260210469163819,0.48528882012874053,0.4903899160268281,0.45176149808305094,0.2067752752112895,0.8780135855212271,0.5129979815119509,0.36018055325928455,0.09945991897522323,0.46794478726104705,0.4348646700939163,0.4343776326223425,0.15486362704209794,0.7363342675731417,0.4963927321365457,0.3678654109008802,0.07785732497688859,0.4280224462619483,0.5336327259408014,0.40099826656693516,0.10447801444703482,0.9977252624831033,0.5931189290943434,0.49052498070635453,0.15318399871429045,0.9627667467471861,0.4464929273694297,0.4714046980697489,0.100211242754869,0.9634775574962791,0.4914302517014763,0.5156841068662581,0.057839166710285946,0.9008288867324085,0.3722011082197896,0.5210138180054352,0.0116424920781842,0.8866363114134612,0.47791341817868727,0.5282274280180299,-0.06013708498329791,0.8151269853861677,0.383441905493082,0.511667294768883,-0.07972737732219246,0.8408695272991666,0.5094381457276648,0.5053194827795704,-0.06302852531673771,0.773250063952605,0.39892432951666806,0.5317365752892672,0.019946240728307023,0.5796165627637397,0.42697019855619633,0.5829107216390663,-0.08980056475987702,0.5454676762688117
107,0.5102085622202174,0.30114933815444445,0.1629578821335887,0.9713179411516087,0.5660086435926276,0.28155181923323885,0.145930881919959,1.0334045626322885,0.4923596959517226,0.26369430285777695,0.17627088002509325,0.952374325638263,0.5727796392029649,0.3251407481319375,0.15266254591540634,0.9547936416453064,0.5140452646884845,0.34763385044972794,0.18281744976167266,1.0491999305526487,0.5271163851525674,0.2804542922097802,0.1582648454995209,1.029493035936257,0.5746055121322529,0.2807369817378993,0.14129746860151737,1.0229547227258375,0.5554728360222929,0.28363496224329887,0.1967612199634691,0.9566645521910636,0.5831292674590084,0.33023333754359613,0.20935984090290258,1.0148019810986402,0.4951721101787183,0.3468583451532989,0.10057080366893328,0.9917219635251828,0.51754293143707,0.31023887656044613,0.11249733210645393,0.9634780809389594,0.5601845371527104,0.3957100576311834,0.1881053782136723,1.0210167432195028,0.6364812192226108,0.32915066958558464,0.23928953046043883,1.0104859596414513,0.4909901314889827,0.3642957967141168,0.17958681508022786,0.9392082200688989,0.5467273760682192,0.4403353539534958,0.21376352644180635,0.21026322881275103,0.4786806810750558,0.38802064505035105,0.2168570575360034,0.8168457952973239,0.5883087377879576,0.4060073113220817,0.1402891535085116,0.06376438715998967,0.4426015373589755,0.45888766011937404,0.2184573320925975,0.8135366402042739,0.5851133899200168,0.36951818467747904,0.09897090562118444,0.09546668724328446,0.49211810959908286,0.45296521388428995,0.2511002790975776,0.8281263455882132,0.5323024853454057,0.3398608828205181,0.11473529077578991,0.08103568982795684,0.4344660163764855,0.4347865800901464,0.19156059868700717,0.6445326838062044,0.5152663384115452,0.3507939849861158,0.08694680315771598,0.05006812714249482,0.5321841152517062,0.43452632628792814,0.09576264495022925,0.9974818967184855,0.5918718585193982,0.5152076217357124,0.16120998693135072,0.9625040094730162,0.47307693398876816,0.5722507502395487,0.09784708994777722,0.7954630311290917,0.5005694570989082,0.6025256007112441,0.09201990061366228,0.9191432483046741,0.4329644595262757,0.6811728992260621,0.06847976389603048,0.5825830644385162,0.5179116348490844,0.6575755272497499,0.08432753027192144,0.886491328552519,0.4481543003182637,0.6800427570625078,-0.01734310258560033,0.5354026369640836,0.5484469487912612,0.6396067209006031,0.08846569038829327,0.8721246924964587,0.4580708209270301,0.7173831092553317,0.0489842792603326,0.11776328210024938,0.4737118899697857,0.7183653167280251,0.045910386618944664,0.3660077766048865
108,0.5362205457440157,0.29743039575065106,0.24893787571884418,0.9713179411516087,0.590399524676024,0.27773965516501675,0.22668924967757828,1.0334045626322885,0.5170987314806259,0.25994999867763163,0.2570143850240234,0.9529098137669252,0.597872777284612,0.3214707411415048,0.23350751229784117,0.9547936416453064,0.5376849863150703,0.3435369549934138,0.2649707986643016,1.0491999305526487,0.5503680432466801,0.2761787616330742,0.24038872760953642,1.0301137587069478,0.5975052100422635,0.2762372184875484,0.2233590466339797,1.0229547227258375,0.5711118151758181,0.27888307134554796,0.24327216714548866,0.9574565191061942,0.59803790329062,0.3243480941277636,0.26439939479175967,1.015745164997566,0.5183930021326295,0.34198343026873157,0.17350171393104571,0.9918964859250851,0.5404249677454247,0.30509648583244936,0.18815181583487198,0.9661385342585089,0.5634271503470472,0.3892326420695073,0.18582748228321433,1.0169823432332357,0.6465630122461732,0.31810449839723015,0.2762508525299558,1.0278934365434595,0.47846701279687415,0.35079415257959534,0.12360531917920523,0.8562973247213037,0.5598710380036191,0.4139930215903671,0.27089465380620414,0.579997828999099,0.4561155467036665,0.36161614504272166,0.11239375853141953,0.5462850538727634,0.6265525876355581,0.386317423560012,0.27565565582833845,0.25379910448138554,0.4165695891071375,0.42951547465070034,0.10326563058684159,0.5268895290268294,0.6299694638174037,0.35173171164166667,0.251213930255482,0.2884831641724723,0.4723169967239935,0.42323319517510716,0.14436346723000132,0.558622752143389,0.576775144579991,0.32332443839493513,0.2662588977100877,0.2779278321237943,0.41592023075482726,0.4061161797090582,0.08921895261957341,0.4130251142547365,0.5546904526783533,0.3336537455089582,0.22348222335065637,0.2097396870723426,0.536282494476409,0.42006778918618254,0.09287482258882347,0.9975787542662455,0.5962367947635067,0.49955261079706803,0.16650515798186163,0.9627269308444761,0.4896707570866753,0.5699894096214152,0.12377348272942784,0.8686416204731163,0.5293766581962752,0.5944714634813246,0.14923420068547083,0.9182861931174489,0.45025420537773303,0.6826742806233094,0.08375317721110574,0.5560428446547332,0.5543316174546082,0.6601464543928468,0.12260397708800216,0.7679449618609296,0.46527228039043467,0.6774860158248674,-0.001306557763479571,0.4314593486378201,0.5862211565056088,0.6433547205687244,0.12706976331786107,0.665507337149779,0.48821168916600227,0.7206818687157809,0.10672412320445887,0.13304615143923856,0.5191220238104439,0.7221517017873818,0.12006309493577222,0.319745780574079
109,0.5375463849200023,0.29863211479629015,0.24298748668393372,0.9713179411516087,0.5939221417066549,0.2792374900859,0.22615209265099923,1.0334045626322885,0.5206554027904209,0.2615110145219767,0.25649565299992566,0.8967143162541078,0.6014709454919572,0.3230696059352823,0.23293152287219043,0.9547936416453064,0.5408710995827867,0.34515307533185374,0.2617896585546275,1.0491999305526487,0.5537942451873855,0.2779588841516137,0.23726170522597453,0.9582290669917073,0.6011206137711262,0.27821633111267047,0.22024987208057228,1.0229547227258375,0.5824805378434736,0.282634736699323,0.2664640728114365,0.9142389793189019,0.6074015921529232,0.32855749335109125,0.2772505635914028,0.9271028062176586,0.5224010946730417,0.3450307475351958,0.17590638401434783,0.8686098810437985,0.5437642578170573,0.3083074774534668,0.1873877772184583,0.8153794333445075,0.579118034497402,0.3937925464064367,0.22820392235242076,1.0185293221837362,0.6559346738889027,0.32806407691132927,0.2883405455491805,0.9838435774965234,0.5036640773685065,0.35798420127420594,0.19049762327906591,0.7738077746076257,0.5527043997483149,0.4411098567077072,0.2072198747465599,0.13705987373882222,0.4828341229866993,0.37474782314712224,0.1932300533409979,0.5022739378449314,0.5814378110452582,0.43421672938047706,0.08873716498025147,0.01966536918227517,0.44697652056432813,0.4431364174817398,0.19542572422801674,0.5090310833824507,0.5806457665778519,0.40463497640263774,0.04873845816470426,0.02697886423379346,0.4967361922077426,0.43568260871308634,0.2289921449001047,0.5283801600470601,0.5290390057591704,0.37548318153801685,0.07008012106458404,0.003399544772662747,0.43853788888614453,0.4190296154066137,0.1674851530432719,0.3212167355582948,0.50852873293658,0.3843955074317945,0.03604441136910484,-0.017082882893973673,0.5355989646060091,0.42153665624970493,0.09042504874011774,0.9975118182501628,0.5975804421188833,0.5052900644961801,0.169190687729174,0.9623564283725523,0.47845898191399394,0.5398587252456523,0.08488951567246955,0.0638591218452152,0.5206511769356847,0.5982827632821974,0.11861187987746619,0.6835766918509693,0.4296526406343401,0.64457224986922,0.016189805967911503,0.04295257315199994,0.5483537787117858,0.6582679544081056,0.1019085947748692,0.5230823457987653,0.44289705787766476,0.6438465848251116,-0.07369210709150534,0.0684075243661412,0.5808646134762592,0.6427146858931263,0.10641991089605084,0.5447257962791126,0.4649245857138032,0.6910982357697665,0.019418022462932012,-0.0018800778104474175,0.5101997702048109,0.7206404856237465,0.07858008827315291,0.12676193718790565
110,0.5556849539009482,0.2981490787550304,0.31787095594713444,0.9713179411516087,0.6116535547059664,0.27834336080962435,0.2986360671201938,1.0334045626322885,0.538465385774312,0.26094491940822245,0.3289396181808814,0.9322725399784729,0.6193685033913492,0.3228701985961862,0.3053810046808175,0.9547936416453064,0.5582279141635743,0.34331367599408524,0.33246076390990836,1.0491999305526487,0.571317272148614,0.2757576846200585,0.30805691019983544,1.015721621179482,0.6188471739947092,0.2756334234359737,0.29111363434890175,1.0229547227258375,0.5966122505380543,0.2828997389499944,0.32255255610221717,0.9437233109267202,0.6198937705069407,0.32565677370845214,0.32570815450425356,1.0063054581951976,0.5392071816874616,0.34522788989779046,0.24474188967822708,0.9441809412244626,0.5601683061800545,0.3073048677236999,0.2543133530347702,0.9263684675203803,0.5915162505184223,0.3950836724192388,0.26589067638044805,1.011439707315572,0.667065160630002,0.3276212740052929,0.3223408920503972,1.033951473824496,0.5265113422459102,0.35726393874674006,0.2525365623701546,0.11713791948982781,0.5752767085342292,0.4370334354468735,0.2698055888732373,0.34453018645339895,0.5264895924818046,0.37030110803062144,0.3117219898719189,0.105184262776076,0.6334517880519197,0.43840330002485567,0.23747392312658985,0.11158727237527216,0.4929624585845531,0.4376334186528518,0.3163203182009563,0.15908658871778159,0.6382849565746405,0.40929254295003153,0.2101749053468185,0.10215564713984895,0.5454138671970158,0.4309956570758183,0.35318698874867455,0.17233247013235686,0.5864909028147006,0.38120093590203047,0.23425737557612916,0.07838668060020414,0.48566471385341015,0.414908073429685,0.2884514844143566,0.05177225501992657,0.5611817888493047,0.3899982844360365,0.18685353491314322,0.04008507929951543,0.5424573075240338,0.4213950058113962,0.09841361524513277,0.9972753666243388,0.599983410413801,0.5047156545344795,0.16381200478171162,0.962334493863275,0.49489293062175244,0.5561021830398417,0.12018622204838905,0.11811721880838238,0.5169660040942481,0.5961846797861037,0.1197012201244726,0.44137807558471864,0.43930740371121324,0.6655158319271729,0.040970979057725815,0.14392904400985862,0.5286974263489124,0.6571544204344117,0.0632154588432166,0.39665949352100954,0.4520265885136947,0.6626730099006426,-0.047579084926291065,0.186564382154704,0.5604525110198127,0.6379572815657337,0.06556439453582132,0.3272300568191211,0.47752760715330567,0.7016978489594637,0.06434305197497564,0.02717587847499948,0.49074373378725317,0.7166445306333595,0.05987211607217167,0.14015810345291646
