frame,NOSE.x,NOSE.y,NOSE.z,NOSE.v,LEFT_EYE_INNER.x,LEFT_EYE_INNER.y,LEFT_EYE_INNER.z,LEFT_EYE_INNER.v,LEFT_EYE.x,LEFT_EYE.y,LEFT_EYE.z,LEFT_EYE.v,LEFT_EYE_OUTER.x,LEFT_EYE_OUTER.y,LEFT_EYE_OUTER.z,LEFT_EYE_OUTER.v,RIGHT_EYE_INNER.x,RIGHT_EYE_INNER.y,RIGHT_EYE_INNER.z,RIGHT_EYE_INNER.v,RIGHT_EYE.x,RIGHT_EYE.y,RIGHT_EYE.z,RIGHT_EYE.v,RIGHT_EYE_OUTER.x,RIGHT_EYE_OUTER.y,RIGHT_EYE_OUTER.z,RIGHT_EYE_OUTER.v,LEFT_EAR.x,LEFT_EAR.y,LEFT_EAR.z,LEFT_EAR.v,RIGHT_EAR.x,RIGHT_EAR.y,RIGHT_EAR.z,RIGHT_EAR.v,MOUTH_LEFT.x,MOUTH_LEFT.y,MOUTH_LEFT.z,MOUTH_LEFT.v,MOUTH_RIGHT.x,MOUTH_RIGHT.y,MOUTH_RIGHT.z,MOUTH_RIGHT.v,LEFT_SHOULDER.x,LEFT_SHOULDER.y,LEFT_SHOULDER.z,LEFT_SHOULDER.v,RIGHT_SHOULDER.x,RIGHT_SHOULDER.y,RIGHT_SHOULDER.z,RIGHT_SHOULDER.v,LEFT_ELBOW.x,LEFT_ELBOW.y,LEFT_ELBOW.z,LEFT_ELBOW.v,RIGHT_ELBOW.x,RIGHT_ELBOW.y,RIGHT_ELBOW.z,RIGHT_ELBOW.v,LEFT_WRIST.x,LEFT_WRIST.y,LEFT_WRIST.z,LEFT_WRIST.v,RIGHT_WRIST.x,RIGHT_WRIST.y,RIGHT_WRIST.z,RIGHT_WRIST.v,LEFT_PINKY.x,LEFT_PINKY.y,LEFT_PINKY.z,LEFT_PINKY.v,RIGHT_PINKY.x,RIGHT_PINKY.y,RIGHT_PINKY.z,RIGHT_PINKY.v,LEFT_INDEX.x,LEFT_INDEX.y,LEFT_INDEX.z,LEFT_INDEX.v,RIGHT_INDEX.x,RIGHT_INDEX.y,RIGHT_INDEX.z,RIGHT_INDEX.v,LEFT_THUMB.x,LEFT_THUMB.y,LEFT_THUMB.z,LEFT_THUMB.v,RIGHT_THUMB.x,RIGHT_THUMB.y,RIGHT_THUMB.z,RIGHT_THUMB.v,LEFT_HIP.x,LEFT_HIP.y,LEFT_HIP.z,LEFT_HIP.v,RIGHT_HIP.x,RIGHT_HIP.y,RIGHT_HIP.z,RIGHT_HIP.v,LEFT_KNEE.x,LEFT_KNEE.y,LEFT_KNEE.z,LEFT_KNEE.v,RIGHT_KNEE.x,RIGHT_KNEE.y,RIGHT_KNEE.z,RIGHT_KNEE.v,LEFT_ANKLE.x,LEFT_ANKLE.y,LEFT_ANKLE.z,LEFT_ANKLE.v,RIGHT_ANKLE.x,RIGHT_ANKLE.y,RIGHT_ANKLE.z,RIGHT_ANKLE.v,LEFT_HEEL.x,LEFT_HEEL.y,LEFT_HEEL.z,LEFT_HEEL.v,RIGHT_HEEL.x,RIGHT_HEEL.y,RIGHT_HEEL.z,RIGHT_HEEL.v,LEFT_FOOT_INDEX.x,LEFT_FOOT_INDEX.y,LEFT_FOOT_INDEX.z,LEFT_FOOT_INDEX.v,RIGHT_FOOT_INDEX.x,RIGHT_FOOT_INDEX.y,RIGHT_FOOT_INDEX.z,RIGHT_FOOT_INDEX.v
0,,,,,,,,,,,,,,,,,,,,,,,,,,,,,,,,,,,,,,,,,,,,,,,,,,,,,,,,,,,,,,,,,,,,,,,,,,,,,,,,,,,,,,,,,,,,,,,,,,,,,,,,,,,,,,,,,,,,,,,,,,,,,,,,,,,,
1,,,,,,,,,,,,,,,,,,,,,,,,,,,,,,,,,,,,,,,,,,,,,,,,,,,,,,,,,,,,,,,,,,,,,,,,,,,,,,,,,,,,,,,,,,,,,,,,,,,,,,,,,,,,,,,,,,,,,,,,,,,,,,,,,,,,
2,,,,,,,,,,,,,,,,,,,,,,,,,,,,,,,,,,,,,,,,,,,,,,,,,,,,,,,,,,,,,,,,,,,,,,,,,,,,,,,,,,,,,,,,,,,,,,,,,,,,,,,,,,,,,,,,,,,,,,,,,,,,,,,,,,,,
3,,,,,,,,,,,,,,,,,,,,,,,,,,,,,,,,,,,,,,,,,,,,,,,,,,,,,,,,,,,,,,,,,,,,,,,,,,,,,,,,,,,,,,,,,,,,,,,,,,,,,,,,,,,,,,,,,,,,,,,,,,,,,,,,,,,,
4,,,,,,,,,,,,,,,,,,,,,,,,,,,,,,,,,,,,,,,,,,,,,,,,,,,,,,,,,,,,,,,,,,,,,,,,,,,,,,,,,,,,,,,,,,,,,,,,,,,,,,,,,,,,,,,,,,,,,,,,,,,,,,,,,,,,
5,,,,,,,,,,,,,,,,,,,,,,,,,,,,,,,,,,,,,,,,,,,,,,,,,,,,,,,,,,,,,,,,,,,,,,,,,,,,,,,,,,,,,,,,,,,,,,,,,,,,,,,,,,,,,,,,,,,,,,,,,,,,,,,,,,,,
6,,,,,,,,,,,,,,,,,,,,,,,,,,,,,,,,,,,,,,,,,,,,,,,,,,,,,,,,,,,,,,,,,,,,,,,,,,,,,,,,,,,,,,,,,,,,,,,,,,,,,,,,,,,,,,,,,,,,,,,,,,,,,,,,,,,,
7,,,,,,,,,,,,,,,,,,,,,,,,,,,,,,,,,,,,,,,,,,,,,,,,,,,,,,,,,,,,,,,,,,,,,,,,,,,,,,,,,,,,,,,,,,,,,,,,,,,,,,,,,,,,,,,,,,,,,,,,,,,,,,,,,,,,
8,,,,,,,,,,,,,,,,,,,,,,,,,,,,,,,,,,,,,,,,,,,,,,,,,,,,,,,,,,,,,,,,,,,,,,,,,,,,,,,,,,,,,,,,,,,,,,,,,,,,,,,,,,,,,,,,,,,,,,,,,,,,,,,,,,,,
9,,,,,,,,,,,,,,,,,,,,,,,,,,,,,,,,,,,,,,,,,,,,,,,,,,,,,,,,,,,,,,,,,,,,,,,,,,,,,,,,,,,,,,,,,,,,,,,,,,,,,,,,,,,,,,,,,,,,,,,,,,,,,,,,,,,,
10,,,,,,,,,,,,,,,,,,,,,,,,,,,,,,,,,,,,,,,,,,,,,,,,,,,,,,,,,,,,,,,,,,,,,,,,,,,,,,,,,,,,,,,,,,,,,,,,,,,,,,,,,,,,,,,,,,,,,,,,,,,,,,,,,,,,
11,,,,,,,,,,,,,,,,,,,,,,,,,,,,,,,,,,,,,,,,,,,,,,,,,,,,,,,,,,,,,,,,,,,,,,,,,,,,,,,,,,,,,,,,,,,,,,,,,,,,,,,,,,,,,,,,,,,,,,,,,,,,,,,,,,,,
12,,,,,,,,,,,,,,,,,,,,,,,,,,,,,,,,,,,,,,,,,,,,,,,,,,,,,,,,,,,,,,,,,,,,,,,,,,,,,,,,,,,,,,,,,,,,,,,,,,,,,,,,,,,,,,,,,,,,,,,,,,,,,,,,,,,,
13,,,,,,,,,,,,,,,,,,,,,,,,,,,,,,,,,,,,,,,,,,,,,,,,,,,,,,,,,,,,,,,,,,,,,,,,,,,,,,,,,,,,,,,,,,,,,,,,,,,,,,,,,,,,,,,,,,,,,,,,,,,,,,,,,,,,
14,,,,,,,,,,,,,,,,,,,,,,,,,,,,,,,,,,,,,,,,,,,,,,,,,,,,,,,,,,,,,,,,,,,,,,,,,,,,,,,,,,,,,,,,,,,,,,,,,,,,,,,,,,,,,,,,,,,,,,,,,,,,,,,,,,,,
15,,,,,,,,,,,,,,,,,,,,,,,,,,,,,,,,,,,,,,,,,,,,,,,,,,,,,,,,,,,,,,,,,,,,,,,,,,,,,,,,,,,,,,,,,,,,,,,,,,,,,,,,,,,,,,,,,,,,,,,,,,,,,,,,,,,,
16,0.7862452070479186,0.5598515229758223,0.7197801990877505,1.0344487605025177,0.6976315928212109,0.539117653108863,0.7193158910458985,0.944899761177598,0.7594636916495849,0.49909300930467176,0.7179947706540974,0.9896594578254765,0.7767609691379881,0.5532420177708213,0.709006910678253,1.001786537105855,0.7833989688662006,0.5727359150158394,0.7472396036815888,0.9835905574784659,0.8211317246129971,0.5115546047336763,0.8175338380004038,0.984012935693222,0.8039115966235676,0.49306770192793115,0.798237233888661,0.9371274725952591,0.6369841553701099,0.5016861796204067,0.6047877127286436,0.9564937586101341,0.7297572687240516,0.45852038855463406,0.7984557466882988,0.8514412377991025,0.6561533615640989,0.5810708361249723,0.6585664804818986,0.9533173641635441,0.7331490951737852,0.5183237986827992,0.7094569563700227,0.9556640073939643,0.49927255752829786,0.4751352143510147,0.48897379387319756,1.0418124979915868,0.6663025432228576,0.47227558034544864,0.6716317721622928,0.9186825531340075,0.3870685996483566,0.6561055888007651,0.33515387025414767,0.7669624075536391,0.6304972316188711,0.5870927374417515,0.6639361281340536,0.8020821012292011,0.4101019916663567,0.7788419781261096,0.4441317028732749,0.8041303544267374,0.6653845703591147,0.7844652697197091,0.7011108059537237,0.8350370181372655,0.5275064809401173,0.8354680355373875,0.43800899100956026,0.708075204526638,0.7807490538520526,0.8098337880291939,0.7450338600448063,0.8438243022784451,0.5336894140480637,0.7799308807490959,0.5686165448602649,0.7526445041620888,0.7323914733336223,0.7678175893790444,0.7928231794576347,0.8430955812220685,0.49853507787145607,0.7380505284156295,0.42648650765325075,0.7520881825153817,0.7175833027386461,0.7755264298064203,0.6834679294303759,0.633531940082495,-0.0650928678971995,0.5335004144500336,-0.021477007250845337,0.9987251026620481,0.07834316021766677,0.5759875811716213,0.08859183847855262,0.9455441307631839,-0.49193148058198854,0.6097000125355938,-0.40399532934067633,0.15588323761891082,-0.31294641819518043,0.6295010823383373,-0.3807394481537938,0.35822000300921936,-0.9373767662430469,0.6415564835410646,-0.9127429634057448,0.21135071769631184,-0.7786727648730645,0.6622887032931659,-0.7951523448691846,0.617846679610756,-0.9148656751895068,0.5769901960616791,-0.9649946176150135,0.11863715533300034,-0.8130466634000314,0.6401474842499596,-0.8673835137530099,0.3674585182422319,-0.8684069599573147,0.6678586451582282,-0.9400791316948004,0.4885623908554931,-0.7500894026692456,0.6968884466110822,-0.7383648785066051,0.6898602789408559
17,,,,,,,,,,,,,,,,,,,,,,,,,,,,,,,,,,,,,,,,,,,,,,,,,,,,,,,,,,,,,,,,,,,,,,,,,,,,,,,,,,,,,,,,,,,,,,,,,,,,,,,,,,,,,,,,,,,,,,,,,,,,,,,,,,,,
18,,,,,,,,,,,,,,,,,,,,,,,,,,,,,,,,,,,,,,,,,,,,,,,,,,,,,,,,,,,,,,,,,,,,,,,,,,,,,,,,,,,,,,,,,,,,,,,,,,,,,,,,,,,,,,,,,,,,,,,,,,,,,,,,,,,,
19,,,,,,,,,,,,,,,,,,,,,,,,,,,,,,,,,,,,,,,,,,,,,,,,,,,,,,,,,,,,,,,,,,,,,,,,,,,,,,,,,,,,,,,,,,,,,,,,,,,,,,,,,,,,,,,,,,,,,,,,,,,,,,,,,,,,
20,0.4801286290935861,0.6614229636725386,0.4119446250390561,1.0356918749739532,0.4206900981972335,0.640179652906684,0.4408191977583003,0.9467560882344828,0.48234878343499166,0.5953311455961756,0.4393236561992411,0.9921011024940556,0.49950735021123727,0.6467090149174277,0.430196283076514,1.0028048228571977,0.48983218409548673,0.6812288854824532,0.4520243901498022,0.9850268506036187,0.5276007327425031,0.6236974656231111,0.5223546753858694,0.986016247804123,0.5104102973590835,0.6079639993827651,0.5030880891589675,0.9389624015846695,0.47083329349091785,0.5855361461464382,0.4377039778568,0.9595441455158042,0.4960925257339972,0.6031937360277786,0.563479295890737,0.8619428013481443,0.3884169976296577,0.6775099592786589,0.3893266783800324,0.9546584090663455,0.44540442532151053,0.6208990412021779,0.4200965997832157,0.9585063144847235,0.376861072618406,0.4614420008881851,0.36587371085515147,1.0418090409221898,0.48629780206262624,0.6550921751845448,0.49061825228171263,0.9222840445852709,0.16237877981683985,0.49741454017863374,0.10919897636875846,0.7020334586743971,0.40798428124326286,0.7069542210156651,0.4401754054397723,0.8228545583520038,-0.058942593909987163,0.5836927352481494,-0.027550258169746527,0.7254970460160929,0.32771740822727596,0.815690891419996,0.36154843158543876,0.8454309953024877,0.007939124679507276,0.6203179772678867,-0.08448016545442166,0.6390030771844138,0.3954595216538522,0.8388564220585824,0.35758074311671184,0.8575636497363308,-0.0007162744787628204,0.5938914329646721,0.031205770030913852,0.6799437056505837,0.3495998694993782,0.7924145189292153,0.40788214035003284,0.857274989772331,0.01674697138106885,0.562011190303752,-0.05801075911768043,0.6811905437176217,0.3762094608234541,0.7960248247725458,0.340177490854898,0.6596596361197875,-0.049911012149878545,0.5550445729087433,-0.006209922380006859,0.9999653561105345,0.06294976952298889,0.6970483101984157,0.0731133272989917,0.9469254684058537,-0.4110277950670074,0.5895964387364605,-0.3226372037007115,0.15422461916874602,-0.2660798638981754,0.6985054988040966,-0.33360856327670024,0.3434501806501343,-0.7661365380272603,0.6436965287070803,-0.740541279149395,0.24841509118950644,-0.6414486081367896,0.7371660250132892,-0.6571574038065082,0.6519579409785539,-0.7384862307136209,0.5864932626014435,-0.7876252535559742,0.18330585543199165,-0.6710207914249374,0.7181930908631188,-0.7245597637548439,0.4163072962516466,-0.7649411943245649,0.6435988990835517,-0.8360319562184269,0.4527098095929046,-0.675544661302124,0.7266452310501691,-0.6634005065896644,0.6518354362017507
21,,,,,,,,,,,,,,,,,,,,,,,,,,,,,,,,,,,,,,,,,,,,,,,,,,,,,,,,,,,,,,,,,,,,,,,,,,,,,,,,,,,,,,,,,,,,,,,,,,,,,,,,,,,,,,,,,,,,,,,,,,,,,,,,,,,,
22,0.5079462033296677,0.69544440084066,0.4399185221378811,1.036703544609726,0.4332019362616798,0.6683387348425666,0.4534014810144814,0.9482901925817118,0.49498614071368424,0.6250693929907374,0.4520321993540849,0.9940901094902104,0.5122356175698809,0.6762490768681113,0.4429962632887863,1.0036268901179402,0.5089027284000555,0.711024710963868,0.47120207103556533,0.9862335466370963,0.5466513360378136,0.6529919564373201,0.5415122899803836,0.9877039533209382,0.5294227578145096,0.6378522120635818,0.5222072492018853,0.9405393020668473,0.44852192868995483,0.6227672934357144,0.41526733325840026,0.9620332950862692,0.5004174104096458,0.6086348056307449,0.5678284578801407,0.8712035154022519,0.40707474286040773,0.7093514161687651,0.4080893528186054,0.9558630189372561,0.472090623153192,0.652962644603362,0.44693287093567635,0.9610501811190925,0.3523805932088472,0.5470607352479263,0.3412570956123453,1.0418237632694494,0.47792278404861976,0.6034507109511463,0.4821949617378801,0.9254942315435839,0.20369973956315385,0.6675708998511801,0.15075412141111438,0.6490876063947341,0.4291761570003018,0.6645617883259983,0.4614842622281853,0.8229389585290058,0.13315190320423995,0.7870031056934008,0.16562588578439022,0.6741834073289591,0.4312856598666556,0.8191970154396188,0.4656954704965911,0.8446612013152135,0.22745742267084998,0.8390516455952183,0.1362746107212425,0.5953393966309776,0.5293709567002528,0.8380899659314156,0.4922412087859866,0.8535060039386013,0.23117504934764083,0.8017717511294975,0.2644030197279908,0.6379566441500344,0.4820866809473084,0.8072415915496072,0.5411101351450229,0.8543863102679364,0.21911715659414882,0.7592036207999678,0.1454991987909086,0.6397833758060921,0.4851416941691166,0.8168123618704767,0.4497187904427725,0.6649999142684386,-0.05782156428565341,0.5945125037025055,-0.014163740741387862,1.0010834200372312,0.07056597015487412,0.6850687302728786,0.08077212852207626,0.9481676292029728,-0.42041653376067,0.6519148233838299,-0.33207506442274726,0.15088836838673303,-0.21347251304075596,0.7290299910678906,-0.28070415178702757,0.33171891367473144,-0.7750139278132655,0.6916389882903627,-0.7494638774851683,0.23422370210564414,-0.629305777117368,0.7332456487124774,-0.6449424405990953,0.621670138759163,-0.7455765974076658,0.6266867607360566,-0.7947504711082667,0.16975028399510966,-0.6624946281333435,0.711412824101339,-0.7159816967073932,0.391017403101317,-0.7569787340908524,0.704395934777674,-0.8280202574550195,0.4213217354332824,-0.6727097995745721,0.7378152010857221,-0.6605461498879719,0.6164852326876515
23,0.6071404000686379,0.7026134090956648,0.53967001981621,1.0372853455473785,0.5285188289530595,0.6803565213454047,0.549253874155966,0.9492724771276102,0.59034464764371,0.6381373537298731,0.5479264441735332,0.995373814724738,0.6075997312075987,0.6897488732586448,0.5388961562013065,1.0040601562808125,0.6052984591694155,0.7188451383816231,0.5681393549979634,0.9871123575196648,0.6431288969744198,0.6595521628505892,0.638531842405947,0.9890071492743072,0.6259419249237171,0.6424741350333999,0.6192686348289249,0.9417933241882767,0.5221592215389071,0.6293102145019985,0.48931835281882496,0.9636321896823693,0.5768204225662715,0.6089988111963882,0.6446605477335068,0.8791110252060239,0.4980945771314478,0.7188319521528044,0.4996205573793581,0.9566442570163273,0.5640294534266088,0.6584192710186146,0.5393882034283262,0.9630810305758795,0.4074343374601485,0.561762340091066,0.3966203882694143,1.0417591518345128,0.5372550060212326,0.601857240377721,0.5418601821903924,0.9281881826734972,0.22593828684096556,0.6810327280829916,0.17311802184448807,0.5919337257985732,0.46138395801937293,0.6695247094685765,0.49387279268667555,0.8089083827767475,0.13767133360355277,0.7927911339336047,0.17017081046131438,0.618329086802836,0.4465960702737304,0.828390435849775,0.48109210624713244,0.8362901461890233,0.23205469859548994,0.8503370102230564,0.1408979298529954,0.5479527503602256,0.5434928059746562,0.849218689552784,0.5064427568744672,0.8449361673220852,0.23533340168791556,0.8106115371822014,0.2685848096925464,0.5909940849268593,0.4980402940193878,0.81431296739647,0.5571538839388815,0.847617904830467,0.2226657144269601,0.7633669456328841,0.14906781008072706,0.593527250832795,0.5002656534224313,0.8239383951765985,0.4649281894821711,0.6595218301810668,-0.05746335957320964,0.6019035392592987,-0.013803511926008177,1.00170873236557,0.07014727752191799,0.6765217818399563,0.08035094548794182,0.9492020678130496,-0.4449776962074252,0.6634689453549603,-0.35677425228403464,0.14150702198218063,-0.25853812152014305,0.720703877843861,-0.32602295577349094,0.3025962034467652,-0.8793882261076879,0.6760001004081301,-0.8544241367417935,0.21665910736000812,-0.7264265874074682,0.6988346355861041,-0.7426086169471507,0.5784385322757035,-0.8592372633046897,0.6042007892852509,-0.9090490114858012,0.15388775948567976,-0.7648915202454314,0.6725682386826378,-0.8189534129758619,0.3610848445647874,-0.8653457077350016,0.6890547124914497,-0.9369958603379114,0.3869974768673797,-0.7629887377645465,0.7038818595825788,-0.7513323028765981,0.5715956634051198
24,0.6464799686427912,0.7151433187064131,0.5792305613782505,1.0381820378233795,0.5619654996204785,0.6942528674376288,0.5828884150569256,0.95061000535637,0.6237830642157038,0.6530341637846522,0.5815527002141911,0.9971155816543645,0.6410327065657401,0.7055226464520041,0.5725169610397302,1.004788942272481,0.6419033002297458,0.7303082440601815,0.6049497833148667,0.9881606244073295,0.6797434441951756,0.6702102481968111,0.6753520103117034,0.9904660325598298,0.6625577507027471,0.6520045005004714,0.6560900765711138,0.9431331769981827,0.5294436586859428,0.6425345778290249,0.496643717852967,0.9658035868915367,0.5987956223637371,0.6151419043055191,0.6667589910168373,0.8867827390350647,0.5282163335317759,0.7345777111631193,0.5299115252972745,0.9576406678630373,0.5983904515509227,0.6724884705806874,0.5739421762521622,0.9651739284678779,0.4068957540217482,0.5824425292237564,0.39607876593680846,1.0417330450001012,0.5526626529871093,0.6010696842063038,0.5573541461477715,0.9307522552824449,0.2341877749225496,0.6920507062743674,0.18141383431334654,0.5413876757268569,0.4894570244283249,0.666617969756815,0.5221030176332083,0.8047682441506488,0.15104617061286732,0.7944800315433154,0.18362089183867988,0.5685671954377848,0.48270920326367395,0.8282690211883675,0.5174079970817909,0.8296651495268834,0.24877948374863487,0.8506815846745029,0.15771679198590446,0.5061175018899192,0.5826645681993899,0.8520592681088448,0.5458339076422389,0.8360604396685818,0.2470363181519338,0.8111153752444877,0.28035364627026216,0.5494481574022927,0.5360309467492013,0.8202200261122903,0.5953574135082759,0.8399964973216169,0.2348210940757034,0.7636298617209883,0.16129160287767813,0.552253954953431,0.536268039443807,0.8292567984206171,0.5011323178925483,0.6528166056670592,-0.05757927089178836,0.613993208963736,-0.013920269425565075,1.0022663934220883,0.07032805773483922,0.6755422987123623,0.08053231892060829,0.9501311850158084,-0.4554929446343655,0.666620540947459,-0.3673487529827952,0.13372688730429363,-0.2607187747796513,0.7162853259220165,-0.32821615425265316,0.2787597993616059,-0.8897943523438296,0.6742939770560793,-0.8648888204810001,0.20179737463867944,-0.7289271429041853,0.6956147926753375,-0.7451234694537341,0.5415712117381364,-0.8692218524876343,0.6023460715537751,-0.919089868827951,0.14089823845906846,-0.7674049932956485,0.6697571048210961,-0.8214812120476778,0.3350035209411302,-0.8737777568363001,0.6877403704695075,-0.945475383143942,0.3571151948487182,-0.7607495518356268,0.7036558983742353,-0.7490809721207485,0.5321290737158649
25,,,,,,,,,,,,,,,,,,,,,,,,,,,,,,,,,,,,,,,,,,,,,,,,,,,,,,,,,,,,,,,,,,,,,,,,,,,,,,,,,,,,,,,,,,,,,,,,,,,,,,,,,,,,,,,,,,,,,,,,,,,,,,,,,,,,
26,0.48548252423461496,0.6805774527129134,0.41732847372841336,1.038932341091812,0.41263688672153215,0.6587861368429938,0.43272067616140114,0.95177766034752,0.4744004873116476,0.6233526004072718,0.4313307206108362,0.9986529046524113,0.4916614881909969,0.6756777663479392,0.422306377061963,1.0054435204814045,0.48997535115262125,0.6982669924007882,0.4521682385060655,0.9890382431970023,0.5277392706291538,0.6405972301609224,0.5224938076664842,0.9916909676146088,0.5105171134441461,0.6350274287383865,0.5031950645766399,0.9442694799461807,0.439067261435951,0.6143208980385281,0.4057594800303699,0.9677731627734947,0.4970401860615036,0.5951514005175247,0.5644321313500283,0.8935209845222776,0.3882047872365382,0.6947761135679045,0.38911316130237095,0.9585228166057131,0.454991194143912,0.6369479494358204,0.42973719122178733,0.9669959232493719,0.3504330128060487,0.5340467763169571,0.3392984916070392,1.0417570656719457,0.48029212834816304,0.5933424188483326,0.48457750043401243,0.9330300467825365,0.19230549013908144,0.6553938497375021,0.13929583414193283,0.49817651363655535,0.4106374451146741,0.6549258630330296,0.44284142136309773,0.7951370276246174,0.12245321154077884,0.7781150398784289,0.1548670010089395,0.5250972895845133,0.3811671040309942,0.8138672277084481,0.41529616063329305,0.8217323077490819,0.21508472639550538,0.8370955403629795,0.12383244715053865,0.46856228414699924,0.4712640309968163,0.8377850881733895,0.4338088155048812,0.8274152627810696,0.21896529868029835,0.8000613958476677,0.252124589626751,0.5122376333201089,0.4245603141943817,0.8000056472785195,0.48326162516517224,0.832165639091026,0.20822261530014596,0.7567693075026961,0.13454334365558,0.5170089536373604,0.43358095233359784,0.8075713769537897,0.39786934616344855,0.6501370192565368,-0.06059478758588202,0.5898663216422638,-0.016952878086079225,1.0031583173265073,0.07345195433999935,0.6814240850587978,0.08367415377171855,0.9510496925917973,-0.3929387749038846,0.635866272778056,-0.3044439622888986,0.12824200828741744,-0.2123495082104501,0.7239225882663769,-0.2795749996245095,0.27120145356692815,-0.7664619620821796,0.6813024103980593,-0.7408654423899236,0.18921562388813773,-0.6279275461775047,0.7275107878154132,-0.6435574398127929,0.5285382687278062,-0.7392917336622503,0.6182400673156464,-0.7884318915688379,0.12898119870706184,-0.6610091988409568,0.7042889961670739,-0.7144889931819756,0.3238661546462694,-0.7478590327676932,0.691978201108393,-0.8188511858564892,0.33186893229836417,-0.6726214367636388,0.7351227400719281,-0.6604585497945276,0.5119725709921712
27,,,,,,,,,,,,,,,,,,,,,,,,,,,,,,,,,,,,,,,,,,,,,,,,,,,,,,,,,,,,,,,,,,,,,,,,,,,,,,,,,,,,,,,,,,,,,,,,,,,,,,,,,,,,,,,,,,,,,,,,,,,,,,,,,,,,
28,,,,,,,,,,,,,,,,,,,,,,,,,,,,,,,,,,,,,,,,,,,,,,,,,,,,,,,,,,,,,,,,,,,,,,,,,,,,,,,,,,,,,,,,,,,,,,,,,,,,,,,,,,,,,,,,,,,,,,,,,,,,,,,,,,,,
29,,,,,,,,,,,,,,,,,,,,,,,,,,,,,,,,,,,,,,,,,,,,,,,,,,,,,,,,,,,,,,,,,,,,,,,,,,,,,,,,,,,,,,,,,,,,,,,,,,,,,,,,,,,,,,,,,,,,,,,,,,,,,,,,,,,,
30,,,,,,,,,,,,,,,,,,,,,,,,,,,,,,,,,,,,,,,,,,,,,,,,,,,,,,,,,,,,,,,,,,,,,,,,,,,,,,,,,,,,,,,,,,,,,,,,,,,,,,,,,,,,,,,,,,,,,,,,,,,,,,,,,,,,
31,,,,,,,,,,,,,,,,,,,,,,,,,,,,,,,,,,,,,,,,,,,,,,,,,,,,,,,,,,,,,,,,,,,,,,,,,,,,,,,,,,,,,,,,,,,,,,,,,,,,,,,,,,,,,,,,,,,,,,,,,,,,,,,,,,,,
32,,,,,,,,,,,,,,,,,,,,,,,,,,,,,,,,,,,,,,,,,,,,,,,,,,,,,,,,,,,,,,,,,,,,,,,,,,,,,,,,,,,,,,,,,,,,,,,,,,,,,,,,,,,,,,,,,,,,,,,,,,,,,,,,,,,,
33,,,,,,,,,,,,,,,,,,,,,,,,,,,,,,,,,,,,,,,,,,,,,,,,,,,,,,,,,,,,,,,,,,,,,,,,,,,,,,,,,,,,,,,,,,,,,,,,,,,,,,,,,,,,,,,,,,,,,,,,,,,,,,,,,,,,
34,,,,,,,,,,,,,,,,,,,,,,,,,,,,,,,,,,,,,,,,,,,,,,,,,,,,,,,,,,,,,,,,,,,,,,,,,,,,,,,,,,,,,,,,,,,,,,,,,,,,,,,,,,,,,,,,,,,,,,,,,,,,,,,,,,,,
35,,,,,,,,,,,,,,,,,,,,,,,,,,,,,,,,,,,,,,,,,,,,,,,,,,,,,,,,,,,,,,,,,,,,,,,,,,,,,,,,,,,,,,,,,,,,,,,,,,,,,,,,,,,,,,,,,,,,,,,,,,,,,,,,,,,,
36,0.3869851126390972,0.6421310263213118,0.31827725816052654,1.0397033271719816,0.33647519401382325,0.6169550010931769,0.3561306978315974,0.9529384011998758,0.39811844881871084,0.5757488740202479,0.35461962567294864,1.0001704389083927,0.4153212371737287,0.6176223654995505,0.34553666854134424,1.006087429458913,0.4030457239897125,0.6691866014706124,0.3647498273518784,0.9899249218926811,0.4408084670424175,0.6168618857509798,0.4350743517504894,0.9929167967390596,0.4236278183954736,0.6025531493347,0.4158176033180175,0.9453870074310747,0.43008233124837936,0.561100923997543,0.39672306895188336,0.9696811670573997,0.44368713520166364,0.5951124786844864,0.5107788287642259,0.8998130892433469,0.31080698869600376,0.6523261027913847,0.31128013242347413,0.9593692025615237,0.3643702259664172,0.6041065054203175,0.3386068133499105,0.9687176630183538,0.33393335082962106,0.4628397894128128,0.3227044221521254,1.0417675560894262,0.461885070559055,0.6364679886687367,0.4660679225276773,0.9351992386198473,0.14145714483322186,0.5762350667785178,0.08815975825419362,0.45055875035568677,0.3659742450185891,0.6916056077534886,0.39792847249198676,0.813890317801009,-0.02930167672197369,0.6917873082690844,0.002257379166478359,0.47596249868714385,0.2717052486584097,0.8209725782028329,0.3052198908502754,0.8317701471617711,0.04393923639721477,0.7358696873966709,-0.04827736708490752,0.42579782906696695,0.34178618136345595,0.8445500961461068,0.3036040306620456,0.84051648291199,0.03949264651932823,0.7078844816325798,0.07164107956187271,0.46614509329439774,0.2956200912726041,0.7875083414084634,0.3535979035599516,0.8449713989977948,0.050442304311927054,0.6731707533683272,-0.024125783475778467,0.472053223199128,0.3210410483722884,0.7963837639433832,0.28469782079031714,0.6709724784888671,-0.07233907866363112,0.537802498895987,-0.028764100062345796,1.0039633376588437,0.08545629535191103,0.6885917820116176,0.09574591670734156,0.9518837999907841,-0.423773337540748,0.5782501581616619,-0.33545411067141206,0.12259329845379544,-0.2229087741281536,0.7022716182842297,-0.2901946712614837,0.26397689378299255,-0.7579239517663429,0.6377911389213137,-0.7322824679912977,0.19259252503788754,-0.6025743006426667,0.7286688464587543,-0.6180637762578873,0.5579138516612321,-0.7279321690411311,0.5776787489181244,-0.7770117964946758,0.15679338161035167,-0.6336918866054606,0.708356297917257,-0.6870204926296153,0.3584878403896013,-0.760230853655149,0.6437024323515266,-0.8312952027981464,0.30715914135331107,-0.6604869587896114,0.73213815669409,-0.6482576710229128,0.48727762160366705
37,,,,,,,,,,,,,,,,,,,,,,,,,,,,,,,,,,,,,,,,,,,,,,,,,,,,,,,,,,,,,,,,,,,,,,,,,,,,,,,,,,,,,,,,,,,,,,,,,,,,,,,,,,,,,,,,,,,,,,,,,,,,,,,,,,,,
38,0.5823171633402162,0.707793112331291,0.5147065937476348,1.0402462658812408,0.4994942920438354,0.6894812772047797,0.5200656296104136,0.9538170928731547,0.5612702672097348,0.6482204926725916,0.5186880905852408,1.0013441735733097,0.5785083999531034,0.7008251447926108,0.5096407694486247,1.00657916777831,0.5800091811540511,0.7267598007427681,0.5427073427705963,0.9905752681718255,0.6177984451954074,0.6675325095302767,0.6130584055356284,0.9938330393385468,0.6005364674810416,0.6501655779998611,0.5937197730327209,0.9462282673874345,0.47967662075096074,0.6395387291733242,0.4465966757489983,0.9711966151508141,0.5517745524065493,0.6105075835695877,0.6194732925367322,0.9050396417297666,0.46878628003478673,0.7224917369466581,0.4701468874290527,0.9599791964961549,0.5396450971334118,0.6622022586132191,0.5148660630589602,0.9699964210673651,0.36700816706218214,0.570234007857637,0.3559666772764242,1.0417752450886022,0.5181239549009803,0.5900393082488148,0.5226210324715231,0.9366241472578477,0.19638780887812635,0.681180189974166,0.14340125362040046,0.42729613038345776,0.44673308895233904,0.6601640980298252,0.4791389570628286,0.8146300710473163,0.1366226240986144,0.7956505475574145,0.1691162313474797,0.46689645340287267,0.41735631383013166,0.8104189797989022,0.4516899186952936,0.8331604851058019,0.23435851806436814,0.8449868377033726,0.14321444093723518,0.4226417333237876,0.5107514333527641,0.8208759657063485,0.47352002806941257,0.8432212224826077,0.2326801890556251,0.8020594627498283,0.26591651370475067,0.4660525868857064,0.4637666750791442,0.7757782069213113,0.5226899550258204,0.8486873909716718,0.2198861067016601,0.7562945565070601,0.14627244356338764,0.4739959173862923,0.4696613508091499,0.7858766571623773,0.4341538536908971,0.6779961110152648,-0.07363004305993881,0.606448214609488,-0.03006150431502383,1.0043918950547788,0.08644629891116605,0.6750833429475918,0.09674079344941573,0.9525091719237673,-0.4517048138979781,0.649872231812022,-0.36353977912176366,0.11838721473883343,-0.2269165463295569,0.7192571539058727,-0.29422486198193015,0.27195086276568914,-0.8531797958625476,0.6637246430259279,-0.828070126317472,0.18183145776665494,-0.6530152776501379,0.7001692431872699,-0.6687868105491177,0.5614466189570695,-0.828920610580809,0.5910682171111786,-0.8785639630339539,0.14467672590299235,-0.6882884666686413,0.6705853709648949,-0.7419220710434532,0.3554721433871904,-0.84385133881022,0.6854957191519111,-0.9153825425477458,0.2962557232891936,-0.6953776205620609,0.7143399117409345,-0.6833434618000581,0.49751606044834784
39,,,,,,,,,,,,,,,,,,,,,,,,,,,,,,,,,,,,,,,,,,,,,,,,,,,,,,,,,,,,,,,,,,,,,,,,,,,,,,,,,,,,,,,,,,,,,,,,,,,,,,,,,,,,,,,,,,,,,,,,,,,,,,,,,,,,
40,0.5465004082436129,0.735390837722679,0.4786885505412014,1.0408157882620697,0.46546423306606305,0.7186612674963752,0.48584425402092557,0.9547020430341348,0.5272258664223294,0.6779980195280604,0.4844522699796979,1.0025056296814028,0.5444583793410345,0.7312576074848716,0.47539927268904036,1.0070806216548054,0.5443654235997,0.7540253494488228,0.5068632427299732,0.9912406348214531,0.5821246045039352,0.6937000214702791,0.5771840787665042,0.9947623353552401,0.564834139823854,0.6757335864227126,0.5578168267633872,0.9470799581566299,0.4548720164648937,0.6690832018677212,0.4216523172239775,0.9726504916461752,0.521089774384938,0.63077727551371,0.5886160994332947,0.9099923704780881,0.4365925475163539,0.7484424667936125,0.4377722009168913,0.9605998596622013,0.5057710497158292,0.6849874453807973,0.48080162074343585,0.9712788149997077,0.3466227702339867,0.5881816816552444,0.3354664137309069,1.0417984312954198,0.487728037815618,0.6068334533560841,0.492054549976454,0.9381040113783313,0.16649955557436585,0.6941827644179831,0.11334448822614128,0.3946976349000594,0.40734099607803753,0.6606093447262974,0.43952586164216917,0.8035110033784015,0.08680222991946168,0.7864110527568469,0.11901548723298529,0.4379123835786539,0.3670127244129957,0.808317558442701,0.40106261231336127,0.8249309314063085,0.17883233553456993,0.8381341512981907,0.08737593208494157,0.3990566522233237,0.45455791759696706,0.8325901857533455,0.41700948067857546,0.836307977758334,0.17798242819567986,0.7970619113086357,0.21091131759180945,0.4433277796232857,0.4043714573494064,0.7900852886206826,0.4629601589205123,0.8425653383021466,0.1703048517864722,0.7524517258491011,0.09641250325313153,0.4529948764507759,0.41741511787256486,0.7975740686995477,0.3816134045359357,0.6710876942672179,-0.061983665658879486,0.6156756096671662,-0.018349944024930093,1.0050530297746276,0.07490964356838936,0.6828404702325954,0.08513944518663771,0.9531683396903384,-0.40372566901357243,0.6483209017224529,-0.3152919876646219,0.11305815716456133,-0.23181425797234181,0.7136995572223706,-0.2991497776273855,0.2567729870084717,-0.7784124221456613,0.6726401269774965,-0.7528836246201974,0.17042226448929593,-0.6387644979797511,0.7089928763812396,-0.6544555778334734,0.5429973422713548,-0.7517087870878448,0.6045665829902375,-0.8009192674354139,0.13221250061078654,-0.6716695706257294,0.6826014289330345,-0.7252094366985786,0.33966534922062547,-0.7539887016069583,0.6836917249731391,-0.8250160106193134,0.2806840098416228,-0.6747029127181298,0.7195594904839154,-0.6625521666984907,0.48766520080631903
41,,,,,,,,,,,,,,,,,,,,,,,,,,,,,,,,,,,,,,,,,,,,,,,,,,,,,,,,,,,,,,,,,,,,,,,,,,,,,,,,,,,,,,,,,,,,,,,,,,,,,,,,,,,,,,,,,,,,,,,,,,,,,,,,,,,,
42,0.564387604670744,0.7508617597159346,0.49667667630683865,1.0412509617735748,0.48947568637045097,0.7294769475233832,0.509991055873523,0.9553169245496378,0.5512251966535258,0.6881066692587428,0.5085868925329471,1.0033613139617985,0.5684385144278841,0.7407171626339499,0.49951460737912534,1.0073674392054646,0.5674282461179927,0.7678385470615853,0.5300560392001235,0.9917799376473807,0.6052062183820419,0.7094497143871492,0.6003957348064797,0.995570097501236,0.5879698059758027,0.693466862313063,0.581082831424279,0.9478342549362627,0.49558599799082576,0.6818780541244961,0.4625956200217054,0.9736534590038108,0.5579927825441474,0.657274758767189,0.6257267258868263,0.9145041440643613,0.458610217292029,0.7656426983457365,0.45991400747012956,0.9609635075999757,0.5264612119967783,0.7062116461063527,0.5016085033591962,0.9723793551608405,0.38817504140723397,0.5746189427598282,0.3772523229962142,1.041590947526957,0.526198516863589,0.622543926416692,0.5307412177089613,0.9393949287748765,0.17987095312527535,0.6519494761298666,0.1267918075584482,0.3571714148168227,0.4362111779469387,0.6468719046170445,0.4685575818179554,0.7937207020554645,0.0031512171899007804,0.7589089928203234,0.03489563707474709,0.39508728077256255,0.36149600267682963,0.8116974398246896,0.3955128943534101,0.8050349009802831,0.07932260954041542,0.8025758083645359,-0.01269178749557693,0.35885755125210184,0.43954776820709984,0.8355379930653573,0.4019126034869676,0.8127513876780728,0.07120454758698051,0.770862093651165,0.10353438476224965,0.40030568346621176,0.38695247675837624,0.8024137345320901,0.4454408205213983,0.8154250785594098,0.08174762042471481,0.7326403936233016,0.0073584885480323485,0.4109522634212959,0.40961285757141264,0.8096927062613458,0.37376499762057924,0.6459564090766357,-0.06524234910972684,0.6102679782699189,-0.021627321895891068,1.0052158100595092,0.07809921270661441,0.692527655520071,0.08834665503706247,0.9536745619384158,-0.39498864172685666,0.6400140407986858,-0.3065080543563442,0.10718806077908233,-0.22882701334037067,0.7007605809345288,-0.2961474912947956,0.24893828427829284,-0.7763469717665273,0.6644955695014528,-0.7508086219111201,0.16260444477474972,-0.6383670556458023,0.7048723476832721,-0.6540580706129637,0.5598153590388566,-0.7503699474044032,0.5967511623626435,-0.7995749868109487,0.12940339330716716,-0.6709497764452751,0.683403528637777,-0.724487821682421,0.35334619471966416,-0.7509972146015169,0.6756121365599006,-0.8220096430086126,0.2601194239174743,-0.6642245891234511,0.7133299110352155,-0.6520172254636335,0.4770948832995289
43,,,,,,,,,,,,,,,,,,,,,,,,,,,,,,,,,,,,,,,,,,,,,,,,,,,,,,,,,,,,,,,,,,,,,,,,,,,,,,,,,,,,,,,,,,,,,,,,,,,,,,,,,,,,,,,,,,,,,,,,,,,,,,,,,,,,
44,0.5743961815726544,0.7239733295973738,0.5067413641570024,1.0415200767447357,0.4949537931082451,0.7041879484427253,0.5154997811363097,0.9559098119512186,0.5567001173290634,0.6631196273085169,0.5140924052538829,1.0041616851318425,0.5739409640150108,0.7160343427906577,0.5050477996958936,1.0076934766123857,0.5731809480927601,0.7412611935841072,0.5358409572260451,0.9922004484162711,0.6109444886670405,0.6818091928608125,0.6061661750278645,0.9961659055304108,0.5936761093568976,0.6643929086845229,0.586821115172273,0.9483955518761125,0.4819395548100142,0.6542037963692166,0.44887240156047403,0.9747353429111288,0.5449710552473893,0.6202779769411697,0.6126317257862638,0.9182675813354795,0.4625111150211647,0.7401522951703825,0.4638366910414769,0.9613115391208193,0.5306719907405505,0.6792789297367238,0.5058428062935446,0.9731709048434577,0.3688540407348486,0.5767011118157669,0.3578226508004967,1.0415398067417394,0.5040266508402034,0.6026123716223805,0.5084446276469919,0.9395652192449999,0.20287210773642544,0.6876306046317587,0.14992132656816481,0.32924958916946856,0.4071239032889067,0.6617270510251255,0.4393073977676169,0.7581099666390522,0.11891743411535888,0.786207741313518,0.15131146158755435,0.36746753146493016,0.3312027764235723,0.8005606099716317,0.3650516775088806,0.7671659243872655,0.2096425058659192,0.8337865289036289,0.11835953691918646,0.33557406965420145,0.4094427050836545,0.8248484364666939,0.37164111223328705,0.7803165069445828,0.2029059434257543,0.7941662580608024,0.23597509218504284,0.37695091471315995,0.3589887661597396,0.7785700884825906,0.41732278367549946,0.7845094606165998,0.19963167574276364,0.7520135721053572,0.12590423549112692,0.3892220788662422,0.3800927611813634,0.7857902900320978,0.34408160831167867,0.6164441824950622,-0.06397224223805538,0.608340542871817,-0.02034971459571338,1.004935310601196,0.07676076586022394,0.6790397800584926,0.08700071713755245,0.9539424848166812,-0.42080626781709085,0.639924574226878,-0.3324685186059172,0.10409492244194704,-0.19905818799534672,0.7146558541431469,-0.26621084199982376,0.25728993809260864,-0.8037978215189766,0.6507988989692263,-0.7784112774577677,0.15403219417012012,-0.6220140986329077,0.6914322751468036,-0.6376121988853458,0.5500826954074174,-0.7782181515652901,0.5806673854118073,-0.8275772203362285,0.11876070086045845,-0.6580081422875752,0.6637020477722985,-0.7114723673984249,0.34272315690457017,-0.7948012022315306,0.6639745680860847,-0.8660571710560988,0.24849557941311784,-0.6685339255464378,0.6981880662857648,-0.6563496163729998,0.47057583389347724
45,,,,,,,,,,,,,,,,,,,,,,,,,,,,,,,,,,,,,,,,,,,,,,,,,,,,,,,,,,,,,,,,,,,,,,,,,,,,,,,,,,,,,,,,,,,,,,,,,,,,,,,,,,,,,,,,,,,,,,,,,,,,,,,,,,,,
46,,,,,,,,,,,,,,,,,,,,,,,,,,,,,,,,,,,,,,,,,,,,,,,,,,,,,,,,,,,,,,,,,,,,,,,,,,,,,,,,,,,,,,,,,,,,,,,,,,,,,,,,,,,,,,,,,,,,,,,,,,,,,,,,,,,,
47,,,,,,,,,,,,,,,,,,,,,,,,,,,,,,,,,,,,,,,,,,,,,,,,,,,,,,,,,,,,,,,,,,,,,,,,,,,,,,,,,,,,,,,,,,,,,,,,,,,,,,,,,,,,,,,,,,,,,,,,,,,,,,,,,,,,
48,,,,,,,,,,,,,,,,,,,,,,,,,,,,,,,,,,,,,,,,,,,,,,,,,,,,,,,,,,,,,,,,,,,,,,,,,,,,,,,,,,,,,,,,,,,,,,,,,,,,,,,,,,,,,,,,,,,,,,,,,,,,,,,,,,,,
49,,,,,,,,,,,,,,,,,,,,,,,,,,,,,,,,,,,,,,,,,,,,,,,,,,,,,,,,,,,,,,,,,,,,,,,,,,,,,,,,,,,,,,,,,,,,,,,,,,,,,,,,,,,,,,,,,,,,,,,,,,,,,,,,,,,,
50,,,,,,,,,,,,,,,,,,,,,,,,,,,,,,,,,,,,,,,,,,,,,,,,,,,,,,,,,,,,,,,,,,,,,,,,,,,,,,,,,,,,,,,,,,,,,,,,,,,,,,,,,,,,,,,,,,,,,,,,,,,,,,,,,,,,
51,,,,,,,,,,,,,,,,,,,,,,,,,,,,,,,,,,,,,,,,,,,,,,,,,,,,,,,,,,,,,,,,,,,,,,,,,,,,,,,,,,,,,,,,,,,,,,,,,,,,,,,,,,,,,,,,,,,,,,,,,,,,,,,,,,,,
52,,,,,,,,,,,,,,,,,,,,,,,,,,,,,,,,,,,,,,,,,,,,,,,,,,,,,,,,,,,,,,,,,,,,,,,,,,,,,,,,,,,,,,,,,,,,,,,,,,,,,,,,,,,,,,,,,,,,,,,,,,,,,,,,,,,,
53,,,,,,,,,,,,,,,,,,,,,,,,,,,,,,,,,,,,,,,,,,,,,,,,,,,,,,,,,,,,,,,,,,,,,,,,,,,,,,,,,,,,,,,,,,,,,,,,,,,,,,,,,,,,,,,,,,,,,,,,,,,,,,,,,,,,
54,,,,,,,,,,,,,,,,,,,,,,,,,,,,,,,,,,,,,,,,,,,,,,,,,,,,,,,,,,,,,,,,,,,,,,,,,,,,,,,,,,,,,,,,,,,,,,,,,,,,,,,,,,,,,,,,,,,,,,,,,,,,,,,,,,,,
55,0.3697889172020657,0.5898480372961958,0.30098447319628696,1.0418961820532684,0.3239966526018961,0.5698450991881171,0.34358190295917784,0.9565837020650492,0.3856549052805983,0.5254411829229884,0.3420858650412038,1.0050413900840824,0.4029111705350972,0.5755134125004355,0.333056666388993,1.0079901885340778,0.3806632044674192,0.6257699225651253,0.34224160081691873,0.9927154921517753,0.41840219140066776,0.5753278195507234,0.4125422096205006,0.9968949895453034,0.4012320596307978,0.5677884422462295,0.39329605245129606,0.9490481035271136,0.43650564336045594,0.5330272555176235,0.4031826660714819,0.9758922094615745,0.40601582962189486,0.5729211925974502,0.4728963420611465,0.9220637415565793,0.3010002916441113,0.6031092959028044,0.30141834901103953,0.9617542228175661,0.3417748644268631,0.5626111822391652,0.3158845962966852,0.9741982505008062,0.3556120472471237,0.4531434548123642,0.34450458235624887,1.0415506547870885,0.41668538856182513,0.6444847537863819,0.4206148832688872,0.9410744088507129,0.18014834155635978,0.5694983710120688,0.1270673784682987,0.30126932116791216,0.3308372414288599,0.6994535129124851,0.36259448434528235,0.7724191345009906,-0.037611286090653305,0.6662654934459338,-0.006100261543408092,0.3350441544278818,0.22378867592147478,0.8174536987892281,0.25703392451250295,0.7695956481268895,0.03181882960032303,0.7080703194920078,-0.06046741547363126,0.3075572044007529,0.28370519532230304,0.8414623371281624,0.24519641669241588,0.7856823554858425,0.0178716353262341,0.6758732111095085,0.04989718534697232,0.34562155112864157,0.23514945212008675,0.7990596619612893,0.292786488997921,0.7881087466960065,0.037302069579088916,0.6436466058577986,-0.03734110990827155,0.35812767679142843,0.2722866342787173,0.8027343408209772,0.23566861726323507,0.6231359363593505,-0.04178629145270202,0.5444799476455292,0.0019599926191623956,1.0055693848123168,0.05488962329612145,0.6986020840784206,0.06500774665887289,0.9544827413169252,-0.3748026866440387,0.5844927314229229,-0.2862087718342208,0.11432381709288314,-0.24868559811074822,0.7027379054203076,-0.3161162678985292,0.24316745197810674,-0.7118970526990449,0.6501374662261538,-0.6859971424187289,0.18190948024666584,-0.6228524267063873,0.7344981807177875,-0.6384556672210506,0.5677768110461503,-0.6822578593045068,0.598778197122165,-0.7310808926258799,0.16821667138620006,-0.6523332608992117,0.7103578814934594,-0.7057666922853248,0.3639247674697557,-0.7186817723613477,0.6400303690008491,-0.7895130263904626,0.23538987403267805,-0.6774279056848755,0.7174853680550214,-0.6652937236246897,0.44112780151432684
56,0.628204383860293,0.6944529371794661,0.5608517835815809,1.0402233180930023,0.5503654974097801,0.6754563042891303,0.5712226040201585,0.9541561836972818,0.6122282049724803,0.6341909898039393,0.5699322339307716,1.0021774465072697,0.6294800998146215,0.686673154378945,0.5608987398245165,1.0060336660693256,0.6285302615889841,0.711999664138459,0.5915011471576632,0.9915141605363273,0.6663833956105638,0.6523597895748323,0.6619164603862049,0.9957834225248873,0.6492529105097156,0.634603758923323,0.6427100720007283,0.9482140557327715,0.5431507686270053,0.621173048001907,0.5104272562119185,0.9733996624263572,0.6039974315182787,0.5992734193316116,0.6719897919804667,0.9225966070808713,0.5178359157010698,0.7079033809285917,0.5194722140664118,0.9605531296206973,0.5854877998459439,0.6458769040371083,0.5609664886248589,0.9732591197177253,0.42711506862339343,0.5426501703484817,0.4164112601890642,1.0414365714969884,0.5629420721059557,0.6001270963538258,0.5676911230152369,0.9418546336508227,0.2668536987723805,0.6789653409789572,0.2142629812189253,0.27857258769318066,0.4759998610069613,0.6936051051671238,0.5085701107714503,0.7658872402939899,0.2037594080122726,0.7846756635242114,0.23662983951701766,0.30863354494416295,0.4537790474057526,0.8406564160934579,0.488315516695422,0.7696218145659459,0.3024329008791365,0.8396234329525486,0.21167110362917274,0.2838846534840812,0.5512097700235017,0.8637606731572152,0.5142032744763603,0.7854260555133084,0.29920443171565503,0.7955958754657402,0.33281438254395945,0.3213697324717202,0.5068269070350299,0.8195836869246682,0.5659901478931512,0.7887651726489179,0.2860850866109782,0.7475990732993575,0.21284309745931085,0.3343134754364479,0.5077692485292059,0.8277793780905695,0.4724741365890233,0.6231281877555297,-0.06532257811191361,0.59833530719982,-0.021707784744045965,1.0053673846711728,0.07814749813375939,0.6839588321825161,0.08839528685676339,0.9548284482566226,-0.45711001429832876,0.6422226313061932,-0.3689769087533601,0.10850438465546322,-0.2585175960219676,0.7144127864017529,-0.3260038178936226,0.23677124774493719,-0.9257597583139137,0.6531250298362307,-0.9010588526514289,0.17112135246670523,-0.7309250338966637,0.7002309339946124,-0.7471351408760633,0.5707676529116898,-0.9080184319877592,0.5908532231574738,-0.9581070121682972,0.15589172724767317,-0.7692731607492548,0.6695635089348656,-0.8233625900803948,0.3636847097629228,-0.9004219119028243,0.6644254176191657,-0.9722721214819572,0.22586193745488115,-0.7525369425921459,0.7098397014557477,-0.7408249263343138,0.45013448057240185
57,,,,,,,,,,,,,,,,,,,,,,,,,,,,,,,,,,,,,,,,,,,,,,,,,,,,,,,,,,,,,,,,,,,,,,,,,,,,,,,,,,,,,,,,,,,,,,,,,,,,,,,,,,,,,,,,,,,,,,,,,,,,,,,,,,,,
58,0.550644659904096,0.7248152452048262,0.48285639293404525,1.039879995339096,0.46991141705757405,0.704635698534278,0.4903166567170727,0.9539304013028728,0.5317013871990791,0.6635348332640223,0.4889531571100806,1.0020779663551396,0.5489561986238488,0.7162352700481955,0.4799225939806304,1.0058961581538288,0.5513563419139618,0.7412521336781014,0.5138936992453073,0.9913230680451776,0.5891128711763459,0.6819148718959993,0.5842118816671257,0.9957476001333773,0.5718785132026831,0.6647338472526382,0.5649010635807803,0.9481554047623123,0.4603173591981935,0.6553200125519253,0.4271285876253605,0.9732786053928185,0.5381012690780572,0.62664810414225,0.6057234949539302,0.9243453477539365,0.4403589071255562,0.7393109160047331,0.4415600324925313,0.960056444115784,0.5128312897034668,0.6790208416248463,0.48790190391992644,0.9729388639613471,0.3595656141974731,0.5791850161774917,0.34848211566324633,1.041451830286051,0.511527741466279,0.600556130586919,0.5159880854250161,0.9424606340742541,0.19274894814989468,0.6857612837623129,0.13974166292202525,0.257125823224034,0.4506814975738158,0.6460687916333409,0.48310962747580855,0.7407452262673481,0.10404736254310704,0.791468983703197,0.13635777560540258,0.28522435715043126,0.4233914078051634,0.8111851975074899,0.4577567932080629,0.7367736948302281,0.1934330663455552,0.8435350473705784,0.10205893702206831,0.26228694025204075,0.5132252262148516,0.8351304165043831,0.4760048633836374,0.7508436790332058,0.18990964518652692,0.8078367621539726,0.22290577890375976,0.29916345581652304,0.46190115344240606,0.7999838319785317,0.5208114376958907,0.7542432352786176,0.18674791615910244,0.7653998812522383,0.11294811821942202,0.31279596025395284,0.4738696432900411,0.8078535453421564,0.4383835770375259,0.5869943619765685,-0.061341405732929496,0.6227918678115448,-0.01770429509479736,1.0058515532006833,0.07438873340855755,0.688988152899374,0.08461549709043947,0.9551711153594364,-0.41627377800845045,0.6540010455556133,-0.327911720020812,0.10261137773464873,-0.2585725517199974,0.7067399400844616,-0.32605904473752223,0.21659853255786438,-0.8083450204263043,0.6769852459769777,-0.7829852792472849,0.15987763658440393,-0.6984526425476947,0.7018855589335773,-0.7144796809014091,0.5381686507888108,-0.7825026403185206,0.611077555966922,-0.831886963623099,0.14114506129308335,-0.7332728991236374,0.6775603064965111,-0.7871594581642447,0.3409708697551408,-0.7707194851942639,0.6815813033155769,-0.8418417027614548,0.21160355275029125,-0.7269050089916903,0.7094907162605878,-0.7150482500188557,0.42684402523106274
59,,,,,,,,,,,,,,,,,,,,,,,,,,,,,,,,,,,,,,,,,,,,,,,,,,,,,,,,,,,,,,,,,,,,,,,,,,,,,,,,,,,,,,,,,,,,,,,,,,,,,,,,,,,,,,,,,,,,,,,,,,,,,,,,,,,,
60,0.5538452422887543,0.7091441708144148,0.48607483237918037,1.039973634236038,0.473596093960348,0.6884780714285651,0.4940220082912429,0.9543447727933512,0.5353765289033925,0.6471901071783595,0.49264894912192025,1.0026872450340336,0.5526262653532189,0.6995274920712058,0.4836133104264285,1.006186909611043,0.5538229130736281,0.7242314313160408,0.5163740296269883,0.9915169023499871,0.5915881201402343,0.6634154975063509,0.5867008947526653,0.9960100989889681,0.574302923863971,0.6445715032737563,0.5673389013308234,0.9483828560867753,0.4634136775511119,0.6361524700943447,0.4302423526365518,0.9741276735576438,0.5336165532767578,0.6056788920870437,0.6012133786908075,0.9263059233345334,0.4433471573606555,0.7264503794294157,0.44456495333080004,0.9601777991725465,0.5137423879979408,0.6633708076740407,0.48881792538620866,0.973171322075971,0.36112011911321795,0.571433491729097,0.3500454307860466,1.0414076036396276,0.49929844838731385,0.5917175962317555,0.5036898622772049,0.9422867077207995,0.19366619714753314,0.6906357516120444,0.1406640250707204,0.24036270233437032,0.4147290048535614,0.6634241144711704,0.446955393589582,0.726411262873183,0.1200577345419068,0.7903511581950793,0.15245813163972402,0.26888135959946685,0.3541973320702362,0.8051454588523995,0.38817588747820514,0.718103612737943,0.21443585504377363,0.8385584171597019,0.12317968204984378,0.2485698551289786,0.4386293259536169,0.8175298205533028,0.4009927127902166,0.7335586300715664,0.21142678673384036,0.7940862686275139,0.2445436421102959,0.28651463493944784,0.38873733284781176,0.7746998396880349,0.44723919226587583,0.7393876120333783,0.20285994352548958,0.7503015478934737,0.1291506061384826,0.3017525606815804,0.40417296169212286,0.786988641415307,0.3682976432255292,0.5725959659614013,-0.0647601528729045,0.6102619582007965,-0.021141933636260907,1.0057962996949765,0.0775780069840412,0.6794022359033718,0.08782265907464175,0.9553155970183719,-0.44192856013953297,0.6611245158620098,-0.35370879986712794,0.09985483427714062,-0.2325539660548875,0.7232484597339672,-0.2998939992091552,0.21839078462161565,-0.8396398740289915,0.6687480032783083,-0.8144540081539541,0.15166547254002374,-0.6707247763895303,0.699154712528548,-0.6865952728421177,0.5243675529189378,-0.8150196636646244,0.5950393169646943,-0.8645847225827835,0.12908054474874125,-0.7076781370831428,0.6695781716774803,-0.7614200915144202,0.3297926444762865,-0.8268479781112021,0.6892920581869453,-0.8982834551852122,0.20612800186032246,-0.7184486687213905,0.7058070300041791,-0.7065433842900749,0.42479583082264594
61,,,,,,,,,,,,,,,,,,,,,,,,,,,,,,,,,,,,,,,,,,,,,,,,,,,,,,,,,,,,,,,,,,,,,,,,,,,,,,,,,,,,,,,,,,,,,,,,,,,,,,,,,,,,,,,,,,,,,,,,,,,,,,,,,,,,
62,0.5515912963475373,0.654896612697502,0.4838081366889,1.0405717072417144,0.4914381780978015,0.6311798283827582,0.5119638067972224,0.9551717872396096,0.553170250040752,0.5871952307936243,0.5105420515855196,1.0036975437629765,0.5703922235904807,0.637763847852761,0.5014784183756079,1.0066719722102253,0.5632166120477724,0.6805915926205147,0.5258201011675643,0.9921223663316155,0.6010269531438246,0.6271960794574922,0.5961923911022915,0.9967755418371737,0.5838827717199759,0.6166973315399001,0.5769722552300016,0.9490625278511491,0.5447185653704085,0.584306204301498,0.5120033733187513,0.9753023618968772,0.5792881354017826,0.6015434622278824,0.6471413360334847,0.9292930697120969,0.46106252306743395,0.6570762949567595,0.46237976759708266,0.9608079990817568,0.5210901127505675,0.6119326548839711,0.4962070485195356,0.9742306158229195,0.4155380427910435,0.49239391805966337,0.40476811721455624,1.0414402669849645,0.5651104796687924,0.6141469432700245,0.5698725362400733,0.9435134905195665,0.19287517891053158,0.60605944288478,0.13986779252680223,0.2166873947028777,0.46546589653785864,0.664350907092783,0.4979779011305413,0.7411031521592243,0.03780920535689921,0.7272734103732714,0.06974671849607736,0.24361909320199068,0.4060515673008056,0.8027696177116525,0.4403196795341813,0.7319987667372716,0.11864803991380014,0.7747743542973057,0.026852748505054,0.22434083524868384,0.4912633816770518,0.8225627175488472,0.45391961781404466,0.7461490980014065,0.12015903384132533,0.7453701407550468,0.15276217015804444,0.26009606823565146,0.4498163762005122,0.7856909361846169,0.5086585723550698,0.7504051133875959,0.12072920966337572,0.7075960120048018,0.046557448207241475,0.27560811573910604,0.4590542889208074,0.7929054156882257,0.42348478050762456,0.5849714995421813,-0.06876299721112053,0.5695627146552643,-0.02516762709921451,1.0063550336351013,0.08174051895226567,0.6869860924860134,0.0920091832814261,0.9557242464629521,-0.4451870290940265,0.6140567544408062,-0.3569877675691769,0.09666655947636324,-0.28821734424386,0.7093046683445019,-0.35586989120011,0.20757155811824346,-0.8618714855473026,0.673746866021686,-0.8368130740261868,0.14803084835684574,-0.7346687665006777,0.7326804774707172,-0.750899451504039,0.538622510356453,-0.8381116389370161,0.6155067175155365,-0.8878091497318227,0.12997892085595716,-0.7694046541692251,0.7138802179764611,-0.8234945451874063,0.3339472074264207,-0.8231789946650219,0.6756434289984077,-0.8945963470725763,0.19327192073220195,-0.7508845200907761,0.7353227732597943,-0.739162535240976,0.4114940708643787
63,0.6387020811144323,0.6394127564963301,0.5714082440892878,1.0402884659697416,0.5700639892819955,0.6151955911886969,0.5910314781607795,0.9550534124150858,0.631825117649467,0.5710793269392542,0.5896389616011333,1.003808348797614,0.6490755841513114,0.6224541564236228,0.5806040008932176,1.0066371034930317,0.6502233469182142,0.6590343807445992,0.6133157452434723,0.9919671558366203,0.688024711292607,0.603894776070804,0.6836789800160024,0.9967645149778901,0.6708016364169546,0.59000774251631,0.6643795170509254,0.9489921943703141,0.5818385893722992,0.5723619699303127,0.5493321623705965,0.9756433600696373,0.6501042804736793,0.5646972417345657,0.7183553865490743,0.9302592013992614,0.5317302675585096,0.6520376759153166,0.5334444894845137,0.9605438312961123,0.6015827566749821,0.600767214801421,0.5771517774047263,0.9737595603152595,0.4652797713808458,0.48948294641812284,0.4547899739586124,1.041448909658457,0.5933238543978633,0.5565963937628834,0.5982434066307409,0.9438907283163501,0.2529265548048089,0.6092234958480368,0.2002572132607254,0.20265097769543142,0.48964352753177126,0.6483840744549961,0.522290215620499,0.7505417264733417,0.1513780747877563,0.7442489324145922,0.18395430581937983,0.22531297197186528,0.46350416854223975,0.8066021367660653,0.4980963326586035,0.7461737049391759,0.244740228231075,0.7908264215771214,0.15365442287175954,0.20891616645977393,0.5606827423213829,0.8231591216244698,0.523731579721918,0.7626509419306973,0.2506362535435633,0.763574233734478,0.2839731554171617,0.24419925615431445,0.5114520977791267,0.7819971767432412,0.5706429704405986,0.7670534059290998,0.23635992975811104,0.719262965568492,0.16283834220475338,0.261035316533326,0.5142058910476156,0.7909367338759393,0.47894827455201266,0.6022744298972533,-0.0661237499027717,0.5569200926612458,-0.022513480392648923,1.0066922171105956,0.07905742419659774,0.6464172042986049,0.08931056749804518,0.9560290050116884,-0.4684469541212345,0.6017351034589031,-0.38037848451157596,0.09402193119000153,-0.30014937428140587,0.695359446443562,-0.36786970582457434,0.21431540644206548,-0.8967359127668796,0.6530709684234194,-0.8718736307533118,0.14615007594502255,-0.7613045742530298,0.7085361855929706,-0.7776857806956964,0.556485128325966,-0.8749449911091468,0.5910132616286957,-0.9248496692836046,0.12698839191480266,-0.7993074751512472,0.6875304350327355,-0.8535661879111001,0.3434078056567827,-0.8534006453955909,0.6596621124319404,-0.9249881571120802,0.19487847452515544,-0.7859231603928433,0.7196720836578961,-0.7743991358892026,0.42566403207844433
64,,,,,,,,,,,,,,,,,,,,,,,,,,,,,,,,,,,,,,,,,,,,,,,,,,,,,,,,,,,,,,,,,,,,,,,,,,,,,,,,,,,,,,,,,,,,,,,,,,,,,,,,,,,,,,,,,,,,,,,,,,,,,,,,,,,,
65,,,,,,,,,,,,,,,,,,,,,,,,,,,,,,,,,,,,,,,,,,,,,,,,,,,,,,,,,,,,,,,,,,,,,,,,,,,,,,,,,,,,,,,,,,,,,,,,,,,,,,,,,,,,,,,,,,,,,,,,,,,,,,,,,,,,
66,0.7207470019129573,0.5190343814429244,0.6539141581518692,1.0393965420653228,0.6282821528415915,0.4947769830000677,0.6495769522184357,0.9539396400228128,0.6900971697234143,0.45467112786737013,0.6482386450380294,1.0018141561973637,0.7074014287458481,0.508510996843392,0.6392577943588669,1.0058996152232258,0.7146367173411814,0.529323825668,0.6780911622742141,0.991105332277813,0.7523717309950004,0.4689577281124299,0.7483876443894677,0.9956586700033723,0.7351635141023286,0.45040612446478107,0.7291030337983434,0.9481353776016679,0.5700428241346365,0.45273178218045007,0.5374701783494829,0.9723473424228477,0.6660449288753344,0.41601217384249106,0.7343853047859582,0.9248954986252134,0.5935717725381752,0.5456194835286894,0.5956334459739826,0.9593957862330935,0.6712334827262351,0.484091897513976,0.6471936440710475,0.971925167767652,0.4400843792459007,0.4393279028161331,0.4294523601014403,1.0413930005016576,0.6342633571996112,0.46191715735083505,0.6394123611188725,0.9418646472311449,0.3391082706420836,0.615417193300582,0.2869238489536804,0.23088261338516683,0.6234907441538795,0.5894471805150242,0.6568903173071968,0.7668215431008442,0.33557137229857514,0.7577108202510485,0.3691825680059057,0.24802305688702636,0.6444482848222571,0.7973855301490914,0.6800572243548703,0.760138000326444,0.44176474577196906,0.814286571342136,0.35178566382711557,0.22730287316963563,0.756325940864419,0.8278416625180245,0.7204738709949479,0.7751103392466763,0.44339011331458167,0.7834482104419365,0.47780989800798335,0.26443039879442826,0.6955684963867401,0.7823905673987588,0.7557936350854584,0.7789754077677838,0.4220686285337495,0.7406243165816756,0.349590432216215,0.2801624470417488,0.6914891621624725,0.7879207388503046,0.6572275859208081,0.6115765691794799,-0.06735431241846619,0.5227861219237885,-0.0237514102852225,1.004956291436157,0.08074004235253866,0.5825213827272548,0.09100206344828657,0.9541376900283206,-0.4493106517552712,0.5961857918210247,-0.36113550786360105,0.09338844184945773,-0.2689248723311439,0.6501070636882824,-0.3364706762892753,0.2225713649991944,-0.8404336130295166,0.6303847253661684,-0.8152562191712788,0.14758627966320792,-0.7003554934785448,0.6735878961985919,-0.7163954073792981,0.5651633857913285,-0.8125825588991569,0.5666473000770295,-0.8621380354531094,0.11991498951001756,-0.7323078434801028,0.6566990980576378,-0.7861914394075948,0.3542297739738145,-0.7766225647603993,0.6496420352033943,-0.8477800180798789,0.20832763676995225,-0.6920023241554886,0.7080284951149579,-0.6799511086901731,0.44869782981938056
67,,,,,,,,,,,,,,,,,,,,,,,,,,,,,,,,,,,,,,,,,,,,,,,,,,,,,,,,,,,,,,,,,,,,,,,,,,,,,,,,,,,,,,,,,,,,,,,,,,,,,,,,,,,,,,,,,,,,,,,,,,,,,,,,,,,,
68,0.8694303330447982,0.5169517355498274,0.8034326245049203,1.0397103009154205,0.7736829669320763,0.49370481464984795,0.7957945443836176,0.954105162121354,0.8354718189728315,0.4532367420908503,0.7944299465072895,1.0017910891998356,0.8527781532594134,0.5067710776577535,0.7854512012835738,1.0059011649439897,0.8618644478635153,0.5283555482136237,0.8261459285254077,0.9913755797372246,0.8995965148335119,0.4676884472019379,0.8964394740783552,0.9959456663679657,0.8823936515877928,0.4488769076984237,0.8771602758185608,0.9483931080856767,0.6865157341689603,0.44938346145787006,0.6545974492066521,0.9710584515842247,0.7904657874051911,0.41223964686304465,0.8595052262405762,0.925736877790863,0.7304538484614146,0.5400390582662382,0.7332843242416649,0.9592488607837221,0.8104795150091354,0.4777712421680593,0.7872218385742451,0.9722179457827886,0.5219066474093389,0.4254448485596939,0.5117346839137501,1.0413888877811681,0.744173965361081,0.4358372642386524,0.7499403061362692,0.9421234505987597,0.39080036153530806,0.5846593488524924,0.33890660965082875,0.2629692241792342,0.7472585400952173,0.551155905013773,0.7813522509208254,0.7893566883835895,0.3754732245034175,0.7463873682551989,0.40930952768111495,0.28309685876214086,0.7795416730915432,0.7686324283233773,0.8159080871054617,0.777544165926267,0.48619666713951826,0.7978654321018711,0.39646867338401237,0.259997138416027,0.9004469834753048,0.807582639805317,0.8654022618816788,0.7922900668009976,0.49463409812346704,0.7486029178737297,0.5293430797530678,0.29988237723948136,0.84398870371499,0.7698616114623269,0.9050460937174428,0.7960540458445661,0.4646240673489782,0.7295072754706832,0.3923859702551479,0.3140765660469521,0.8279794811933276,0.7792123214346857,0.7944830950012461,0.6304663539924071,-0.079937630233834,0.49995271499858707,-0.036405020427907234,1.0016361339082334,0.09304977467142095,0.5587601102968349,0.10338107788899878,0.9521406364051213,-0.533772853415581,0.5767796519704083,-0.4460719236255085,0.09530045082043363,-0.31286719919978967,0.6294054764881176,-0.3806597605968006,0.24489121830501104,-0.9902832863734424,0.6188482463698916,-0.9659466295888757,0.14677941158688346,-0.8158137125134304,0.6548118370478961,-0.8325016958798439,0.5799203633494645,-0.9689382259392723,0.5543664186721527,-1.0193709563245308,0.11414910439534776,-0.854694291372196,0.6319784292649132,-0.9092648864393128,0.3669382292979875,-0.9222182217651942,0.6523139326147407,-0.9941922653630961,0.22100725834721516,-0.7933098718627902,0.6985158322273847,-0.7818274147125995,0.47014176306790045
69,,,,,,,,,,,,,,,,,,,,,,,,,,,,,,,,,,,,,,,,,,,,,,,,,,,,,,,,,,,,,,,,,,,,,,,,,,,,,,,,,,,,,,,,,,,,,,,,,,,,,,,,,,,,,,,,,,,,,,,,,,,,,,,,,,,,
70,1.0319012606055278,0.5376332359847029,0.9668159136904267,1.0403226790358429,0.9363750645307481,0.5148552844298163,0.9594002016779667,0.9546716446652994,0.9980967944236255,0.4743617904898219,0.9579681254014841,1.0024653369415348,1.015384909399911,0.5283061166058127,0.9489710728347142,1.006151385242757,1.0225220396123655,0.5487954114185799,0.9877055572001687,0.9919183992371939,1.0602404255217313,0.4873811661846345,1.0579852959753102,0.9966268282484588,1.0430888385589823,0.46743070112875207,1.0387576203517161,0.9489806906738725,0.8178276580395775,0.4692332982841946,0.7866467852888464,0.9713165396961021,0.9112525313312627,0.43457976574808493,0.9809700113820378,0.9284676049866025,0.8786039821903363,0.5599821167569914,0.8822663925124296,0.9594332775546573,0.9557284429459519,0.4973125653530263,0.9332862141076437,0.9730202243014655,0.591866431202216,0.4494166445954605,0.5820878277522478,1.0413750595035802,0.8290706231633826,0.46055188315993234,0.8353133921221154,0.9431668299055529,0.39047415359795845,0.5922929157088767,0.3385787257518598,0.27786949130341015,0.8483676288293732,0.5707374613339634,0.8830290681228123,0.8131591476235492,0.318726388153717,0.7531888542705187,0.3522444690803178,0.3150542764886575,0.8984156150565777,0.8062628671280038,0.9354485704354435,0.7962802899649633,0.4205023524795876,0.8022349890057102,0.3304058379307141,0.29399833980724704,1.0229627029141688,0.8423232070126534,0.9886049700127137,0.8134234896525601,0.4339217668095856,0.7711154133914604,0.4682903615532593,0.33864259228350296,0.9709372705966122,0.805632444954606,1.032706415195681,0.8180038139109723,0.4081441101895023,0.7309821328010054,0.3355894890727554,0.351229750460862,0.9487910656826357,0.8090747849089593,0.9159721947457531,0.6609364272155211,-0.08440284737086838,0.5346925669501862,-0.0408951991193065,0.9992974264611815,0.09734236488771124,0.5972532071252956,0.10769748690101692,0.951171822508942,-0.5937774399904637,0.6030771616406658,-0.5064134728314534,0.09708242108296114,-0.36637610312972085,0.6612016338481945,-0.43446932852266223,0.2609098175767853,-1.1270404272280203,0.6461280405860476,-1.1034716875216035,0.14403417811072156,-0.9408627720454534,0.6707774775927875,-0.9582531686292627,0.5888357876963883,-1.1136611339992841,0.5828583925491059,-1.1649064826101356,0.10650893632455455,-0.9886707498689866,0.6445628175209862,-1.0439937406674513,0.3792617876285234,-1.0638466612611301,0.6729765979818672,-1.1366161208774943,0.23039296334141676,-0.9330249634146658,0.7137107847153302,-0.922327677754509,0.49079840836590466
71,0.8475501662965664,0.6021149712141951,0.7814292245163038,1.040912049763382,0.7659091079751406,0.5817192384970465,0.7879766438156804,0.9550617570653543,0.8275800758706223,0.5407106412169032,0.7864935178739506,1.0031049543846196,0.8447423121967641,0.5936241050015036,0.7773698904751201,1.006304807598409,0.8533836157174393,0.6173056457745064,0.8176170038520194,0.9923998259530449,0.8912549879035251,0.5571361243374056,0.8880505969336944,0.9972716312956392,0.8741502663664349,0.5392045580070327,0.868870063383238,0.9495351926842179,0.7158896099403295,0.5328335404221035,0.6841361148062908,0.9719013208659935,0.8194094860226421,0.4958690165987625,0.8886110036835436,0.9311242436088867,0.7179441740770737,0.6216345983129301,0.7207040666072269,0.9599947533084413,0.7977689644375953,0.5593089061046742,0.7744395201284175,0.9740222975894295,0.5534304252105675,0.47560662748654325,0.5434359215061944,1.0413864439907325,0.7579082257839279,0.49843358534460946,0.7637511752198431,0.9442863839483691,0.32950721388347004,0.602693747408248,0.27726930059317145,0.29842802735611407,0.7487428973832685,0.5861912171895237,0.7828441669025841,0.8348079122338398,0.24121061637491384,0.7548543868594775,0.2742931808658324,0.34247378399216705,0.7786656561745346,0.8123791977516305,0.8150257773018459,0.8131160987189305,0.3390228351130746,0.804883700210239,0.24846854879320818,0.31771860424206155,0.8942801684844116,0.8513898483433724,0.8591991816556386,0.8322837701663235,0.3450093637422449,0.7742971689342155,0.37887841406581013,0.36717700466753617,0.8470555602415284,0.8066056099898538,0.9081287588803595,0.8376607701068036,0.3263839190068001,0.7318995674933882,0.2533699328871903,0.3796652489368904,0.8305247732012508,0.811627473030755,0.7970414330329901,0.6885324240722106,-0.0903254982918072,0.5775714927505097,-0.0468514185312144,0.9981881840219115,0.10336973498926592,0.6417020596643581,0.11375848033394365,0.9515830349532473,-0.5944702595252221,0.617460179657481,-0.5071108287741045,0.09430013959478092,-0.3518394494765648,0.6774173754825634,-0.4198516398435885,0.27214144861735845,-1.1204785141951465,0.6476308524947695,-1.0968731535054785,0.14009007916128913,-0.8937674475136383,0.6928263681834552,-0.9108938981417715,0.6041517376132279,-1.107696929306413,0.5835025399451935,-1.1589090574127154,0.10483930591626756,-0.9380844060421455,0.6704801687668663,-0.9931239300564155,0.3959576148742357,-1.0804665554498825,0.6730195133261054,-1.1533294349903938,0.22906702821606587,-0.8989840093084293,0.7187899945198651,-0.8880958535207338,0.5057794397837514
72,0.9109244018852558,0.6533666806754073,0.8451599444835206,1.0413275537421112,0.8297775422887563,0.6337315628302375,0.8522043534282022,0.9549581641927348,0.8914358404424302,0.5927519334074549,0.8507084655939237,1.0034042293060368,0.9085807033197891,0.645454277540261,0.8415673494983126,1.0059729885409443,0.9229458516431404,0.6707246397243966,0.8875705399708393,0.9927088760362053,0.9608693720240464,0.6115922391063875,0.9580565853486028,0.997784112031418,0.9438061149372824,0.5947317086379836,0.9389177543618173,0.9499185101547685,0.7651307061822606,0.582845354062698,0.7336541898911693,0.9719185466083337,0.8972187686916336,0.5517858623972549,0.96685789317296,0.9334754680313413,0.7780033164050031,0.6712982612233915,0.7811010035459623,0.9599784812404177,0.8656715578478621,0.6098051266933583,0.8427240473884176,0.9746515438243231,0.5876998957013653,0.488591260932283,0.5778976162373904,1.0413472241344701,0.8396488416091045,0.5382050825942127,0.8459510455363822,0.9452839868879749,0.3175283374092003,0.6113348115752707,0.26522325399548474,0.2844029352311751,0.7966321682329905,0.5971035163457127,0.8310021233639319,0.8541286386284931,0.1748440583969524,0.7603120861583361,0.20755374536214763,0.33349860598885595,0.7969401780729582,0.8138271137825143,0.8334028541640658,0.8280247700980199,0.26169937283154243,0.8082985099140659,0.17071067692478795,0.3128235429875602,0.9075852797071506,0.8506146303334237,0.8725791640763219,0.849001442514346,0.27167486034955945,0.7786074192165031,0.30513187020180965,0.36426427468897477,0.8577191285503935,0.8069053617484292,0.9188522490924287,0.8549946948771588,0.25970922836022314,0.7353565772857161,0.18632056958437274,0.3780265384380806,0.8455267659809719,0.8132067576987237,0.8121277107859289,0.712016534904425,-0.10829618078859594,0.6090801173041901,-0.06492311908443839,0.9963912231912229,0.12132277016141363,0.6709117926736965,0.13181183646031752,0.9516702961531984,-0.6917537322829241,0.6327966335721233,-0.6049414717457182,0.08946850885819153,-0.397891439004752,0.6842899698391003,-0.46616307873717033,0.27180521881618047,-1.3031687780066346,0.6468775689940981,-1.28059022985704,0.13158258900320802,-1.0358097846321075,0.7005149501269672,-1.0537345680646668,0.6051041602320939,-1.300952944916084,0.5779284327750885,-1.3532512172948201,0.09919227246327986,-1.0925393818462266,0.6734569439362389,-1.148446830421068,0.40922060201107646,-1.2809373821415493,0.6728088109068244,-1.3549271781165115,0.21547283296936937,-1.0579659170188775,0.721535026830351,-1.0479713787586196,0.49945306239193615
73,0.7852558130719681,0.6774414735373457,0.7187854697823118,1.0418316898276212,0.704450803062654,0.6572578737509528,0.7261737109714571,0.955514573551713,0.7660935647629175,0.6155946982618861,0.7246621908844553,1.0041938716400212,0.7832013707932635,0.6678728957424704,0.7154837968855959,1.0062753629038899,0.7987073566688621,0.696651468108796,0.7626343043421975,0.993152394197979,0.8366601168617737,0.6386968552715486,0.8331497808238629,0.998349879319626,0.819550788894256,0.6230634056251357,0.8139646466251163,0.9504126326599565,0.6686229608708162,0.6039583325211025,0.6366043951363354,0.9728271598132897,0.8068655757775716,0.5883034228792801,0.8759973774957555,0.9356930588402097,0.6605172756071448,0.694141204891757,0.6629550624551838,0.9603579244090579,0.7501857526148865,0.6348565416599415,0.7265896724127623,0.9754669949694953,0.5210805208009838,0.5064574551804825,0.5109037234576074,1.0413084215107213,0.7670134481371941,0.5660032584059803,0.772907717541641,0.9461754339552355,0.2533542201536627,0.6270023096869956,0.20068856841377197,0.2725422963742873,0.7369947550914557,0.6057728331143589,0.7710295807404259,0.8712221778664692,0.15501661585220883,0.7640411315494189,0.18761496364783334,0.3342699496968942,0.7516425820329427,0.8174787923446786,0.7878507522164422,0.8412925256064427,0.2480774068725898,0.8131747659031406,0.15701225718504042,0.3163611680619468,0.8613331162940722,0.8500852814831734,0.8260672743971238,0.8637574067935208,0.25574717493903565,0.7839667708514824,0.2891148239096787,0.36961611613871237,0.8116755757144295,0.8083976236350259,0.8725500134453295,0.8703185722117536,0.24102184992191916,0.741533108600566,0.16752827189564434,0.3830705218975533,0.8006166657187478,0.8154647008521051,0.7669652897229103,0.7326351524390624,-0.10656461400673917,0.6255347543548188,-0.06318211573801305,0.9941503269662473,0.11979288114912162,0.7005329169412746,0.13027316904746894,0.9516947936622012,-0.6719314679701942,0.629958319992564,-0.5850075288302002,0.08520596464346603,-0.403404007064358,0.6814900416507763,-0.47170648222139017,0.26364218390025634,-1.2616175089247748,0.6510467946868471,-1.238805436847669,0.12423203990137853,-1.0219117416366592,0.7111749428218219,-1.0397584071245458,0.6019560217089921,-1.257437266767127,0.5791708915954316,-1.3094909903717415,0.09428076032682045,-1.0772411368975143,0.682091809220205,-1.133062638838347,0.415871169065825,-1.247911080957056,0.6761214582495063,-1.3217153333374294,0.20263245766514726,-1.0506798716806514,0.727988838952696,-1.0406443575358568,0.48993873057430914
74,0.7214602763466547,0.6976103144225081,0.6546315918732941,1.042289274685562,0.643189219700458,0.6760592052710334,0.664568023464322,0.9560529823079692,0.7048261042486551,0.6343833935972742,0.6630506078481699,1.0049676591384953,0.7219191783701658,0.6865839858303611,0.6538574136660313,1.0066114734957783,0.7321142571342776,0.7152075265156258,0.6956670752284442,0.9935431026444815,0.7700365158086665,0.6566651522762483,0.7661518380985749,0.9988541346144256,0.7528997441623635,0.6407343946616958,0.7469390705797622,0.9508484022179093,0.6216501844539609,0.6252948283974148,0.5893676872741062,0.9738493794711877,0.7348545522475476,0.607707059334816,0.8035816975939964,0.9376757477440183,0.6027205996329942,0.713582511482791,0.6048337286901226,0.9607793292476199,0.6850948811032103,0.653261979129424,0.6611330850779088,0.976202635495313,0.49736677227609205,0.5169274282677933,0.4870568070395712,1.0412996000232946,0.6871169569917589,0.5824033572066395,0.6925624405197126,0.9469699042654467,0.24601336686106023,0.6453552950690756,0.19330703160254303,0.27436068507477246,0.6439363199942547,0.6109093825871678,0.6774481290651918,0.8866027988228901,0.1562127688606296,0.7704820690684924,0.18881784523171258,0.3403004496320444,0.6436940107266479,0.8192380234352242,0.6792956761750103,0.853171492891599,0.2487894161957184,0.8171332295719639,0.1577283106280477,0.32281602326557535,0.7417133512656304,0.8502649894871712,0.7057754347014518,0.8767226091250637,0.24639776513497483,0.7867436320422783,0.2797129084372634,0.37871473536135336,0.6912666610941152,0.8109792200095376,0.7514645890188537,0.8837935730700605,0.23784930182312317,0.7458652337874861,0.16433792010733864,0.3925802045528877,0.6915808377526826,0.8187157169920892,0.6573168421168846,0.7509213210143493,-0.10341261191752354,0.638765256960257,-0.06001233309893848,0.9900734288682554,0.11659456714852928,0.7128659524103298,0.12705700386930863,0.9515091847983707,-0.6518697930780682,0.6478723171658733,-0.5648330453905277,0.08102028434346872,-0.3944628820944403,0.6835971254482311,-0.46271501293617784,0.25585352575816656,-1.2352157509823598,0.6757424295287661,-1.2122551361252314,0.11711884394562523,-1.0051336503920576,0.7145487445300434,-1.0228860844272678,0.5967867492862016,-1.2360423545434251,0.6047947495704377,-1.2879755986934383,0.08778507594152085,-1.0609943660620758,0.6867367395829064,-1.116724560539702,0.4149758476966539,-1.1791686821754168,0.6954306213430732,-1.252586579804143,0.19237844710701885,-1.0078392277587553,0.7332805989204999,-0.9975629731258912,0.48598092255657843
75,0.7746949323658152,0.7193831162985762,0.7081654711869232,1.0427383360792999,0.690863744910305,0.6948486158621588,0.7125105291038277,0.9567091102376566,0.752510597579001,0.6527717245337061,0.7110031247713655,1.005804687165076,0.7696088153526731,0.7046224971066062,0.7018150855777924,1.0070653628657429,0.7744843414380984,0.7340542767750252,0.7382753374214837,0.9939592622743035,0.8124556906073414,0.6751649438984102,0.8088094526223363,0.9993556480955659,0.7952908180375188,0.6585565410774062,0.7895684076463251,0.9512963907280411,0.6448736157875131,0.639096939546249,0.6127215937475888,0.9749738210948753,0.7333920248330823,0.6238589047899856,0.8021109895275073,0.9395352934517209,0.648752971715076,0.7360607939344206,0.6511247817458543,0.9612871608211061,0.7241130593583803,0.6769107775951527,0.7003705683426771,0.9769668266459784,0.508675191927114,0.5375887227280899,0.49842878675988794,1.04124774398234,0.6673893788100053,0.6063742591727345,0.6727240056748588,0.9477117436743213,0.25745704827580856,0.6414960731338034,0.20481501244097927,0.26616015883728467,0.6247195549951525,0.6140143673474522,0.6581231341771241,0.9006767667565448,0.155468208989733,0.7737482843928942,0.18806912069272408,0.32969088246666967,0.6211312361228836,0.8246757551780831,0.6566061211009412,0.863857413606931,0.251832470032887,0.8164713199917332,0.1607884690077735,0.31607417169735325,0.7199607317788206,0.8511522046246529,0.6839005766779951,0.8882593265399197,0.2475229860754886,0.7868811995624199,0.2808444603710163,0.3731626819098153,0.6688235787573397,0.811173352337571,0.7288954107380117,0.8957598015551679,0.23676867007012015,0.7472533067550154,0.1632512324495361,0.38820659453320394,0.6694600149506953,0.8192256943327875,0.635071714583049,0.7674262643851684,-0.0945843130494057,0.6583170109580597,-0.051134386388572414,0.9878406984796141,0.1078662563816665,0.7285828031679287,0.11827970432462724,0.9517883729544985,-0.6368924655836872,0.6639909628339031,-0.5497700512837616,0.07764801745485023,-0.3959031345585741,0.7067186612262768,-0.464163291086889,0.25153215920962835,-1.1877499843189077,0.7010726750236086,-1.1645214676599165,0.11139630630886833,-1.0004403635377608,0.718045629829726,-1.0181663170506257,0.5999502062030106,-1.183459941306413,0.6300832718139374,-1.2350965934077816,0.08314418379350297,-1.05705990607808,0.6928240427445275,-1.1127679152787886,0.4138683337920824,-1.1613125966077722,0.7224858848623603,-1.2346288749557424,0.18424698775166456,-0.9995873613771317,0.7401555774628278,-0.9892645761982743,0.48827179727619824
76,0.7638915031694713,0.7164688067969283,0.6973015215165993,1.0431412038733368,0.6768525510911111,0.6919328162443915,0.6984206952491303,0.9573166603818521,0.738497089555234,0.6496429575201563,0.6969109357781931,1.0065618449676577,0.7556002511277343,0.7012197871456687,0.6877278433274027,1.007485933239278,0.7612545102101529,0.7314848993526925,0.7249713161968575,0.9943386458382987,0.7992012896292497,0.6731777846462434,0.7954807515511605,0.999807272489029,0.7820436513694149,0.6572298608939956,0.7762470183458562,0.9517033116379227,0.6241487112141164,0.6359557151619412,0.5918802635734024,0.9759534234317588,0.7154326722344264,0.621469950627388,0.7840509683282485,0.941212150923187,0.6371917847171511,0.7350368457418242,0.6394987971460963,0.9617629250957033,0.7134810090784691,0.6768692331577443,0.6896789724547987,0.9776754066630683,0.4864133605886644,0.5489940119012161,0.4760418716311648,1.0411894506397497,0.6520547152498554,0.604481752096471,0.6573032879231391,0.9483865874624681,0.24854510107587635,0.6569259275268088,0.19585284723652197,0.2592936739568373,0.6376275539930297,0.6137831609303684,0.6711036313568417,0.9132151402268512,0.15385436570762917,0.7720230279498705,0.1864461925171405,0.32981947948777257,0.6407654660694722,0.8243570491424691,0.6763506147822655,0.8731980574896823,0.25000695392925587,0.8161446269337193,0.1589526289023425,0.31919265690967935,0.7361195290479406,0.8510236970105172,0.7001501612706447,0.8979215374812344,0.2431042692201588,0.7861328036426201,0.27640090165844927,0.37778231010080954,0.6830525701630721,0.811923834419938,0.743204311498548,0.905701081443321,0.23489013888507612,0.7462395509566756,0.1613621486518221,0.39334239894795303,0.6873966258627474,0.8207396523100824,0.6531090569200912,0.7812848807372497,-0.07673610312558839,0.6708173566649994,-0.033185925923126525,0.9875480992784117,0.09008129959849756,0.7362521328111782,0.10039482833654191,0.9520540904609073,-0.5757425938360708,0.6704570535130718,-0.4882753398407576,0.07640123357247072,-0.3859244912306968,0.7186872142925305,-0.45412758527962443,0.24041562473811645,-1.0849529405191674,0.7215806067328981,-1.0611455775000185,0.10882379964268483,-0.9251509102730668,0.7288694756930683,-0.9424527376150285,0.5799669741816789,-1.0710342872465737,0.6535414546256745,-1.1220380013683653,0.07969022873921976,-0.9717076814047123,0.731023407883535,-1.0269341684730422,0.394366111254088,-1.0658815854862627,0.7437738029531806,-1.1386601714195095,0.18023516302460615,-0.943060217970164,0.7795914409577008,-0.9324178872614622,0.47451635656422314
77,0.7170764572523074,0.7029902296599349,0.6502233456152499,1.0435147461821441,0.6330826449439388,0.6783222148192206,0.6544048177789807,0.9578922028318032,0.694779244876627,0.636387540173202,0.6529474292524514,1.0072819882858342,0.7119354411172941,0.6883827348003928,0.6438176822735229,1.0079135369608967,0.7183172128444184,0.7177873347507943,0.681792692183647,0.9946800612435723,0.7562085980001532,0.6595132410175508,0.7522464174709721,1.0002147894453586,0.7389880514435996,0.6435943447273086,0.7329494139407662,0.9520645157852615,0.5932158563158338,0.6245151400391079,0.560773582700676,0.9769954914363669,0.6882066620236533,0.6104289650431289,0.7566718722842486,0.9427104924835508,0.5942175911788415,0.724385197697238,0.5962830894840118,0.9622567495776675,0.6715755511646202,0.6647807555462025,0.6475379507259602,0.9783146664782842,0.4740467584554066,0.5363480520470901,0.4636055742486484,1.041270036119486,0.623212396808108,0.5985883428443043,0.6282988984498384,0.9489878791189623,0.24209045498272508,0.6599423993896018,0.18936188212718508,0.2858954355363509,0.5880755813095434,0.613117734676096,0.6212732685912624,0.9238174952302082,0.1512691789533534,0.7732724605136523,0.18384642027942905,0.35919318487488805,0.5851780248826741,0.8233789965263497,0.6204508511837533,0.8812124980261815,0.2513943565248598,0.8184606250111118,0.16034773479193754,0.34587628546879184,0.6800698811862984,0.8501171699681283,0.6437856030789924,0.9061153879985073,0.24191660844664675,0.7874831468700065,0.275206518891185,0.4057881186926522,0.6343966678615319,0.8118271556861123,0.6942750345412633,0.9140707060580365,0.2310029464644581,0.746600337871501,0.15745309435899468,0.4213779502575386,0.6356005979904662,0.8204538480383844,0.6010220163372891,0.7928711892165587,-0.07167334702634899,0.6525401287864289,-0.02809504727323915,0.9887317879190061,0.08512019184890246,0.7229597009798183,0.09540554520961712,0.9525570940581668,-0.5836396717861735,0.6695356849141338,-0.49621734536704226,0.07620160644124703,-0.3941211215514961,0.709586479105,-0.46237062310376276,0.25146367347278137,-1.1009282748198288,0.7239283144813112,-1.0772109125119227,0.10942101583159243,-0.9371785779608077,0.7226528900569293,-0.9545488630438572,0.5961800932116776,-1.0881297026668622,0.6567392438178742,-1.1392296769600638,0.08050936792178735,-0.9848232876368884,0.7100756535004479,-1.0401248127935707,0.3956537503951707,-1.0860183007967765,0.746639713483271,-1.158910136367857,0.18962737982624955,-0.9501735415085558,0.7660252449928876,-0.9395724285331815,0.49504738507336316
78,0.7415108319898993,0.6862438874777754,0.6747949186281881,1.0437776026656036,0.6568812187422681,0.6635488459837714,0.6783370213944876,0.9582072133794411,0.7185838384023895,0.6219064129110865,0.6768856914555291,1.0077442223060673,0.7357534620099436,0.6740314264545981,0.6677694528999826,1.0081383656809895,0.7447757396635086,0.7015271280514229,0.7083997857327496,0.9948850416169547,0.7826703832507254,0.6425010025150484,0.7788567851836066,1.0004948716711581,0.7654744670054076,0.6257381640594314,0.7595845472469435,0.9523012654343095,0.6124656459766935,0.6079357504669644,0.5801315056804134,0.9776747459682272,0.7192089864147324,0.5909133314600601,0.7878483509913268,0.94392344700473,0.6161856346567485,0.7057501631360807,0.618374520966063,0.9624952277614137,0.6969794416241212,0.6457219319606923,0.6730845010401335,0.9787433430835091,0.4860846084247901,0.5286302042229934,0.47571101755221146,1.0413267201366674,0.6591026608962788,0.5841548992980091,0.6643905932141277,0.9494957702970933,0.25643106875819016,0.6571589816878806,0.20378271311628032,0.30094840976044146,0.6265079020915545,0.6116331617886753,0.6599215027833408,0.9331357277665241,0.1687726328386249,0.7737611589961657,0.20144819024407296,0.37740174820267736,0.6280569452105795,0.8231094047180306,0.6635706836703514,0.8882184279730809,0.2694110419586694,0.8209265287701145,0.17846561398600033,0.3628351778142203,0.7313923426279184,0.8491310707249642,0.6953964663212264,0.9130879393443324,0.26366207553142945,0.7878696829913749,0.29707407350494974,0.42442550763727804,0.6818725770648343,0.8117013898856362,0.7420176911553793,0.921195249248039,0.24976374903731094,0.7463464220847579,0.17631920868756348,0.4402314954464424,0.6778811696338265,0.8203868524176569,0.6435401544102568,0.8022203565635131,-0.07500676942974872,0.6384284311126313,-0.03144737609629862,0.9893855316629027,0.08847091897669965,0.7089048661371364,0.09877497001912335,0.9529344510642397,-0.6013558793189812,0.6618381026692608,-0.5140333800885286,0.07366247092555714,-0.4054275712935084,0.7059075016155285,-0.47374060876694646,0.24014451301135564,-1.1295679216321888,0.7087835491042666,-1.106011918601555,0.10487878427183904,-0.9742868958929505,0.7182281392520282,-0.9918656523649988,0.5835621475405961,-1.1205058631461386,0.6429857104545319,-1.1717882265395996,0.07608931843324296,-1.023097618958066,0.7041386732529503,-1.07861427487393,0.38224029133259446,-1.136539549114941,0.7322552649549812,-1.2097159049785593,0.18667431240433635,-1.0102182198901146,0.7656638620316144,-0.9999545105191531,0.49005758223599133
79,0.8395072426823754,0.6785248475607832,0.7733418696392097,1.0439864573408963,0.7443243994220061,0.6555009076369086,0.7662714557980186,0.9583111638799295,0.8059894816759795,0.6139067543264918,0.7647823778148752,1.007952600144202,0.8231530673485481,0.6665258307705466,0.7556600671660425,1.0081871222804157,0.8419122926950435,0.6936794017063607,0.8060820434196565,0.9950443052277947,0.8798693208903576,0.6346275269634432,0.8766017767537608,1.0007178526472627,0.8627195569080246,0.6176799141090225,0.8573759485968633,0.9524907486000505,0.6515617618969742,0.6022758126083828,0.6194472756385799,0.9777981871875573,0.8097105738635618,0.5829757809153213,0.8788583677416483,0.9449696873344726,0.6989525160868965,0.6989553528409758,0.7016063761512966,0.962495168156769,0.7924245631233299,0.6391328172947072,0.7690658209810983,0.9790239021464666,0.5101055515467344,0.5105718446000381,0.4998670066614487,1.0413465684833776,0.7570763789598377,0.5816288544524281,0.7629147612837017,0.9499264734602405,0.2775459144499583,0.6282574642966757,0.22501615931813662,0.31191474052711926,0.7524361951060616,0.6063219707066746,0.7865573912779653,0.942623535517226,0.19389910643342273,0.7731336412959704,0.2267158252805027,0.39372686436020904,0.7564123409647663,0.8216505214325082,0.7926472248625823,0.8953390372565282,0.2961939985832398,0.8208558972660557,0.20539905000299968,0.37760574523136514,0.876656591872725,0.8490693203129769,0.8414768893086162,0.9208202710971096,0.30283681751496877,0.7874433905719413,0.33646889158564464,0.4407891283953347,0.8175761601027047,0.8116309371955117,0.8784837142347691,0.9291980668788068,0.2802377819447191,0.7460628827895613,0.20696442082804528,0.4570737415020455,0.8037298735531302,0.8201614276511163,0.7700959325294459,0.812908423046057,-0.09363713405486089,0.6289475375007233,-0.050182341003588815,0.9893245561112974,0.10711388951701875,0.7083247937341823,0.11752269915087274,0.9530561637488713,-0.6808243851947677,0.6558609488911846,-0.5939500073199976,0.07210368280481053,-0.4079332311443329,0.7032035369052929,-0.4762608909609146,0.24341159260310674,-1.2599462057636204,0.6605735242705874,-1.2371244031582305,0.10152503207600394,-1.0193705788074119,0.7007983702128742,-1.0372028005028464,0.5917214273638993,-1.2549466357885077,0.5870425790076935,-1.306986020919273,0.07503094110770805,-1.073549847735401,0.6725784310768944,-1.129350304359137,0.389648493027083,-1.2468288015382893,0.6832055298857063,-1.3206264103465004,0.18506695394867845,-1.0514079055050842,0.7409456370293256,-1.0413759845488533,0.49957149682110485
80,0.9313049480259795,0.6494390922125777,0.8656550676016983,1.0441407141615753,0.8409740981059659,0.6268035361540595,0.8634638807101249,0.9582613343968972,0.9026241246429236,0.5849248898741297,0.8619596834422097,1.0079887801635807,0.9197993817500913,0.6366890568981711,0.8528491407602853,1.0081467699359026,0.936550995447242,0.6644142363773812,0.9012521658641177,0.9951421164498712,0.9744899257110559,0.6049041211254305,0.9717537038289412,1.0008763413977204,0.9573516139969597,0.587548574082167,0.9525393838412596,0.9526228920975175,0.7546858749372282,0.5773594617668606,0.7231507812720912,0.9776386255534935,0.8971110202373178,0.54922369713694,0.9667494254128693,0.9457795952476806,0.7889760632015307,0.6686906772237577,0.7921355499725289,0.962400754399445,0.8799381078081968,0.6064060526157521,0.8570709017091088,0.9791972324534735,0.5838758967748772,0.488561279795961,0.5740518661813931,1.0413546151104225,0.8301502040622295,0.5367824389327137,0.836398751551102,0.9502985852575733,0.3283524684906573,0.615197192556716,0.2761080753176305,0.32737284752174817,0.8107689006976591,0.6051267187649937,0.8452178881299136,0.9512101806435688,0.23064246467167868,0.772991782241405,0.2636656066277027,0.40876308967911773,0.8175987211543931,0.8192954227081429,0.8541773792674754,0.9017851007750524,0.3321274589682814,0.8203822787586704,0.24153440096234013,0.38741714659855264,0.9407107836355412,0.8489946356930733,0.9058910267508025,0.9276352277621488,0.342471345901255,0.7871242673038139,0.3763261045111145,0.45226791009546896,0.8864707613537726,0.8114475933081826,0.947765402606493,0.9362432762866132,0.31845002524495475,0.7447496136512252,0.24539135023334327,0.4692420893375862,0.8669397227210063,0.8193395392043085,0.8336609374752662,0.8221194864310668,-0.09524740463252525,0.6170311981032929,-0.05180175668606894,0.99001781773468,0.10879345699075503,0.6848892606874599,0.11921168760108411,0.9533487033454289,-0.7140208068689536,0.6431993130154827,-0.6273332020300074,0.07115319361160943,-0.4416343408644322,0.6782113689556164,-0.5101512833853142,0.24578898346461797,-1.3197235700436714,0.6557102024894289,-1.2972378578446264,0.09871157363331594,-1.0886806024353957,0.6912497657245014,-1.1069022749096948,0.5957278727717668,-1.3171489088273685,0.5845544427161896,-1.3695379313348048,0.07162822369618996,-1.144835553362927,0.6612269648980004,-1.2010366499873957,0.3902606029266038,-1.2919773448533651,0.6733987180761665,-1.3660289568543906,0.18703806465023945,-1.1053036659153437,0.7232081292091962,-1.0955746786998701,0.5100563114649647
81,0.8848967838263136,0.6021254020270308,0.8189861563536326,1.0443303761412503,0.80357355736298,0.575176138616828,0.825853209204168,0.9584300751462563,0.8653110534114099,0.532996369671493,0.8244369733861137,1.0082595044601506,0.8827450978096789,0.5848702688465659,0.8155866750617411,1.0083289217303362,0.9041957510474254,0.6139744017826546,0.8687151224121709,0.9952543519959831,0.9420477805014666,0.5545556008464998,0.9391292471344895,1.0010394793104707,0.9247195546203864,0.5374760233085464,0.9197239238917283,0.9527645127335039,0.7473114284331939,0.5251447200600124,0.7157348934900838,0.9781320924075889,0.8578519923735226,0.5008013605585708,0.9272698125038429,0.9464993213333435,0.7532463552258603,0.6213808613401213,0.7562050841161558,0.9626824459506533,0.8485057167243412,0.5617051320339345,0.8254618740014814,0.9795334622546514,0.5637799493261969,0.45994622232754667,0.5538430318103058,1.04141624631312,0.7857757601346341,0.4983355953085987,0.7917750346627365,0.9506565111494493,0.34122215055787114,0.6002295721839438,0.2890499470480723,0.36259424539848767,0.773778697765712,0.6031091015393467,0.8080200377275601,0.9584852851662737,0.2732358258181179,0.7703279314571032,0.3064982567221811,0.441780128978129,0.776914674693381,0.8193153902641427,0.8132647589415063,0.9069761288931859,0.3818518088399374,0.8196410950008884,0.29153812449770355,0.4140039176099051,0.8953719317528559,0.850395344845295,0.8602975134567703,0.9325178018435696,0.39075243460903386,0.7854572445987358,0.4248784576233866,0.48016970858217856,0.8453971709076484,0.8115467754370889,0.9064610431463621,0.9414436623339766,0.36134903466735474,0.7420654972876998,0.28853136552653896,0.49584259921955953,0.8271809641570641,0.8192084089858026,0.7936787986677959,0.8291310192145751,-0.09179373169513332,0.5950182491134247,-0.04832864825657472,0.9909872872819516,0.10533809964179645,0.6574379839082851,0.11573698386430438,0.9536563825217592,-0.6988080186075478,0.6271971944279888,-0.6120349033580017,0.07223102812837313,-0.4320824095779707,0.6577688235416455,-0.5005456756851983,0.25327455198802495,-1.2377763902199557,0.6477813542228273,-1.2148300408589656,0.10001597658074184,-1.0778426064694382,0.6816962140506122,-1.0960033630808936,0.6021719693370133,-1.2265230722932452,0.579298147512027,-1.2784027060047132,0.07084145728631605,-1.1150017839633415,0.6546645531128746,-1.1710352885482667,0.3932497460597673,-1.1905031873166818,0.6615153400472968,-1.2639844256428543,0.19791233604306166,-1.0736550981317563,0.716015040677702,-1.063748278828954,0.5240516608721608
82,0.8415529081930221,0.5907254176672896,0.7753987420671197,1.0445310053755645,0.7588213451199712,0.5674949476492682,0.7808495521721732,0.9586956734433756,0.8205162828155091,0.5256934297796778,0.7793905168828209,1.0085964495170656,0.8378472834008035,0.5777956147442405,0.7704365913740963,1.0085433196375935,0.8512565797815239,0.6051721666561592,0.8154785174740465,0.9954041980729483,0.8891479919951689,0.5457958638317293,0.8859322466469366,1.0012292604994357,0.8718772687339267,0.5285669766586135,0.8665847495181369,0.9529321209946123,0.714224229954718,0.5173616647545315,0.6824617839837195,0.9786259764941977,0.8245037329548742,0.49064866299539944,0.8937341924150903,0.9472374652542417,0.7129358213512105,0.6087110596280851,0.7156680502114522,0.9629708132220767,0.7988840018500024,0.5486265616680287,0.7755613547366572,0.9798780367060981,0.5559954715721435,0.4372241568787857,0.5460147947066828,1.0414694136562597,0.7850078787027152,0.4873294188368885,0.7910028127927494,0.9509897607183885,0.34448733081052996,0.5807584036658774,0.2923334791813078,0.4004532978181502,0.7575636059074761,0.5972662966305943,0.7917140036165797,0.9653830326829058,0.28965511827930746,0.7613630948596606,0.3230098002627399,0.48418287327134185,0.7666360373676893,0.8189554378143441,0.80292838049441,0.9122947705557836,0.40057340743914177,0.8148023899380222,0.3103649347274201,0.4530985743157615,0.8882702803811234,0.8503978482403756,0.8531559696671922,0.938405727468417,0.41214421660473416,0.7827272922633781,0.4463904274594763,0.5185286651575722,0.8377197126125169,0.8115485039717873,0.8987404531388181,0.9477058455233686,0.3786578459407695,0.7388963183249923,0.30593739773747786,0.5329841905300606,0.8179654294306835,0.8191486851317377,0.7844114883303237,0.8382824183501647,-0.08732880162902702,0.5833633952926239,-0.04383863069722238,0.9915289742936705,0.10088257627756876,0.6441656984468593,0.11125642856247457,0.9538863372413029,-0.6460147955062585,0.611279177994273,-0.5589450106203054,0.07178702567886072,-0.4077560313370275,0.6409547108783764,-0.476082589102363,0.24920340573825378,-1.155783647081317,0.627673012052112,-1.1323765168768827,0.09867981180823124,-0.9836474629627452,0.6696833747332904,-1.001278971673377,0.5981655835337907,-1.1431422052510753,0.5585392802482331,-1.1945532655071425,0.06976544443650826,-1.027430107052373,0.6413931021164757,-1.0829715586749016,0.3935905952209154,-1.129684354619072,0.641527339654383,-1.202823838927582,0.19786912267559956,-1.0100120543847733,0.7024036643921491,-0.9997475654783632,0.5232556110388631
83,0.7298398799639007,0.5863326149519881,0.6630580893865079,1.044698613636673,0.6440570356954327,0.5614941308272162,0.6654404939865507,0.9589644903913126,0.7057837958255364,0.5197640789267115,0.6640134532406511,1.0089432889450136,0.7230522950295496,0.5718176265011374,0.6549966710325011,1.0087592076609697,0.7331368946408965,0.5995848868595589,0.6966952275390291,0.9955393814072991,0.7710164694097953,0.5405454098827547,0.7671370516184373,1.0014051538061677,0.7537698790510128,0.5236187778632949,0.7478138260405479,0.9530763642349687,0.5978918027595584,0.5121218800369717,0.5654757456478081,0.9792461032184409,0.707900371683264,0.4875815271845474,0.7764757090612715,0.947969529501373,0.6041202883729525,0.6071842866521635,0.6062411426935043,0.9633160433246157,0.6859334443120041,0.5471222000385426,0.6619761901052849,0.9802466318293891,0.49476762258516216,0.4408444535954757,0.4844430186906754,1.0415232962551366,0.6612350114816439,0.4845785452712147,0.666534563748752,0.9512896316862537,0.32924152276639684,0.58739728821025,0.27700205664122785,0.44145715090080706,0.6423190386625167,0.58975879359791,0.6758221251656178,0.9714742101464374,0.2734811074116987,0.7616252360873828,0.3067449197001589,0.5285950093492228,0.672833898159451,0.8167569800964486,0.7085991901585993,0.9168926728537572,0.3845605205156421,0.8152410205189243,0.2942621405442981,0.49606505933926004,0.7894315793539509,0.8502170673527718,0.7537618604761052,0.9436067691668728,0.39123292948515703,0.7829359681247368,0.42536167949485004,0.5592064510309853,0.741219771765771,0.8110605207450112,0.8016982964914997,0.9532641574626082,0.36064106234079124,0.7389192661132308,0.2878193893150043,0.5731785827343453,0.7260189460372158,0.8187895671469659,0.6919483735465222,0.8465845109023498,-0.08190774081653418,0.5841142350028595,-0.038387094691068796,0.9896598918428037,0.09537333115556718,0.643782321371664,0.10571624301784595,0.95360309596933,-0.5664976068934165,0.6042451742596844,-0.47898094834221333,0.07033601020644853,-0.34779953046595036,0.6461883563175244,-0.41578930114504925,0.24799212014712835,-1.0288552124034134,0.6113579094749025,-1.0047346508450885,0.09511389687931814,-0.8543057346070184,0.6657171624606464,-0.8712106006339416,0.5868052362628251,-1.0114348886111606,0.5401084512000763,-1.062105680360273,0.06855366710706345,-0.8950808196327349,0.6363247403572899,-0.9498787846534045,0.3909480828994432,-1.0263883786195005,0.6333181707434028,-1.0989467462511475,0.19110268419140766,-0.887538494354658,0.6963312623917218,-0.8765859484996633,0.5132422691351765
