frame,NOSE.x,NOSE.y,NOSE.z,NOSE.v,LEFT_EYE_INNER.x,LEFT_EYE_INNER.y,LEFT_EYE_INNER.z,LEFT_EYE_INNER.v,LEFT_EYE.x,LEFT_EYE.y,LEFT_EYE.z,LEFT_EYE.v,LEFT_EYE_OUTER.x,LEFT_EYE_OUTER.y,LEFT_EYE_OUTER.z,LEFT_EYE_OUTER.v,RIGHT_EYE_INNER.x,RIGHT_EYE_INNER.y,RIGHT_EYE_INNER.z,RIGHT_EYE_INNER.v,RIGHT_EYE.x,RIGHT_EYE.y,RIGHT_EYE.z,RIGHT_EYE.v,RIGHT_EYE_OUTER.x,RIGHT_EYE_OUTER.y,RIGHT_EYE_OUTER.z,RIGHT_EYE_OUTER.v,LEFT_EAR.x,LEFT_EAR.y,LEFT_EAR.z,LEFT_EAR.v,RIGHT_EAR.x,RIGHT_EAR.y,RIGHT_EAR.z,RIGHT_EAR.v,MOUTH_LEFT.x,MOUTH_LEFT.y,MOUTH_LEFT.z,MOUTH_LEFT.v,MOUTH_RIGHT.x,MOUTH_RIGHT.y,MOUTH_RIGHT.z,MOUTH_RIGHT.v,LEFT_SHOULDER.x,LEFT_SHOULDER.y,LEFT_SHOULDER.z,LEFT_SHOULDER.v,RIGHT_SHOULDER.x,RIGHT_SHOULDER.y,RIGHT_SHOULDER.z,RIGHT_SHOULDER.v,LEFT_ELBOW.x,LEFT_ELBOW.y,LEFT_ELBOW.z,LEFT_ELBOW.v,RIGHT_ELBOW.x,RIGHT_ELBOW.y,RIGHT_ELBOW.z,RIGHT_ELBOW.v,LEFT_WRIST.x,LEFT_WRIST.y,LEFT_WRIST.z,LEFT_WRIST.v,RIGHT_WRIST.x,RIGHT_WRIST.y,RIGHT_WRIST.z,RIGHT_WRIST.v,LEFT_PINKY.x,LEFT_PINKY.y,LEFT_PINKY.z,LEFT_PINKY.v,RIGHT_PINKY.x,RIGHT_PINKY.y,RIGHT_PINKY.z,RIGHT_PINKY.v,LEFT_INDEX.x,LEFT_INDEX.y,LEFT_INDEX.z,LEFT_INDEX.v,RIGHT_INDEX.x,RIGHT_INDEX.y,RIGHT_INDEX.z,RIGHT_INDEX.v,LEFT_THUMB.x,LEFT_THUMB.y,LEFT_THUMB.z,LEFT_THUMB.v,RIGHT_THUMB.x,RIGHT_THUMB.y,RIGHT_THUMB.z,RIGHT_THUMB.v,LEFT_HIP.x,LEFT_HIP.y,LEFT_HIP.z,LEFT_HIP.v,RIGHT_HIP.x,RIGHT_HIP.y,RIGHT_HIP.z,RIGHT_HIP.v,LEFT_KNEE.x,LEFT_KNEE.y,LEFT_KNEE.z,LEFT_KNEE.v,RIGHT_KNEE.x,RIGHT_KNEE.y,RIGHT_KNEE.z,RIGHT_KNEE.v,LEFT_ANKLE.x,LEFT_ANKLE.y,LEFT_ANKLE.z,LEFT_ANKLE.v,RIGHT_ANKLE.x,RIGHT_ANKLE.y,RIGHT_ANKLE.z,RIGHT_ANKLE.v,LEFT_HEEL.x,LEFT_HEEL.y,LEFT_HEEL.z,LEFT_HEEL.v,RIGHT_HEEL.x,RIGHT_HEEL.y,RIGHT_HEEL.z,RIGHT_HEEL.v,LEFT_FOOT_INDEX.x,LEFT_FOOT_INDEX.y,LEFT_FOOT_INDEX.z,LEFT_FOOT_INDEX.v,RIGHT_FOOT_INDEX.x,RIGHT_FOOT_INDEX.y,RIGHT_FOOT_INDEX.z,RIGHT_FOOT_INDEX.v
0,,,,,,,,,,,,,,,,,,,,,,,,,,,,,,,,,,,,,,,,,,,,,,,,,,,,,,,,,,,,,,,,,,,,,,,,,,,,,,,,,,,,,,,,,,,,,,,,,,,,,,,,,,,,,,,,,,,,,,,,,,,,,,,,,,,,
1,,,,,,,,,,,,,,,,,,,,,,,,,,,,,,,,,,,,,,,,,,,,,,,,,,,,,,,,,,,,,,,,,,,,,,,,,,,,,,,,,,,,,,,,,,,,,,,,,,,,,,,,,,,,,,,,,,,,,,,,,,,,,,,,,,,,
2,,,,,,,,,,,,,,,,,,,,,,,,,,,,,,,,,,,,,,,,,,,,,,,,,,,,,,,,,,,,,,,,,,,,,,,,,,,,,,,,,,,,,,,,,,,,,,,,,,,,,,,,,,,,,,,,,,,,,,,,,,,,,,,,,,,,
3,0.6525949193851379,0.38506826029846364,0.8711381118199116,0.9648986256191724,0.6401573289034327,0.4002955051807312,0.8808556077155882,0.9515449368956761,0.7069623451003484,0.39663081342201234,0.8245144114825507,0.9599252875681423,0.6518716557849277,0.3870327782070027,0.8179333769953697,1.005850871450904,0.7092654291695591,0.351708490275462,0.8405599493558846,1.0393600836991201,0.7202357247235507,0.4062066607265691,0.8399224365201517,1.0346102314893706,0.7036885457483366,0.35767353856904516,0.8735328670153161,1.030071973594866,0.595202696554611,0.39737001769266445,0.7021893870708236,1.0214459135033107,0.6924211404066268,0.3778592676313507,0.8202605635237507,0.9766928541732252,0.646060326733071,0.44950088886840617,0.7619899202142636,1.0061468229238377,0.6371544832388933,0.39152829266727135,0.8344311733355337,0.9821184823542846,0.44704896107640985,0.4268300871002354,0.49938468135528047,0.9935214242318728,0.4554825463684857,0.26684036200007166,0.60730034261693,1.0005221048114448,0.3626057538264279,0.4628685731798322,0.3993905562083825,0.9719817004873943,0.3975531778158454,0.24735351840002948,0.48586232139862423,0.4866349678232164,0.44958395047115884,0.6107846594767634,0.49535076175073656,0.981982796766062,0.21012836042046018,0.23807356449989628,0.29023459576396526,0.2861275398752861,0.4470235096160676,0.6118993716625697,0.540083395275795,0.858259863130195,0.258539190119434,0.2963424219993155,0.3311472476551137,0.32863562364139853,0.4938338119489293,0.5862746759645681,0.6258898278643896,0.8575949710381169,0.2858371236359896,0.28055302528539733,0.3867850399320217,0.2766201467968489,0.42984500239026663,0.5729974024120956,0.5662635561166545,0.8894460466464125,0.2738773684504399,0.26674580666787795,0.3387486914449306,0.31030825867182377,-0.15909578112214146,0.39074716207658805,-0.1513625039941977,1.0441255230446875,-0.04298399381419985,0.3186792054787395,-0.056162823511859125,1.0218345622203806,-0.36501554080718435,0.4706053638152057,-0.3814559246279172,0.26483123795486424,-0.34542551873390603,0.4281579910462645,-0.3699063835847191,0.49419618086606215,-0.7606465493353882,0.4480153983779696,-0.8874170524020034,0.33714549523143694,-0.7076104435161596,0.4399554411402677,-0.9201743465134176,0.5614849060691682,-0.7618541961245942,0.44712139339888757,-0.9049736625277411,0.5101906352176614,-0.7831198326800908,0.4585567008293505,-0.9191855439670888,0.5784342252216399,-0.727342600859588,0.5090823402340028,-0.8089171335277454,0.569825903698636,-0.653670875508725,0.5477467185502196,-0.7505505456756898,0.6482369259230354
4,0.7744498600388021,0.40234848128387624,1.0174228735509896,0.9648920095036022,0.7557273075879899,0.4205215963272004,1.0200483057774954,0.9515297377112585,0.8219972817313622,0.4139293628356933,0.96317133420556,0.9599026974077727,0.7666851844643562,0.4010647546684132,0.9563685971333921,1.0058287581276923,0.8378551729060064,0.3762113934984998,0.9951418417866111,1.0393560901879204,0.8491537497707168,0.43073775694658556,0.9948323314354361,1.0346062379781706,0.8333657461257618,0.3804293104444266,1.0291921919798257,1.0300676820604422,0.6912974849451107,0.4038476120682748,0.8178835089795264,1.0214037730194545,0.8431682600279689,0.39486512843686217,1.001095657552663,0.9766895759177624,0.760465047762425,0.4640075865231303,0.8992237535299092,1.006121788973032,0.7668303948696463,0.4073639354819075,0.98997515323507,0.982111210587622,0.4880780438201494,0.4267385343658604,0.5492237252889907,0.9934996685365298,0.6159648721003644,0.27843888943155976,0.7993584486600779,1.00053927094914,0.2933145088298803,0.4470901806265028,0.31677524953631236,0.9582676253988932,0.5977114344068649,0.21813219228728228,0.724686680805393,0.5330868642522782,0.33967462241633195,0.6111036039309565,0.3634641754178809,0.977201073743601,0.43377194411007075,0.23083240482239079,0.5587679998207223,0.33809212088801194,0.3321166799235734,0.6114822583584315,0.402192586391535,0.8517149155059884,0.5006229787777401,0.2906359031108419,0.622042771563752,0.3748533334211379,0.3863361172795754,0.5854160114519338,0.4968590509869787,0.8521052640450139,0.52817202629138,0.2751410427490814,0.6783707248673418,0.3226552279449964,0.3221700700528474,0.5726080648724228,0.4370687989371415,0.886818733509358,0.4963230782493243,0.25960093829400716,0.6064072691251782,0.35180149569040897,-0.19688703412375083,0.39718979832803764,-0.19648399161451427,1.0441163439293921,-0.005771761945707769,0.32163342029006464,-0.011614350432290888,1.0218365291736582,-0.4899722161752137,0.48629992243565856,-0.5309821491308102,0.25358439282871226,-0.38823205922062526,0.430619424456909,-0.4215498385754857,0.5099979086378211,-0.9468894686969607,0.4513086444087771,-1.110820163350224,0.32664831262378624,-0.8158913122976982,0.41733094849500396,-1.050410149960109,0.5679137438453523,-0.9533672818852403,0.44664097996199786,-1.134762942794433,0.49643647600554897,-0.895545570316338,0.4282702695167894,-1.0545665524456285,0.5728673302135527,-0.9092452537668408,0.5388748874599549,-1.027009554451919,0.5696562092749604,-0.7391466839408745,0.5476748353486205,-0.8533281327748753,0.6532005623213508
5,0.5862643185810144,0.46101944910118275,0.7917358986422853,0.964843729741334,0.5799951374135857,0.4837575050739197,0.8094346026063488,0.9514020645621495,0.6459320657794237,0.47607411915283204,0.7522045267643285,0.9597480233545803,0.5903757248779251,0.4620269846355305,0.7451431524559614,1.005694826490882,0.6628405347010844,0.44281883897693913,0.7852408585671903,1.03932700312127,0.674588863303716,0.49625986144830975,0.7853781262858438,1.0345764952604277,0.6588898900145153,0.44927824819428924,0.8198413674598993,1.0300387142030814,0.5866904829713007,0.46082837097368556,0.6925590207035708,1.0211955739952543,0.7784996756745107,0.46218124333935856,0.9234624920281206,0.9766614425254284,0.5983889649057996,0.5226179066143779,0.70482808899327,1.0059428558294163,0.6048907851018213,0.46821494318187395,0.7957110577209662,0.982049102547766,0.4427780899273676,0.44919431606408733,0.4956485672148977,0.993340106902466,0.5484356245791352,0.32012658660372467,0.718040871071042,1.00042781026341,0.1815822825511994,0.4452462215334089,0.18313622268873703,0.9060199223234844,0.5948262387510903,0.21940206924422198,0.7202874544127339,0.5692720692350359,0.13072766454097107,0.6120820141749446,0.11280493751714642,0.9277198010461524,0.4758470754960403,0.2591867217722352,0.6079809330266448,0.3572786474249535,0.11075811332717303,0.6120867686657435,0.13660502534557778,0.7983511750618051,0.5455140289915408,0.3194045915511648,0.6745606553599253,0.38300110954799943,0.1526104444274896,0.5865343734018544,0.21640678166256289,0.8039993089211125,0.5670622450905438,0.3089465024868591,0.723782679602484,0.33219751434102307,0.1049434680869578,0.5749191753689438,0.17643602496496896,0.8435382512171827,0.538020167952749,0.29466551635034255,0.6552702974729178,0.35670490159517887,-0.21713476074232457,0.41894662615930595,-0.21935181475579643,1.0437635440369666,0.006325523380811486,0.3511553922310589,0.003289775119911729,1.0217344860218025,-0.5725393500362046,0.48515902993001275,-0.6260335381921999,0.23395665780998204,-0.44036001238123773,0.42073563324864177,-0.48127035282673497,0.49134886698514174,-1.0539443878185712,0.4040487772174624,-1.233424224699564,0.2969875512674324,-0.8799941850964274,0.32969558038625457,-1.1221259759628053,0.5474770396865694,-1.0665761480182272,0.39032794208968347,-1.2646011238879682,0.45884650875472494,-0.9662822081090199,0.3261820267475481,-1.1336451642219703,0.548504944940573,-1.084585301957968,0.47102864884682627,-1.231067954196219,0.532851592823697,-0.8790369031249368,0.43262377443362715,-1.0156444516986627,0.6306255415312507
6,,,,,,,,,,,,,,,,,,,,,,,,,,,,,,,,,,,,,,,,,,,,,,,,,,,,,,,,,,,,,,,,,,,,,,,,,,,,,,,,,,,,,,,,,,,,,,,,,,,,,,,,,,,,,,,,,,,,,,,,,,,,,,,,,,,,
7,,,,,,,,,,,,,,,,,,,,,,,,,,,,,,,,,,,,,,,,,,,,,,,,,,,,,,,,,,,,,,,,,,,,,,,,,,,,,,,,,,,,,,,,,,,,,,,,,,,,,,,,,,,,,,,,,,,,,,,,,,,,,,,,,,,,
8,,,,,,,,,,,,,,,,,,,,,,,,,,,,,,,,,,,,,,,,,,,,,,,,,,,,,,,,,,,,,,,,,,,,,,,,,,,,,,,,,,,,,,,,,,,,,,,,,,,,,,,,,,,,,,,,,,,,,,,,,,,,,,,,,,,,
9,,,,,,,,,,,,,,,,,,,,,,,,,,,,,,,,,,,,,,,,,,,,,,,,,,,,,,,,,,,,,,,,,,,,,,,,,,,,,,,,,,,,,,,,,,,,,,,,,,,,,,,,,,,,,,,,,,,,,,,,,,,,,,,,,,,,
10,,,,,,,,,,,,,,,,,,,,,,,,,,,,,,,,,,,,,,,,,,,,,,,,,,,,,,,,,,,,,,,,,,,,,,,,,,,,,,,,,,,,,,,,,,,,,,,,,,,,,,,,,,,,,,,,,,,,,,,,,,,,,,,,,,,,
11,,,,,,,,,,,,,,,,,,,,,,,,,,,,,,,,,,,,,,,,,,,,,,,,,,,,,,,,,,,,,,,,,,,,,,,,,,,,,,,,,,,,,,,,,,,,,,,,,,,,,,,,,,,,,,,,,,,,,,,,,,,,,,,,,,,,
12,,,,,,,,,,,,,,,,,,,,,,,,,,,,,,,,,,,,,,,,,,,,,,,,,,,,,,,,,,,,,,,,,,,,,,,,,,,,,,,,,,,,,,,,,,,,,,,,,,,,,,,,,,,,,,,,,,,,,,,,,,,,,,,,,,,,
13,,,,,,,,,,,,,,,,,,,,,,,,,,,,,,,,,,,,,,,,,,,,,,,,,,,,,,,,,,,,,,,,,,,,,,,,,,,,,,,,,,,,,,,,,,,,,,,,,,,,,,,,,,,,,,,,,,,,,,,,,,,,,,,,,,,,
14,,,,,,,,,,,,,,,,,,,,,,,,,,,,,,,,,,,,,,,,,,,,,,,,,,,,,,,,,,,,,,,,,,,,,,,,,,,,,,,,,,,,,,,,,,,,,,,,,,,,,,,,,,,,,,,,,,,,,,,,,,,,,,,,,,,,
15,,,,,,,,,,,,,,,,,,,,,,,,,,,,,,,,,,,,,,,,,,,,,,,,,,,,,,,,,,,,,,,,,,,,,,,,,,,,,,,,,,,,,,,,,,,,,,,,,,,,,,,,,,,,,,,,,,,,,,,,,,,,,,,,,,,,
16,,,,,,,,,,,,,,,,,,,,,,,,,,,,,,,,,,,,,,,,,,,,,,,,,,,,,,,,,,,,,,,,,,,,,,,,,,,,,,,,,,,,,,,,,,,,,,,,,,,,,,,,,,,,,,,,,,,,,,,,,,,,,,,,,,,,
17,,,,,,,,,,,,,,,,,,,,,,,,,,,,,,,,,,,,,,,,,,,,,,,,,,,,,,,,,,,,,,,,,,,,,,,,,,,,,,,,,,,,,,,,,,,,,,,,,,,,,,,,,,,,,,,,,,,,,,,,,,,,,,,,,,,,
18,,,,,,,,,,,,,,,,,,,,,,,,,,,,,,,,,,,,,,,,,,,,,,,,,,,,,,,,,,,,,,,,,,,,,,,,,,,,,,,,,,,,,,,,,,,,,,,,,,,,,,,,,,,,,,,,,,,,,,,,,,,,,,,,,,,,
19,,,,,,,,,,,,,,,,,,,,,,,,,,,,,,,,,,,,,,,,,,,,,,,,,,,,,,,,,,,,,,,,,,,,,,,,,,,,,,,,,,,,,,,,,,,,,,,,,,,,,,,,,,,,,,,,,,,,,,,,,,,,,,,,,,,,
20,,,,,,,,,,,,,,,,,,,,,,,,,,,,,,,,,,,,,,,,,,,,,,,,,,,,,,,,,,,,,,,,,,,,,,,,,,,,,,,,,,,,,,,,,,,,,,,,,,,,,,,,,,,,,,,,,,,,,,,,,,,,,,,,,,,,
21,,,,,,,,,,,,,,,,,,,,,,,,,,,,,,,,,,,,,,,,,,,,,,,,,,,,,,,,,,,,,,,,,,,,,,,,,,,,,,,,,,,,,,,,,,,,,,,,,,,,,,,,,,,,,,,,,,,,,,,,,,,,,,,,,,,,
22,,,,,,,,,,,,,,,,,,,,,,,,,,,,,,,,,,,,,,,,,,,,,,,,,,,,,,,,,,,,,,,,,,,,,,,,,,,,,,,,,,,,,,,,,,,,,,,,,,,,,,,,,,,,,,,,,,,,,,,,,,,,,,,,,,,,
23,,,,,,,,,,,,,,,,,,,,,,,,,,,,,,,,,,,,,,,,,,,,,,,,,,,,,,,,,,,,,,,,,,,,,,,,,,,,,,,,,,,,,,,,,,,,,,,,,,,,,,,,,,,,,,,,,,,,,,,,,,,,,,,,,,,,
24,,,,,,,,,,,,,,,,,,,,,,,,,,,,,,,,,,,,,,,,,,,,,,,,,,,,,,,,,,,,,,,,,,,,,,,,,,,,,,,,,,,,,,,,,,,,,,,,,,,,,,,,,,,,,,,,,,,,,,,,,,,,,,,,,,,,
25,,,,,,,,,,,,,,,,,,,,,,,,,,,,,,,,,,,,,,,,,,,,,,,,,,,,,,,,,,,,,,,,,,,,,,,,,,,,,,,,,,,,,,,,,,,,,,,,,,,,,,,,,,,,,,,,,,,,,,,,,,,,,,,,,,,,
26,,,,,,,,,,,,,,,,,,,,,,,,,,,,,,,,,,,,,,,,,,,,,,,,,,,,,,,,,,,,,,,,,,,,,,,,,,,,,,,,,,,,,,,,,,,,,,,,,,,,,,,,,,,,,,,,,,,,,,,,,,,,,,,,,,,,
27,,,,,,,,,,,,,,,,,,,,,,,,,,,,,,,,,,,,,,,,,,,,,,,,,,,,,,,,,,,,,,,,,,,,,,,,,,,,,,,,,,,,,,,,,,,,,,,,,,,,,,,,,,,,,,,,,,,,,,,,,,,,,,,,,,,,
28,,,,,,,,,,,,,,,,,,,,,,,,,,,,,,,,,,,,,,,,,,,,,,,,,,,,,,,,,,,,,,,,,,,,,,,,,,,,,,,,,,,,,,,,,,,,,,,,,,,,,,,,,,,,,,,,,,,,,,,,,,,,,,,,,,,,
29,,,,,,,,,,,,,,,,,,,,,,,,,,,,,,,,,,,,,,,,,,,,,,,,,,,,,,,,,,,,,,,,,,,,,,,,,,,,,,,,,,,,,,,,,,,,,,,,,,,,,,,,,,,,,,,,,,,,,,,,,,,,,,,,,,,,
30,,,,,,,,,,,,,,,,,,,,,,,,,,,,,,,,,,,,,,,,,,,,,,,,,,,,,,,,,,,,,,,,,,,,,,,,,,,,,,,,,,,,,,,,,,,,,,,,,,,,,,,,,,,,,,,,,,,,,,,,,,,,,,,,,,,,
31,,,,,,,,,,,,,,,,,,,,,,,,,,,,,,,,,,,,,,,,,,,,,,,,,,,,,,,,,,,,,,,,,,,,,,,,,,,,,,,,,,,,,,,,,,,,,,,,,,,,,,,,,,,,,,,,,,,,,,,,,,,,,,,,,,,,
32,,,,,,,,,,,,,,,,,,,,,,,,,,,,,,,,,,,,,,,,,,,,,,,,,,,,,,,,,,,,,,,,,,,,,,,,,,,,,,,,,,,,,,,,,,,,,,,,,,,,,,,,,,,,,,,,,,,,,,,,,,,,,,,,,,,,
33,,,,,,,,,,,,,,,,,,,,,,,,,,,,,,,,,,,,,,,,,,,,,,,,,,,,,,,,,,,,,,,,,,,,,,,,,,,,,,,,,,,,,,,,,,,,,,,,,,,,,,,,,,,,,,,,,,,,,,,,,,,,,,,,,,,,
34,,,,,,,,,,,,,,,,,,,,,,,,,,,,,,,,,,,,,,,,,,,,,,,,,,,,,,,,,,,,,,,,,,,,,,,,,,,,,,,,,,,,,,,,,,,,,,,,,,,,,,,,,,,,,,,,,,,,,,,,,,,,,,,,,,,,
35,,,,,,,,,,,,,,,,,,,,,,,,,,,,,,,,,,,,,,,,,,,,,,,,,,,,,,,,,,,,,,,,,,,,,,,,,,,,,,,,,,,,,,,,,,,,,,,,,,,,,,,,,,,,,,,,,,,,,,,,,,,,,,,,,,,,
36,,,,,,,,,,,,,,,,,,,,,,,,,,,,,,,,,,,,,,,,,,,,,,,,,,,,,,,,,,,,,,,,,,,,,,,,,,,,,,,,,,,,,,,,,,,,,,,,,,,,,,,,,,,,,,,,,,,,,,,,,,,,,,,,,,,,
37,,,,,,,,,,,,,,,,,,,,,,,,,,,,,,,,,,,,,,,,,,,,,,,,,,,,,,,,,,,,,,,,,,,,,,,,,,,,,,,,,,,,,,,,,,,,,,,,,,,,,,,,,,,,,,,,,,,,,,,,,,,,,,,,,,,,
38,,,,,,,,,,,,,,,,,,,,,,,,,,,,,,,,,,,,,,,,,,,,,,,,,,,,,,,,,,,,,,,,,,,,,,,,,,,,,,,,,,,,,,,,,,,,,,,,,,,,,,,,,,,,,,,,,,,,,,,,,,,,,,,,,,,,
39,,,,,,,,,,,,,,,,,,,,,,,,,,,,,,,,,,,,,,,,,,,,,,,,,,,,,,,,,,,,,,,,,,,,,,,,,,,,,,,,,,,,,,,,,,,,,,,,,,,,,,,,,,,,,,,,,,,,,,,,,,,,,,,,,,,,
40,,,,,,,,,,,,,,,,,,,,,,,,,,,,,,,,,,,,,,,,,,,,,,,,,,,,,,,,,,,,,,,,,,,,,,,,,,,,,,,,,,,,,,,,,,,,,,,,,,,,,,,,,,,,,,,,,,,,,,,,,,,,,,,,,,,,
41,,,,,,,,,,,,,,,,,,,,,,,,,,,,,,,,,,,,,,,,,,,,,,,,,,,,,,,,,,,,,,,,,,,,,,,,,,,,,,,,,,,,,,,,,,,,,,,,,,,,,,,,,,,,,,,,,,,,,,,,,,,,,,,,,,,,
42,,,,,,,,,,,,,,,,,,,,,,,,,,,,,,,,,,,,,,,,,,,,,,,,,,,,,,,,,,,,,,,,,,,,,,,,,,,,,,,,,,,,,,,,,,,,,,,,,,,,,,,,,,,,,,,,,,,,,,,,,,,,,,,,,,,,
43,,,,,,,,,,,,,,,,,,,,,,,,,,,,,,,,,,,,,,,,,,,,,,,,,,,,,,,,,,,,,,,,,,,,,,,,,,,,,,,,,,,,,,,,,,,,,,,,,,,,,,,,,,,,,,,,,,,,,,,,,,,,,,,,,,,,
44,0.070125242930663,0.5844117032153339,0.17310819904957517,0.9646864926884167,0.10141344602098148,0.6225814911273865,0.2356878062743574,0.9512291514876561,0.16794788882259107,0.6130886572025299,0.17902979119626627,0.9596019323702358,0.11250889876661109,0.5977086138164387,0.172034552705011,1.0055076083016425,0.13351091686623687,0.5949430948725538,0.15099747753464648,1.0391367450951468,0.14452209561938006,0.6593412987976293,0.15038975957332024,1.0343673425619109,0.1280739033579894,0.620918465498519,0.18409842920550837,1.0297881958810904,0.27508926036217846,0.6103802096100839,0.31882147704677405,1.0208154751755214,0.20883545103668047,0.6660358935983764,0.24035774970009863,0.9764811980796276,0.14643372710179448,0.6332812014065532,0.16308845811214273,1.0056834564153536,0.08975289258776611,0.5930621466749924,0.1781532672253769,0.9818445990115415,0.27638253710303007,0.5271174947368779,0.29430923574930457,0.9932095131257632,0.07267649387344913,0.5757259065385696,0.14900784588674737,1.000506369185224,0.1632502666628744,0.4431273360162885,0.16146558937054206,0.9062520228102398,-0.025256143890704102,0.5557635966871541,-0.017069346407638457,0.5451565067960711,0.10024100323197391,0.6108144021945063,0.07665443655749539,0.9285120063798621,-0.23006074084790631,0.5120130250158723,-0.23102540931780655,0.33642831683375174,0.08774179747989524,0.6109847383884913,0.10924102301741044,0.8023652498642038,-0.19647114375715308,0.5646992518809836,-0.20741157813967684,0.3672624732927352,0.12462483659975183,0.5913802310220937,0.18289290600364616,0.8077341359627385,-0.16969550169845032,0.5407858314911469,-0.15265164245977902,0.31858896927609687,0.07190823147898813,0.5804663412396103,0.1369697143967002,0.8462054994662367,-0.16712859218947493,0.5239664325452583,-0.18339375857518192,0.34657500280863407,-0.10561778911472494,0.40867781874811204,-0.08458768791164079,1.0428911108513894,-0.11542596024690291,0.43041794687659723,-0.14145255608427737,1.0213509897373176,-0.3321388252762188,0.5254022383383684,-0.328483485677864,0.24356230394340495,-0.3660101474887725,0.4889840542023924,-0.38536756966951197,0.4798961325147743,-0.6521676518025205,0.4488178259082583,-0.7393903172595157,0.30240549426822594,-0.6707016054222813,0.3801617006293271,-0.8641089642867874,0.5327086776412813,-0.6489291829382424,0.43355972738707726,-0.7513615687317735,0.4515034549369759,-0.7456461868314082,0.3833467553890581,-0.8622309133942203,0.5342791043720305,-0.7249607763029575,0.4967095186645601,-0.7856143224575114,0.5134109418837556,-0.7411902233969131,0.43337190213252547,-0.8421543508439885,0.6018387034765937
45,0.048675366592568714,0.59037163125107,0.14774578273549768,0.9646253383228772,0.08278694687056351,0.6288897487071899,0.21346767191337454,0.9512081706526951,0.1493960678794722,0.6181890862606049,0.1569090298131291,0.9596010383005642,0.09419714502225161,0.6033162187969074,0.15017606143681567,1.0054730376076728,0.10979674579874939,0.6005475408068495,0.12268905699272298,1.0390611664055716,0.12069036785574938,0.6636609666137914,0.12196339368668699,1.0343074398939116,0.10404525889361319,0.6235225328241111,0.15547601456401508,1.0297155378191092,0.2570670364063123,0.618149436637977,0.2972234816362315,1.0207761361099699,0.1683870233923582,0.6713766485841858,0.19204699039793444,0.9764550316405712,0.12466464775820041,0.637513369604185,0.13745646148240473,1.0054532632772313,0.061281771215708096,0.6001744113081711,0.14463804809725228,0.9817228267222655,0.24704703099006609,0.5332126955139317,0.259159929501722,0.9930982312539677,0.03444688067663174,0.5758288437600967,0.10297565003874347,1.0006261149165778,0.09686422474874713,0.4382791836172254,0.0817360261907961,0.9033303819372844,-0.08210150599284557,0.5533867422674459,-0.0855583383552748,0.5067916195585221,-0.048275219099417496,0.6108203030543391,-0.10159760799613503,0.9250403934495642,-0.3080763652722351,0.5297247836294587,-0.32386110366400117,0.31125676870562363,-0.07811657550589134,0.6110343294529444,-0.08980530098194561,0.8042183582702707,-0.27806201527577684,0.589089591732363,-0.3042918348512993,0.35325120944538413,-0.03859674179465246,0.5914382859461049,-0.012964236502417986,0.8087641042244572,-0.25616132841493944,0.5733765783707245,-0.2551144699273917,0.3063552351452375,-0.0796932864736685,0.5808504335705429,-0.044944958392697146,0.8462254670222364,-0.24909795975311963,0.5540297040677803,-0.2804902711820273,0.3390199054670966,-0.11077269036004705,0.41978594896471055,-0.09140482587897075,1.0429162044068396,-0.10355508589387821,0.43600024968535883,-0.12810896322945783,1.0214439133785225,-0.40348476522721666,0.4987987482241565,-0.41693023166146137,0.23538861469722724,-0.23088067275636304,0.48150209175999437,-0.23122320066172236,0.5107830806234473,-0.6988200944596871,0.4470701879211215,-0.8020073987621779,0.29846169334201744,-0.28757274366289076,0.48080211677465184,-0.4167324315328732,0.5670010775245515,-0.6942507220657901,0.44015718670333087,-0.8128964865576598,0.4533338837757058,-0.3377321311111321,0.5034218322075243,-0.3855056645113013,0.5726959072551787,-0.7851384331927426,0.48125203751870127,-0.8659776643013013,0.48147700838728036,-0.29244994492658494,0.5627809769158507,-0.31781491538850576,0.6109321072928169
46,0.11421052880287322,0.5485459791285724,0.2263397389492159,0.9644826448032848,0.15348473662494685,0.5818069669155029,0.2982753737204965,0.9510499799254613,0.2200917037642064,0.570834805311966,0.2417299493251454,0.9595091875429653,0.16492726527931062,0.5566989492809162,0.235050266351652,1.0053096612763437,0.19253569022205919,0.554716098927577,0.22191919505119004,1.0388357416390313,0.20353915829694322,0.618779801586173,0.22130067374218673,1.034128745168875,0.18729598093864677,0.5806365736757041,0.2552066760645165,1.029512584003649,0.3294922900450026,0.5540194284173043,0.38439795887804246,1.0206675960518339,0.29788506735719417,0.6249036819131958,0.3473143499286193,0.976303039796394,0.1881548764584394,0.6034024062596111,0.21357330836255337,1.005186651701151,0.14081042388472972,0.5635652384871261,0.23991775294493536,0.9815490195781004,0.2913540809201023,0.49978948036309856,0.31402859219918333,0.9930977544168093,0.18269920657788621,0.5353007847543594,0.2797615217638783,1.0007401386020331,0.1972072988358866,0.4382652659326704,0.2021058425562834,0.893182750768919,0.1839199718033766,0.5536087099645894,0.23222858426342421,0.5018567722036333,0.22899079684826218,0.6107282734828059,0.23094694578274882,0.9206695252435401,0.11311498236104858,0.5439558694067415,0.18020694766433748,0.3139663064501457,0.23507796111342977,0.611222858944369,0.28582606524949006,0.8051292364517282,0.19410824566536908,0.6097216203120749,0.26093450591625283,0.3647304381803542,0.2736501946944526,0.5905243679277639,0.3614756336937653,0.8078485768807072,0.21279563906354224,0.5880724611679657,0.3067454130691056,0.3176916213490034,0.20326305864144026,0.5794960372273117,0.29434081448677624,0.8419041302760206,0.1773068067380452,0.5648966440892952,0.23032732982467713,0.3521629084540046,-0.15737736326428037,0.39160648224031486,-0.1468272386649657,1.0429778952141822,-0.0583960809470278,0.40806352287681086,-0.07412368178072191,1.021527359881208,-0.5227779592464125,0.47102164265431695,-0.5619603390833007,0.22487633721328715,-0.22915137404098543,0.4674913345521239,-0.23020769369805127,0.5412657900312537,-0.9161301640630389,0.4003924494930056,-1.0650320112771003,0.29939501267223284,-0.4752988247396501,0.4786579588881467,-0.6426665756707284,0.6011483997024385,-0.9203315992243437,0.3963610050245589,-1.0864250401150612,0.45506772328757716,-0.5370866043918892,0.4974828254021044,-0.6254583978424184,0.6098952852687896,-0.9768480835260805,0.4406596651012514,-1.0985052509949886,0.4508336942641267,-0.4729630640776726,0.5803942090516234,-0.5344938159579999,0.6201620057455757
47,0.2511938799757008,0.5443551765544147,0.390666182740659,0.9638139998981944,0.27209067348173294,0.5620571466831116,0.4405900632876362,0.9504885041716771,0.33859883955908987,0.5501080053470612,0.38395360649705224,0.9590360458727383,0.28341189288274854,0.5348227929508076,0.37726972365024414,1.0047053297829658,0.3199625228634078,0.5387257224551039,0.37472713190617085,1.0382811800240408,0.33131546494102115,0.6009240381508092,0.3744561043092072,1.0336050587598784,0.3153665585047922,0.5601068862710715,0.40865451191599905,1.0290374753801443,0.37923109275413724,0.5366684567185434,0.44429927506503875,1.0200915171600795,0.38268882585347114,0.590967002549945,0.44897861082059176,0.9758621442389904,0.3005136955813809,0.5933905544720439,0.3484613696095141,1.0038174734060152,0.263699880471774,0.5495010457152145,0.38725737411578864,0.980539972546698,0.287386742984984,0.47898179689523357,0.3096600683795067,0.9929966649392704,0.24534753479598062,0.48000698630770416,0.35484060921677224,1.000506071162,0.13331128690758964,0.434922756662956,0.12550550931750387,0.8395598493292522,0.20287549156991685,0.4949363712404531,0.2539697463818491,0.4635427277280779,0.11386595577964656,0.6104101634936396,0.0927919396913132,0.8776243024842932,0.03037782865871677,0.5065406629743989,0.07944562732280183,0.290897878410595,0.08645167570124587,0.6116077857403285,0.10745544385273122,0.7778763835350107,0.08961627829633645,0.577998955479006,0.1337795531409393,0.352277180142787,0.13173607008921145,0.589637450813506,0.19107905971743067,0.7773604434502263,0.09867507394294978,0.5602625432411774,0.16801586498285537,0.3043408365704084,0.0863246193977553,0.5774774067227035,0.1539065750959447,0.8029125598033033,0.08687864833994136,0.5349206337667244,0.12018000400871276,0.33937225832468637,-0.18113177918978357,0.3713445985046581,-0.1749398662316175,1.0429667491456094,-0.03715870422494085,0.376188121141505,-0.04846856526079424,1.021558175482557,-0.43807240096040834,0.43461137053288756,-0.4639014216543522,0.21059840218521092,-0.27195630701270124,0.4389433025067595,-0.280545576244984,0.5132114930608863,-0.775931267361443,0.3940785890765933,-0.9006870793645639,0.28141917567996905,-0.5310357693028,0.45954066314611175,-0.7064386354823418,0.5818955629981843,-0.7763812273804325,0.3893035766645736,-0.9175753612150856,0.43985083629035426,-0.5976874999241062,0.4796799610889788,-0.6948485411733987,0.6090937220058501,-0.8333445843272624,0.45536878012963267,-0.9303185169957688,0.41283901147527785,-0.5654949727847469,0.5666087275986815,-0.6418330673554042,0.5690712288252571
48,,,,,,,,,,,,,,,,,,,,,,,,,,,,,,,,,,,,,,,,,,,,,,,,,,,,,,,,,,,,,,,,,,,,,,,,,,,,,,,,,,,,,,,,,,,,,,,,,,,,,,,,,,,,,,,,,,,,,,,,,,,,,,,,,,,,
49,0.3585781334469978,0.55091371403763,0.5186190154735968,0.9634986913273328,0.3715333256830637,0.5720618459133057,0.5589475132512002,0.9501537644866185,0.4378487989174853,0.560362209620285,0.502124922553093,0.958696180188229,0.38233774195573883,0.5447683643733845,0.495111929568002,1.0043744047951728,0.42453289437879915,0.5405103451243238,0.49909549125846764,1.0381201878785025,0.43576090808790846,0.6021539203911046,0.4987122664024774,1.0334333973829253,0.41981859192516546,0.5601611264978171,0.5329285869680135,1.0289144513933282,0.4609281738114198,0.5433928739281686,0.5414949116594965,1.0196257068611598,0.4809738155165491,0.5928850800188171,0.5664485650097747,0.9756879794669568,0.4049086389891646,0.5893191400013713,0.47257089353106985,1.0031115755979405,0.37413184543295475,0.5497484049910324,0.518513771539385,0.9802464196711792,0.35724789450803063,0.47371703783151287,0.3927224609448093,0.9928844293931582,0.3407654919901155,0.45360469167193146,0.46941003863993674,1.0004555264232307,0.22050651795848153,0.44132903408109264,0.23016561951938425,0.8037304840758037,0.3100235791878859,0.4652557913397115,0.38217600685401665,0.4469616096212358,0.2143896776318145,0.6032207108454768,0.2132932305860994,0.8579190665261939,0.14386962022039507,0.46675891372589423,0.21304725974146846,0.2859407985232048,0.19542006602168777,0.602707381763888,0.2381786866745993,0.7591190998474191,0.20856435369049128,0.5274710252193014,0.27361853562292987,0.3506964649633437,0.23856513351712294,0.5811397358171682,0.3193916390725787,0.7576363724243779,0.21746619204696943,0.5126936259667023,0.30733257245211415,0.3028619857288862,0.18757901707630661,0.5701136104885727,0.2754747383000389,0.7762953904231154,0.2017295874929068,0.49489516112573323,0.25483228655652607,0.3374389518690742,-0.19110202493861134,0.37739327785646476,-0.18884947964407858,1.0429894585152686,-0.014428076583007661,0.3776783862725017,-0.0220735168869827,1.0216142038486458,-0.40876227595280273,0.42840283152379327,-0.4333428977485826,0.20530851976371745,-0.23084620239499667,0.4470144866650847,-0.23303510625328727,0.5315976186254615,-0.8655834813436294,0.3867515093036441,-1.0115850236379067,0.26674621086864403,-0.46963137002846145,0.45957785644445165,-0.6358342685945982,0.5982332557357637,-0.8777323289718062,0.3883974668546981,-1.042181316138264,0.4209729128017373,-0.5323020844550228,0.4746519516743059,-0.6196657162722249,0.6269634329280913,-0.9002234349250228,0.4420470824176881,-1.0141462324772659,0.38662235550565804,-0.4302852540158067,0.5825432545190001,-0.48359378179586954,0.567120249592469
50,0.29483184374367283,0.5509987698657245,0.4420110578854525,0.9635804688999644,0.3066540160305303,0.5752842518237976,0.48108281965745214,0.9502330386641696,0.3730519677046559,0.5667929547451019,0.42434062101160264,0.9587632950182463,0.31752412091442345,0.5531365584766255,0.4173097924033085,1.004460354692939,0.3622881785467559,0.5421496516695814,0.4243113534646405,1.0382034555672537,0.3729640309504724,0.6028440229683141,0.4233811501764174,1.0335071879331572,0.35696759382777493,0.5604193934236289,0.45753788944529433,1.0289914605943777,0.4095869806774622,0.5463108193131478,0.47980581262931254,1.019736869523666,0.44014761626225557,0.5900447398813354,0.5173894374895528,0.97574418664698,0.346297745653685,0.5925165119610576,0.4022567589906725,1.0033353314344273,0.31895916848609546,0.5481306753271835,0.4522368826749044,0.9803916165858519,0.3482145257877879,0.47371444502946514,0.3817660033764366,0.9929018339494327,0.30694873607980716,0.45376201813181605,0.4288301135579209,1.0005252638576179,0.22048622395584624,0.43377959918080883,0.23013960244564452,0.7903358302786541,0.3142384099376165,0.4492271188829702,0.3870539964669324,0.4253962915136309,0.220762767570562,0.6026512480692927,0.2208682547053744,0.8506712609307959,0.18169031874304348,0.42283532711891486,0.2574799562230557,0.270880731346386,0.2076527297084715,0.6059778886227137,0.25284633602917916,0.7530959312835763,0.24533307923364922,0.4762608601954977,0.31658945014633877,0.3391088451818495,0.25097182307278626,0.5832003279916982,0.3342481000342911,0.7506724637520451,0.26127203217466405,0.45964066414037774,0.3585235772189403,0.2915999861218,0.19464983072129372,0.5706374161068588,0.28389656930237933,0.7657832768519484,0.24306878104642785,0.44609958026178054,0.30312515321643424,0.32705117358690866,-0.1730014756944135,0.37373653289949454,-0.16735257977268247,1.043055679275614,-0.031551373209762486,0.3781662204876659,-0.04261826312561068,1.0216749409816719,-0.36877526897689533,0.4005437695673877,-0.3846438859369329,0.21700092451072672,-0.23846937583657143,0.44588637935574327,-0.24199148939371445,0.5491208477476234,-0.8789611278425363,0.3635131484218386,-1.024902980018145,0.25514035206584856,-0.46968540449413193,0.45166539945516326,-0.6352933462571764,0.6092041462577669,-0.8962957883443279,0.3687271592184371,-1.061420853455668,0.4070304923191018,-0.5327872082218519,0.46813480961688714,-0.6195006287971434,0.6405041777095855,-0.9593264582981769,0.40009441279717417,-1.0814587920413856,0.36095588020963754,-0.4533161063942556,0.554775477076068,-0.5104382287393863,0.5579137757651069
51,,,,,,,,,,,,,,,,,,,,,,,,,,,,,,,,,,,,,,,,,,,,,,,,,,,,,,,,,,,,,,,,,,,,,,,,,,,,,,,,,,,,,,,,,,,,,,,,,,,,,,,,,,,,,,,,,,,,,,,,,,,,,,,,,,,,
52,,,,,,,,,,,,,,,,,,,,,,,,,,,,,,,,,,,,,,,,,,,,,,,,,,,,,,,,,,,,,,,,,,,,,,,,,,,,,,,,,,,,,,,,,,,,,,,,,,,,,,,,,,,,,,,,,,,,,,,,,,,,,,,,,,,,
53,,,,,,,,,,,,,,,,,,,,,,,,,,,,,,,,,,,,,,,,,,,,,,,,,,,,,,,,,,,,,,,,,,,,,,,,,,,,,,,,,,,,,,,,,,,,,,,,,,,,,,,,,,,,,,,,,,,,,,,,,,,,,,,,,,,,
54,,,,,,,,,,,,,,,,,,,,,,,,,,,,,,,,,,,,,,,,,,,,,,,,,,,,,,,,,,,,,,,,,,,,,,,,,,,,,,,,,,,,,,,,,,,,,,,,,,,,,,,,,,,,,,,,,,,,,,,,,,,,,,,,,,,,
55,0.43928935301652067,0.46453093753883534,0.616875951924231,0.9636751806805126,0.4568501335882995,0.4875080975440888,0.6628399610883856,0.9502890074256137,0.5237450579911822,0.47665347630004884,0.6065949748072893,0.9588013227816128,0.46885141973872363,0.4559290718471394,0.6001844606166428,1.004503866083625,0.5068947067583913,0.46197830500515263,0.59958689477593,1.0382894650696646,0.51805119879038,0.5254668526439885,0.599111456090242,1.03359272059841,0.5018311543404712,0.48590113008363256,0.6330448148033517,1.029079258236132,0.5315695797131482,0.4638323556633981,0.6271795956522794,1.0197598173119047,0.5463264473212617,0.5211682945879089,0.6459998993776844,0.9758158314300001,0.47520226338536786,0.5090175571881083,0.5584142687505412,1.00346592521113,0.4431973396550288,0.47837679005801836,0.6027509525872381,0.9805180380374205,0.382356127062487,0.412668440734116,0.423041540770103,0.992939921317444,0.3985870670318896,0.4287233585592148,0.5388705632707235,1.000658122610822,0.24278002166512483,0.43858707140981273,0.2560103443013638,0.7984307966902446,0.4264552349763187,0.5191342774961751,0.5197176293743526,0.4393932800485582,0.2611130037333522,0.6061776376681391,0.26895398485387395,0.85419163046052,0.3970392672576651,0.5084334084692415,0.5119165912679394,0.3032400035879784,0.25563492410964017,0.6074127512363917,0.3098826328852626,0.7569775049606393,0.4964839492821127,0.5659510686305563,0.6135567926017699,0.3743007387594252,0.30935481404329346,0.579486243366454,0.4039834492737466,0.7522292178642888,0.522943091580778,0.548242968598996,0.6678885427712642,0.32167172150388007,0.23885323543216355,0.5669760219875961,0.33678297103828114,0.7591994073947035,0.4693419247256234,0.5300874719358223,0.5701366178568451,0.3540459681940711,-0.19496234805618026,0.31162899968301805,-0.19257623035887392,1.043144907428843,-0.01709638766299504,0.3447151997700451,-0.024733785595533173,1.0217278103015877,-0.6391795518189033,0.32067789670743285,-0.7061010631643704,0.20622209505535102,-0.3693150029847165,0.42468491780216966,-0.3972329001778682,0.5337818904379005,-1.1843150810349041,0.2883679336257724,-1.390760383619295,0.25594957452564165,-0.7231602524851148,0.4377740601531003,-0.9374350792085205,0.6177603930152742,-1.203895094457097,0.285439681725151,-1.4306125532696972,0.41967564751052333,-0.7974257186072005,0.4521253000534411,-0.9351657226609409,0.6612365209064544,-1.2210429698148562,0.34853037499733897,-1.3951795737786263,0.33713512234373183,-0.6968181761164477,0.5519669658188964,-0.7998886519473399,0.5287089601389625
56,,,,,,,,,,,,,,,,,,,,,,,,,,,,,,,,,,,,,,,,,,,,,,,,,,,,,,,,,,,,,,,,,,,,,,,,,,,,,,,,,,,,,,,,,,,,,,,,,,,,,,,,,,,,,,,,,,,,,,,,,,,,,,,,,,,,
57,0.31760618784093747,0.45623203383514577,0.46951998857704025,0.963745096928834,0.30514324030996504,0.4829126390365509,0.4799934354234562,0.9502956831458287,0.37204403927060237,0.4765117066524505,0.42374065783083276,0.9587939318056606,0.31691632238887957,0.4640835236942158,0.4170873199692029,1.0045289000344308,0.3862700627580408,0.45305239024074834,0.45394996845112534,1.038350679039849,0.3978369437454061,0.5108826987533788,0.4539056752610143,1.0336451726858122,0.3810051234922262,0.46260379040582184,0.48726473898525224,1.0291340945093252,0.32567412141644875,0.46492988578996974,0.37989487597749394,1.0197155310608363,0.4773924352065079,0.4886024922521698,0.5632914205575504,0.9758384811950148,0.34034278848027166,0.5077392759762553,0.3950918733177427,1.003577683920084,0.3456629475929926,0.45304630614459673,0.4848712437383726,0.9806266377002012,0.2463440900993588,0.4405000249492802,0.2593086930831624,0.9929459413865664,0.35645794437520834,0.3257294232126114,0.4898346767154583,1.0006993690250068,0.16928066886649512,0.45966622423230724,0.16707967929562983,0.8064639530852031,0.4100778052461985,0.2942172233198445,0.5024690965093995,0.44027450491924003,0.23327316031924666,0.6154809094386164,0.23598208098675133,0.8670153313653662,0.2565932221493301,0.20452069434551548,0.34630652016223656,0.2970222854635887,0.21873879196910642,0.6175630646137721,0.26621592565232977,0.7681986753860544,0.3191349445285512,0.2374326481727163,0.4041436191009196,0.3675963189081221,0.2624954917962845,0.5880118533365468,0.34839339431908617,0.7631048005592961,0.34068202449523693,0.22177256373563842,0.4524683065054619,0.3165279598690534,0.2111268520644286,0.5765898339573532,0.3040612358300419,0.772368278797444,0.32244990246907224,0.21834161970384292,0.39687760875233535,0.3506758619738258,-0.22326811690603104,0.32385820386087455,-0.22765260097595558,1.0430581826706946,0.016685971636554185,0.2890347459927318,0.01574037970955893,1.0217421750209785,-0.5205398280862218,0.3739789628676349,-0.5656440399220785,0.19865580694175694,-0.23085448587852336,0.4028977512067107,-0.23226988979355434,0.5594835920789832,-0.9690034584540859,0.3115709191509036,-1.1336708526553778,0.24369834643154076,-0.5011267253382573,0.41370099582586034,-0.6721988297401505,0.6270948976196138,-0.978023533358054,0.30366684170211017,-1.1605658253954456,0.40763032366179897,-0.5642027012730553,0.4276799153126116,-0.656584759291585,0.6745563708744109,-1.0136528490082028,0.3645622959072206,-1.1481577174978606,0.32737402729673476,-0.4617489150816024,0.534870327139392,-0.5193638128908197,0.5402616814009407
58,,,,,,,,,,,,,,,,,,,,,,,,,,,,,,,,,,,,,,,,,,,,,,,,,,,,,,,,,,,,,,,,,,,,,,,,,,,,,,,,,,,,,,,,,,,,,,,,,,,,,,,,,,,,,,,,,,,,,,,,,,,,,,,,,,,,
59,,,,,,,,,,,,,,,,,,,,,,,,,,,,,,,,,,,,,,,,,,,,,,,,,,,,,,,,,,,,,,,,,,,,,,,,,,,,,,,,,,,,,,,,,,,,,,,,,,,,,,,,,,,,,,,,,,,,,,,,,,,,,,,,,,,,
60,,,,,,,,,,,,,,,,,,,,,,,,,,,,,,,,,,,,,,,,,,,,,,,,,,,,,,,,,,,,,,,,,,,,,,,,,,,,,,,,,,,,,,,,,,,,,,,,,,,,,,,,,,,,,,,,,,,,,,,,,,,,,,,,,,,,
61,0.48310146484498945,0.44497790204116994,0.6670680373464484,0.9638535773823252,0.47434072780495745,0.4733384045509247,0.6819329858174055,0.9503905141356663,0.5407582912774549,0.4674658971450805,0.6252123134604295,0.9588691528673672,0.4852479230529541,0.4552477907573567,0.6181971173268537,1.0046335061860117,0.5535923305783523,0.4286842829218701,0.6535743165786735,1.038444377541436,0.5647702626558384,0.48375662491609844,0.6531490871568195,1.033734400839041,0.5485057881339547,0.43702260935647497,0.6870531512876613,1.0292217133371453,0.48467117022563283,0.45686811916551906,0.5697520963463885,1.0198242499329067,0.6257694258942799,0.4563567668588745,0.7400820468901171,0.9759085166526258,0.49824113314780627,0.5008642378292826,0.5837148653281453,1.003798161501108,0.5011078022052521,0.44548223830402056,0.6703194185245865,0.9807659933596862,0.3718720883981055,0.420664582644669,0.4101611717188897,0.992990644870148,0.48417737704176805,0.2992687756296036,0.6412273660293688,1.0008136311290412,0.23476472958095174,0.4302423615366132,0.24683378995710897,0.8090205155089092,0.5745317511563544,0.2415605876777928,0.6971386934100562,0.4916779976083727,0.26418327217795323,0.6156976319270198,0.2728457581906578,0.8716090017335608,0.5730552398427391,0.26151845547584845,0.7212493601429759,0.3540033721945458,0.2618097242811518,0.6215844707874781,0.31759988612879353,0.7687006657043527,0.6763544595419454,0.301324595442156,0.8274984116340147,0.41550039310016923,0.3076067691759812,0.5928324385874013,0.4019466965250116,0.7652826946747441,0.7006783051438454,0.3034475269714935,0.8794386078767726,0.3649194808460737,0.2434574005642029,0.5780809037510544,0.34220322358510064,0.7738245990832411,0.6457728850999509,0.29761120769746474,0.7800861366718486,0.3967308510733283,-0.21103144053731485,0.33579105374490775,-0.2131341654006614,1.0431700605889382,0.009720489764781147,0.2874752202645061,0.006369949940690287,1.0217868188999153,-0.5227275418524119,0.40415411230840026,-0.5695338575584071,0.19033486442066172,-0.41028905615115957,0.37278164016659526,-0.4471359001911057,0.5468649907568092,-0.9630181722220382,0.3455889886565951,-1.1281132026504994,0.23358355742244646,-0.8357709987576895,0.3093130866518949,-1.071886816859648,0.6307620137847749,-0.9716268973265494,0.33481631846869647,-1.154509479441052,0.40261104632758565,-0.9168103573908661,0.3124928365982409,-1.0774841195764289,0.6780222021541655,-0.9978493945863608,0.4141018619472597,-1.1309046917551075,0.31887559704465956,-0.8471041207268467,0.41616946520854475,-0.9797414916467999,0.5492408231131294
62,0.47175053152469354,0.45214074121544057,0.6534633235322912,0.963867167241334,0.4622430709520075,0.4799735638049988,0.667412088750104,0.950206156969376,0.5286113703084947,0.47419621521453853,0.6106317480024925,0.9586101706858183,0.47312740345614374,0.4619679164325581,0.6036464408901222,1.004513700850013,0.5470557835473447,0.4359989053240613,0.6457331053046971,1.0384701863526236,0.5582763764659033,0.4922312133102635,0.645355089461451,1.0337556796972258,0.5420838350230558,0.44501592004640106,0.6793369761831342,1.029253065380297,0.4727158384771383,0.46320564262590724,0.5553917936796633,1.0195385052658534,0.6317646944472749,0.46253037754613036,0.7471995517003165,0.9759109604430616,0.48630572481791035,0.5062882605038432,0.5694285578877439,1.0036754951421605,0.4961654264286451,0.45116420007884667,0.6644031186181464,0.9808145711451781,0.35246871828969567,0.4179770986187138,0.3870217599859965,0.9928260168412785,0.503466272201607,0.30315738265475006,0.6641696634945154,1.0008644142863898,0.16176361989921284,0.4326106030851514,0.1592255329097247,0.7804180346205425,0.6121116390817569,0.2651826087568563,0.7415467301426106,0.5395177881910296,0.12462734016765184,0.6135977602915828,0.10539769176996085,0.8450985842721656,0.5978466664777802,0.2615179190340455,0.750495268881317,0.3913225555441551,0.10023979171271477,0.6204750495342738,0.12379718848920386,0.7353261773506234,0.6955460689702316,0.3042178645041983,0.8497256719104915,0.4387744571641951,0.14582834254194177,0.5913360639803151,0.2079077267637081,0.7339826267731328,0.7185929161268165,0.3057240965763671,0.8997168192098663,0.3892006845928694,0.10086668046325604,0.576568376285234,0.17116895481721933,0.7464482453425489,0.6689859483335671,0.30365112516648946,0.8071762365513392,0.4193159450483955,-0.23789156382106263,0.34841415521776237,-0.24462948932731648,1.0428850907822669,0.03284864397879347,0.2967467227593181,0.0341824954072144,1.0217493871829966,-0.5009575057405203,0.4519883000544482,-0.5427541270958833,0.17870109574295023,-0.3005616810296113,0.41385806190426616,-0.3161460371485109,0.55184179978162,-0.900959679084229,0.35996521174390594,-1.0527901821869259,0.21484469157009056,-0.6695003031864162,0.3382643441191648,-0.8724922062564533,0.6308173864997713,-0.9058200266514629,0.3432915923162765,-1.074650751976821,0.37928947736167384,-0.7463867911911264,0.3378990482128496,-0.8730410199324543,0.68036955227471,-0.9608453715621643,0.4249845673973176,-1.0855123328722702,0.30459605269117446,-0.6995941254507598,0.45028191866923817,-0.802833983803313,0.5557408288351753
