frame,NOSE.x,NOSE.y,NOSE.z,NOSE.v,LEFT_EYE_INNER.x,LEFT_EYE_INNER.y,LEFT_EYE_INNER.z,LEFT_EYE_INNER.v,LEFT_EYE.x,LEFT_EYE.y,LEFT_EYE.z,LEFT_EYE.v,LEFT_EYE_OUTER.x,LEFT_EYE_OUTER.y,LEFT_EYE_OUTER.z,LEFT_EYE_OUTER.v,RIGHT_EYE_INNER.x,RIGHT_EYE_INNER.y,RIGHT_EYE_INNER.z,RIGHT_EYE_INNER.v,RIGHT_EYE.x,RIGHT_EYE.y,RIGHT_EYE.z,RIGHT_EYE.v,RIGHT_EYE_OUTER.x,RIGHT_EYE_OUTER.y,RIGHT_EYE_OUTER.z,RIGHT_EYE_OUTER.v,LEFT_EAR.x,LEFT_EAR.y,LEFT_EAR.z,LEFT_EAR.v,RIGHT_EAR.x,RIGHT_EAR.y,RIGHT_EAR.z,RIGHT_EAR.v,MOUTH_LEFT.x,MOUTH_LEFT.y,MOUTH_LEFT.z,MOUTH_LEFT.v,MOUTH_RIGHT.x,MOUTH_RIGHT.y,MOUTH_RIGHT.z,MOUTH_RIGHT.v,LEFT_SHOULDER.x,LEFT_SHOULDER.y,LEFT_SHOULDER.z,LEFT_SHOULDER.v,RIGHT_SHOULDER.x,RIGHT_SHOULDER.y,RIGHT_SHOULDER.z,RIGHT_SHOULDER.v,LEFT_ELBOW.x,LEFT_ELBOW.y,LEFT_ELBOW.z,LEFT_ELBOW.v,RIGHT_ELBOW.x,RIGHT_ELBOW.y,RIGHT_ELBOW.z,RIGHT_ELBOW.v,LEFT_WRIST.x,LEFT_WRIST.y,LEFT_WRIST.z,LEFT_WRIST.v,RIGHT_WRIST.x,RIGHT_WRIST.y,RIGHT_WRIST.z,RIGHT_WRIST.v,LEFT_PINKY.x,LEFT_PINKY.y,LEFT_PINKY.z,LEFT_PINKY.v,RIGHT_PINKY.x,RIGHT_PINKY.y,RIGHT_PINKY.z,RIGHT_PINKY.v,LEFT_INDEX.x,LEFT_INDEX.y,LEFT_INDEX.z,LEFT_INDEX.v,RIGHT_INDEX.x,RIGHT_INDEX.y,RIGHT_INDEX.z,RIGHT_INDEX.v,LEFT_THUMB.x,LEFT_THUMB.y,LEFT_THUMB.z,LEFT_THUMB.v,RIGHT_THUMB.x,RIGHT_THUMB.y,RIGHT_THUMB.z,RIGHT_THUMB.v,LEFT_HIP.x,LEFT_HIP.y,LEFT_HIP.z,LEFT_HIP.v,RIGHT_HIP.x,RIGHT_HIP.y,RIGHT_HIP.z,RIGHT_HIP.v,LEFT_KNEE.x,LEFT_KNEE.y,LEFT_KNEE.z,LEFT_KNEE.v,RIGHT_KNEE.x,RIGHT_KNEE.y,RIGHT_KNEE.z,RIGHT_KNEE.v,LEFT_ANKLE.x,LEFT_ANKLE.y,LEFT_ANKLE.z,LEFT_ANKLE.v,RIGHT_ANKLE.x,RIGHT_ANKLE.y,RIGHT_ANKLE.z,RIGHT_ANKLE.v,LEFT_HEEL.x,LEFT_HEEL.y,LEFT_HEEL.z,LEFT_HEEL.v,RIGHT_HEEL.x,RIGHT_HEEL.y,RIGHT_HEEL.z,RIGHT_HEEL.v,LEFT_FOOT_INDEX.x,LEFT_FOOT_INDEX.y,LEFT_FOOT_INDEX.z,LEFT_FOOT_INDEX.v,RIGHT_FOOT_INDEX.x,RIGHT_FOOT_INDEX.y,RIGHT_FOOT_INDEX.z,RIGHT_FOOT_INDEX.v
0,1.0291585035538453,0.6135640021294427,1.334147953090029,1.018409182796924,1.00421071816419,0.5955426363924294,1.3200544439545785,1.0336938103687698,1.0406189910286319,0.5539607035330305,1.2803661925801662,0.9857823079780501,1.005668286638277,0.6301424040339394,1.376506123583475,0.9832918874714884,1.0030825577770546,0.5698955756709853,1.28465007577885,1.0380350343028244,1.0432941046916595,0.5459864113011266,1.3669545131154341,0.9603483918391347,1.0044928660684918,0.6150113617473231,1.2993260965419708,0.9742706668877368,0.9917103775117798,0.5250280221452569,1.2288469847729637,1.0116238081174647,0.9191260763420194,0.5522515893322096,1.2535669997132746,1.0414076986462728,0.9293700652095696,0.6170548936108352,1.2310087832890855,0.9745041021123192,0.9906322382162924,0.6090537856077042,1.2271490479384224,1.0308314014404867,0.9333638271331282,0.4421660720662035,0.9945453513503415,1.0342821499758181,0.790425881231495,0.5310460557547771,1.0156609592496493,0.9904319106269011,0.9348790377515145,0.6113423348626651,0.8964858289924755,0.8614862777417426,0.5853649938698604,0.6165743440360654,0.8286599598272834,1.0213930344377822,0.9239998249795649,0.7830301800649095,1.0871381914431077,1.0145937095727013,0.6595132877113107,0.7742719820540194,1.0583671484470576,1.0039426532629634,1.0468292103827546,0.8363426573221869,1.1763049359236062,1.0162887683027102,0.7145109566046135,0.8157252518653404,1.1589390718745693,0.9558841634514048,1.0350029090217814,0.8515455794373444,1.2235576835306081,0.9339073706083698,0.6936941143030613,0.7921744016399251,1.1177285382088218,1.017393009657042,1.0042836734200902,0.815044285727963,1.0713271884850086,0.9269349404590987,0.664303763742629,0.8536886706305049,1.0943985893874024,0.942222990075002,0.4537739544413214,0.4169238594161585,0.2446997662874856,0.9691143820287673,0.4233673618659681,0.3751824255792238,0.2945754149575659,1.0218115450119445,0.32191441314479563,0.5917487927750071,-0.19656195436297957,0.40219653683037465,0.19101582971484676,0.4871166950465776,-0.17105697517919477,0.464954130451403,-0.05677739448013438,0.5351269726713835,-0.9492177022385326,0.5654149027326177,-0.15157717097388973,0.5625786687636374,-0.8723553642482019,0.7793738256440383,-0.1316771286161282,0.5622908963732198,-0.9366400259909594,0.6050566321792457,-0.13828546209920448,0.5591799951453595,-0.8963282033762401,0.7355335795318694,-0.10912504007189025,0.6413266726826868,-0.9050378639534169,0.24252521261884502,-0.08497399697607223,0.5757587253272738,-0.8955589196927123,0.3776865279131368
1,1.023460990784726,0.6271605368584466,1.3158703748659537,1.018403103123157,0.9948666213118262,0.606390562532261,1.296624032495639,1.0336883863460953,1.031524671497659,0.5642230736425886,1.2570716139391458,0.9857755726531905,0.9958063229688436,0.6410704388163491,1.3528802843854881,0.9832874171231303,0.9946836091806655,0.5802665454433241,1.2624988145681977,1.0380324713030988,1.034948888481047,0.5559252473988439,1.3447844252019874,0.9603449347697377,0.9961653930448011,0.6247344290309534,1.277145776709653,0.9742685807251698,0.9811487947701869,0.5349007566919183,1.2035454766109328,1.0116151058393275,0.9119951363474443,0.559046041999446,1.2337879998182848,1.0414025130421773,0.9230412456561962,0.6288824220875503,1.2139624281438302,0.9744982608571312,0.985596435109904,0.620843167111763,1.2116881348183313,1.0308285404175375,0.9111002015996896,0.4687164246395983,0.9620944169702197,1.0342720767908513,0.7891786959952203,0.5319877793399059,1.0009819359416552,0.9904136716055999,0.9165375301952701,0.6443175913056888,0.8559765514134775,0.8638584233945136,0.5765830310949678,0.616929230091058,0.8092563887842064,1.0210822558199233,0.8940152908875216,0.7922207990567613,1.0209388073583838,1.013672758206277,0.6467298644729748,0.7741424611609224,1.026829186237188,1.0039794293287898,1.0126957614121241,0.8510122544710822,1.1016190638047108,1.016340087901862,0.6937579720635132,0.8178601114272606,1.1194122761516265,0.9561098266365244,1.0034125113553922,0.8723148179093293,1.153463669123243,0.9341875124388143,0.6711480694310465,0.7921795872440206,1.0767553083260493,1.0175405311528611,0.9668369720609469,0.8398003000750394,1.0019216892145637,0.9274676271694564,0.6480437804859731,0.8520134224844478,1.0603457886505432,0.9416033401879169,0.4535764118477199,0.42143134146800787,0.24415580425998326,0.9691091368200272,0.4263888390315275,0.37649939020553613,0.2964564651959456,1.0218086243843505,0.35885874656257555,0.609014887459608,-0.11594939243195979,0.42016349273056697,0.2249638980128179,0.5002833014728166,-0.1030963094319819,0.47950791577549967,-0.007681729595096241,0.535270679469937,-0.8429028018689967,0.5633335681417059,-0.10040820094377768,0.5624470021033285,-0.7670631315175582,0.7749184380517227,-0.08061669094255783,0.5634248747400716,-0.8278537201099461,0.6003161555709693,-0.08594562912997836,0.5583274699111371,-0.7869440474459678,0.7261882268821807,-0.06464366327452117,0.6298804351185999,-0.8073838889853695,0.2469923721285039,-0.026773452347295456,0.5675705968558993,-0.7860536954771685,0.3810094868593648
2,1.000999152088571,0.6334589000672174,1.268908210377546,1.018402030239551,0.9749820098792117,0.6145795254686623,1.2545918715787783,1.0336866578113968,1.0115348416999697,0.5731538163832197,1.2149688846463758,0.9857732480720441,0.9755194612128584,0.6509547962687416,1.3105687573503393,0.9832860462163004,0.9762933026256699,0.5870201093242445,1.2231827543643,1.0380318156520065,1.016227206536586,0.5612664792218114,1.305315093349134,0.9603440407000661,0.9783608476431027,0.6310842310481654,1.2381670475371278,0.9742681634926564,0.971211370775541,0.5420803149690484,1.183510325444913,1.0116111719327723,0.9080911663897498,0.5648724556308852,1.2248187715725132,1.0414007845074789,0.9044332303993355,0.6362792392948867,1.1748088647447947,0.9744965919270774,0.9687995865905158,0.626883263394722,1.1759543366163803,1.0308277059525106,0.9086474761525729,0.4756279408291735,0.9617663239690513,1.0342673680239138,0.7895626672155693,0.5308310021964275,1.0017341913887292,0.9904072343039639,0.9158952337294572,0.6444378138742007,0.8552393590805765,0.8631929971402412,0.5773195275480443,0.6171951264114011,0.8136732212723633,1.0202250218187636,0.8979508231889366,0.7985057512204576,1.0305000131042306,1.0125400911416103,0.6565539883089936,0.7677062324087862,1.0373897208875529,1.0038844195250176,1.0164724663251192,0.8499766833727546,1.1136818939959652,1.0162674894445254,0.6982545438608243,0.8151766507148277,1.1291561938072845,0.9562114525558665,1.0093162999432064,0.8723068904915742,1.1675176545514585,0.934313099425356,0.6749545857598565,0.7877250937213766,1.0857099091741669,1.0175940561238692,0.9725558708161084,0.8405164498820157,1.013182349179826,0.9278819986599348,0.6516510625489271,0.8416814937544368,1.0677460259195743,0.9411527886780597,0.4487283625018638,0.4376754549132899,0.2401559398472585,0.9691043088438004,0.4269237411313832,0.37651900013366724,0.2982602173683825,1.0218072534775207,0.34570695748783076,0.6078496166542491,-0.14499639301768286,0.4239391787561865,0.2156152793317206,0.5012916928531267,-0.12161219074253392,0.4861337469026664,-0.024025421276805868,0.5288852934797942,-0.8803079899328707,0.5589120359876226,-0.12331762953353644,0.5438255574011801,-0.7924890315124618,0.7694184790597183,-0.09720763640398652,0.5569234385065511,-0.8666948848362787,0.5914890653076026,-0.10999401300346581,0.5357996261973768,-0.8139933864231995,0.7131657444870085,-0.08285866204535988,0.6092780896519862,-0.8474190583143476,0.2469551341266804,-0.04566901339358721,0.5469603835761752,-0.8193393693300498,0.3779138600283101
3,0.9873536902887977,0.6486731048554254,1.2362049408989833,1.0183976791004823,0.9622316716449508,0.6295039324739724,1.2248501808267547,1.0336823662769727,0.9985233997339008,0.5876041876486311,1.1850889124096173,0.9857677048400801,0.9618750761388923,0.6640514268420143,1.2803741643724493,0.9832828871701275,0.9642041842985948,0.6026249033496657,1.1942277471019194,1.038029848698729,1.0037663365542027,0.5762282583393956,1.2761924249325018,0.9603412392817617,0.9665112152703254,0.6465243970447169,1.2093965173624128,0.9742663753533132,0.9669680340732824,0.5477444251527642,1.1675954554797328,1.0116030657010826,0.9015623833801512,0.5755815625530348,1.209110834859866,1.0413955989033836,0.8927857893277976,0.6507731219509841,1.1460253358520376,0.974492717625167,0.9587257351893823,0.6428958127950516,1.1480965296381616,1.0308256793945882,0.9181149607871888,0.47154764526642934,0.9695287031234954,1.0342605730944097,0.7900768410569508,0.5354978074637615,1.0035334044733237,0.9904010950255523,0.920636752548418,0.6446485162934817,0.8633062139379244,0.8581035949414496,0.5824493960041544,0.6171082228393185,0.8264305243645814,1.0169266795908276,0.9014296633869228,0.8052073994557787,1.0381611057228703,1.0075613747681667,0.6654658028695813,0.7599767020743136,1.044513907217253,1.002551898086419,1.0208933083837965,0.8629936821406073,1.1229943601119539,1.0135628094785525,0.7041721445529017,0.809982225131942,1.136668232902208,0.9549442578079417,1.01269073291111,0.8852887225190095,1.1734694267362171,0.9316287446432514,0.6793426571003429,0.7818814543475973,1.091144367799941,1.0160232353154588,0.9757909375006779,0.8437966722979398,1.0195605228536642,0.9234365650432967,0.6583019457778752,0.8325148358297847,1.0726829814749952,0.9383486285599567,0.4477320391588529,0.45352400213352,0.23956138277462782,0.9690997788907973,0.42573980018593277,0.3861020859090426,0.29777391043212637,1.0218068362450072,0.32514992272995225,0.6091717668846568,-0.19031645309769177,0.42134750919670766,0.15879947418058943,0.4943687921763994,-0.20146849467906652,0.4993832037851432,-0.037022802894122485,0.5259538178404509,-0.9112594823602083,0.5564070315816473,-0.20900907385358575,0.48785023944616296,-0.9026441051356257,0.7789454470620376,-0.1116007344366566,0.5513363375238851,-0.8999178022599217,0.5844478494109961,-0.2047631468176502,0.4740615225692182,-0.9314345831016196,0.7206454717552275,-0.10483506620017971,0.6050987311696253,-0.895933479845222,0.24088766441060833,-0.16692659865899623,0.48108580700757164,-0.9487657781957191,0.3805743133478597
4,0.9431202205680611,0.6521609302491022,1.13796355275237,1.0183788440327333,0.9183948733797701,0.6327836780527383,1.1274362427296236,1.03366460409283,0.9550003111817412,0.5924456941298017,1.0878487953177773,0.9857472008422773,0.9179372093632245,0.6688255800745888,1.1828927879313316,0.9832712046597515,0.9215199153294384,0.6045980555103102,1.0996212319610703,1.0380206099787888,0.961208786563654,0.5788449022450353,1.1816353019532655,0.9603285434924245,0.9236811744096994,0.6476302420192347,1.1146903081486141,0.9742572558426624,0.9288580763735775,0.5610644539346551,1.0859755855559836,1.0115768396573814,0.8712525587328183,0.5781591058117018,1.141659903973967,1.0413718762547628,0.8508727530372975,0.6519372602680923,1.0535461083267834,0.9744744786038656,0.9184093939949745,0.6422428439115372,1.0594677169447455,1.0308130432098959,0.8952832546296008,0.4776261269406237,0.9138874494571616,1.034247400467914,0.7708293616312593,0.5357418884841167,0.9603057587631862,0.9903681336569915,0.8882763244277906,0.6416979075631656,0.7901982833820138,0.8411630012219672,0.5617221951082794,0.6148549884528745,0.7807112405427745,1.0128294563089673,0.8704550501861128,0.8060730377118517,0.9667572397922817,0.9995415698136377,0.6516671943101057,0.7503023913901095,0.9962751997279085,0.9992010441664361,0.9906544672252693,0.8600806243364997,1.0513577825180513,1.0074903478734805,0.6875762440900496,0.7967194764136802,1.0819722756075068,0.9514908242943003,0.9789150049495289,0.8809629154244355,1.098718964820094,0.9256935525350972,0.6678238747050849,0.7683798102130758,1.0436786788909629,1.0124089288655684,0.9433142715039642,0.8438023347391934,0.9475665770031171,0.9157476850765608,0.6474667521711654,0.820769204134991,1.0277986219121182,0.9329384341629839,0.4441313110418168,0.4585901883231715,0.23484473996244518,0.9690876791479082,0.4267799318693292,0.3888319786397555,0.3012312993124436,1.021802902338452,0.31992112504665515,0.6112159081772288,-0.20217170140724544,0.39624042349190425,0.1758085785661001,0.4949071413280107,-0.17193794510876276,0.4838008807108024,-0.0383856743120022,0.5256829743345915,-0.9248503737416517,0.5236353846051763,-0.16221778739491904,0.5075782443785666,-0.8315518836302638,0.7614868293748123,-0.11304608373036787,0.549746800857015,-0.9133957370248307,0.5491860395850989,-0.15184084353473207,0.4949221647639661,-0.855582420975859,0.703910037223062,-0.1093833322126048,0.6030875512456141,-0.9215526293854921,0.2280059383840733,-0.12079254775353067,0.5086560546577181,-0.8932852565775523,0.3655880963259175
5,0.8748299491948871,0.6803270455330682,0.9810875914408308,1.0183277032475162,0.8547183344984512,0.660933163640812,0.9785688267105866,1.033623357678645,0.8909302649212045,0.6202851163557539,0.9388016180196281,0.9857078021720809,0.8534344381898339,0.6973575486681862,1.0336332891692097,0.9832469455693278,0.8595171526158378,0.6310595375583449,0.9539408164530808,1.0379956952372726,0.8986047858004745,0.603134569851389,1.0356433762125312,0.9602962973796009,0.8613841502357875,0.6718909417682276,0.9688309175117659,0.9742302549385792,0.8831938443708686,0.5855641683091973,0.9823507237970444,1.0115338647084984,0.8319438489634721,0.5957791328769789,1.0498802420470894,1.0413053574711937,0.788788941272271,0.6782979508618118,0.9125282868522027,0.9744236954465172,0.8583244759340685,0.6672787616704788,0.9219180442551936,1.0307726312607384,0.861403244059316,0.4962972819165148,0.8486035983833538,1.0342250487261233,0.7503954615265711,0.5413999189940655,0.9001417961977566,0.9902823029685147,0.8499310192917986,0.6259919644555606,0.7024721566994416,0.8100021101659064,0.5230915766067414,0.6079158753127683,0.7014567731520065,1.0033039188181228,0.8139441331346469,0.8027185479085375,0.8339679553693379,0.980653513535409,0.6147861037695873,0.7425320318739657,0.9031800749677708,0.9933426824453973,0.9417505206304828,0.8579986936991401,0.9181385231631592,0.9949930420034243,0.6492782079636725,0.7884350268363487,0.9813901564823375,0.9464495826484873,0.9153040260458961,0.8779956173935822,0.9549282077615313,0.9137662458830282,0.6325418638666134,0.7591437128772603,0.945393417158038,1.0071818995419908,0.8862085650626398,0.8430119771494717,0.8127040812892972,0.900320036055412,0.6129575723436218,0.8129679098082088,0.9353167264130118,0.925674773732076,0.4430831674461163,0.45815391212573797,0.2344653116898666,0.9690751621725053,0.42823179235783715,0.3933339770642855,0.30174594972964885,1.021796286222882,0.32197148040844636,0.6048127003982982,-0.20516501453310676,0.36799771623940175,0.1732020508868608,0.4880087381602861,-0.2074121245797737,0.44866021732541117,-0.027701434184227068,0.505976188655728,-0.9312807668169181,0.49053221659446467,-0.1322008172240599,0.5117959882521628,-0.8236259487622999,0.737897873972438,-0.10022910444534874,0.5282195105127767,-0.9189703661539065,0.5189075952949378,-0.11360613855793603,0.5004176534076124,-0.8371302635697542,0.6903632127678008,-0.09114845271911834,0.596501893649026,-0.9178016718960332,0.2138535307378941,-0.0882735777293004,0.5127192436874117,-0.8808764977687406,0.3463854467325642
6,,,,,,,,,,,,,,,,,,,,,,,,,,,,,,,,,,,,,,,,,,,,,,,,,,,,,,,,,,,,,,,,,,,,,,,,,,,,,,,,,,,,,,,,,,,,,,,,,,,,,,,,,,,,,,,,,,,,,,,,,,,,,,,,,,,,
7,0.930834469338358,0.750680732342608,1.1010197705615472,1.0183336041073487,0.9087210943543049,0.7299484281519204,1.08956172120752,1.0336272915852005,0.9456059097188428,0.6894150602034101,1.0500567001322463,0.9857131665901104,0.9079042646929774,0.7660029663584633,1.144741865486949,0.9832484952900918,0.907195177494619,0.7034893137500563,1.052815033584624,1.037997185353392,0.9462410662851535,0.6774096462407018,1.1345529252149027,0.9603000524722217,0.9077635311636625,0.7470945989184962,1.0671080688237395,0.9742327583336597,0.9080199388016262,0.6551596840371942,1.0270507238735354,1.011541672916964,0.8287628261933293,0.6752640128475295,1.0410700845673018,1.0413138809353963,0.8361430234608686,0.7548685809353591,1.0117115582266996,0.9744281061902303,0.8959179047583126,0.745936567590126,1.004024452876151,1.0307753730743978,0.8584453538955368,0.5503622114018358,0.8327985784895466,1.0342247507028994,0.709967872861726,0.6069314112273418,0.8521194942597663,0.9903004823851713,0.8221773922515118,0.5515331269464053,0.6042912743730178,0.7698391892140631,0.4622826504934639,0.5987251967162717,0.5868239425273206,1.0050265526567763,0.6670492950690595,0.6351769247929979,0.5161359362192043,0.9129763136948633,0.4979686460933226,0.7402421406309847,0.6349364465861537,0.9944773164633417,0.7682936439760029,0.6671862847750373,0.5477733295785157,0.9420875420682742,0.5156613497526794,0.7843218891143333,0.6718434940829099,0.9479690242531016,0.7306680853457128,0.6735484075585297,0.5605827418343072,0.8568562674932881,0.4980055456280827,0.7543854144801961,0.6308494096411343,1.0088243651334212,0.7217099927779201,0.6381247062220425,0.47287811370824007,0.836717707754936,0.4959707007797633,0.8064332737875484,0.6607598351369792,0.9282428994568683,0.4681501282539573,0.4602015402900294,0.24872026200434544,0.9690667579175918,0.43725603974164445,0.41610611041465784,0.30479483921942035,1.0217942596649596,0.31815022235858537,0.5561875888184031,-0.23166752980873637,0.33877418475479787,0.16974042705808767,0.4552213853599168,-0.22437770213231317,0.42569231251927403,-0.00701610811256078,0.45842351364695416,-0.927599916551268,0.46266725377822626,-0.12463859648641352,0.4904387201571463,-0.8393754428467552,0.7389286170945388,-0.07782635867597795,0.4743856980375723,-0.9154308339327825,0.5039083844604346,-0.10482381765581986,0.4754065311808972,-0.8610682286106102,0.7002078139221282,-0.10503373503337102,0.5579819747304163,-0.9699564849145469,0.1989357249469929,-0.10962665551905816,0.4987751542747225,-0.9405272000764738,0.3262639319353535
8,0.9088474532190861,0.7789606328934503,1.047431703600819,1.0183254382710145,0.888659683142104,0.7528735666254311,1.0412811112952485,1.0336207350742752,0.9251613323558421,0.7112721430471907,1.0016196057466653,0.9857086366371077,0.8885231883959744,0.7879934443972512,1.0969038989506,0.9832422964070354,0.8858753921578255,0.7261776429698744,1.0048281132121943,1.0379931322375473,0.9247801329245695,0.7009255859532262,1.086483607848678,0.9602990391932607,0.8863188673402951,0.7847281967692957,1.0190429333283244,0.9742313278221851,0.9030284575243456,0.6760080774774407,1.0089919457950394,1.0115400039869102,0.8219547422109115,0.6936905503612624,1.025252163423261,1.0413112583310264,0.819254277627795,0.7833454152325393,0.9683934009085582,0.9744025357976218,0.8768205589947995,0.7838639567350235,0.9604310539538886,1.0307595778435323,0.856314980393315,0.5728141486004747,0.8307938597218878,1.0341956636362493,0.7105704925679874,0.6240415205565655,0.8493781107306808,0.9902961312461027,0.804263510996817,0.6569260002336063,0.575284492089858,0.7157262183850531,0.4610469069966812,0.6000683277816403,0.5818840419521947,1.002946112135536,0.6516690155426988,0.7579695263783861,0.49221235211315867,0.8606357465828943,0.5031120273668949,0.7406057289641146,0.6464765673710632,0.9948361960295342,0.7585703801233408,0.8074938900416083,0.5332313755999295,0.9133499374502017,0.5239155813396402,0.7843143193244468,0.6907378840347719,0.9489147115471079,0.7290960672103292,0.8203238916436127,0.5581970692896634,0.8256116915159627,0.5071058955618766,0.754382255434023,0.6523727479037307,1.0098248887006211,0.7131310937217441,0.7788482326998563,0.45623400903055106,0.7961305209415815,0.5005965103671661,0.8066180481863521,0.6735589363237457,0.9298009648712972,0.4572604490821916,0.4763082650291041,0.24472932938671113,0.9690610954763381,0.43631633171153994,0.43397415240684534,0.3028340855844138,1.0217926503395507,0.306344092515184,0.4966192134693583,-0.24097873929000582,0.31081769900650685,0.16004579273178132,0.4466498202087022,-0.2618951895974588,0.38628946999760655,-0.010971303464860159,0.38834376978480206,-0.9373954042329852,0.4308945508458685,-0.11996808681971789,0.4573435093665121,-0.8770246126358597,0.7199098478303176,-0.07954604457613232,0.410226811366506,-0.9255760825576461,0.48542707027815307,-0.09846788784150609,0.4394212699790387,-0.8980282107772732,0.7010671936904997,-0.10178737439740462,0.47478733147136787,-0.9738260949425841,0.18462937340452013,-0.10071348645156582,0.4550078808486665,-0.9812570364855251,0.3011607503347829
9,0.8710954775483144,0.7953594203919244,0.9714649693259328,1.0182704827885318,0.8534320407544174,0.77558424758704,0.9713554308899642,1.0335774024975235,0.8893874066488591,0.7346778737715254,0.9314236668438538,0.9856722778037945,0.8518052362340999,0.8119512929461403,1.026243512124536,0.9832112423871074,0.8517995070602777,0.7452288371608534,0.9367789817225111,1.0379674426356489,0.8912013168647382,0.7349740240254308,1.0186841209396404,0.9602805617533803,0.8528950569392282,0.8059886967235194,0.9513194503362792,0.9742148173355824,0.8850366768676589,0.7023700197687005,0.9712950776522797,1.0115131818967613,0.8086819644283388,0.7154295564037428,0.995820829958831,1.0412705483586449,0.7867945239767999,0.7963492413738967,0.9028738152289792,0.9743019827618856,0.8471573490399955,0.8039863059972611,0.8979948372602028,1.030688350293026,0.8507403496719524,0.6026939570263781,0.819716952631133,1.0341092965059697,0.7044762328738704,0.6391011705008709,0.8300943068054197,0.9902527390647063,0.7766041747964807,0.6904127241334476,0.522746325073737,0.6535731174176459,0.4500918886025874,0.6047468155593503,0.5569266873011823,0.9975086188112561,0.6022761645041158,0.7860018292348314,0.4030054240904843,0.7964506636704493,0.4957134096492074,0.7408089211981539,0.6307708544652243,0.9940179434660577,0.7076101976012203,0.8355879433100409,0.4404914038862457,0.8665716757886721,0.5166396774856693,0.7842144815444481,0.6760873863027841,0.948973600936146,0.6857188297841581,0.8500782322922639,0.47589579803545984,0.7783138561659261,0.5007538576183215,0.7543452409496175,0.640785882009931,1.0099256801549363,0.6677716826105304,0.8084409851565213,0.3700975908760664,0.7439868875759504,0.4927594409891712,0.8067072167349361,0.6587460907071379,0.9299009218605854,0.45076352699548494,0.492021658717306,0.24233112830407139,0.9690321872236222,0.4359151173246297,0.4373139496652224,0.30172466512198004,1.0217851997589535,0.299722969400948,0.4912060388401469,-0.23378332173915958,0.28528986411423396,0.17230955262922232,0.4378787583114244,-0.2507128902014151,0.34841948012562785,-0.0038020991154844794,0.3762610440214812,-0.9181884266021068,0.39800432042861694,-0.09267473221105495,0.43440376775503137,-0.8508672303242018,0.69214087829449,-0.07052684539477119,0.3961101963095144,-0.905317752370561,0.4621427542152258,-0.06853342193986803,0.4163782633204846,-0.8699736708200865,0.6934607469474883,-0.09203878902708815,0.4561502703522883,-0.9517154436267802,0.17158602938367662,-0.07269774288076476,0.4217219351947512,-0.9535397970993539,0.2778566455297902
10,0.8123020674394213,0.8158036347359491,0.8512634535701121,1.0182230374912906,0.804175569915482,0.8023540644624978,0.8688326564454486,1.033540864850276,0.8395795965414726,0.7618810164145002,0.8286345993214064,0.9856400912956159,0.8015425771455083,0.8392835988543434,0.9231769038303264,0.9831838838551554,0.8033696717428196,0.7731171948001662,0.8331963426777718,1.037942527894133,0.842774332442667,0.748734471527567,0.915102617743484,0.9602583888255238,0.805069770731543,0.818725494056283,0.848070503780509,0.9741948497795826,0.8700997731965109,0.7313864549150323,0.9407449754122311,1.011486479015902,0.7897265099432311,0.7405716300350295,0.9580385898459376,1.0412380042225973,0.7408214337609955,0.8172575374821426,0.8076589905545938,0.974236894489791,0.7994484748223314,0.8089885066007462,0.8003023997120237,1.0306347657173727,0.8487449389525403,0.6163036047772326,0.8157750742829979,1.034092189972919,0.7018578561152707,0.6664129724112713,0.8198933673666483,0.9902525006461271,0.7760937884429645,0.7085412384233035,0.5201197234373821,0.596123895806623,0.43951142949428973,0.6083976596564877,0.52674705205833,0.992128286341316,0.6004967015122831,0.8065258541982103,0.4051186471945534,0.7455288659180689,0.4743124212325358,0.7411378792326693,0.5837765258066401,0.9922029224280022,0.7052017732044541,0.8561459429209418,0.4467805558399599,0.8330997338407351,0.49459104186503866,0.7841470090865623,0.6273339711678775,0.9481286454918101,0.6859996470490742,0.8721364212075166,0.4855583261407632,0.7443232942037984,0.48130227021512434,0.7541592148532735,0.5979254006338056,1.008930044168608,0.6664689445419969,0.8295676726832242,0.3740777623815744,0.7049639650600813,0.4724194166278704,0.8067594900084041,0.614040672440846,0.928751148262868,0.4453362964501771,0.5035947647677973,0.23953425117956426,0.9690135309698074,0.4312698563569117,0.4486010726300814,0.2994140606252829,1.0217815042709777,0.2852889167674937,0.5250891932323893,-0.2707611486312114,0.26264638738960927,0.15294543852844988,0.4560078984500505,-0.28939764550528163,0.31540282825680765,-0.03304757438303726,0.3970252459009825,-0.9834744342236532,0.37188499884391535,-0.12992805923684042,0.4533563460612295,-0.9142873822643962,0.6670932184205276,-0.09974893573891128,0.40827705402893577,-0.9714442826128046,0.4505365377845617,-0.10659795789899493,0.4407491720576673,-0.933578795708594,0.6873443567192168,-0.1187983036430644,0.46607846702091316,-1.0140393396382366,0.1607966350050145,-0.11355785974277245,0.4500360190093722,-1.016355501736118,0.2586281871252492
11,0.7681875527711924,0.8491444464653802,0.7946879565149654,1.0181876919369386,0.7576435942838775,0.8399197130182534,0.8078550358458849,1.0335082015049393,0.7930707271173326,0.7998186575582991,0.7676665510396632,0.9856136268333356,0.7546465022352727,0.8779099716685219,0.8620033022075322,0.9831555120442422,0.7601938360645175,0.8106102448985854,0.7729051241978396,1.0379244080821213,0.8017680786053134,0.785290536610117,0.855925436708394,0.9602470043383717,0.7652909691585109,0.854157475143014,0.7895417661536925,0.9741825712227588,0.8180147563845765,0.7548292001237725,0.8705361153418595,1.011462577553347,0.7451378869816234,0.7776314735752211,0.8856429588402854,1.041225606456484,0.6913125130915628,0.8441323181370498,0.7466707237947461,0.9741877206578512,0.7565056192512571,0.8356475184415665,0.7408985244624153,1.030599122139797,0.8213760929807806,0.6168433844403185,0.7759259254740571,1.0340353271418032,0.6685815093086833,0.6883025993910992,0.7613211886114195,0.9902551232504971,0.7634417061400764,0.6700221539697208,0.4916218220387595,0.5496187426274542,0.40832604892173535,0.616685625907861,0.45877087451902243,0.9920729732309644,0.5804471250581477,0.7648718038480211,0.3549578175846867,0.6874731670464563,0.4272171206373765,0.7444331816237215,0.4818061680956821,0.9906526652220391,0.6884793372637898,0.805027092212934,0.3916592820335118,0.7835337629430605,0.44060639596097195,0.7855231015204918,0.5091346929717253,0.9474378276588633,0.6651155081172873,0.8245719146767548,0.4190874062068817,0.6949657011442586,0.42570877029682547,0.7549821761836873,0.47619251407287794,1.0082198548261092,0.6503820698982714,0.7864452023043484,0.32109954300076277,0.6535658665913008,0.4246543448936398,0.8096001877737544,0.5086537916073306,0.9275716915520528,0.4313820721189134,0.5115065065013483,0.23243798524221443,0.9689947555067033,0.4162203111865491,0.48616213162818933,0.2918203516383221,1.0217784644340941,0.29198538807596774,0.4894147702530345,-0.24104717418529495,0.24205675261349383,0.1615776108504956,0.4618799394370653,-0.2686199357472798,0.28758587698193583,0.005876932454794516,0.37335615205370776,-0.8965517847237903,0.34754323677802795,-0.10979393756269974,0.45385920064687707,-0.8726450467884743,0.6545040617928726,-0.05885072010310569,0.3897657289080099,-0.8805256105079668,0.4407686180057379,-0.08138617038607401,0.4370792842765241,-0.8823133099612476,0.6880583607589812,-0.08338933685378505,0.460801220784112,-0.9355053109541935,0.15058939174129302,-0.10643552175630634,0.4396911858737672,-1.0096980687859625,0.2406206553631261
12,0.765912538055202,0.8576881762474847,0.8168368007541629,1.0181804201702762,0.7534661235038744,0.8486611514070779,0.8268442365800931,1.0335003336918287,0.7894573767611223,0.8104404436758528,0.7869111750557888,0.9856108850196761,0.7519044934890307,0.8888045086405678,0.8816712369526947,0.9831485383008036,0.7584293079641087,0.8164321285770216,0.7967673666890306,1.0379201761523422,0.8000578649116683,0.7896906110920812,0.8797929669992601,0.9602459314547657,0.7508408325186151,0.8644138251834498,0.8069266562332629,0.9741786373162036,0.8059506753785214,0.7661803682794427,0.8734330004054729,1.011459180088595,0.7439435272640635,0.7771127343517409,0.9086327039487522,1.041224533572878,0.6869845871016428,0.856782986758113,0.7627015024576911,0.9741619714513083,0.7545154402248185,0.8428589652036514,0.7625901037395717,1.0305761743515587,0.8171629658472478,0.6221139847592272,0.7787069889460443,1.0339751860552249,0.6731213734555175,0.6998345484343731,0.78076974373885,0.9902221022772917,0.7719135640651368,0.6669133545121707,0.5094008354755729,0.5318985201543097,0.41022722270794476,0.6155192226142514,0.476504959522403,0.9916636681352918,0.6071742985293432,0.7804897108952928,0.3961716006380682,0.6448734890069056,0.4290710820296025,0.7461481860678438,0.48795300690096577,0.9868547764662409,0.7052276767542459,0.8216280586664862,0.42843596884403357,0.7521681299321963,0.4411719250699929,0.7859560696601402,0.5106344373473719,0.9448036003830149,0.6878675614891575,0.846513218883603,0.4568874206219022,0.6639686036520406,0.424061579990434,0.7557997730960714,0.47397048313214357,1.0053773093167708,0.6770914219442634,0.808672191573605,0.3618904202374139,0.6182976790684126,0.42637660592894694,0.8120306267691157,0.5128575824475121,0.9235337152870992,0.42656366526884354,0.5192736175643519,0.22954672812765214,0.9689504096509903,0.41288761952039643,0.4910469706861117,0.2905037953739923,1.0217677952026794,0.29007968405059015,0.4809672125652751,-0.24076995179049562,0.22471351461739245,0.16329651121054273,0.456924230456505,-0.26147682535250555,0.26754155019970927,0.00471193016274183,0.36016176986300336,-0.8991736841035449,0.33222427682662714,-0.09243681250942216,0.43596454518079736,-0.8450205819290832,0.6514025937066299,-0.06051800454893289,0.3820169462732748,-0.8839639128059337,0.4391419774474951,-0.06381314654724243,0.416236851300755,-0.8566654825772886,0.6959083520805449,-0.08768766914139428,0.45596609199993227,-0.9444508146326621,0.14191032216264543,-0.09500047844546773,0.41858747593762524,-1.0032330607233857,0.22605241591267133
13,0.7946118450779976,0.8741068716973138,0.8835902617197203,1.0180836818318055,0.7821956892577895,0.8608508377054482,0.8871250065384205,1.033405264283412,0.823333364783355,0.8175347077063093,0.849813231722757,0.9855373924926679,0.7865756535187017,0.894400311901371,0.945004887160978,0.9830700389836344,0.7852756130982534,0.8296480876491347,0.8544739746152604,1.0378730288783249,0.8254899419338066,0.8028279516377355,0.936804848555015,0.9602167847834705,0.7850361595667006,0.8721428786807642,0.8683886804254372,0.9741490138077504,0.821028524815402,0.7731705029954766,0.8994914562207332,1.0113906943517479,0.7513705032751238,0.7836637020450697,0.9250807597379138,1.0411780419499532,0.7106590356306118,0.8703735014179946,0.8179134199030058,0.9739817270055076,0.775439580918504,0.8563137600873795,0.8144731714639305,1.0304572630852316,0.8164058283115552,0.630068522627727,0.7838537665353269,1.0338577649050174,0.6753832038231049,0.7096036901084148,0.7845999846987448,0.9902055917906889,0.7717389781215582,0.6656537295541324,0.5136798983775498,0.49479129092152163,0.41106922731831175,0.6144422262878049,0.4809865715434557,0.990901443937904,0.5924852344796865,0.7848756590764452,0.3785276165922403,0.5962058793152857,0.4378892554625685,0.7465534976523165,0.5084881759411769,0.9850778427961968,0.6976304903054209,0.8275755293314643,0.41310786107376285,0.7085167279355837,0.4527065957034745,0.7858802525519859,0.5374323202870126,0.9437096763374522,0.6807860116089622,0.8519184660950593,0.44180212056398876,0.6205939460211202,0.43353033191527685,0.7559582022418844,0.4969842053111592,1.0041770505849288,0.6618029331183276,0.8133797068133206,0.3434708037835231,0.5745020338314436,0.43494726900233777,0.8134365811300777,0.5330864215754516,0.9212018623741963,0.4267778606979075,0.5281881478416041,0.23011828522965277,0.9688921163084,0.4129127960020232,0.49481356700340295,0.2900354246935563,1.0217576028084228,0.29379632368137487,0.4860014208630046,-0.2325423745069866,0.20739414828152364,0.15989796929812095,0.4582091873885728,-0.260651537961215,0.24337967495175394,0.0015050046613814053,0.36581443595492236,-0.9062957201510605,0.30743953304076904,-0.09513071793084972,0.44188000815153106,-0.8481501648182658,0.6383665810570938,-0.06423805254467432,0.3864836885504202,-0.892034316135927,0.4182121044578405,-0.051952627272990846,0.4067619777579694,-0.8547768798148226,0.6939510547554106,-0.09410917049459758,0.46095693791858766,-0.9501888464591046,0.1330849976868802,-0.08670788529515784,0.4271428584277833,-0.9781969414791768,0.2108833169393971
14,0.7795152452731694,0.8645946856468988,0.8640497692537112,1.0180431506733583,0.7689518655229208,0.8546198277452737,0.8730974371250603,1.0333734354031021,0.8059061810508972,0.814553879421092,0.8336384152110929,0.9855133122161787,0.7674761060991038,0.8930852546236916,0.9279599718516143,0.983039342591575,0.7705164759182834,0.8207463127658644,0.8393077425048245,1.0378580085078413,0.8040074761008504,0.8002371165432836,0.9182125976446543,0.9602071884356617,0.7654854671705218,0.8696701203876124,0.8507881232819092,0.974135304739452,0.8117041005667562,0.7727231701364373,0.8998592241092989,1.0113637530523094,0.7393569231626658,0.781981718574153,0.9217239833579239,1.0411600413472313,0.6933452333234171,0.860146834490657,0.801228222000858,0.9738809355511924,0.7569127015820971,0.8458321640943375,0.7963745361050802,1.0303909231155968,0.8046984947962014,0.6346772133664049,0.7782573643642627,1.0338130614214358,0.6686923031967542,0.7127030124274456,0.7842040047266812,0.9901826440024503,0.7730922771223139,0.6744828463754214,0.5156253705842853,0.4759632565205817,0.40785720435591394,0.6115747660369504,0.4772364828603499,0.9908279514108961,0.6038337098830864,0.8025839606206346,0.3969997601683061,0.5684017430390406,0.43179928850832205,0.7465150526564364,0.4949734236699807,0.9816253629568719,0.7103217108408069,0.8472380883639045,0.44031896019641553,0.6905382385366274,0.44394999301690885,0.784672781658126,0.5182590821746546,0.9411541271927073,0.6923041721946849,0.8665573072472504,0.4677683711439645,0.6026435900144979,0.42564123182968355,0.7557158497562276,0.4797239015811278,1.0013351607266832,0.6702421491315496,0.8279113788142056,0.36022441475262756,0.5517086812275313,0.4280811610444231,0.8133220210028194,0.5185271931869816,0.9170598163994648,0.41964802211508667,0.5332370784865931,0.22736931056708054,0.968883890867421,0.397727976243948,0.48887378533760095,0.2814795082347257,1.0217531324600644,0.29104449781599373,0.4857461639717539,-0.23432499977810087,0.19375583069653213,0.14160531739797377,0.47146982014194505,-0.276403519974393,0.22334604720326456,-0.00027654196578937723,0.3605019931753813,-0.9100501439562497,0.29620650129104364,-0.10396319255822135,0.4433743562006949,-0.8614410964966966,0.6251509796128494,-0.06606632629387452,0.38829167624039207,-0.8958897540048522,0.41740890206716974,-0.06418653372222707,0.4104175008197217,-0.8707962015806229,0.6933250867759795,-0.09495343106129969,0.45628062571041206,-0.9516105302465783,0.1262136773796254,-0.0920360865945732,0.4362568258464541,-0.9833052813695186,0.19748168939880872
15,0.822843403758463,0.8642675157517267,0.9575170525968337,1.018017520676105,0.8136268137216655,0.8525573282221108,0.9653239764480088,1.0333599647533829,0.8503293269246495,0.814553879421092,0.9257231623760814,0.9855048483566204,0.8137715152271964,0.8901907338641091,1.0210012814692553,0.9830205075238261,0.8116222498338563,0.8224930268810072,0.9262899241462732,1.0378518096247848,0.8498105400329974,0.796212134090891,1.0075759044469959,0.9602052810870289,0.8056902550975811,0.8748106633716212,0.9373115235150186,0.9741292846703296,0.8446228084775457,0.7727518399705743,0.9688598239907973,1.0113511764722618,0.7621628764386453,0.7871890187603102,0.9707924559572374,1.0411601605565208,0.7344489290851719,0.8620108505467178,0.8866519508040835,0.973779905678298,0.7950941875574746,0.8494018266652908,0.8757246297064624,1.0303330470055196,0.8209362840893054,0.6370520412281908,0.8276887382948366,1.0337982794695317,0.6808401263300884,0.7214604248610699,0.814349824168398,0.9901757298636563,0.8065191284593458,0.6771598101815738,0.5852737356225106,0.47561146990711733,0.4148935281908926,0.6103826135367978,0.492310589628456,0.9913294052873914,0.6328357290226645,0.8051941076199938,0.46032899918786635,0.5566024075593042,0.4326761053736947,0.7433485559027437,0.4961826533871036,0.9786071625593804,0.7325169598729127,0.8495852000658698,0.4946046640656471,0.6899078598134829,0.443636390643903,0.7805831281661522,0.5154718332187382,0.9389030981781199,0.711526858003342,0.8721810650864533,0.5205538232172178,0.6006383705549642,0.4237631421357069,0.7521025565852987,0.47519213163907886,0.9983360338155197,0.6877906811205743,0.8405646104349942,0.4178570743130111,0.5418133565205,0.4279461948091584,0.8101077809286616,0.5181782027925298,0.9128807559403279,0.41678216252747874,0.5373340633498743,0.22814079496796796,0.9688896129133193,0.39130944393700695,0.49319446643272424,0.2760450302503441,1.0217523575996825,0.28012344968276437,0.4897461720779856,-0.26047298537500413,0.18291058676571553,0.13161497317016152,0.4706377989055254,-0.3006800438902667,0.20811494449826265,-0.019405904683211038,0.354826081272,-0.9521607418066851,0.29842933730865234,-0.13094824317047304,0.44751264708280547,-0.9167690093083265,0.6266497384057266,-0.08658362885083046,0.3732904984526113,-0.940411474890258,0.43358444036863764,-0.09699643791071397,0.4196541047950177,-0.9323415540948887,0.7019413554107756,-0.11824320530195384,0.4441450902318201,-1.0029884656512251,0.12027663752748301,-0.11742768150511158,0.4360496401012147,-1.0406643059115983,0.18561346585087324
16,0.8366341774671296,0.8694606896370721,0.9908170411206575,1.0180435679058717,0.8292259145890031,0.857895997045353,1.007780235709334,1.0333855947506363,0.8659334068369946,0.8178522812536726,0.9681642654428315,0.9855272000984113,0.8295125774243799,0.894295228912632,1.063479194598595,0.9830381504986796,0.8266018343219506,0.8273638588474074,0.9679612515482555,1.0378660551348862,0.8663405662607482,0.8018548462071324,1.050031825396429,0.9602173212252737,0.8230812836456519,0.8879894291453944,0.9802300220498172,0.9741395962738758,0.8799111635336353,0.7787598689546441,1.0429601621664042,1.011370488377169,0.7842105539765772,0.8102446914058791,1.0372751563221685,1.041182095065798,0.7538160058698781,0.8638255139569045,0.9281321996629948,0.9737935551419515,0.8116901747282239,0.8527883241628494,0.9157888814301384,1.0303503323525047,0.8530557366435975,0.6492200910405077,0.9045436347228146,1.0338162800722537,0.7135613004264578,0.7295835246649944,0.8927407088876131,0.9901704250502715,0.8555915021171233,0.6837898732385196,0.6808385879728305,0.5194285728162055,0.4297382620800228,0.6104975312919247,0.5218735481261977,0.9917945599352185,0.6958293629811368,0.8108766356389452,0.578805202660881,0.5906046520318079,0.42943755610765505,0.7436323932211641,0.47628697000372233,0.9725475755575799,0.7916139912226727,0.8604778296892829,0.6155944841909742,0.7171777000539614,0.4393079315705616,0.7804530112266075,0.48901134867465657,0.934188489985676,0.7716131741010567,0.8787208271065644,0.6423648530528763,0.6273547220640584,0.4194507719259933,0.7518351105441915,0.45109771288501693,0.991766231054442,0.757889189151961,0.8394632358088345,0.5405689087655249,0.5676208564060591,0.42585668233586255,0.8093760147047542,0.49727826014610754,0.9046864881905415,0.42182733280418405,0.5381413486587122,0.2341364405722516,0.9689043948652237,0.38721607248197454,0.5134781654683688,0.27056204951204904,1.021748781320996,0.2487263590856302,0.4828886576965769,-0.33310696814315305,0.19518470304341023,0.09625921291055771,0.47792404949680345,-0.3668369186985339,0.20131310085507426,-0.07051279961513049,0.32644309448801867,-1.0656226368676534,0.34365805701995605,-0.20056656951146778,0.4595707859301565,-1.047313990758451,0.63596731529095,-0.13973553006218561,0.3365587188772634,-1.0591596527287757,0.47600667538069213,-0.18173794107384653,0.4379953778643994,-1.0766402615497301,0.7161618315612883,-0.16847380785025948,0.41204062784664247,-1.1216770230391913,0.11686855569793521,-0.1826881609853554,0.44578859202267773,-1.1830576237820685,0.17349786812595874
17,0.7737973989184647,0.8734597440689874,0.8723594371262304,1.018004467258899,0.7728427568838698,0.8651207356432229,0.9043587409958648,1.033364971543544,0.8091670988903732,0.825532518546916,0.8645982169954841,0.9855168884948653,0.7710243336394056,0.9034797682307167,0.9590674761079204,0.9830070964787516,0.7735000088462041,0.8321083289668837,0.8701854079087489,1.0378569356242353,0.8138842743623482,0.806035873619547,0.9526166028766246,0.9602139237605213,0.7700761213012411,0.8941068922572718,0.882568566152822,0.9741287482285268,0.8537414357878352,0.7956362088670587,0.9986394983056042,1.0113502227979454,0.7644754537666845,0.816011738811122,1.009322333107301,1.0411832871586937,0.7034634040797928,0.8722965856770278,0.835020279368909,0.9736452587857504,0.7650074846731996,0.8592210958455887,0.8296329428915912,1.0302649188965414,0.8410205494155731,0.6683087169484057,0.8856459023218541,1.0338124057703433,0.7144851477099151,0.7278055181113445,0.901182205211275,0.9901309667754301,0.8401289654245334,0.6880631686410464,0.6436820193991921,0.5508383132642035,0.43195667703969004,0.6054961651534665,0.5267303750681391,0.9905930495058363,0.6776494649141828,0.8102868476788927,0.5375061520663744,0.6013318787659693,0.4273152745023398,0.7437455228369478,0.4662683608302787,0.9662141052130364,0.7762124054492293,0.8559035904352851,0.5769684613164486,0.7285276761167361,0.44097125466001774,0.7802768795012962,0.48834413524477494,0.9293500233413889,0.7587914197759098,0.8730729889908723,0.6106652618884807,0.6378096747808858,0.4224452912751407,0.751185360311495,0.4502981684945176,0.9857906269971299,0.7452227628842198,0.834546329452023,0.5047175842522671,0.5734787412899397,0.42552142262385123,0.8086882963133357,0.48866384067506874,0.8974548354538775,0.42179879377237073,0.5362695243941858,0.23394299544671962,0.9689171502592058,0.3885464324727154,0.5063491519300082,0.27144096580688004,1.0217441321587035,0.23781796483952908,0.4862317928150614,-0.35910428943903216,0.19668901996941274,0.08711498327969901,0.4789642101527788,-0.37823219894758087,0.18885824839325935,-0.09229087648470222,0.32609509276949755,-1.114138036217732,0.35193735079551447,-0.21958770446261167,0.47859637992620446,-1.079410522213235,0.6145836125359756,-0.16223356460907787,0.3381181850008444,-1.1094395493203213,0.4946249610366675,-0.20281608958581485,0.4629716313739209,-1.110444440134609,0.7088965022003264,-0.18185531580514616,0.4003346034383021,-1.1624938884064377,0.11151731774522601,-0.20003740439306017,0.4565853177726472,-1.2111865571892042,0.16106153780750782
18,0.7971332203658815,0.8809713598221612,0.9120640871591563,1.0180137059788394,0.7997835880180825,0.8709960250833779,0.9529660710308158,1.033364196683162,0.8352908728828776,0.8315708266905317,0.9127391758285204,0.9855181997970502,0.7973713654266491,0.9090825452349587,1.0072550834846414,0.9830044738743814,0.8031068576099772,0.8388971191928664,0.9236384211286665,1.0378575316706833,0.8437784048159789,0.8132082793393041,1.006192328419478,0.9602136853419423,0.8026450516995596,0.8853200947337733,0.9374829375237427,0.974126840879894,0.8790464231476531,0.8078012784471368,1.0475071737338295,1.011346110077456,0.8054651820669931,0.8190164089542494,1.0846362246368837,1.0411803069264547,0.7257622147045985,0.8804122945050002,0.8757468298302644,0.9736163505330344,0.7926829866291489,0.8659036109899368,0.8786877267802028,1.0302472759216879,0.8549216214554397,0.6820587336377062,0.9240305667641124,1.0337819477968633,0.750993623595057,0.725193344554063,0.9792843552850368,0.9900707064795623,0.8487853820309568,0.6869355083665408,0.6635770645378987,0.578499577206922,0.48979725983928996,0.6055679887504208,0.6419060283240193,0.991877768019325,0.6770170305287391,0.7996418157498766,0.5415528304944179,0.5934111367310572,0.5039482342409477,0.7429784706633333,0.6313691053890819,0.9618531313780448,0.7763836201868451,0.8518908865397162,0.5849150929288611,0.7211234679334475,0.5312598130424782,0.7762796132087242,0.6831140672776153,0.925425117087574,0.7593854477943239,0.8607572984734467,0.6232762078739669,0.6279236483984395,0.51150624441674,0.7485589412441122,0.6419503257548492,0.9810519981328417,0.7412728004046417,0.82201236672543,0.5097428915700796,0.5613781639355085,0.5032137539249277,0.8085469140959285,0.6563479808057824,0.890371717491994,0.4240537712176529,0.5519259956466273,0.23403333439125126,0.9688733408452957,0.3932047862105948,0.5007233079282382,0.2748016717653367,1.02171051513905,0.18789407867298694,0.5003653355911692,-0.47431489837117535,0.19886230962605184,0.061945628283710905,0.4735655194522478,-0.4278018237213093,0.19754961888047246,-0.1742579073869774,0.3368034248312651,-1.3052130757369613,0.36591291146064514,-0.28845315908224384,0.46630471008062346,-1.1896641664556127,0.6223762045846206,-0.24907436647513911,0.3485345735125021,-1.3095903311263892,0.5145196205558631,-0.2772384772977444,0.4560430384536176,-1.2286008887395181,0.7186000787651152,-0.24731283301892223,0.39855164969913576,-1.3401652997160407,0.1095889137716465,-0.27493472059019886,0.4283029138267245,-1.3078813343611528,0.1554638719015553
19,0.8948990028625776,0.8791854258507562,1.1290833485065421,1.0179597041706727,0.8819725423678282,0.8655403523424416,1.1357257897725224,1.0333322485935623,0.9178282145970906,0.8254568206480513,1.0957151042108981,0.9855025237754743,0.8797651771895146,0.9046774639628334,1.190195047576871,0.9829613797162089,0.8828266176888404,0.8358140093372145,1.0998672037401838,1.0378420344630417,0.9231436752097647,0.8075884554066564,1.1822568497182353,0.9602064731799245,0.8842027124435416,0.8793707763248072,1.1146642883572413,0.9741091979050404,0.9105010342061043,0.8019887526979302,1.1235779716782754,1.011310526104525,0.8321063525222911,0.8083314419132338,1.138432703499772,1.0411698761136192,0.8031459459336077,0.8831567307690383,1.049515637034283,0.9733252414479514,0.8663161803565465,0.8681114862417069,1.0434379926490003,1.0300634551972006,0.86582785296514,0.6866966306523241,0.9437738092425085,1.0336956402712285,0.7329290846925176,0.7310922970381939,0.9570452830694072,0.9898633419203887,0.8703987502606332,0.6894706131181277,0.7105468280030607,0.6103439547246222,0.4796549115241971,0.6011213034362424,0.6129404812725331,0.9874844884668652,0.712652604945341,0.801333455173247,0.6103473266364782,0.6138483773316431,0.4854665959327997,0.7419179252188448,0.5863197887955317,0.9445071068648004,0.8094226438215443,0.8454898245279975,0.648600720739845,0.7391225805394961,0.5077212893146958,0.773732647132827,0.6287216466437092,0.9124765444519236,0.7900495465690317,0.8653450083771638,0.6766014190958669,0.6447894382887288,0.48986867932340133,0.7484827665080892,0.5939459092318646,0.9640675353948045,0.7750197363116224,0.8215909022822232,0.5728591912814522,0.572153133990135,0.4826743565281209,0.8091924920034907,0.6110372665076993,0.8680871501358843,0.42540840522219975,0.5806814220534876,0.23440654989351634,0.9688452074529618,0.3951822409852778,0.5142222102491,0.2761103017174412,1.021678984281964,0.21554353154069003,0.5198457130268535,-0.4195847529301527,0.19789412157864272,0.08903401450978753,0.47273725330844896,-0.39265281013159625,0.19845444719048524,-0.14081077448376247,0.34834830808245526,-1.2331962511862886,0.39063998775268305,-0.22918807250786377,0.44818996446371057,-1.110575779817107,0.637471676920436,-0.2140305878980218,0.3621079220346884,-1.2339088947488825,0.5406755691947791,-0.2130421409164898,0.4311130679507642,-1.1433473025729146,0.7310745560562224,-0.21525594445358368,0.41446036780826667,-1.2637339006099202,0.10668699831082161,-0.2044432434444352,0.4114936291396821,-1.2089398364054398,0.14870560670427824
20,0.889118168084238,0.8814215537041498,1.1153534849118194,1.0179695985417054,0.8761196721220681,0.8670380978563577,1.1232452341614338,1.0333378514301712,0.9127332947747786,0.8260942327192793,1.0836204091773298,0.98550097405471,0.8759041078675416,0.9030642642519875,1.178714907242838,0.9829614393208537,0.8764268780694646,0.835927734999446,1.087951810961262,1.037843822602385,0.916422408864528,0.8107845160641576,1.1701369013873197,0.9602041485987781,0.8783322252274978,0.8786323343806849,1.102948652032276,0.9741087806725268,0.9083265473158876,0.8057616075029229,1.1208087963950766,1.0112922870832237,0.833014074980946,0.8077207327228652,1.1410840454113589,1.041163796439852,0.7980918839832389,0.8823752542713882,1.0384273163457038,0.9733247646107932,0.8612474892921891,0.8685628722165909,1.0338505830321314,1.0300803829163168,0.8652372575422914,0.6930839239910997,0.941823131304055,1.0336989781313357,0.7310833312305752,0.7358594169226849,0.9528445344276488,0.98983514892341,0.87355274643331,0.6904217840394534,0.7177288248211697,0.6347240425771002,0.5012335269656059,0.6048055857390988,0.6488014124314949,0.9803554153238601,0.7201201705759707,0.812050429908507,0.628710828024772,0.6285418163384485,0.527003303279926,0.7417981198828463,0.6752910457146825,0.9285644737127923,0.8216392838509151,0.8430775053446479,0.6757781191145593,0.7477600684278323,0.5525760178327869,0.7724131195067894,0.7238640084353432,0.8988270807983592,0.8029152189706557,0.8648275208512238,0.7080335292452504,0.6513375449591084,0.5295138400191233,0.748543861268984,0.6814386481679797,0.9470358061734605,0.7839438758567232,0.826374532653317,0.5944111434695816,0.5737431474941633,0.5217176866735123,0.8104087843847774,0.6983140133283494,0.8460591211708881,0.42636031049827566,0.5663873937713221,0.2353876642816069,0.9688528964521378,0.3962340228817118,0.5163098033277133,0.27612550310077166,1.0216854215835995,0.2025754989815224,0.5186736174896678,-0.45108811627833845,0.20807663636536303,0.04476313939575831,0.47413379013553636,-0.40565971407683127,0.22308307151051554,-0.17573161661625672,0.3512903933485686,-1.313877410956137,0.4160512359597754,-0.3010012748045811,0.4500010217928885,-1.1042107525541682,0.6604101668343765,-0.24878236644891075,0.3625650002531485,-1.3192866391765903,0.5600477343978736,-0.2882123477532227,0.4329131580253034,-1.13499031529502,0.7465126358902068,-0.2310508668366615,0.39561346853725526,-1.332217436077242,0.10748413965417682,-0.27113947284969564,0.40686410657765526,-1.1664213591915331,0.15320226306252033
21,0.8624768647963388,0.881877410027392,1.0531239551320466,1.0179600617985414,0.8478579262387786,0.8685272006967812,1.0559755866371023,1.0333317121517591,0.8844460887087853,0.8274895178488264,1.0163255817319827,0.9854890531257551,0.8473233332071503,0.9039171471140786,1.1112972147436406,0.9829511873219522,0.8493428407068516,0.837767015127925,1.0232443080495632,1.0378372064868149,0.8892447170491109,0.8135608408131505,1.1054504080534746,0.9601933601580739,0.8486261550580301,0.8838098322444544,1.036967263070255,0.9741002572083239,0.8870013860565927,0.8101433237542962,1.0690572901659834,1.0112727367597374,0.8100334653158676,0.8114113927227126,1.0874276205647657,1.041148120418276,0.7719251492534306,0.8817672868946792,0.9769897181103778,0.9732926377072592,0.8364667533388648,0.8692542264913407,0.9746885318671793,1.0300688196152303,0.8575783834833448,0.6955466687039293,0.9196231588412305,1.03370315045647,0.7199912129851929,0.7426558961478436,0.9231804738482181,0.9898171483206877,0.874239482909093,0.6913126350602664,0.7164514726602662,0.66199090258534,0.4944233268056764,0.6082824438781369,0.6264489190311038,0.9759546851908033,0.7191514952575571,0.8072053471486498,0.619819886040065,0.6415654312218714,0.5186835092718802,0.7419835499327425,0.65531555805908,0.9128812399748468,0.8295217184286588,0.8421541101877875,0.670073454600937,0.7542097678296877,0.5410549915660641,0.77277784032817,0.6993945168417879,0.8848697591545296,0.8041854873295642,0.8651012253800324,0.6953903967183421,0.6560281920843526,0.5183960789453961,0.7488825944652425,0.656577306833463,0.9303211736623216,0.7868089529482508,0.8280881065859647,0.5860922703701722,0.5741897650974653,0.5125723248652849,0.8120876684141658,0.6779454176871107,0.825767077484975,0.4321594825044955,0.5805369999991968,0.24004407146012333,0.9688573071958512,0.39988540775155285,0.5187896545735934,0.2762399558022703,1.021688223001904,0.22709708573369505,0.5187224634960612,-0.4007859790105202,0.21518800692887013,0.06563469600628873,0.4739713674785234,-0.3675861079936823,0.23973583440037755,-0.124510349527749,0.35192431854807726,-1.2007499983907821,0.43898042754913086,-0.26382869425233624,0.4509551729464529,-1.026212397456394,0.6774040471062881,-0.19504592641125093,0.3652458383612112,-1.1999650431936648,0.5778870469512793,-0.24902198753941204,0.4340506828685193,-1.0533941951934158,0.7594879114067168,-0.17882606535988196,0.3951948651169977,-1.2242017623293635,0.10701162383271981,-0.24696943023443524,0.40544334046246666,-1.1139576851523274,0.15276640409760023
22,0.757628943316781,0.8780048962563348,0.8188624520499642,1.0179666183094667,0.7564524501565023,0.8666959671953469,0.851668137419127,1.0333404144298963,0.7930312503945307,0.8256663309744368,0.8120264945066591,0.9854938214973371,0.7559836575104862,0.9020544423602028,0.9070115868357205,0.9829539887402566,0.7562881696999932,0.8364535075710097,0.8150548125682712,1.0378407231608566,0.7961380970361694,0.8125892254986669,0.8971589491283866,0.9601939562045216,0.7548746208728688,0.8816182290607081,0.8283812771052799,0.9741006744408376,0.8418676218229825,0.8102541287889337,0.9675622190875656,1.0112785780149254,0.7616367581756516,0.8134237051349745,0.9790759379561851,1.0411512794644493,0.6854205656716531,0.8779087802151443,0.7827136677136736,0.9733061083569784,0.7477495131853196,0.8661653945897904,0.7759098024384087,1.0300782371491048,0.8314330380564533,0.6897989332035936,0.8716707203864409,1.033729138081592,0.704064154269024,0.7426742543784344,0.8859127501221601,0.9898519574332365,0.8711638364882374,0.6895572186669864,0.7091351564455923,0.6884922005360846,0.47045280364889247,0.613752242919885,0.577297988630717,0.9766766166483228,0.713428688983101,0.8049550333897997,0.6024661703062253,0.6558629761780786,0.4881309941283111,0.7420194915335421,0.5875851238499826,0.9101041403654717,0.8172207048761699,0.8394628412668891,0.6366076160930577,0.7603969683759524,0.5145951531840418,0.7731048314094078,0.6400021355408213,0.8811392236473277,0.790826803086976,0.8653505516091279,0.6616455811395892,0.6615894842558309,0.4938476903153472,0.7492179898013936,0.6005272971407143,0.9267223048154283,0.7805350075823569,0.8262349981798978,0.5648474313710087,0.5781906076687239,0.48305719966708,0.8125887050581477,0.6114608198375565,0.8214972987564899,0.4305463052512189,0.5742113974677637,0.23684772415067457,0.968875665426442,0.40128020224964295,0.5169045980779269,0.2793963542540311,1.0216961504196593,0.2153304207005324,0.5065345951393565,-0.4265414157703043,0.22681670921177574,0.08201366437538309,0.48830753624454515,-0.34405335744664645,0.24289020160885844,-0.13766144111789533,0.35341655063235156,-1.2291464484520598,0.44228869395042175,-0.2506775837450652,0.4702155198359488,-1.0377962817621562,0.6574090133652908,-0.2090364672895387,0.3649351193479971,-1.2303145880490798,0.5813866144599769,-0.23602167765598844,0.4487166143317609,-1.069582006411296,0.747542484942636,-0.21133321357490611,0.3850670822953425,-1.2870054530850918,0.10529337466074762,-0.258866908470393,0.4374658166587556,-1.185393815693667,0.14503100270561722
23,0.7953992909549389,0.8760577317208124,0.9006690434496286,1.0179749629597354,0.786434577546034,0.8655298023203164,0.9163641474083924,1.0333441695225172,0.8230350864088367,0.8244863974264631,0.8767763101420907,0.9854921525672833,0.786030987703435,0.9008501901171608,0.9718496783786125,0.9829541079495463,0.7866810666411961,0.8358901840732375,0.8806393233721751,1.0378439418116745,0.8265002428139193,0.8120776984372045,0.9627863649480923,0.9601933005534291,0.7850157647440741,0.8809419547610865,0.8938967901642876,0.9741004360222584,0.875760898908046,0.8060205300798272,1.0452730371500503,1.0112719618993553,0.7993053925273284,0.8156790256839858,1.0619398131520215,1.0411406102330345,0.7143245369543751,0.8757603903988601,0.8446246416005794,0.97328316056874,0.7766020862656973,0.8644249985669937,0.8379359870415427,1.0300678063362692,0.8667202775277651,0.6925806819752611,0.9499477997148353,1.0336994549684941,0.7350384485668149,0.7423446406928265,0.9528735602447631,0.9898285924124846,0.8779177255258077,0.6885628939828433,0.7241223588776755,0.7126773812001471,0.5028297951987057,0.6168802350730527,0.651422007546801,0.9800367688928908,0.7213544318557441,0.7965351620595384,0.6214138775568093,0.6735060702408838,0.5334338077827561,0.7436904481451754,0.6885310769819059,0.9133826342466973,0.8326383031196771,0.8360573894922919,0.6756668942526562,0.771733414184363,0.5624234143134559,0.7737402765273582,0.747004636010295,0.8824564862968638,0.8090126586219338,0.8610854220429353,0.705780108434169,0.67219124321274,0.5412212090139397,0.7492466596355306,0.7052345256736545,0.9282825159970689,0.788893447612816,0.8235021252169461,0.5889890321564005,0.5890172549503706,0.5294688176925078,0.812733782763531,0.7133871217629772,0.8232099190148212,0.43368063092803055,0.5693465855704859,0.2420409961733179,0.9688471148015946,0.4002745912659787,0.5143696721402743,0.275279647899443,1.0216703416084716,0.18960438610681427,0.5183518418148478,-0.48399575363836955,0.24865099327892964,0.03597287717260304,0.48609042227283494,-0.4631827047843525,0.25311093787404093,-0.18890338802330667,0.35606889772021166,-1.3421630544698762,0.4578110547521185,-0.340360134131029,0.4783806707167624,-1.2570577830410605,0.6539356719002944,-0.2631673098520131,0.3709760202936605,-1.3492322388327773,0.5939839369239661,-0.3344067928858708,0.4645347929854779,-1.3010076145021126,0.747972115222177,-0.2560950617554491,0.3959124156331263,-1.388987807666317,0.10631717756702241,-0.348432897971556,0.44099438182713646,-1.4021684629447002,0.1406959196382001
24,0.8314404110174652,0.8721495743721795,0.9744658279074032,1.0180156133274723,0.8316371039607304,0.8629724650362283,1.0117594216519186,1.033376356030696,0.8683071547763394,0.8220720516851912,0.9721094783411133,0.9855189746574323,0.8311687340117844,0.9006053342364235,1.0670254336028384,0.9829848043416056,0.8329901355243714,0.8346519571826735,0.9791992227197631,1.0378619424143964,0.8733543829545514,0.8113055202641393,1.061572123777289,0.9602080825053333,0.8337066795120329,0.8801870619350062,0.993558282751948,0.9741164100670582,0.9028011264824229,0.8026808818330621,1.1040658707704818,1.011304208012179,0.8351106671453519,0.8128422022205458,1.1364282774636036,1.041164571300234,0.7540923126929466,0.8700683256367446,0.9237736707573072,0.973383475185897,0.8181669479850247,0.8615803072904434,0.9226227633864567,1.0301316429108236,0.8914107882817055,0.6895655214146532,1.0011990818015828,1.033719899361652,0.7551970659394991,0.7386950482932293,0.9962308325343395,0.9898659645247587,0.8999739560521446,0.6877174020967044,0.7613374134943924,0.7369516708081488,0.5158395138404346,0.6195846170158017,0.6811424375008489,0.9842505788599316,0.7470391720818641,0.815741447536223,0.6688338641844056,0.7027648578728724,0.5490934661573234,0.7453295758764986,0.724250016433292,0.9201046076658869,0.8574589231197992,0.8563976533358283,0.7280996279542588,0.7927995433919741,0.5763969374206763,0.7763728348731529,0.7788785495163958,0.887749974799366,0.8366968593243812,0.8783702325859956,0.7601597178314987,0.6937611508779927,0.5543596333330081,0.7515519288768636,0.7349304520197257,0.9344474244061876,0.8177823945611048,0.8424242753519864,0.6384154516169,0.6159080096500776,0.5442113144561043,0.8139909043264888,0.7466304994558233,0.8309509530457355,0.435664508687503,0.5654540446387842,0.24594961839313012,0.9688521215917557,0.4030434874677807,0.5279573257772067,0.2738162633708476,1.021660924074597,0.19194557383131486,0.5046470650509318,-0.4718701409436875,0.28275489347309773,0.027868412542480167,0.4846854811908342,-0.4996403692497429,0.25608720640393284,-0.18954205701142793,0.3499651138743102,-1.3325881944534104,0.48349052386070007,-0.357135383950423,0.4920444096827505,-1.3198856198426854,0.6500450383172256,-0.26877153249653624,0.3654362752012686,-1.34264436920507,0.6141215449752662,-0.3560433146550831,0.4750766194720654,-1.3691508621522883,0.7498652183448882,-0.25803610536642085,0.4003350206708155,-1.3876470952098472,0.10558224484636121,-0.36191993730911964,0.478550106209537,-1.483390071122518,0.1338759710841611
25,0.79523584197527,0.8672778483361078,0.892639675089869,1.0180499456028627,0.7932177175663386,0.8590893416384011,0.925411122970447,1.033402939702266,0.8302630272989648,0.8179196345022688,0.8859733233137176,0.9855412667945783,0.7938459516749802,0.8951681985400124,0.9812825481991467,0.9830103747342143,0.7933754605577541,0.8311587077663222,0.8907653118920126,1.0378767839709457,0.8338590910481356,0.8078054759182836,0.973186972366375,0.9602202418528677,0.7953977992694056,0.8755957161479578,0.9058275849214628,0.9741293442749744,0.8673014735640406,0.7993434389581536,1.024570323103934,1.0113313877301964,0.7985206841559422,0.8126732826572524,1.0538197427754028,1.0411829891354696,0.7230060420032328,0.8647885462025405,0.8495912734405547,0.9734623321309348,0.7853891223269509,0.8586155126546707,0.8457548246937611,1.0301792670219991,0.870697002586524,0.6740477501706041,0.9537651026705369,1.0337471386843142,0.7329119771926368,0.7365600695220196,0.9466204084165701,0.9899033366370329,0.8922293277855002,0.6870882154664554,0.7334155409730203,0.7583801366513495,0.49436063678932135,0.6212888926238644,0.6462651609577797,0.9877063965593641,0.74109529354029,0.8129954615514208,0.6510253045150556,0.7250552068795252,0.5402135589859286,0.7465481332342867,0.7089100510332971,0.9248538461569451,0.8470424136883953,0.8575707919542975,0.701948296440983,0.8084392061345889,0.5650222358230429,0.7792469708442222,0.7559100240249438,0.8912360120536997,0.8262791610324334,0.8788997602501801,0.73272838284637,0.7093625474386617,0.5423591658266365,0.7526660588970052,0.7089538463202197,0.9384551215115953,0.8118509326167708,0.8437768239512295,0.6198797314979879,0.6335428782719038,0.5370529154516863,0.8142987623167537,0.7312603642359139,0.8349072709473468,0.4362074976776481,0.5615870740996912,0.24790037714562438,0.9688647577764482,0.40197345925785266,0.5297882016507723,0.2716309695793851,1.0216574074005553,0.222669925230604,0.4984427281692942,-0.3989242360237121,0.30337865190834706,0.056812666741790016,0.4842856532336809,-0.44137004839287325,0.24887873987408665,-0.123191899538695,0.3454846923311888,-1.1805150329250833,0.5060685248830389,-0.2929288743759128,0.494446804692745,-1.1833456855112896,0.6425802122102005,-0.19933254755118748,0.3593428327612356,-1.1810627921292092,0.6326773053588721,-0.28999783331792645,0.4790385998149304,-1.2237448061295633,0.7502755963241667,-0.19352769404003198,0.39600259746067146,-1.2175893238805686,0.10428919285847481,-0.27174863619689177,0.4883362948119845,-1.3150166364504645,0.1269908523016408
26,0.7861361464375493,0.8375230904549432,0.8692830166490305,1.0180808208088563,0.775905654005914,0.8297577171304971,0.8833973802117607,1.033428629304164,0.8137253622447803,0.7884339319876204,0.8443799312774876,0.9855636781410139,0.7771856812641675,0.8650553955576821,0.9396210345619955,0.9830351702664408,0.7708903556460622,0.8021555644557753,0.8407180335422474,1.0378900162020857,0.8112067628639665,0.7775087330021764,0.9230555994939057,0.9602318647585989,0.7728912142146809,0.846731630473672,0.8557371517956531,0.9741412652039296,0.8173966108305024,0.758021207665429,0.9142525107578245,1.011358805866793,0.7313029970753693,0.7734646320682631,0.9063081624213638,1.041202003017153,0.7080632629274707,0.8329897066334487,0.8111742108699764,0.973532606007125,0.7635870768520903,0.8257683465932694,0.7959064868712539,1.030219082924709,0.8103419397683103,0.6270042478398241,0.8152221268415865,1.0337613841944155,0.6654209545224599,0.689582787951585,0.7891847204229915,0.9899007140326627,0.8606495830352667,0.6825545669755496,0.6571375617319044,0.7779404737179999,0.4328446047622789,0.620798882839166,0.5262445297560641,0.9897712802683181,0.7179273382150936,0.8111486116330553,0.5987422504394443,0.7506782899941492,0.4748611189863381,0.7484578660528902,0.5740246050446499,0.9271674004439019,0.8167515156072582,0.8548273689692206,0.6320465129527375,0.8283378591649844,0.4889040354600628,0.7860663978576194,0.5967763954233956,0.8938255954506114,0.7873685369790723,0.8780615401307038,0.6490081470906617,0.7303839135580464,0.46854125010286024,0.7557565597286092,0.5495162978820847,0.9413464236203599,0.783656719140824,0.8415158409609647,0.559325607458474,0.6587878295200728,0.4753997316132195,0.8152461185408137,0.5963783975584946,0.8387950435074665,0.437352677822805,0.5186766174422816,0.24863056830664418,0.9688744733335466,0.4085233359719191,0.4977472480146029,0.2748186205228609,1.0216543675636716,0.28118674173846037,0.4839144536331614,-0.26613691646085574,0.28599696891636556,0.12542890452001537,0.44820457756534593,-0.3080985706824337,0.23312776545735386,-0.00197337619899237,0.34703787016474597,-0.9063599313541844,0.5020719142415594,-0.12541278605503958,0.4558108653330801,-0.8825652707536662,0.6341847787842971,-0.06925414453267645,0.3603530420832113,-0.8901728957979897,0.637809861320481,-0.10198151222462584,0.4340400434394269,-0.9007172311724687,0.7597042166626067,-0.0950222265007222,0.4380385347699366,-0.9611348059239984,0.09924396142675211,-0.11476269797092122,0.46401044718625206,-1.0215733424583342,0.11876991892389802
27,0.778819092125835,0.8288476940125299,0.8522334067557656,1.0181110999684022,0.7685957370779564,0.8241302638033181,0.8654757370314177,1.0334532460224564,0.8060367499290478,0.7846497523001204,0.8262826384130773,0.9855847781852645,0.7695063064984373,0.8624202146075173,0.9215294490313625,0.9830588929150614,0.7635945855203805,0.7940469485805312,0.8236018110568484,1.037903010014647,0.803886530348257,0.7690764639058019,0.9059187624229752,0.9602428916178821,0.765852497037601,0.8390330349498377,0.8387440540974487,0.9741528285050159,0.8113618864285055,0.7558564861764764,0.8988965545493485,1.0113841974454674,0.7274302924317921,0.7646626353603468,0.8973177196056985,1.0412201824338096,0.70154856825273,0.823401286242366,0.7949794933804849,0.973607171417739,0.7585694856037362,0.8161293814634171,0.7817987732755775,1.0302638460129354,0.8130740925900732,0.604007285769359,0.8120066092217628,1.0337753912859378,0.6634394832509554,0.6753529538718426,0.7821523448993051,0.9899122773337491,0.8574472108105475,0.6605913282594241,0.6518245294345202,0.7959006644910102,0.4239704589537819,0.61937939822384,0.515875874448206,0.9919432139192884,0.712987356777966,0.8097962418477465,0.5852763457002473,0.776266921624093,0.4725516674930822,0.7486023477118258,0.5732496579729559,0.9306380596998832,0.81425985714832,0.8523592598383612,0.6202908509409675,0.847273718368323,0.4900512505827991,0.7870094029426109,0.6010355905479527,0.8967817474128916,0.7837825856817643,0.8762586784401826,0.638218284856799,0.7505493569784566,0.46583121459571236,0.7556523112048971,0.5495747985969662,0.9447388219777513,0.7788341223909164,0.8401012439265103,0.5466372899947408,0.6845507451313398,0.4717325045013824,0.8148268594694636,0.5946481965724981,0.8433971181305744,0.43831999344129186,0.5031094935523585,0.24865077303931085,0.9688748905660599,0.41020578679629893,0.48005682786384607,0.27611881559267126,1.0216473342155883,0.280864141668713,0.4763833769634684,-0.262931204180158,0.27609514730305373,0.1298925046503414,0.4386746889354326,-0.2955990755730786,0.22549661258908305,-0.00680829789575884,0.3480090384443938,-0.9124813697261823,0.4992113681294989,-0.12823511716328473,0.44775499956846215,-0.8737882552933703,0.6329212199197036,-0.0740105489010082,0.3614791228346304,-0.8971622246333285,0.6397429591598365,-0.10467031921186223,0.4266929067035108,-0.8913652450663389,0.7675529562866301,-0.0963161575520691,0.4500188895558558,-0.9702973175551777,0.09490722060515222,-0.12305068360437195,0.4543112813651765,-1.014410135428187,0.11201045418314483
28,0.7951727454695993,0.8121506448715997,0.882908354678232,1.018138220081775,0.7852375893548607,0.8025141029337197,0.897657149783123,1.0334751805317337,0.8222738202687838,0.762680374305583,0.8582463563998664,0.9856037920669477,0.7849540336065484,0.8403272165797158,0.9530900160598019,0.983080231377891,0.7820297461474065,0.7725914818332472,0.8582118116056142,1.0379145733157333,0.8217113096688047,0.7453706833996678,0.9402238241971357,0.9602528455935597,0.7833039703662802,0.8137723480754481,0.8728552802423244,0.9741633189224964,0.824800863051996,0.7327999194612359,0.926703488260209,1.011407145233706,0.7436253475204839,0.7341252684932814,0.9327777040800278,1.0412360968739645,0.7162894561567058,0.8047937294224502,0.8235601339477843,0.9736741074338218,0.7739299682385343,0.7948042700742569,0.8125803578352627,1.0303044367760275,0.8227493059356662,0.5806368409947313,0.8314027308984957,1.033799471562427,0.6755080276889056,0.6526313652602398,0.8088506867124379,0.9899298010993131,0.8615563351549607,0.6546370030602969,0.6624497136178058,0.8121064521497016,0.43301414520737525,0.6130926579208005,0.5428467186159639,0.9948128795419997,0.7235187634687195,0.8089399019162584,0.607823588600857,0.7995336543168116,0.4928255819062307,0.7484607270758394,0.6197403091927566,0.9360934940222405,0.8234430697247727,0.8515485174601264,0.6437321631384821,0.8644059410207583,0.5116496655712119,0.7867992965697777,0.6492326501090603,0.9013767290832713,0.7948603364262824,0.874857134822934,0.6634180147700559,0.7687340784483357,0.4807879193921158,0.7536173490276205,0.5849189584085969,0.9501532483045029,0.7895019066226812,0.8384716529383511,0.5704561003669002,0.7079313226955793,0.4901548574544104,0.8129946126890681,0.6382692123677416,0.8504595532807209,0.44012776808707543,0.4830263939487055,0.25010044705982176,0.9688865134717911,0.40939130343035063,0.4613854046670534,0.2751954685777371,1.0216484667038388,0.27859398861872636,0.457211691983076,-0.26702862825188217,0.2677046610626668,0.1226253904780115,0.4250379508735277,-0.3092198215644503,0.21690755347462687,-0.01742050216621762,0.3394921009501158,-0.9345612870683726,0.49842941479469055,-0.14160850095088434,0.42917801993131616,-0.9022130835118835,0.631804169271968,-0.08481683916125984,0.3533293499521688,-0.9207113124475984,0.6437905913772437,-0.11860315899027143,0.4066681600470929,-0.9212321897667611,0.775597675982675,-0.10753853603832628,0.44180316413395027,-0.9915866211339862,0.0910742656917744,-0.13543636851734986,0.43505075566174634,-1.0427262693595252,0.10599679256014372
29,0.7893791351263817,0.7818369146317315,0.8691769528181553,1.0181621811489747,0.7770130575921232,0.7695333032587319,0.8796592097220634,1.0334938367855484,0.8140366526591423,0.7332505809477339,0.8402547088714343,0.985620123739616,0.7762923074529557,0.812961651279728,0.9349144918279093,0.9830985896084818,0.7748619813039177,0.7349462610767165,0.8409648398364672,1.0379246465007004,0.8147858484989909,0.7051002356686498,0.923105713045579,0.9602616074763417,0.7766416580131354,0.7722759520106898,0.8558699085349557,0.9741726172470814,0.8214153237716545,0.6886689384927606,0.9055051017163359,1.011427530022219,0.7318062050530663,0.6945068955761061,0.9065837857725421,1.0412503423840658,0.7085482417774516,0.7809299966076614,0.8069853717250515,0.9737366327061912,0.7673319566265855,0.7645232627843704,0.7965267452340716,1.030344371888027,0.8100364591237916,0.5691075145558275,0.7950458317342803,1.033814313118976,0.6628819306334137,0.6223174562064373,0.7809131587103706,0.9899445830512175,0.8418854924011788,0.6577217222413577,0.6207990621984985,0.8254708863919501,0.42875719411374397,0.6069149941176999,0.5368870449872473,0.9975352620874709,0.6998180548745276,0.8083392659108568,0.5569183100701808,0.8150666843499231,0.497414828380523,0.748379366735721,0.6317085787297151,0.9426390376928948,0.799310908026053,0.8537551410143561,0.5918302505250247,0.8769611230008914,0.5210699093868504,0.7864751069068443,0.6699737573670955,0.9070568729164317,0.7716926712292691,0.8744011592904023,0.6134176328364473,0.7815419245176717,0.4911102046416988,0.7536014345874654,0.6075126137230443,0.9570570754949022,0.7656722992911541,0.8384174723162503,0.520049411135566,0.7226739355343245,0.49663836039402326,0.8129839434576533,0.6524778802958613,0.8599654808434345,0.44568284048686096,0.47169876962772167,0.25269107923291,0.9689061233999221,0.40919697888717294,0.426124727329407,0.27531755153495596,1.0216593147491881,0.3016124418649324,0.4245753475502452,-0.2163261997492271,0.26509534852833455,0.14160597582196932,0.4342661505939104,-0.2660683297561894,0.20766203860493684,0.018719143164880193,0.3326383714636504,-0.8484181976052809,0.5031126709439825,-0.14801632184873414,0.442796220948696,-0.8385178018699855,0.6362493048653823,-0.0466365950335341,0.3511248423628286,-0.8305778865092798,0.6530454045715186,-0.1265490782984229,0.4241257346530347,-0.8541931877408387,0.7844818078910918,-0.05665945492066001,0.40862861956112007,-0.8841405214888443,0.0876053312452012,-0.13468898860714584,0.45695072404744286,-0.9617809760531388,0.10089046264223603
30,0.8287833614210717,0.7342709775894952,0.9429692236130817,1.0181843540768314,0.8115770321490645,0.7220714955309182,0.9437432919159848,1.033511718178981,0.8477245295384612,0.6819675194433699,0.903901302521388,0.9856352633193891,0.8100192265690758,0.7589182390711708,0.9986109269732597,0.983116053769401,0.8089211924185247,0.6924071413562575,0.9031632572419811,1.0379342428485092,0.8483678902627394,0.6671849462666417,0.9850611747673462,0.9602696541033865,0.8043606845556321,0.7391218816333399,0.914808801652013,0.9741813791298634,0.8370187296402295,0.6517557819833611,0.9381975819600066,1.0114457690435203,0.7488049974607327,0.6606547355991469,0.9407923351768,1.0412630977780477,0.7433468607582124,0.7351998826245071,0.8700561269377525,0.9737976678624412,0.7958370977787822,0.7382374952291336,0.8545910158642681,1.0303822208374596,0.8248696278588212,0.5411425649479784,0.8215374923391616,1.0338277837686953,0.6711943348107139,0.5941088428107464,0.8003210166169556,0.9899493514227995,0.8413774187171403,0.644546294327692,0.627152887754574,0.8381203629201178,0.4329884571145704,0.5991123884887326,0.5443345758048359,1.0001703238283461,0.7206434355994933,0.8070947209279467,0.6056679608859422,0.8350362669076014,0.5191206109428638,0.7470078042547945,0.6790693216397666,0.9489632693174981,0.8220796230824653,0.853128636593122,0.6437147204701675,0.89173598195246,0.5467682846697687,0.7862188665389549,0.7249210615618299,0.9125441361190989,0.7955599443601441,0.8726412725487641,0.6664425854578422,0.7974575567655965,0.5188580035624353,0.7532088187923299,0.666697598058831,0.9637296366635729,0.7879542798877971,0.8340746778979153,0.5706085548795933,0.7439697214382551,0.5192988470359703,0.8123213186216853,0.7017844771220308,0.8692442551049091,0.4485447007565269,0.4562667694675044,0.2563954041038548,0.9689205477239577,0.40799934183508957,0.426677351793442,0.2725196639738785,1.0216654540276,0.31051959575356025,0.442510295756193,-0.195308490670721,0.25199187832207387,0.15486414328273568,0.4276056593658067,-0.2371167052471883,0.19379428784104374,0.024116070839065508,0.33507706570231305,-0.8361906580110098,0.4809254379727911,-0.10804818676831048,0.4432583059573172,-0.8119282121373678,0.6102860580430252,-0.042750276105189645,0.3529114617876486,-0.8193964867533903,0.6328663712920997,-0.08327911527505646,0.4264860487838178,-0.8283197743377388,0.7730904066001982,-0.058861811311868815,0.4166973301266871,-0.8779327777724526,0.0838457161219292,-0.10033129091578515,0.44423428170087,-0.9492536635222728,0.09481726342968493
31,0.92720536351227,0.6537570234268976,1.1532550258348209,1.0182052753071473,0.9093440836206497,0.6327085165956765,1.147274430778829,1.0335283478748731,0.9452777902201528,0.5920533763578901,1.1072700770200627,0.9856480783180157,0.9063011316059584,0.6694682373545571,1.201375029249924,0.9831326834652935,0.907302219797608,0.603771219877986,1.1088955257998734,1.0379429451266464,0.9466284124712627,0.5781400773205663,1.1907318844494443,0.9602758529864429,0.9060156004380251,0.6462515865855799,1.122172921452229,0.9741893661522631,0.9022324310714942,0.5644423087587213,1.0792870054342727,1.011461802692965,0.8231227534610763,0.5772332072597609,1.0913982394275088,1.0412758531720296,0.8321409600727833,0.6534019848088027,1.0607552683967172,0.9738666304364464,0.8876606583550534,0.6464924762700882,1.0500957852048602,1.0304253746002767,0.8608481293600554,0.5003426491574205,0.9020326260706522,1.0338720700197637,0.7094565737071865,0.5246536662188732,0.8807055058289859,0.9900028167891631,0.9307934735372778,0.6295202614030398,0.8756381151676347,0.8471877195065741,0.529859184875356,0.5987470716209042,0.7498103018593122,1.002800199965126,0.9145113226596033,0.7802863398473192,1.046799906102334,0.8520276437844324,0.6818018213590388,0.7441884449522738,1.0225671898257278,0.9548534599188468,1.038459552045216,0.8336604483072944,1.13651832062027,0.9025748481862856,0.7305834671068148,0.7856061307906639,1.115206201406563,0.9176020670654488,1.013850078412097,0.8593692851105622,1.1542672834993795,0.8088556337767049,0.7033923601925389,0.7504500774135457,1.0623868273660542,0.9698897170964645,0.9914311038329126,0.8208665866389127,1.0217931946705165,0.7592124768513105,0.683671007896427,0.8086898460340999,1.0542005469340037,0.8777322545441486,0.45349727761239356,0.3999036040889338,0.2621341562663808,0.9689352104665726,0.4054553054092755,0.3482509907094576,0.2679243185240303,1.0216791034912536,0.32567286912551496,0.4698579498604258,-0.19844801168443107,0.23589118855328264,0.13923622765957094,0.37734276115909593,-0.1973690672927247,0.19955932358952555,0.022680116486795666,0.41031681346499316,-0.8962652220661466,0.44356667713905085,-0.19726460297878357,0.4197921063208578,-0.8939840842503661,0.5826498280511123,-0.04451917534472397,0.4355473711065725,-0.8826951048870988,0.5865372306289527,-0.18079689870790253,0.4149127341170697,-0.9227237979183353,0.7474483692085356,-0.04858465919494328,0.4983721443509302,-0.9145742038466035,0.08232781678749851,-0.19025147182564955,0.403342187327167,-1.0141296845313583,0.09476583207182432
32,0.9825351903997147,0.5983735199898553,1.2721147465943083,1.018225838909595,0.9606161850204465,0.579172578332737,1.2596745130577884,1.0335443219196732,0.996042765083968,0.5393194781950483,1.2193457338262288,0.9856607741073529,0.9580219675696489,0.616971386863987,1.313873746745077,0.9831482402775799,0.9580210024125064,0.5506433946178236,1.2204133691623935,1.0379515878001389,0.9973608755329462,0.5255792710461522,1.3022459173008303,0.9602824691020131,0.9570009865053093,0.594030407577096,1.2337913363233246,0.9741971743607288,0.9397159701199275,0.5179677327623223,1.162737376734669,1.0114765846448694,0.858982680076827,0.5240268826824294,1.1718696650623766,1.0412885489613668,0.8817651504660765,0.6044713994244338,1.168412746735412,0.9739295133366844,0.9375176142918338,0.5990667293523636,1.1576908463279163,1.0304649520844076,0.8835634371464283,0.4707656323269762,0.9526030212815768,1.0339007994585452,0.7376452064708037,0.49823498030578733,0.9421326958337842,0.9900481163191923,0.9393481050519388,0.6153946162423648,0.9197706161186383,0.8531457401936774,0.5655956062110898,0.5997883051604855,0.802554998795254,1.0051774716173476,0.9381086090920684,0.7546899596135546,1.1031012013801986,0.8645484338845301,0.7090445967435607,0.742415981630588,1.0446437997416813,0.9600956884268425,1.0586119199679163,0.8161647565310187,1.1912117695721367,0.9087745061033083,0.7539848079804754,0.7828434555053245,1.1307382775272037,0.9220782566787913,1.0381767940434847,0.8469132852593354,1.2151596949436523,0.8154894519262715,0.7324687729536139,0.7492098835697042,1.0835203494874845,0.9754084515515733,1.0173170598528318,0.8036481160654874,1.0815730407469222,0.7689942547100447,0.7128732675836853,0.8058983221006892,1.0773517006278561,0.8853146210106707,0.4548438795540109,0.3770376828300074,0.26653028852048244,0.9689238855840654,0.40304932750228034,0.3360993321744539,0.2629248302314179,1.0216814280723996,0.3560010211988477,0.4888947197273692,-0.14745982716920208,0.22315163450569814,0.1590550467377369,0.3795700973273851,-0.1763018363609698,0.19667124013157875,0.046413033336043776,0.4420017187555968,-0.8456939591340649,0.40654644088531244,-0.1601119833906926,0.43736108200788476,-0.8504757180134178,0.5412558923707229,-0.02131791817707216,0.4705281748346762,-0.8298406349614623,0.5356622821273658,-0.1419438974488104,0.4486649073024182,-0.8760195272609678,0.6936336600219817,-0.01151771242871188,0.5320937701558314,-0.8355210134994373,0.0839736612172299,-0.13445625062434874,0.42179548732640393,-0.9390231404423066,0.09683681035570652
