frame,NOSE.x,NOSE.y,NOSE.z,NOSE.v,LEFT_EYE_INNER.x,LEFT_EYE_INNER.y,LEFT_EYE_INNER.z,LEFT_EYE_INNER.v,LEFT_EYE.x,LEFT_EYE.y,LEFT_EYE.z,LEFT_EYE.v,LEFT_EYE_OUTER.x,LEFT_EYE_OUTER.y,LEFT_EYE_OUTER.z,LEFT_EYE_OUTER.v,RIGHT_EYE_INNER.x,RIGHT_EYE_INNER.y,RIGHT_EYE_INNER.z,RIGHT_EYE_INNER.v,RIGHT_EYE.x,RIGHT_EYE.y,RIGHT_EYE.z,RIGHT_EYE.v,RIGHT_EYE_OUTER.x,RIGHT_EYE_OUTER.y,RIGHT_EYE_OUTER.z,RIGHT_EYE_OUTER.v,LEFT_EAR.x,LEFT_EAR.y,LEFT_EAR.z,LEFT_EAR.v,RIGHT_EAR.x,RIGHT_EAR.y,RIGHT_EAR.z,RIGHT_EAR.v,MOUTH_LEFT.x,MOUTH_LEFT.y,MOUTH_LEFT.z,MOUTH_LEFT.v,MOUTH_RIGHT.x,MOUTH_RIGHT.y,MOUTH_RIGHT.z,MOUTH_RIGHT.v,LEFT_SHOULDER.x,LEFT_SHOULDER.y,LEFT_SHOULDER.z,LEFT_SHOULDER.v,RIGHT_SHOULDER.x,RIGHT_SHOULDER.y,RIGHT_SHOULDER.z,RIGHT_SHOULDER.v,LEFT_ELBOW.x,LEFT_ELBOW.y,LEFT_ELBOW.z,LEFT_ELBOW.v,RIGHT_ELBOW.x,RIGHT_ELBOW.y,RIGHT_ELBOW.z,RIGHT_ELBOW.v,LEFT_WRIST.x,LEFT_WRIST.y,LEFT_WRIST.z,LEFT_WRIST.v,RIGHT_WRIST.x,RIGHT_WRIST.y,RIGHT_WRIST.z,RIGHT_WRIST.v,LEFT_PINKY.x,LEFT_PINKY.y,LEFT_PINKY.z,LEFT_PINKY.v,RIGHT_PINKY.x,RIGHT_PINKY.y,RIGHT_PINKY.z,RIGHT_PINKY.v,LEFT_INDEX.x,LEFT_INDEX.y,LEFT_INDEX.z,LEFT_INDEX.v,RIGHT_INDEX.x,RIGHT_INDEX.y,RIGHT_INDEX.z,RIGHT_INDEX.v,LEFT_THUMB.x,LEFT_THUMB.y,LEFT_THUMB.z,LEFT_THUMB.v,RIGHT_THUMB.x,RIGHT_THUMB.y,RIGHT_THUMB.z,RIGHT_THUMB.v,LEFT_HIP.x,LEFT_HIP.y,LEFT_HIP.z,LEFT_HIP.v,RIGHT_HIP.x,RIGHT_HIP.y,RIGHT_HIP.z,RIGHT_HIP.v,LEFT_KNEE.x,LEFT_KNEE.y,LEFT_KNEE.z,LEFT_KNEE.v,RIGHT_KNEE.x,RIGHT_KNEE.y,RIGHT_KNEE.z,RIGHT_KNEE.v,LEFT_ANKLE.x,LEFT_ANKLE.y,LEFT_ANKLE.z,LEFT_ANKLE.v,RIGHT_ANKLE.x,RIGHT_ANKLE.y,RIGHT_ANKLE.z,RIGHT_ANKLE.v,LEFT_HEEL.x,LEFT_HEEL.y,LEFT_HEEL.z,LEFT_HEEL.v,RIGHT_HEEL.x,RIGHT_HEEL.y,RIGHT_HEEL.z,RIGHT_HEEL.v,LEFT_FOOT_INDEX.x,LEFT_FOOT_INDEX.y,LEFT_FOOT_INDEX.z,LEFT_FOOT_INDEX.v,RIGHT_FOOT_INDEX.x,RIGHT_FOOT_INDEX.y,RIGHT_FOOT_INDEX.z,RIGHT_FOOT_INDEX.v
0,-0.4856794698221406,0.5793178576113558,-0.09729213490923275,1.00617160964819,-0.4648190510936455,0.5943856254666631,-0.06187643623754645,0.960990832883075,-0.5080080196782807,0.5801181729005157,-0.058638274800142054,1.031928799011203,-0.4563879084566089,0.5865483405336384,-0.04679668151613092,0.9685652127143368,-0.45664917857589776,0.6079440734523359,-0.09284251491993575,0.9553873075012018,-0.5297826389549465,0.5480704056347989,-0.09541303471763372,0.9842047659094469,-0.47452792346757444,0.5632791469259618,-0.0960293246817927,0.9594500969667182,-0.35311153750362334,0.542507292132186,-0.10969317137090284,0.9502692524517045,-0.4676884284945943,0.5091012654667662,-0.02217678648873994,0.9983459028507322,-0.43783700825294514,0.5461490563076382,-0.08156030715536941,0.9510967970311968,-0.4223519777620226,0.5826941982108191,-0.04205801834399922,0.9510367736050683,-0.12589864961765,0.4339823454072583,-0.17755855135526064,0.9515252921604411,-0.3048707530492135,0.4699016111560803,-0.02312331185877385,0.9627331468601837,-0.08064842563266404,0.6490725739212709,-0.2522817770583702,0.8818812067495223,-0.36294928831675194,0.6143433911312449,-0.06930733766745148,0.9433244680826157,-0.1709687155759142,0.7846426505660473,-0.15803947615024233,1.0049133463062214,-0.5697959802190338,0.7598878936185337,0.06034829633380115,0.9819060221372785,-0.2532459639202414,0.8691548924988817,-0.13498709561739097,0.9857368897208986,-0.5833578698860669,0.8415419135636149,0.07302832979838776,0.964934931064406,-0.32847303023467983,0.8674285011400615,-0.1586173050733568,1.0068335408217333,-0.5787721773091464,0.8325997680582125,0.029479172402654262,1.018334780926126,-0.2319406249208703,0.8349712468228914,-0.21718816802686977,0.9201998676266903,-0.5379940829969851,0.8112898336436031,0.007239031384422789,0.9542247976252867,0.37925871083722185,0.3862686198866834,-0.30915027965422204,1.0235325968548927,0.20213508831253754,0.4107801327906011,-0.24289660204082938,1.0149282830648712,0.676081231401036,0.5830783484538196,-0.3532548071625698,0.4030149535813582,0.5137221757784549,0.5659421293885806,-0.30281017939945104,0.4609642225741134,1.1190445027640505,0.6045561322397166,-0.4050253418006231,0.5764541059541184,0.9908668265322208,0.49396380237675824,-0.3750228894147051,0.7713979923735585,1.1841934102881668,0.5629040854937633,-0.4569655677202795,0.671405984654861,1.059438788187943,0.4772381318485281,-0.4241420323443948,0.7813057401382314,1.0844507236289043,0.6640537576482578,-0.4311694627861876,0.16352454542489667,0.9786717143970813,0.6300583368540583,-0.34422579447150703,0.35864282434957906
1,-0.46840257504064187,0.5929143923403597,-0.10281209524729765,1.0061655299744232,-0.4452884530299469,0.6052335516064946,-0.067336130019281,0.9609854088604004,-0.4883397528206321,0.5903805430100738,-0.06422128707972036,1.0319220636863433,-0.43725868176555577,0.597476375316048,-0.05195337820586621,0.9685607423659787,-0.4376268512309515,0.6183150432246748,-0.09834879013850287,0.9553847445014764,-0.510666068927181,0.5580092417325162,-0.10097221478753542,0.98420130884005,-0.4553748325955789,0.5730022142095922,-0.10160817882850565,0.9594480108041512,-0.3326257662332318,0.5523800266788473,-0.11521548403742343,0.9502605501735673,-0.4502305769800107,0.5158957181340025,-0.027385345671937122,0.9983407172466369,-0.4230259429544196,0.5579765847843533,-0.08590421026478653,0.9510909557760088,-0.40801497955742705,0.594483579714878,-0.04655595735611148,0.9510339125821191,-0.11080585805814483,0.46053269798065305,-0.1777347142795446,0.9515152189754743,-0.28672602364880806,0.4708433347412091,-0.030193556549129072,0.9627149078388826,-0.04968587461449746,0.6820478303642946,-0.25998902557210796,0.8842533524022933,-0.3481140856649683,0.6146982771862376,-0.07300177241739944,0.9430136894647569,-0.1203848017385058,0.7938332695578991,-0.17062559009722938,1.003992394939797,-0.543771518735247,0.7597583727254368,0.05316262040755007,0.9819427982031049,-0.19656863345148542,0.8838244896477769,-0.14894504385023283,0.9857882093200503,-0.5568098899559276,0.843676773125535,0.06777093016453802,0.9651605942495256,-0.2747102831074565,0.8881977396120464,-0.17206920232803877,1.0071136826521778,-0.5525784829471688,0.8326049536623079,0.024848280306735214,1.018482302421945,-0.18661551395142556,0.8597272611699678,-0.22562242518715625,0.9207325543370479,-0.5130461450174715,0.809614585497546,0.0014270975792382116,0.9536051477382016,0.37973700568689905,0.39077610193853274,-0.3092923945087718,1.0235273516461525,0.20348039844740295,0.4120970974169134,-0.2442577341426033,1.0149253624372772,0.6150373989350046,0.6003444431384204,-0.33827021772048593,0.4209819094815505,0.4658529902236291,0.5791087358148196,-0.2923972930932244,0.4755180078982101,1.0390148268911925,0.6046998390382701,-0.3855578774228547,0.5743727713632065,0.9148720219524226,0.4938321357164494,-0.3577594174498755,0.7669426047812429,1.1033595997005754,0.5640380638606151,-0.4376979728299696,0.6666655080465846,0.9794418268985778,0.4763856066143057,-0.4055598393946327,0.7719603874885427,1.010152189753236,0.6526075200841709,-0.41280090068864006,0.16799170493455556,0.9060290909160952,0.6218702083826838,-0.3302202976018318,0.3619657832958071
2,-0.4340452952018796,0.5992127555491304,-0.11079743950684587,1.006164457090817,-0.4142567533546555,0.613422514542896,-0.07465686765486156,0.960983680325702,-0.4573480905314599,0.5993112857507049,-0.07149740513942338,1.0319197391051969,-0.4063671555095526,0.6073607327684406,-0.059108795685427484,0.9685593714591488,-0.4083318612262695,0.6250686071055952,-0.10536233816603893,0.9553840888503841,-0.4815899520998918,0.5633504735554837,-0.10780737148677548,0.9842004147703783,-0.42578225809757686,0.5793520162268041,-0.10890061283779284,0.9594475935716379,-0.3184230805074841,0.5595595849559775,-0.11834122059623992,0.9502566162670121,-0.44317366132087627,0.5217221317654417,-0.02921624741985379,0.9983389887119383,-0.39422876561219705,0.5653734019916897,-0.0926560724866409,0.951089286845955,-0.3814945751852848,0.600523675997837,-0.05286537430362817,0.9510330781170924,-0.1135105117494403,0.46744421417022824,-0.17597165125532008,0.9515105102085369,-0.287245368384358,0.4696865575977307,-0.03008479345403646,0.9627084705372466,-0.04951812925783193,0.6821680529328066,-0.25988486086703505,0.883587926148021,-0.3531104063317256,0.6149641735065806,-0.0711605587021665,0.9421564554635973,-0.12819748969380568,0.8001182217215954,-0.16849471635050722,1.0028597278751301,-0.5453754373503636,0.7533221439733006,0.051176848083986176,0.9818477883993328,-0.20794991773811886,0.8827889185494493,-0.1453150244652765,0.9857156108627138,-0.5641487277562727,0.8409933124131022,0.06955762259417676,0.9652622201688676,-0.2860415419679067,0.8881898121942913,-0.16903128603920728,1.0072392696387196,-0.5597407215632874,0.8281504601396639,0.026748359870114778,1.0185358273929532,-0.19442668160210153,0.8604434109769441,-0.22397147880858523,0.9211469258275264,-0.5183731905234265,0.799282656767535,0.0026317233491990437,0.9531545962283444,0.3788988293530249,0.4070202153838148,-0.3076473208597944,1.0235225236699257,0.2017402994679875,0.4121167073450445,-0.24369130714736625,1.0149239915304473,0.6372388439817105,0.5991791723330615,-0.34379659437400856,0.42475759550717,0.4787673660672415,0.5801171271951296,-0.29515547955415056,0.48214383902537683,1.0683646167690086,0.5983144530481272,-0.3931438499356875,0.5699512392091233,0.9196872671692167,0.47521069101430097,-0.3535674154223341,0.7614426457892385,1.1343237513931181,0.5575366276270945,-0.4458763648424725,0.6578384177832179,0.9849798530804803,0.45385776290054525,-0.40135671583714044,0.7589379050933706,1.0406392938302305,0.6320051746175571,-0.4203481052531013,0.16795446693273208,0.9265646861790398,0.6012599951029597,-0.333523061493989,0.3588701564647524
3,-0.4075590907631752,0.6144269603373385,-0.11793988152254267,1.0061601059517484,-0.3906059794594327,0.628346921548206,-0.08088265781551583,0.960979388791278,-0.4338462194929273,0.6137616570161163,-0.07759224767650896,1.031914195873233,-0.3832539335260702,0.6204573633417133,-0.06487490501044313,0.9685562124129758,-0.38489113014773485,0.6406734011310163,-0.111680116047737,0.9553821218971064,-0.45840052742266235,0.578312252673068,-0.11392266926751347,0.984197613352074,-0.40228248864262783,0.5947921822233556,-0.11530685166615007,0.9594458054322946,-0.3024590260951627,0.5652236951396933,-0.12371620072342382,0.9502485100353224,-0.430419353264632,0.5324312386875913,-0.03266697885845016,0.998333803107843,-0.3704521732002982,0.5798672846477871,-0.09922963361243384,0.9510854125440446,-0.3569448009256886,0.6165362253981665,-0.060177421862842945,0.95103105155917,-0.11180813502123935,0.4633639186074841,-0.17921097629702154,0.9515037152790327,-0.28900594883656283,0.47435336286506474,-0.029504436279318966,0.962702331258835,-0.05428700928183687,0.6823787553520876,-0.2592128836868515,0.8784985239492293,-0.3636901883978924,0.6148772699344981,-0.06822134132370125,0.9388581132356613,-0.13404015046822343,0.8068198699569165,-0.16704513078301508,0.9978810115016865,-0.5435273667576324,0.7455926136388279,0.04802740550542442,0.9805152669607341,-0.21480555392143388,0.8958059173173021,-0.1437051885581306,0.9830109308967407,-0.5666628479476545,0.8357988868302164,0.06899327022594527,0.9639950254209428,-0.28971895174127693,0.9011716442217266,-0.1684373476618695,1.0045549148566149,-0.5614221714154892,0.8223068207658846,0.026255252388327342,1.0169650065845428,-0.19885639107542263,0.8637236333928682,-0.22303304603946175,0.9167014922108883,-0.5164830870032034,0.7901159988428829,7.278550208806786e-05,0.9503504361102414,0.37842063019472316,0.4228687626040449,-0.3071843754149022,1.0235179937169228,0.20087584965480637,0.4216997931204199,-0.24302029536318356,1.0149235742979341,0.6718305446386182,0.6005013225634692,-0.35238955832685903,0.4221659259476912,0.5133060259723173,0.5731942265184023,-0.2939816993571836,0.49539329590785364,1.0933257995288184,0.595382977408784,-0.39983806321771687,0.5674462348031479,0.9579430569583504,0.4192353730592838,-0.34614994727166776,0.7709696137915578,1.16054997418422,0.5519495266444285,-0.45271176140914904,0.6507972018866115,1.0213926318234343,0.39211965927238673,-0.39074728865721214,0.7664176323615896,1.0777071170163006,0.6278258161351963,-0.42957017691435806,0.16188699721665997,0.9451233493507012,0.5353854185343562,-0.30850762383921515,0.36153060978430196
4,-0.332152465260907,0.6179147857310152,-0.13682732007321322,1.0061412708839994,-0.31580355140488603,0.6316266671269719,-0.099630115545478,0.960961626607135,-0.3588752174368327,0.618603163497287,-0.09649282011203114,1.03189369187543,-0.30849043022209754,0.6252315165742878,-0.0835793126032936,0.9685445299025999,-0.31238662230730113,0.6426465532916609,-0.1297994787973186,0.9553728831771662,-0.3857999210037012,0.5809288965787076,-0.1321153105767786,0.9841849175627367,-0.329830857458525,0.5958980271978734,-0.13336545534524008,0.9594366859216439,-0.24155536312397927,0.5785437239215842,-0.1383303032387385,0.9502222839916212,-0.37856924311014517,0.5350087819462583,-0.04568244125263132,0.9983100804592222,-0.29981981739444363,0.5810314229648953,-0.11679219172998714,0.9510671735227432,-0.28944356502026214,0.6158832565146521,-0.07689120586565765,0.9510184153744775,-0.06625121725793517,0.46944240028167844,-0.19166784367682804,0.9514905426525371,-0.2555490187661561,0.47459744388541997,-0.037986226973872536,0.9626693698902742,0.0025420157059081296,0.6794281466217714,-0.27370926965187786,0.8615579302297469,-0.32877976291540784,0.612624035548054,-0.07689865233714813,0.9347608899538009,-0.07772572208087691,0.8076855082129895,-0.18170395226445551,0.9898612065471577,-0.49634123138767955,0.7359183029546238,0.03247781979141959,0.9771644130407513,-0.15723437963496376,0.8928928595131944,-0.15907467819476126,0.9769384692916687,-0.5143791321000146,0.8225361381119547,0.052115013576896255,0.9605415919073015,-0.23249591568692796,0.8968458371271526,-0.1827141587739282,0.9986197227484608,-0.5123516091561434,0.8088051766313631,0.009323833770008248,1.0133507001346524,-0.14367485285613008,0.8637292958341218,-0.23682579923514327,0.9090126122441524,-0.47000781351886856,0.7783703671480892,-0.015983137609991805,0.9449402417132686,0.38014644039700113,0.42793494879369637,-0.30692098328880624,1.0235058939740336,0.1975595094210106,0.4244296858511328,-0.24194634201335358,1.0149196403913787,0.6810701028063647,0.6025454638560412,-0.35475519870869454,0.3970588402428878,0.4954017176542222,0.5737325756700137,-0.29124583392404413,0.4798109728335128,1.1098585237690137,0.5951121339029246,-0.4062193045947712,0.534674587826677,0.9223349143019811,0.43896337799168744,-0.34419299532889036,0.7535109961043325,1.1768249736236456,0.5503599899775584,-0.4589656498629682,0.6155353920607143,0.9872458899208294,0.41298030146713466,-0.39103458523349766,0.749682197829424,1.1063330618381761,0.625814636211185,-0.4400309253104847,0.14900527119012497,0.9296711512167776,0.5629556661845027,-0.31460031579631875,0.34654439276235977
5,-0.20873403290384884,0.6460809010149813,-0.16884428173537888,1.0060901300987823,-0.19723947207881046,0.6597761527150456,-0.1309058712373924,0.9609203801929503,-0.24057407367492528,0.6464425857232391,-0.12755550228748713,1.0318542932052337,-0.19045872804545305,0.6537634851678852,-0.11441572563770108,0.9685202708121762,-0.19596245214334845,0.6691080353396955,-0.1606517219074738,0.9553479684356501,-0.2697279175883502,0.6052185641850614,-0.16266223128865698,0.9841526714499131,-0.21354338349265264,0.6201587269468664,-0.16408282111551875,0.9594096850175606,-0.16074270325662846,0.6030434382961264,-0.15903957826543638,0.9501793090427383,-0.30553744330348087,0.5526288090115354,-0.06492424164937394,0.9982435616756531,-0.18977115281938034,0.6073921135586148,-0.14502060382348403,0.9510163903653948,-0.1814959669332953,0.6409191742735938,-0.10479933860292379,0.95097800342532,-0.02189526045583997,0.48811355525756955,-0.20066516045433486,0.9514681909107463,-0.20083318620183352,0.4802554743953687,-0.05482558745317469,0.9625835392017974,0.07135719921624052,0.6637222035141664,-0.2914890636656383,0.8303970391736861,-0.2717255693483961,0.6056849224079478,-0.08980172768696515,0.9252353524629563,0.028402943530539237,0.8043310184096752,-0.20983028763109335,0.9709731502689289,-0.4184262706899928,0.72814794343848,0.010590585547268463,0.9713060513197125,-0.04077035894005463,0.8908109288758348,-0.19346369182109774,0.9644411634216127,-0.42821101743126705,0.8142516885346232,0.02724022878882361,0.9555003502614885,-0.12067624460823613,0.8938785390962993,-0.21125492587762812,0.9866924160963917,-0.42540446986255537,0.7995690792955477,-0.016679498606657052,1.0081236708110748,-0.03552045879654854,0.8629389382444002,-0.2656190405026326,0.8935849632230035,-0.38987538562705726,0.7705690728213069,-0.03941287828858757,0.9376765812823606,0.37931240966359187,0.42749867259626284,-0.3062988841095349,1.0234933769986307,0.19872947942378483,0.4289316842756628,-0.24281405381952972,1.0149130242758089,0.68772620805589,0.5961422560771106,-0.3580228324764602,0.3688161329903853,0.5397739898385396,0.5668341725022891,-0.30865503414400813,0.4446703094481216,1.1322119339401686,0.5754053482240611,-0.41821399878996535,0.5015714198159653,0.9501748908807441,0.44318112186528363,-0.363622898355158,0.7299220407019582,1.2007628520825517,0.5288326996333201,-0.4721802223860434,0.5852569477705531,1.0114676812806906,0.41847579011078084,-0.41119643241837545,0.7361353733741628,1.1246765228253597,0.6192289786145969,-0.45241838019853664,0.13485286354394577,0.95469054905204,0.5670188552141963,-0.33355150092671804,0.3273417431690065
6,,,,,,,,,,,,,,,,,,,,,,,,,,,,,,,,,,,,,,,,,,,,,,,,,,,,,,,,,,,,,,,,,,,,,,,,,,,,,,,,,,,,,,,,,,,,,,,,,,,,,,,,,,,,,,,,,,,,,,,,,,,,,,,,,,,,
7,-0.29821842460222125,0.7164345878245211,-0.14737490529983885,1.0060960309586149,-0.2772673741320455,0.728791417226154,-0.11275798728780635,0.9609243140995056,-0.3200915690735028,0.7155725295708953,-0.10979677969858001,1.0318596576232633,-0.2700431526480505,0.7224089028581623,-0.09657437029898383,0.9685218205329402,-0.26780215677666663,0.741537811531407,-0.1441458345429599,0.9553494585517694,-0.3416686893500585,0.6794936405743741,-0.14610387575344463,0.984156426542534,-0.2862456813714284,0.6953623840971349,-0.14687585151264576,0.9594121884126412,-0.18902470807775426,0.6726389540241232,-0.15416917787295217,0.9501871172512039,-0.2977672090228504,0.632113688982086,-0.06724057461558558,0.9982520851398559,-0.26244206115748503,0.6839627436321621,-0.12808841109863808,0.9510208011091079,-0.243716582668793,0.719576980193241,-0.08950892052277407,0.9509807452389796,-0.004430197545470825,0.5421784847428907,-0.2069982335085753,0.9514678928875225,-0.18809353164474416,0.545786966628645,-0.04915951825799515,0.962601718618454,0.16782014736565623,0.5892633660050112,-0.3233994698997757,0.7902341182218429,-0.1955315342910539,0.5964942438114512,-0.10455562703577326,0.9269579863016099,0.26749832382191785,0.6367893952941357,-0.26793253954630625,0.9032959504283833,-0.2074526478423495,0.725858052195499,-0.04411803110148574,0.9724406853376569,0.23491665857951155,0.699998519951732,-0.25936120960727366,0.9115356634864625,-0.18322921153637378,0.8101385508126078,-0.03683312100451845,0.9570197918661028,0.1729273737313578,0.6894313292612468,-0.28146023815417925,0.9297824377066517,-0.17488018543581485,0.7948107808984834,-0.08276779237135765,1.0097661364025052,0.2105792235336732,0.658051667316971,-0.3218487006626482,0.8299826349225277,-0.17062723399584795,0.7640344368006465,-0.09745306236172095,0.940244707007153,0.3922902913297664,0.4295463007605543,-0.3183327002355311,1.0234849727437172,0.20620334963930426,0.4517038176260351,-0.24828978328544532,1.0149109977178865,0.7184728375592938,0.5475171444972156,-0.3695444946115149,0.3395926015057814,0.5581539833527105,0.5340468197019198,-0.3152261335649449,0.42170240464198444,1.1537927356846058,0.5278526732152873,-0.43258131085939844,0.47370645699972685,0.9810587837619215,0.42182385377026715,-0.3782600652855414,0.730952783824059,1.2247365689368503,0.4749988871581156,-0.4879857423748828,0.57025773693605,1.0549306490045103,0.39346466788406576,-0.4312954428220083,0.7459799745284902,1.1770189511309948,0.5807090596959873,-0.47004911917253667,0.11993505775304458,1.007537032767261,0.553074765801507,-0.34938087732479756,0.3072202283717958
8,-0.25433976807290076,0.7447144883753634,-0.15937384387161738,1.0060878651222807,-0.2380577988110332,0.7517165556996648,-0.12336886003835117,0.9609177575885803,-0.28116297434229315,0.7374296124146759,-0.12018999354282009,1.0318551276702606,-0.23055634196213015,0.7443993808969501,-0.1074812420390289,0.9685156216498838,-0.23060165771038238,0.7642261407512251,-0.1535985317798837,0.9553454054359248,-0.30453840208824884,0.7030095802868985,-0.15548998162601516,0.9841554132635729,-0.249100151087188,0.7329959819479345,-0.15627255123625788,0.9594107579011666,-0.17113653205032156,0.6934873474643698,-0.16012837836036148,0.95018544832115,-0.2852232060556108,0.6505402264958189,-0.07053040742915889,0.9982494625354859,-0.22583797961452945,0.7124395779293423,-0.1384886005803366,0.9509952307164994,-0.2095751188393686,0.7575043693381385,-0.09831044205705344,0.950964950008114,-0.004466198640730189,0.5646304219415296,-0.20641096999948966,0.9514388058208723,-0.18363321500325,0.5628970759578686,-0.051141879431717815,0.9625973674793854,0.1838594451335716,0.6946562392922121,-0.32513099228880776,0.7361211473928329,-0.19047200097387626,0.5978373748768199,-0.10628845961329153,0.9248775457803697,0.2799500269963081,0.7595819968795239,-0.2688807938111584,0.8509553833164143,-0.21637789368399774,0.7262216405286289,-0.04185771467765145,0.9727995649038494,0.24200526053004498,0.8403061252183031,-0.2596410197215042,0.88279805886839,-0.198056415525393,0.8101309810227213,-0.033000114974234177,0.9579654791601091,0.17411995387048324,0.8362068133463298,-0.28152446446692575,0.8985378617293263,-0.19215826244776776,0.7948076218523104,-0.07816191381766138,1.010766659969705,0.22196318863075032,0.7987751937947847,-0.32418915139086724,0.7893954481091732,-0.1819097638606037,0.7642192111994502,-0.0940915576239549,0.9418027724215818,0.3836908641449635,0.445653025499629,-0.31189623176099557,1.0234793103024635,0.20763540736973163,0.4695718596182226,-0.24862169103325313,1.0149093883924774,0.71585411694867,0.48794876914817076,-0.365302633806145,0.3116361157574904,0.5961831724180301,0.5254752545507052,-0.3281414820163153,0.38229956212031696,1.1618953303067157,0.4577729293531352,-0.4348252200497449,0.44193375406736907,1.0376904059503438,0.38872864297963294,-0.402628513114937,0.7119340145598378,1.236176973167303,0.41084000048704933,-0.4921927456751176,0.5517764227537685,1.1127970481770633,0.35747940668220723,-0.4566208249744648,0.7468393542968618,1.1863877877110711,0.49751441643693883,-0.47474535002967777,0.10562870621057177,1.0737541945456424,0.509307492375451,-0.37880176990428666,0.2821170467712252
9,-0.2005808467266832,0.7611132758738375,-0.17116816181435834,1.006032909639798,-0.18918674996957804,0.7744272366612737,-0.13384673379602371,0.9608744250118286,-0.2326290918743319,0.7608353431390106,-0.13038343695567314,1.0318187688369473,-0.18260858741224023,0.7683572294458393,-0.11718174641116613,0.9684845676299558,-0.1827774218614624,0.7832773349422041,-0.1639587199620358,0.9553197158340264,-0.2564123967694808,0.7370580183591031,-0.16610692645651104,0.9841369358236925,-0.20087756042344565,0.7542564819021581,-0.16697057576731,0.9593942474145638,-0.14350831502105824,0.7198492897556296,-0.16656877290109828,0.9501586262310012,-0.2626599885977425,0.6722792325382994,-0.0761719174235011,0.9982087525631043,-0.17934326304716314,0.7254434040706997,-0.14874052932752216,0.9508946776807632,-0.1636408123401585,0.777626718600376,-0.10908526321301787,0.9508937224576076,0.0032828511825215637,0.5945102303674329,-0.20807533833520706,0.9513524386905927,-0.16551175252515357,0.5779567259021741,-0.056899903097466495,0.962553975297989,0.2190503598125599,0.7281429631920534,-0.332059663026031,0.6739680464254256,-0.1709537790952825,0.6025158626545298,-0.11131014258994368,0.9194400524560897,0.33658697682274713,0.7876142997359692,-0.27872106480730974,0.7867703004039692,-0.2047422617271904,0.7264248327626682,-0.04461809728230079,0.9719813123403729,0.30138410452654446,0.8684001784867357,-0.270179101274295,0.8360197972068605,-0.18768273168959898,0.8100311432427225,-0.03527843738670007,0.9580243685491472,0.22918412983912972,0.865961153994981,-0.29233962385802964,0.8512400263792896,-0.18472041238167852,0.7947706073679048,-0.07949033154825522,1.0108674514240201,0.2796435176440613,0.8283679462514497,-0.3355393072046307,0.7372518147435421,-0.17203748301402735,0.7643083797480342,-0.09601441965399217,0.94190272941087,0.3785834166642647,0.4613664191878309,-0.3080655722877439,1.0234504020497475,0.20861304983857692,0.4729116568765997,-0.24891286573555313,1.0149019378118804,0.6976832067710231,0.4825355945189594,-0.35610697625190785,0.2861082808652175,0.596872107361533,0.5167041926534274,-0.3317187305804755,0.34442957224833826,1.1452559722818667,0.4456902035898143,-0.42996099837977975,0.40904352365011754,1.0375142600254197,0.36578890136815223,-0.40989212687247367,0.6841650450240102,1.2204963424350819,0.3967233854300577,-0.4882170255671756,0.5284921066908412,1.1134566741469922,0.33443640002365316,-0.46493538285385877,0.7392329075538503,1.1691511821031533,0.47887735531785924,-0.47033062042492835,0.09258536218972827,1.0724064855456414,0.47602154672153574,-0.38578138431099446,0.2588129419662325
10,-0.11431131866987075,0.7815574902178621,-0.19057589288616142,1.0059854643425568,-0.11446403230339022,0.8011970535367314,-0.15110503965617506,0.9608378873645812,-0.1582553593403434,0.7880384857819854,-0.14735112999406744,1.0317865823287686,-0.10844494867909311,0.7956895353540424,-0.13394144585832285,0.9684572090980038,-0.10556882861310907,0.8111656925815168,-0.18245376207707922,0.9552948010925104,-0.17920167465228842,0.7508184658612393,-0.18460360365258788,0.9841147628958361,-0.12334239037439002,0.7669932792349218,-0.1857613861018336,0.959374279858564,-0.12157474187096931,0.7488657249019613,-0.17150604573843936,0.9501319233501418,-0.2361529864094969,0.697421306169586,-0.08189570629647952,0.9981762084270567,-0.11023890606497483,0.7463517001789456,-0.16458826092851417,0.9508295894086686,-0.09343026105353777,0.7826289192038611,-0.12491794973355358,0.9508401378819543,0.00602558791026906,0.6081198781182874,-0.2086584399551769,0.9513353321575421,-0.15514913681616158,0.6052685278125745,-0.060425489563055504,0.9625537368794098,0.22192869970666687,0.7462714774819094,-0.33309723154288234,0.6165188248144027,-0.1439307620047437,0.6061667067516673,-0.11949544115995056,0.9140597199861497,0.331462118001789,0.8081383246993481,-0.2761511881560128,0.7358485026515889,-0.16898102945120289,0.7267537907971836,-0.0534615591209371,0.9701662913023175,0.28983556797327154,0.8889581780976366,-0.2648184732270303,0.8025478552589235,-0.150386090638239,0.8099636707848368,-0.044574483635031234,0.9571794131048112,0.21654747130173374,0.8880193429102337,-0.2872576730443213,0.817249464417162,-0.1520191437612475,0.7945845812715608,-0.08760885549736874,1.009871815437692,0.27261893565674045,0.8494946337781526,-0.33232221981749965,0.6982288922276729,-0.13799417678870657,0.7643606530215022,-0.10444189113810738,0.9407529558131527,0.37538424853208946,0.47293952523832217,-0.30530123856853225,1.0234317457959328,0.20576279305744052,0.4841987798414587,-0.24650110013218343,1.0148982423239044,0.7289075425772265,0.5164187489112018,-0.3649712555097847,0.2634648041405928,0.6240688989108467,0.5348333327920535,-0.33761421107245515,0.31141292037951807,1.1955592707947489,0.4664544054693156,-0.44263121754299706,0.38292420206541594,1.0750366465822223,0.38474147967435035,-0.4151938148046916,0.6591173851500478,1.2719602031836232,0.4088902431494791,-0.5013671923715115,0.5168858902601771,1.1501873744590392,0.35880730876083583,-0.4696959335451087,0.7331165173255788,1.2186588047983244,0.4888055519864841,-0.48334423859456555,0.08179596781106618,1.1044896304261094,0.5043356305361567,-0.38789376398083325,0.23958448356169149
11,-0.0947959558331417,0.8148983019472933,-0.1866842895753956,1.0059501187882047,-0.09212820601132035,0.838762702092487,-0.14771482830213814,0.9608052240192444,-0.1359027716054424,0.8259761269257843,-0.1439739696662336,1.0317601178664884,-0.08631252113343697,0.8343159081682209,-0.13037036374308292,0.9684288372870906,-0.0798515463430779,0.848658742679936,-0.18134564481996912,0.9552766812804988,-0.15220006597830266,0.7873745309437894,-0.1846027692480012,0.984103378408684,-0.0956386085914622,0.8024252603216527,-0.18637702749482532,0.9593620013017402,-0.09394473953678437,0.7723084701107016,-0.16878409269064307,0.9501080218875868,-0.19596643277542436,0.7344811497097776,-0.08631325361740388,0.9981638106609435,-0.09170710905171015,0.7732264808338528,-0.15884540419705043,0.9507804155767288,-0.06860769427503335,0.8092879310446814,-0.12350728740354547,0.9508044943043787,0.024521388219108466,0.6086596577813733,-0.2088513739369292,0.9512784693264263,-0.11904661390157395,0.6271581547924023,-0.06621655968323488,0.9625563594837798,0.24403250793003564,0.7077523930283266,-0.3387180632865003,0.570013671635234,-0.09249717773453163,0.6144546730030406,-0.13210558702795674,0.9140044068757981,0.3732159136625372,0.7664842743491589,-0.2878036194149453,0.6777928037799763,-0.09222935123199702,0.7300490931882359,-0.07212879611372439,0.9686160340963543,0.34252906787172677,0.8378393273896287,-0.28182996752456474,0.7529818843612489,-0.060641812656813524,0.8113397632187662,-0.06669279993018881,0.9564885952718645,0.2791691538921603,0.8404548363794719,-0.3072026553715974,0.7678918713576222,-0.05958547054435346,0.7954075426019747,-0.11039239604173162,1.0091616260951932,0.3232450583848675,0.8063721633992769,-0.34866076810859886,0.6468307937588924,-0.05750608663513715,0.7672013507868526,-0.1244540662186354,0.9395734991023375,0.3670310257064376,0.48085126697187325,-0.2981416108074971,1.0234129703328287,0.19667376705572706,0.5217598388395666,-0.23874678339900537,1.0148952024870208,0.6975291165601548,0.48074432593184696,-0.353964494333205,0.24287516936447737,0.6071932463881022,0.5407053737790682,-0.3330467449702238,0.28359596910464624,1.1285677334547761,0.4427853116220409,-0.42575138116370315,0.35858243999952855,1.0448493240607175,0.38524433425999793,-0.4082847541818522,0.6465282285223928,1.2021252651562824,0.39037891802855323,-0.4838573374672669,0.5071179704813533,1.113568990129475,0.35513742097969264,-0.4615268507941957,0.7338305213653432,1.158441437105539,0.483528305749683,-0.4682843027189665,0.07158872454734469,1.1046702658621126,0.4939907974005518,-0.3898817238421091,0.22157695179956838
12,-0.12750588591187717,0.8234420317293978,-0.17272287553766083,1.0059428470215424,-0.12302833822554607,0.8475041404813115,-0.13398073665848306,0.9607973562061339,-0.16642290435010876,0.836597913043338,-0.13054658391795634,1.031757376052829,-0.11628442175826877,0.8452104451402668,-0.1174009153889991,0.968421863543652,-0.11421135868498866,0.8544806263583723,-0.1668480620827927,0.9552724493507196,-0.18649732498083688,0.7917746054257535,-0.17014531435402586,0.9841023055250779,-0.13755695268659238,0.8126816103620885,-0.16538511566036332,0.959358067395185,-0.11331514801548778,0.7836596382663717,-0.15763600370192998,0.9501046244228348,-0.22842134794863633,0.7339624104862974,-0.0727463618051937,0.9981627377773374,-0.11882091514706655,0.785877149454916,-0.1466161962787794,0.9507546663701859,-0.10033722600184727,0.8164993778067664,-0.1100225592341855,0.9507815465161403,0.015376717257076102,0.613930258100282,-0.20398679902831948,0.9512183282398479,-0.1393834095767259,0.6386901038356763,-0.059136620181600416,0.9625233385105744,0.23098470771154353,0.7046435935707765,-0.3356697792681526,0.5522934491620894,-0.11391236893530705,0.613288269709431,-0.12387633159909157,0.9135951017801255,0.35206154007284535,0.7821021813964306,-0.286353177348672,0.6351931257404255,-0.09811935853225251,0.7317640976323582,-0.07022317599884415,0.9648181453405561,0.31454367820601814,0.854440293843181,-0.27490960565847433,0.7216162513503847,-0.06193371425578463,0.8117727313584147,-0.06631752810341326,0.9538543679960161,0.25750791400548567,0.8623961405863201,-0.30447697090836917,0.7368947738654041,-0.058709419835537825,0.7962251395143587,-0.11030723289953806,1.0063190805858548,0.3026366672822866,0.8285991526685335,-0.3474283691877088,0.6115626062360042,-0.06095146862622758,0.7696317897822139,-0.12351077944584357,0.9355355228373838,0.3647397076517246,0.4886183780348768,-0.2959114303929696,1.0233686244771156,0.19416999275035138,0.5266446778974889,-0.23682920136305355,1.014884533255606,0.6947118985748914,0.47229676824408756,-0.35230251055306605,0.225531931368376,0.5997899422095786,0.5357496647985079,-0.3304872002645772,0.2635516423224197,1.1306001117748883,0.4295909294313365,-0.4262677476921032,0.34326348004812773,1.0299552320621665,0.3673496787939182,-0.4068709902096631,0.6434267604361501,1.2046115211597173,0.3826301353938181,-0.4844239500273245,0.5054913299231105,1.1016105485349632,0.33429498800392354,-0.46136924577951527,0.7416805126869069,1.1649606164384565,0.47869317696550323,-0.4697897461846534,0.06290965496869708,1.1106413765634566,0.4728870874644098,-0.3953920671669014,0.20700871234911358
13,-0.1804835597382744,0.8398607271792269,-0.15881436719735867,1.0058461086830717,-0.16726093203769013,0.8596938267796819,-0.12364950781363991,0.9607022867977172,-0.2075803233354817,0.8436921770737945,-0.12285361165726813,1.0316838835258206,-0.15700244783486123,0.85080624840107,-0.11010098801732962,0.9683433642264828,-0.15739705155249906,0.8676965854304853,-0.156437952053796,0.9552253020767024,-0.23056250299966285,0.8049119459714078,-0.15899616295647065,0.9840731588537828,-0.17636781980384356,0.820410663859403,-0.15873567353250564,0.9593284438867319,-0.1290263273738614,0.7906497729824057,-0.1552761702109611,0.9500361386859878,-0.2410191148904836,0.7405133781796263,-0.06960092284739086,0.9981162461544126,-0.16271940736874252,0.7994676641147976,-0.13506268527461004,0.9505744219243851,-0.1432858136502124,0.8299541726904944,-0.09811754758429522,0.9506626352498133,0.007482769192507989,0.6218847959687818,-0.2005615339739531,0.9511009070896405,-0.14163426486781217,0.648459245509718,-0.058825875452624424,0.9625068280239716,0.22500510692242603,0.7033839686127382,-0.33318239020572943,0.5151862199293014,-0.11886049407619613,0.6122112733829844,-0.12208314494370202,0.9128328775827377,0.35695327723452513,0.786488129577583,-0.2844017422429242,0.5865255160488057,-0.11443020258079337,0.7321694092168308,-0.06593621693920634,0.963041211670512,0.32541670988867216,0.860387764508159,-0.27730537831827795,0.6779648493537721,-0.08318410350333945,0.8116969142502604,-0.060744682556810606,0.9527604439504533,0.2687157267338514,0.8678013877977764,-0.307147963603606,0.6935201162344837,-0.07751965105964584,0.7963835686601717,-0.10517504682553777,1.0051188218540128,0.3078028436180993,0.833306667908249,-0.34542783695726426,0.5677669609990352,-0.07716774202205329,0.7710377441431758,-0.11919589551882528,0.933203669924481,0.36424565489225674,0.497532908312129,-0.2957673599342149,1.0233103311345253,0.1948322798290475,0.5304112742147802,-0.23710626847609992,1.0148743408613496,0.688412283302969,0.47733097654181705,-0.35073033945002435,0.20821256503250718,0.5943207607163257,0.5370346217305758,-0.3273416424045683,0.23938976707446438,1.1360664685613324,0.4352435955232555,-0.4276368327743437,0.31847873626226963,1.0307094513675512,0.3732651417646519,-0.40645478315142847,0.630390747786614,1.2106953536281684,0.3870968776709635,-0.48590713721314127,0.48456145693345587,1.1142830101080585,0.32482011446113795,-0.46972897798403074,0.7397232153617727,1.1644422367280114,0.4836840228841586,-0.4678523025912311,0.05408433049293188,1.087602276753302,0.4814424699545679,-0.38821783392130166,0.19183961337583938
14,-0.17356359409968608,0.8303485411288118,-0.15758118559913661,1.0058055775246244,-0.16537982842989943,0.8534628168195073,-0.12085776714868195,0.9606704579174072,-0.2081767520943823,0.8407113487885772,-0.11792636906723025,1.0316598032493314,-0.15857356734465217,0.8494911911233906,-0.10432646974142412,0.9683126678344234,-0.1559279605801352,0.8587948105472151,-0.15307079229124987,0.9552102817062188,-0.2331087635025778,0.8023211108769559,-0.15218321283676844,0.9840635625059739,-0.17777021481738922,0.8179379055662511,-0.152908765042412,0.9593147348184334,-0.14148088434707604,0.7902024401233664,-0.14768698599260563,0.9500091973865492,-0.25191309161216213,0.7388313947087095,-0.06192590979279938,0.9980982455516907,-0.16248390620081066,0.78924099718746,-0.13050545289397394,0.9504736304700699,-0.14270507130219975,0.8194725766974524,-0.09337518625849617,0.9505962952801784,-5.933814565504958e-06,0.6264934867074597,-0.19435863052784413,0.9510562036060589,-0.149683658929122,0.6515585678287488,-0.05374237875051134,0.962483880235733,0.22412409227095198,0.7122130854340273,-0.3331865396416876,0.4963581855283614,-0.11793620494169584,0.6093438131321299,-0.12159709684845128,0.9127593850557297,0.3466628285161972,0.8041964311217724,-0.28325195634738776,0.5587213797725605,-0.10406305377834427,0.7321309642209507,-0.06853061079112498,0.9595887318311871,0.30509395030657904,0.8800503235405992,-0.2724219685154257,0.6599863599548158,-0.06862618855278611,0.8104894433564005,-0.06433276323234108,0.9502048948057085,0.24856277074351818,0.8824402289499675,-0.30201857836102614,0.6755697602278614,-0.0644220868354817,0.7961412161745149,-0.10840026616793333,1.002276931995767,0.2960924210305286,0.847838339909134,-0.34291660653613665,0.5449736083951229,-0.06639120183368288,0.7709231840159175,-0.12174877538590097,0.9290616239497494,0.35879822084822427,0.502581838957118,-0.2916278351213093,1.0233021056935463,0.18686398852234853,0.5244714925489782,-0.22977300233126383,1.0148698705129913,0.6872804495710704,0.4770757196505664,-0.34952880679156295,0.19457424744751567,0.5920455027159398,0.550295254483948,-0.32149660813233305,0.219356139325975,1.1388313751297354,0.4299311527437144,-0.42828646184624053,0.30724570451254424,1.0372578937859467,0.37475948981381574,-0.40675355004027003,0.6171751463423696,1.2135361978261947,0.3889048653609354,-0.48657520023634326,0.4837582545427851,1.1201385347923465,0.3284756375228903,-0.4688307563886877,0.7390972473823415,1.1652716286567772,0.479007710675983,-0.4679638960985839,0.04721301018567708,1.0876392233195982,0.4905564373732386,-0.3868008777852418,0.17843798583525097
15,-0.2437098687129557,0.8300213712336397,-0.14059734840381669,1.0057799475273712,-0.2321297600381784,0.8514003172963445,-0.10562205645649154,0.960656987267688,-0.27505893407522214,0.8407113487885772,-0.10256900705781208,1.0316513393897733,-0.22434095965565254,0.846596670363808,-0.0899272883217514,0.9682938327666745,-0.22020179254541788,0.8605415246623579,-0.13788638717656973,0.9552040828231624,-0.29456045987641755,0.7982961284245633,-0.13941307976698622,0.9840616551573411,-0.2425825911710117,0.8230784485502599,-0.13726240902875425,0.959308714749311,-0.19206916051836723,0.7902311099575033,-0.13588769551918772,0.9499966208065016,-0.2886621432486141,0.7440386948948667,-0.053056892956588386,0.9980983647609802,-0.22466416434457748,0.7911050132435208,-0.11617494371580842,0.9503726005971755,-0.2004639649067976,0.8230422392684058,-0.080063789068891,0.9505384191701014,-0.04566770648892118,0.6288683145692456,-0.18008675296486082,0.9510414216541547,-0.1746508271522112,0.660315980262373,-0.04681739083371776,0.962476966096939,0.17331628712389943,0.7148900492401796,-0.32143422364964963,0.49600639891489706,-0.12918697057215434,0.6081516606319773,-0.11889641851121363,0.9132608389322251,0.29867926819070933,0.8068065781211315,-0.2714630640306486,0.5469220442928242,-0.10456492057046904,0.7289644674672581,-0.06856144077388907,0.9565705314336956,0.260544006184888,0.8823974352425645,-0.2602050217609741,0.6593559812316713,-0.06527936258411739,0.8063997898644266,-0.06561442459847969,0.9479538657911211,0.20221805217816002,0.8880639867891704,-0.2882702051038661,0.6735645407683277,-0.06073541973158587,0.792527923003586,-0.10940014779226223,0.9992778050846036,0.2410804974176054,0.8604915715299226,-0.32518091521890036,0.5350782836880916,-0.06609489592917303,0.7677089439417598,-0.1218334330771112,0.9248825634906126,0.3540846482586065,0.5066788238203993,-0.28893383191872535,1.0233078277394447,0.18594111368468352,0.5287921736441015,-0.22767126930875467,1.0148690956526092,0.7084437335818792,0.4810757277567981,-0.3552310222919455,0.18372900351669907,0.6118852845140492,0.5494632332475283,-0.3269088008699422,0.2041250366209731,1.170937290848479,0.4242552408403331,-0.43624860601420745,0.30946854053015294,1.0770660976236073,0.37889778069592633,-0.41574790875540873,0.6186739051352468,1.24710503276805,0.3739036875731546,-0.4947613785925101,0.499933792844253,1.1608384838979393,0.33771224149818624,-0.47662354681181157,0.7477135160171376,1.2045065178175456,0.46687217519739105,-0.4777174285269232,0.041275970333534674,1.1322232594277815,0.4903492516279993,-0.3981726719565512,0.1665697622873155
16,-0.2708123234343806,0.8352145451189852,-0.13324244971506183,1.0058059947571378,-0.26922867256883054,0.8567389861195867,-0.09467329889666463,0.9606826172649414,-0.31213107403149076,0.8440097506211578,-0.09163251443647041,1.031673691131564,-0.2612869130106597,0.850701165412331,-0.07907911256479411,0.968311475741528,-0.2570395277186008,0.865412356628758,-0.1268777199961235,0.9552183283332636,-0.3304648751212519,0.8039388405408048,-0.12920203513639905,0.984073695295586,-0.2780048528361668,0.8362572143240331,-0.12747955418408508,0.9593190263528573,-0.2464775737456286,0.7962391389415732,-0.12316616361106722,0.9500159327114088,-0.3498072701128017,0.7670943675404356,-0.03402725898503539,0.9981202992702575,-0.25561731041749947,0.7929196766537076,-0.10874717100389475,0.9503862500608291,-0.2330667963069228,0.8264287367659644,-0.07121795446526949,0.9505557045170864,-0.10784577468931453,0.6410363643815625,-0.16334248544074645,0.9510594222568767,-0.2381231259480305,0.6684390800662976,-0.029706628212198036,0.9624716612835542,0.10771638123656836,0.7215201122971254,-0.3078497502910701,0.5398235018239852,-0.14991097986516252,0.6082665783871043,-0.11442803535856051,0.9137259935800521,0.22011779399629544,0.812489106140083,-0.2563301105026224,0.5809242887653279,-0.08195758418805141,0.7292483047856785,-0.07691780878115063,0.9505109444318951,0.17360358470113374,0.8932900648659776,-0.2406050804433076,0.6866258214721498,-0.03523982404784483,0.8062696729248819,-0.07671118228623845,0.9432392575986772,0.11544193657798561,0.8946037488092815,-0.26900320761136104,0.700280892277422,-0.033857786067874075,0.7922604769624788,-0.11921075504598785,0.9927080023235257,0.16593476930207451,0.859390196903763,-0.31335158003807245,0.5608857835736507,-0.040662952624394344,0.7669771777178523,-0.13165143468844132,0.9166882957408262,0.35249118007770514,0.5074861091292372,-0.2896394528783581,1.023322609691349,0.18806582342398948,0.549075872679746,-0.22743827545195983,1.0148655193739229,0.7658708775883977,0.4742182133753894,-0.37023043139327055,0.19600311979439378,0.655522669835698,0.5567494838388064,-0.3352162154368269,0.1973231929777847,1.2580005417895797,0.3958722540563518,-0.45804614876263494,0.35469726024145665,1.1633639133024845,0.39095591954327735,-0.43225782388256945,0.6279914820204702,1.3386557348965071,0.3371719079978067,-0.5178407672018607,0.5423560278563075,1.2462385289673252,0.35605351456756795,-0.48870246902837383,0.7619339921676503,1.2997240007510082,0.43476771281221344,-0.5030784912091781,0.037867888503986875,1.2400475513048066,0.5000882035494623,-0.4246394685630592,0.154454164562401
17,-0.1920746779300757,0.8392135995509005,-0.1484894616714704,1.0057668941101652,-0.20243808138599165,0.8639637247174565,-0.10677884451982335,0.9606619940578491,-0.2456374907978538,0.8516899879144012,-0.10351386415093952,1.0316633795280181,-0.19586446231863325,0.8598857047304157,-0.0900605023421257,0.9682804217216,-0.19363400453327384,0.8701568267482344,-0.13848361903498016,0.9552092088226128,-0.266716427898812,0.8081198679532193,-0.1411213894246147,0.9840702978308336,-0.21462920598083282,0.8423746774359105,-0.13909923942469302,0.9593081783075083,-0.2204292034278222,0.8131154788539877,-0.12676382437734146,0.9499956671321852,-0.33752159716080177,0.7728614149456785,-0.033737326649596944,0.9981214913631531,-0.1949588594419434,0.8013907483738308,-0.1199707976840376,0.9502379537046279,-0.17705750155401032,0.8328615084487037,-0.08153045636258283,0.9504702910611231,-0.09786368030322526,0.6601249902894605,-0.16418185780890615,0.9510555479549663,-0.24829262639288593,0.6666610735126477,-0.025804427672899297,0.9624322030087128,0.1378619634666141,0.7257934076996523,-0.3159973349460294,0.5712332422719832,-0.15359835887619902,0.603265212248646,-0.11351933077817719,0.9125244831506699,0.25234993749028745,0.8118993181800305,-0.2645989553438286,0.5916515154994892,-0.07120390520321299,0.7293614344014622,-0.08073633380849173,0.9441774740873516,0.20580387446996196,0.8887158256119798,-0.24960763848392745,0.6979757975349244,-0.03220892553827469,0.8060935411995707,-0.07839523235986373,0.9384007909543901,0.14163463648936686,0.8889559106935894,-0.27624724496052233,0.7107358449942494,-0.028941446452680798,0.7916107267297823,-0.12202209322989838,0.9867323982662137,0.19791110098892284,0.8544732905469514,-0.32299784937400017,0.5667436684575313,-0.029505911158266868,0.7662894593264339,-0.13611487419041382,0.9094566430041622,0.35271477339354435,0.5056142848647108,-0.2897230381663937,1.0233353650853312,0.18858998629331025,0.5419468591413854,-0.22800975759240177,1.0148608702116302,0.7868477368699227,0.4775613484938739,-0.3758599619207459,0.19750743672039628,0.6591214452999583,0.5577896444947817,-0.3342273399477106,0.1848683405159698,1.2953240627539253,0.3955242523378307,-0.4674258823467732,0.36297655401701506,1.1821389541345626,0.4099815135393253,-0.43480829927427184,0.6066077792654958,1.3774291942176002,0.3387313741213877,-0.5276187674422352,0.5609743135122829,1.2646720788295114,0.38102976807708944,-0.4905607173183531,0.7546686628066884,1.3374621756429055,0.42306168840387304,-0.5148841640496743,0.03251665055127768,1.2556303017486736,0.5108849292994317,-0.42633641439643527,0.1420178342439501
18,-0.21554903535458897,0.8467252153040743,-0.14518068247755048,1.0057761328301056,-0.23326330038807672,0.8698390141576116,-0.10143884471828461,0.9606612191974672,-0.27688339482273777,0.8577282960580169,-0.09778257278431382,1.031664690830203,-0.22688675282694848,0.8654884817346576,-0.08448047873841674,0.9682777991172298,-0.22755750018415394,0.876945616974217,-0.13259564621019226,0.9552098048690608,-0.30043650206913797,0.8152922736729764,-0.13539365074315912,0.9840700594122546,-0.24671905634044614,0.833587879912412,-0.13475574045282362,0.9593062709588754,-0.2537028059567669,0.8252805484340658,-0.11998490299164669,0.9499915544116958,-0.38624952315902794,0.775866085088806,-0.02486651421128333,0.9981185111309142,-0.2211378635122822,0.8095064572018033,-0.11527945319857227,0.950209045451912,-0.20754226224049263,0.8395440235930518,-0.07652686246194407,0.9504526480862696,-0.13166394349141683,0.673875006978761,-0.15412301350719612,0.9510250899814863,-0.3065188095280472,0.6640488999553662,-0.011852667741867204,0.962371942712845,0.12220465967092438,0.7246657474251467,-0.3119336319675936,0.5988945062147017,-0.23432984853563216,0.6033370358456004,-0.09611576355183746,0.9138092016641587,0.2460956569660688,0.8012542862510144,-0.2618764069528995,0.5837307734645771,-0.19498463886299883,0.7285943822278477,-0.05081372989239247,0.9398165002523601,0.19533464854377974,0.884703121716411,-0.24538082893007815,0.6905715893516359,-0.17838178725454568,0.8020962749069986,-0.04300383444334409,0.9344758847005752,0.12543386503463955,0.8766402201761638,-0.2697948457699286,0.7008498186118031,-0.17249523622985702,0.7889843076623995,-0.08736968478666396,0.9819937694019256,0.18608529439632132,0.8419393278203584,-0.3171097467238363,0.5546430911031002,-0.15540271875826717,0.7661480771090267,-0.10561335501842326,0.9023735250422786,0.3554855851164724,0.5212707561171522,-0.29145995461454616,1.023291555671421,0.19004456887659368,0.5363210151396154,-0.2298554227746384,1.0148272531919769,0.8777805174520953,0.49169489126998167,-0.3995547351576184,0.19968072637703538,0.6935131913868391,0.5523909537942507,-0.34149906476311526,0.1935597110031829,1.4472005340094651,0.4062325843995982,-0.5073816430261661,0.37695211468214573,1.242109018719491,0.3976898436937443,-0.4407753624148589,0.6144003713141408,1.5352619450443594,0.3491477626330454,-0.5686955762771834,0.5808689730314784,1.3281444797880393,0.37410117515678615,-0.49646368564608806,0.7643722393714772,1.492485497367839,0.4212787346647067,-0.5605614382396628,0.030588246577698174,1.28962593593374,0.482602525353509,-0.42008132667198267,0.13642016833799758
19,-0.3820583743986783,0.8449392813326693,-0.1034989351947089,1.0057221310219389,-0.37367037552092647,0.8643833414166753,-0.0662237569279978,0.9606292711078676,-0.4171344329925358,0.8516142900155365,-0.06272480307971989,1.031649014808627,-0.3672735135270736,0.8610834004625324,-0.0493287404665807,0.9682347049590573,-0.36234704985375954,0.8738625071185652,-0.09900961677552447,0.9551943076614192,-0.4354597902934146,0.8096724497403287,-0.10161695062520652,0.9840628472502367,-0.38043251862778216,0.827638561503446,-0.1021028604968855,0.9592886279840218,-0.31567895356815834,0.8194680226848593,-0.10314435944837075,0.9499559704387648,-0.4244389046343171,0.7651811180477903,-0.016440425678193482,0.9981080803180786,-0.3556148407638697,0.8122508934658413,-0.08119315125468632,0.949917936366829,-0.3346991952955458,0.8417518988448218,-0.044420090750656754,0.9502688273617823,-0.1442313581013416,0.6785129039933789,-0.1519250651883831,0.9509387824558515,-0.29977584366217824,0.6699478524394971,-0.009749568057950672,0.9621645781536714,0.08674887634805424,0.7272008521767336,-0.3032719139291153,0.630738883732402,-0.2083779352757927,0.5988903505314219,-0.10398165931783751,0.9094159221116989,0.19926936825345212,0.8029459256743847,-0.2523427031800183,0.6041680140651631,-0.1580951223076662,0.7275338367833591,-0.060902300434936704,0.9224704757391157,0.1520497417803424,0.8783020597046922,-0.23659461390595157,0.7085707019576845,-0.1354112388856037,0.7995493088311014,-0.054215153726080836,0.9215273120649248,0.09303834423158715,0.8812279300798809,-0.2648146404117954,0.7177156085020924,-0.13567880056068934,0.7889081329263765,-0.09658022531376909,0.9650093066638883,0.1444741745589027,0.8415178633771516,-0.3091969199061956,0.5654180611577266,-0.12080096651214342,0.7667936550165889,-0.11421516165577572,0.880088957686169,0.35672108940490355,0.5500261825240126,-0.29232828196215604,1.023263422279087,0.190820723453839,0.5498199174604772,-0.23070366736905587,1.014795722334891,0.8396285458609437,0.5111752687056659,-0.39141490604310925,0.19871253832962626,0.6809797067667254,0.5515626876504519,-0.3436641647848937,0.19446453931319568,1.3932329819770177,0.4177774676507884,-0.49434518419635265,0.40167919097418364,1.2117448135022983,0.37957509807683143,-0.44431115282329453,0.6294958436499563,1.4784131291021536,0.3627211111552317,-0.5549123042749765,0.6070249216703945,1.2958126243098211,0.34917120465393275,-0.500521763472727,0.7768467166625844,1.430796818666583,0.43718745277383764,-0.5440000912063975,0.027686331116873276,1.2469571829011994,0.4657932406664667,-0.42161250073405127,0.12966190314072049
20,-0.37100537892839347,0.8471754091860628,-0.10645632899750382,1.0057320253929716,-0.36439019128885886,0.8658810869305913,-0.06843824910512596,0.9606348739444763,-0.4074010833833494,0.8522517020867645,-0.06532795726358859,1.0316474650878629,-0.356784201245933,0.8594702007516865,-0.052572043313318495,0.968234764563702,-0.3545284898562029,0.8739762327807966,-0.1004805938605077,0.9551960958007624,-0.42777849037447946,0.8128685103978299,-0.10294549227743598,0.9840605226690904,-0.3722038061033086,0.8269001195593236,-0.10388347859356184,0.9592882107515083,-0.31474328325306666,0.823240877489852,-0.10294180999125424,0.9499377314174636,-0.4268408828723602,0.7645704088574217,-0.01570406572402394,0.9981020006443114,-0.3471827363718218,0.8114694169681912,-0.08327620680000766,0.9499174595296708,-0.3283046960203605,0.8422032848197059,-0.045667602646296684,0.9502857550808985,-0.14236506711859795,0.6849001973321546,-0.1525280267499958,0.9509421203159587,-0.29649295000556153,0.674714972323988,-0.010593347672112716,0.9621363851566926,0.08113397841623245,0.7281520230980593,-0.3018279788892105,0.65511897158488,-0.22893605711520404,0.6025746328342784,-0.10139081332261687,0.9022868489686937,0.18414724102647403,0.8136629004096447,-0.24817790108720594,0.6188614530719685,-0.2244916815185083,0.7274140314473606,-0.04496736232295337,0.9065278425871075,0.13116359630073318,0.8758897405213426,-0.23135371755400994,0.7172081898460206,-0.2058525832972256,0.7982297812050638,-0.037521178039431544,0.9078778484113603,0.06726175801648503,0.8807104425539409,-0.2577522360295676,0.724263715172472,-0.20251281262876578,0.7889692276872713,-0.07995836673386941,0.9479775774425443,0.12693159509196422,0.8463014937482454,-0.30443573021193987,0.567008074661755,-0.18811638453366292,0.7680099473978755,-0.09723507477878625,0.8580609287211728,0.3566223667449759,0.5357321542418471,-0.292543829119558,1.023271111278263,0.19214933409397764,0.5519075105390905,-0.2315285982837816,1.0148021596365264,0.8653696818812647,0.5100031731684802,-0.3984353312158224,0.20889505311634657,0.641691395169198,0.5529592244775393,-0.3157308759398343,0.21909316363322598,1.4569644949663785,0.4207195529169017,-0.5109705461543074,0.427090439181276,1.1110728650877881,0.38138615540600934,-0.383922817769859,0.6524343335638967,1.5486787586624993,0.3631781893736918,-0.5742498867118733,0.6263970868734889,1.1881555071832344,0.35097129472847194,-0.4363803114640878,0.7922847964965688,1.5026532578807494,0.41834055350282623,-0.5690818776509221,0.028483472460228483,1.1042192888689901,0.4611637181044398,-0.3454309715041814,0.1341585594989626
21,-0.3214730635039568,0.847631265509305,-0.11951179615412247,1.0057224886498075,-0.3101569732237188,0.8673701897710149,-0.08297678644468524,0.9606287346660644,-0.35316665263330577,0.8536469872163116,-0.07986014672697361,1.0316355441589078,-0.3027610503776666,0.8603230836137775,-0.06693910166705641,0.9682245125648006,-0.30223097781886765,0.8758155129092756,-0.11454563472009358,0.9551894796851924,-0.37562936280083953,0.8156448351468228,-0.11692480162908757,0.9840497342283862,-0.3215559435269472,0.8320776174230932,-0.11657053348564239,0.9592796872873054,-0.27248602104195235,0.8276225937412253,-0.11445688922556851,0.9499181810939772,-0.38414470267085965,0.7682610688572691,-0.026953354475356794,0.9980863246227355,-0.29810692931446914,0.8108614495914822,-0.09627290580800985,0.9498853326261367,-0.28051193773568744,0.8428946390944556,-0.05851315666262205,0.950274191779812,-0.12232797007524374,0.6873629420449842,-0.15864736825395181,0.9509462926410931,-0.2708196951729296,0.6815114515491467,-0.018090248889351,0.9621183845539704,0.0837329514217794,0.7290428741188723,-0.30307327382350296,0.6823858315931197,-0.20760526443498592,0.6060514909733165,-0.10826624744488278,0.897886118835637,0.1948637823357378,0.8088178176497876,-0.25229131829203066,0.6318850679553913,-0.20829441067411544,0.7275994614972568,-0.04934191558100948,0.8908446088491621,0.1489471372967992,0.8749663453644823,-0.2407302740063851,0.7236578892478761,-0.18771655929731274,0.7985945020264444,-0.04182661859847571,0.8939205267675308,0.0858970442111096,0.8809841470827495,-0.26569929662339126,0.7289543622977162,-0.18333247636355304,0.7893079608835298,-0.0847984082065554,0.9312629449314054,0.14179598430932278,0.8480150676808931,-0.3112723962038748,0.567454692265057,-0.1724492595043761,0.769688831427264,-0.1011713746505886,0.8377688850352597,0.35779739048624004,0.5498817604697218,-0.29458200966898707,1.0232755220219765,0.19667879916068182,0.5543873617849706,-0.23435858319262445,1.0148049610548309,0.8291617964084248,0.5100520191748736,-0.39024828422292046,0.21600642367985368,0.6172501527533983,0.5527968018205264,-0.31136517135097896,0.23574592652308798,1.3704978471148217,0.4213534781164104,-0.48944723547653135,0.45001963077063145,1.053838101506025,0.38234030655957374,-0.3705541761236541,0.6694282138358083,1.4571065178340419,0.36585902748175453,-0.551318811177988,0.6442363994268947,1.1286695571826357,0.3521088195716878,-0.4226351976025739,0.8052600720130788,1.4243494667337984,0.41792195008256866,-0.5511598051538315,0.028010956638771477,1.064653064997157,0.4597429519892512,-0.3357787963036502,0.1337227005340425
22,-0.14085541431543885,0.8437587517382479,-0.16504816361478145,1.0057290451607328,-0.1525880182806422,0.8655389562695806,-0.12271910605284449,0.9606374369442016,-0.1956209535901947,0.851823800341922,-0.11959045861578804,1.0316403125304898,-0.14513704856522652,0.8584603788599018,-0.10672157251946368,0.968227313983105,-0.14155569464590273,0.8745020053523603,-0.15511250004077035,0.955192996359234,-0.21488356280686843,0.8146732198323392,-0.15750648503477058,0.9840503302748339,-0.16124117473454516,0.8298860142393468,-0.15680296876323507,0.959280104519819,-0.1938576947608516,0.8277333987758627,-0.13441723910435038,0.9499240223491653,-0.30047888623621466,0.770273381269531,-0.04809269970911201,0.9980894836689087,-0.14774489856515238,0.8070029429119473,-0.13439103849476122,0.949898803275856,-0.1269314983069562,0.8398058071929053,-0.09735013978454202,0.9502836093136866,-0.09136330889616637,0.6816152065446485,-0.16425807776390933,0.950972280266215,-0.2411204152753574,0.6815298097797375,-0.025930835915126557,0.9621531936665192,0.08962901384470008,0.7272874577255922,-0.30465301877817663,0.7088871295438643,-0.1722390247616522,0.6115212900150645,-0.1162578985841842,0.8986080502931565,0.2108655683013022,0.8065675038909375,-0.2572840679035709,0.6461826129115986,-0.15637963154946297,0.7276354030980564,-0.06231854468593924,0.888067509239787,0.1781834992149275,0.8722750764435838,-0.24935648422928444,0.7298450897941408,-0.14176767336966895,0.7989214931076822,-0.05346834496183443,0.8901899912603288,0.11415204094330743,0.881233473311845,-0.2736407152105142,0.7345156544691944,-0.1394276360366294,0.789643356219681,-0.09611962536919325,0.9276640760845121,0.16232471825538114,0.8461619592748262,-0.3179646111299116,0.5714555348363155,-0.12087962845407313,0.7701898680712459,-0.11428595212178676,0.8334991063067746,0.36002759841339316,0.5435561579382887,-0.2950586629471338,1.0232938802525673,0.19422221904362016,0.5525023052893041,-0.2337308464897861,1.014812888472586,0.8487124497624209,0.497864150818169,-0.3950650611323106,0.22763512596275928,0.6066051092718034,0.5671329705865481,-0.31142268555062097,0.23890029373156887,1.3918251461199806,0.4228457102006847,-0.49461703261698386,0.45332789717192234,1.086287462073386,0.40160065344906964,-0.3873323597195169,0.649433180094811,1.4799841687239224,0.3655483084685404,-0.5568957417592615,0.6477359669355922,1.1671181318341073,0.36677475103492946,-0.44182132248072564,0.793314645548998,1.467130304852402,0.40779416726091344,-0.5598832432494896,0.02629270746679928,1.1454799907480817,0.4917654281855402,-0.3655692228105016,0.1259872991420595
23,-0.20244582957772173,0.8418115872027254,-0.15006250013901612,1.0057373898110016,-0.2011528648661373,0.86437279139455,-0.11095639122460603,0.9606411920368224,-0.244230328568955,0.8506438667939483,-0.10781540484871197,1.0316386436004361,-0.19380937407326254,0.8572561266168598,-0.09493251634957683,0.9682274331923947,-0.1907887738860956,0.8739386818545881,-0.14318745865264793,0.955196215010052,-0.26421379528107064,0.8141616927708768,-0.14553352745958345,0.9840496746237414,-0.21070435527453243,0.8292097399397252,-0.14471635320123094,0.9592798661012398,-0.25491186508150065,0.8234998000667563,-0.11860841261638866,0.9499174062335952,-0.36362189134647305,0.7725287018185423,-0.032446037638567016,0.9980788144374939,-0.19394654294534752,0.8048545530956631,-0.12330305124337126,0.9498758554876175,-0.17335403538936897,0.8380654111701087,-0.08615818510336723,0.9502731785008508,-0.15139119221846273,0.684396955316316,-0.14924276045370707,0.9509425971531171,-0.2914589997345316,0.6812001960941296,-0.013710861860782395,0.9621298286457672,0.07813287904650297,0.7262931330414492,-0.3017762887802507,0.7330723102079268,-0.2304135220940077,0.6146492821682322,-0.10121683397326575,0.9019682025377245,0.19554531562163274,0.7981476325606762,-0.2531615465821647,0.6638257069744038,-0.2340525222409328,0.7293063597096897,-0.04279357325105243,0.8913460031210125,0.14542098588685565,0.8688696246689867,-0.24012876835778943,0.7411815356025514,-0.22434784736881103,0.7995569382256327,-0.03261930662808658,0.891507253909865,0.07811360374008651,0.8769683437456524,-0.2638200012634522,0.7451174134261036,-0.2195037630306123,0.7896720260538179,-0.07617034979806284,0.9292242872661527,0.14057327266035696,0.8434290863118745,-0.3113336081265451,0.5822821821179622,-0.19844896694534006,0.7703349457766292,-0.09510125170789942,0.8352117265651059,0.35706245864893915,0.5386913460410109,-0.29469089226372935,1.0232653296277199,0.19846966979980404,0.5499673793516515,-0.23519409380338607,1.0147870796613985,0.8929957238896299,0.5096813974936603,-0.40622421895851435,0.24946941002991319,0.7077895140283326,0.5649158566148379,-0.3403451166303726,0.24912102999675137,1.4781162258501674,0.4254980572885448,-0.5160631303105514,0.46885025797361907,1.266180664803977,0.40976580432988324,-0.43664898174657857,0.6459598386298147,1.5705071955761285,0.3715892094142038,-0.5792925978114012,0.6603332893995815,1.3522107380742456,0.38259292968864644,-0.4909210406799553,0.793744275828539,1.5468910995087521,0.41863950059869726,-0.5804057478128305,0.02731651037307408,1.3221776885508891,0.495293993353921,-0.4136129845309818,0.1216522160746424
24,-0.255480413017273,0.8379034298540926,-0.13810398918556765,1.0057780401787384,-0.2714882965035712,0.8618154541104619,-0.09439911790971324,0.9606733785450012,-0.3143930254835832,0.8482295210526763,-0.09134732056027056,1.031665465690585,-0.2639326252521621,0.8570112707361225,-0.07844443002994625,0.968258129584454,-0.2639615747451037,0.8727004549640242,-0.12576956429481193,0.955214215612774,-0.3369912643027282,0.8133895145978116,-0.12842347687362032,0.9840644565756456,-0.282303832931858,0.8284548471136449,-0.1285807397302579,0.9592958401460396,-0.29930988263499725,0.8201601518199911,-0.10775563369598712,0.9499496523464188,-0.4178893424044063,0.7696918783551023,-0.019920966904106663,0.9981027755046935,-0.24940035043776881,0.7991624883335476,-0.11135877298251345,0.9499761701047745,-0.23395152563430174,0.8352207198935584,-0.07259759952566477,0.9503370150754054,-0.18865908202097284,0.681381794755708,-0.14066849267024548,0.9509630415462751,-0.3239216254589612,0.6775506036945325,-0.005879760781856855,0.9621672007580414,0.05636596492559777,0.7254476411553102,-0.2988204622979401,0.7573465998159286,-0.2537030068541739,0.6173536641109812,-0.09520820990319959,0.9061820125047653,0.1647060525264408,0.8173539180373608,-0.2474782213834006,0.6930844946063923,-0.26201154616799194,0.730945487441013,-0.035591372463397386,0.8980679765402021,0.10673083582192608,0.889209888512523,-0.2310089994887861,0.7622476648101625,-0.24929771941711382,0.8021894965714274,-0.02619206249488705,0.8968007424123672,0.040477699148678645,0.8942531542887127,-0.25590013461551,0.7666873210913563,-0.24259520547952718,0.7919772952951509,-0.07027714474278454,0.9353891956752713,0.11114504669688084,0.8623512364469148,-0.3070873516703542,0.6091729368176693,-0.22425455754209228,0.771592067339587,-0.0885314348281231,0.8429527605960202,0.35434966134311585,0.5347988051093092,-0.29411691022136993,1.023270336417881,0.20398953233007144,0.5635550329885839,-0.2381911093463991,1.0147776621275237,0.8796887403296423,0.4959766207297443,-0.40142244297901425,0.2835733102240813,0.7464327748386455,0.5635109155328372,-0.3539384697249779,0.25209729852664325,1.4644181176862867,0.4193942734426433,-0.5103008420092182,0.49452972708220067,1.329172345504179,0.42342954329587135,-0.4578492986424277,0.6420692050467458,1.5544578016002109,0.3660494643218119,-0.5712361063905148,0.6804708974508815,1.416116794084899,0.39313475617523397,-0.5111880025593151,0.7956373789512502,1.542598077342118,0.42306210563638647,-0.5781319430681746,0.026581577652412876,1.4141280020758513,0.5328497177363215,-0.44751600279805676,0.1148322675206034
25,-0.19185535566811313,0.8330317038180208,-0.15434088204056778,1.0058123724541288,-0.20462141758742922,0.8579323307126347,-0.1113638360058881,0.9606999622165712,-0.24733017400681806,0.844077103869754,-0.10849287787628847,1.031687757827731,-0.19647352554218933,0.8515741350397114,-0.09594558141786996,0.9682836999770627,-0.1958225116257169,0.8692072055476728,-0.14293224947484037,0.9552290571693232,-0.26876466085763295,0.8098894702519559,-0.14565397607673986,0.98407661592318,-0.21343578084463968,0.8238635013265966,-0.14639190084666606,0.9593087743539559,-0.2379155153719462,0.8168227089450827,-0.12327156748305787,0.9499768320644363,-0.3537062684542624,0.7695229587918089,-0.03628201832519429,0.9981211933399291,-0.1894917992724084,0.7938827088993435,-0.12745446133348198,0.9500550270498124,-0.17260037034819029,0.8322559252577857,-0.0888274296335674,0.9503846391865808,-0.15142505213671523,0.665864023511659,-0.1502977465359907,0.9509902808689373,-0.28577552545359786,0.6754156249233227,-0.015458948035162276,0.9622045728703156,0.08398946736146969,0.7248184545250612,-0.3080130108626389,0.7787750656591292,-0.23434004792678886,0.619057939719044,-0.09733807787894042,0.9096378302041978,0.1810360825264131,0.8146079320525585,-0.2525455213521196,0.7153748436130452,-0.25276783413933523,0.732164044798801,-0.036977416911900735,0.9028172150312603,0.1285457619372475,0.8903830271309923,-0.23711277344176393,0.7778873275527772,-0.23299292877208827,0.8050636325424967,-0.029789445103764897,0.9002867796667009,0.06401280384094869,0.8947826819528972,-0.26270564896796184,0.7822887176520252,-0.22304694726818936,0.7930914253152925,-0.07503010614388758,0.9393968927806791,0.12846908964795334,0.863703785046158,-0.312563677282868,0.6268078054394954,-0.21276218930904592,0.7718999253298519,-0.09129790935870834,0.8469090784976315,0.35242219973796785,0.5309318345702162,-0.29347618801774655,1.0232829726025736,0.20555646000731723,0.5653859088621496,-0.23854303630317852,1.014774145453482,0.820979154659794,0.48977228384810667,-0.38571881949536,0.3041970686593306,0.7051797582461787,0.5631110875756838,-0.3448810024794427,0.2448888319967971,1.3449713537503432,0.4149138518995219,-0.479383410179425,0.5171077281045395,1.2278694421346485,0.42583193830586585,-0.43376081891650725,0.6346043789397207,1.4261833390037664,0.3599560218817789,-0.5375459776519576,0.6990266578344875,1.30524701176523,0.39709673651809896,-0.4836892250452897,0.7960477569305288,1.3965983276891503,0.4187296824262424,-0.5358823907438913,0.025288525664526475,1.3033100676463643,0.542635906338769,-0.426522567406541,0.1079471487380831
26,-0.17211048217056363,0.8032769459368563,-0.15995371505768705,1.0058432476601225,-0.17031483860555943,0.8286007062047307,-0.12071256808763257,0.9607256518184691,-0.2125957245834963,0.8145914013551055,-0.11822436896472174,1.0317101691741666,-0.16180470585938034,0.821461332057381,-0.10561733485296176,0.9683084955092892,-0.1573453577236864,0.840204062237126,-0.15259279302806314,0.9552422894004632,-0.2303888806131864,0.7795927273358487,-0.15522820199612394,0.9840882388289112,-0.17492813173181418,0.7949994156523107,-0.1560591173558376,0.9593206952829111,-0.15353952359345038,0.7755004776523581,-0.14429541822578704,0.9500042502010329,-0.24150791154303552,0.7303143082028196,-0.06400798150670448,0.9981402072216125,-0.15698409335465757,0.7620838693302517,-0.1367057970265087,0.9501253009260026,-0.13351468736060843,0.7994087591963843,-0.09891991600191793,0.9504244550892907,-0.04248788317459425,0.6188205211808789,-0.17853714929815578,0.9510045263790387,-0.16057906904632038,0.6284383433528882,-0.04841638846603853,0.9622019502659453,0.14608378831127533,0.7202848060341555,-0.32486815314231327,0.7983354027257796,-0.15180596770088078,0.6185679299343455,-0.11448950706689948,0.9117027139131517,0.22164467598468904,0.8127610821341931,-0.2628924471515254,0.7409979267276692,-0.15516016163563204,0.7340737776174046,-0.059249768425613136,0.9051307693182171,0.18371673396616,0.8876396041459154,-0.2514886726389602,0.7977859805831727,-0.11657817556711973,0.8118830595558939,-0.056844106099666974,0.9028763630636125,0.12671465415707978,0.8939444618334209,-0.27783845801032425,0.80331008377141,-0.10327296102641331,0.7961819261468965,-0.1040740141540101,0.9422881948894437,0.17375603011433038,0.8614428020558931,-0.32346910281147107,0.6520527566876644,-0.11041438232454132,0.7728472815539119,-0.11649909284897694,0.8507968510577512,0.35290889028831846,0.4880213779128065,-0.2939826066031327,1.023292688159672,0.20966995822777115,0.5333449552259801,-0.2419822656386891,1.0147711056165984,0.7174259790869348,0.47524400931197386,-0.3591827400457834,0.2868153856673491,0.6139292756631163,0.5270300119073489,-0.3260804189444713,0.2291378575800643,1.1316913266879043,0.4164670297330791,-0.42491632956033565,0.51311111746306,1.0381594289695788,0.38719599894620094,-0.40135659061222906,0.6262089455138173,1.2017577587076946,0.3609662312037546,-0.4809112676352094,0.7041592137960964,1.1119072724865795,0.3520981801425955,-0.4553133389999488,0.8054763772689687,1.1779942747116168,0.46076561973550756,-0.4731379252630806,0.020243294232803778,1.1099626550298094,0.5183100587130366,-0.38980366184573906,0.09972621536034029
27,-0.15856258854889554,0.794601549494443,-0.16351647424813384,1.0058735268196684,-0.15558483821649546,0.8229732528775517,-0.12475970115841163,0.9607502685367616,-0.19811519171655068,0.8108072216676055,-0.122067906206175,1.0317312692184173,-0.14732000134445866,0.8188261511072162,-0.1094650574096381,0.9683322181579098,-0.14368056507334803,0.8320954463618818,-0.15620898290195073,0.9552552832130244,-0.216727736197579,0.7711604582394742,-0.15883632826895402,0.9840992656881944,-0.1610992449939562,0.7873008201284765,-0.1598113661710696,0.9593322585839974,-0.14062495708102687,0.7733357561634054,-0.14794434204070228,0.9500296417797073,-0.23438235850337608,0.7215123114949034,-0.06587529939517514,0.9981583866382691,-0.14355695732127305,0.752495448939169,-0.14043491754787818,0.9501998663366166,-0.12097448769294686,0.789769794066532,-0.10268941874673018,0.9504692181775172,-0.0346583949451972,0.5958235591104138,-0.18246692165544132,0.9510185334705609,-0.15366149580504931,0.6142085092731457,-0.05070712090290251,0.9622135135670318,0.1491227356546494,0.69832156731803,-0.3252477585149113,0.8162955934987899,-0.14924166166448588,0.6171484453190196,-0.11315102063955176,0.9138746475641221,0.23342113866590933,0.8114087123488842,-0.26637110321044366,0.766586558357613,-0.15707999319139823,0.7342182592763401,-0.05784552348581008,0.9086014285741985,0.19633310550256258,0.885171495015056,-0.255968146451156,0.8167218397865114,-0.12083565756375357,0.8128260646408854,-0.05541482298389376,0.9058325150258928,0.13662836653987914,0.8921416001428997,-0.28092078227639444,0.8234755271918202,-0.10682764931236544,0.7960776776231844,-0.10189486881442208,0.9456805932468351,0.18463714020885214,0.8600282050214387,-0.3266138857496924,0.6778156722989315,-0.11279086114448916,0.7724280224825618,-0.11454355268038435,0.8553989256808591,0.354122431199281,0.4724542540228834,-0.2947378722810371,1.0232931053921852,0.21007907446596163,0.5156545350752233,-0.2426014233389441,1.014764072268515,0.7127002688632166,0.46771293264228087,-0.35716732279856395,0.2769135640540373,0.6028416827353793,0.5175001232774356,-0.32275487794782987,0.22150670471179348,1.1337236691167758,0.4174381980127269,-0.42444633473203675,0.5102505713509995,1.0227336306322947,0.379140133181583,-0.39430228422681723,0.6249453866492238,1.2050581902682005,0.3620923119551737,-0.4809799232883393,0.7060923116354518,1.0958793576524457,0.34475104340667934,-0.448049176244338,0.8133251168929921,1.188658912097182,0.47274597452142675,-0.47714274138599755,0.01590655341120388,1.0896970857212989,0.508610892891961,-0.3793051121928343,0.0929667506195871
28,-0.17884690878538456,0.7779045003535128,-0.1596330873439005,1.0059006469330412,-0.17752581439501372,0.8013570920079534,-0.12027763780102486,0.9607722030460388,-0.220282541193751,0.7888378436730682,-0.11738466135380055,1.0317502831001004,-0.16995752497785954,0.7967331530794147,-0.10437777142839028,0.9683535566207394,-0.16658801000662005,0.8106399796145979,-0.15181445163743937,0.9552668465141109,-0.24000791450608533,0.7474546777333402,-0.1541256233182121,0.984109219663872,-0.18459751666922194,0.7620401332540868,-0.1549113186699871,0.9593427490014779,-0.16079005819932327,0.750279189448165,-0.14332624853407705,0.9500525895679458,-0.2613063466869471,0.6909749446278379,-0.059239425833539416,0.9981743010784239,-0.1630928702133737,0.7338878921192532,-0.13642352436673572,0.9502668023526993,-0.14267612304895297,0.7684446826773719,-0.09796065044003646,0.9505098089406092,-0.04833785859148445,0.5724531143357862,-0.17948425566697887,0.9510426137470501,-0.17409322658632467,0.591486920661543,-0.04561188278615351,0.9622310373325957,0.1401015707072396,0.6923672421189028,-0.32267032214003083,0.8325013811574813,-0.1739197336545779,0.61086170501598,-0.10550973810500491,0.9167443131868334,0.21660136172569402,0.8105523724173962,-0.2623368898707119,0.7898532910503315,-0.19360937079196774,0.7340766386403538,-0.04838563866292714,0.9140568628965557,0.17658148847476934,0.8843607526368211,-0.25037500765911275,0.8338540624389467,-0.15796142848279582,0.8126159582680521,-0.04606751065573626,0.9104274966962724,0.11694155266618418,0.8907400565256511,-0.27586327769908087,0.8416602486616993,-0.13518420217196156,0.7940427154459078,-0.0943414942728591,0.9510950195735868,0.16628193019056836,0.8583986140332796,-0.3219896665764244,0.701196249863171,-0.14783524466922765,0.7705957757021663,-0.10519210613111483,0.8624613608310056,0.35449123207559613,0.45237115441923037,-0.2953742586768442,1.0233047282979164,0.21027635840804476,0.4969831118784307,-0.24246303642516404,1.0147652047567657,0.7152998310537778,0.44854124766188846,-0.3576181491244205,0.26852307781365037,0.6118415450047587,0.5038633852155306,-0.324474862176801,0.2129176455973373,1.1498112228953037,0.4089212605184489,-0.4281599887884173,0.5094686180161911,1.04381397955488,0.360563153544437,-0.3993115487239545,0.6238283360014882,1.2228729492384764,0.3539425390727121,-0.48534634149053046,0.7101399438528591,1.1181818838345086,0.32472629675026143,-0.45340688807706137,0.8213698365890371,1.2029003954076194,0.46453024909952123,-0.4799389613997882,0.012073598497826077,1.1118980946570307,0.4893503671885309,-0.385037213011628,0.08695308899658599
29,-0.16780823068174244,0.7475907701136446,-0.16258120414365812,1.0059246080002409,-0.16386631050838632,0.7683762923329656,-0.1236420503324145,0.9607908592998536,-0.20664770849353287,0.7594080503152191,-0.12073560870831113,1.0317666147727689,-0.1566199197485763,0.7693675877794269,-0.10749330416870895,0.9683719148513302,-0.15258316476626071,0.7729947588580671,-0.15560383122342397,0.9552769196990778,-0.22586560832475344,0.7071842300023221,-0.15803622791399172,0.984117981546654,-0.1702962300510201,0.7205437371893285,-0.158957533519984,0.9593520473260628,-0.13661902081841068,0.7061482084796896,-0.1522813071540349,0.950072974356459,-0.2412332114737244,0.6513565717106626,-0.06425534020002929,0.9981885465885253,-0.15072772808256824,0.7100241593044644,-0.13938956534983996,0.9503293276250687,-0.12954564962807627,0.7381636753874854,-0.10154630076065263,0.9505497440526087,-0.015741030833083057,0.5609237878968824,-0.18937129307798775,0.9510574553035991,-0.15270983410834352,0.5611730116077405,-0.05094567374122698,0.9622458192845001,0.17089429895148206,0.6954519612999636,-0.3299509814740958,0.8458658153997298,-0.1713636489974378,0.6046840412128794,-0.10540883763829845,0.9194666957323046,0.25467341001765265,0.8099517364119946,-0.27150538486569564,0.8053863210834431,-0.20382126528251165,0.7339952783002354,-0.045451267588994315,0.92060240656721,0.2154406874575065,0.8865673761910509,-0.2597488044502405,0.8464092444190797,-0.17377703569104386,0.8122917686051188,-0.04214448917930004,0.9161076405294328,0.15448014805243315,0.8902840809931194,-0.284957317020156,0.8544680947310352,-0.1523346349443782,0.7940268010057527,-0.09011612513601588,0.957998846763986,0.20351800670110948,0.8583444334111787,-0.3307823312379646,0.7159388627019161,-0.15863099853545531,0.7705851064707515,-0.10252855362407497,0.8719672883937192,0.35813179067843487,0.44104353009824654,-0.2983530974164205,1.0233243382260475,0.2098628989501704,0.46172243454078427,-0.2422420627102506,1.0147760528021148,0.6766255436131456,0.41590490322905765,-0.348020494549948,0.2659137652793181,0.5781447187486494,0.5130915849359133,-0.31582343032458493,0.20367213072764728,1.0802962788296113,0.4020675310319835,-0.40950179544931337,0.5141518741654831,0.9499199816363272,0.37418135456181684,-0.35926820410308574,0.6282734715949025,1.1506080485656907,0.3517380314833719,-0.4661142448513197,0.719394757047134,1.0178174971861762,0.34218387135620326,-0.41030938339711726,0.8302539684974538,1.1236366504437352,0.43135570452669103,-0.46126341819816685,0.008604664051252875,1.0039790474681634,0.5112503355742274,-0.34119286611782135,0.0818467590786783
30,-0.21652308786383617,0.7000248330714083,-0.15328959770681952,1.0059467809280975,-0.20573120591141994,0.7209144846051518,-0.11584524116070792,0.9608087406932861,-0.24904786608436902,0.7081249888108551,-0.11248487732113263,1.0317817543525418,-0.19903704085747442,0.7153241755708698,-0.09924614262246054,0.9683893790122494,-0.19255912534782127,0.7304556391376081,-0.14844229393993988,0.9552865160468866,-0.2661268113216813,0.669268940600314,-0.15063002754575372,0.9841260281736988,-0.21402005409970035,0.6873896668119787,-0.1485623520996824,0.9593608092088448,-0.16057937525822594,0.6692350519702902,-0.14669597262625025,0.9500912133777603,-0.26544301716179697,0.6175044117337034,-0.05894322801004548,0.9982013019825072,-0.19092865613423798,0.6642940453213101,-0.13233493876299404,0.9503903627813187,-0.1710847367813633,0.7118779078322486,-0.09225406064867747,0.9505875930020412,-0.03234874135571105,0.5329588382890332,-0.1865797948659601,0.9510709259533183,-0.16815307762553136,0.5329643982120496,-0.046876877035151435,0.9622505876560822,0.16169623750692866,0.6822765333862978,-0.32606040571877287,0.8585152919278976,-0.1759539649816409,0.5968814355839122,-0.10467259913799254,0.9221017574731797,0.2158128364412099,0.8087071914290844,-0.261242279332043,0.8253559036411213,-0.23968441180145092,0.7326237158193089,-0.03664812935312586,0.9269266381918133,0.17485613882410325,0.8859408717698167,-0.24930439021331804,0.8611841033706483,-0.21472363298300606,0.8120355282372294,-0.032339702084075425,0.9215949037321001,0.11377061687702984,0.8885241942514812,-0.27475714761453945,0.87038372697896,-0.19635256606785367,0.7936341852106172,-0.0796086422215769,0.9646714079326568,0.16409181894033775,0.8540016389928438,-0.3206798638455289,0.7372346486058468,-0.19588692697803123,0.7699224816347835,-0.09341356777058897,0.8812460626551938,0.35681992467965634,0.42561152993802925,-0.2985868514363955,1.0233387625500832,0.21209013630348122,0.4622750590048193,-0.24282918635712009,1.014782192080527,0.6597797758755185,0.4338398514350055,-0.3435391308669997,0.2528102950730574,0.5562080070734656,0.5064310937078097,-0.3104336906422576,0.18980437996375418,1.0707716104256408,0.40450622527064617,-0.407064979950948,0.4919646411942917,0.965419665512399,0.37464343957043805,-0.37633616584083834,0.6023102247725454,1.1405529515767567,0.3535246509081919,-0.4630549453765368,0.699215723767715,1.0385155505375943,0.34454418548698634,-0.43038638259264417,0.8188625672065603,1.1124619253470756,0.43942441509225805,-0.45611073848203365,0.004845048927980877,1.0311974073012802,0.4985338932276545,-0.3615357040595107,0.0757735598661272
31,-0.37313371112246535,0.6195108789088106,-0.11582420210582897,1.0059677021584135,-0.35409635159518227,0.6315515056699101,-0.08156906086796693,0.9608253703891784,-0.3974688358151068,0.6182108457253753,-0.07812845391903583,1.0317945693511685,-0.34827537155871924,0.625874173854256,-0.06421443186854964,0.9684060087081419,-0.34309745020821103,0.6418197176593367,-0.1134441850542616,0.9552952183250238,-0.4167368995114321,0.5802240716542386,-0.11557024214982463,0.9841322270567552,-0.3625541240305593,0.5945193717642187,-0.11526215116260635,0.9593687962312446,-0.2667098279440284,0.5819215787456503,-0.12090791368461745,0.9501072470272048,-0.37269664516670836,0.5340828833943174,-0.035143618537780585,0.998214057376489,-0.33354284353593217,0.5824961475056057,-0.09799429108853638,0.950459325355324,-0.31627715596799716,0.6201328888732032,-0.057675367910562964,0.9506307467648584,-0.09447343861064564,0.4921589224984753,-0.1708944878845714,0.9511152122043867,-0.22719973622095116,0.4635092216201764,-0.033061605320527085,0.9623040530224458,-0.05784695019882595,0.6672505004616457,-0.2604897312633665,0.8675826485143538,-0.3280843912823312,0.5965161187160838,-0.06861878669229468,0.9247316336099595,-0.12888094248105098,0.781898810348457,-0.17266666373554262,0.8423472805179524,-0.4930541051065459,0.7298043565167881,0.023037098598223917,0.9328168287931621,-0.210465155405315,0.8664726834839891,-0.15019783948788976,0.872022969604474,-0.5039185368652157,0.8114227924889383,0.036286864019183476,0.9266528346784499,-0.2624035640427896,0.8752522068132793,-0.1798972232404107,0.8817818039900684,-0.49189394566732497,0.7908754438318331,-0.008585165300242649,0.9708314883655484,-0.18179880192113962,0.8407935477338411,-0.234198326821746,0.7524774040189022,-0.45908340884862664,0.766291009047198,-0.03017218161718015,0.8897340620944333,0.3554532339664998,0.36924836455945864,-0.29936014164618074,1.023353425292698,0.21500814736575896,0.38384869792083487,-0.24333637153138535,1.0147958415441805,0.6834388705472484,0.46118750553923826,-0.3572678374072965,0.23670960530426619,0.4826993745896752,0.4561681955010989,-0.2762322251796129,0.195569415712236,1.1497347228039254,0.4797459730333263,-0.4389064183802026,0.45460588036055144,0.9613585902199351,0.35117723993397865,-0.35070044103184106,0.5746739947806325,1.2234256170401336,0.4361605602271158,-0.4964025135205329,0.652886583104568,1.0404160251922652,0.33297087082023824,-0.4049526382744146,0.7932205298148977,1.174929359094488,0.5210992293165012,-0.4843678382677479,0.0033271495935501758,1.0031254295256902,0.4576417988539515,-0.32591121410944773,0.0757221285082666
32,-0.46204095220443564,0.5641273754717684,-0.09440904522233537,1.0059882657608612,-0.43951948195004564,0.5780155674069707,-0.06048530556870839,0.9608413444339784,-0.48310604971940785,0.5654769475625335,-0.05682102629577995,1.0318072651405057,-0.43325560893005305,0.573377323363686,-0.0434320396139421,0.9684215655204282,-0.4280436100125224,0.5886918923991743,-0.09240638385319952,0.9553038609985164,-0.5016603867940672,0.5276632653798246,-0.09454537115872606,0.9841388431723254,-0.44729360398753604,0.5422981927557348,-0.09438035635751746,0.9593766044397103,-0.33087912624405413,0.5354470027492514,-0.10479264134091382,0.9501220289791092,-0.43494154210910907,0.4808765588169859,-0.019377385411909864,0.9982267531658262,-0.4147004823648062,0.5335655621212368,-0.07820851820927929,0.950522208255562,-0.3970522843964415,0.5727071419554786,-0.038108269049523,0.9506703242489893,-0.1333589576175009,0.462581905668031,-0.16112914799119835,0.9511439416431683,-0.2736681758373616,0.4370905357070905,-0.021672472278825114,0.962349352552475,-0.10623605629382464,0.6531248553009706,-0.24303977603931584,0.8735406692014571,-0.353193111072246,0.5975573522556651,-0.06797582191477894,0.9271089052621811,-0.17434370316493697,0.7563024301146923,-0.16045398622645968,0.85486807061805,-0.4878061721580515,0.7280318931951023,0.01357333861562873,0.9380590573011577,-0.25818382943444673,0.8489769917077135,-0.13613857725967635,0.8782226275214967,-0.49479487895149016,0.808660117203599,0.026273740657243708,0.9311290242917925,-0.31310613513529517,0.8627962069620525,-0.16574205662850416,0.8884156221396351,-0.4830255899572637,0.7896352499879915,-0.020019353626183657,0.9763502228206571,-0.22900494242589864,0.8235750771604158,-0.22188923501147564,0.7622591818776363,-0.4527675070009477,0.7634994851137874,-0.040598455119277385,0.8973164285609554,0.351267302498496,0.34638244330053225,-0.29801364883369635,1.0233421004101908,0.21864684113957036,0.3716970393858312,-0.24417479571108155,1.0147981661253265,0.6537559323082095,0.4802242754061817,-0.35330443300734626,0.22397005125668168,0.4797827358522579,0.45839553166938807,-0.28036846091221745,0.19268133225428918,1.1121532628712105,0.5114308783239299,-0.42994680465256624,0.41758564410681304,0.9504899207756924,0.3687462156210056,-0.3562499213288051,0.5332800591002431,1.1820911394427998,0.4711413639552195,-0.48576828155243934,0.6020116346029811,1.0274295954269428,0.36672304400558675,-0.4100947962744546,0.7394058206283437,1.1161402705590913,0.5548208551214023,-0.4703364361806881,0.0049729940232815795,0.9736665212549198,0.4760950988531885,-0.32888390602983314,0.07779310679214879
