frame,NOSE.x,NOSE.y,NOSE.z,NOSE.v,LEFT_EYE_INNER.x,LEFT_EYE_INNER.y,LEFT_EYE_INNER.z,LEFT_EYE_INNER.v,LEFT_EYE.x,LEFT_EYE.y,LEFT_EYE.z,LEFT_EYE.v,LEFT_EYE_OUTER.x,LEFT_EYE_OUTER.y,LEFT_EYE_OUTER.z,LEFT_EYE_OUTER.v,RIGHT_EYE_INNER.x,RIGHT_EYE_INNER.y,RIGHT_EYE_INNER.z,RIGHT_EYE_INNER.v,RIGHT_EYE.x,RIGHT_EYE.y,RIGHT_EYE.z,RIGHT_EYE.v,RIGHT_EYE_OUTER.x,RIGHT_EYE_OUTER.y,RIGHT_EYE_OUTER.z,RIGHT_EYE_OUTER.v,LEFT_EAR.x,LEFT_EAR.y,LEFT_EAR.z,LEFT_EAR.v,RIGHT_EAR.x,RIGHT_EAR.y,RIGHT_EAR.z,RIGHT_EAR.v,MOUTH_LEFT.x,MOUTH_LEFT.y,MOUTH_LEFT.z,MOUTH_LEFT.v,MOUTH_RIGHT.x,MOUTH_RIGHT.y,MOUTH_RIGHT.z,MOUTH_RIGHT.v,LEFT_SHOULDER.x,LEFT_SHOULDER.y,LEFT_SHOULDER.z,LEFT_SHOULDER.v,RIGHT_SHOULDER.x,RIGHT_SHOULDER.y,RIGHT_SHOULDER.z,RIGHT_SHOULDER.v,LEFT_ELBOW.x,LEFT_ELBOW.y,LEFT_ELBOW.z,LEFT_ELBOW.v,RIGHT_ELBOW.x,RIGHT_ELBOW.y,RIGHT_ELBOW.z,RIGHT_ELBOW.v,LEFT_WRIST.x,LEFT_WRIST.y,LEFT_WRIST.z,LEFT_WRIST.v,RIGHT_WRIST.x,RIGHT_WRIST.y,RIGHT_WRIST.z,RIGHT_WRIST.v,LEFT_PINKY.x,LEFT_PINKY.y,LEFT_PINKY.z,LEFT_PINKY.v,RIGHT_PINKY.x,RIGHT_PINKY.y,RIGHT_PINKY.z,RIGHT_PINKY.v,LEFT_INDEX.x,LEFT_INDEX.y,LEFT_INDEX.z,LEFT_INDEX.v,RIGHT_INDEX.x,RIGHT_INDEX.y,RIGHT_INDEX.z,RIGHT_INDEX.v,LEFT_THUMB.x,LEFT_THUMB.y,LEFT_THUMB.z,LEFT_THUMB.v,RIGHT_THUMB.x,RIGHT_THUMB.y,RIGHT_THUMB.z,RIGHT_THUMB.v,LEFT_HIP.x,LEFT_HIP.y,LEFT_HIP.z,LEFT_HIP.v,RIGHT_HIP.x,RIGHT_HIP.y,RIGHT_HIP.z,RIGHT_HIP.v,LEFT_KNEE.x,LEFT_KNEE.y,LEFT_KNEE.z,LEFT_KNEE.v,RIGHT_KNEE.x,RIGHT_KNEE.y,RIGHT_KNEE.z,RIGHT_KNEE.v,LEFT_ANKLE.x,LEFT_ANKLE.y,LEFT_ANKLE.z,LEFT_ANKLE.v,RIGHT_ANKLE.x,RIGHT_ANKLE.y,RIGHT_ANKLE.z,RIGHT_ANKLE.v,LEFT_HEEL.x,LEFT_HEEL.y,LEFT_HEEL.z,LEFT_HEEL.v,RIGHT_HEEL.x,RIGHT_HEEL.y,RIGHT_HEEL.z,RIGHT_HEEL.v,LEFT_FOOT_INDEX.x,LEFT_FOOT_INDEX.y,LEFT_FOOT_INDEX.z,LEFT_FOOT_INDEX.v,RIGHT_FOOT_INDEX.x,RIGHT_FOOT_INDEX.y,RIGHT_FOOT_INDEX.z,RIGHT_FOOT_INDEX.v
0,,,,,,,,,,,,,,,,,,,,,,,,,,,,,,,,,,,,,,,,,,,,,,,,,,,,,,,,,,,,,,,,,,,,,,,,,,,,,,,,,,,,,,,,,,,,,,,,,,,,,,,,,,,,,,,,,,,,,,,,,,,,,,,,,,,,
1,,,,,,,,,,,,,,,,,,,,,,,,,,,,,,,,,,,,,,,,,,,,,,,,,,,,,,,,,,,,,,,,,,,,,,,,,,,,,,,,,,,,,,,,,,,,,,,,,,,,,,,,,,,,,,,,,,,,,,,,,,,,,,,,,,,,
2,,,,,,,,,,,,,,,,,,,,,,,,,,,,,,,,,,,,,,,,,,,,,,,,,,,,,,,,,,,,,,,,,,,,,,,,,,,,,,,,,,,,,,,,,,,,,,,,,,,,,,,,,,,,,,,,,,,,,,,,,,,,,,,,,,,,
3,,,,,,,,,,,,,,,,,,,,,,,,,,,,,,,,,,,,,,,,,,,,,,,,,,,,,,,,,,,,,,,,,,,,,,,,,,,,,,,,,,,,,,,,,,,,,,,,,,,,,,,,,,,,,,,,,,,,,,,,,,,,,,,,,,,,
4,,,,,,,,,,,,,,,,,,,,,,,,,,,,,,,,,,,,,,,,,,,,,,,,,,,,,,,,,,,,,,,,,,,,,,,,,,,,,,,,,,,,,,,,,,,,,,,,,,,,,,,,,,,,,,,,,,,,,,,,,,,,,,,,,,,,
5,,,,,,,,,,,,,,,,,,,,,,,,,,,,,,,,,,,,,,,,,,,,,,,,,,,,,,,,,,,,,,,,,,,,,,,,,,,,,,,,,,,,,,,,,,,,,,,,,,,,,,,,,,,,,,,,,,,,,,,,,,,,,,,,,,,,
6,,,,,,,,,,,,,,,,,,,,,,,,,,,,,,,,,,,,,,,,,,,,,,,,,,,,,,,,,,,,,,,,,,,,,,,,,,,,,,,,,,,,,,,,,,,,,,,,,,,,,,,,,,,,,,,,,,,,,,,,,,,,,,,,,,,,
7,,,,,,,,,,,,,,,,,,,,,,,,,,,,,,,,,,,,,,,,,,,,,,,,,,,,,,,,,,,,,,,,,,,,,,,,,,,,,,,,,,,,,,,,,,,,,,,,,,,,,,,,,,,,,,,,,,,,,,,,,,,,,,,,,,,,
8,,,,,,,,,,,,,,,,,,,,,,,,,,,,,,,,,,,,,,,,,,,,,,,,,,,,,,,,,,,,,,,,,,,,,,,,,,,,,,,,,,,,,,,,,,,,,,,,,,,,,,,,,,,,,,,,,,,,,,,,,,,,,,,,,,,,
9,,,,,,,,,,,,,,,,,,,,,,,,,,,,,,,,,,,,,,,,,,,,,,,,,,,,,,,,,,,,,,,,,,,,,,,,,,,,,,,,,,,,,,,,,,,,,,,,,,,,,,,,,,,,,,,,,,,,,,,,,,,,,,,,,,,,
10,,,,,,,,,,,,,,,,,,,,,,,,,,,,,,,,,,,,,,,,,,,,,,,,,,,,,,,,,,,,,,,,,,,,,,,,,,,,,,,,,,,,,,,,,,,,,,,,,,,,,,,,,,,,,,,,,,,,,,,,,,,,,,,,,,,,
11,,,,,,,,,,,,,,,,,,,,,,,,,,,,,,,,,,,,,,,,,,,,,,,,,,,,,,,,,,,,,,,,,,,,,,,,,,,,,,,,,,,,,,,,,,,,,,,,,,,,,,,,,,,,,,,,,,,,,,,,,,,,,,,,,,,,
12,,,,,,,,,,,,,,,,,,,,,,,,,,,,,,,,,,,,,,,,,,,,,,,,,,,,,,,,,,,,,,,,,,,,,,,,,,,,,,,,,,,,,,,,,,,,,,,,,,,,,,,,,,,,,,,,,,,,,,,,,,,,,,,,,,,,
13,,,,,,,,,,,,,,,,,,,,,,,,,,,,,,,,,,,,,,,,,,,,,,,,,,,,,,,,,,,,,,,,,,,,,,,,,,,,,,,,,,,,,,,,,,,,,,,,,,,,,,,,,,,,,,,,,,,,,,,,,,,,,,,,,,,,
14,,,,,,,,,,,,,,,,,,,,,,,,,,,,,,,,,,,,,,,,,,,,,,,,,,,,,,,,,,,,,,,,,,,,,,,,,,,,,,,,,,,,,,,,,,,,,,,,,,,,,,,,,,,,,,,,,,,,,,,,,,,,,,,,,,,,
15,,,,,,,,,,,,,,,,,,,,,,,,,,,,,,,,,,,,,,,,,,,,,,,,,,,,,,,,,,,,,,,,,,,,,,,,,,,,,,,,,,,,,,,,,,,,,,,,,,,,,,,,,,,,,,,,,,,,,,,,,,,,,,,,,,,,
16,0.06442456360447114,0.5434256788134618,-0.6319694369494718,0.9778111576142791,0.07105440384624703,0.5643533369396695,-0.6254334435817002,1.0141030462183054,0.08680467708928988,0.5797303797657724,-0.644066413748621,0.9889652677718967,0.1143884964782449,0.5231281669479204,-0.6494309776573416,1.0260839330094704,-0.008236760363840391,0.5098993614634323,-0.683757151984169,1.012520889361726,0.08614661386070005,0.49410300020046277,-0.6469870537777149,1.004052229941069,0.06951027533766364,0.5392487991899796,-0.6954092997568934,1.0104690211679888,0.10651642300125919,0.48837389152347344,-0.5471102358112964,0.9229162477328495,0.07606903947145784,0.4543374361916625,-0.6147678280237959,0.9374077208403906,0.11838138138936175,0.5212119461795264,-0.6278154251629271,1.0090769412821023,0.03862875757629366,0.5269386509200322,-0.5880569726959246,1.0018933889103232,0.206877246550379,0.5622248524773208,-0.450288386983895,1.0111278030087572,0.00259775921009725,0.4479955644106842,-0.5653458054786182,0.9922737680177011,0.20245200339962485,0.6819085670613365,-0.46684242503088424,0.8125057504818334,-0.0444945874967996,0.6440849272360049,-0.5081721069053978,0.7407315383122897,0.1376936321439603,0.7837448562612624,-0.4077163461345211,0.7798119242745887,-0.03897797957980622,0.7363181545735351,-0.5519321924555389,0.8560315908696953,0.16557821783530702,0.7500393139165383,-0.4751260156083158,0.7626659171383445,-0.09855445987882672,0.8428276631555554,-0.6111083265389617,0.8562425470800666,0.08184337543962458,0.743229644004617,-0.5138214053921701,0.7102920811862616,-0.09014018377432327,0.8080498960463119,-0.6687735389655379,0.7879116046539482,0.16741321320403185,0.8007524108680112,-0.4415458720626653,0.770295851412899,-0.031364892891819075,0.7387139727036965,-0.5868915373640651,0.6306257597457265,0.3914365110118124,0.5946604439583805,-0.15391945130579293,0.9839981170771809,0.24596252019242723,0.5866058762115576,-0.21461627087191076,0.9645163328490447,0.559798430031371,0.6259993691924031,0.11775744748926134,0.08609483740292335,0.43077040402194117,0.5713586666439695,0.10245303349862936,0.42535447489307343,0.6741105554036146,0.6765636344876603,0.40059928881398993,0.22615384164103258,0.5709550789245216,0.5831025421393691,0.31223428424856287,0.5268758219466125,0.6914563991775576,0.6159740524792169,0.4245056525447517,0.165111378172988,0.6430200372357749,0.5858014192790802,0.36312739368176805,0.4046921157365106,0.6833024168401479,0.6657784414809804,0.3964327691643065,0.430746385677081,0.5317866434154676,0.7194723806244685,0.2697394961158291,0.6444450422922908
17,,,,,,,,,,,,,,,,,,,,,,,,,,,,,,,,,,,,,,,,,,,,,,,,,,,,,,,,,,,,,,,,,,,,,,,,,,,,,,,,,,,,,,,,,,,,,,,,,,,,,,,,,,,,,,,,,,,,,,,,,,,,,,,,,,,,
18,,,,,,,,,,,,,,,,,,,,,,,,,,,,,,,,,,,,,,,,,,,,,,,,,,,,,,,,,,,,,,,,,,,,,,,,,,,,,,,,,,,,,,,,,,,,,,,,,,,,,,,,,,,,,,,,,,,,,,,,,,,,,,,,,,,,
19,,,,,,,,,,,,,,,,,,,,,,,,,,,,,,,,,,,,,,,,,,,,,,,,,,,,,,,,,,,,,,,,,,,,,,,,,,,,,,,,,,,,,,,,,,,,,,,,,,,,,,,,,,,,,,,,,,,,,,,,,,,,,,,,,,,,
20,0.25571009700077374,0.6449971195101781,-0.4808576184610299,0.9790542720857147,0.24318752897636894,0.6654153367374905,-0.4882134523739498,1.0159593732751901,0.25815950448854375,0.6759685160572763,-0.5062699267804949,0.9914069124404759,0.2852129102667627,0.6165951640945269,-0.5112243703397745,1.0271022187608132,0.17767534767516704,0.6183923319300461,-0.5402071859838707,1.0139571824868787,0.27353336637419473,0.6062458610898975,-0.5042835635574318,1.00605554205197,0.26104064856668063,0.6541450966448136,-0.5550248189648849,1.0123039501573992,0.2141821084035054,0.5722238580495049,-0.467218190473311,0.9259666346385197,0.23351094724717336,0.5990107836648071,-0.505749320130501,0.9479092843894323,0.2865773376331707,0.6176510693332129,-0.49614427969069436,1.0104179861849039,0.22216210789021093,0.6295138934394109,-0.44807827415897045,1.0047356960010825,0.2519436072767309,0.5485316390144912,-0.3724623386370243,1.0111243459393602,0.16855620361760437,0.6308121592497804,-0.5060953255851498,0.9958752594689645,0.25544574948751364,0.5232175184392052,-0.30753244481841857,0.7475768016025914,0.1404400796467923,0.7639464108099184,-0.42373776759892284,0.7615039954350924,0.3400067715947247,0.5885956133833022,-0.12591555871599447,0.7011786158639441,0.19712090952666073,0.767543776273822,-0.3991410369659171,0.8664255680349174,0.3807073865370098,0.5348892556470376,-0.15800180786103166,0.6935937897961204,0.14238010595280173,0.8718502971849438,-0.4210106735409584,0.8699818945379524,0.30725492847491137,0.5571901962201932,-0.18993169080845546,0.6375912826747565,0.15244561599735512,0.8326468255964828,-0.48168733717417617,0.8020910132042106,0.3718183372313155,0.6247130727561337,-0.15020383729850753,0.699398212615139,0.19209690249698622,0.759212367669822,-0.42399183773656285,0.656753455783019,0.38130622246400764,0.6162046024170902,-0.1610575868626057,0.9852383705256673,0.2902624899122144,0.707666605238352,-0.2262182770552567,0.9658976704917145,0.512548456234555,0.6058957953932698,0.07599027359321595,0.08443621895275856,0.43171976762716,0.6403630831097288,0.06257828148579145,0.41058465253398835,0.5633627446790261,0.678703679653676,0.31814060485020956,0.26321821513422716,0.49053002648567384,0.6579798638594924,0.24154755277005718,0.5609870833144104,0.5671088338955217,0.6254771190189813,0.34526146980898376,0.2297800782719793,0.5629992414894971,0.6638470258922394,0.28818533031211935,0.45354089374592527,0.6291071344064624,0.6415186954063039,0.3395676891220164,0.3948938044144925,0.512112939216248,0.7492291650635554,0.21804392832581213,0.6064201995531856
21,,,,,,,,,,,,,,,,,,,,,,,,,,,,,,,,,,,,,,,,,,,,,,,,,,,,,,,,,,,,,,,,,,,,,,,,,,,,,,,,,,,,,,,,,,,,,,,,,,,,,,,,,,,,,,,,,,,,,,,,,,,,,,,,,,,,
22,0.24130501410445016,0.6790185566782995,-0.4962379968575059,0.9800659417214873,0.24022673026515542,0.6935744186733731,-0.4970791674878761,1.0174934776224192,0.2560609711537032,0.705706763451838,-0.5157184135062831,0.9933959194366306,0.2834900208181647,0.6461352260452105,-0.52095715710817,1.0279242860215556,0.16696717619025583,0.6481881574114609,-0.5502903234469834,1.0151638785203563,0.26248840092092585,0.6355403519041065,-0.5141634955074097,1.007743247568785,0.24745929197707955,0.6840333093256302,-0.5634684753329305,1.0138808506395771,0.22837493637247433,0.609455005338781,-0.4563433107971622,0.9284557842089847,0.23057071919837235,0.6044518532677734,-0.5077526603697774,0.95716999844354,0.2790332771783181,0.6494925262233191,-0.5076326136911834,1.0116225960558145,0.21118635505900432,0.661577496840595,-0.4644073679878302,1.0072795626354514,0.30226718911335654,0.6341503733742324,-0.3797697482169507,1.0111390682866197,0.14116589410713715,0.579170695016382,-0.4838992566026114,0.9990854464272775,0.2860078691053771,0.6933738781117516,-0.3591459617756023,0.6946309493229283,0.07411812427172451,0.7215539781202517,-0.4048118871752793,0.7615883956120943,0.2971858774752167,0.7919059838285537,-0.26349062652335997,0.6498649771768104,0.0589019414711533,0.7710499002934448,-0.40957318239208484,0.8656557740476433,0.34262221320549496,0.7536229239743691,-0.32122378134422885,0.6499301092426841,-0.018701963040344764,0.871083841057777,-0.4442609900430049,0.8659242487402229,0.2605723573392349,0.7650705143850186,-0.3587821786965207,0.5956042211742072,-0.0037376259549311702,0.8474738982168747,-0.5064537330549633,0.7992023336998161,0.3336757170957509,0.8219055032523496,-0.2989964554443165,0.6579910447036095,0.05466249857462859,0.7799999047677529,-0.43936194771621195,0.6620937339316701,0.4165832644809919,0.6556725332108524,-0.17394671673801834,0.9863564344523641,0.2810889634184364,0.6956870253128149,-0.22753399379518158,0.9671398312888336,0.6129366755699706,0.6682141800406391,0.02829399240290873,0.08109996817074556,0.44201512554778727,0.6708875753735227,0.012709230014953332,0.3988533855585855,0.6907872299158877,0.7266461392369584,0.2550466020932356,0.24902682605036486,0.5864893504487424,0.6540594875586806,0.17822539137425752,0.5306992810950195,0.70188780732711,0.6656706171535943,0.2765953346492086,0.2162245068350973,0.6633436586961117,0.6570667591304596,0.2254719533830827,0.4282510005955957,0.7429368068187456,0.7023157311004262,0.26986160300326734,0.3635057302548703,0.6042180224368051,0.7603991350991084,0.16467060201630576,0.5710699960390865
23,0.1865778774863463,0.6861875649333044,-0.5492222124828817,0.9806477426591399,0.18720026492893202,0.7055922051762112,-0.5477495616273433,1.0184757621683176,0.20310707648071222,0.7187747241909738,-0.5664639250639322,0.9946796246711582,0.23079255331486515,0.6596350224357439,-0.5718493447253806,1.0283575521844277,0.11312304710498935,0.656008584829216,-0.6014138173033436,1.0160426894029249,0.2080360210870595,0.6421005583173756,-0.5650189412178742,1.0090464435221542,0.19280737028574657,0.6886552322954483,-0.6142483789618937,1.0151348727610063,0.1880540220156109,0.6159979264050652,-0.4958458369791609,0.9300546788050847,0.18379869514853658,0.6048158588334167,-0.5460056829611358,0.965077508247312,0.22869062152316247,0.6589730622073584,-0.5561810667107829,1.0124038341348855,0.1595162923562817,0.6670341232558477,-0.5129925024267373,1.0093104120922385,0.2782191136836819,0.6488519782173721,-0.4126788480576175,1.0110744568516832,0.09933047446782722,0.5775772244429567,-0.5105527568488446,1.0017793975571907,0.2845214965808761,0.7068357063435631,-0.37699452228544383,0.6374770687267675,0.05049252345924197,0.7265168992628298,-0.4187734392309125,0.747557819859836,0.29739242143740996,0.7976940120687576,-0.2673994902153587,0.5940106566506873,0.05589313020909024,0.780243320703601,-0.42076199628613126,0.8572847189214531,0.3457149070642981,0.7649082886022073,-0.3267958958729163,0.6025434629719322,-0.017087078106318647,0.8822125646791454,-0.4570117574959553,0.8573544121237068,0.26024263069148235,0.7739103004377225,-0.36209097980382715,0.5486416619510321,0.0006875946205521649,0.8545452740637375,-0.522298366704943,0.7924339282623466,0.3347805939987623,0.8260688280852658,-0.3025875290264441,0.6117349197303124,0.05863429034859565,0.7871259380738748,-0.45425896735810367,0.6566156498442983,0.41669038203323994,0.6630635687676456,-0.17430677000858036,0.9869817467807028,0.27769524573416304,0.6871400768798925,-0.2253035573422198,0.9681742698989104,0.6255978954183603,0.6797683020117695,0.04190576301494251,0.07171862176619316,0.46676769804070256,0.6625614621494932,0.03684225535290092,0.36973067533061926,0.760008934523468,0.7110072513547258,0.3043552381081837,0.23146223130472887,0.6475812813786557,0.6196484744323073,0.22594497940678177,0.4874676746115601,0.7830564306655748,0.6431846457027887,0.32708649463809414,0.2003619823256674,0.7321879774020656,0.6182221737117585,0.27332929617047436,0.3983184420590661,0.8081576792268318,0.6869745088142019,0.3247375139670423,0.3291814716889676,0.6539662554779706,0.7264657935959651,0.212926095809266,0.5261804267565547
24,0.1636189282477612,0.6987174745440526,-0.5695406803059633,0.9815444349351409,0.167629203915831,0.7194885512684354,-0.5649960289247354,1.0198132903970774,0.18395035333910512,0.7336715342457528,-0.5839328567796016,0.9964213916007848,0.21217917120053997,0.6754087956291033,-0.5896145240276609,1.0290863381760964,0.09111470523486173,0.6674716905077743,-0.619962504206337,1.0170909562905897,0.18546829085751498,0.6527586436635975,-0.5832660769164466,1.0105053268076767,0.16992638742460509,0.6981855977625199,-0.6323231585460442,1.0164747255709123,0.18408409464696662,0.6292222897320916,-0.49976393253624735,0.9322260760142521,0.16591527373721254,0.6109589519425476,-0.5545550536794326,0.9727492220763526,0.21152075136547702,0.6747188212176733,-0.5719653353800437,1.0134002449815955,0.13858799485680343,0.6811033228179204,-0.5302552166249995,1.0114033099842368,0.27817547449107494,0.6695321673500625,-0.41220249310313917,1.0110483500172716,0.08433191730007938,0.5767896682715394,-0.5151851921190959,1.0043434701661385,0.27935157405562927,0.7178536845349388,-0.38105850745314707,0.5869310186550512,0.020201110693266,0.7236101595510683,-0.42557300059149955,0.7434176812337374,0.29265872196686304,0.7993829096784683,-0.2760082279216727,0.544248765285636,0.03240085595855883,0.7801219060421936,-0.4380762789989117,0.8506597222593132,0.3394390793642891,0.7652528630536538,-0.33736346318470695,0.5607082145016258,-0.05679906769115944,0.8850531432352062,-0.4679141602613307,0.8484786844702034,0.25824456313083166,0.7744141385000088,-0.37081053229910016,0.5070957344264655,-0.035114680584461946,0.8604523327795578,-0.5343736896071023,0.7848125207534965,0.3312456745636093,0.8263317441733701,-0.3108361048208547,0.5704616238509483,0.024879125605515216,0.7924443413178933,-0.4657983070004739,0.6499104253302908,0.4116360607252885,0.6751532384720829,-0.1714111699224446,0.9875394078372213,0.2665047561881962,0.6861605937522985,-0.2192598232690577,0.9691033871016692,0.6268143837480868,0.6829198976042683,0.05006086431264626,0.06393848708830616,0.4602603794521832,0.6581429102276487,0.04227585145287413,0.34589427124545996,0.7633098244855616,0.709301128002675,0.31126470963471803,0.2166004985834002,0.6424452557895801,0.6164286315215407,0.23088796090301378,0.4506003540739929,0.7840515405996001,0.6413299279713128,0.3349186188124981,0.1873724612990561,0.7282027363788578,0.6154110398502167,0.27764600138734347,0.37223711843540885,0.810182433641543,0.6856601667922597,0.33069607224805625,0.2992991896703061,0.6412962982982078,0.7262398323876216,0.21806068742407833,0.4867138370672999
25,,,,,,,,,,,,,,,,,,,,,,,,,,,,,,,,,,,,,,,,,,,,,,,,,,,,,,,,,,,,,,,,,,,,,,,,,,,,,,,,,,,,,,,,,,,,,,,,,,,,,,,,,,,,,,,,,,,,,,,,,,,,,,,,,,,,
26,0.24944462046347987,0.6641516085505529,-0.4818839207143303,0.9822947382035735,0.24592651696937964,0.6840218206738004,-0.4829683952521217,1.0209809453882275,0.26297268146422426,0.7039899708683724,-0.502261313224956,0.9979587145988316,0.2904937715444778,0.6455639155250383,-0.5075606897679553,1.0297409163850197,0.1743658146624846,0.635430438848381,-0.5384950948707745,1.0179685750802623,0.2686276458395883,0.6231456256277088,-0.5016838704728116,1.0117302618624557,0.24940959339439628,0.6812085260004349,-0.5486750693094467,1.0176110285189104,0.23183253841449086,0.6010086099415948,-0.45031944622884496,0.9341956518962101,0.2290740047495311,0.5909684481545532,-0.5040885008856907,0.9794874675635656,0.28369035690447647,0.6349172236224585,-0.49436775616781653,1.0142823937242715,0.2158608238884603,0.6455628016730535,-0.4526386714117936,1.013225304765731,0.30120083372820705,0.6211364144432632,-0.3775441819142465,1.011072370689116,0.1367805829113058,0.5690624029135682,-0.48346066802067866,1.00662126166623,0.2917234710567811,0.6811968279980736,-0.35274374657758933,0.5437198565647496,0.08504789263805351,0.7119180528272829,-0.3952979612373971,0.7337864647077059,0.30086099019655055,0.7830179180135818,-0.25654270232240795,0.5007788594323646,0.10824188694753267,0.7657201125622741,-0.3948102888858258,0.8427268804815117,0.3506560221718361,0.7516668187421304,-0.31528351758546985,0.5231529967587057,0.039439082456638914,0.8707789632997509,-0.42766371594283786,0.8398335075826912,0.265166029516827,0.7633601591031888,-0.3510741222468456,0.4698852103442817,0.05572674543959087,0.840237953945787,-0.4910765439370487,0.7769816625229057,0.3369235573725416,0.8194711899550778,-0.2916475402834287,0.5352166225348778,0.10884611964175492,0.7707589198510659,-0.42606985408160875,0.6472308389197683,0.4093632688336688,0.6510263511506107,-0.1676210315598283,0.9884313317416402,0.2749494754369663,0.6920423800987341,-0.2265579912069267,0.9700218946776581,0.5706175381029197,0.6521656294348652,0.028653296126100937,0.05845360807142996,0.4371418744830184,0.665780172572009,0.014464388505759207,0.3383359254507822,0.644641833812595,0.716309561344655,0.2734143708982829,0.20401874783285845,0.5601730270890777,0.6483246266616164,0.1916380323413162,0.4375674110636627,0.6565639041216929,0.6572239237331842,0.29641174922153907,0.1754554215470495,0.6343984322825844,0.6499429311961945,0.24025005992744838,0.36109975214054807,0.6888966119910446,0.6898979974311452,0.29212358773630787,0.2740529271199521,0.5711122598623931,0.7577066740853144,0.1829251297791892,0.46655733434360613
27,,,,,,,,,,,,,,,,,,,,,,,,,,,,,,,,,,,,,,,,,,,,,,,,,,,,,,,,,,,,,,,,,,,,,,,,,,,,,,,,,,,,,,,,,,,,,,,,,,,,,,,,,,,,,,,,,,,,,,,,,,,,,,,,,,,,
28,,,,,,,,,,,,,,,,,,,,,,,,,,,,,,,,,,,,,,,,,,,,,,,,,,,,,,,,,,,,,,,,,,,,,,,,,,,,,,,,,,,,,,,,,,,,,,,,,,,,,,,,,,,,,,,,,,,,,,,,,,,,,,,,,,,,
29,,,,,,,,,,,,,,,,,,,,,,,,,,,,,,,,,,,,,,,,,,,,,,,,,,,,,,,,,,,,,,,,,,,,,,,,,,,,,,,,,,,,,,,,,,,,,,,,,,,,,,,,,,,,,,,,,,,,,,,,,,,,,,,,,,,,
30,,,,,,,,,,,,,,,,,,,,,,,,,,,,,,,,,,,,,,,,,,,,,,,,,,,,,,,,,,,,,,,,,,,,,,,,,,,,,,,,,,,,,,,,,,,,,,,,,,,,,,,,,,,,,,,,,,,,,,,,,,,,,,,,,,,,
31,,,,,,,,,,,,,,,,,,,,,,,,,,,,,,,,,,,,,,,,,,,,,,,,,,,,,,,,,,,,,,,,,,,,,,,,,,,,,,,,,,,,,,,,,,,,,,,,,,,,,,,,,,,,,,,,,,,,,,,,,,,,,,,,,,,,
32,,,,,,,,,,,,,,,,,,,,,,,,,,,,,,,,,,,,,,,,,,,,,,,,,,,,,,,,,,,,,,,,,,,,,,,,,,,,,,,,,,,,,,,,,,,,,,,,,,,,,,,,,,,,,,,,,,,,,,,,,,,,,,,,,,,,
33,,,,,,,,,,,,,,,,,,,,,,,,,,,,,,,,,,,,,,,,,,,,,,,,,,,,,,,,,,,,,,,,,,,,,,,,,,,,,,,,,,,,,,,,,,,,,,,,,,,,,,,,,,,,,,,,,,,,,,,,,,,,,,,,,,,,
34,,,,,,,,,,,,,,,,,,,,,,,,,,,,,,,,,,,,,,,,,,,,,,,,,,,,,,,,,,,,,,,,,,,,,,,,,,,,,,,,,,,,,,,,,,,,,,,,,,,,,,,,,,,,,,,,,,,,,,,,,,,,,,,,,,,,
35,,,,,,,,,,,,,,,,,,,,,,,,,,,,,,,,,,,,,,,,,,,,,,,,,,,,,,,,,,,,,,,,,,,,,,,,,,,,,,,,,,,,,,,,,,,,,,,,,,,,,,,,,,,,,,,,,,,,,,,,,,,,,,,,,,,,
36,0.29281960595070905,0.6257051821589513,-0.4231997060741045,0.9830657242837431,0.2777658299871343,0.6421906849239835,-0.43665061897501256,1.0221416862405832,0.2923925788178004,0.6563862444813485,-0.45450300624882234,0.999476248854813,0.3180029481752706,0.5875085146766497,-0.45869565368467097,1.0303848253625283,0.21211762317055707,0.6063500479182052,-0.4864099656513966,1.0188552537759412,0.3100101628565232,0.5994102812177662,-0.4516078636767919,1.0129560909869066,0.29740895769480047,0.6487342465967484,-0.5022972729463822,1.0187285560038044,0.21050971517414688,0.5477886359006097,-0.4309705061015184,0.9361036561801152,0.2454027336086882,0.5909295263215149,-0.4683335537072636,0.985779572284635,0.3162136065507103,0.5924672128459387,-0.44739080135762316,1.015128779680082,0.2586234393298378,0.6127213576575505,-0.40022848299158775,1.0149470445347128,0.26547073256914966,0.5499294275391189,-0.3439094112444711,1.0110828611065965,0.17045673601223704,0.6121879727339723,-0.48665061664813997,1.0087904535035408,0.26595178043804624,0.6020380450390892,-0.29578321882235575,0.4961020932838811,0.1407117299410026,0.7485977975477419,-0.38861655043500015,0.7525397548840975,0.3286185161098537,0.6966901864042373,-0.14449705554016035,0.45164406853499506,0.1836802547089063,0.7728254630566589,-0.3446719428716611,0.8527647198942009,0.3720787832821705,0.6504409657758218,-0.18345033995581927,0.48038854167867345,0.12420615727364762,0.8775439712724682,-0.3658847044936713,0.8529347277136116,0.2977640567571066,0.6711832448881009,-0.2184365505041022,0.4237926703185706,0.15111818148338757,0.8277406480757309,-0.4356310087884143,0.7897874224296745,0.36196610958264097,0.7358726358207089,-0.17303982881592953,0.49026089209664536,0.1882494639298624,0.7595713068406594,-0.37554235410875675,0.6680662981520986,0.39095055067539713,0.5989625284043338,-0.1475664871820685,0.9892363520739766,0.2677529595207292,0.6992100770515539,-0.23265254400125202,0.9708560020766449,0.525974364800216,0.5945495148184712,0.07925828992294534,0.05280489823780796,0.4145935125336652,0.6441292025898618,0.035813649280091314,0.3311113656668466,0.5610441805053004,0.6727982898679093,0.3125289727195221,0.20739564898260826,0.49305792974209567,0.6494826853049575,0.20750914407664062,0.46694299399708866,0.5639033447611748,0.6166626053356622,0.33817497389636675,0.2032676044503393,0.5592588399444423,0.6540102329463776,0.2589148336138121,0.39572143788388,0.625162364198967,0.6416222286742788,0.33779687616268517,0.249343136174899,0.5178413171391913,0.7547220907074763,0.20223001919947683,0.44186238495510205
37,,,,,,,,,,,,,,,,,,,,,,,,,,,,,,,,,,,,,,,,,,,,,,,,,,,,,,,,,,,,,,,,,,,,,,,,,,,,,,,,,,,,,,,,,,,,,,,,,,,,,,,,,,,,,,,,,,,,,,,,,,,,,,,,,,,,
38,0.1812291646672834,0.6913672681689306,-0.5254193619969468,0.9836086629930023,0.18642178206835344,0.7147169610355862,-0.522949568770108,1.0230203779138622,0.20273720911735063,0.7288578631336923,-0.541848310009732,1.00064998351973,0.23077045699347842,0.67071129396971,-0.5474120381761656,1.0308765636819253,0.1099605208495261,0.663923247190361,-0.5784300418436528,1.0195056000550855,0.20438287052501458,0.6500809049970631,-0.5417289664035962,1.0138723335863937,0.1892518023515795,0.6963466752619095,-0.590949455186739,1.0195698159601643,0.20106823585814654,0.6262264410763909,-0.46738266408958656,0.9376191042735296,0.18001989678148533,0.6063246312066162,-0.5228850789771509,0.9910061247710545,0.2262054399152403,0.6626328470012122,-0.5301979299851998,1.0157387736147132,0.1523373918085946,0.6708171108504521,-0.48854486832631494,1.016225802583724,0.2896283468837113,0.6573236459839431,-0.3850536699589913,1.0110905501057725,0.09374066393938968,0.5657592923140504,-0.49139558206800854,1.0102153621415413,0.2938061758757332,0.7069831682347374,-0.35732433156904764,0.4728394733116521,0.04141011948797905,0.7171562878240786,-0.40144418003139776,0.7532795081304049,0.2985574157996436,0.8005534256925674,-0.2671639830087935,0.4425780232507239,0.12049058044103023,0.7622718646527282,-0.4319761212117645,0.8541550578382316,0.3378309137010484,0.7595581160825234,-0.324365277748299,0.47723244593549413,0.06907938117060114,0.8538698408327099,-0.47722742054170314,0.8556394672842292,0.2570633369989529,0.7653582260053494,-0.35810315499635714,0.42370016390987925,0.07863688724915312,0.8160105135885788,-0.5366781934382979,0.7935034144035514,0.33258166910420967,0.8189964389594419,-0.29903635558388936,0.49220358628380967,0.12567357931019482,0.7490642000596536,-0.4656793224717259,0.6750899306784963,0.4130104047842898,0.6676082441178348,-0.15869583997940345,0.9896649094699117,0.2491200309782353,0.685701637987528,-0.22316779207115403,0.9714813740096281,0.6131819327311447,0.6661715884688313,0.05442783865665549,0.048598814522845965,0.4193846725939694,0.6611147382115049,0.03652598959021611,0.3390853346495432,0.7018072614848567,0.6987317939725236,0.31457349726666106,0.19663458171137566,0.5559175174916146,0.6209830820334731,0.21505771009258456,0.47047576129292606,0.7156152883985616,0.6300520735287164,0.3389708430968068,0.19115094874298,0.6350773097367778,0.6162393059940156,0.26277787053316765,0.3927057408814691,0.7487136550118131,0.6834155154746633,0.33960151452521736,0.23843971811078152,0.5606286371893389,0.7369238457543208,0.2078353813608029,0.45210082379978284
39,,,,,,,,,,,,,,,,,,,,,,,,,,,,,,,,,,,,,,,,,,,,,,,,,,,,,,,,,,,,,,,,,,,,,,,,,,,,,,,,,,,,,,,,,,,,,,,,,,,,,,,,,,,,,,,,,,,,,,,,,,,,,,,,,,,,
40,0.19942807118781802,0.7189649935603185,-0.5054232911284977,0.9841781853738311,0.20188479981056648,0.7438969513271817,-0.5029389064373112,1.023905328074842,0.2176140286862918,0.758635389989161,-0.5215010627839972,1.001811439627823,0.24500046464243674,0.7011437566619707,-0.5267019707604712,1.0313780175584208,0.12737285845009474,0.6911887958964157,-0.5581437426276668,1.0201709667047132,0.22247926920763406,0.6762484169370655,-0.5217961338556198,1.014801629603087,0.20808622807660299,0.7219146836847611,-0.5714013072358072,1.0204215067293596,0.20438377274572458,0.6557709137707879,-0.4483923437955131,0.9390729807688907,0.19644107737189254,0.6265943231507385,-0.5062135920621821,0.9959588535193762,0.2418529575139364,0.6885835768481665,-0.5118311935431579,1.0163594367807596,0.16890089484150858,0.6936022976180303,-0.46927446735107736,1.0175081965160666,0.29205911017303376,0.6752713197815505,-0.3692838677411693,1.0111137363125902,0.11595589719737887,0.5825534374213197,-0.47817444951241755,1.011695226262025,0.294768251434099,0.7199857426785545,-0.3327628076937875,0.4402409778282537,0.07136924637746073,0.7176015345205508,-0.384957200217884,0.7421604404614901,0.31436345710132235,0.7913139308919998,-0.23408567191972451,0.4135939534265051,0.12536019514627453,0.760170443296527,-0.39240367820879646,0.8459255041387382,0.3588940879799351,0.7527054296773416,-0.28940695434022456,0.4536473648350302,0.06541152309703971,0.865584060879707,-0.4280166836590625,0.8487262225599556,0.2838852315412151,0.7603606745641568,-0.3270286395020391,0.40097535664745854,0.08832157364302153,0.8303175952879501,-0.49217182849148194,0.7873813617340263,0.35668272615194324,0.8151536083014829,-0.27075128898199835,0.47120254534829326,0.1365897692781739,0.760761611596824,-0.4278570542713376,0.6681815139304494,0.40002844582451436,0.676835639175513,-0.16128678647257735,0.9903260441897604,0.2587209482683603,0.6934587652725317,-0.21879708390853608,0.9721405417761992,0.562721472714828,0.6646202583792622,0.04208155706923531,0.043269756948573865,0.43029672796273527,0.6555571415280027,0.03459674240735769,0.32390745889232575,0.6359789989222322,0.7076472779240922,0.2882440767295656,0.18522538843401665,0.5582452900481597,0.6298067152274428,0.20180400869318282,0.4520264846072113,0.6487145053241469,0.6435504394077752,0.31118285489248626,0.1786867234507742,0.6355869269936666,0.6282553639621552,0.24854250517663132,0.37689894671490415,0.6734361294916116,0.6816115212958913,0.30582961738055564,0.22286800466321072,0.5605351788137115,0.7421434244973018,0.19052864518837384,0.442249964157754
41,,,,,,,,,,,,,,,,,,,,,,,,,,,,,,,,,,,,,,,,,,,,,,,,,,,,,,,,,,,,,,,,,,,,,,,,,,,,,,,,,,,,,,,,,,,,,,,,,,,,,,,,,,,,,,,,,,,,,,,,,,,,,,,,,,,,
42,0.2009540524652702,0.7344359155535741,-0.5212862222014736,0.9846133588853363,0.20033145671080824,0.7547126313541898,-0.5222389206466845,1.0245202095903452,0.21637938421107963,0.7687440397198434,-0.5409673431828472,1.0026671239082188,0.2441734866779669,0.7106033118110491,-0.5463778359353779,1.03166483510908,0.12516356456353758,0.7050019935091781,-0.5762841252688664,1.0207102695306407,0.21927865594511925,0.6919981098539356,-0.5394034583772149,1.015609391749083,0.2046632573668538,0.7396479595751114,-0.5889309077662311,1.0211758035089924,0.1971126717695702,0.6685657660275628,-0.47855020890146743,0.9400759481265263,0.1836104335276555,0.6530918064042175,-0.5300937725626074,1.0004706271056494,0.2411335919853914,0.7057838084002905,-0.5299189521115086,1.016723084718534,0.1700131117766294,0.7148264983435857,-0.48726169070060843,1.0186087366771994,0.27400994449331584,0.6617085808861343,-0.3941783789229823,1.0109062525441272,0.0960620162062677,0.5982639104819276,-0.49946017837000606,1.01298614365857,0.3083279805614262,0.6777524543904381,-0.3514966550694991,0.402714757745017,0.0380481831445628,0.7038640944112978,-0.3907486798850237,0.7323701391385531,0.39037873098771203,0.7638118709554763,-0.20593750080356482,0.37076885062041376,0.07585226736073594,0.7635503246785156,-0.3603622071853184,0.8260294737127128,0.442150923780127,0.7171470867436868,-0.2519530399511521,0.41344826386380834,0.010775833037687456,0.8685318681917187,-0.3851655926580377,0.8251696324796943,0.36526885097610207,0.7341608569066861,-0.2824352947211739,0.3579532604903846,0.03248107967922974,0.8426460411993576,-0.44663125433688095,0.7602411019912895,0.425391997428049,0.7953422760756833,-0.23443895343200588,0.4291599323188133,0.08021508138401237,0.7728802491586221,-0.39009492380897887,0.6430502287398672,0.39168687218999076,0.6714280077782657,-0.15393255721005167,0.990488824474642,0.24963171057849085,0.7031459505600073,-0.2164428679184686,0.9726467640242766,0.5006414864825453,0.6563133974554951,0.06911599530788162,0.037399660563094864,0.3829292843119932,0.6426181652401609,0.058313225383279044,0.3160727561621469,0.580969292480348,0.6995027204480485,0.31696557013024107,0.17740756871947044,0.5011077505223657,0.6256861865294753,0.23310401741203507,0.4688445013747132,0.5933421009613046,0.6357350187801812,0.34071521496370316,0.1758776161471548,0.5768246167241893,0.6290574636668976,0.2804714075537097,0.39057979221394284,0.6212113487403633,0.6735319328826528,0.3322317608472763,0.2023034187390622,0.49561805909497136,0.7359138450486018,0.21767184581012425,0.4316796466509639
43,,,,,,,,,,,,,,,,,,,,,,,,,,,,,,,,,,,,,,,,,,,,,,,,,,,,,,,,,,,,,,,,,,,,,,,,,,,,,,,,,,,,,,,,,,,,,,,,,,,,,,,,,,,,,,,,,,,,,,,,,,,,,,,,,,,,
44,0.19228030091438703,0.7075474854350133,-0.5248872733947393,0.9848824738564971,0.19313427191012603,0.7294236322735318,-0.5228536787534911,1.025113096991926,0.20895872114830547,0.7437569977696176,-0.5414556994790454,1.0034674950782627,0.2366331234057571,0.6859204919677568,-0.5468230345190377,1.0319908725160012,0.11925283741443246,0.6784246400317001,-0.5778416695312584,1.021130780299531,0.2142938718224594,0.664357588327599,-0.5414615260903037,1.0162051997782577,0.19943435532175507,0.7105740059465714,-0.5908269823143668,1.0217371004488423,0.20186620532461425,0.6408915082722833,-0.46972441170209106,0.9411578320338443,0.1878262561841335,0.6160950245781982,-0.5214947876782151,1.0042340643767675,0.23555536463880314,0.6802934052249365,-0.5301058076973464,1.0170711162393777,0.1641943347433444,0.6878937819739568,-0.4875755440553937,1.0194002863598166,0.28150094476654586,0.663790749942073,-0.3821037995424612,1.0108551117589097,0.10419257198656989,0.5783323556876161,-0.4853460976213594,1.0131564341286934,0.2729927610011216,0.7134335828923302,-0.35124538107695236,0.3747929320976629,0.0675143758517757,0.7187192408193789,-0.3826407136793778,0.6967594037221407,0.3055157485223063,0.7911106194486709,-0.2561511310540391,0.34314910131278137,0.15046124534112018,0.7524134948254577,-0.3762346343245294,0.7881604971196953,0.35067167001868066,0.7483578072827798,-0.3107228941332924,0.39016478226590795,0.09854690271893007,0.8578423115930554,-0.40848307895545766,0.7927347517462043,0.27622611659242213,0.7574650213163235,-0.3437140132213171,0.3345984917373328,0.1209389349856984,0.8188023951498581,-0.472126852461153,0.7293254840484794,0.34422855443184847,0.814715454557739,-0.28847893798048757,0.40742974776375956,0.16369140835409582,0.748977832929374,-0.4115258011007537,0.6135380021582937,0.4005582941388033,0.6695005723801639,-0.15991052407021283,0.9902083250163288,0.2511240996118413,0.6896580750984289,-0.21614535653434883,0.972914686902542,0.5729715208268038,0.6562239308836872,0.0507475728944081,0.03430652222595956,0.3815825787997959,0.6565134384487791,0.03406492021128296,0.3244244099764627,0.6596682939902698,0.685806049915822,0.29644227861221867,0.16883531811484087,0.5193676836282282,0.6122461139930068,0.209264626592568,0.45911183774327397,0.6724934260622397,0.6196512418293451,0.32027511707225714,0.1652349237004461,0.5988354459094161,0.6093559828014191,0.2574195114438427,0.37995675439884885,0.7126582863742096,0.6618943644088369,0.31838077523091246,0.1906795742347058,0.528359425083182,0.7207720002991511,0.20316299123961487,0.42516059724491223
45,,,,,,,,,,,,,,,,,,,,,,,,,,,,,,,,,,,,,,,,,,,,,,,,,,,,,,,,,,,,,,,,,,,,,,,,,,,,,,,,,,,,,,,,,,,,,,,,,,,,,,,,,,,,,,,,,,,,,,,,,,,,,,,,,,,,
46,,,,,,,,,,,,,,,,,,,,,,,,,,,,,,,,,,,,,,,,,,,,,,,,,,,,,,,,,,,,,,,,,,,,,,,,,,,,,,,,,,,,,,,,,,,,,,,,,,,,,,,,,,,,,,,,,,,,,,,,,,,,,,,,,,,,
47,,,,,,,,,,,,,,,,,,,,,,,,,,,,,,,,,,,,,,,,,,,,,,,,,,,,,,,,,,,,,,,,,,,,,,,,,,,,,,,,,,,,,,,,,,,,,,,,,,,,,,,,,,,,,,,,,,,,,,,,,,,,,,,,,,,,
48,,,,,,,,,,,,,,,,,,,,,,,,,,,,,,,,,,,,,,,,,,,,,,,,,,,,,,,,,,,,,,,,,,,,,,,,,,,,,,,,,,,,,,,,,,,,,,,,,,,,,,,,,,,,,,,,,,,,,,,,,,,,,,,,,,,,
49,,,,,,,,,,,,,,,,,,,,,,,,,,,,,,,,,,,,,,,,,,,,,,,,,,,,,,,,,,,,,,,,,,,,,,,,,,,,,,,,,,,,,,,,,,,,,,,,,,,,,,,,,,,,,,,,,,,,,,,,,,,,,,,,,,,,
50,,,,,,,,,,,,,,,,,,,,,,,,,,,,,,,,,,,,,,,,,,,,,,,,,,,,,,,,,,,,,,,,,,,,,,,,,,,,,,,,,,,,,,,,,,,,,,,,,,,,,,,,,,,,,,,,,,,,,,,,,,,,,,,,,,,,
51,,,,,,,,,,,,,,,,,,,,,,,,,,,,,,,,,,,,,,,,,,,,,,,,,,,,,,,,,,,,,,,,,,,,,,,,,,,,,,,,,,,,,,,,,,,,,,,,,,,,,,,,,,,,,,,,,,,,,,,,,,,,,,,,,,,,
52,,,,,,,,,,,,,,,,,,,,,,,,,,,,,,,,,,,,,,,,,,,,,,,,,,,,,,,,,,,,,,,,,,,,,,,,,,,,,,,,,,,,,,,,,,,,,,,,,,,,,,,,,,,,,,,,,,,,,,,,,,,,,,,,,,,,
53,,,,,,,,,,,,,,,,,,,,,,,,,,,,,,,,,,,,,,,,,,,,,,,,,,,,,,,,,,,,,,,,,,,,,,,,,,,,,,,,,,,,,,,,,,,,,,,,,,,,,,,,,,,,,,,,,,,,,,,,,,,,,,,,,,,,
54,,,,,,,,,,,,,,,,,,,,,,,,,,,,,,,,,,,,,,,,,,,,,,,,,,,,,,,,,,,,,,,,,,,,,,,,,,,,,,,,,,,,,,,,,,,,,,,,,,,,,,,,,,,,,,,,,,,,,,,,,,,,,,,,,,,,
55,0.3029251126137927,0.5734221931338354,-0.41435661123517675,0.9852585791650299,0.2808306312631432,0.5950807830189236,-0.42787043983499745,1.0257869871057566,0.2941917009057065,0.606078553384089,-0.44503468705870686,1.0043472000305027,0.3192772123328947,0.5453995616775347,-0.4489816506610815,1.032287584437693,0.22562911355474033,0.5629333690127182,-0.47509812787178185,1.0216458240350355,0.3228519947427337,0.5578762150175098,-0.4399053296705278,1.0169342837931503,0.31064664476340365,0.6139695395082779,-0.4908227306814844,1.0223896520998432,0.2121385358971994,0.5197149674206902,-0.4372652994591726,0.94231469858429,0.27844377961514744,0.5687382402344787,-0.4549976240777557,1.0080302245978674,0.3218978430261578,0.5432504059573584,-0.44230412943892233,1.0175137999361243,0.2734942731398453,0.5712260344763982,-0.38949053176733056,1.0204276320171652,0.24476172294797846,0.5402330929386703,-0.35064547550651054,1.0108659598042589,0.21081222268996844,0.6202047378516176,-0.4710434407870883,1.0146656237344065,0.21954523028066122,0.5953013492726402,-0.30257575377236734,0.3468126640961065,0.1712557036927115,0.7564457027067385,-0.3760259376979764,0.7110685715840792,0.29787646557555697,0.6711683715810867,-0.12050024140717092,0.31072572427573303,0.20526513443902905,0.7693065836430542,-0.3163914832739149,0.7905902208593193,0.3381855121885891,0.6226415978711587,-0.15450933560897764,0.3621479170124594,0.14804401807024442,0.8744562122545239,-0.33031754984100875,0.7981006002874641,0.2726734521825903,0.6391719743650296,-0.1863923611789784,0.3032691281528144,0.1573266081853814,0.8392919686285568,-0.38829711942731965,0.7329247701278861,0.3359751555678669,0.7063484883101804,-0.14761762627037758,0.3763353456889458,0.192218587946707,0.7659218837182534,-0.33680563340937963,0.620229756022582,0.36493973584595885,0.6056399771538761,-0.15881793716488354,0.9908423992274497,0.29076510694070967,0.7092203791183569,-0.2197292502089958,0.973454943402786,0.4873270481807768,0.6007920880797322,0.059539296212267785,0.04453541687689566,0.4300962793868379,0.6445954897259397,0.04887289120389213,0.3103019238619608,0.5313033845542383,0.6851446171727494,0.2903505345668188,0.1967126041913866,0.5085335097446329,0.6553120195639907,0.2159667326178925,0.4768059533820069,0.5382575865724067,0.6377620535397027,0.3140253876452907,0.2146908942261877,0.5671054752901656,0.65601181652258,0.27022190462703805,0.4011583649640344,0.5933305817602176,0.6379501653236013,0.32053566894751534,0.17757386885426601,0.5291124197639444,0.7400693020684077,0.21021348538450133,0.39571256486576184
56,0.1601649596159876,0.6780270930171056,-0.5522842450756095,0.9835857152047637,0.15731254826555288,0.7006919881199368,-0.549544943941272,1.0233594687379892,0.17224782845266803,0.7148283602650399,-0.5677523993843054,1.00148325645369,0.1999482661082715,0.6565593035560442,-0.5731434247244304,1.0303310619729409,0.0863109076526529,0.6491631105860519,-0.6060749242223202,1.0204444924195875,0.18126623520510898,0.6349081850416187,-0.5697225525589864,1.0158227167727343,0.1663971211351949,0.6807848561853714,-0.619198471109757,1.0215556043055012,0.16124266994554226,0.6078607599049737,-0.49862646211205036,0.9398221515490727,0.1569173401913796,0.5950904669686401,-0.5539408635558907,1.0085630901221594,0.20219718330126382,0.6480444909831458,-0.5580880273750247,1.0163127067392557,0.13139365277878381,0.6544917562743413,-0.5154390692306707,1.0194885012340842,0.2560422709369151,0.6297398084747878,-0.41692476825578634,1.0107518765141588,0.0735432312954743,0.5758470804190614,-0.5178427273148439,1.0154458485345161,0.2533664899210346,0.7047683192395287,-0.39409839190784635,0.324115930621375,0.024020958283498185,0.7505972949613772,-0.4163891955185938,0.7045366773770785,0.2518266642116543,0.7895785416593643,-0.297659933248271,0.28431511479201416,0.05396024391374663,0.7925093009472839,-0.4257226960956028,0.7906163872983757,0.29551653260027266,0.7541947113316995,-0.35809352080866924,0.3384753660957877,-0.01616031686216484,0.8967545482835766,-0.4640040115202223,0.7978443003149299,0.21705930220449957,0.7588946387212613,-0.39180900395468143,0.27901730949589304,0.003329141700988511,0.8598159935919357,-0.5311380739305338,0.7335811960807975,0.28948135805044356,0.8103009557517392,-0.33075488764544453,0.35252114433396525,0.059605625750635625,0.7909669209878457,-0.4610967549760892,0.6202220074187612,0.39742552257230507,0.6594953367081668,-0.1570423507735544,0.9906403990863056,0.25157698055930644,0.6945771272224524,-0.21756039013360123,0.9738006503424834,0.5751752539058024,0.6585219879630024,0.08000811006965605,0.038715984439475756,0.427299593099814,0.656270370707385,0.058676194749206545,0.30390571962879126,0.7158810531538633,0.6881321807828263,0.3677197800667384,0.18592447641142595,0.5764520000914537,0.6210447728408156,0.26910198091411464,0.4797967952475464,0.7373628046512912,0.6298370795750116,0.39334102755708417,0.2023659500876608,0.6579643807653638,0.6152174439639863,0.3181013681539244,0.40091830725720146,0.7490397308874842,0.6623452139419179,0.3869176218858492,0.1680459322764691,0.565771310010809,0.732423635469134,0.2529791352007002,0.40471924392383685
57,,,,,,,,,,,,,,,,,,,,,,,,,,,,,,,,,,,,,,,,,,,,,,,,,,,,,,,,,,,,,,,,,,,,,,,,,,,,,,,,,,,,,,,,,,,,,,,,,,,,,,,,,,,,,,,,,,,,,,,,,,,,,,,,,,,,
58,0.20520550481462912,0.7083894010424657,-0.512101429411954,0.9832423924508575,0.20555271306337272,0.7298713823650845,-0.5087034690316338,1.0231336863435803,0.2209629519737745,0.7441722037251229,-0.527112810918396,1.0013837763015598,0.24860948410296668,0.6861214192252947,-0.5324764406951633,1.030193554057444,0.13037454997458273,0.6784155801256943,-0.5656751759485011,1.0202533999284376,0.2258217403648441,0.6644632673627857,-0.5295140105347693,1.0157868943812243,0.21171244234330816,0.7109149445146866,-0.5793233829907016,1.021496953335042,0.21015324545970107,0.642007724454992,-0.4561584702686558,0.939701094515534,0.19559984438392064,0.6224651517792785,-0.5200306966548726,1.0103118307952246,0.24795276855463802,0.6794520260592871,-0.5183705352200005,1.0158160212343423,0.17489707798219714,0.6876356938620793,-0.478521977334598,1.019168245477706,0.28863118568578483,0.6662746543037978,-0.37825283516238944,1.0107671353032213,0.10593247773046793,0.5762761146521547,-0.4926072947548823,1.0160518489579475,0.2883099830535405,0.7115642620228844,-0.3512262258851011,0.30266916615222833,0.04129310098840009,0.7030609814275942,-0.4046944764684223,0.6793946633504366,0.31187792713326506,0.7963718618383498,-0.24718858814583977,0.26090592699828247,0.061338357361150654,0.7630380823613159,-0.4042940711374614,0.7577682675626579,0.3572209486972239,0.7581063257497292,-0.3007394046152555,0.31687765286374725,-0.007264728906706923,0.8681242916307446,-0.4370371645835639,0.7632619238348274,0.2834442402279523,0.7711355254094937,-0.33679857635807153,0.2568110328406959,0.013648248224494383,0.8402161386457992,-0.49913150797182226,0.6990592587104972,0.35204302080347266,0.8281017637046201,-0.2819881485018338,0.3310036291514702,0.06526656567090686,0.7710410882394326,-0.43576878653742085,0.5840881816398,0.39391434742871645,0.6839518973198917,-0.1584410103832313,0.9911245676158162,0.25608594081344294,0.6996064479393103,-0.21690087896162474,0.9741433174452973,0.5401215160094897,0.6703004022124226,0.06512921489002096,0.032822977518661256,0.4283173122177664,0.6485975243900938,0.05815888421000989,0.28373300444171845,0.6292178910558799,0.7119923969235734,0.31711870588121527,0.17468076052912468,0.5750649732579108,0.6226993977797805,0.24260608607360812,0.4471977931246674,0.6437979914812106,0.6500614123844598,0.3397593500276464,0.187619284133071,0.6541346748214384,0.6232142415256318,0.2899958424907839,0.3782044672494195,0.6587685733564842,0.679501099638329,0.3279973430539254,0.1537875475718792,0.5709334423720562,0.7320746502739741,0.22860060170595678,0.38142878858249774
59,,,,,,,,,,,,,,,,,,,,,,,,,,,,,,,,,,,,,,,,,,,,,,,,,,,,,,,,,,,,,,,,,,,,,,,,,,,,,,,,,,,,,,,,,,,,,,,,,,,,,,,,,,,,,,,,,,,,,,,,,,,,,,,,,,,,
60,0.20016558403585943,0.6927183266520544,-0.5119983291852996,0.9833360313477995,0.20281409334366887,0.7137137552593716,-0.5102809097099679,1.0235480578340586,0.21899638283405445,0.7278274776394601,-0.5291096849272462,1.0019930549804539,0.24737874270014,0.6694136412483049,-0.5348764383752393,1.0304843055146584,0.12642331553596806,0.6613948777636337,-0.5655585418261,1.0204472342332471,0.22071439484716648,0.6459638929731373,-0.5287645914631205,1.016049393236815,0.20528349833710147,0.6907526005358048,-0.5777995886009988,1.021724404659505,0.20977518813638463,0.6228401819974114,-0.45854883009678266,0.9405501626803593,0.1927167903093145,0.6014959397240722,-0.5146691528133402,1.0122724063758213,0.2432002340162758,0.6665914894839697,-0.5182482698727464,1.0159373762911048,0.16925837715325284,0.6719856599112737,-0.4761651175828776,1.01940070359233,0.2897834926406357,0.6585231298554031,-0.38019596174054127,1.010722908656798,0.10683943658431871,0.5674375802969911,-0.4828417137756873,1.015877922604493,0.2867482252232091,0.7164387298726158,-0.35113169424967805,0.28590604526256463,0.06769371137189165,0.7204163042654238,-0.38912524225174816,0.6650606999562716,0.3039177959077044,0.7952540363302322,-0.2562238344052142,0.24456292944731808,0.1499675400014525,0.7569983437062255,-0.39526752077955124,0.7390981854703728,0.34449780724936346,0.7531296955388528,-0.31132928332660975,0.3031605677406851,0.10872429560031932,0.8505236956796642,-0.4386227821422046,0.745976874873188,0.26717013204211615,0.757385031883035,-0.3458543437579082,0.2441622119636207,0.12306281269556373,0.8149321463553024,-0.49827960664861265,0.684203635465258,0.34154296094551034,0.8130034303458554,-0.2897025352090104,0.31996022957909775,0.16471530778267643,0.7501761843125833,-0.43231040332654264,0.5696897856246328,0.40409869563657835,0.6714219877091434,-0.16120910699252433,0.9910693141101095,0.2535432694655301,0.6900205309433081,-0.21817086426260843,0.9742877991042327,0.6025309829616683,0.6774238725188191,0.052116504481492555,0.030066434061153155,0.4213164340774667,0.6651060440395994,0.04018966260063517,0.2855252565054697,0.6976248661588602,0.703755154224904,0.30552092965208005,0.1664685964847445,0.5796915412496536,0.6199685513747512,0.21676431877288266,0.4333966952547943,0.7130416156114479,0.634023173382232,0.3287245037053408,0.1755547675887289,0.6611743204843512,0.615232106706601,0.2646090493373584,0.36702624197056516,0.7445043033747739,0.6872118545096975,0.32765596879087194,0.14831199668191042,0.5929242263453874,0.7283909640175654,0.20932565487378121,0.37938059417408093
61,,,,,,,,,,,,,,,,,,,,,,,,,,,,,,,,,,,,,,,,,,,,,,,,,,,,,,,,,,,,,,,,,,,,,,,,,,,,,,,,,,,,,,,,,,,,,,,,,,,,,,,,,,,,,,,,,,,,,,,,,,,,,,,,,,,,
62,0.19913965059790673,0.6384707685351415,-0.5095379177262483,0.983934104353476,0.17912214955871567,0.6564155122135648,-0.5121442799135646,1.0243750722803169,0.1937211400245614,0.667832601254725,-0.5300558698532581,1.0030033537093967,0.22013317415879474,0.6076499970298601,-0.5347084598953876,1.0309693681138405,0.11063752376551797,0.6177550390681076,-0.5647058225597157,1.0210526982148755,0.20588042096498205,0.6097444749242786,-0.5284767323995804,1.0168148360850207,0.1916958262438943,0.6628784288019486,-0.578320129698057,1.0224040764238789,0.14756720499795634,0.5709939162045647,-0.49237148171639605,0.9417248510195927,0.1617276618188972,0.5973605098649108,-0.5358581385269485,1.015259552753385,0.23129053258930296,0.5972174050113135,-0.5265283831970639,1.0165675762003152,0.1682706999184951,0.6205475071212041,-0.48178744621104386,1.0204599973392785,0.23422971925115577,0.5794835561859695,-0.39512837150301333,1.0107555720021348,0.09395156735797106,0.5898669273352601,-0.5309622192010744,1.01710470540326,0.26696596368431047,0.6318624211453514,-0.33951527874177123,0.262230737631072,0.05444786744548661,0.7213430968870364,-0.42439047535667834,0.6797525892423129,0.3285937335252487,0.7321762885084243,-0.20082961161367285,0.2193006630498419,0.07476265006951216,0.7546225025654785,-0.39716778893533217,0.7529933394697014,0.3722610649781651,0.6893456326764565,-0.24627674795601615,0.2789315478603903,0.00450538368170212,0.8555565926752087,-0.4251144267443492,0.7585673428030281,0.2925543772019963,0.7086689040105679,-0.28327973171290977,0.21774364525982431,0.01526409917712411,0.8259232428518845,-0.4898797343838802,0.6952211368194755,0.36085293509121436,0.7702978944571836,-0.23143639438821256,0.2938157846366234,0.06804998803149814,0.756092958585502,-0.42487083694372657,0.5820653192054128,0.39685554296307785,0.6307227441636112,-0.1538382116687948,0.9916280480502341,0.26768313573369273,0.6976043875259497,-0.22949412190394564,0.9746964485488129,0.5467884132868841,0.6303561110976155,0.08571370232622852,0.02687815926037576,0.45776939122238053,0.651162252650134,0.0667427561793773,0.27470603000209753,0.6429213747645226,0.7087540169682817,0.3544726957380304,0.1628339723015665,0.5904710659267766,0.6534943163169203,0.264483683983882,0.4476516526923096,0.6545136733549507,0.6544905739330743,0.380516004859823,0.1764531436959448,0.6653111456151604,0.6595341530055817,0.3141442976095241,0.3711808049206994,0.6771434799913468,0.6735632253211599,0.3618692246397836,0.1354559155537899,0.5828382258085514,0.7579067072731807,0.2421428124507282,0.3660788342158137
63,0.14870864917973847,0.6229869123339696,-0.5547554220764886,0.9836508630815031,0.13884669254940776,0.6404312750195035,-0.5558603316783716,1.0242566974557932,0.15392794586026723,0.6517166974003549,-0.5740633180079239,1.0031141587440342,0.18083536764187952,0.5923403056007219,-0.5790140977811818,1.030934499396647,0.06475724593809626,0.596197827192192,-0.6123554351344106,1.0208974877198804,0.15926982997938216,0.5864431715375904,-0.5757144766012225,1.016803809225737,0.14538091429793232,0.6361888397783585,-0.6256553351063282,1.022333742943044,0.13271346477862445,0.5590496818333794,-0.5153137989638803,0.9420658491923527,0.12371760986613135,0.5605142893715942,-0.574271418716327,1.0162256844405495,0.19088692017567874,0.5921787859698706,-0.563491892397501,1.0163034084146707,0.12004467138172062,0.609382067038654,-0.5226691255023218,1.0199889418316184,0.22424760718210351,0.576572584544429,-0.4313650026893772,1.0107642146756273,0.051738181836979924,0.532316377828119,-0.5312790869905994,1.0174819432000437,0.25114312047058185,0.6350264741086082,-0.38117421681927555,0.2481943206236257,0.010832352502362174,0.7053762642492495,-0.4205426571559877,0.6891911635564303,0.28315770427792136,0.7491518105497451,-0.2710267388633938,0.2009945418197165,0.07632739548758619,0.7584550216198913,-0.4462712836120848,0.7671682776716057,0.3306433588467239,0.7053976999562722,-0.3291024313790101,0.2635068790714804,0.034036809149321674,0.8561529967508312,-0.4997487179407003,0.7750691867323188,0.23914936287597902,0.7268729969899991,-0.3632611456552745,0.2018468331784873,0.043994690237035936,0.8222294834105087,-0.5575355095279114,0.7118694293609794,0.31091770000420477,0.7819648480208737,-0.3008737047127484,0.27924298543084336,0.09103865015672599,0.7541242767732156,-0.4839035783626701,0.5993682495604848,0.39727293720398654,0.6180801221695926,-0.1562852096146095,0.9919652315257285,0.2574376014658196,0.6570354993385412,-0.22156904551527817,0.9750012070975492,0.5567044771004421,0.6180344601157124,0.09975278611874802,0.02423353097401406,0.44473928236505805,0.6372170307491941,0.08397489136640007,0.28144987832591956,0.6555583607065811,0.6880781193700151,0.37674850129584636,0.16095319988974327,0.5822220952286958,0.6293500244391738,0.29141407108343964,0.46551427066182255,0.6688697256498303,0.6299971180462335,0.4034931731091983,0.1734626147547903,0.6603006421022223,0.6331843700618561,0.3420247188946681,0.3806414031510614,0.6842201366809083,0.6575819087546926,0.38332538430056023,0.1370624693467434,0.5732020759529821,0.7422560176712825,0.27689621493317623,0.3802487954298793
64,,,,,,,,,,,,,,,,,,,,,,,,,,,,,,,,,,,,,,,,,,,,,,,,,,,,,,,,,,,,,,,,,,,,,,,,,,,,,,,,,,,,,,,,,,,,,,,,,,,,,,,,,,,,,,,,,,,,,,,,,,,,,,,,,,,,
65,,,,,,,,,,,,,,,,,,,,,,,,,,,,,,,,,,,,,,,,,,,,,,,,,,,,,,,,,,,,,,,,,,,,,,,,,,,,,,,,,,,,,,,,,,,,,,,,,,,,,,,,,,,,,,,,,,,,,,,,,,,,,,,,,,,,
66,0.10454012014164,0.5026085372805639,-0.5991867918352802,0.9827589391770843,0.11261939848612748,0.5200126668308743,-0.5902197716148475,1.0231429250635202,0.12814620814036196,0.5353084983284707,-0.6087146811145535,1.001119966143784,0.15542527353081997,0.4783971460204912,-0.6139163823198168,1.0301970111268413,0.033266156358853015,0.46648727211559293,-0.6490021143717982,1.020035664161073,0.1270498148203904,0.45150612357921643,-0.6119018844937596,1.0156979642512192,0.11081393230117027,0.49658722172682945,-0.6605558400054536,1.0214769261743977,0.1406167024769896,0.43941949408351677,-0.5097856366881934,0.9387698315455631,0.10733000856852111,0.4118292214795195,-0.5785823296481278,1.0108619816665014,0.15699143938208485,0.48576059358324347,-0.5966480639121461,1.015155363351652,0.07697604431131991,0.49270674975120904,-0.5573032841647669,1.018154549284011,0.220639812471269,0.5264175409424392,-0.40821353478434275,1.010708305518828,0.014502630060424015,0.43763714141607063,-0.5450367424482437,1.0154558621148384,0.22267332821524652,0.6412201715611534,-0.4377703073782473,0.27642595631336114,-0.039551077610971284,0.6464393703092776,-0.5050263933014545,0.7054709801839327,0.18455014272496964,0.7626136983862014,-0.3710821592068912,0.22370462673487757,-0.018766488085477616,0.7492384150029174,-0.5455440095708486,0.7811325730588737,0.21627547656959964,0.7288578497212869,-0.4312053759404992,0.28189358578134216,-0.07615725661445077,0.8608355376443859,-0.60300270464588,0.7875285840482978,0.13115870180769942,0.7467469736974576,-0.4653091402040516,0.22207797581860111,-0.06156949637424726,0.8226228740660263,-0.6536748906922034,0.7237914311996635,0.20917977680513056,0.8033261990340573,-0.4004683580446942,0.29837011593926616,-0.006432958845458282,0.7511082817475808,-0.5787862528262198,0.6086703888427114,0.38604002692276024,0.5839461514321354,-0.14903302673344876,0.9902293058512899,0.24139722388463478,0.5931396777671911,-0.2141011558585075,0.9731098921141814,0.5241240782234301,0.612485148477834,0.10172380643139842,0.023600041633470258,0.4038722305667098,0.5919646479939146,0.08038449611174228,0.28970583688304846,0.5927203355557888,0.6653918763127641,0.36426683250520947,0.16238940360792867,0.5187571182848129,0.5944017350447951,0.2753780727095231,0.4741925281271851,0.6037972724953721,0.6056311564945672,0.3871604904937566,0.1663892123500052,0.5890499597222779,0.6023530330867585,0.3252191677922796,0.3914633714680932,0.6076659791071591,0.6475618315261464,0.36124607319788804,0.1505116315915402,0.5087105679642456,0.7306124291283442,0.2337454704023966,0.40328259317081555
67,,,,,,,,,,,,,,,,,,,,,,,,,,,,,,,,,,,,,,,,,,,,,,,,,,,,,,,,,,,,,,,,,,,,,,,,,,,,,,,,,,,,,,,,,,,,,,,,,,,,,,,,,,,,,,,,,,,,,,,,,,,,,,,,,,,,
68,0.01700591041058737,0.500525891387467,-0.6755587197197854,0.9830726980271819,0.029126645988868695,0.5189404984806546,-0.6660732167657805,1.0233084471620613,0.04522305546239194,0.5338741125519509,-0.6848615122523437,1.0010968991462559,0.07298749572521385,0.4766572268348528,-0.690333679420042,1.0301985608476052,-0.05140457811962149,0.4655189946612167,-0.7257372585527145,1.0203059116204847,0.04308105596171363,0.45023684266872444,-0.6890231973286629,1.0159849606158127,0.027593218845071946,0.4950580049604721,-0.7380957965836518,1.0217346566584065,0.07591568107625596,0.43607117336093676,-0.5717551004298316,0.9374809407069401,0.03951168960835484,0.4080566945000731,-0.6454990239475937,1.011703360832151,0.07517794660879493,0.4801801683207923,-0.6662788865411059,1.0150084379022803,-0.004080731133424753,0.4863860944052923,-0.6293378338130063,1.0184473272991477,0.18481949337529877,0.512534486686,-0.4570798791919329,1.0107041927983385,-0.050649886794836785,0.41155724830388796,-0.6012465329525654,1.0157146654824531,0.20069294366825957,0.6104623271130638,-0.46900172310519517,0.3085125671074285,-0.1399872963290462,0.6081480948080263,-0.5533361602919183,0.7280061254666781,0.18688865810675936,0.7512902463903518,-0.40587844118784844,0.25877842860999206,-0.13315807205113653,0.7204853131772033,-0.5956364740875371,0.7985387386586967,0.23001608336982868,0.712436710481022,-0.47611777127047167,0.3145878510277335,-0.21774260115256439,0.8405765149316784,-0.645619196348352,0.8047083116026191,0.13685267358492623,0.7119016811292508,-0.5114859925761351,0.2575299542636542,-0.18586029650839414,0.8100939181295944,-0.7094759337216057,0.7408700692764457,0.21223737524529096,0.7922091579230649,-0.43789070463179036,0.33228423494446946,-0.12508120271301784,0.7423998643319619,-0.627694917310769,0.6275601736556387,0.403596513895008,0.5611127445069339,-0.14818807294317715,0.9869091483233663,0.2378237930895466,0.5693784053367712,-0.2224580046300369,0.9711128384909821,0.5790807298488947,0.5930790086272175,0.1422119743627225,0.02551205060444616,0.43134330401190185,0.5712630607937498,0.1020693401631109,0.3120256901888651,0.7058644104798157,0.6538553973164872,0.42743934212141393,0.16158253553160418,0.598401769417731,0.5756256758940993,0.32822219172139017,0.4889495056853211,0.7214693026001964,0.5933502750896905,0.4532885675373568,0.1606233272353354,0.6723875364342102,0.5776323642940339,0.38183566961509435,0.40417182679226615,0.7249353065388816,0.6502337289374929,0.41856300182775125,0.16319125316880312,0.5755256417259641,0.721099766240771,0.28181167374186417,0.42472652641933545
69,,,,,,,,,,,,,,,,,,,,,,,,,,,,,,,,,,,,,,,,,,,,,,,,,,,,,,,,,,,,,,,,,,,,,,,,,,,,,,,,,,,,,,,,,,,,,,,,,,,,,,,,,,,,,,,,,,,,,,,,,,,,,,,,,,,,
70,-0.08433606270204229,0.5212073918223424,-0.755862161532917,0.9836850761476043,-0.0735062624132777,0.5400909682606229,-0.7458476377961992,1.0238749297060068,-0.05682521022979112,0.5549991609509225,-0.7649032598923636,1.001771146887955,-0.028674551175026104,0.4981922657829119,-0.7705739568033596,1.0304487811463723,-0.15533930221874834,0.4859588578661728,-0.8030827701496545,1.020848731120454,-0.0621286673687339,0.469929561651421,-0.7656513300898626,1.0166661224963058,-0.07874037353854872,0.5136117983908005,-0.8141447605826151,1.0223222392466023,-0.005330513382386715,0.4559210101872613,-0.6370233048152615,0.9377390288188175,-0.04216454945356833,0.4303968133851134,-0.7016921999163006,1.0144340880278906,-0.01744466711396988,0.5001232268115454,-0.7393859914854753,1.0151928546732156,-0.10001607475020954,0.5059274175902593,-0.6981750231753592,1.0192496058178244,0.15426211396730147,0.5365062827217666,-0.49890026595877873,1.0106903645207506,-0.1118008397116359,0.4362718672251679,-0.6386700491643411,1.0167580447892464,0.20498852824186892,0.6180958939694481,-0.4711060520092498,0.3234128342316045,-0.2044573935523826,0.6277296511282168,-0.6025340133758575,0.7518085847066378,0.2338820683338911,0.7580917324056716,-0.38425130651697703,0.29073584633650873,-0.2335525847543828,0.7581157519818298,-0.639860452899482,0.817274862697393,0.2811823011123059,0.7168062673848611,-0.4492885750004508,0.34858905241895355,-0.32049300372450346,0.8753170821390148,-0.6915964925398498,0.8258417344541816,0.18904338807868995,0.7344141766469815,-0.4894068717539892,0.2962901693076758,-0.29470769297708826,0.8458647516218735,-0.7557994997381978,0.762819837342852,0.264303340601002,0.7936840152533872,-0.41929601762342217,0.36943741935837937,-0.22424316742552483,0.7722623278062356,-0.6742281296743705,0.6580302468787527,0.4093493922816186,0.5958525964585331,-0.14762410897683304,0.9845704408763143,0.22762720086902383,0.6078715021652319,-0.22041680761806806,0.9701440245948029,0.616387813246716,0.6193765182974751,0.17193706565584108,0.02729402086697366,0.4599225769071502,0.6030592181538267,0.13117273450949854,0.32804428946063935,0.7924223774783057,0.6811351915326432,0.4943385324654473,0.15883730205544228,0.6712690737774155,0.5915913164389907,0.3928709965982761,0.4978649300322449,0.8138076705901564,0.6218422489666436,0.5236755449988643,0.1529831591645422,0.7547516495612773,0.5902167525501069,0.4487220905486901,0.4164953851228021,0.8107518697189325,0.6708963943046193,0.48996260483735293,0.17257695816300472,0.647023516152651,0.7362947187287165,0.3595322477199469,0.44538317171733965
71,0.0210887419810344,0.5856891270518346,-0.6594485623364532,0.9842744468751433,0.02381008154919343,0.6069549223278531,-0.6566028174822526,1.0242650421060617,0.04045422516372213,0.6213480116780038,-0.675595385712633,1.0024107643310398,0.06896416287659929,0.5635102541786028,-0.6813593064465552,1.0306022035020241,-0.058403562206590244,0.5544690922220993,-0.7147418278021471,1.021330157836305,0.03494607678764533,0.539684519804192,-0.677515793408973,1.0173109255434862,0.018658844196227445,0.5853856552690812,-0.7262282140702918,1.0228767412569477,0.05338575312353422,0.5195212523251702,-0.5839438994233432,0.9383238099887089,0.009496836498387187,0.4916860642357909,-0.6531826826979922,1.0170907266501747,0.07419395032142526,0.5617757083674841,-0.6552309866540409,1.0157543304269996,-0.006425262044501256,0.5679237583419072,-0.617368030192202,1.0202516791057885,0.1766244802507089,0.5626962656128494,-0.47901013605472714,1.0107017490079029,-0.07277897989712734,0.47415356940984504,-0.6005262342514692,1.0178775988320625,0.2397800898324781,0.6284967256688194,-0.43918027256235165,0.3439713702843084,-0.16130583070145774,0.6431834069837771,-0.5427796053256994,0.7734573493169283,0.27636021041303926,0.7597572649946304,-0.34268674091564877,0.31815535384001825,-0.16867243917624328,0.7642320826054565,-0.5752387504559049,0.8341106714513603,0.32621758233433445,0.7194549785893899,-0.4058117875945291,0.37230931685376806,-0.25682652564715697,0.8843837234697338,-0.6188030658667402,0.8447020149679451,0.23784863898356742,0.7375959321897366,-0.441776646597703,0.324824581691709,-0.22487975351048062,0.8468379166571213,-0.6904480829796553,0.7824767935386833,0.3090648314775974,0.79460144994577,-0.3754319949239907,0.39787291783440776,-0.1594106785700755,0.7748150159280313,-0.6108257283722712,0.6856262437354421,0.40491514674294143,0.6387315222588565,-0.14019647158856216,0.9834611984370443,0.2179975889102007,0.6523203547042944,-0.22014603496888308,0.9705552370391081,0.599864283723494,0.6337595363142903,0.18166686496009674,0.02451173937879346,0.435205751506161,0.6192749597881956,0.13265201954415018,0.3392759205012125,0.7823518584101465,0.6826380034413652,0.4944046074091762,0.15489320310600987,0.6282515958322414,0.6136402070296584,0.3771460281097686,0.5131808799490845,0.8029541817711908,0.6224863963627313,0.5246769400721608,0.1513135287562552,0.7073744181961408,0.616134103795987,0.432479802807762,0.4331912123685144,0.8187484408225673,0.6709393096488576,0.49948943112589267,0.17125102303765383,0.6182258770530169,0.7413739285332515,0.34689503483251816,0.46036420313518633
72,-0.002585198048372527,0.6369408365130468,-0.6995506810482582,0.9846899508538727,0.0002408127650056829,0.658967246661044,-0.6971778156206765,1.0241614492334423,0.016341456137539203,0.6733893038685556,-0.7158588421635931,1.002710039252457,0.04439789834507018,0.6153404267173601,-0.7213571023177199,1.0302703844445595,-0.08418187500320404,0.6078880861719894,-0.7588743221089579,1.0216392079194654,0.009430875746377354,0.5941406345731739,-0.721837740856803,1.017823406279265,-0.006743914819719907,0.6409128059000321,-0.7706472276064807,1.0232600587274983,0.03484257940180557,0.5695330659657647,-0.6150204426072753,0.9383410357310491,-0.02155621540087864,0.5476029100342834,-0.7013190816402963,1.0194419510726294,0.05065200305000587,0.6114393712779456,-0.6926228306860511,1.0157380583589761,-0.032390664046855734,0.6184199789305913,-0.6600035088246133,1.020880925340682,0.1495448748110468,0.5756808990585891,-0.4927903856056239,1.0106625291516405,-0.1175436276034656,0.5139250666594484,-0.644372073735218,1.0188752017716685,0.24981714709510824,0.6371377898358421,-0.43467974076630156,0.32994627815936944,-0.19743561989569167,0.654095706139966,-0.5629844798043591,0.7927780757115817,0.31267365140111536,0.765214964293489,-0.30707001884780827,0.30918017583670715,-0.18181192984452885,0.7656799986363403,-0.5833074690492575,0.8490193428304497,0.3692827030620275,0.7228697882932168,-0.3647336606073583,0.3674142555992667,-0.2610342617788136,0.8836085054597851,-0.6276444568455813,0.8614196873159675,0.277610899646668,0.7419061824720242,-0.40221904860099156,0.3219118517131476,-0.2304749611826588,0.8471376684156967,-0.6963034737738028,0.7998107183090385,0.34386927180149546,0.7980584597380979,-0.33872111968193747,0.39623420733559794,-0.1676992999098085,0.776394300596,-0.618832474046576,0.7091103545676565,0.4134200870885501,0.670240146812537,-0.12981697804004855,0.9816642376063557,0.19380420683233998,0.6815300877136328,-0.22182494268421052,0.9706424982390592,0.6376735228666006,0.6490959902289326,0.24241328390625375,0.019680108642204062,0.44180789163251116,0.6261475541447324,0.16766203893825904,0.33893969070003455,0.8724555651563668,0.6818847199406938,0.5979061662626685,0.14638571294792876,0.6987706093922711,0.6213287889731703,0.45736249457150646,0.5141333025679504,0.8996652721814288,0.6169122891926263,0.6333913805828751,0.1456664953032675,0.7885731971254204,0.6191108789653595,0.5172051579435412,0.44645419950535514,0.9132096469782287,0.6707286072295766,0.615507053710995,0.15765682779095733,0.695112489529173,0.7441189608437373,0.4378085940623103,0.45403782574337115
73,0.07083444798570633,0.6610156293749853,-0.6346875187281825,0.9851940869393827,0.07510086119053086,0.6824935575817593,-0.6333991363533481,1.0247178585924204,0.09098663220805522,0.6962320687229867,-0.651948156286411,1.0034996815864414,0.11872589278578616,0.6377590449195696,-0.6572396986755401,1.030572758807505,-0.008648597780658997,0.6338149145563888,-0.696382059654214,1.022082726081239,0.08565723326868102,0.621245250738335,-0.6597537460119434,1.018389173567473,0.07020377815146146,0.6692445028871842,-0.7089239127534033,1.0237541812326862,0.09224224626372501,0.5906460444241692,-0.5657713939017062,0.9392496489360052,0.03635096359550018,0.5841204705163086,-0.6575183729801205,1.0216595418814978,0.11991779191779564,0.634282314946311,-0.6323299864116779,1.0161175015276163,0.038204264471489245,0.6434713938971746,-0.6021259283315747,1.0216963764858542,0.1802232400692644,0.5935470933067886,-0.45384158791889534,1.0106237265278917,-0.07349003008127508,0.541723242471216,-0.6077773095027037,1.019766648838929,0.28469651621441205,0.652805287947567,-0.4001098298785286,0.3180856393024816,-0.1663623666027512,0.6627650229086123,-0.5301163614660339,0.8098716149495577,0.3251089002861067,0.7689440096845718,-0.2973075712087691,0.3099515195447454,-0.1571159008539074,0.7693316771985046,-0.5589483622064055,0.8622870983388725,0.37885277474009654,0.7277460442822915,-0.35859504886393107,0.3709518806736533,-0.23206605086234972,0.8830791566095348,-0.6048491518383498,0.8761756515951423,0.2896890883753423,0.7472655341070035,-0.39553315265178507,0.3272636931628852,-0.204997419080036,0.8486299303022934,-0.6717507397545682,0.8151345956436332,0.3560619174317406,0.8042349910529477,-0.32978155435000944,0.40127819079507066,-0.1430058163245502,0.7786522437493814,-0.594797299302587,0.7297289721022939,0.40480237279806985,0.6866947838631656,-0.1264996785268711,0.9794233413813801,0.18984255546245923,0.7111512119812109,-0.2183471145406836,0.970666995748062,0.6349160908659743,0.6462576766493733,0.22729714486905703,0.015417564427478561,0.4484127535253766,0.6233476259564085,0.1686336651804201,0.3307766557841104,0.8515575817291037,0.6860539456334428,0.5745897195739177,0.13903516384609926,0.6920170646748706,0.6319887816680251,0.4494327430054522,0.5109851640448486,0.877374835649865,0.6181547480129693,0.6091965361578767,0.1407549831668081,0.780048476909605,0.6277457442493256,0.5090803931225222,0.4531047665601037,0.8947923953206903,0.6740412545722585,0.5979747320051495,0.14481645248673522,0.6921645534590399,0.7505727729660823,0.4333233316858121,0.44452349392574414
74,0.10813473436769074,0.6811844702601476,-0.6017757837018571,0.9856516717973235,0.1110182171482069,0.7012948891018399,-0.6018492604345348,1.0252562673486767,0.12729163981229188,0.7150207640583749,-0.6206079658707743,1.0042734690849155,0.15541952978600304,0.6564701350074602,-0.6261023006343687,1.0309088693993935,0.028333816782799302,0.6523709729632187,-0.6609455047568206,1.0224734345277415,0.12158726780002793,0.6392135477430347,-0.6237089410083373,1.0188934288622726,0.1052181501425405,0.6869154919237442,-0.6723491174536989,1.0241899507906391,0.1174975161456091,0.6119825403004815,-0.5403154249595197,0.9402718685939031,0.07402882000546919,0.6035241069718444,-0.6179179560214618,1.0236422307853064,0.15338605272805264,0.653723621537345,-0.6023333255098257,1.0165389063661783,0.07367045683392984,0.661876831366657,-0.5671112004199118,1.022432017011672,0.1949506498088928,0.6040170663940994,-0.44208523382509496,1.010614905040465,-0.02691265295576495,0.5581233412718751,-0.5664833984114432,1.0205611191491402,0.3034342451956662,0.6711582733296471,-0.40432043210197205,0.3199040280029668,-0.11995801718545757,0.6679015723814211,-0.4776758908435527,0.8252522359059786,0.32466557444595057,0.7753849472036453,-0.2980664174299374,0.3159820194798956,-0.09806428877236037,0.7710909082890502,-0.5010081844659722,0.8741660656240288,0.37961117123399246,0.7317045079511147,-0.35961273129541427,0.37740673587728185,-0.16651953476119835,0.8832588646135326,-0.5407056903528117,0.8891408539266853,0.29542356261257746,0.7500423952977994,-0.39085823267038056,0.3363623123855262,-0.13905421873400126,0.8512115266768051,-0.6071643292829139,0.8286095965019401,0.3583525398106683,0.8085671162398679,-0.32838606703755546,0.41078787345040507,-0.08352212039504678,0.7819032598893655,-0.5361834806520084,0.7480151406775808,0.40494608222726847,0.6999252864686039,-0.12922566202231967,0.9753464432833883,0.19470108858449933,0.7234842474502661,-0.2183516956053672,0.9704813868842315,0.6263787018835196,0.6641716738226826,0.2151800196293477,0.01123188412748126,0.44638223795147985,0.6254547097538633,0.1622508765663593,0.32298799764202063,0.8425114404686029,0.7107495804753617,0.5574311287495309,0.13192196789034596,0.6819047106240849,0.6353625833762465,0.44094447931934555,0.5058158916220581,0.8728380505310581,0.6437786059879754,0.5937451257586193,0.1342592987815085,0.7718338068716997,0.632390674612027,0.49998758966669693,0.4522094451909326,0.8605569958339275,0.6933504176658254,0.559212765120648,0.1345624419286068,0.6698329632362295,0.7558645329338862,0.409718030180893,0.4405656859080134
75,0.08233472143341343,0.7029572721362157,-0.6321876326581368,0.9861007331910613,0.08816811278861228,0.7200842996929654,-0.6292260164020688,1.025912395278364,0.10409893210581303,0.7334090949948068,-0.6478034117098366,1.0051104971114964,0.13176292462520434,0.6745086462837053,-0.6530452322964603,1.0313627587693581,0.008391959125076918,0.6712177232226181,-0.6854787791696761,1.0228895941575635,0.10125161290815193,0.6577133393651966,-0.6480654093767813,1.0193949423434128,0.08440825281098847,0.7047376383394547,-0.6964194320982126,1.0246379393007707,0.10466797244236203,0.6257846514493157,-0.5527108458883169,0.9413963102175907,0.07578710777713639,0.6196759524270141,-0.6176634791500313,1.025501776493009,0.12951557241950842,0.6762019039889746,-0.6277664079388461,1.0170467379396644,0.05450343507708424,0.6855256298323857,-0.589259196655111,1.0231962081623374,0.18939896623987165,0.624678360854396,-0.44850613835599906,1.0105630489995103,-0.016594937574955948,0.5820942432379701,-0.5556324428776509,1.021302958558015,0.2972675331909007,0.6672990513943748,-0.4105143972321099,0.311703501765479,-0.11630473994474125,0.6710065571417055,-0.4635641057667568,0.8393262038396334,0.3255614923911429,0.7786511625280471,-0.2979373023510338,0.30537245231452087,-0.0860478012072732,0.7765286400319091,-0.4887173092815043,0.8848519863393608,0.3781372743900044,0.731042598370884,-0.3613516682442111,0.37066488430905975,-0.15520588668900842,0.8841460797510143,-0.5287059002001468,0.9006775713415412,0.29504389475644827,0.750179962817941,-0.39159276803682314,0.33081025893398813,-0.1267871188468211,0.8514056590048386,-0.5951126970201007,0.8405758249870475,0.3593527468017493,0.8099551892073972,-0.32803252482794804,0.4064142634307213,-0.07194035851128658,0.7824132372300637,-0.5240229859818174,0.7645200840483999,0.4013347830638198,0.7194770404664066,-0.13463853480635332,0.9731137128947469,0.2008117336702915,0.739201098207865,-0.2144065139062909,0.9707605750403593,0.6580141064876115,0.6802903194907124,0.18509039362985893,0.007859617238862762,0.44891106518535545,0.648576245531909,0.16206004893295725,0.3186666310934824,0.8485036437259275,0.7360798259702043,0.5142613539525464,0.12619943025358907,0.6822639572806685,0.6388594686759291,0.43680510328222455,0.5089793485388672,0.8745236172484282,0.6690671282314752,0.5486637478291151,0.1296184066334906,0.7717731255871771,0.6384779777736481,0.4967178138930623,0.45110193128636106,0.8848020570648992,0.7204056811851125,0.530797733945497,0.12643098257325253,0.6697232466358499,0.7627395114762141,0.4028505092489155,0.44285656062763323
76,0.0929218644616769,0.7000429626345678,-0.6289785562426287,0.9865036009850983,0.09796702743822464,0.7171685000751981,-0.6228873059807039,1.0265199454225595,0.11316581987810612,0.730280327981257,-0.6410574779771145,1.005867654914078,0.1401751750118338,0.6711059363227678,-0.6459410150880095,1.0317833291428933,0.019338217411217294,0.6686483458002853,-0.6804313173616177,1.0232689777215587,0.11294502773559106,0.6557261801130299,-0.6434109755263606,1.019846566736876,0.09706422012654743,0.703410958156044,-0.6923039809751216,1.0250448602106523,0.11643701379946464,0.6226434270650079,-0.5418260493993267,0.9423759125544743,0.0917889747473067,0.6172869982644165,-0.6114441063204744,1.0271786339644748,0.14000015575329736,0.6751779557963782,-0.6238643370156269,1.0175225022142615,0.0653113513388495,0.6854840853949773,-0.5863162391052875,1.0239047881794272,0.20140420653696153,0.6360836500275222,-0.43646170809606033,1.01050475565692,-0.005502193973075387,0.5802017361617067,-0.5488988647856967,1.0219778023461616,0.29829435646888103,0.6827289057873802,-0.4036004207659638,0.3048370168850316,-0.12401943021540157,0.6707753507246218,-0.47013048681982755,0.8518645773099398,0.32598280441075383,0.7769259060850234,-0.29681557573963274,0.3055010493356238,-0.09811161068312393,0.7762099339962951,-0.49852317987454997,0.8941926302221122,0.37736610587138275,0.7307159053128701,-0.35939201472903265,0.37378336952138586,-0.16405143541361317,0.8840175721368786,-0.5373755605847426,0.910339782282856,0.2970548682671196,0.7494315668981412,-0.3889961726444879,0.3354298871249824,-0.13550718669979955,0.8521561410872055,-0.6022315643646602,0.8505171048752006,0.36042866749806973,0.8089414334090573,-0.3270509847248578,0.4115500678454704,-0.08292600054660684,0.7839271952073587,-0.5330004541501742,0.7783787004004812,0.3908121428973884,0.7319773861733463,-0.1437981184838743,0.9728211136935445,0.21066842299077954,0.7468704278511145,-0.20493133966041768,0.9710262925467681,0.6579460647158557,0.6867564101698811,0.13378665013888766,0.006612833356483258,0.4696496240048181,0.6605447985981626,0.14220026045570708,0.3075500966219705,0.8260126249240562,0.7565877576794938,0.44040494309541056,0.12362692358740557,0.670360379116678,0.6496833145392714,0.3801824129889249,0.48899611651753544,0.8465989004128579,0.6925253110432122,0.4697314782444757,0.12616445157920742,0.7769079602879253,0.6766773429126557,0.42221325479644056,0.4315997087483667,0.8724263794350925,0.7416935992759328,0.45752557139343863,0.12241915784619412,0.6899954050423601,0.8021753749710872,0.3441668324057718,0.42910111991565814
77,0.11586612546919951,0.6865643854975744,-0.6023755478430924,0.9868771432939055,0.12054935483947835,0.7035578986500272,-0.5986406146417451,1.0270954878725105,0.13616519817812525,0.7170249106343026,-0.6170853940300353,1.0065877982322544,0.1634823830843553,0.658268883977492,-0.6221838863054873,1.032210932864512,0.04059075333456615,0.6549507811983871,-0.6561474566377354,1.0236103931268323,0.1341078064741622,0.6420616364843372,-0.619030912511635,1.0202540836932055,0.1180361487291592,0.689775441989357,-0.6677654376573008,1.0254060643579912,0.1325454294256086,0.6112028519421746,-0.5247731176133116,0.9434179805590823,0.10359563573889898,0.6062460126801574,-0.5951218112450164,1.0286769755248388,0.16179330070719103,0.664526307751792,-0.5998488017581171,1.0180163266962259,0.08509327574886758,0.6733956077834355,-0.5620845192221349,1.0245440479946433,0.20255127972493348,0.6234376901733962,-0.4267137796855971,1.0105853411366563,0.00970802237757884,0.5743083269095399,-0.5331038665829675,1.0225790940026558,0.30041167238020494,0.6857453776501732,-0.39935333533202905,0.3314387784645452,-0.09650069432705696,0.6701099244703493,-0.44376217369877385,0.8624669323132967,0.325803034105545,0.7781753386488052,-0.29454552544170964,0.33487475472273925,-0.06787647174531883,0.7752318813801757,-0.46859140207692773,0.9022070707586113,0.374197844783647,0.7330319033902627,-0.3588027973768741,0.40046699808049835,-0.13332792501503693,0.8831110450944897,-0.5073260968060327,0.9185336328001289,0.2964137160070819,0.7507819101255276,-0.38764404464507735,0.36343569571682505,-0.10898031110334373,0.8520594623533798,-0.5760664568580072,0.8588867294899162,0.36198180975487315,0.8093022203238828,-0.3246471828038815,0.43958561915505595,-0.05456020159100925,0.7836413909356607,-0.5052170020472765,0.7899650088797903,0.3795801478061879,0.7137001582947757,-0.14183031073664004,0.9740048023341389,0.20546459681557017,0.7335779960197546,-0.1978849420166519,0.9715292961440276,0.6476126144782193,0.6858350415709431,0.14613805918586872,0.006413206225259559,0.46481194125908826,0.6514440634106321,0.15176048977165502,0.31859814535663544,0.8283476635463352,0.7589354654279069,0.4525250552483345,0.12422413977631316,0.6538169438461486,0.6434667289031325,0.39943996809215315,0.5052092355475342,0.8504306275096326,0.695723100235412,0.4819633816337927,0.126983590761775,0.7486782411617562,0.6557295885295685,0.44885425206810053,0.4328873478894494,0.8804934414700356,0.7445595098060231,0.4699660929649412,0.13181137464783751,0.6610227315646916,0.7886091790062739,0.36617964511057655,0.44963214842479815
78,0.10026073173213036,0.669818043315415,-0.6142508512974542,0.9871399997773651,0.1053905832211546,0.6887845298145779,-0.6102293682623343,1.0274104984201484,0.1211354109883592,0.7025437833721871,-0.6287506129176257,1.0070500322524876,0.14859267169925727,0.6439175756316973,-0.6339379305557684,1.0324357615846047,0.023768788135013784,0.6386905744990158,-0.6690486933849118,1.0238153735002147,0.11721644866911918,0.6250493979818348,-0.6318964664251846,1.020534165919005,0.10104987712670495,0.6719192613214798,-0.6805991229754818,1.0256428140070393,0.12146761091610941,0.594623462370031,-0.5348020975683805,0.9440972350909427,0.0858223111370764,0.5867303790970886,-0.6113113072408515,1.029889930046018,0.14876342353989505,0.6458912731906348,-0.6110792865369802,1.018254804879972,0.06933541019652437,0.6543367841979253,-0.5746894130969881,1.024972724599868,0.19489385090452202,0.6157198423492996,-0.4325812861750948,1.0106420251538377,-0.01563101956714741,0.5598748833632448,-0.5492085817801715,1.023086985180787,0.28324826064830155,0.682961959948452,-0.401891336974204,0.3464917526886358,-0.11797209102240819,0.6686253515829287,-0.46414248705545774,0.8717851648496127,0.31553555941552813,0.7786640371313186,-0.303556922195226,0.35308331805052856,-0.0913679618826718,0.7749622895718566,-0.4915866719541329,0.9092130007055107,0.3634949818729964,0.7354978071492654,-0.3680040542898391,0.4174258904259268,-0.1601271515949259,0.8821249458513256,-0.5355792618274258,0.925506184145954,0.2821945516300064,0.751168446246896,-0.3980292158431659,0.3820730846614509,-0.134796079085875,0.8519336965529037,-0.6016345410464099,0.8660112726799186,0.349223272462547,0.8090483045371396,-0.3333350940267216,0.45843916434395976,-0.07730251026777105,0.7835743953149331,-0.5281246763375088,0.7993141762267446,0.3767379640872999,0.6995884606209781,-0.13745802000785257,0.9746585460780355,0.20026480591775023,0.7195231611770727,-0.19781939257270248,0.9719066531501005,0.6497067472232303,0.6781374593260701,0.15985318343044405,0.0038740707095696603,0.47070594518434467,0.6477650859211607,0.157990217683353,0.3072789848952097,0.8322382863215934,0.7437907000508622,0.4744168848190489,0.11968190821655977,0.6746471287293047,0.6390419780982314,0.4190636503837788,0.4925912898764527,0.8554104205122957,0.6819695668720697,0.5063893773621072,0.1225635412732306,0.767306460701396,0.649792608282071,0.4706760177930985,0.41947388882687314,0.8905754458334194,0.7301750612777334,0.5068019041857226,0.1288583072259243,0.692688444373171,0.7882477960450007,0.3990616931724839,0.4446423455874263
79,0.0453774001032259,0.6620990033984228,-0.666142930105083,0.9873488544526579,0.05644579850446261,0.6807365914677151,-0.6565487830569224,1.027514448920637,0.07221810133206205,0.6945441247875924,-0.6750537226450444,1.0072584100906223,0.09967251116138198,0.6364119799476458,-0.6802343924690005,1.0324845181840312,-0.03076460141728058,0.6308428481539535,-0.7204125783381393,1.0239746371110547,0.06261663392068317,0.6171759224302296,-0.6832759537455213,1.0207571468951095,0.04637787844406312,0.6638610113710709,-0.7319773957155943,1.0258322971727802,0.09992506559757797,0.5889635245114495,-0.5557003423111053,0.9442206763102727,0.03499553517838301,0.5787928285523498,-0.6591566113917042,1.0309361703757607,0.10220955149942898,0.6390964628955298,-0.6547961898475961,1.0182547452753274,0.01564923845613627,0.6477476695319402,-0.625102227399854,1.0252532836628256,0.18399237742552813,0.5976614827263442,-0.44671375705479616,1.010661873500548,-0.06952571237186156,0.5573488385176637,-0.6016289591388774,1.023517688343934,0.2708469265206813,0.6540604425572472,-0.41275346452462625,0.3574580834553136,-0.1849585896527787,0.663314160500928,-0.5327853529840041,0.8812729726003146,0.3015110054000715,0.7780365194311233,-0.3168885297906765,0.36940843420806024,-0.16195626440047997,0.7735034062863342,-0.5602732252682319,0.916333609988958,0.34885481950381636,0.7354271756452065,-0.3823856183428353,0.43219645784307165,-0.2392671982038556,0.8820631954393383,-0.6137278848845287,0.9332385158987312,0.2600918577088479,0.7507421538274625,-0.41868335360946257,0.39843670541950754,-0.20916501299940837,0.8518632438627792,-0.6743975165804129,0.8740140903106864,0.3315578388654754,0.8087647652419431,-0.34914076956441314,0.47528141039956284,-0.1461911448646541,0.7833489705483926,-0.595647618271876,0.8100022427092886,0.3888636753110639,0.6901075670090702,-0.12852926580535023,0.9745975705264303,0.19042891231443576,0.7189430887741186,-0.208026468282914,0.9720283658347321,0.6503670029584157,0.6721603055479939,0.22620937261139232,0.0023152825888230616,0.45778459876706673,0.6450611212109251,0.16724775987302853,0.3105460644869608,0.8595793147161321,0.695580675217183,0.5687453313221226,0.11632815602072467,0.6949947097354806,0.6216122090590773,0.4456506361884979,0.5007505696997558,0.8850687373555659,0.6260264354252313,0.6028457414470108,0.1215051639476957,0.7860615267335659,0.6182323661060151,0.5026521151629442,0.42688209052136167,0.908976359499776,0.6811253262084584,0.58921322227655,0.1272509487702664,0.7056169290912386,0.7635295710427119,0.42648679804859635,0.45415626017253985
80,-0.011904398954501337,0.6330132480502172,-0.7115026871306865,0.9875031112733367,-0.004202232729617527,0.652039219984866,-0.7041185871252952,1.0274646194376045,0.01213020430846137,0.6655622603352304,-0.7229209993656535,1.007294590110001,0.040390942835726744,0.6065752060752703,-0.7285578853844716,1.032444165839518,-0.0905182567298409,0.601577682824974,-0.7667891142576603,1.0240724483331312,0.0029843160965656312,0.5874525165922169,-0.729704472090937,1.0209156356455673,-0.013482362807042667,0.6337296713442154,-0.7782893415615176,1.0259644406702473,0.043352039088817185,0.5640471736699273,-0.6109621536368882,0.9440611146762089,-0.024488171128112288,0.5450407447739685,-0.699605364314045,1.0317460782889687,0.048579375111026425,0.6088317872783118,-0.7006880532403884,1.0181603315180032,-0.036301113906868444,0.6150209048529851,-0.6698167134384784,1.0254266139698325,0.14464961391483264,0.5756509179222671,-0.4868695386728958,1.0106699201275928,-0.11992742116037025,0.5125024229979493,-0.6350772539175843,1.0238898001412668,0.24062201399447222,0.6410001708172874,-0.438676872652748,0.3729161904499425,-0.21552222437184299,0.662118908559247,-0.5648401851349483,0.8898596177266573,0.28093904747780485,0.7778946603765579,-0.3363487571394705,0.38444465952696893,-0.1954015378104628,0.771148307561969,-0.5931286076003819,0.9227796735074821,0.32919436687890485,0.7349535571378213,-0.40167050266388976,0.44200785921025915,-0.2727381220547834,0.8819885108194347,-0.6489768798217015,0.9400534725637704,0.2383979238175065,0.750423030559335,-0.4399498343343405,0.4099154871196418,-0.24670688684398684,0.8516798999754501,-0.7114566718789379,0.8810592997184928,0.3104481387024038,0.8074514961036069,-0.36953655606783514,0.48744975823510356,-0.18040773052927658,0.7825270821015847,-0.629774874246505,0.8192133060942983,0.3871753154036926,0.6781912276116397,-0.12624253734492463,0.9752908321498128,0.1891004171389281,0.6955075557273962,-0.20870112285196724,0.9723209054312897,0.661693776320373,0.659498669672292,0.24781010899203695,0.0013647933956219618,0.47794337863754927,0.6200689532612486,0.18438246869643524,0.31292345534847205,0.8861449494237037,0.6907173534360246,0.6042265563708099,0.11351469757803667,0.7319861066002492,0.6120636045707045,0.4833633467778864,0.5047570151076233,0.9149897927201524,0.6235382991337274,0.6385052197454938,0.1181024465361776,0.8217989604574996,0.606880899927121,0.5427178535475292,0.4274942004208825,0.9248030896572209,0.6713185143989187,0.618357594557687,0.1292220594718274,0.7318820872896897,0.7457920632225825,0.4571961864311626,0.46464107481639966
81,0.013360873426908849,0.5856995578646703,-0.6865263042357438,0.9876927732530119,0.0163275439816166,0.6004118224476346,-0.6840832362798274,1.0276333601869636,0.03262511257540571,0.6136337401325936,-0.7029397832856014,1.0075653144065708,0.06082515547498029,0.554756418023665,-0.708760343431742,1.0326263176339516,-0.07314446301207153,0.5511378482302475,-0.7492425102281097,1.0241846838792432,0.019770741804817582,0.5371039963132862,-0.7117597149837509,1.0210787735583176,0.0028287314494651744,0.5836571205705948,-0.75992196945702,1.0261060613062336,0.04716966230125985,0.5118324319630791,-0.6068841643805354,0.9445545815303044,-0.003268500280076622,0.49661840819559927,-0.6783915821128637,1.0324658043746315,0.06781119945170386,0.5615219713946753,-0.6813369330650312,1.0184420230692117,-0.02002510945661077,0.5703199842711675,-0.6524371553119147,1.0257628437710105,0.1562034417865851,0.5470358604538528,-0.47639366332770244,1.0107315513302904,-0.0945220873189263,0.4740555793738343,-0.6118859257689483,1.0242477260331428,0.2304805354355873,0.6260325504445152,-0.4438675126197149,0.408137588326682,-0.1905484287257398,0.6601012913336001,-0.5476097461774351,0.8971347222493623,0.25711000449884786,0.7752308095922561,-0.35891738842118603,0.4174616988259802,-0.17294053116128058,0.7711682751179687,-0.5714056349629524,0.9279707016256157,0.3019774227142681,0.7342123733800393,-0.4283506279808486,0.46859463022161163,-0.2460166586908718,0.8833892199716564,-0.6257044986881347,0.9449360466451912,0.21196119927637688,0.7487560078542569,-0.4658501598052916,0.4378172856063514,-0.2242037394779689,0.8517790821043564,-0.6894299690677725,0.8862596857658562,0.28644271031490404,0.8047673797400815,-0.39226415530619363,0.5140502681170769,-0.1585860352257548,0.7823959518830789,-0.6084748238944888,0.8262248388778066,0.3861043120057847,0.6561782786217716,-0.12854928841665458,0.9762603016970844,0.19276006243525853,0.6680562789482214,-0.20782613659304952,0.97262858460762,0.6543686200813872,0.6434965510847981,0.239092965430844,0.002442627912385663,0.4729614901169329,0.5996264078472776,0.17912084921010515,0.32040902387187903,0.8470980978637288,0.682788505169423,0.5570416777711379,0.11481910052546257,0.7266615760227652,0.6025100528968154,0.47721164855812936,0.5112011116728699,0.8709577722997299,0.6182820039295648,0.5867937388667305,0.1173156801263037,0.8047489667810048,0.6003184881419953,0.527109010108993,0.430483343554046,0.8757298123536806,0.659435136370049,0.5603289145474502,0.14009633086464962,0.7149859562971749,0.7385989746910884,0.4399784540713124,0.47863642422359576
82,0.0367349207567131,0.5742995735049291,-0.6630756368340478,0.9878934024873259,0.04064388505602432,0.5927306314800748,-0.6599718226032092,1.027898958484083,0.05691207075647828,0.6063308002407785,-0.6787763700454695,1.0079022594634859,0.08505234278907858,0.5476817639213396,-0.684477323016732,1.0328407155412087,-0.0441075451802315,0.5423356131037521,-0.7208708343916727,1.0243345299562083,0.04879715550309971,0.5283442592985157,-0.6834152893785534,1.0212685547472826,0.031834661750130736,0.574748073920662,-0.7316144825797102,1.026273669567342,0.06495643526965145,0.5040493766575982,-0.5889516542888634,0.9450484656169131,0.01511048960958851,0.4864657106324279,-0.6605677610743007,1.0332039482955298,0.08941862507355322,0.5488521696826392,-0.6594549837820897,1.018730390340635,0.006942009713377351,0.5572414139052617,-0.6257048888756103,1.026107418222457,0.15986922724890537,0.5243137950050918,-0.47188734830706075,1.01078471867343,-0.09478794296043414,0.4630494029021241,-0.6110940240851642,1.024580975602082,0.2288675283895464,0.6065613819264488,-0.44571592968928486,0.44599664074634454,-0.17743588838220545,0.6542584864248476,-0.5412552036238443,0.9040324697659944,0.24812652418529843,0.7662659729948135,-0.3677293958689013,0.45986444311919306,-0.16708169828625605,0.7708083226681701,-0.5660193859061937,0.9332893432882133,0.2923944020454178,0.7293736683171731,-0.43876372068409497,0.5076892869274681,-0.24192370942733998,0.883391723366737,-0.6220079800146944,0.9508239722700386,0.20023205651052534,0.7460260555188992,-0.47731695588831763,0.4761762421817451,-0.21990465910115953,0.8517808106390549,-0.685364125767629,0.8925218689552482,0.27624101665001444,0.801598200777374,-0.4011485492721064,0.551191859427578,-0.1535053704338307,0.7823362280290139,-0.603550329482896,0.8353762380133962,0.3837002238566327,0.6445234248009708,-0.13096703991086808,0.9768019887088033,0.19523000546604416,0.6547839934867956,-0.20545274294467908,0.9728585393271637,0.6268808790982034,0.6275785346510823,0.20998613935874402,0.0019986254628732575,0.4604826041003595,0.5828122951840086,0.16560525580964122,0.31633787762210785,0.8050777233859889,0.6626801629987077,0.5114648092946841,0.11348293575295197,0.6755601872086918,0.5904972135794936,0.4264172728499547,0.5071947258696472,0.8280072237002957,0.5975231366657708,0.5405663847738057,0.1162396672764959,0.757762933086881,0.5870470371455964,0.47959726447052736,0.43082419271519407,0.8436631394956768,0.6394471359771352,0.5270188747905733,0.14005311749718752,0.6826310529865163,0.7249875984055354,0.40445678383315237,0.47784037439029803
83,0.0986526973236634,0.5699067707896276,-0.6035616491828758,0.9880610107484343,0.1047346656263615,0.5867298146580228,-0.5990990449064219,1.02816777543202,0.12080996244425743,0.6004014493878121,-0.6178235192052427,1.0082490988914339,0.1488753003470859,0.5417037756782366,-0.6234305094068798,1.0330566035645852,0.021714021202420795,0.5367483333071518,-0.6581391187291967,1.0244697132905591,0.11459525501737305,0.5230938053495411,-0.620660642773651,1.0214444480540146,0.09769986023416789,0.5697998751253434,-0.6689172467128603,1.0264179128076985,0.12854058670510887,0.4988095919400384,-0.5264817945672372,0.9456685923411563,0.07913927091707702,0.48339857482157583,-0.5981165906389126,1.0339360125426609,0.1489756042718263,0.5473253967067175,-0.6010666973816676,1.0190756204431741,0.06875880131362269,0.5557370522757756,-0.56509596253548,1.026476013345748,0.19544208316443498,0.5279340917217819,-0.44017506631138786,1.010838601272307,-0.026263771793716584,0.46029852933645027,-0.5451121720241673,1.0248808465699473,0.23834867066395002,0.6132002664708214,-0.4381647056217154,0.4870004938290014,-0.10951552305789239,0.6467509833921633,-0.48209941785281624,0.910123647229526,0.25706192574651526,0.7665281142225356,-0.3590967083920365,0.504276579197074,-0.11649210640336796,0.7686098649502746,-0.5152716245766693,0.937887245586187,0.3027424733764804,0.7298122988980752,-0.4310484251390826,0.5506557719509666,-0.19013614741653428,0.8832109424791332,-0.5676947686012648,0.9560250139684944,0.21241648196889498,0.7462347313802579,-0.46650564645906095,0.5168540280551581,-0.1680278333910769,0.8512928274122787,-0.633063956779424,0.8980801808944878,0.2861429319548515,0.8016211485656125,-0.3915037722718276,0.5913862516318626,-0.10409341502537298,0.7819771100442422,-0.5537085880475748,0.8436783305655813,0.38118574610602474,0.6452742645112064,-0.13412644225529874,0.9749329062579365,0.19858638282329763,0.6544006164116003,-0.2026854114657421,0.9725752980551908,0.5862574065392003,0.6205445309164936,0.1657143631470461,0.0005476099904610579,0.42568596925039726,0.5880459406231565,0.13453064928254868,0.3151265920309824,0.7432310073646646,0.6463650604214982,0.4391366288390079,0.10991702082403887,0.6032660404735425,0.5865310013068495,0.3578470207712981,0.4958343785986817,0.7632101402116062,0.5790923076176141,0.4658593016923491,0.1150278899470511,0.6824076558367673,0.5819786753864106,0.41019663494394953,0.4281816803937219,0.8069085297414588,0.631237967066155,0.4606404735245332,0.13328667901299562,0.614167389454235,0.7189151964051081,0.3395323301803399,0.46782703248661145
