frame,NOSE.x,NOSE.y,NOSE.z,NOSE.v,LEFT_EYE_INNER.x,LEFT_EYE_INNER.y,LEFT_EYE_INNER.z,LEFT_EYE_INNER.v,LEFT_EYE.x,LEFT_EYE.y,LEFT_EYE.z,LEFT_EYE.v,LEFT_EYE_OUTER.x,LEFT_EYE_OUTER.y,LEFT_EYE_OUTER.z,LEFT_EYE_OUTER.v,RIGHT_EYE_INNER.x,RIGHT_EYE_INNER.y,RIGHT_EYE_INNER.z,RIGHT_EYE_INNER.v,RIGHT_EYE.x,RIGHT_EYE.y,RIGHT_EYE.z,RIGHT_EYE.v,RIGHT_EYE_OUTER.x,RIGHT_EYE_OUTER.y,RIGHT_EYE_OUTER.z,RIGHT_EYE_OUTER.v,LEFT_EAR.x,LEFT_EAR.y,LEFT_EAR.z,LEFT_EAR.v,RIGHT_EAR.x,RIGHT_EAR.y,RIGHT_EAR.z,RIGHT_EAR.v,MOUTH_LEFT.x,MOUTH_LEFT.y,MOUTH_LEFT.z,MOUTH_LEFT.v,MOUTH_RIGHT.x,MOUTH_RIGHT.y,MOUTH_RIGHT.z,MOUTH_RIGHT.v,LEFT_SHOULDER.x,LEFT_SHOULDER.y,LEFT_SHOULDER.z,LEFT_SHOULDER.v,RIGHT_SHOULDER.x,RIGHT_SHOULDER.y,RIGHT_SHOULDER.z,RIGHT_SHOULDER.v,LEFT_ELBOW.x,LEFT_ELBOW.y,LEFT_ELBOW.z,LEFT_ELBOW.v,RIGHT_ELBOW.x,RIGHT_ELBOW.y,RIGHT_ELBOW.z,RIGHT_ELBOW.v,LEFT_WRIST.x,LEFT_WRIST.y,LEFT_WRIST.z,LEFT_WRIST.v,RIGHT_WRIST.x,RIGHT_WRIST.y,RIGHT_WRIST.z,RIGHT_WRIST.v,LEFT_PINKY.x,LEFT_PINKY.y,LEFT_PINKY.z,LEFT_PINKY.v,RIGHT_PINKY.x,RIGHT_PINKY.y,RIGHT_PINKY.z,RIGHT_PINKY.v,LEFT_INDEX.x,LEFT_INDEX.y,LEFT_INDEX.z,LEFT_INDEX.v,RIGHT_INDEX.x,RIGHT_INDEX.y,RIGHT_INDEX.z,RIGHT_INDEX.v,LEFT_THUMB.x,LEFT_THUMB.y,LEFT_THUMB.z,LEFT_THUMB.v,RIGHT_THUMB.x,RIGHT_THUMB.y,RIGHT_THUMB.z,RIGHT_THUMB.v,LEFT_HIP.x,LEFT_HIP.y,LEFT_HIP.z,LEFT_HIP.v,RIGHT_HIP.x,RIGHT_HIP.y,RIGHT_HIP.z,RIGHT_HIP.v,LEFT_KNEE.x,LEFT_KNEE.y,LEFT_KNEE.z,LEFT_KNEE.v,RIGHT_KNEE.x,RIGHT_KNEE.y,RIGHT_KNEE.z,RIGHT_KNEE.v,LEFT_ANKLE.x,LEFT_ANKLE.y,LEFT_ANKLE.z,LEFT_ANKLE.v,RIGHT_ANKLE.x,RIGHT_ANKLE.y,RIGHT_ANKLE.z,RIGHT_ANKLE.v,LEFT_HEEL.x,LEFT_HEEL.y,LEFT_HEEL.z,LEFT_HEEL.v,RIGHT_HEEL.x,RIGHT_HEEL.y,RIGHT_HEEL.z,RIGHT_HEEL.v,LEFT_FOOT_INDEX.x,LEFT_FOOT_INDEX.y,LEFT_FOOT_INDEX.z,LEFT_FOOT_INDEX.v,RIGHT_FOOT_INDEX.x,RIGHT_FOOT_INDEX.y,RIGHT_FOOT_INDEX.z,RIGHT_FOOT_INDEX.v
0,0.7833461650732149,0.5783887335817336,0.32266409404024515,0.9801168321865542,0.786655563624662,0.5345703148865806,0.332119728917115,0.9601068654847787,0.8416990437480008,0.5872760384845443,0.3302634579603678,1.0020401880486027,0.7908834602417852,0.5946484764397677,0.29555246141918357,1.0381431185301868,0.8684746154639317,0.5854237009201815,0.31969353199691314,0.972402117035413,0.8565028422188781,0.560600459874214,0.30598902930497596,0.9877197012587963,0.7777656117363559,0.5737184927220267,0.31162741969317687,0.9927849440997102,0.8091610907578984,0.5597928603975476,0.32848516066527234,1.0308501387863025,0.9023541913439644,0.5217279845035342,0.33207378781724706,0.971502425957866,0.7260593225692316,0.5717800953359311,0.3257325281167014,1.0156960082984023,0.7611939491129038,0.56330965667898,0.32384802373564814,0.9498399474210459,0.7355974940284276,0.47968126534452926,0.3481402745702662,0.9962719568614605,0.7219923548402081,0.4952929748005435,0.31182636741404834,0.9827897918096444,0.7402497150686121,0.5153113856491859,0.39812821366358625,0.8805015755410076,0.6613321845668254,0.6153670788132203,0.22857180644572084,0.891710925921358,0.8712303170860258,0.7017884037385698,0.37533742688141886,0.8695268563971101,0.7825133794817997,0.7991098627694995,0.2960741402878258,0.8837117249155382,0.8822940083081244,0.7117023773159856,0.4420049119039516,0.6716373555363279,0.7348385459437826,0.8099638148742822,0.257805974487454,0.7384381459412404,0.9122473025052085,0.7100311082603611,0.41050180831246674,0.7392538692162625,0.7899001284749668,0.7864121810747127,0.25596296700591453,0.7718053967509032,0.8047853209721813,0.7066671778225433,0.3730950495874682,0.7642907279278897,0.7211878688490135,0.7550357608011099,0.2380610493070996,0.7120691035179052,0.23250724537467282,0.5173204657952536,0.17437777030608445,1.0027800346345601,0.30204093531439546,0.5356840111378152,0.2253302358078258,0.9728963649577328,0.01111131129620261,0.7111832655841646,0.13952800339865054,0.041557347763563374,-0.07398213737130792,0.7193368462658454,0.14109503297630738,0.09420646774239738,-0.4444430376487618,0.7420701273004933,0.09399385119763438,0.05820415304761081,-0.4253335476370651,0.6854514590288893,0.03311199988610812,0.21029471913148962,-0.4030268169505359,0.6878345224556507,0.10203124334093204,0.07462040139269378,-0.47431155386760854,0.6456738325409901,0.045299848147605716,0.1077276515711201,-0.419945003537491,0.7289166340576638,0.13888268771364512,0.11749855236177646,-0.4235708194152286,0.7074081410508882,0.016706505893784696,0.23144717424350558
1,,,,,,,,,,,,,,,,,,,,,,,,,,,,,,,,,,,,,,,,,,,,,,,,,,,,,,,,,,,,,,,,,,,,,,,,,,,,,,,,,,,,,,,,,,,,,,,,,,,,,,,,,,,,,,,,,,,,,,,,,,,,,,,,,,,,
2,0.7934730078769925,0.605771107391548,0.3318111768909137,0.9801866292255862,0.7987075529184965,0.5613611125969993,0.3414907555254944,0.9603176275087045,0.8530903705959108,0.6150678962039657,0.33912411323016106,1.0023489401085393,0.8048022438414636,0.6208922227204379,0.3065467737266772,1.0382741891440477,0.8816015076790785,0.6134430695687105,0.32812127358009535,0.9725660298085452,0.8698707610598255,0.5877191427355422,0.3146143478728405,0.9880266055747446,0.7903514987926108,0.6010520503277701,0.3195988575040795,0.9930078654711701,0.8246478747306863,0.5904801925508679,0.33620255937067545,1.031238522651659,0.9317167681991062,0.547047262743738,0.3418337860425961,0.9721012142192795,0.7401876405942736,0.5958125092954343,0.33730104145067585,1.0157736731505447,0.7775307615245101,0.5878018012636358,0.3344870393684462,0.9499279238767345,0.7521767008252709,0.5012135624789287,0.3568938198307079,0.9962801823024393,0.7523754192368639,0.5057435167736575,0.32402092716604,0.9828821790090465,0.7029264390619372,0.5298068776306922,0.3925335618799298,0.8670370651001812,0.7027924447159972,0.5845133304916871,0.2390916776635566,0.8937016018475665,0.8360064659198726,0.738920011271071,0.37291323864872705,0.8530643515333711,0.8377007803792783,0.7591853603967578,0.30659734993352306,0.8882706457758287,0.8518175229854109,0.7360843725170965,0.4440983248684113,0.6565313331783872,0.7946342302368617,0.7638055607277062,0.2690639233171066,0.7478022144493885,0.8790030116809976,0.7343201798202671,0.4079561496499659,0.7240918184922329,0.8570587476694432,0.7687322513414363,0.27152490618104463,0.7786149293932677,0.7660553818635895,0.740032248642398,0.3664406645510928,0.7523896473195217,0.7831188199727748,0.7430083779504629,0.2532086219468611,0.7192435357955846,0.24456735410366776,0.5272958395402182,0.18505610448940055,1.0028216386766133,0.3144509507741049,0.5414986826542336,0.23495885684488843,0.972917226583404,0.02882221486768364,0.708988801377469,0.15366137411855785,0.040032903094078275,-0.10355542982112796,0.6923689035511542,0.1378465188663754,0.10349895107217036,-0.3937199781271394,0.7660905011217518,0.13608876955345672,0.06076588617425112,-0.48589763812905884,0.6936475149180189,0.026355594832641036,0.23832124033739172,-0.34986461699122035,0.7206285807785572,0.1457113470916644,0.08133999062609218,-0.5368389986117891,0.6673181864075672,0.03799381946720624,0.12854944643863558,-0.3457436782980439,0.7513494381653298,0.19227084427255728,0.11870298341875278,-0.4671031497917753,0.7026881684404146,0.011138649927544708,0.24757079689937406
3,0.823450686414701,0.6231691071550368,0.3347039854127274,0.9765668987530214,0.8297457515073879,0.580698707106124,0.34561951242860794,0.9486780920816109,0.884250179712516,0.6353270977306076,0.34336544521093254,0.9884798333389775,0.8345306269249493,0.6434563954651888,0.309584213047702,1.0293892823752488,0.9122576390349758,0.6316699911270907,0.33189061487674537,0.9653817031598332,0.9004718285950595,0.6064478757982863,0.31834132646806845,0.9781721100493846,0.8213906510518282,0.6196354672665518,0.3236647998162348,0.9836666851466158,0.8499762378552347,0.6100847562639417,0.34084479984114396,1.0140432382850513,0.9540740835061744,0.5684839540279177,0.3450336531070271,0.9587931659709886,0.7642814673458149,0.6150170662374204,0.33792897779015074,1.0106774760222488,0.8034291876746475,0.6047145596140081,0.33677918599834783,0.9456168987340647,0.7525030331170492,0.5149456679724742,0.35672773853037965,0.9962146171931865,0.7587577055579773,0.5171571505970523,0.32617068565454604,0.981690205322828,0.6809361274365773,0.5264767661270912,0.3892286395119119,0.8616231752152325,0.6932494950149874,0.5892160773598206,0.23596856470070643,0.87966393314258,0.7666155638471461,0.7105701348672624,0.36528707785234293,0.8573861651167451,0.8034057736991058,0.7665824160226733,0.30148813663268464,0.8784506613397935,0.765132373264905,0.7135984606709356,0.4314504129948914,0.663840471953259,0.7452705080386137,0.791187576909652,0.26136587264554556,0.7362929151711293,0.7955171207027053,0.7172432106735386,0.4003047328923302,0.7308226730034939,0.8072601851378077,0.7759850637269954,0.2646399344322817,0.7665643007311583,0.7001856981835932,0.717527263309909,0.36434901215807064,0.7602606194760464,0.7455775823157341,0.7463875440767141,0.24779238479207355,0.7048044298080358,0.24346695983524552,0.5279959556977499,0.18586077140065457,1.0028392816514669,0.32369816621272424,0.5276990152958352,0.24088658852275138,0.9728563702410884,0.02164785245665283,0.7321859158450899,0.13943344418011347,0.043579398084665474,-0.09884964505895678,0.6975055126286078,0.14136407545649277,0.09801098751492698,-0.4601588015805477,0.7663437612574024,0.0717400790333987,0.06090355800252102,-0.4725250820694632,0.691992651560475,0.0327520521270621,0.2275643453912933,-0.4202209577568305,0.7144337508377613,0.0773458533242417,0.07844578279089469,-0.5238922004949864,0.6574162455849659,0.04412295494269245,0.12353511628993868,-0.4093931821504335,0.751366902326249,0.11397054494053657,0.12226699844961368,-0.4516776104406359,0.7099406828027498,0.02107317125304803,0.2423678478522855
4,0.8585904103122268,0.629359883979988,0.35259654948343816,0.9767895221012576,0.8617890197219241,0.585807361605178,0.3613634041728172,0.9494176069093393,0.9154576882032308,0.6410270303058334,0.35843965497931957,0.9893453523857609,0.8637343632064362,0.6504588087380465,0.3230049409623577,1.0298429929312793,0.9429929943605663,0.6364722777519991,0.3489748940524138,0.9658796999669317,0.9307297429813883,0.6115890148287428,0.3350306303054156,0.9788905248328622,0.8512244302957347,0.6253593013043326,0.3400432953972381,0.9843101172869662,0.8787573775513439,0.6230857809869946,0.3518525051138681,1.0148170853881702,0.9739469806136826,0.5727504545009402,0.35923393934080866,0.959990146447368,0.7987581559718702,0.623628685709924,0.3536985173166945,1.0109329415297563,0.8361775411935962,0.6126845350855047,0.35446108475711985,0.9458977558202464,0.8017966979208779,0.5302963077925731,0.37000026628826305,0.9962153324489237,0.7750216793734963,0.5390890372700259,0.33848523655947,0.981787062870588,0.8315080063159,0.5344162836251075,0.4193803156532058,0.8669471216912151,0.705706070547455,0.5955736279808533,0.2405637623477198,0.879994560107149,1.0246787776063018,0.7314649007211442,0.4102260783876669,0.8685843281492769,0.8290760911327358,0.7667941317209155,0.3072532303292896,0.8825971180582384,1.0534559098168685,0.729451031204688,0.4847605774309793,0.6838374130428891,0.7526145324159202,0.7931039854484704,0.26594623398935047,0.7479174898323842,1.0740536361310142,0.7309607428314365,0.4490104444335882,0.7474173809693447,0.83845754601362,0.780169250185583,0.27180569862705717,0.7766193658861876,0.9560957443986949,0.734613649990512,0.4061430251112398,0.7788315790440701,0.777151697256223,0.7510348586252066,0.25542620911194935,0.7163047883895788,0.2638154930184508,0.5280026314179648,0.1986278678357292,1.0028939987153707,0.3391165506502585,0.5292176820400674,0.257671517575351,0.9728765166110224,0.027390459131932533,0.727606371777707,0.1434898722966048,0.041912554193521676,-0.07232678327448984,0.699214973840766,0.15541715314786814,0.09577481495804988,-0.42464736489016225,0.767227042488329,0.09425961025559622,0.060133674608279716,-0.41122580748081583,0.6937254777933851,0.05414453622287223,0.22962539950182043,-0.38190209186719865,0.714595696657616,0.10172671881029809,0.08587110591959499,-0.4583504010106784,0.6579719396882069,0.06626191043599819,0.1289457130182636,-0.36887114678529714,0.7518427858101357,0.14293054161214533,0.13165757612352574,-0.376400968502617,0.7110540379625093,0.04710892713650533,0.24670673816638766
5,,,,,,,,,,,,,,,,,,,,,,,,,,,,,,,,,,,,,,,,,,,,,,,,,,,,,,,,,,,,,,,,,,,,,,,,,,,,,,,,,,,,,,,,,,,,,,,,,,,,,,,,,,,,,,,,,,,,,,,,,,,,,,,,,,,,
6,,,,,,,,,,,,,,,,,,,,,,,,,,,,,,,,,,,,,,,,,,,,,,,,,,,,,,,,,,,,,,,,,,,,,,,,,,,,,,,,,,,,,,,,,,,,,,,,,,,,,,,,,,,,,,,,,,,,,,,,,,,,,,,,,,,,
7,,,,,,,,,,,,,,,,,,,,,,,,,,,,,,,,,,,,,,,,,,,,,,,,,,,,,,,,,,,,,,,,,,,,,,,,,,,,,,,,,,,,,,,,,,,,,,,,,,,,,,,,,,,,,,,,,,,,,,,,,,,,,,,,,,,,
8,,,,,,,,,,,,,,,,,,,,,,,,,,,,,,,,,,,,,,,,,,,,,,,,,,,,,,,,,,,,,,,,,,,,,,,,,,,,,,,,,,,,,,,,,,,,,,,,,,,,,,,,,,,,,,,,,,,,,,,,,,,,,,,,,,,,
9,,,,,,,,,,,,,,,,,,,,,,,,,,,,,,,,,,,,,,,,,,,,,,,,,,,,,,,,,,,,,,,,,,,,,,,,,,,,,,,,,,,,,,,,,,,,,,,,,,,,,,,,,,,,,,,,,,,,,,,,,,,,,,,,,,,,
10,0.7226754694029504,0.6327172944108962,0.3544845824950884,0.9767930983799442,0.717870982822018,0.6052333498025046,0.3609763332757417,0.9503911891771005,0.76911609876287,0.6638732522296615,0.35607446280040583,0.9906859204514042,0.7151021756097126,0.6767029722512301,0.31877397656078005,1.030559857993993,0.7711968601183009,0.6504181553040316,0.34898986008654675,0.9658379767155888,0.7614694762400394,0.6255173686152113,0.33717539559786985,0.9788203701659618,0.6844707057605428,0.6392059967274588,0.34429191958628313,0.9842414527361848,0.731203238863889,0.679887398132533,0.3445505812002865,1.016511049392687,0.6956517533969403,0.6138060146129397,0.3485747356624436,0.9601834443103746,0.6715319530347847,0.6357270576924985,0.354388976201875,1.0113222194647842,0.6699530968241209,0.6194969287508184,0.3533291664830185,0.9458267070836743,0.6576823212026384,0.6594898521803905,0.33400344282634725,0.9962330946330669,0.4947197856086601,0.6260954869694277,0.3469541549618436,0.9819188487401865,0.6445273657310121,0.5729699983773048,0.32515160360143075,0.8763803315873028,0.31198483317676806,0.6067847848259461,0.2579560964197076,0.8059829958523883,0.7079153457209272,0.6018939993272538,0.2599456685767794,0.880495720361191,0.2834949074623786,0.6347783074029834,0.31712864768129084,0.8405739361429552,0.683901049218911,0.5760593719448919,0.3086145114151792,0.7069238416851621,0.16668925993545902,0.6193036958175805,0.2762205872367898,0.7271689341721363,0.7104649663045063,0.5578697484733738,0.2839440840549356,0.7648137118027798,0.21719614458444916,0.6139174119783382,0.27285524260267424,0.7556424648318053,0.6349073459852707,0.5640040565990936,0.2577587316722768,0.7926955002095364,0.21538128547678018,0.5881443051507803,0.26088945800846935,0.6991286967185888,0.34023455086715676,0.5747836944977988,0.19911826156662948,1.002973809334725,0.2773085002070377,0.5540172077778298,0.26919121946685887,0.9729054248637384,0.4119559380673401,0.6325017370158967,0.17392563670714462,0.1369808412978899,0.04386812585642834,0.5485060600376654,0.22365723005448343,0.16096434044308858,0.23846478471835658,0.7367747910540028,0.17044066740988353,0.15212694691281464,-0.10491721792225941,0.4930439106013075,0.1507769703391228,0.2805433974580963,0.3100497884373741,0.7119561645683826,0.18459928456637642,0.17422961247992058,-0.13878911234345015,0.4659697028450977,0.16288468009543003,0.1932890760649097,0.25395942080930756,0.7225152740227212,0.20135851353832093,0.21374886290197576,-0.14360393876284455,0.4243708957772981,0.13118998970937445,0.2849978646560269
11,0.6663640831729214,0.6526867577592849,0.3454037106373396,0.9738996505039675,0.6622571340557813,0.6246978426003562,0.3523155437782588,0.9496067324472117,0.7136072010503507,0.6834083169269272,0.34749903886870687,0.9893203780396,0.6596827759659277,0.6963118871033724,0.31027511223668053,1.0293168031272022,0.7208568546686406,0.6690916348610689,0.3410135475845709,0.9637594435429813,0.7111378485288304,0.6436606052523268,0.32918547692586997,0.9752352699920114,0.6341439492369979,0.6568375274891776,0.3362795444598169,0.9809173016970614,0.6742810694358763,0.6957767447321118,0.3359814713167588,1.0153793360023364,0.6606446928253046,0.6272257619655398,0.34318167209733946,0.9531772163402512,0.6135397386309448,0.6547098853559201,0.34543921549435536,1.0094382358527236,0.6184794780829298,0.6373111477487737,0.34529986372306043,0.9416223146505077,0.5885050260649304,0.6722617566489268,0.32898338210893713,0.9962342867259625,0.4741646678586983,0.6277467144436404,0.34235999824722674,0.9820262563100717,0.5140142015089836,0.5883910312828834,0.32040603886816454,0.8677499366516949,0.33725111983763456,0.6053099274956238,0.25789718691824637,0.7451153286542072,0.5420911594039232,0.6427415392289872,0.2709755743245009,0.8746119670614778,0.4026859204216594,0.6298858389505297,0.3302681633933376,0.8134016091013292,0.5084856676115386,0.6149248785939092,0.32428736910017786,0.7112212173641782,0.3011513836053745,0.612249486108413,0.2904219976071481,0.7183325455841847,0.5275339069391685,0.6110734504463352,0.2990160536153156,0.7638711835549465,0.3560171606280749,0.6081250922037105,0.28889001304211925,0.7465026886019469,0.46740733116262345,0.6180998016857635,0.2723705365296225,0.7847236769940518,0.3390839369642691,0.5855504898240896,0.2755083474731194,0.6897639129547033,0.340353873886071,0.5819192645470846,0.2024878119905738,1.0030448580712972,0.28275983421113726,0.5616615630749184,0.27047994854808427,0.9729244983500668,0.39097556438231984,0.6324559010440645,0.17565026908045867,0.22257363273599268,0.04385533911391594,0.5680406478977729,0.2239758531964721,0.20309640514321528,0.23097026655846553,0.7295396216432972,0.1700861280590894,0.23588331924538763,-0.07947231603284519,0.5020715704943434,0.15794493715071883,0.3178438351469238,0.30500593660389297,0.7081673953232349,0.1851204879100038,0.25426652086805845,-0.11121009068095179,0.4749963494591724,0.17042699353429608,0.24018322405704387,0.2579329283528774,0.708821702932023,0.20507643941770956,0.2884689922726652,-0.11182559245123959,0.4375303198438417,0.13940748649913487,0.3075009724422055
12,0.5428390275927512,0.6294221112291335,0.3438054696846347,0.9741897463100894,0.5556166445703324,0.5964787983918296,0.3620695722676503,0.9506600657296823,0.6078119614428206,0.6549674838351913,0.35791894200863955,0.9906584427101629,0.55484772232419,0.6699793299019869,0.3214995141463118,1.0300739013251392,0.603464329468036,0.643165462127762,0.34802204357342253,0.9643426749921085,0.5932504186567397,0.6195304992800368,0.33584873172599594,0.9760106668158947,0.5157416351855423,0.6346619770283621,0.342534059657237,0.9814569621508578,0.5910244548346463,0.6790903052179517,0.35146656388300807,1.0172660614280566,0.5294632771368204,0.6154134326732424,0.3478735155182688,0.9550869491588547,0.5091783495552368,0.6430876352758115,0.3536590015744358,1.0100857807135635,0.5003154734206473,0.6267164817445928,0.3506354174548635,0.9423368551320751,0.5308494282336774,0.6933220446013499,0.3390956789278847,0.9962510356311443,0.3393706901513325,0.6179975999302432,0.3305798460564328,0.9821858179441355,0.6112947469473523,0.660711969393235,0.35416232833977246,0.8727130962128521,0.22542421687961375,0.5961564421974671,0.2454756387175835,0.6841369160260333,0.7841195448650967,0.7092395803819413,0.3244689144384233,0.8793888025030672,0.3316040936045744,0.6242919430383593,0.3202198334108803,0.7654565269136766,0.7799531958680931,0.6841479845013494,0.3823684132532906,0.7294397942722898,0.22807324515415509,0.607077412267318,0.27870687021057317,0.6916958854851551,0.7836401370825794,0.6761313837768711,0.35431862016548227,0.7769431378052822,0.28266821633173406,0.604738296682928,0.2769439072303804,0.7191665679964782,0.7074598047104401,0.6801260639690887,0.324762731105022,0.7916854398991726,0.26759614313197466,0.5824520019700857,0.2644414394570667,0.6637216899780187,0.35841811552771086,0.5882903454224814,0.21409322060271965,1.0031097675294576,0.28529205749243225,0.5558291889790017,0.2759826697355745,0.9729485190219112,0.44412547274885794,0.6265362657481965,0.18261298422589262,0.29950485600926996,0.1279660305215749,0.5260106710529853,0.234860969451423,0.26812078105874254,0.24537085346863213,0.722681451610796,0.17415645012949804,0.3095105378494754,-0.002101452693465032,0.501074682810475,0.16826148282960252,0.341439466269513,0.32253046404131425,0.7001112911400379,0.19449317929410137,0.32441054833960076,-0.03430030148371578,0.4758263441376697,0.18155802510926886,0.2893905240047825,0.26058653996159675,0.70418911073079,0.20522487983759488,0.35378590778475016,-0.05086629896975499,0.4362048019510042,0.14219926507015598,0.33104254215198337
13,0.5510951131634627,0.6245353052179335,0.35504955680625905,0.9745509504574281,0.5552020967638954,0.5922066354775535,0.3652554258588936,0.9516163030458139,0.607213710088649,0.651140925245256,0.3609553942703521,0.9918840930206793,0.5536667234523034,0.6656494696915682,0.3240624214182217,1.0308227740820972,0.6015999780332738,0.6387523938332369,0.35120499324059473,0.9648747060513736,0.5913934571270234,0.6154916289454115,0.33904299618717826,0.9767574534102854,0.5138920961147386,0.6310759827847403,0.34573944038475446,0.9820979505007722,0.5991311309510435,0.673720463165492,0.3559174273391245,1.0188746119766101,0.5290733755687568,0.6139068060672549,0.35002392756797784,0.9563560512554123,0.5106907596903275,0.6382742621869748,0.3567631172488866,1.0106708599066787,0.4991406753039443,0.6235433092706854,0.35295380278328203,0.9429702736921032,0.5466516285574465,0.6937820732497264,0.34334023110586775,0.9962665924434305,0.3447366885122777,0.618141485542731,0.33443880172268203,0.9823299419752025,0.5993616715503897,0.6515001907524879,0.35054267624603264,0.8815249872918011,0.23048032672407878,0.5971195340477479,0.24775227213745038,0.6379455216969623,0.7636342484754194,0.706567384947371,0.3180001562730207,0.8901644878134309,0.33548565924523766,0.6173211202272326,0.31918850062006676,0.7349872881555894,0.7651730496426196,0.682823628899085,0.37606062687692554,0.7511028639973264,0.23821859633428225,0.5979201122718957,0.2782393061592892,0.6741328404602833,0.7633719953911637,0.675543622374741,0.34733156112998553,0.7939842845605007,0.29705323911254006,0.5936675087762813,0.27682016800865683,0.7013070494684935,0.6861437796139404,0.6792809297108184,0.31795149046392646,0.8066181915547512,0.2747579162580897,0.5723195103814932,0.2632919397322484,0.6472213361648473,0.3646288871130412,0.5896747825066794,0.21728636690502398,1.0031678224534688,0.28545564778441795,0.5546351291302163,0.27805844216836945,0.9729666388339228,0.43889819420685866,0.6241904653484163,0.18309252541829935,0.36882166041829706,0.13043185397577434,0.5284949330425788,0.23395435095289052,0.32544569718308647,0.22132694825032911,0.7182617672007008,0.17155556680880052,0.37626911090474274,-0.017494603117005812,0.5258522144343153,0.16569391447532356,0.34607331016828613,0.29875100313699005,0.6864541384872974,0.19416977933947827,0.38742854250502134,-0.05042281390078464,0.5082094880394947,0.1801049647988472,0.32156523046382784,0.21836919532752344,0.6874715575920571,0.19896512323564905,0.41325015381937236,-0.08304888335720435,0.4787014831643831,0.13613916454777766,0.34095798342662625
14,0.5014474958496067,0.619020266250801,0.3477723923059291,0.9750380396145327,0.50579890087403,0.5874842786812888,0.3586436735759996,0.9526498475862193,0.5579783083448351,0.6464155286121078,0.3544793078378269,0.9931999847633854,0.504744888059908,0.6599905451119479,0.31785837780644327,1.031650265365514,0.5510705203825499,0.6340644885216524,0.3442570877343928,0.965660950920606,0.5408750599235146,0.6108365061884535,0.3320969015331203,0.9779798850699838,0.46338042283434344,0.6264534637684744,0.33880532827536614,0.9832201867526034,0.5563406585245573,0.6678018411485852,0.35042933450359876,1.0205192829398975,0.48191204231190043,0.6085130029475955,0.34359890761240286,0.9582560089122728,0.4631652633630837,0.6297880508870786,0.34904532712557246,1.0112061692214067,0.450460824911017,0.61547349601919,0.3449294916878238,0.9436674096173961,0.5266856086467401,0.6859430491828014,0.3405944445225327,0.9962800630931499,0.2983579057774733,0.6119375956959292,0.32678796745841104,0.9824620854726694,0.604634231058312,0.6355393185791786,0.3553097334468954,0.8842016530747295,0.19260417072370253,0.5876416206680787,0.24173543971046746,0.5846137293423785,0.7630113096617747,0.6975336453805681,0.3238493649204244,0.8918827109083711,0.29051365600257595,0.6015519961961657,0.3075406878111524,0.6818904573107103,0.7606063198909889,0.6754958934750432,0.3817420553143606,0.7614121429623227,0.20444660772279696,0.5805872603851464,0.26712835937988216,0.6313975618538685,0.7621088078372745,0.6687174004318394,0.35372498528017476,0.7991702462838284,0.28053470309245476,0.5771177427125911,0.26808474149059675,0.65811233826015,0.6873708941150143,0.672677569534732,0.32430643004216836,0.8056466358449124,0.23083825936629485,0.5566474823167654,0.2506907565739322,0.6063974593070898,0.37140846257365173,0.5876300451676596,0.21658880082318152,1.003220334145516,0.2756689145338738,0.5541815973881203,0.2762246146671714,0.9729856527156062,0.4415233555721798,0.621898547547513,0.18386301438050412,0.43132586254575367,0.17449659707558085,0.5672936824894477,0.24959728181104596,0.3671910618490715,0.229509602318622,0.7193522937815113,0.17320661921057628,0.4366721598968997,0.1389209051335716,0.5410989633585707,0.19068121806647487,0.3879652128534516,0.3057708853124673,0.6922501537499012,0.19323363620606154,0.445274164806123,0.11784309852276616,0.5180868717484486,0.2055832095287277,0.3706906038273228,0.2336941039226669,0.6785717496620645,0.20124243101489456,0.4667331035531065,0.11936489298651877,0.4905500520807039,0.16720935371804296,0.3833205541892606
15,0.5095516257112843,0.6184474060098647,0.34126788521240387,0.9754623650806887,0.5076242085116466,0.5896035814309226,0.3499450471518574,0.9535446921182321,0.5594646735020654,0.6485775082874008,0.34550558635576706,0.9943707988007084,0.5059706071595683,0.661994334060007,0.30864321267038514,1.0323658191260425,0.5584275896733419,0.6353178549919893,0.33677012158389436,0.966273925087476,0.5483440037280264,0.6112298968439711,0.3246928003577582,0.978985892264503,0.4709720616864965,0.6257830903286856,0.3315165209705579,0.9841364889567353,0.5392035400403189,0.6675840457765759,0.3377342164405803,1.0220193530349597,0.4913026545027843,0.6031540685451297,0.3368967798772772,0.9599171903621629,0.46624236080590997,0.6252632238835996,0.34266236773594105,1.0116763306593948,0.46127833857489936,0.6090379825227911,0.3401698482784201,0.9442869402951916,0.506694500115199,0.6775740802191783,0.3346814661142138,0.9962910899524333,0.3247073407074266,0.5932136310047671,0.33095072503749184,0.9825659763685128,0.5365785537633732,0.6296686186966712,0.3444320334664842,0.8909469319100262,0.23076755985669664,0.5729035973869813,0.24841756751758165,0.5435373672093524,0.6425229619287381,0.7000065228830095,0.31035244223204594,0.8933268718466341,0.3393032385271109,0.5995615586885363,0.3147822313421768,0.6465530091905931,0.6272079258905049,0.6805657453503484,0.36815775245637594,0.7663297645748716,0.24334803460182272,0.5809866711097863,0.27279131350175234,0.6044929788765736,0.6354810703384902,0.6750902098419346,0.34049633494239856,0.7989249135659329,0.29961543392335227,0.5775178090883235,0.2703262387140375,0.6316818506273986,0.5681045772371828,0.6785089303516876,0.3120100335785842,0.803576566531863,0.2759317664513316,0.556435826223168,0.25696051279586934,0.5819785092262182,0.3687107521642374,0.575178515664791,0.21606217769536915,1.0032671833963096,0.27806491186635734,0.5418194748524148,0.27649043977567367,0.9729983485049434,0.4412904855099893,0.6213153160983858,0.18541231089981397,0.48761482014157886,0.1814887773458695,0.5937315610981513,0.24306185162052857,0.38536773669190605,0.21597033002723592,0.7172189243357106,0.1715117894512941,0.49118135260205414,0.11626981079210011,0.5760826579119459,0.1848194097549654,0.4150552258806427,0.2900801986966934,0.6846940133270801,0.1916789182993289,0.4972779358727887,0.09280760420572871,0.5521362038903248,0.2006329597833641,0.4075198369968784,0.21680037157446094,0.662601638768815,0.199046396420267,0.5147673542893431,0.09622998426531908,0.5370692719560396,0.16203685120098832,0.41183032005267917
16,,,,,,,,,,,,,,,,,,,,,,,,,,,,,,,,,,,,,,,,,,,,,,,,,,,,,,,,,,,,,,,,,,,,,,,,,,,,,,,,,,,,,,,,,,,,,,,,,,,,,,,,,,,,,,,,,,,,,,,,,,,,,,,,,,,,
17,0.5825276020762687,0.5751859375993728,0.344736159800662,0.975714671542023,0.571845050165149,0.5449521923089133,0.3513485362542851,0.9544078269792245,0.623554316737936,0.6030074327754684,0.3467773021173962,0.9955317184669987,0.5699711424667945,0.6152832468331393,0.30981030545969696,1.0330925785597889,0.6314124649081944,0.5909454156075289,0.33990137027116063,0.9666290495610478,0.6215915833044996,0.5660527351503981,0.32803496921404607,0.9797047242804943,0.5445204842078561,0.5797646686787528,0.3350885434302935,0.9847932725375154,0.5815652821571375,0.6127105792848767,0.33611688101692316,1.0234649444846973,0.5784755999583794,0.5499190741336611,0.3438569286643566,0.9612719443332628,0.5315163122830046,0.577429065939874,0.34552647634318806,1.012111742589479,0.5397733516447835,0.5623884668939764,0.34567052806437604,0.944795010287257,0.536293953036458,0.5872264921568919,0.3347707992484397,0.996300447881663,0.41226104688228815,0.5527970326847598,0.3430829423170557,0.9822360646596813,0.5060760005711803,0.503094758051377,0.31769607197667393,0.8993063045258404,0.30351261511391403,0.5567432880722535,0.2626178788898262,0.5099017509068622,0.5783579449642728,0.5640008828531022,0.24870265163746885,0.9051971964582979,0.35806362849641404,0.5957192644723803,0.3378917380299064,0.6116656357431749,0.5447619648935306,0.5450340218510503,0.29567524547318197,0.7858145229519468,0.2567576162566785,0.5870934053856042,0.2992386985731849,0.5760518477616139,0.5694050800664706,0.5313485425712742,0.2682232593044039,0.815411796729385,0.30509716535521547,0.571853877718542,0.29787238111534375,0.6041940958056212,0.5019491372571163,0.5336382915043365,0.2436800403872845,0.8216139453198574,0.2960735284505506,0.5460395244767996,0.2851863842148877,0.5518104527381811,0.33144850071790577,0.49475390886471154,0.21604836058094143,1.0032838130922017,0.3233290920210636,0.4878256537083108,0.2831090474281969,0.9730041301554866,0.41767421511930825,0.5982272781307039,0.21545420776334745,0.5325185157249224,0.3385925022395601,0.6092423585987616,0.23436157220721454,0.44030426489777763,0.13863065265369523,0.5545387752573414,0.20447616452355166,0.5138573138580814,0.3384672787203772,0.6520559302355543,0.18535206248541752,0.4699367091970642,0.20366496721692104,0.5019811007675709,0.21941281555827946,0.5168048347337201,0.32431069921674943,0.6308798404984486,0.20376235576174456,0.46050759134181857,0.18621006655636776,0.4642498979317177,0.25373052845091065,0.5230717714226744,0.39307643811301757,0.6534422744851839,0.17720279791254967,0.46167860835033236
18,,,,,,,,,,,,,,,,,,,,,,,,,,,,,,,,,,,,,,,,,,,,,,,,,,,,,,,,,,,,,,,,,,,,,,,,,,,,,,,,,,,,,,,,,,,,,,,,,,,,,,,,,,,,,,,,,,,,,,,,,,,,,,,,,,,,
19,,,,,,,,,,,,,,,,,,,,,,,,,,,,,,,,,,,,,,,,,,,,,,,,,,,,,,,,,,,,,,,,,,,,,,,,,,,,,,,,,,,,,,,,,,,,,,,,,,,,,,,,,,,,,,,,,,,,,,,,,,,,,,,,,,,,
20,,,,,,,,,,,,,,,,,,,,,,,,,,,,,,,,,,,,,,,,,,,,,,,,,,,,,,,,,,,,,,,,,,,,,,,,,,,,,,,,,,,,,,,,,,,,,,,,,,,,,,,,,,,,,,,,,,,,,,,,,,,,,,,,,,,,
21,,,,,,,,,,,,,,,,,,,,,,,,,,,,,,,,,,,,,,,,,,,,,,,,,,,,,,,,,,,,,,,,,,,,,,,,,,,,,,,,,,,,,,,,,,,,,,,,,,,,,,,,,,,,,,,,,,,,,,,,,,,,,,,,,,,,
22,,,,,,,,,,,,,,,,,,,,,,,,,,,,,,,,,,,,,,,,,,,,,,,,,,,,,,,,,,,,,,,,,,,,,,,,,,,,,,,,,,,,,,,,,,,,,,,,,,,,,,,,,,,,,,,,,,,,,,,,,,,,,,,,,,,,
23,,,,,,,,,,,,,,,,,,,,,,,,,,,,,,,,,,,,,,,,,,,,,,,,,,,,,,,,,,,,,,,,,,,,,,,,,,,,,,,,,,,,,,,,,,,,,,,,,,,,,,,,,,,,,,,,,,,,,,,,,,,,,,,,,,,,
24,,,,,,,,,,,,,,,,,,,,,,,,,,,,,,,,,,,,,,,,,,,,,,,,,,,,,,,,,,,,,,,,,,,,,,,,,,,,,,,,,,,,,,,,,,,,,,,,,,,,,,,,,,,,,,,,,,,,,,,,,,,,,,,,,,,,
25,,,,,,,,,,,,,,,,,,,,,,,,,,,,,,,,,,,,,,,,,,,,,,,,,,,,,,,,,,,,,,,,,,,,,,,,,,,,,,,,,,,,,,,,,,,,,,,,,,,,,,,,,,,,,,,,,,,,,,,,,,,,,,,,,,,,
26,,,,,,,,,,,,,,,,,,,,,,,,,,,,,,,,,,,,,,,,,,,,,,,,,,,,,,,,,,,,,,,,,,,,,,,,,,,,,,,,,,,,,,,,,,,,,,,,,,,,,,,,,,,,,,,,,,,,,,,,,,,,,,,,,,,,
27,,,,,,,,,,,,,,,,,,,,,,,,,,,,,,,,,,,,,,,,,,,,,,,,,,,,,,,,,,,,,,,,,,,,,,,,,,,,,,,,,,,,,,,,,,,,,,,,,,,,,,,,,,,,,,,,,,,,,,,,,,,,,,,,,,,,
28,,,,,,,,,,,,,,,,,,,,,,,,,,,,,,,,,,,,,,,,,,,,,,,,,,,,,,,,,,,,,,,,,,,,,,,,,,,,,,,,,,,,,,,,,,,,,,,,,,,,,,,,,,,,,,,,,,,,,,,,,,,,,,,,,,,,
29,,,,,,,,,,,,,,,,,,,,,,,,,,,,,,,,,,,,,,,,,,,,,,,,,,,,,,,,,,,,,,,,,,,,,,,,,,,,,,,,,,,,,,,,,,,,,,,,,,,,,,,,,,,,,,,,,,,,,,,,,,,,,,,,,,,,
30,,,,,,,,,,,,,,,,,,,,,,,,,,,,,,,,,,,,,,,,,,,,,,,,,,,,,,,,,,,,,,,,,,,,,,,,,,,,,,,,,,,,,,,,,,,,,,,,,,,,,,,,,,,,,,,,,,,,,,,,,,,,,,,,,,,,
31,,,,,,,,,,,,,,,,,,,,,,,,,,,,,,,,,,,,,,,,,,,,,,,,,,,,,,,,,,,,,,,,,,,,,,,,,,,,,,,,,,,,,,,,,,,,,,,,,,,,,,,,,,,,,,,,,,,,,,,,,,,,,,,,,,,,
32,,,,,,,,,,,,,,,,,,,,,,,,,,,,,,,,,,,,,,,,,,,,,,,,,,,,,,,,,,,,,,,,,,,,,,,,,,,,,,,,,,,,,,,,,,,,,,,,,,,,,,,,,,,,,,,,,,,,,,,,,,,,,,,,,,,,
33,,,,,,,,,,,,,,,,,,,,,,,,,,,,,,,,,,,,,,,,,,,,,,,,,,,,,,,,,,,,,,,,,,,,,,,,,,,,,,,,,,,,,,,,,,,,,,,,,,,,,,,,,,,,,,,,,,,,,,,,,,,,,,,,,,,,
34,,,,,,,,,,,,,,,,,,,,,,,,,,,,,,,,,,,,,,,,,,,,,,,,,,,,,,,,,,,,,,,,,,,,,,,,,,,,,,,,,,,,,,,,,,,,,,,,,,,,,,,,,,,,,,,,,,,,,,,,,,,,,,,,,,,,
35,,,,,,,,,,,,,,,,,,,,,,,,,,,,,,,,,,,,,,,,,,,,,,,,,,,,,,,,,,,,,,,,,,,,,,,,,,,,,,,,,,,,,,,,,,,,,,,,,,,,,,,,,,,,,,,,,,,,,,,,,,,,,,,,,,,,
36,,,,,,,,,,,,,,,,,,,,,,,,,,,,,,,,,,,,,,,,,,,,,,,,,,,,,,,,,,,,,,,,,,,,,,,,,,,,,,,,,,,,,,,,,,,,,,,,,,,,,,,,,,,,,,,,,,,,,,,,,,,,,,,,,,,,
37,,,,,,,,,,,,,,,,,,,,,,,,,,,,,,,,,,,,,,,,,,,,,,,,,,,,,,,,,,,,,,,,,,,,,,,,,,,,,,,,,,,,,,,,,,,,,,,,,,,,,,,,,,,,,,,,,,,,,,,,,,,,,,,,,,,,
38,,,,,,,,,,,,,,,,,,,,,,,,,,,,,,,,,,,,,,,,,,,,,,,,,,,,,,,,,,,,,,,,,,,,,,,,,,,,,,,,,,,,,,,,,,,,,,,,,,,,,,,,,,,,,,,,,,,,,,,,,,,,,,,,,,,,
39,,,,,,,,,,,,,,,,,,,,,,,,,,,,,,,,,,,,,,,,,,,,,,,,,,,,,,,,,,,,,,,,,,,,,,,,,,,,,,,,,,,,,,,,,,,,,,,,,,,,,,,,,,,,,,,,,,,,,,,,,,,,,,,,,,,,
40,,,,,,,,,,,,,,,,,,,,,,,,,,,,,,,,,,,,,,,,,,,,,,,,,,,,,,,,,,,,,,,,,,,,,,,,,,,,,,,,,,,,,,,,,,,,,,,,,,,,,,,,,,,,,,,,,,,,,,,,,,,,,,,,,,,,
41,,,,,,,,,,,,,,,,,,,,,,,,,,,,,,,,,,,,,,,,,,,,,,,,,,,,,,,,,,,,,,,,,,,,,,,,,,,,,,,,,,,,,,,,,,,,,,,,,,,,,,,,,,,,,,,,,,,,,,,,,,,,,,,,,,,,
42,,,,,,,,,,,,,,,,,,,,,,,,,,,,,,,,,,,,,,,,,,,,,,,,,,,,,,,,,,,,,,,,,,,,,,,,,,,,,,,,,,,,,,,,,,,,,,,,,,,,,,,,,,,,,,,,,,,,,,,,,,,,,,,,,,,,
43,,,,,,,,,,,,,,,,,,,,,,,,,,,,,,,,,,,,,,,,,,,,,,,,,,,,,,,,,,,,,,,,,,,,,,,,,,,,,,,,,,,,,,,,,,,,,,,,,,,,,,,,,,,,,,,,,,,,,,,,,,,,,,,,,,,,
44,,,,,,,,,,,,,,,,,,,,,,,,,,,,,,,,,,,,,,,,,,,,,,,,,,,,,,,,,,,,,,,,,,,,,,,,,,,,,,,,,,,,,,,,,,,,,,,,,,,,,,,,,,,,,,,,,,,,,,,,,,,,,,,,,,,,
45,,,,,,,,,,,,,,,,,,,,,,,,,,,,,,,,,,,,,,,,,,,,,,,,,,,,,,,,,,,,,,,,,,,,,,,,,,,,,,,,,,,,,,,,,,,,,,,,,,,,,,,,,,,,,,,,,,,,,,,,,,,,,,,,,,,,
46,,,,,,,,,,,,,,,,,,,,,,,,,,,,,,,,,,,,,,,,,,,,,,,,,,,,,,,,,,,,,,,,,,,,,,,,,,,,,,,,,,,,,,,,,,,,,,,,,,,,,,,,,,,,,,,,,,,,,,,,,,,,,,,,,,,,
47,,,,,,,,,,,,,,,,,,,,,,,,,,,,,,,,,,,,,,,,,,,,,,,,,,,,,,,,,,,,,,,,,,,,,,,,,,,,,,,,,,,,,,,,,,,,,,,,,,,,,,,,,,,,,,,,,,,,,,,,,,,,,,,,,,,,
48,,,,,,,,,,,,,,,,,,,,,,,,,,,,,,,,,,,,,,,,,,,,,,,,,,,,,,,,,,,,,,,,,,,,,,,,,,,,,,,,,,,,,,,,,,,,,,,,,,,,,,,,,,,,,,,,,,,,,,,,,,,,,,,,,,,,
49,,,,,,,,,,,,,,,,,,,,,,,,,,,,,,,,,,,,,,,,,,,,,,,,,,,,,,,,,,,,,,,,,,,,,,,,,,,,,,,,,,,,,,,,,,,,,,,,,,,,,,,,,,,,,,,,,,,,,,,,,,,,,,,,,,,,
50,,,,,,,,,,,,,,,,,,,,,,,,,,,,,,,,,,,,,,,,,,,,,,,,,,,,,,,,,,,,,,,,,,,,,,,,,,,,,,,,,,,,,,,,,,,,,,,,,,,,,,,,,,,,,,,,,,,,,,,,,,,,,,,,,,,,
51,,,,,,,,,,,,,,,,,,,,,,,,,,,,,,,,,,,,,,,,,,,,,,,,,,,,,,,,,,,,,,,,,,,,,,,,,,,,,,,,,,,,,,,,,,,,,,,,,,,,,,,,,,,,,,,,,,,,,,,,,,,,,,,,,,,,
52,,,,,,,,,,,,,,,,,,,,,,,,,,,,,,,,,,,,,,,,,,,,,,,,,,,,,,,,,,,,,,,,,,,,,,,,,,,,,,,,,,,,,,,,,,,,,,,,,,,,,,,,,,,,,,,,,,,,,,,,,,,,,,,,,,,,
53,,,,,,,,,,,,,,,,,,,,,,,,,,,,,,,,,,,,,,,,,,,,,,,,,,,,,,,,,,,,,,,,,,,,,,,,,,,,,,,,,,,,,,,,,,,,,,,,,,,,,,,,,,,,,,,,,,,,,,,,,,,,,,,,,,,,
54,,,,,,,,,,,,,,,,,,,,,,,,,,,,,,,,,,,,,,,,,,,,,,,,,,,,,,,,,,,,,,,,,,,,,,,,,,,,,,,,,,,,,,,,,,,,,,,,,,,,,,,,,,,,,,,,,,,,,,,,,,,,,,,,,,,,
55,,,,,,,,,,,,,,,,,,,,,,,,,,,,,,,,,,,,,,,,,,,,,,,,,,,,,,,,,,,,,,,,,,,,,,,,,,,,,,,,,,,,,,,,,,,,,,,,,,,,,,,,,,,,,,,,,,,,,,,,,,,,,,,,,,,,
56,0.7267448621702695,0.7023089954416274,0.32156913148066585,0.9762238144176943,0.7750189591815102,0.6597335124039756,0.33782756071798525,0.9552557030511545,0.829717261230831,0.7177705138492294,0.3358233837634187,0.9966215297920721,0.7822766933423818,0.7257159312546786,0.3040344340218646,1.0337807737883655,0.8354523517113791,0.7121835876618197,0.3192845819101363,0.9673872206425909,0.821666729713018,0.6871402266626967,0.3041031642714827,0.9808630213424142,0.7404375112254518,0.7005424544567984,0.3077740017511403,0.9858451753085113,0.9069924915903982,0.6958947619287671,0.3531752056026626,1.024781849506365,0.9113893719206531,0.6449376397884158,0.33285471230563307,0.962951424409099,0.6975395942414133,0.682798812624902,0.3299065950160582,1.0125438762641006,0.7123904948770029,0.6687819829576666,0.32557535200105836,0.9453856923169811,0.8231467303661546,0.6392046034239818,0.3730333283970702,0.9963041433696391,0.737603335709262,0.5948401821560427,0.32168253308868694,0.9823922288289927,0.60087640464253,0.5136531844315345,0.37160780752322303,0.9086785388703228,0.5018317095029936,0.5461113095604432,0.21503754704346456,0.5585646518315448,0.5284608102744337,0.6329777023683305,0.3049675932085252,0.907775752995926,0.49642968724937997,0.6677992806085498,0.27064405812620207,0.6493218833589891,0.5346039549092034,0.6181452579464788,0.3707707900614104,0.7971640221775632,0.446268772942055,0.675717286725631,0.23473175044737477,0.6163525150475331,0.5485408101416379,0.6149966281654514,0.33533321906059943,0.8198066856072537,0.4937159625088228,0.6741234080148677,0.2344225418866082,0.6425826460871459,0.44733705542864904,0.6138920117878448,0.2977839746974856,0.8251853364255093,0.4339005197440786,0.6411514906099173,0.2174028253452968,0.5908414814857397,0.3061037300681588,0.46419329618618366,0.22500294455202416,1.003269925209969,0.3435464147436239,0.4774507500294168,0.269857897299269,0.9730132496661372,-0.22790967212984817,0.5979694284374055,0.15127998293265849,0.4839130438754809,-0.2720765080614097,0.572958448324256,0.14088908780678241,0.43674816238351066,-0.905330392492443,0.5313139446299,0.08548912538852572,0.5032279579506412,-0.7855294931400864,0.4519451371218458,0.018505357893171245,0.5002916262464723,-0.8956378769979438,0.46391939255567205,0.09146300262128891,0.5277486647469952,-0.860416240482873,0.40093504512834655,0.029220643527799274,0.49956207451709633,-1.0232393531707507,0.4854148516403664,0.10775929309779134,0.4716532285607359,-0.9164796524608974,0.4292864014249574,-0.018166612725721287,0.4212320884986478
57,0.7103396108404667,0.6837529370347976,0.3243215920625663,0.9766785978573306,0.7349981815858776,0.6403465652489768,0.3381621390096064,0.9560298481774973,0.7905478666889043,0.6952103346156784,0.3368086472183693,0.9976098940117375,0.7409278419196362,0.7039793093979891,0.30316359243854824,1.0344093643721668,0.7916164214126383,0.6902218986664583,0.31786605244054267,0.9680724356389286,0.7777079440455223,0.6649038794642104,0.30253692157003487,0.9819080695792612,0.6965065923267263,0.6780760333294791,0.3061120139115994,0.9867953925555207,0.8020046102471815,0.6724452217905225,0.34203658312747504,1.0259800816802847,0.7977074438646866,0.6213445120609072,0.3197956078050168,0.9644792702686266,0.670208145084046,0.6715908744306271,0.33233219308425477,1.0129498434996658,0.6780361344525491,0.6598720422380621,0.32398698056143477,0.9459292866773328,0.7113960472136973,0.5927195370101024,0.36232260796886634,0.9963127264384869,0.6402045585944451,0.5729982388920352,0.3113230721760801,0.9825341474882029,0.5950279572576308,0.4599360480484779,0.38193051927736266,0.9169640613312604,0.46648735269954955,0.5179265976273072,0.21268872046339382,0.601965118273653,0.5747689883906083,0.529418148745131,0.3288424156962865,0.9100003175482332,0.5086025368047468,0.5787631735452563,0.2826235949335338,0.6788736278200487,0.5718088013468602,0.49588757824562735,0.39370283470360523,0.8068424455822568,0.4456336053448523,0.5642625018554833,0.24545322124387103,0.6472285555062123,0.5845959367195002,0.49367685735246314,0.35822249357312175,0.8236731197045437,0.5052982040050075,0.565018476660345,0.24747995587106775,0.6709300787005187,0.49544726254630367,0.5025292564892303,0.3227557381893665,0.8240003364827297,0.45112311863860055,0.5420389203241202,0.231714367547965,0.6189280841735754,0.3067606502501733,0.46481008505031945,0.22582196045706085,1.003301038834542,0.3489484183096705,0.4588618196609933,0.27413693167057224,0.97302576664154,-0.033850133155393945,0.614503458874875,0.16305203982335043,0.4388974405715716,-0.047770683115786874,0.5698348669148017,0.1794405230552005,0.42726917612023546,-0.5559495425843808,0.5378751047174855,0.09659895408559095,0.4982376782761112,-0.4163034510084785,0.4361847749735609,0.08202565809518074,0.5248365209417543,-0.5232614775058333,0.4640004548725666,0.10397005960031162,0.5386179293496564,-0.4774124451341299,0.38850989068079106,0.09112774048250957,0.5275040763367069,-0.6106292550145841,0.5081241020905007,0.11723037795909128,0.425780093232443,-0.48869110770745366,0.4294285883050691,0.04781679908563008,0.38314722388225375
58,0.8028869544871088,0.6398553678552626,0.3529097766799844,0.9771028041141969,0.8179915974343794,0.5985338473343955,0.3636950854416103,0.9567353287530589,0.8725120333699121,0.6524599164294906,0.36153097502415765,0.9985069439156071,0.8216981281720719,0.6607912739098605,0.3268696730407147,1.0349887811240284,0.8701014154101597,0.650274746528702,0.3441543780898664,0.9686966750836612,0.8567874585017243,0.6258464458590163,0.32927265633963904,0.982853637663978,0.7760835581994626,0.639991705154888,0.33327579880838043,0.9876557856028534,0.8734482096368755,0.6310732206194104,0.361318116937516,1.0270613099365102,0.8603223368124627,0.5879134588992861,0.34328237691559726,0.9658566144000964,0.7596204473314259,0.6266670920819943,0.3593382119311676,1.0133187366461807,0.7613666003206082,0.6173320284479314,0.35120160419646734,0.9464204885549268,0.757081004654913,0.5532023131751109,0.37406985944134186,0.9963151106242777,0.6798495505431674,0.5623894465870425,0.3277655797122561,0.9826611649862192,0.6318605409639085,0.420462991255265,0.38862471473187643,0.9217028690094828,0.48654219354913497,0.5156489253365052,0.23030253912557952,0.640997100695528,0.591681585366669,0.4953236660848374,0.3287523453844099,0.9065476588949739,0.47193842838145134,0.5580709442743212,0.28565346762158866,0.7075802976274828,0.5914859582285955,0.46749839257858933,0.40104674814364044,0.8100271813572507,0.39554465725337384,0.5459535643058923,0.2449857748555702,0.678131000822527,0.6142760972242133,0.47243927538415564,0.36829158471662543,0.8217636849091641,0.4478437231482741,0.5447483674837093,0.24487546496779006,0.7007611305269957,0.5258563896520737,0.47914829149479976,0.3327745742597134,0.8199925201680325,0.4077331422108047,0.5189270404985281,0.2311770457312572,0.6490690205482397,0.3217185623627487,0.43760008787319543,0.23484912503566377,1.0031355763406453,0.3565860616861939,0.4396164633396584,0.28379735686516944,0.9728628671473688,0.09392449978569642,0.6418199695522127,0.1930872711747616,0.4001135922858965,0.021080773064357225,0.6221565989590216,0.20878635906101303,0.39372237073846056,-0.35884029099813197,0.6606665142099781,0.14335716724825753,0.4622098295555606,-0.306473946796578,0.600813280680348,0.12317825599152947,0.484440456421872,-0.318917074204081,0.5978844973740162,0.1512433923680747,0.49892815006804014,-0.35971512978003023,0.5618900271706593,0.13561054555737187,0.485584844921912,-0.37818085696917453,0.6606036314712991,0.17711957816144216,0.3864772077000639,-0.35758966437806405,0.6350770105462801,0.10529828317108492,0.3445480903907376
59,1.055430895634538,0.6351153084794997,0.38656612830111714,0.9774808167713626,1.0658837568259236,0.5891045117402183,0.3988743402807583,0.9573674956155465,1.1216361018686818,0.6447257965373703,0.3977031197433953,0.9993100568993109,1.0721753335025352,0.6545115073502596,0.36414028455047637,1.0355074011382188,1.1283614275668783,0.6365292597924044,0.3798609510431896,0.9692572567677739,1.1146916015250603,0.6106542947893752,0.3647654790329603,0.9837016329451974,1.033646386264924,0.6232844636197012,0.3685477165336626,0.9884282617991426,1.0399743247052133,0.6256083091585339,0.3895601758136582,1.0280237461356982,1.0568186345649837,0.5679144316470889,0.3712977943975897,0.9670878675472215,0.9771466915927844,0.6261851289243405,0.38863788793250725,1.0136318994498306,0.9907610643173249,0.6128899922960455,0.3810463946225654,0.9468473174161631,0.8212552237149621,0.577527445545106,0.3912757412801111,0.9963021764163615,0.7857007159868161,0.5379166735119387,0.34102219985489907,0.9827481281629464,0.664482651583077,0.5691513076004798,0.3902075068888067,0.92655856139611,0.6233516030753647,0.5767762899719727,0.2475405065219532,0.6764684208478107,0.7187980728872133,0.735397734392714,0.32204878841879225,0.9130877189383089,0.7692902993193471,0.6945777997621447,0.3212862594124308,0.7366838747644762,0.7401137888352045,0.7301795787777776,0.3901195691980018,0.8242692343891721,0.7379894292154822,0.6990259214836266,0.2829896426811574,0.7102098034081288,0.7810697773244716,0.7213884156944431,0.3579982308327187,0.8340070153878323,0.7974397869583697,0.697973491366003,0.28713982884458045,0.7321013719591857,0.6528272256494222,0.7174236704372894,0.3170836809697937,0.8327182906415127,0.7149223004027241,0.6660797623803946,0.270695874155256,0.6810547802833471,0.3367893234634321,0.434146415940975,0.24086605816884024,1.0030779982537923,0.34488818547304156,0.4258776523235757,0.28073834077855847,0.9727790630168148,0.03929000883125292,0.6300918616229829,0.1891605837565891,0.368787298340584,-0.09334215534024921,0.603866138849311,0.1885138767655814,0.35456813919015123,-0.5713148602218607,0.5956276543657704,0.11702695181430901,0.43483743952374604,-0.5451396372034265,0.5348118058230177,0.08543947082478896,0.4476954744177063,-0.5457329354686239,0.5289910647568287,0.12322860134326767,0.4703807736737683,-0.6100122311444959,0.4907770367913257,0.0960969798862584,0.45490594682582736,-0.5815688613428367,0.574533987973832,0.15268289352892953,0.34859937981729716,-0.5788619675858295,0.5468832363229524,0.06989454227092529,0.30759231656032376
60,,,,,,,,,,,,,,,,,,,,,,,,,,,,,,,,,,,,,,,,,,,,,,,,,,,,,,,,,,,,,,,,,,,,,,,,,,,,,,,,,,,,,,,,,,,,,,,,,,,,,,,,,,,,,,,,,,,,,,,,,,,,,,,,,,,,
61,,,,,,,,,,,,,,,,,,,,,,,,,,,,,,,,,,,,,,,,,,,,,,,,,,,,,,,,,,,,,,,,,,,,,,,,,,,,,,,,,,,,,,,,,,,,,,,,,,,,,,,,,,,,,,,,,,,,,,,,,,,,,,,,,,,,
62,,,,,,,,,,,,,,,,,,,,,,,,,,,,,,,,,,,,,,,,,,,,,,,,,,,,,,,,,,,,,,,,,,,,,,,,,,,,,,,,,,,,,,,,,,,,,,,,,,,,,,,,,,,,,,,,,,,,,,,,,,,,,,,,,,,,
63,,,,,,,,,,,,,,,,,,,,,,,,,,,,,,,,,,,,,,,,,,,,,,,,,,,,,,,,,,,,,,,,,,,,,,,,,,,,,,,,,,,,,,,,,,,,,,,,,,,,,,,,,,,,,,,,,,,,,,,,,,,,,,,,,,,,
64,,,,,,,,,,,,,,,,,,,,,,,,,,,,,,,,,,,,,,,,,,,,,,,,,,,,,,,,,,,,,,,,,,,,,,,,,,,,,,,,,,,,,,,,,,,,,,,,,,,,,,,,,,,,,,,,,,,,,,,,,,,,,,,,,,,,
65,,,,,,,,,,,,,,,,,,,,,,,,,,,,,,,,,,,,,,,,,,,,,,,,,,,,,,,,,,,,,,,,,,,,,,,,,,,,,,,,,,,,,,,,,,,,,,,,,,,,,,,,,,,,,,,,,,,,,,,,,,,,,,,,,,,,
66,,,,,,,,,,,,,,,,,,,,,,,,,,,,,,,,,,,,,,,,,,,,,,,,,,,,,,,,,,,,,,,,,,,,,,,,,,,,,,,,,,,,,,,,,,,,,,,,,,,,,,,,,,,,,,,,,,,,,,,,,,,,,,,,,,,,
67,,,,,,,,,,,,,,,,,,,,,,,,,,,,,,,,,,,,,,,,,,,,,,,,,,,,,,,,,,,,,,,,,,,,,,,,,,,,,,,,,,,,,,,,,,,,,,,,,,,,,,,,,,,,,,,,,,,,,,,,,,,,,,,,,,,,
68,,,,,,,,,,,,,,,,,,,,,,,,,,,,,,,,,,,,,,,,,,,,,,,,,,,,,,,,,,,,,,,,,,,,,,,,,,,,,,,,,,,,,,,,,,,,,,,,,,,,,,,,,,,,,,,,,,,,,,,,,,,,,,,,,,,,
69,,,,,,,,,,,,,,,,,,,,,,,,,,,,,,,,,,,,,,,,,,,,,,,,,,,,,,,,,,,,,,,,,,,,,,,,,,,,,,,,,,,,,,,,,,,,,,,,,,,,,,,,,,,,,,,,,,,,,,,,,,,,,,,,,,,,
70,,,,,,,,,,,,,,,,,,,,,,,,,,,,,,,,,,,,,,,,,,,,,,,,,,,,,,,,,,,,,,,,,,,,,,,,,,,,,,,,,,,,,,,,,,,,,,,,,,,,,,,,,,,,,,,,,,,,,,,,,,,,,,,,,,,,
71,0.48233381601231184,0.5641590783159255,0.34234933314986365,0.977558720042084,0.47519268896162153,0.5232902550721275,0.35074836688123073,0.9576898971391367,0.5282287783289692,0.5809956758784958,0.34727306083008097,0.9997558400375859,0.4759083738065092,0.5930045207322177,0.31138182399756276,1.0357898079451648,0.5533180373830378,0.5651873279724886,0.33994219000010784,0.9694963906026128,0.5426573252125393,0.5374190214281691,0.32732503395247886,0.9840958580657418,0.4647979504074262,0.5483292386288565,0.33363878136112257,0.9888621836131074,0.4758710647744201,0.5777320107309522,0.33763977596447403,1.0286069775848254,0.5574590708882418,0.49960429008367335,0.3507218725849382,0.9676676419269518,0.42339216100142885,0.5666797258825009,0.34282582219659424,1.0137892557120376,0.45608920373020645,0.5455763211839849,0.3444870886058692,0.9470461585111339,0.4088076139506227,0.585013014068513,0.3382966782105781,0.9963098058108929,0.44133917359947317,0.4782970679707095,0.3494410102845659,0.9828348529210948,0.4335817967332865,0.6057536258873756,0.33909179599230227,0.8883292151207806,0.35747926247549644,0.4828902721725952,0.25672810123202583,0.648305643423952,0.6812794184739182,0.6983152410875078,0.32032056721614366,0.8954741291746675,0.4275974475907384,0.5240644082673938,0.31701216256266596,0.6970674688005785,0.6760744645152459,0.6829551763501043,0.37751247229378937,0.8081510059536557,0.3421911308690474,0.5097831710773613,0.27493253417277047,0.6757168934998341,0.6953868049746766,0.6697664421798862,0.35026341656533433,0.817763259570419,0.3984750410768705,0.5026654021097163,0.2735461413771436,0.6978444964442015,0.6107399901697175,0.6692203809284698,0.31922144347764947,0.8173733132626675,0.36317547805982564,0.48168513457087003,0.25954929542774546,0.6486176345733556,0.2761774522296749,0.5287488219659079,0.21083758388383886,1.0031343246431053,0.3751781537320156,0.4687980629566628,0.2854223347544105,0.972814050943298,0.5271502663345566,0.7100504793102083,0.24197411844998234,0.3883041538188708,0.5463174160817397,0.5935241369343329,0.26934073253388463,0.39212556230492784,0.3006509080262813,0.6899566538851185,0.18828720709070954,0.4587821750507846,0.46593105589718287,0.550362955668141,0.17852850550813032,0.48147375443746643,0.3681729486455421,0.6247846100029529,0.19660809283955683,0.4793383981091931,0.44361308794852095,0.516503295546056,0.1930847222235931,0.4558268385876072,0.38802993146466336,0.6498646030174722,0.2238857814828509,0.3820006604588529,0.520905487883162,0.5419839133363497,0.15621520512816917,0.3524068733974057
72,0.7009471503386104,0.5149774977724074,0.37485246723340965,0.9774413584965214,0.6954784289417475,0.48094789028407203,0.38411743869661896,0.9578431406808541,0.7485154797512814,0.542851564245195,0.38068258561077145,0.9999528333885684,0.6963610206576839,0.5589778979600009,0.3448847996105907,1.0358606778678028,0.7531164669717022,0.5156436194096377,0.3701963439553797,0.969391188404584,0.7424651524251727,0.48691087991052995,0.3575838892090586,0.9840338692351754,0.6645345232603291,0.49679553959321204,0.3638893763707719,0.988942709488199,0.6772843737946027,0.5655665835230054,0.3696088670196559,1.0291030074386462,0.6610726508365916,0.4634085350787905,0.36756341696476796,0.9675698307048753,0.6344094421594877,0.5321900942296689,0.37460300907635463,1.0138479662871414,0.6384430426085482,0.504101859628504,0.3716013160949164,0.9470171906537731,0.5617053942538188,0.6084111153983165,0.3640037895660683,0.9963188061122539,0.46951304540899624,0.46178369054265467,0.3570568038574845,0.9829154980054758,0.48903937859242624,0.605923618334275,0.34747215298652845,0.8692776633019329,0.3564962506229702,0.4559242964111817,0.25623584468519844,0.6227143891896381,0.5784436164651553,0.6337738416085954,0.2996488527007708,0.866755359624344,0.4681566159261147,0.48738368007029603,0.316303065800488,0.6753310853624681,0.5488630860231015,0.6009177274670476,0.3522968220194077,0.7751699082554441,0.3776531861669564,0.4549241289096978,0.2749025618669374,0.6544625328240223,0.5606689300562685,0.5916873377563633,0.3252612541368444,0.7828900720284573,0.4464890958441867,0.4485391990495661,0.2750396514226797,0.6767396838221312,0.4990535911621691,0.5964365531467926,0.29818726572270765,0.779966332271304,0.41090409873354267,0.4354257611444326,0.2607933348040946,0.628401884832755,0.32777145160686993,0.546057831994747,0.2189449362063143,1.0031901145906148,0.32680197896271074,0.4694833971622903,0.27988151629827746,0.9728473699397272,0.644966196498756,0.7248341597492036,0.25938323239534483,0.4371199406574023,0.40950469912792303,0.5782580165005256,0.2698099615047105,0.38201867091126634,0.4036820545706438,0.7256153114359303,0.20697427150479958,0.5005906312332645,0.2123458542644487,0.5677172652270094,0.1785718689276347,0.4610580609159668,0.47252220317576593,0.6662345144447864,0.21781424461720136,0.5097151602609112,0.1755471139486144,0.5444408270173084,0.19121585162950028,0.4446790116775883,0.48473424477650795,0.6930394658791055,0.23853622725389267,0.43162087158327306,0.21529424434774241,0.5463017334085237,0.15312008294640497,0.36039037912326627
73,,,,,,,,,,,,,,,,,,,,,,,,,,,,,,,,,,,,,,,,,,,,,,,,,,,,,,,,,,,,,,,,,,,,,,,,,,,,,,,,,,,,,,,,,,,,,,,,,,,,,,,,,,,,,,,,,,,,,,,,,,,,,,,,,,,,
74,,,,,,,,,,,,,,,,,,,,,,,,,,,,,,,,,,,,,,,,,,,,,,,,,,,,,,,,,,,,,,,,,,,,,,,,,,,,,,,,,,,,,,,,,,,,,,,,,,,,,,,,,,,,,,,,,,,,,,,,,,,,,,,,,,,,
75,,,,,,,,,,,,,,,,,,,,,,,,,,,,,,,,,,,,,,,,,,,,,,,,,,,,,,,,,,,,,,,,,,,,,,,,,,,,,,,,,,,,,,,,,,,,,,,,,,,,,,,,,,,,,,,,,,,,,,,,,,,,,,,,,,,,
76,,,,,,,,,,,,,,,,,,,,,,,,,,,,,,,,,,,,,,,,,,,,,,,,,,,,,,,,,,,,,,,,,,,,,,,,,,,,,,,,,,,,,,,,,,,,,,,,,,,,,,,,,,,,,,,,,,,,,,,,,,,,,,,,,,,,
77,0.7887910740052475,0.5253300497095107,0.31010746366030884,0.97777472727475,0.7704516316573257,0.4917582058930503,0.3123573339091529,0.958356694300239,0.8213976533484486,0.5474637120532699,0.3071944290802828,1.0005988285286442,0.7671100971237113,0.5572974046052035,0.26965052087267805,1.0362859570082752,0.8576374889874788,0.5460464287911226,0.30668992488224633,0.9698743436551335,0.8488965968797617,0.5253323319559706,0.2956357690367487,0.9847507939025338,0.7728339231041186,0.5431723639721793,0.30348835308150857,0.9895726709788302,0.7194056015998622,0.5640623411028088,0.28827934979451697,1.0298526550559863,0.8363574320137087,0.5313832813060549,0.31978488823114026,0.9686267998706773,0.7175621456758279,0.5237543680638974,0.3135423312080053,1.0141167832350784,0.7606067294768161,0.5189020505541021,0.32072782649901116,0.947383461195918,0.583136696920741,0.5358560502432872,0.29192099368862173,0.9963219651584269,0.6915414737430563,0.5759927762455508,0.3496477444290431,0.9829230081907177,0.5127920786778958,0.3952794625935371,0.30416690272798474,0.8577365351433636,0.5877391068120952,0.5965639591537965,0.3055334830440423,0.6390110143269672,0.5944763464567603,0.3958937904725785,0.2627691634241019,0.8589937023863374,0.5705457370146474,0.6136150226243884,0.3727991104374487,0.641878812947307,0.5651720817234133,0.36078235578201956,0.31629659101848806,0.7644509069622617,0.48579528734117117,0.5969098135429528,0.3395878487090171,0.6156371401009388,0.5971773546822633,0.3582534652950443,0.29001616948984027,0.7750395442650906,0.5288957843560202,0.5843412892175655,0.33099216533279774,0.6357799083742858,0.5275863712310361,0.36861448779339895,0.26334551316370275,0.7722529547955654,0.5007182638991513,0.5616003302743765,0.3145463725905421,0.588924357691184,0.31950384291893164,0.45433006858036395,0.23584789560307715,1.0028997803659139,0.4140875856905744,0.4885089613560159,0.3287121536391135,0.972542551786346,0.14554992356425758,0.5308545686179933,0.2258930463681011,0.44783274306752796,0.1331970788760472,0.5336769310570288,0.28532294461903235,0.41314347135491564,-0.1920645857158531,0.4961685724775714,0.22330302057583507,0.5203076689110294,-0.07192057086253154,0.4346419385458723,0.23700169150371125,0.4797892675714691,-0.1316510500745209,0.44236161443563116,0.2405408640965973,0.5130453313691571,-0.10516373621172793,0.39880593741464726,0.2559888090779348,0.44029398736842995,-0.13672029014675022,0.4074409792171944,0.2744515467337907,0.4606227631962797,-0.023180350758781786,0.3619555343728792,0.2363940608751452,0.381012394122656
78,0.8935399987075023,0.551724476532173,0.3342109907798914,0.9780728101032717,0.8752201358922627,0.5177552485489951,0.3332896739517933,0.9588105836702036,0.9255227102944146,0.5716497271823593,0.32761692539310233,1.0011737153275029,0.8706340740781512,0.5797445734322604,0.2895529633361442,1.0366578303870289,0.9553564064240744,0.5756022263680269,0.3273977573389643,0.9703045103764775,0.9466850798462934,0.5549409988527907,0.3164071274538668,0.9853941664382394,0.870739574622679,0.5728490397686881,0.32434168282218057,0.9901351004069305,0.8220527989818658,0.5758163770525159,0.30561139567129086,1.030518796565996,0.9039860033314538,0.5540970021045474,0.334048279930082,0.9695779707920031,0.8174296395554728,0.5482961633176511,0.33392332202430475,1.014337439630037,0.8506393076787658,0.5463697186105901,0.3404003217377014,0.9476909019536693,0.6439381724070476,0.5358246982001353,0.30060132151029556,0.9963055142764689,0.7457403964258256,0.5948545468754336,0.36202129073224065,0.9828756224981211,0.49641281568186296,0.39565842892501896,0.302067699882991,0.8522054029221416,0.6525247756105734,0.603971087964679,0.3259228226751446,0.6581596621121539,0.450210353737421,0.4056373021493668,0.24343284196415815,0.8509541086897432,0.6433395227475107,0.615345881904021,0.4029394846010872,0.6345809990549425,0.3950845090087542,0.36605686020516104,0.2905753981983753,0.7536111466587644,0.5586800798616492,0.6015751882988122,0.3715433359081553,0.5973004267868824,0.42334459039995226,0.36340071380159034,0.26397696703677304,0.768673470179855,0.6045675531475382,0.5847301499200801,0.36467872757554626,0.6168460757288695,0.3734565173157687,0.37948694124455556,0.24035717637110007,0.7673560159947537,0.5766984509303307,0.5613959459474417,0.3472086660359186,0.5728601906684789,0.31825779929772,0.46088723515674945,0.2356118547135805,1.0028715277642903,0.41615245576725635,0.5064124681118447,0.32960541015855754,0.9724211371249384,0.11367067076052947,0.5304626978809175,0.22108686539861938,0.4669035173843157,0.10039228683418937,0.5463266758060981,0.2805322724428411,0.42412586557336046,-0.266499112899466,0.501448083690874,0.2111610695798537,0.5329220383034244,-0.14860614663323699,0.44412038836734447,0.22140771658124514,0.48172528603841863,-0.21191704479255294,0.4506210598644795,0.2268211187581084,0.5130382980210736,-0.18898403243201456,0.40778028095293156,0.23778951698794112,0.42205559191593056,-0.217606308845151,0.41192411277165303,0.26219461977935354,0.48529786423807353,-0.11355125658040673,0.3737219084840547,0.21960819230726036,0.3891928633971768
79,,,,,,,,,,,,,,,,,,,,,,,,,,,,,,,,,,,,,,,,,,,,,,,,,,,,,,,,,,,,,,,,,,,,,,,,,,,,,,,,,,,,,,,,,,,,,,,,,,,,,,,,,,,,,,,,,,,,,,,,,,,,,,,,,,,,
80,,,,,,,,,,,,,,,,,,,,,,,,,,,,,,,,,,,,,,,,,,,,,,,,,,,,,,,,,,,,,,,,,,,,,,,,,,,,,,,,,,,,,,,,,,,,,,,,,,,,,,,,,,,,,,,,,,,,,,,,,,,,,,,,,,,,
81,,,,,,,,,,,,,,,,,,,,,,,,,,,,,,,,,,,,,,,,,,,,,,,,,,,,,,,,,,,,,,,,,,,,,,,,,,,,,,,,,,,,,,,,,,,,,,,,,,,,,,,,,,,,,,,,,,,,,,,,,,,,,,,,,,,,
82,,,,,,,,,,,,,,,,,,,,,,,,,,,,,,,,,,,,,,,,,,,,,,,,,,,,,,,,,,,,,,,,,,,,,,,,,,,,,,,,,,,,,,,,,,,,,,,,,,,,,,,,,,,,,,,,,,,,,,,,,,,,,,,,,,,,
83,,,,,,,,,,,,,,,,,,,,,,,,,,,,,,,,,,,,,,,,,,,,,,,,,,,,,,,,,,,,,,,,,,,,,,,,,,,,,,,,,,,,,,,,,,,,,,,,,,,,,,,,,,,,,,,,,,,,,,,,,,,,,,,,,,,,
84,,,,,,,,,,,,,,,,,,,,,,,,,,,,,,,,,,,,,,,,,,,,,,,,,,,,,,,,,,,,,,,,,,,,,,,,,,,,,,,,,,,,,,,,,,,,,,,,,,,,,,,,,,,,,,,,,,,,,,,,,,,,,,,,,,,,
85,,,,,,,,,,,,,,,,,,,,,,,,,,,,,,,,,,,,,,,,,,,,,,,,,,,,,,,,,,,,,,,,,,,,,,,,,,,,,,,,,,,,,,,,,,,,,,,,,,,,,,,,,,,,,,,,,,,,,,,,,,,,,,,,,,,,
86,,,,,,,,,,,,,,,,,,,,,,,,,,,,,,,,,,,,,,,,,,,,,,,,,,,,,,,,,,,,,,,,,,,,,,,,,,,,,,,,,,,,,,,,,,,,,,,,,,,,,,,,,,,,,,,,,,,,,,,,,,,,,,,,,,,,
87,,,,,,,,,,,,,,,,,,,,,,,,,,,,,,,,,,,,,,,,,,,,,,,,,,,,,,,,,,,,,,,,,,,,,,,,,,,,,,,,,,,,,,,,,,,,,,,,,,,,,,,,,,,,,,,,,,,,,,,,,,,,,,,,,,,,
