frame,NOSE.x,NOSE.y,NOSE.z,NOSE.v,LEFT_EYE_INNER.x,LEFT_EYE_INNER.y,LEFT_EYE_INNER.z,LEFT_EYE_INNER.v,LEFT_EYE.x,LEFT_EYE.y,LEFT_EYE.z,LEFT_EYE.v,LEFT_EYE_OUTER.x,LEFT_EYE_OUTER.y,LEFT_EYE_OUTER.z,LEFT_EYE_OUTER.v,RIGHT_EYE_INNER.x,RIGHT_EYE_INNER.y,RIGHT_EYE_INNER.z,RIGHT_EYE_INNER.v,RIGHT_EYE.x,RIGHT_EYE.y,RIGHT_EYE.z,RIGHT_EYE.v,RIGHT_EYE_OUTER.x,RIGHT_EYE_OUTER.y,RIGHT_EYE_OUTER.z,RIGHT_EYE_OUTER.v,LEFT_EAR.x,LEFT_EAR.y,LEFT_EAR.z,LEFT_EAR.v,RIGHT_EAR.x,RIGHT_EAR.y,RIGHT_EAR.z,RIGHT_EAR.v,MOUTH_LEFT.x,MOUTH_LEFT.y,MOUTH_LEFT.z,MOUTH_LEFT.v,MOUTH_RIGHT.x,MOUTH_RIGHT.y,MOUTH_RIGHT.z,MOUTH_RIGHT.v,LEFT_SHOULDER.x,LEFT_SHOULDER.y,LEFT_SHOULDER.z,LEFT_SHOULDER.v,RIGHT_SHOULDER.x,RIGHT_SHOULDER.y,RIGHT_SHOULDER.z,RIGHT_SHOULDER.v,LEFT_ELBOW.x,LEFT_ELBOW.y,LEFT_ELBOW.z,LEFT_ELBOW.v,RIGHT_ELBOW.x,RIGHT_ELBOW.y,RIGHT_ELBOW.z,RIGHT_ELBOW.v,LEFT_WRIST.x,LEFT_WRIST.y,LEFT_WRIST.z,LEFT_WRIST.v,RIGHT_WRIST.x,RIGHT_WRIST.y,RIGHT_WRIST.z,RIGHT_WRIST.v,LEFT_PINKY.x,LEFT_PINKY.y,LEFT_PINKY.z,LEFT_PINKY.v,RIGHT_PINKY.x,RIGHT_PINKY.y,RIGHT_PINKY.z,RIGHT_PINKY.v,LEFT_INDEX.x,LEFT_INDEX.y,LEFT_INDEX.z,LEFT_INDEX.v,RIGHT_INDEX.x,RIGHT_INDEX.y,RIGHT_INDEX.z,RIGHT_INDEX.v,LEFT_THUMB.x,LEFT_THUMB.y,LEFT_THUMB.z,LEFT_THUMB.v,RIGHT_THUMB.x,RIGHT_THUMB.y,RIGHT_THUMB.z,RIGHT_THUMB.v,LEFT_HIP.x,LEFT_HIP.y,LEFT_HIP.z,LEFT_HIP.v,RIGHT_HIP.x,RIGHT_HIP.y,RIGHT_HIP.z,RIGHT_HIP.v,LEFT_KNEE.x,LEFT_KNEE.y,LEFT_KNEE.z,LEFT_KNEE.v,RIGHT_KNEE.x,RIGHT_KNEE.y,RIGHT_KNEE.z,RIGHT_KNEE.v,LEFT_ANKLE.x,LEFT_ANKLE.y,LEFT_ANKLE.z,LEFT_ANKLE.v,RIGHT_ANKLE.x,RIGHT_ANKLE.y,RIGHT_ANKLE.z,RIGHT_ANKLE.v,LEFT_HEEL.x,LEFT_HEEL.y,LEFT_HEEL.z,LEFT_HEEL.v,RIGHT_HEEL.x,RIGHT_HEEL.y,RIGHT_HEEL.z,RIGHT_HEEL.v,LEFT_FOOT_INDEX.x,LEFT_FOOT_INDEX.y,LEFT_FOOT_INDEX.z,LEFT_FOOT_INDEX.v,RIGHT_FOOT_INDEX.x,RIGHT_FOOT_INDEX.y,RIGHT_FOOT_INDEX.z,RIGHT_FOOT_INDEX.v
0,,,,,,,,,,,,,,,,,,,,,,,,,,,,,,,,,,,,,,,,,,,,,,,,,,,,,,,,,,,,,,,,,,,,,,,,,,,,,,,,,,,,,,,,,,,,,,,,,,,,,,,,,,,,,,,,,,,,,,,,,,,,,,,,,,,,
1,,,,,,,,,,,,,,,,,,,,,,,,,,,,,,,,,,,,,,,,,,,,,,,,,,,,,,,,,,,,,,,,,,,,,,,,,,,,,,,,,,,,,,,,,,,,,,,,,,,,,,,,,,,,,,,,,,,,,,,,,,,,,,,,,,,,
2,,,,,,,,,,,,,,,,,,,,,,,,,,,,,,,,,,,,,,,,,,,,,,,,,,,,,,,,,,,,,,,,,,,,,,,,,,,,,,,,,,,,,,,,,,,,,,,,,,,,,,,,,,,,,,,,,,,,,,,,,,,,,,,,,,,,
3,,,,,,,,,,,,,,,,,,,,,,,,,,,,,,,,,,,,,,,,,,,,,,,,,,,,,,,,,,,,,,,,,,,,,,,,,,,,,,,,,,,,,,,,,,,,,,,,,,,,,,,,,,,,,,,,,,,,,,,,,,,,,,,,,,,,
4,,,,,,,,,,,,,,,,,,,,,,,,,,,,,,,,,,,,,,,,,,,,,,,,,,,,,,,,,,,,,,,,,,,,,,,,,,,,,,,,,,,,,,,,,,,,,,,,,,,,,,,,,,,,,,,,,,,,,,,,,,,,,,,,,,,,
5,,,,,,,,,,,,,,,,,,,,,,,,,,,,,,,,,,,,,,,,,,,,,,,,,,,,,,,,,,,,,,,,,,,,,,,,,,,,,,,,,,,,,,,,,,,,,,,,,,,,,,,,,,,,,,,,,,,,,,,,,,,,,,,,,,,,
6,,,,,,,,,,,,,,,,,,,,,,,,,,,,,,,,,,,,,,,,,,,,,,,,,,,,,,,,,,,,,,,,,,,,,,,,,,,,,,,,,,,,,,,,,,,,,,,,,,,,,,,,,,,,,,,,,,,,,,,,,,,,,,,,,,,,
7,,,,,,,,,,,,,,,,,,,,,,,,,,,,,,,,,,,,,,,,,,,,,,,,,,,,,,,,,,,,,,,,,,,,,,,,,,,,,,,,,,,,,,,,,,,,,,,,,,,,,,,,,,,,,,,,,,,,,,,,,,,,,,,,,,,,
8,,,,,,,,,,,,,,,,,,,,,,,,,,,,,,,,,,,,,,,,,,,,,,,,,,,,,,,,,,,,,,,,,,,,,,,,,,,,,,,,,,,,,,,,,,,,,,,,,,,,,,,,,,,,,,,,,,,,,,,,,,,,,,,,,,,,
9,,,,,,,,,,,,,,,,,,,,,,,,,,,,,,,,,,,,,,,,,,,,,,,,,,,,,,,,,,,,,,,,,,,,,,,,,,,,,,,,,,,,,,,,,,,,,,,,,,,,,,,,,,,,,,,,,,,,,,,,,,,,,,,,,,,,
10,,,,,,,,,,,,,,,,,,,,,,,,,,,,,,,,,,,,,,,,,,,,,,,,,,,,,,,,,,,,,,,,,,,,,,,,,,,,,,,,,,,,,,,,,,,,,,,,,,,,,,,,,,,,,,,,,,,,,,,,,,,,,,,,,,,,
11,,,,,,,,,,,,,,,,,,,,,,,,,,,,,,,,,,,,,,,,,,,,,,,,,,,,,,,,,,,,,,,,,,,,,,,,,,,,,,,,,,,,,,,,,,,,,,,,,,,,,,,,,,,,,,,,,,,,,,,,,,,,,,,,,,,,
12,,,,,,,,,,,,,,,,,,,,,,,,,,,,,,,,,,,,,,,,,,,,,,,,,,,,,,,,,,,,,,,,,,,,,,,,,,,,,,,,,,,,,,,,,,,,,,,,,,,,,,,,,,,,,,,,,,,,,,,,,,,,,,,,,,,,
13,,,,,,,,,,,,,,,,,,,,,,,,,,,,,,,,,,,,,,,,,,,,,,,,,,,,,,,,,,,,,,,,,,,,,,,,,,,,,,,,,,,,,,,,,,,,,,,,,,,,,,,,,,,,,,,,,,,,,,,,,,,,,,,,,,,,
14,,,,,,,,,,,,,,,,,,,,,,,,,,,,,,,,,,,,,,,,,,,,,,,,,,,,,,,,,,,,,,,,,,,,,,,,,,,,,,,,,,,,,,,,,,,,,,,,,,,,,,,,,,,,,,,,,,,,,,,,,,,,,,,,,,,,
15,,,,,,,,,,,,,,,,,,,,,,,,,,,,,,,,,,,,,,,,,,,,,,,,,,,,,,,,,,,,,,,,,,,,,,,,,,,,,,,,,,,,,,,,,,,,,,,,,,,,,,,,,,,,,,,,,,,,,,,,,,,,,,,,,,,,
16,-0.61439429437826,0.5530616900705312,0.7990802128785487,0.9870928558364274,-0.6295555545334262,0.5197771746112845,0.7677955935472418,0.978009025765074,-0.6017828629703835,0.5354486229056412,0.7559674705464412,0.9660244756356872,-0.5569846730001904,0.5756511202446828,0.7082682456858385,0.9877716838832706,-0.6232470881543523,0.5409662145421279,0.8254151080077899,0.9440156377244868,-0.6266318973440651,0.4976758096884265,0.7627767477830951,0.9843437382067368,-0.6310978063689276,0.4899471813936294,0.76158469742797,1.0198375241208937,-0.4852391353849789,0.5287814214071893,0.6460904146913348,0.9647081822530857,-0.637740813518865,0.4504266778046126,0.78626232600883,0.8856720192821098,-0.5825142993565199,0.555218632338428,0.7310060193041085,1.0246682497783772,-0.6059262271307781,0.532494539580273,0.7635065127333115,0.9345850360972819,-0.2893896379207165,0.5607744593597765,0.44531599257474236,0.9711788758554925,-0.5546009540658586,0.46703285968370584,0.7028806002975371,0.9496138777814139,-0.2206964448119458,0.6426658517276554,0.2942143442545676,0.7775231597232161,-0.5627495951931979,0.6748254382682339,0.6247545966059957,0.8047124207118541,-0.27406684195166725,0.766547131914747,0.45299875564762,0.8208585527985962,-0.5886039359801919,0.8195459459825296,0.744524544542666,0.9024559504880707,-0.376623897947195,0.7995745502625787,0.4989291504159126,0.773400808592053,-0.669791416886116,0.8354634685135719,0.8027873963733771,0.8151020981088468,-0.3823740168962175,0.8212640646851738,0.4628970342668695,0.7305981467747501,-0.6723406363382542,0.8262252214097625,0.8094508592793079,0.8135596597901704,-0.34126520722607423,0.818770189049402,0.46487832613894564,0.6936625421781653,-0.5434375248460879,0.785801336878369,0.6989221734955833,0.6825132587506827,0.1432119232248769,0.5742209877040745,-0.12056925644491547,0.9599983782917368,0.017155645891554813,0.516892208553346,0.02755547230205658,0.9436038606025103,0.5523418129050716,0.6647490316964021,-0.6482846878257411,0.09696121237118588,0.3908478117151143,0.5593450625685368,-0.4874889591211537,0.38056704108699296,0.9451382489299963,0.6192621290271053,-1.165036542049777,0.17633167388339294,0.820296984304215,0.5765714891456817,-0.9800451374668945,0.5721660290574766,0.9726961254320481,0.58482820463961,-1.1894804627348683,0.18730812002599306,0.8006177054978496,0.624913043100025,-0.9949955651615012,0.36574751770741715,0.8879709850008952,0.7176322583508503,-1.0835318405711987,0.4720884190627145,0.7567747895652851,0.7259551991649807,-0.8837329335076711,0.6288064450437706
17,,,,,,,,,,,,,,,,,,,,,,,,,,,,,,,,,,,,,,,,,,,,,,,,,,,,,,,,,,,,,,,,,,,,,,,,,,,,,,,,,,,,,,,,,,,,,,,,,,,,,,,,,,,,,,,,,,,,,,,,,,,,,,,,,,,,
18,,,,,,,,,,,,,,,,,,,,,,,,,,,,,,,,,,,,,,,,,,,,,,,,,,,,,,,,,,,,,,,,,,,,,,,,,,,,,,,,,,,,,,,,,,,,,,,,,,,,,,,,,,,,,,,,,,,,,,,,,,,,,,,,,,,,
19,,,,,,,,,,,,,,,,,,,,,,,,,,,,,,,,,,,,,,,,,,,,,,,,,,,,,,,,,,,,,,,,,,,,,,,,,,,,,,,,,,,,,,,,,,,,,,,,,,,,,,,,,,,,,,,,,,,,,,,,,,,,,,,,,,,,
20,-0.31039192444632563,0.6546331307672475,0.43154822931864945,0.988335970307863,-0.3547812427674673,0.6208391744091055,0.4355378594207073,0.9798653528219587,-0.32708117776050466,0.6316867591971451,0.42373806848041695,0.9684661203042663,-0.2823156386687316,0.6691181173912892,0.37603692706358033,0.9887899696346134,-0.33102613812031273,0.6494591850087417,0.4722921775480243,0.9454519308496396,-0.33403310823528154,0.6098186705778613,0.40929742886749937,0.9863470503176378,-0.33737916112122845,0.6048434788484633,0.4070306713439099,1.021672453110304,-0.3191749661381037,0.6126313879332208,0.44558026841273524,0.9677585691587559,-0.4025336221619208,0.5951000252777572,0.5026688071219458,0.8961735828311516,-0.31638037161664023,0.6516577554921146,0.4093160474289384,1.0260092946811785,-0.3191394230553081,0.6350697820996517,0.417037811593567,0.9374273431880411,-0.17650154397451065,0.547081245896947,0.3067289835469462,0.9711754187860955,-0.3610721573649185,0.649849454522802,0.4724956089968803,0.9532153692326774,-0.021695864940714384,0.4839748031055241,0.04776421369763876,0.7125942108439741,-0.32910103543459907,0.7946869218421475,0.34535688184197627,0.8254848778346568,0.16666956303355981,0.5713978890367868,-0.08593072482703001,0.7422252443879517,-0.24633829735835858,0.8507715676828165,0.33241656341655357,0.9128499276532929,0.10910745773657736,0.584424491993078,-0.09565614826388645,0.7043286812498288,-0.28711441675320615,0.8644861025429603,0.3401513433961335,0.8288414455667326,0.11837215618640666,0.6352246169007499,-0.14977307822691618,0.657897348263245,-0.29125731315309233,0.8508221509599334,0.3489569762382403,0.8277390683404329,0.11050544132823059,0.6427308509375246,-0.0877851071114991,0.6227649033804052,-0.2016200180589245,0.8062997318444944,0.2863529954699993,0.7086409547879752,0.12795723098663184,0.5957651461627842,-0.10216983959840044,0.9612386317402233,0.04201953221055148,0.6379529375801405,-0.00017821294650875036,0.9449851982451802,0.4729095257285869,0.6446454578972688,-0.5520311736971294,0.09530259392102108,0.352654108891276,0.628349479034296,-0.43928563940478765,0.3657972187279079,0.7740469548562336,0.6214021741931209,-0.9584421351595372,0.21339604737658754,0.6854905527815727,0.651448810865805,-0.8167101577242101,0.6062772904252745,0.7936324628576483,0.5943312711793745,-0.9739444319723166,0.25197682012498435,0.6619829083382096,0.7029586497131842,-0.8268038084208245,0.4145962957168318,0.7881077406488417,0.6933725122761738,-0.9620979655711118,0.436235837800126,0.6901751829599895,0.7557119836040677,-0.8014107128361112,0.5907816023046654
21,,,,,,,,,,,,,,,,,,,,,,,,,,,,,,,,,,,,,,,,,,,,,,,,,,,,,,,,,,,,,,,,,,,,,,,,,,,,,,,,,,,,,,,,,,,,,,,,,,,,,,,,,,,,,,,,,,,,,,,,,,,,,,,,,,,,
22,-0.33719516554683576,0.6886545679353688,0.4641524543771167,0.9893476399436356,-0.365865295876905,0.6489982563449881,0.4492640454658648,0.9813994571691877,-0.3380301182457474,0.6614250065917069,0.4373640028664467,0.970455127300421,-0.29323544410426483,0.6986581793419728,0.389656644074953,0.9896120368953558,-0.34963122971159616,0.6792550104901565,0.4948663772529973,0.9466586268831172,-0.35271483978127516,0.6391131613920703,0.4319408586495855,0.988034755834453,-0.35672999441882425,0.63473169152928,0.43031130551969965,1.023249353592482,-0.296948399627044,0.6498625352224969,0.41872568455845094,0.9702477187292209,-0.4068942760330663,0.6005410948807235,0.5079247952923388,0.9054342968852592,-0.3337730071190785,0.6834992123822208,0.430619342955875,1.0272139045520892,-0.3440673493374982,0.6671333855008358,0.4475574228015891,0.9399712098224101,-0.14251798096361193,0.6326999802566882,0.26799297557001267,0.971190141133355,-0.3617636885605347,0.5982079902894035,0.4711434555523874,0.9564255561909903,-0.04716191699759558,0.6541311627780705,0.08233390377749254,0.659648358564311,-0.36480396262469117,0.7522944891524808,0.38496065254622763,0.8255692780116588,-0.002776133197692772,0.7747082594820383,0.12410438465766362,0.6909116057008179,-0.3694879496916483,0.8542776917024393,0.47637167279235615,0.9120801336660187,-0.08153282835913954,0.8031581603204095,0.14146979913776547,0.6606650006963926,-0.4414752708111261,0.8637196464157936,0.5215783456589278,0.8247837997690031,-0.08479477348468153,0.8431049350655754,0.10243922737786382,0.6159102867626957,-0.44309644434611317,0.8656492235803253,0.5276041460518784,0.8248503888360383,-0.06608000380804428,0.8399232814337404,0.13162627291574724,0.5813577354688757,-0.32895437973159347,0.8270872689424253,0.4356447683390516,0.7139812329366263,0.14418955978425718,0.6352330769565464,-0.11975974212630346,0.9623566956669201,0.03323695946250044,0.6259733576546034,0.010143632118173367,0.9462273590422994,0.5083345760782766,0.7069638425446382,-0.5885193329818065,0.09196634313900809,0.31233065996403103,0.65887397129809,-0.3876400177546158,0.35406595175250505,0.8165182220623668,0.6693446337764034,-1.0016141495393576,0.19920465829272524,0.7020251032411915,0.6475284345649932,-0.8297547401536243,0.5759894882058836,0.8366682765448628,0.6345247693139875,-1.017230776048915,0.23842124868810238,0.6826959779793595,0.6961783829514044,-0.8447575859460345,0.38930640256650223,0.813007171487362,0.7541695479702961,-0.984232076075106,0.4048477636405038,0.7132829794663471,0.7668819536396206,-0.8230508454622476,0.5554313987905662
23,-0.4337002850845833,0.6958235761903737,0.5813117244678996,0.9899294408812882,-0.45871931054631987,0.6610160428478262,0.5619607735560811,0.9823817417150862,-0.4308982393681083,0.6744929673308426,0.5500843971201066,0.9717388325349486,-0.38603735591170973,0.7121579757325063,0.5023144273453061,0.990045303058228,-0.4435962634661907,0.6870754379079116,0.6088966757116578,0.9475374377656857,-0.4469149808827796,0.6456733678053393,0.5462180285343093,0.989337951787822,-0.45101937655032215,0.6393536144990981,0.5446847255685817,1.0245033757139113,-0.3685049328138526,0.6564054562887811,0.5056177931997297,0.971846613325321,-0.482501601705265,0.6009051004463668,0.5993974386028565,0.9133418066890312,-0.4223600078693001,0.6929797483662601,0.5381572587459129,1.0279951426311604,-0.4337749730290121,0.6725900119160885,0.5563996298354601,0.9420020592791971,-0.1943323936164564,0.6474015850998278,0.33132989800227974,0.9711255296984185,-0.42200056140654113,0.5966145197159782,0.5436491981346442,0.9591195073209037,-0.06581997118747233,0.667592991009882,0.10572345728254902,0.6024944779681501,-0.39775571363969175,0.7572574102950589,0.4245638380417782,0.8115387022594005,-0.006427469391713757,0.7804962877222421,0.12872204427366002,0.6350572851746948,-0.38288160021788475,0.8634711121125955,0.4930041861298375,0.9037090785398285,-0.08445105798351421,0.8144435249482477,0.14539799774910483,0.6132783544256406,-0.45261687173228843,0.874848370037162,0.5357484953956461,0.816213963152487,-0.08829791671244737,0.8519447211182792,0.10682662137834759,0.5689477275395206,-0.4549650333259984,0.872720599427188,0.542918483031405,0.8180819833985689,-0.06868663488280093,0.8440866062666567,0.13500047021238282,0.5351016104955786,-0.34026741486308487,0.8342133022485472,0.4502222667089575,0.7085031488492545,0.14392521811756606,0.6426241125133396,-0.11941796078650134,0.9629820079952588,0.03264337156582728,0.617426409221681,0.010616087684243894,0.9472617976523761,0.5319842519684114,0.7185179645157685,-0.6172914507515211,0.08258499673445568,0.35614395235911905,0.6505478580740605,-0.44083788032150706,0.3249432415245388,0.9212763520277233,0.6537057458941707,-1.1279960281871064,0.18164006354708923,0.7985865025777169,0.6131174214386199,-0.9464682373544072,0.5327578817224241,0.9523452622543287,0.6120387978631818,-1.1564011969315509,0.22255872417867248,0.7857273566093217,0.6573337975327033,-0.9689942949691508,0.35937384402997263,0.9199366589394492,0.7388283256840718,-1.113674773609166,0.3705235050746011,0.8010979017405259,0.7329486121364773,-0.9296641529192189,0.5105418295080345
24,-0.47231984399445365,0.708353485801122,0.6281107904637552,0.9908261331572892,-0.49156798179807537,0.6749123889400503,0.6017632167871393,0.983719269943846,-0.46362572248134737,0.6893897773856217,0.5897677719621401,0.9734805994645752,-0.418610336014603,0.7279317489258657,0.5418472275212303,0.9907740890498966,-0.47970936948564025,0.6985385435864699,0.6526146371427464,0.9485857046533505,-0.4831905207827099,0.6563314531515613,0.590095255272772,0.9907968350733446,-0.487382467190298,0.6488839799661696,0.588646841663993,1.0258432285238173,-0.3755783578037807,0.6696298196158075,0.5142084380909052,0.9740180105344883,-0.5054714526148871,0.6070481935554977,0.6268890040571861,0.9210135205180718,-0.45181739031278717,0.708725507376575,0.5738814106706271,1.0289915534778704,-0.46774867360202976,0.6866592114781612,0.5975094950724752,0.9440949571711955,-0.19390251515096915,0.6680817742325182,0.33078468394314897,0.9710994228640069,-0.4387848487497285,0.595826963544561,0.5635807903856342,0.9616835799298513,-0.07401662547068705,0.6786109692012577,0.11563202076052548,0.5519484278964338,-0.42915544987086457,0.7543506705832974,0.46167027107992764,0.8073985636333019,-0.018709216349173947,0.7821851853319528,0.14381347051008697,0.5852953938096436,-0.4190010136583418,0.8633496974511881,0.5366096308879076,0.8970840818776886,-0.09990741334186955,0.8147880993996942,0.16436442356167258,0.5714431059553342,-0.4957249261754679,0.8776889485932228,0.586843324869665,0.8073382354989835,-0.0984523689394689,0.8524485591805656,0.11945961082194842,0.527401800014954,-0.49602431158184035,0.8786276581430084,0.5917491245990035,0.8104605758897188,-0.07963673756254643,0.8443495223547609,0.14851126441265283,0.49382831461621457,-0.3791299522819638,0.8395317054925657,0.496451071822564,0.7017979243352469,0.14262462683103153,0.6547137822177769,-0.11818944689882914,0.9635396690517772,0.02940489065920887,0.616446926094087,0.01378832440373998,0.9481909148551348,0.5409483502118915,0.7216695601082673,-0.6284879740039598,0.07480486205656867,0.3561363325414237,0.646129306152216,-0.44135653757330795,0.3011068374393795,0.9307264982049969,0.65199962254212,-1.139635789675983,0.16677833082576055,0.799220044261133,0.6098975785278533,-0.9476834743737221,0.4958905611848569,0.9608128021472653,0.610184080131706,-1.1669899995592163,0.20956920315206118,0.7866892754924426,0.6545226636711615,-0.9705298863267146,0.3332925204063154,0.9274146045235749,0.7375139836621296,-1.122933045104381,0.3406412230559396,0.7957618771514703,0.7327226509281338,-0.9239689930688687,0.4710752398187797
25,,,,,,,,,,,,,,,,,,,,,,,,,,,,,,,,,,,,,,,,,,,,,,,,,,,,,,,,,,,,,,,,,,,,,,,,,,,,,,,,,,,,,,,,,,,,,,,,,,,,,,,,,,,,,,,,,,,,,,,,,,,,,,,,,,,,
26,-0.31651515673328584,0.6737876198076223,0.43875522627602115,0.9915764364257218,-0.34741691985300494,0.6394456583454153,0.4264807398733454,0.984886924934996,-0.3192301751577708,0.6597082140082413,0.41423608559549724,0.975017922462622,-0.2744195408774524,0.6980868688218007,0.36651608787941636,0.9914286672588201,-0.33205750733186384,0.6664972919270766,0.4733230966636286,0.9494633234430232,-0.3355014505104125,0.6267184351156726,0.4107493818862654,0.9920217701281236,-0.34067860940087585,0.6319069082040847,0.4102439656946988,1.0269795314718153,-0.2882356886527489,0.6414161398253106,0.4080278553797786,0.9759875864164463,-0.40453643293798613,0.5870576897675033,0.5048322760439768,0.9277517660052849,-0.3170034559274764,0.6689239097813602,0.40986680664526765,1.0298737022205462,-0.3287457833850293,0.6511186903332943,0.4286308423854213,0.9459169519526895,-0.14121437781207666,0.6196860213257189,0.26626379516631526,0.9711234435358512,-0.3649187897529524,0.5880996981865898,0.47476306772406424,0.963961371429943,-0.03623417772817964,0.6419541126643925,0.06902831472929562,0.5087372658061323,-0.3465740687555659,0.742658563859512,0.3628772124904367,0.7977673471072704,0.007017412409981043,0.7658201936670663,0.11206229932491972,0.5418254879563721,-0.31473895310888705,0.8489479039712686,0.41139017944825146,0.8891512400998871,-0.06916208471353541,0.8012020550881708,0.12653413209890058,0.5338878882124143,-0.3777411638185872,0.8634147686577675,0.44598956493790853,0.7986930586114713,-0.0735076930812652,0.8413945797837455,0.08858977062084941,0.4901912759327701,-0.3794732854918204,0.8584132793092376,0.45226259281903525,0.8026297176591279,-0.056243742919444326,0.8374889681364687,0.1194956782664504,0.458583313300144,-0.271684479169796,0.8178462840257383,0.36787999724043463,0.6991183379247244,0.1444713683483464,0.6305868948963047,-0.12070095022669099,0.9644315929561962,0.02917353616148924,0.6223287124405226,0.014765379526726283,0.9491094224311238,0.4741019753759217,0.6909152919388643,-0.5488197291908136,0.06931998303969247,0.3100634897743474,0.6537665684965763,-0.38517886000663787,0.29354849164470176,0.7967583989989471,0.6590080558840999,-0.9804616862346479,0.15419658007521883,0.6936272164826456,0.641793573667929,-0.8213092593021757,0.4828576181745267,0.8189955474518662,0.6260780758935773,-0.9986414824764335,0.19765216340005456,0.6734841850202027,0.6890545550171393,-0.8354999488485322,0.3221551541114546,0.7906014279314336,0.7417518143010151,-0.9603864946685355,0.3153949605055856,0.7040686436459407,0.7641894926258267,-0.8141277530455588,0.4509187370950859
27,,,,,,,,,,,,,,,,,,,,,,,,,,,,,,,,,,,,,,,,,,,,,,,,,,,,,,,,,,,,,,,,,,,,,,,,,,,,,,,,,,,,,,,,,,,,,,,,,,,,,,,,,,,,,,,,,,,,,,,,,,,,,,,,,,,,
28,,,,,,,,,,,,,,,,,,,,,,,,,,,,,,,,,,,,,,,,,,,,,,,,,,,,,,,,,,,,,,,,,,,,,,,,,,,,,,,,,,,,,,,,,,,,,,,,,,,,,,,,,,,,,,,,,,,,,,,,,,,,,,,,,,,,
29,,,,,,,,,,,,,,,,,,,,,,,,,,,,,,,,,,,,,,,,,,,,,,,,,,,,,,,,,,,,,,,,,,,,,,,,,,,,,,,,,,,,,,,,,,,,,,,,,,,,,,,,,,,,,,,,,,,,,,,,,,,,,,,,,,,,
30,,,,,,,,,,,,,,,,,,,,,,,,,,,,,,,,,,,,,,,,,,,,,,,,,,,,,,,,,,,,,,,,,,,,,,,,,,,,,,,,,,,,,,,,,,,,,,,,,,,,,,,,,,,,,,,,,,,,,,,,,,,,,,,,,,,,
31,,,,,,,,,,,,,,,,,,,,,,,,,,,,,,,,,,,,,,,,,,,,,,,,,,,,,,,,,,,,,,,,,,,,,,,,,,,,,,,,,,,,,,,,,,,,,,,,,,,,,,,,,,,,,,,,,,,,,,,,,,,,,,,,,,,,
32,,,,,,,,,,,,,,,,,,,,,,,,,,,,,,,,,,,,,,,,,,,,,,,,,,,,,,,,,,,,,,,,,,,,,,,,,,,,,,,,,,,,,,,,,,,,,,,,,,,,,,,,,,,,,,,,,,,,,,,,,,,,,,,,,,,,
33,,,,,,,,,,,,,,,,,,,,,,,,,,,,,,,,,,,,,,,,,,,,,,,,,,,,,,,,,,,,,,,,,,,,,,,,,,,,,,,,,,,,,,,,,,,,,,,,,,,,,,,,,,,,,,,,,,,,,,,,,,,,,,,,,,,,
34,,,,,,,,,,,,,,,,,,,,,,,,,,,,,,,,,,,,,,,,,,,,,,,,,,,,,,,,,,,,,,,,,,,,,,,,,,,,,,,,,,,,,,,,,,,,,,,,,,,,,,,,,,,,,,,,,,,,,,,,,,,,,,,,,,,,
35,,,,,,,,,,,,,,,,,,,,,,,,,,,,,,,,,,,,,,,,,,,,,,,,,,,,,,,,,,,,,,,,,,,,,,,,,,,,,,,,,,,,,,,,,,,,,,,,,,,,,,,,,,,,,,,,,,,,,,,,,,,,,,,,,,,,
36,-0.22371656179946922,0.6353411934160207,0.32534483119524793,0.9923474225058914,-0.27613112757095387,0.5976145225955984,0.3392412509912741,0.9860476657873518,-0.24851373223568782,0.6121044876212174,0.327517603355976,0.9765354567186034,-0.2041829590082357,0.640031467973412,0.28024714732270517,0.9920725762363286,-0.2503035217542836,0.6374169009969008,0.3733730566099143,0.950350002138702,-0.25274391519466255,0.60298309070573,0.30982954960241976,0.9932475992525744,-0.25612795620028656,0.5994326288003982,0.30760185237117077,1.0280970589567093,-0.28675128616088,0.5881961657843255,0.40442645441209335,0.9778955907003514,-0.35624912804702547,0.587018767934465,0.4453130611570513,0.9340438707263542,-0.24451452757998543,0.6264738990048404,0.32116681887292725,1.0307200881763567,-0.24257922156292896,0.6182772463177914,0.32352747685458844,0.9476386917216715,-0.1375422689197666,0.5484790344215746,0.2587361882213825,0.9711339339533318,-0.34051573290756515,0.6312252680069939,0.44674762147182895,0.9661305632672538,-0.0016276994011550417,0.5627953297054081,0.023330047495241396,0.46111950252526374,-0.2945551266713458,0.779338308579971,0.3018491122683281,0.816520637283662,0.1392032641819257,0.6794924620577218,-0.05224610554323787,0.49269069705900265,-0.20408961110003426,0.8560532544656534,0.2780896999976745,0.8991890795125763,0.0771852392343648,0.6999762021218622,-0.05613278898182468,0.491123433132382,-0.2480918766906334,0.8701797766304847,0.28950536397809845,0.8117942787423917,0.08275833635957233,0.7492176655686577,-0.10566808825522678,0.444098735907059,-0.24733132950027448,0.8459159734391815,0.2934999631712003,0.8154354775658967,0.08013649308071528,0.7538904140020998,-0.05031829003626069,0.4136275828619116,-0.15741458737070552,0.8066586710153318,0.23033929133439465,0.7199537971570548,0.14902353240572588,0.5785230721500279,-0.12793166643160736,0.9652366132885326,0.017336252807628662,0.6294964093933424,0.029096826817604286,0.9499435298301107,0.4870751796740945,0.6332991773224702,-0.5687908043096779,0.06367127320607047,0.3125012765021526,0.6321155985144291,-0.3900810678717877,0.28632393186076616,0.7666679545326476,0.6154967844073543,-0.9493323915841957,0.15757348122496864,0.6542907025553311,0.6429516323112701,-0.7771913479777889,0.5122332011079527,0.7840872738076012,0.5855167574960554,-0.9621771664658797,0.2254643463033444,0.6303201913864209,0.6931218567673224,-0.7872106158324965,0.35677683985478653,0.7831534104648462,0.6934760455441487,-0.9561754591624808,0.2906851695605325,0.6794015780869812,0.7612049092479886,-0.7873703292721733,0.4262237877065818
37,,,,,,,,,,,,,,,,,,,,,,,,,,,,,,,,,,,,,,,,,,,,,,,,,,,,,,,,,,,,,,,,,,,,,,,,,,,,,,,,,,,,,,,,,,,,,,,,,,,,,,,,,,,,,,,,,,,,,,,,,,,,,,,,,,,,
38,-0.4148088326125532,0.7010032794259999,0.5570732092831617,0.9928903612151506,-0.4351185011745057,0.6701407987072012,0.5321592066166302,0.9869263574606307,-0.4071436962645162,0.6845761062735611,0.5201222879441758,0.9777091913835204,-0.36217287043800434,0.7232342472664723,0.47224201625275575,0.9925643145557256,-0.42371871178562137,0.6949901002690566,0.5835930918843224,0.9510003484178464,-0.42713912557722217,0.6536537144850268,0.5210027594898404,0.9941638418520616,-0.431155029650389,0.6470450574655593,0.5193658737270869,1.0289383189130692,-0.33005253258498385,0.6666339709601068,0.45822205143970574,0.9794110387937658,-0.46299395327191395,0.6024138728195663,0.5745099255820992,0.9392704232127738,-0.39899765011644345,0.6966395331601138,0.5085176061206239,1.031330082110988,-0.4157490276371568,0.676372999510693,0.5331031299972022,0.9489174497706827,-0.15801057541951244,0.6558732528663989,0.28648852054342905,0.9711416229525078,-0.40784634897532646,0.584796587587072,0.525360304378276,0.9675554719052541,-0.03900876316473815,0.6677404529010563,0.07269352338194868,0.43785688255303473,-0.3882421129855933,0.7478967988563077,0.41183885487898847,0.8172603905299693,-0.005245260059769906,0.7833557013460519,0.1273269661279508,0.48362465177473146,-0.3410512739543571,0.8454996560617227,0.4455395480760221,0.9005794174566071,-0.08851852012304451,0.8090933524285638,0.14988321684346392,0.48796733738920267,-0.40195726133742554,0.8465056461907264,0.4789094081248911,0.8144990183130094,-0.08699878155242101,0.8433926466859062,0.10493154434229318,0.44400622949836765,-0.4053172439931997,0.8341858389520294,0.4866872855121802,0.8191514695397737,-0.06701306835435773,0.8370142171408327,0.13271317374115119,0.4155702770490759,-0.29664313478995336,0.796151564234326,0.40069537061421534,0.7269774296834525,0.15617443140741258,0.6471687878635288,-0.13515140795025166,0.9656651706844677,0.011378615849661941,0.6159879703293165,0.03509118481678798,0.9505689017630938,0.5340755719807139,0.7049212509728303,-0.6209345510658678,0.05946518949110848,0.31711284371958515,0.6491011341360722,-0.39550296411063807,0.29429790084346275,0.8836994796764103,0.6414302885119686,-1.085371781643394,0.14681241395373604,0.7130375746614389,0.6144520290397857,-0.8461128800521379,0.5157659684037901,0.908846042448203,0.5989062256891096,-1.107064506043611,0.21334769059598507,0.6960553678407326,0.6553509298149603,-0.8638858201269759,0.35376114285237564,0.8858847971738737,0.7352693323445332,-1.0755930951458583,0.279781751496415,0.7198460426476817,0.743406664294833,-0.8348592303269928,0.4364622265512626
39,,,,,,,,,,,,,,,,,,,,,,,,,,,,,,,,,,,,,,,,,,,,,,,,,,,,,,,,,,,,,,,,,,,,,,,,,,,,,,,,,,,,,,,,,,,,,,,,,,,,,,,,,,,,,,,,,,,,,,,,,,,,,,,,,,,,
40,-0.3803943203708301,0.7286010048173879,0.515186326450806,0.9934598835959794,-0.40292553248960344,0.6993207889987967,0.49284949863932737,0.9878113076216107,-0.37510083241648573,0.7143536331290299,0.48095413357560185,0.9788706474916136,-0.3303040060500954,0.7536667099587331,0.43324060351251037,0.993065768432221,-0.38966335413420744,0.7222556489751113,0.5420949113838639,0.951665715067474,-0.3928701867847014,0.6798212264250293,0.47929098603366194,0.9950931378687549,-0.39665891726945385,0.6726130658884109,0.4774277609650994,1.0297900096822645,-0.30878382145051214,0.6961784436545038,0.43169141081759754,0.9808649152891269,-0.4332813325926437,0.6226835647636886,0.5384033808840819,0.9442231519610954,-0.3682605120536285,0.7225902630070682,0.4710573055798346,1.0319507452770345,-0.3833801844174026,0.6991581862782711,0.49366114651334786,0.9501998437030253,-0.14061232020217498,0.6738209266640063,0.26476305068440803,0.9711648091593255,-0.37677077946930326,0.6015907326943413,0.48800672249407273,0.9690353360257378,-0.014218602268206348,0.6807430273448735,0.0415346025319469,0.40525838706963635,-0.34764642562062553,0.7483420455527798,0.36311802248952946,0.8061413228610546,0.039999025366425835,0.7741162065454843,0.07159969856514238,0.4546405819505127,-0.29839767276799706,0.8433982347055216,0.392188880979559,0.8923498637571137,-0.03714070427656471,0.802240666023382,0.0868541196025936,0.46438225628873875,-0.3568611034830323,0.8582198662377235,0.42178791498208457,0.8075857735887357,-0.03471050448355842,0.8383950952447136,0.0412227019352498,0.42128142223594695,-0.35390678932627856,0.8484929206514007,0.4226933653990157,0.8130294168702485,-0.019674419154285944,0.8331713864828737,0.07502027038626682,0.3945692361135595,-0.25075863711940416,0.8078489757714964,0.343764444962904,0.7200690129354056,0.14303327816563516,0.656396182921207,-0.11964666739483852,0.9663263054043164,0.023496096411268395,0.6237450976143202,0.020601860294290168,0.9512280695296649,0.4807726275789944,0.7033699208832612,-0.5578661286489255,0.05413613191683638,0.3241448664465777,0.64354353745257,-0.4034778836602716,0.2791200250862453,0.8041720672035068,0.6503457724635372,-0.9905065740776605,0.13540322067637703,0.7019870381578732,0.6232756622337554,-0.8319996050742039,0.4973166917180753,0.8270166963270353,0.6124045915681684,-1.0093857966683455,0.20088346530377926,0.6825596325525278,0.6673669877831,-0.8468390510752831,0.3379543486858107,0.7913618033523002,0.7334653381657612,-0.9625996801964971,0.2642100380488442,0.7028558200642343,0.748626243037814,-0.8134581644861508,0.4266113669092338
41,,,,,,,,,,,,,,,,,,,,,,,,,,,,,,,,,,,,,,,,,,,,,,,,,,,,,,,,,,,,,,,,,,,,,,,,,,,,,,,,,,,,,,,,,,,,,,,,,,,,,,,,,,,,,,,,,,,,,,,,,,,,,,,,,,,,
42,-0.39465008732968615,0.7440719268106435,0.533273286477645,0.9938950571074846,-0.4230568194155017,0.7101364690258047,0.5180899730818204,0.9884261891371138,-0.39513416639183413,0.7244622828597123,0.5060970533817828,0.9797263317720092,-0.35020901655447156,0.7631262651078115,0.45825492242699273,0.9933525859828802,-0.4091973863611756,0.7360688465878737,0.5665295611940613,0.9522050178934016,-0.41269338115824256,0.6955709193418994,0.5040095222212948,0.9959009000147508,-0.4165878654916552,0.6903463417787612,0.5022615022629329,1.0305443064618973,-0.34419909555114564,0.7089732959112787,0.4757264209372133,0.9818678826467625,-0.4671047654821182,0.6491810480171676,0.5799812609641125,0.9487349255473686,-0.386525526086478,0.7397904945591922,0.49401387097927907,1.032314393214809,-0.4000501526016086,0.7203823870038265,0.5147565491939206,0.9513003838641582,-0.17969170062619547,0.66025818776859,0.3125400902072287,0.9709573253908624,-0.41383082762890233,0.6173012057549492,0.5330895353685284,0.970326253422283,-0.0214459766770013,0.638509739056757,0.05174227529343497,0.36773216698639966,-0.3805368347642249,0.7346046054435269,0.4018568442198601,0.7963510215381175,0.12962885774063282,0.7466141466089609,-0.035168163158685456,0.41181547914442135,-0.3075421117305148,0.8467781160875101,0.3996923853582703,0.8724538333310883,0.06750151524144159,0.7666823230897272,-0.03824234508512479,0.4241831553175169,-0.35963179092452097,0.8611676735497352,0.4208438602740546,0.7840291835084745,0.07537825290542988,0.8121952775872429,-0.09088877827708096,0.378259326078873,-0.3550336303013688,0.8608213665628082,0.419580165105758,0.7858891571275117,0.07196367878577047,0.8133600542570741,-0.03487121602894633,0.3525266230840795,-0.2599238896003878,0.8199676133332945,0.3507367377470478,0.6949377277448233,0.14340371324444376,0.6509885515239597,-0.12079059873448074,0.966489085689198,0.01836902529434463,0.6334322829017958,0.02632440661356597,0.9517342917777423,0.4564607738943586,0.6950630599594941,-0.5322714029182227,0.04826603553135738,0.3086136605878516,0.6306045611647282,-0.38775292480788864,0.27128532235606645,0.787286894278565,0.6422012149874935,-0.9736959317170405,0.12758540096183082,0.6858829515909682,0.6191551335357879,-0.8163459119248266,0.5141347084855772,0.8106275807351921,0.6045891709405744,-0.9932296584467242,0.19807435800015988,0.6657423790978949,0.6681690874878424,-0.8304186243611835,0.3516351941848494,0.7744858106044915,0.7253857497525227,-0.9455745274556249,0.24364545212469568,0.6763317174319542,0.742396663589114,-0.7853061946002183,0.4160410494024437
43,,,,,,,,,,,,,,,,,,,,,,,,,,,,,,,,,,,,,,,,,,,,,,,,,,,,,,,,,,,,,,,,,,,,,,,,,,,,,,,,,,,,,,,,,,,,,,,,,,,,,,,,,,,,,,,,,,,,,,,,,,,,,,,,,,,,
44,-0.4052576914344177,0.7171834966920827,0.5459353467985261,0.9941641720786454,-0.4295392542979999,0.6848474699451468,0.5256739505704147,0.9890190765386946,-0.4016756983078231,0.6994752409094864,0.5137373547367392,0.9805267029420532,-0.35680619106575306,0.7384434452645192,0.46595561947366393,0.9936786233898014,-0.41554989486488453,0.7094914931103957,0.5740542575621818,0.952625528662292,-0.4187783578327176,0.6679303978155627,0.5112722804524626,0.9964967080439256,-0.42271402282061304,0.6612723881502212,0.5095563331873619,1.0311056034017472,-0.331689008007186,0.6812990381559991,0.4603488826094284,0.9829497665540805,-0.45525576558813946,0.6121842661911483,0.5653930799865853,0.9524983628184868,-0.39126673946306767,0.7143000913838382,0.49953523533629535,1.0326624247356524,-0.4051120610284953,0.6934496706341976,0.5206624800443954,0.9520919335467753,-0.16176948986527523,0.6623403568245287,0.29056519216890564,0.970906184605645,-0.39339276220310687,0.5973696509606377,0.5079964350627287,0.9704965438924064,-0.05007680643161249,0.6741908675586491,0.0849502757218903,0.33981034133904553,-0.3485327769779213,0.749459751851608,0.3639219407688596,0.7607402861217052,0.011204023260619846,0.7739128951021554,0.1071647994479141,0.38419572983678896,-0.2620827869541954,0.8356412862344522,0.3484677289253542,0.8345848567380707,-0.06469220666136184,0.7978930436288202,0.12090310024538775,0.4008996737196165,-0.310692279298605,0.8504781169510719,0.36630245680914475,0.7515943027749845,-0.057276223097263476,0.8354994419968803,0.06903503818263326,0.3549045573258212,-0.30766153396712265,0.8369777205133087,0.36706954728330465,0.7549735391847017,-0.04717733437637804,0.8327332327391298,0.10866449820737822,0.3307964385290258,-0.2126503172486976,0.7960651971040464,0.29794586949377155,0.6654255011632498,0.14481129624849445,0.6490611161258579,-0.1218440592843729,0.9662085862308848,0.01987938238461006,0.6199444074402174,0.024542421138711495,0.9520022146560077,0.4976183839698396,0.6949735933876863,-0.5782606553948304,0.04517289719422208,0.28381528327418865,0.6444998343733463,-0.3566148747387586,0.27963697617038225,0.8315433565486231,0.6285045444552669,-1.0230728878834745,0.11901315035720123,0.6775070048829875,0.6057150609993194,-0.8043094137280881,0.504402044854138,0.8553349927128777,0.5885053939897382,-1.0431381178009158,0.18743166555345117,0.6612013306793327,0.6484676066223639,-0.8229098228658077,0.3410121563697554,0.8356808860224507,0.7137481812787068,-1.0152602387444705,0.23202160762033927,0.6889089044064908,0.7272548188396634,-0.7984962533176609,0.409521999996392
45,,,,,,,,,,,,,,,,,,,,,,,,,,,,,,,,,,,,,,,,,,,,,,,,,,,,,,,,,,,,,,,,,,,,,,,,,,,,,,,,,,,,,,,,,,,,,,,,,,,,,,,,,,,,,,,,,,,,,,,,,,,,,,,,,,,,
46,,,,,,,,,,,,,,,,,,,,,,,,,,,,,,,,,,,,,,,,,,,,,,,,,,,,,,,,,,,,,,,,,,,,,,,,,,,,,,,,,,,,,,,,,,,,,,,,,,,,,,,,,,,,,,,,,,,,,,,,,,,,,,,,,,,,
47,,,,,,,,,,,,,,,,,,,,,,,,,,,,,,,,,,,,,,,,,,,,,,,,,,,,,,,,,,,,,,,,,,,,,,,,,,,,,,,,,,,,,,,,,,,,,,,,,,,,,,,,,,,,,,,,,,,,,,,,,,,,,,,,,,,,
48,,,,,,,,,,,,,,,,,,,,,,,,,,,,,,,,,,,,,,,,,,,,,,,,,,,,,,,,,,,,,,,,,,,,,,,,,,,,,,,,,,,,,,,,,,,,,,,,,,,,,,,,,,,,,,,,,,,,,,,,,,,,,,,,,,,,
49,,,,,,,,,,,,,,,,,,,,,,,,,,,,,,,,,,,,,,,,,,,,,,,,,,,,,,,,,,,,,,,,,,,,,,,,,,,,,,,,,,,,,,,,,,,,,,,,,,,,,,,,,,,,,,,,,,,,,,,,,,,,,,,,,,,,
50,,,,,,,,,,,,,,,,,,,,,,,,,,,,,,,,,,,,,,,,,,,,,,,,,,,,,,,,,,,,,,,,,,,,,,,,,,,,,,,,,,,,,,,,,,,,,,,,,,,,,,,,,,,,,,,,,,,,,,,,,,,,,,,,,,,,
51,,,,,,,,,,,,,,,,,,,,,,,,,,,,,,,,,,,,,,,,,,,,,,,,,,,,,,,,,,,,,,,,,,,,,,,,,,,,,,,,,,,,,,,,,,,,,,,,,,,,,,,,,,,,,,,,,,,,,,,,,,,,,,,,,,,,
52,,,,,,,,,,,,,,,,,,,,,,,,,,,,,,,,,,,,,,,,,,,,,,,,,,,,,,,,,,,,,,,,,,,,,,,,,,,,,,,,,,,,,,,,,,,,,,,,,,,,,,,,,,,,,,,,,,,,,,,,,,,,,,,,,,,,
53,,,,,,,,,,,,,,,,,,,,,,,,,,,,,,,,,,,,,,,,,,,,,,,,,,,,,,,,,,,,,,,,,,,,,,,,,,,,,,,,,,,,,,,,,,,,,,,,,,,,,,,,,,,,,,,,,,,,,,,,,,,,,,,,,,,,
54,,,,,,,,,,,,,,,,,,,,,,,,,,,,,,,,,,,,,,,,,,,,,,,,,,,,,,,,,,,,,,,,,,,,,,,,,,,,,,,,,,,,,,,,,,,,,,,,,,,,,,,,,,,,,,,,,,,,,,,,,,,,,,,,,,,,
55,-0.20681586750088218,0.5830582043909047,0.3048693457883558,0.9945402773871782,-0.2650456763958944,0.5505046206905386,0.3255217461442976,0.9896929666525252,-0.23779009226497816,0.5617967965239579,0.3141512545574035,0.9814064078942932,-0.19364813330118358,0.597922514974297,0.2670761077751537,0.9939753353114934,-0.22820671465297734,0.5940002220914138,0.34662666662440333,0.9531405723977963,-0.23081253486449502,0.5614490245054736,0.28323724450053617,0.9972257920588182,-0.23409589386924112,0.5646679217119277,0.2809148173779624,1.0317581550527481,-0.2915720848176743,0.5601224973044061,0.4106331628861797,0.9841066331045262,-0.31621437302857014,0.5648274818474288,0.3975492232290145,0.9562945230395866,-0.23489809904899817,0.5772570921162601,0.30951101017134347,1.0331051084323992,-0.21993239985982602,0.576781923136639,0.29619838735419085,0.9531192792041239,-0.16104908547266159,0.538782699821126,0.2866749822359302,0.970917032650994,-0.29228383664057916,0.6392420331246391,0.3892486966437686,0.9720057334981194,-0.04619006789670959,0.5560586339389592,0.07571393709259176,0.31183007333748913,-0.2572894085433212,0.7871862137389676,0.2573717090505864,0.7750494539836437,0.137532512298081,0.6539706472345712,-0.05263647640658807,0.3517723527997406,-0.15881171703746713,0.8525343750520487,0.22278920488032267,0.8370145804776947,0.07777121870974839,0.6721768342171991,-0.05962258393687149,0.37288280846616795,-0.19385154119758716,0.8670920176125404,0.22309457489741694,0.7569601513162443,0.09357070702088353,0.7172063950455864,-0.1213291282298635,0.32357519374130284,-0.19599838396353075,0.8574672939920074,0.22932150915507937,0.7585728252641084,0.08374142880571589,0.7243662664915712,-0.05697063916023881,0.299702036454212,-0.11631362899552228,0.8130092478929258,0.17887194195148043,0.6721172550275382,0.11677113225110461,0.5852005208995701,-0.08940333271096744,0.9668426604420056,0.04877199352194806,0.6395067114601454,-0.008645898577275865,0.9525424711562518,0.43622074873080285,0.6395417505837312,-0.5078486679052563,0.05540179184515818,0.33793311598288023,0.632581885650507,-0.4208681393496875,0.26551449005588035,0.7206884363803263,0.6278431117121944,-0.8938099003930556,0.14689043643374694,0.6752031356712782,0.6487809665703033,-0.802285915820692,0.5220961604928709,0.7395278735287074,0.6066162057000959,-0.9081116733343795,0.23688763607919278,0.6477829469673666,0.6951234403435248,-0.8085777038954067,0.36221376693494095,0.7402707134379614,0.6898039821934712,-0.9047248843306909,0.21891590223989948,0.6964146987258354,0.74655212060892,-0.8078928562000558,0.3800739676172416
56,-0.45827778377903156,0.687663104274175,0.6101366007686284,0.992867413426912,-0.4848985644464987,0.6561158257915518,0.5925218718279156,0.9872654482847578,-0.45737604087432543,0.6705466034049088,0.5809428143595203,0.9785424643174804,-0.41250840966203656,0.7090822568528066,0.5331655565330818,0.9920188128467412,-0.4700627841421657,0.6802299636647475,0.6400694193348201,0.9519392407823483,-0.4733884291797543,0.6384809945295825,0.5774029395836366,0.9961142250384021,-0.4774398920910859,0.6314832383890212,0.5758321252059433,1.030924107258406,-0.39313301801437234,0.6482682897886896,0.534474066839174,0.9816140860693089,-0.5122244334596757,0.5911797085815902,0.6346677016692883,0.9568273885638786,-0.44587445878324344,0.6820511771420474,0.565636097436239,1.0319040152355303,-0.4591481846762464,0.6600476449345821,0.5860883562186764,0.9521801484210429,-0.21660512838398513,0.6282894153572436,0.35759452088702676,0.9708029493608941,-0.4501987079414726,0.594884375692083,0.5770870896509291,0.9727859582982291,-0.10799583248291943,0.6655256039058476,0.15633831873373022,0.28913333986275763,-0.41705850204459355,0.7813378059936062,0.4467375165956628,0.7685175597766429,-0.07323788221826608,0.7723808173128488,0.20920799772687743,0.32536174331602175,-0.38930926440315317,0.8757370923562784,0.5009465007373723,0.8370407469167511,-0.15606094197742304,0.8037299476777399,0.23155548754394684,0.34921025754949625,-0.45869302975422105,0.8893903536415931,0.5434800359082999,0.7567038513437101,-0.15263127273577348,0.836929059401818,0.18438474507523306,0.29932337508438145,-0.46144535936535264,0.8779913189553863,0.5512985032484539,0.7592292512170198,-0.13323367482238235,0.82831873393313,0.212656080280958,0.2758878350992315,-0.34615618651926716,0.8380542851625181,0.45772130817036566,0.6721095064237174,0.145054216158266,0.6390558804538609,-0.12240446803652326,0.9666406603008616,0.018866572360541012,0.6248634595642408,0.02585538422163801,0.9528881780959491,0.5280155821055907,0.6972716504670015,-0.6163839673117566,0.04958235940773827,0.3452283814831941,0.6442567666319523,-0.4302876239926082,0.2591182858227108,0.9471405467682208,0.6308306753222713,-1.1641686579782726,0.13610230865378634,0.782636004467559,0.6145137198471282,-0.9321439122954219,0.5250870023584104,0.9797542939872572,0.5986912317354047,-1.1946475155711445,0.2245626919406659,0.7688265498293219,0.654329067784931,-0.953723720526613,0.361973709228108,0.9323932310445264,0.7141990308117878,-1.1341699126821632,0.20938796566210258,0.7681676241534161,0.7389064540096463,-0.8953297103450322,0.3890806466753166
57,,,,,,,,,,,,,,,,,,,,,,,,,,,,,,,,,,,,,,,,,,,,,,,,,,,,,,,,,,,,,,,,,,,,,,,,,,,,,,,,,,,,,,,,,,,,,,,,,,,,,,,,,,,,,,,,,,,,,,,,,,,,,,,,,,,,
58,-0.3821994612057253,0.7180254122995351,0.5179299144110855,0.9925240906730058,-0.40556176457366383,0.6852952200366995,0.4964690600400164,0.9870396658903487,-0.37784840189358193,0.6998904468649918,0.4846880911252546,0.9784429841653502,-0.33299804933341776,0.7386443725220571,0.43692822938389264,0.9918813049312444,-0.3945707913494885,0.7094824332043899,0.5485222378982145,0.9517481482911985,-0.39768134528003873,0.6680360768507495,0.4856246600557713,0.9960784026468921,-0.401437760666845,0.6616133267183364,0.48374375014191906,1.030865456287947,-0.311658757265214,0.6824152543387079,0.4357823554107705,0.9814930290357702,-0.4474722345966538,0.6185543933922286,0.5562164388898772,0.9585761292369438,-0.3696665561726164,0.7134587122181888,0.47332417916765934,1.031407329730617,-0.38751760340559593,0.6931915825223202,0.49936129631222204,0.9518598926646648,-0.15217902287515542,0.6648242611862536,0.2790594819208382,0.9708182081499565,-0.3990672456951519,0.5953134099251762,0.5152878530696793,0.9733919587216605,-0.037540653684431956,0.6723215466892033,0.07039744510725646,0.26768657539361096,-0.3915142518313685,0.7338014924598233,0.41595243760787354,0.7433755457500011,0.02516235777116293,0.7791741374918344,0.09009297552161841,0.30195255552229006,-0.36233761156911076,0.8462658737703104,0.46755962377878585,0.8041926271810333,-0.04958320196668556,0.8076415620957696,0.10239655466683915,0.3276125443174558,-0.42506878108643,0.8607600969887611,0.5018336948134496,0.7221214748636076,-0.04461903287127775,0.8491699460900505,0.05367221541056708,0.2771170984291843,-0.42173248306418787,0.8583914640092498,0.5020957029583439,0.7247073138467195,-0.03444781238570624,0.8461195418860109,0.09325894387515815,0.2543703199167364,-0.3167770076411731,0.818128452414105,0.42116141192179474,0.6359756806447562,0.14081793038880785,0.6635124410655857,-0.11735153979683795,0.9671248288303722,0.02319589240130486,0.6298927802810987,0.020766226833590987,0.953230845198763,0.48482809127816373,0.7090500647164216,-0.564810890487821,0.04368935248692377,0.3455545079277333,0.636583920314661,-0.43061594439186257,0.23894557063563798,0.8268659337840591,0.6546908914630184,-1.0196510056744432,0.12485859277148503,0.7556081100505597,0.6161683447860931,-0.8981998163439403,0.4924880002355314,0.8509266231284749,0.618915564544853,-1.0399127911382446,0.20981602598607607,0.7382293766027437,0.6623258653465766,-0.9154804236634314,0.339259869220326,0.8010397712572926,0.731354916508199,-0.9759851734634825,0.19512958095751268,0.7485610815755546,0.7385574688144864,-0.8702052871510989,0.3657901913339775
59,,,,,,,,,,,,,,,,,,,,,,,,,,,,,,,,,,,,,,,,,,,,,,,,,,,,,,,,,,,,,,,,,,,,,,,,,,,,,,,,,,,,,,,,,,,,,,,,,,,,,,,,,,,,,,,,,,,,,,,,,,,,,,,,,,,,
60,-0.3862173900987153,0.7023543379091237,0.5225835982042271,0.9926177295699478,-0.4093414305057115,0.6691375929309866,0.5010093365552067,0.9874540373808272,-0.3814070496461534,0.683545720779329,0.48901254650434633,0.9790522628442444,-0.33634934127796356,0.7219365945450673,0.4410511384567548,0.9921720563884586,-0.3976858049975455,0.6924617308423293,0.5521265754566156,0.951941982596008,-0.4011227281101548,0.6495367024611011,0.48954638933341155,0.9963409015024829,-0.40520237508100815,0.6414509827394546,0.48796548345683244,1.03109290761241,-0.314303805669082,0.6632477118811273,0.43908457738538365,0.9823420972005955,-0.4445884750385446,0.5975851813370223,0.5523486929161916,0.9605367048175406,-0.37343089926128187,0.7005981756428714,0.4776816601096619,1.0315286847873797,-0.38982226732873737,0.6775415485715145,0.5018075597408922,0.9520923507792887,-0.15313635737251527,0.6570727367378588,0.2803593214814462,0.9707739815035332,-0.3887821795851428,0.5864748755700127,0.5024017073706916,0.9732180323682059,-0.03872455680240885,0.6771960145389347,0.07176244859515724,0.25092345450394726,-0.3547235416706507,0.7511568152976529,0.3717372168524489,0.729041582355836,0.00982710279532032,0.7780563119837167,0.10877007757658516,0.28560955797132564,-0.281087060615368,0.84022613511522,0.372374122664921,0.7855225450887482,-0.07033019058871837,0.8026649318848932,0.12750609363027784,0.31389545919439366,-0.3318306684306705,0.8431595010376808,0.3937642289578169,0.7048364259019682,-0.06676863286664103,0.8354194525635917,0.08026086047056233,0.2644682775521091,-0.33148492083873693,0.833107471718753,0.39726079263340086,0.7098516906014802,-0.05056785591276988,0.8310212085272463,0.1127187351405153,0.24332692034436398,-0.2321263338053538,0.7972635484872557,0.32256988415752547,0.6215772846295889,0.14643545511051398,0.6509825314548374,-0.12360318557196366,0.9670695753246654,0.01987683369569901,0.6203068632850965,0.02474201880967876,0.9533753268576983,0.5231126143615304,0.7161735350228181,-0.6079852322727508,0.04093280902941567,0.32227200635738434,0.6530924399641667,-0.4018469854901899,0.24073782269938926,0.8714345113113368,0.646453648764349,-1.0702567429860554,0.11664642872710485,0.7341338811336973,0.6134374983810638,-0.8707654781510689,0.4786869023656583,0.8967290716355383,0.6028773255426252,-1.0920053580267097,0.19775150944173397,0.7191717915864047,0.6543437305275458,-0.8908953034577912,0.3280816439414717,0.8707704966040385,0.7390656713795674,-1.0568899231494082,0.1896540300675439,0.7476948587888379,0.7348737825580777,-0.8673286034956247,0.3637419969255607
61,,,,,,,,,,,,,,,,,,,,,,,,,,,,,,,,,,,,,,,,,,,,,,,,,,,,,,,,,,,,,,,,,,,,,,,,,,,,,,,,,,,,,,,,,,,,,,,,,,,,,,,,,,,,,,,,,,,,,,,,,,,,,,,,,,,,
62,-0.3846512397904844,0.6481067797922109,0.5205268747786724,0.9932158025756243,-0.43052386296056905,0.6118393498851797,0.5257771215040187,0.9882810518270856,-0.4029870107970206,0.6235508443945939,0.5141527094733884,0.9800625615731872,-0.35845060793879197,0.6601729503266225,0.46668822681160804,0.9926571189876409,-0.4097527973975324,0.6488218921468032,0.5660501990900847,0.9525474465776365,-0.412963919619377,0.6133172844122424,0.5032627586999868,0.9971063443506885,-0.4168151208724298,0.6135768110055984,0.5014951718788504,1.0317725793767838,-0.39819580231737606,0.6114014460882806,0.5397433020168803,0.9835167855398289,-0.49062115634519204,0.5934497514778609,0.6078368341368322,0.9635238511951042,-0.391255803921304,0.6312240911702152,0.4991752404437399,1.03215888469659,-0.3961241032653682,0.6261033957814449,0.5096680548324237,0.9531516445262371,-0.21312904265292024,0.5780331630684252,0.3514437293208194,0.97080664484887,-0.44634241082799375,0.6089042226082817,0.5738846661955426,0.9744448151669729,-0.04353817197990418,0.5926197058116703,0.07622197179736236,0.22724814687245465,-0.4000128762071735,0.7520836079192654,0.42772908354504374,0.7437334716418773,0.08412928935101416,0.7149785641619089,0.017148242498714043,0.26034729157384945,-0.3444026006987964,0.837850293974473,0.4460502565672212,0.7994176990880768,0.015934048313093793,0.7388808690224969,0.021062014126906878,0.28966643931409886,-0.40379801878413973,0.8481923980332252,0.4759868049577121,0.7174268938318082,0.015129775393538655,0.7867033246911247,-0.020875148834018576,0.23804971084831272,-0.4113702443315964,0.844098568215335,0.4891698626039803,0.7208691919556978,0.022155916901963474,0.7883156726385744,0.02265018729201708,0.21718247540188962,-0.30385180908929477,0.8031803227601744,0.4051008779972276,0.633952818210369,0.14771982175319395,0.6102832879093052,-0.12580955409026606,0.96762830926479,0.020365913061092353,0.6278907198677381,0.025273613290848058,0.9537839763022786,0.5103935547106746,0.6691057736016145,-0.5964836242632956,0.03774453422863828,0.37801213379922594,0.6391486485747013,-0.46912351532396324,0.22991859619601707,0.8745705963094249,0.6514525115077267,-1.0786491730358865,0.11301180454392684,0.7895791121548387,0.646963263323233,-0.9397545693065001,0.4929418598031736,0.8995150346197529,0.6233447260934675,-1.100267080012677,0.19864988554894988,0.7709631822138208,0.6986457768265265,-0.9558195953982894,0.33223620689160593,0.8491589219830056,0.7254170421910298,-1.0351263974862046,0.17679794893942338,0.7715246070712856,0.7643895258136929,-0.8981742230318636,0.3504402369672935
63,-0.4700551067271532,0.632622923591039,0.6240466879753288,0.9929325613036514,-0.5061611200178198,0.5958551126911185,0.6178148659290137,0.9881626770025618,-0.4785149376589091,0.6074349405402237,0.6060918412886054,0.9801733666078246,-0.43386511796888627,0.6448632588974843,0.5585246620817204,0.9926222502704473,-0.493814649731794,0.6272646802708877,0.668248421010879,0.9523922360826412,-0.49722007499253595,0.5900159810255542,0.6056465273598388,0.9970953174914049,-0.5009248921921343,0.5868872219820083,0.6037184912307108,1.0317022458959488,-0.4327559634443383,0.5994572117170953,0.5820852685703763,0.9838577837125889,-0.5592247043538149,0.5566035309845443,0.6911956063395871,0.9644899828822686,-0.4603985415611854,0.6261854721287723,0.5830191152086858,1.0318947169109454,-0.4754886424840446,0.6149379556988949,0.6057569673532552,0.9526805890185771,-0.25670055909177836,0.5751221914268847,0.4055359939202402,0.9708152875223625,-0.48114941106992115,0.5513536731011406,0.6143166311303325,0.9748220529637566,-0.09718202197487447,0.5957837587749272,0.14253180741316934,0.21321172986500836,-0.4318955734437996,0.7361167752814786,0.4643624356622046,0.7531720459559947,-0.021605169407554477,0.7319540862032297,0.14669125244632175,0.24204117034372402,-0.3911126418300998,0.8416828130288858,0.5050346060735396,0.8135926372899811,-0.09902189622337534,0.7549329363023126,0.16253459211410887,0.27424177052518894,-0.45260453544218593,0.8487888021088478,0.539883145197499,0.733928737761099,-0.10667920991136592,0.8049074176705558,0.1282757689035121,0.22215289876697572,-0.45401112002395666,0.8404048087739593,0.5452321313361902,0.7375174844972017,-0.08651278325240315,0.7999826262022646,0.15552526755741586,0.2026096761961096,-0.34275778566715304,0.801211640947888,0.45599083514835975,0.651255748565441,0.14566947433137337,0.5976406659152866,-0.12319211529457975,0.9679654927402844,0.01973829486705149,0.5873218316803297,0.025232724262903582,0.954088734851015,0.5322174660332305,0.6567841226197114,-0.6231780236607846,0.03509990594227658,0.3842046996981776,0.6252034266737614,-0.47798427601783766,0.2366624445198391,0.906667816236691,0.63077661390946,-1.1180676469876076,0.11113103213210364,0.8091569731148714,0.6228189714454864,-0.9650934389645183,0.5108044777726866,0.9337025385553355,0.5988512702066267,-1.1421798790676343,0.19565935660779538,0.7941160275136818,0.6722959938828009,-0.9854002538550155,0.34169680512196793,0.8759111300703807,0.7094357256245625,-1.0682612335127963,0.17840450273237687,0.7976142683905973,0.7487388362117947,-0.9318309438165796,0.3646101981813591
64,,,,,,,,,,,,,,,,,,,,,,,,,,,,,,,,,,,,,,,,,,,,,,,,,,,,,,,,,,,,,,,,,,,,,,,,,,,,,,,,,,,,,,,,,,,,,,,,,,,,,,,,,,,,,,,,,,,,,,,,,,,,,,,,,,,,
65,,,,,,,,,,,,,,,,,,,,,,,,,,,,,,,,,,,,,,,,,,,,,,,,,,,,,,,,,,,,,,,,,,,,,,,,,,,,,,,,,,,,,,,,,,,,,,,,,,,,,,,,,,,,,,,,,,,,,,,,,,,,,,,,,,,,
66,-0.5495729119071836,0.5122445485376332,0.7206581087798394,0.9920406373992326,-0.5611738335762351,0.47543650450248925,0.6850049233851296,0.9870489046102888,-0.5334488328724889,0.4910267414683396,0.6732187530096576,0.9781791740075744,-0.4887405263454439,0.5309200993172535,0.6256080467572985,0.9918847620006415,-0.5553643207394253,0.4975541251942885,0.7432481084281475,0.9515304125238339,-0.5589165882390635,0.45507893306718017,0.6807720708346917,0.9959894725168871,-0.563281688803833,0.44728560393047934,0.6794855047332136,1.0308454291273026,-0.4208946704899683,0.4798270239672327,0.5677809388896822,0.9805617660657994,-0.5768299113135085,0.4079184630924696,0.7120488428482092,0.9591262801082207,-0.5205018442967952,0.5197672797421451,0.6560011093758465,1.0307466718479266,-0.5445327938746124,0.4982626384114498,0.6892602741507657,0.9508461964709697,-0.2370230009904303,0.524967147824895,0.3804482669280014,0.9707593783655633,-0.5250241225904485,0.45667443668909224,0.6665785275349815,0.9727959718785514,-0.17575917927590745,0.6019774562274723,0.23923236833012312,0.24144336555474377,-0.5556353936695547,0.6771798813415066,0.6161916055600453,0.7694518625834972,-0.19997255844632486,0.745415974039686,0.36343949059617375,0.2647512552588851,-0.5658436816354863,0.8324662064119119,0.7174860735284176,0.8275569326772492,-0.29226986598080423,0.7783930860673273,0.396753803903478,0.29262847723505064,-0.643566519995711,0.8534713430024025,0.7715607117347962,0.746388135077078,-0.2946619292690939,0.8247813943780143,0.3563781613496916,0.24238404140708952,-0.6342364140439359,0.8407981994294769,0.7637567031001476,0.7494394863358858,-0.26698803749873445,0.8213439772154482,0.3746754163609311,0.22173680670453239,-0.5151415428015712,0.7981956459222532,0.6652915703620709,0.6605578878476676,0.1435773418494731,0.5635066951778294,-0.12146778686918493,0.9662295670658458,0.013928247698812265,0.5234260101089796,0.03125157179107072,0.952197419867647,0.5075186169374203,0.651234810981833,-0.5947009098387547,0.034466416601732774,0.3472987273660549,0.5799510439184818,-0.4347981918956844,0.244918403076968,0.8431174514561346,0.6080903708522091,-1.0430916888320048,0.11256723585028904,0.7416206142554075,0.5878706820511077,-0.885145795592749,0.5194827352380491,0.8645625802377996,0.5744853086549604,-1.0603421021822166,0.18858595420301028,0.7194650065293864,0.6414646569077033,-0.8971197661013192,0.35251877343899973,0.7917720027097137,0.6994156483960163,-0.9684557204344333,0.19185366497717368,0.7027398144863604,0.7370952476688565,-0.8175190692058573,0.3876439959222953
67,,,,,,,,,,,,,,,,,,,,,,,,,,,,,,,,,,,,,,,,,,,,,,,,,,,,,,,,,,,,,,,,,,,,,,,,,,,,,,,,,,,,,,,,,,,,,,,,,,,,,,,,,,,,,,,,,,,,,,,,,,,,,,,,,,,,
68,-0.6957451728021768,0.5101619026445363,0.8977375685176839,0.9923543962493302,-0.7035366508389665,0.4743643361522695,0.8576123482567626,0.98721442670883,-0.6756328914625451,0.48959235569181975,0.8456471713593092,0.9781561070100464,-0.6307922562758603,0.529180180131615,0.7979091257478719,0.9918863117214054,-0.6995514832801734,0.49658584773991227,0.9180586851594914,0.9518006599832455,-0.7029074892478728,0.45380965215668817,0.855392332596104,0.9962764688814805,-0.7070704173129012,0.44575638716412197,0.8539117432732873,1.0311031596113114,-0.5343318474032539,0.4764787032446527,0.7054658986127725,0.9792728752271763,-0.6976495051703828,0.4041459361130232,0.8587830107778877,0.9599676592738702,-0.6554109891302101,0.5141868544796939,0.8193528013474981,1.0305997463985552,-0.6811726982929254,0.49194198306553305,0.8548542519185947,0.9511389744861063,-0.31405283483674795,0.5110840935684557,0.4746024021511836,0.9707552656450736,-0.6332013474641137,0.43059454357690957,0.7975989946678373,0.9730547752461661,-0.22424424998068995,0.5712196117793827,0.29854198279707755,0.27352997634881115,-0.6849262359838786,0.6388886058402554,0.7709521375999677,0.7919870078662425,-0.23206784732073274,0.7340925220438363,0.40407122993176026,0.29982505713399965,-0.7082812569298161,0.8037131045861978,0.8876793566082464,0.8449630982770722,-0.32493368028652525,0.7619719468270624,0.4390275300219576,0.32532274248144205,-0.8009209319541958,0.8332123202896949,0.9583424959751738,0.7635678626313993,-0.3351373099804414,0.7899361018098076,0.4078416890792087,0.2778360198521426,-0.790342742287447,0.828269243493045,0.9503697870292778,0.766518124412668,-0.301062131360122,0.8102269361044557,0.41785893777516125,0.2556509257097357,-0.6599007897557357,0.7894872285066343,0.8380647405138764,0.6794476726605948,0.1587505026411809,0.540673288252628,-0.13916161687592288,0.9629094095379223,0.002840858019116441,0.49966473767855973,0.04493222914760987,0.9502003662444478,0.5919989305290277,0.6318286711312165,-0.6966896044875275,0.03637842557270868,0.39094101009424836,0.559249456718317,-0.48755988687203883,0.26723825638278464,0.9973186545608207,0.5965538918559322,-1.2282090878577356,0.11176036777396454,0.8583517334326327,0.5690946229004119,-1.025768199750901,0.5342397127961851,1.025352558602779,0.5622044272500837,-1.2533941594767555,0.18282006908834048,0.8429007763962104,0.6167439881149787,-1.0458906252019364,0.3652272287631727,0.9436217651601911,0.7020875458073628,-1.1502752851415186,0.2045332865544366,0.8043169869471737,0.7275825847812832,-0.94008812763993,0.4090879291708152
69,,,,,,,,,,,,,,,,,,,,,,,,,,,,,,,,,,,,,,,,,,,,,,,,,,,,,,,,,,,,,,,,,,,,,,,,,,,,,,,,,,,,,,,,,,,,,,,,,,,,,,,,,,,,,,,,,,,,,,,,,,,,,,,,,,,,
70,-0.8570435795517396,0.5308434030794118,1.0927559349839568,0.9929667743697526,-0.8653730154266238,0.4955148059322378,1.0532037753407701,0.9877809092527754,-0.8372527363421461,0.5107174040907914,1.0410132320251282,0.9788303547517456,-0.7922905009714425,0.5507152190796742,0.993153316140491,0.9921365320201726,-0.8600779389998663,0.5170257109448684,1.1118938718058855,0.9523434794832148,-0.8637747976108867,0.47350237113938476,1.04955350971138,0.9969576307619736,-0.8682901452752769,0.46431018059445034,1.0484257545049125,1.0316907421995072,-0.6645138084636723,0.4963285400709772,0.862907121320163,0.9795309633390538,-0.8193138926554815,0.42648605499806347,1.0054566927061677,0.9626983864696098,-0.8025508531837428,0.5341299129704471,0.9972384240729945,1.0307841631694905,-0.8268467860909503,0.5114833062505001,1.0306239880529888,0.9519412530047832,-0.37989572236341485,0.5350558896042223,0.5550875858674644,0.9707414373674859,-0.7197486448547472,0.45530916249818953,0.9016893590088119,0.9740981545529593,-0.22279040005426215,0.578853178635767,0.29705876064207737,0.2884302434729871,-0.7856930228116908,0.6584701621604458,0.8926904269885545,0.8157894671062023,-0.17252805721136025,0.7408940080591562,0.3328625728321341,0.3317824748605163,-0.8335449819168894,0.8413435433908243,1.0373688760250435,0.8636992223157685,-0.25689985082303585,0.7663415037309015,0.35745464227816426,0.3593239438726621,-0.929823435113157,0.8679528874970314,1.1124258349550054,0.7847012854829618,-0.2709084900708805,0.8124485973275383,0.3311464988992847,0.31659623489616423,-0.9245661968680373,0.864040076985324,1.1106628804452543,0.7884678924790742,-0.24034058997985944,0.811701793434778,0.34557299221438914,0.2928041101236456,-0.7864140710191752,0.819349691980908,0.9894288295550008,0.7099177458837088,0.1640029905636765,0.5754131402042271,-0.1453130383934893,0.9605707020908703,-0.003497070549783826,0.5381578345070204,0.052090631036333816,0.9492315523482686,0.6515370496035654,0.6581261808014741,-0.7686824838650161,0.03816039583523618,0.44273906580453093,0.591045614078394,-0.5505083598157255,0.2832568556545589,1.1334354251135195,0.6238336860720882,-1.3926973049083762,0.10901513429780264,0.9810810186883059,0.5850602634453033,-1.1744988157297607,0.5431551371431089,1.169601756868066,0.5906964011270368,-1.42766045272184,0.17517990101754727,0.9755777956777782,0.6293283763710517,-1.2063850123479345,0.37755078709370865,1.0835308974200528,0.7227502111744892,-1.31960228149879,0.2139189915486382,0.9387021765597199,0.7427775372692288,-1.103617019284446,0.4297445744688194
71,-0.6766641973804834,0.595325138308904,0.8740258884238846,0.9935561450972916,-0.6986260092618132,0.5623787599994681,0.8509930646238713,0.9881710216528303,-0.6704742698902707,0.5770662548178727,0.8387598833395944,0.9794699721948302,-0.6253095348447919,0.6160332074753652,0.7906739722165254,0.9922899543758245,-0.6945253258915816,0.5855359453007949,0.9111572675797823,0.9528249061990658,-0.6983093311626634,0.5432573292921558,0.8489379995035754,0.997602433809154,-0.7027735335746923,0.5360840374727309,0.8477721388449675,1.0322452442098526,-0.5646556914580324,0.5599287822088861,0.7418467167602071,0.9801157445089451,-0.729687260312933,0.487775305848741,0.8967158350353476,0.9653550250918939,-0.6454180277359032,0.5957823945263858,0.8066812181555303,1.0313456389232745,-0.6713906082986462,0.573479647002148,0.8423379316995177,0.9529433262927471,-0.34218231278052424,0.5612458724953051,0.5093818897743189,0.9707528218546381,-0.6505815823549531,0.49319086468286666,0.8177026640128028,0.9752177085957755,-0.16315726879023318,0.5892540103351384,0.22474195252103638,0.30898877952569104,-0.6920311133451219,0.6739239180160062,0.7781740689317285,0.8374382317164928,-0.09719338154945745,0.7425595406481149,0.24138491040451093,0.35920198236402584,-0.7173693935163603,0.847459874014451,0.8962479022739047,0.8805350310697357,-0.17760663641854285,0.7689902149354303,0.2611965809173297,0.3830442083074766,-0.8066534577479262,0.8770195288277504,0.9623930063489863,0.8035615659967252,-0.1844752591182643,0.8156303528702934,0.22619765107626816,0.34513064728019743,-0.803634058466616,0.8650132420205718,0.9639500392541575,0.8081248486749055,-0.16089267612564703,0.8126192281271608,0.24909777462398713,0.321239608599674,-0.6714690494787671,0.8219023801027037,0.8498545717335458,0.7375137427403983,0.16763828646090737,0.6182920660045506,-0.15025368758116553,0.9594614596516002,-0.011101888561952938,0.5826066870460829,0.06089141310226937,0.9496427647925738,0.6475427252963075,0.6725091988182893,-0.7649907729145426,0.035378114347055976,0.4239858587366531,0.6072613557127629,-0.5288847368947702,0.29448848669513206,1.1252702413372988,0.6253364979808101,-1.3832262223819067,0.10507103534837024,0.9305585900947948,0.607109154035971,-1.1143297873110938,0.5584710870599485,1.1617108070159274,0.5913405485231245,-1.4185984814594605,0.17351027060926028,0.9209869447512076,0.6552457276169318,-1.141443460097193,0.39424661433942093,1.0993763519585027,0.7227931265187275,-1.3389193060398918,0.2125930564232873,0.9028180434890295,0.7478567470737637,-1.0607387263190784,0.4447256058866661
72,-0.735202588240544,0.6465768477701161,0.9458657801715841,0.993971649076021,-0.7575410057747122,0.614391084332659,0.9233159981690263,0.9880674287802108,-0.7295289526241212,0.6291075470084244,0.911214708623421,0.9797692471162475,-0.6844751902995407,0.6678633800141225,0.8632318150947736,0.9919581353183599,-0.7587223174513734,0.638954939250685,0.9899564888061436,0.9531339562822262,-0.7624764566547568,0.5977134440611377,0.9277209469669004,0.9981149145449328,-0.7669436325281069,0.5916111881036819,0.9265679609888984,1.0326285616804032,-0.6101804722194327,0.6099405958494806,0.7977052263853951,0.9801329702512853,-0.8021078470080417,0.5436921516472335,0.9854490578332843,0.9677062495143486,-0.7011998050418753,0.6454460574368472,0.8750583341403043,1.0313293668552508,-0.7342774604192411,0.6239758675908321,0.919471114515724,0.9535725725276407,-0.3777795344838265,0.5742305059410449,0.5520381265281021,0.9707136019983756,-0.7300143055820586,0.5329623619324699,0.9141584842749857,0.9762153115353813,-0.15055649254837153,0.5978950745021611,0.20967905326172603,0.2949636874007521,-0.7413030387862264,0.6848362171721951,0.8373265286073469,0.8567589581111461,-0.03270939805205066,0.7480172399469736,0.16307929577289576,0.35022680436071474,-0.7359927021331397,0.8489077900453348,0.9186476840239917,0.8954437024488251,-0.10226766992124041,0.7724050246392572,0.16976116222530313,0.37814914705297525,-0.8187327523399036,0.8762443108178016,0.9772720282818003,0.8202792383447477,-0.11332144336986388,0.819940603152581,0.13976763841501558,0.34221791730163603,-0.8139289993043999,0.8653129937791473,0.9764680395733611,0.8254587734452608,-0.09657255328232817,0.8160762379194887,0.170876134386726,0.3196008981008642,-0.6860675987616083,0.8234816647706724,0.867576715906065,0.7609978535726126,0.1847324973620794,0.649800690558231,-0.17110294761070788,0.9576644988209116,-0.03251382797766852,0.6118164200554213,0.0859076836156912,0.949730025992525,0.7378083093343842,0.6878456527329316,-0.8756612519303044,0.03054648361046658,0.46359645243527126,0.6141339500692997,-0.5782603954631881,0.2941522568939541,1.3000560759727944,0.6245832144801388,-1.596151832822361,0.09656354519028913,1.066583073882892,0.614797735979483,-1.2800037465278085,0.5594235096788145,1.3469908226182958,0.5857664413530195,-1.6442109785862136,0.16786323715627258,1.070145601341116,0.6582225027863043,-1.3228002542577957,0.4075096014762617,1.2899551218229703,0.7225824240994465,-1.571391180470135,0.1989988611765908,1.0545004642961224,0.7506017793842495,-1.2456256658659361,0.4383992284948509
73,-0.6118124310026756,0.6706516406320546,0.7963472663103127,0.994475785161531,-0.6340335966852814,0.6379173952533743,0.7737666709215805,0.988623838139189,-0.6060681301475026,0.6519503118628556,0.7617066400166885,0.9805588894502318,-0.5610715478018885,0.690281998216332,0.7137700479953019,0.9922605096813054,-0.6359219502753094,0.6648817676350844,0.8413527269780691,0.9535774744439999,-0.6395086945938985,0.6248180602262988,0.7789625216815671,0.9986806818331408,-0.6437388778008664,0.619942885090834,0.7775694687880795,1.0331226841855912,-0.5151416993278343,0.6310535743078851,0.6826105907406023,0.9810415834562414,-0.7119789831396998,0.5802097121292586,0.8765823879340808,0.969923840323217,-0.5856707986642197,0.6682890011052127,0.735108113577532,1.031708810023891,-0.6200226975452258,0.6490272825574154,0.7812344121261865,0.954388023672813,-0.3146441754338497,0.5920967001892443,0.4749744051593143,0.9706747993746269,-0.6582491267010125,0.5607605377442375,0.8273064862039436,0.977106758602642,-0.08826749816011964,0.6135625726138859,0.13402283376498286,0.28310304854386426,-0.6837876108818399,0.6935055339408414,0.7673762987591639,0.8738524973491222,-0.013006326104520786,0.7517462853380563,0.1392617806805312,0.350998148068753,-0.692004668706923,0.8525594686074991,0.8652250476043677,0.908711457957248,-0.0884476272875858,0.7772812806283319,0.15312400804276344,0.38168677212736185,-0.772781737644728,0.8757149619675514,0.9217227352734738,0.8350352026239225,-0.09691687494180631,0.8252999547875602,0.12007744066899562,0.34756975875137364,-0.7691130716851148,0.866805255665744,0.9220656516726972,0.8407826507798555,-0.07787194149827067,0.8222527692343385,0.1483020821372054,0.3246448815603369,-0.6423982238258399,0.8257396079240538,0.8145554007856305,0.7816164711072501,0.18093198135532476,0.6662553276088596,-0.16701365876821334,0.9554236025959361,-0.03235246462402117,0.6414375443229994,0.08538275302495477,0.9497545235015277,0.7207819202534385,0.6850073391533723,-0.8544308733746615,0.026283939395741078,0.4699436000506924,0.6113340218809757,-0.5857219875297308,0.28598922197802995,1.2601908448099655,0.6287524401728878,-1.5476158410309673,0.08921299608845963,1.0533142553398784,0.6254577286743377,-1.2638325229497027,0.5562753711557127,1.3051292039450297,0.5870089001733625,-1.5932724624628747,0.16295172501981317,1.0552387690620864,0.6668573680702704,-1.3047088221772014,0.41416016853101023,1.2577699934498359,0.7258950714421284,-1.532331173962584,0.1861584858723687,1.047707932564521,0.7570555915065945,-1.2373059981589078,0.4288848966772239
74,-0.549165564418033,0.690820481517217,0.7204366353973216,0.9949333700194718,-0.5738478216233177,0.6567187267734549,0.7008448910316102,0.9891622468954452,-0.5457704864614765,0.6707390071982438,0.6886753684938818,0.981332676948706,-0.5006544998179956,0.7089930883042226,0.6406198688323165,0.9925966202731938,-0.5710673500049342,0.6834378260419143,0.7626344207171712,0.9539681828905024,-0.5749196710145592,0.6427863572309985,0.7004934259216731,0.9991849371279404,-0.5793801868005817,0.637613874127394,0.6993162725424353,1.033558453743544,-0.46962468531907536,0.6523900701841974,0.6273067499976215,0.9820638031141393,-0.6424867226585459,0.5996133485847945,0.7920768198045648,0.9719065292270256,-0.5290044105985781,0.6877303076962467,0.6664221472110221,1.032130214862453,-0.556819424588829,0.6674327200268978,0.7044737871324457,0.9551236641986307,-0.29111927815005434,0.6025666732765551,0.44652724713416336,0.9706659778872002,-0.5798290132688031,0.5771606365448967,0.732273768081397,0.9779012289128531,-0.07706979836272576,0.631915557995966,0.12143420433939613,0.28492143724434943,-0.594615382098859,0.6986420834136502,0.6587812537654474,0.8892331183055431,-0.014110236996291402,0.7581872228571298,0.14061678275558923,0.3570286480039032,-0.5871220774569502,0.8543186996980447,0.7378607410453892,0.9205904252424042,-0.08882243534931762,0.7812397442971551,0.15365785363924425,0.3881416273309904,-0.6565289667829125,0.8758946699715492,0.7805586026038182,0.8480004049554655,-0.08766179600867663,0.8280768159783561,0.10888103139809899,0.3566683779740146,-0.65210323193966,0.8693868520402557,0.7799797713805786,0.8542576516381624,-0.07463620755051167,0.8265848944212587,0.14441082300059765,0.3341545642156713,-0.5365041798079382,0.8289906240640379,0.6859516820630253,0.7999026396825369,0.17838532300045615,0.6794858302142979,-0.16379305729888066,0.9513467044979442,-0.02838648544673677,0.6537705797920546,0.08077980394875914,0.9495689146376971,0.7019630070716917,0.7029213363266816,-0.831411023929341,0.022098259095743776,0.4620463467072499,0.6134411056784306,-0.5759358319491354,0.27820056383594016,1.2360291559514514,0.6534480750148067,-1.5179050885775698,0.08209980013270633,1.0367547412183769,0.6288315303825591,-1.2437874999550096,0.5511060987329222,1.2863210442344388,0.6126327581483686,-1.5699413973446492,0.15645604063451357,1.0396392511080201,0.6715022984329718,-1.2857193968943612,0.41326484716183914,1.1919103693826336,0.7452042345356953,-1.4521234798286624,0.17590447531424028,1.0063888419689273,0.7623473514743985,-1.1870544392814653,0.4249270886594932
75,-0.5999711235816864,0.7125932833932851,0.7823601238866652,0.9953824314132096,-0.6192764854569482,0.6755081373645804,0.7562326548153582,0.9898183748251326,-0.5913019360756959,0.6891273381346756,0.7441648359910635,0.9821697049752868,-0.546318270720322,0.7270315995804677,0.6962384099187834,0.9930505096431584,-0.6113404266968718,0.7022845763013137,0.8117619387010382,0.9543843425203244,-0.615341771629917,0.6612861488531604,0.7497767544481234,0.9996864506090807,-0.6199101868816106,0.6554360205431045,0.7486970619671499,1.0340064422536757,-0.49222318093234946,0.6661921813330316,0.6547406560759765,0.983188244737827,-0.6408011272370961,0.6157651940399642,0.790095609440754,0.9737660749347282,-0.5733673896631647,0.7102085901478763,0.7203842539398057,1.0326380464359393,-0.5941281665695183,0.6910815184926266,0.749928974275089,0.9558878553492961,-0.30193132624951224,0.6232279677368517,0.45970036544445825,0.9706141218462456,-0.560792620023284,0.6011315385109917,0.7091244067124122,0.9786430683217278,-0.0881626681375639,0.6280563360606938,0.1349112465386594,0.27672091100686164,-0.5778384502879003,0.7017470681739346,0.6379379296093279,0.9033070862391979,-0.013251897266268152,0.7614534381815317,0.13960795544403423,0.34641908083852846,-0.565290194257252,0.8597564314409036,0.7113268072627166,0.9312763459577362,-0.09172638341548163,0.7805778347169244,0.1571973446717749,0.3813997757627683,-0.6355559300902384,0.8767818851090309,0.7550498086473307,0.8595371223703214,-0.0886899258090518,0.8282143834984977,0.11014571266314158,0.35111632452247654,-0.630300356848742,0.8695809843682891,0.7535027339727877,0.8662238801232698,-0.07347330916364561,0.827972967388788,0.143026700450346,0.3297809541959875,-0.5151549807502226,0.8295006014047361,0.6599906672549167,0.816407583053356,0.17014413009654128,0.6990375842121006,-0.15370184487454747,0.9491139741093029,-0.019537166944057487,0.6694874305496534,0.07012521327327104,0.949848102793825,0.6984093236233964,0.7190399819947114,-0.8243650438482975,0.01872599220712528,0.4639264415434597,0.6365626414564762,-0.5780995709592498,0.27387919728740195,1.1987363062551557,0.6787783205096493,-1.470427521864882,0.07637726249594944,1.0330029162779792,0.6323284156822417,-1.2390308224916633,0.5542695556497312,1.2436405484725106,0.6379212803918684,-1.5160246974211253,0.1518151484864957,1.0363941146383246,0.6775896015945929,-1.28163526529673,0.4121573332572676,1.1839537805332023,0.7722594980549824,-1.4401295288564118,0.167773015958886,0.9995875622805224,0.7692223300167264,-1.178493344375262,0.427217963379113
76,-0.5881829475195267,0.7096789738916371,0.7683658028549628,0.9957852992072466,-0.6050738732441415,0.672592337746813,0.7391320183509544,0.9904259249693281,-0.577299566987079,0.6859985711211258,0.7272570919948242,0.9829268627778684,-0.5325007298877995,0.7236288896195302,0.6795104171887395,0.9934710800166936,-0.5974621257165524,0.6997151988789809,0.7951630933410072,0.9547637260843196,-0.6012369902700853,0.6592989896009936,0.7329531843902217,1.000138075002544,-0.6055455421590348,0.6541093403596938,0.7316241884042515,1.0344133631635573,-0.4719676725720085,0.6630509569487237,0.6301729573229053,0.9841678470747105,-0.6216460104323352,0.6133762398773666,0.7672580842456659,0.9754429324061942,-0.5609857642243959,0.7091846419552799,0.7056338270238244,1.0331138107105364,-0.5824196493257271,0.6910399740552181,0.7360529500986617,0.9565964353663859,-0.2803494847164666,0.634633256909978,0.4334805854265238,0.9705558285036553,-0.545146770440167,0.5992390314347282,0.690310240520564,0.9793179121098745,-0.0805665160608946,0.6434861904536991,0.12542301688691143,0.26985442612641425,-0.5905603094873343,0.7015158617568509,0.6533419281261723,0.9158454597095043,-0.011811333895327257,0.759728181738508,0.13782696491696445,0.34654767785963136,-0.5847321582924689,0.8594377254052896,0.7348454645830769,0.9406169898404876,-0.09044142589696282,0.7802511416589105,0.1555156218545919,0.3845182609750944,-0.6512574731986717,0.8766533774948951,0.7741165772610474,0.8691993333116361,-0.08450888342440213,0.8274659875786979,0.10504060914091029,0.3557359527134708,-0.6443837676607223,0.8703314664506561,0.7705407497278313,0.8761651600114229,-0.07163479516026106,0.8269592115904482,0.14079740993647594,0.3349167586107366,-0.5329062559359523,0.8310145593820311,0.6814664846033562,0.8302661994054373,0.15259324482688214,0.7115379299190403,-0.1324409441846981,0.9488213749081005,-0.0022220791509405032,0.6771567601929029,0.04910736956686859,0.9501138203002337,0.6482146477846525,0.7255060726738801,-0.7611224034967367,0.017479208324745775,0.4614653192707097,0.6485311945227299,-0.5733148772703061,0.26276266281589006,1.1081765950952436,0.6992862522189388,-1.3581429055813254,0.07380475582976594,0.9679378879876741,0.643152261545584,-1.1580114860064226,0.5342863236283995,1.1436797197592183,0.6613794632036054,-1.3923352380885499,0.14836119343221246,0.9677771747562667,0.7157889667336005,-1.1947571529018581,0.3926551107192732,1.1022314422851172,0.7935474161458027,-1.338159353255168,0.16376119123182759,0.9588027639357398,0.8086581935115994,-1.1254564877735942,0.4134625226671379
77,-0.5434335199852234,0.6962003967546437,0.7138415592349764,0.9961588415160538,-0.5629230476576971,0.6589817363216421,0.6878527804229404,0.9910014674192792,-0.5350762953906093,0.6727431537741715,0.675920423790207,0.9836470060960448,-0.4902359711695475,0.7107918372742543,0.6281464621990087,0.9938986837383122,-0.5563616973790667,0.6860176342770827,0.7450994646997987,0.9551051414895932,-0.5601158943135504,0.645634445972301,0.6828562269534341,1.0005455919588733,-0.5644255288460023,0.6404738241930068,0.6815131021064701,1.0347745673108961,-0.4421378619778755,0.6516103818258905,0.5938933566288814,0.9852099150793185,-0.5960456996424875,0.6023352542931075,0.7359586825077417,0.976941273966558,-0.5197057772536684,0.6985329939106937,0.6553878304166595,1.0336076351925005,-0.5425719809444743,0.6789514964436764,0.6874484876833284,0.9572356951816019,-0.269885445889016,0.621987297055852,0.4203884161419181,0.9706364139833916,-0.5172803565324328,0.5933456221825615,0.6564317169430572,0.9799192037663688,-0.07468554785692247,0.6465026623164921,0.11818454234159152,0.29645618770592785,-0.5423019291269684,0.7008504355025784,0.5947675551761965,0.9264478147128612,-0.009739727782809564,0.7609776143022897,0.13520202906602277,0.37592138324674684,-0.5307713294895724,0.8584596727891702,0.6693061955936712,0.9486314303769867,-0.09245472869511716,0.7825671397363031,0.15779530181626777,0.4112018895342069,-0.5967825265756209,0.8757468504525062,0.707969135983126,0.8773931838289091,-0.08371140870534258,0.8288163308060844,0.10398369715772204,0.38374176130531346,-0.5971345409284481,0.8702347877168304,0.7131574497121048,0.8845347846261384,-0.06801631517990145,0.8273199985052736,0.1363640008793405,0.3629523099203222,-0.4825726314622302,0.8307287551103331,0.620345949184036,0.8418525078847464,0.14533744839304455,0.6932607020404697,-0.1242100293970664,0.9500050635486949,0.000411720446673031,0.6638643283615431,0.04536618911712709,0.9506168238974932,0.651841031758908,0.7245847040749421,-0.7665307156347633,0.017279581193522076,0.46685509993089264,0.6394304593351994,-0.5804990283525941,0.273810711550555,1.1219297862719648,0.7016339599673519,-1.3752831570100357,0.07440197201867353,0.9732387578337691,0.6369356759094451,-1.166033867534492,0.5504994426583982,1.1587652775646675,0.6645772523958051,-1.4110328478001288,0.14918033261478006,0.9707436888624033,0.6948412123505133,-1.2007867953242835,0.39394274986035593,1.120982052936699,0.796413326675893,-1.361131318350514,0.17315340803347098,0.9566390083109744,0.7950919975467862,-1.1250820091679328,0.4339935511762779
78,-0.5677921662032546,0.6794540545724843,0.7432680146246098,0.9964216979995134,-0.58663666377022,0.6442083674861929,0.7165027173765885,0.9913164779669171,-0.558759233146425,0.658262026512056,0.7045421751064371,0.984109240116278,-0.5138912460552254,0.6964405289284596,0.6567447279520561,0.994123512458405,-0.5827171846271784,0.6697574275777114,0.7769432938060568,0.9553101218629756,-0.5864932173188093,0.6286222074697986,0.7147219371298021,1.0008256741846728,-0.5908492715065614,0.6226176435251296,0.7134295986824964,1.0350113169599442,-0.46099210585809397,0.6350309922537469,0.61675149484052,0.9858891696111789,-0.6263922609356131,0.5828196207100387,0.7727542627408849,0.9781542284877373,-0.5413294976262684,0.6798979593495365,0.6815772010083028,1.0338461133762469,-0.5677682567250918,0.6598926728581661,0.717918026720893,0.9576643717868267,-0.2818775012309943,0.6142694492317553,0.4348774684721006,0.970693098000573,-0.5537268639601969,0.5789121786362663,0.700299399792456,0.9804270949444998,-0.09119209558204255,0.6437192446147709,0.13759042570482463,0.31150916193001843,-0.5797662823632808,0.6993658626151578,0.6402317541834295,0.9357660472491771,-0.026937265660046388,0.7614663127848031,0.1560384059403543,0.39412994657453615,-0.5724421223395464,0.8581900809808511,0.7199067597366695,0.9556373603238861,-0.11019362151766189,0.7850330434953058,0.1792784724503802,0.42816078187963535,-0.6462949775251848,0.8747607512093422,0.768182118800552,0.8843657351747342,-0.10548090631265952,0.8292028669274528,0.13026021007022728,0.4023791502499393,-0.6432191713115948,0.8701090219163543,0.7691310188033147,0.8916593278161409,-0.08693343978376986,0.8270660827185304,0.15916493306178628,0.381805855109226,-0.5235455764763451,0.8306617594896055,0.6701280030416156,0.8512016752317008,0.14728781215891526,0.6791490043666721,-0.12689832543820656,0.9506588072925914,-0.003773554703247325,0.6498094935188612,0.05021776064831343,0.9509941809035662,0.6669561544442102,0.7168871218300691,-0.7854066352370306,0.014740445677832177,0.47776006004078253,0.6357514818457279,-0.5937614318338462,0.26249155108912925,1.1465041056929868,0.6864891945903072,-1.4059323682458011,0.06985974045892014,1.0094396500656404,0.632510925104544,-1.20995808641154,0.5378814969873167,1.1867063177815478,0.6508237190324628,-1.4458359019734481,0.14476028312623568,1.0072932901009681,0.6889042321030158,-1.2453291612018533,0.3805292907977797,1.1652207803982426,0.7820288781476032,-1.4160561978468174,0.17020034061155778,1.014652215308944,0.794730614585513,-1.195611373793303,0.4290037483389061
79,-0.6633575866618682,0.6717350146554921,0.8592305303220066,0.9966305526748062,-0.6719028705708685,0.6361604291393301,0.8199697207480112,0.9914204284674055,-0.6439870520540001,0.6502623679274613,0.8079630379381859,0.9843176179544129,-0.5991148978413909,0.6889349332444081,0.7601601085401947,0.9941722690578314,-0.6774804248266025,0.6619097012326491,0.8919234244763525,0.9554693854738157,-0.6813259892194108,0.6207487319181934,0.8297842893808641,1.0010486551607776,-0.6857398460464394,0.6145593935747207,0.8285589257356196,1.0352008001256852,-0.4990207762347925,0.6293710543951654,0.6629209899519652,0.986012610830509,-0.7146877047430976,0.5748820701652999,0.8798854996191793,0.9792004688174798,-0.6220983890438623,0.6731031490544315,0.7795714219233031,1.033846053771602,-0.660909659633028,0.653303558192181,0.8309233260254485,0.9579449308497843,-0.30459796916488835,0.5962110896088,0.46262158577585216,0.9707129463472832,-0.6490006613347367,0.5763861337906853,0.8159747105853989,0.980857798107647,-0.1119421674708834,0.6148177272235661,0.1627299738088818,0.32247549269669623,-0.7015930867968719,0.694054671533157,0.788302591552767,0.945253854999879,-0.05142727300937857,0.7608387950846078,0.18575871511351452,0.41045506273206783,-0.6972550632135504,0.8567311976953287,0.871447908486525,0.9627579696073334,-0.1362128328574554,0.7849624119912469,0.21087569159039482,0.4429313492967802,-0.7873437810249176,0.8746990007973549,0.9394871601455276,0.8920980669275114,-0.1437287720079181,0.8287765745080192,0.17666043143326976,0.41874277100799595,-0.775105574461795,0.8700385692262298,0.9292782263152871,0.8996621454469087,-0.1168167239938116,0.8267825434233339,0.19538551616057123,0.39864810116482907,-0.6458323310454862,0.830436334723065,0.8186239901018554,0.8618897417142447,0.1659231585778753,0.6696681107547642,-0.1493955732718284,0.9505978317409862,-0.02178693416516541,0.6492294211159071,0.07211717999570004,0.9511158935881978,0.7323455277055054,0.7109099680519929,-0.8677473884187927,0.013181657557085578,0.4762479502935449,0.6330475171354923,-0.5929050310732443,0.26575863068088035,1.2610345971532677,0.638279169756628,-1.548027819719695,0.06650598826308504,1.0520513781862275,0.6150811560653899,-1.261999502743124,0.5460407768106199,1.3052101380462853,0.5948805875856245,-1.5927498595827836,0.14370190580070077,1.0538703649557135,0.6573439899269599,-1.3024964203619176,0.3879374924922682,1.2607987025753022,0.7329791430783283,-1.5349960784769474,0.16859298215589988,1.0520200542804234,0.7700123895832242,-1.2416474657237957,0.4385176629240196
80,-0.7544990375567194,0.6426492593072866,0.9694238856376894,0.996784809495485,-0.7679551256795113,0.607463057656481,0.9360777024906222,0.9913705989843732,-0.7398722778001005,0.6212805034750992,0.9239060243506134,0.9843537979737914,-0.6947870407236041,0.6590981593720326,0.87590005543709,0.9941319167133182,-0.7716356051749194,0.6326445359036696,1.0057135881478771,0.9555671966958921,-0.7754328133458759,0.5910253260801807,0.9435233715211035,1.0012071439112353,-0.7799190060237131,0.5844280535478652,0.9423706525548738,1.0353329436231522,-0.5992602717647321,0.6044547035536432,0.784635939699826,0.9858530491964451,-0.8028290658720028,0.5411299863869186,0.9861198211696471,0.9800103767306878,-0.7107757133110574,0.6428384734372135,0.8869562723412029,1.033751640014278,-0.7470635608179299,0.6205767935132259,0.9352648856615208,0.9581182611567911,-0.37599357035468783,0.5742005248047228,0.5493903163558713,0.970720992974328,-0.7228785591716631,0.5315397182709709,0.9049735210988548,0.9812299099049797,-0.16197726547856525,0.6017574554836064,0.22332342751957385,0.33793359969132514,-0.7578972244312261,0.6928594195914761,0.8567678967529941,0.9538405001262218,-0.08725739455223341,0.7606969360300424,0.22923670435303445,0.4254912880509765,-0.7566964898246766,0.8543760989709634,0.9436324483185765,0.9692040331258576,-0.17112669797930075,0.7844887934838617,0.2532731405416177,0.4527427506639677,-0.8491454435016087,0.8746243161774513,1.0146436499504135,0.8989130235925505,-0.18224103555923868,0.8284574512398918,0.2234269920209453,0.43022155270813023,-0.8420031370360179,0.8698552253389007,1.0105253655520634,0.9067073548547151,-0.1540006160185365,0.8254692742849977,0.24052568021266826,0.4108164490003698,-0.7071470842236779,0.8296144462762571,0.8931064141276327,0.8711008050992545,0.1667782252558628,0.6577517713573338,-0.15061006585630127,0.9512910933643688,-0.023531936536808774,0.6257938880691847,0.07420813671830635,0.9514084331847554,0.762712280839189,0.698248332176291,-0.9050917371423151,0.012231168363884479,0.5094676916254631,0.6080553491858158,-0.6331273333163597,0.2681360215423916,1.31742012597197,0.6334158479754696,-1.6169202367531692,0.06369252982039704,1.1191378024382566,0.6055325515770171,-1.3435293057603914,0.5500472222184873,1.3645119667522072,0.5923924512941205,-1.665044591127117,0.14029918838918268,1.122231644794094,0.6459925237480658,-1.3857344100457365,0.38854960239178904,1.3022152627323786,0.7231723312687885,-1.5858985136568045,0.17056409285746088,1.103496521016338,0.7522748817630948,-1.3043785760446698,0.4490024775678794
81,-0.7094425480971329,0.5953355691217397,0.9147011441744954,0.9969744714751602,-0.7315974078422421,0.5558356601192496,0.8919314874933827,0.9915393397337323,-0.7035959607321617,0.5693519832724625,0.8798595483898293,0.9846245222703612,-0.6587398293572804,0.6072793713204274,0.8321373385507322,0.9943140685077518,-0.7402892460622971,0.5822047013089431,0.9676257718675305,0.955679432242004,-0.7441773445813211,0.54067680580125,0.905502400238745,1.0013702818239856,-0.7486389632827211,0.5343555027742446,0.9042801296479022,1.0354745642591385,-0.5921550478340565,0.552239961846795,0.7759928624001333,0.9863465160505406,-0.7647558784150067,0.49270764980854936,0.9398680213111931,0.9807301028163506,-0.6761473965784583,0.595528657553577,0.8448838350166635,1.0340333315654864,-0.7167775830338698,0.5758758729314083,0.8984240929242181,0.9584544909579691,-0.35631357526199114,0.5455854673363085,0.5255303264035266,0.9707826241770257,-0.6794521409856742,0.4930928746468559,0.8523161327922193,0.9815878357968557,-0.17533781783300076,0.5867898351108342,0.2393352113254505,0.37315499756806464,-0.7206490328781492,0.6908418023658291,0.8118603956418871,0.9611156046489268,-0.12878708670320393,0.7580330852457406,0.279632071284659,0.4585083273499878,-0.7171112356142543,0.8543960665269632,0.895576128421296,0.9743950612439911,-0.2194431838204401,0.7837476097260797,0.31194522892111354,0.47932952167532017,-0.8045642542497862,0.876025025329673,0.9606380263088944,0.9037955976739713,-0.22915781859596088,0.8267904285348137,0.28039871234329145,0.4581233511948398,-0.8020866098443581,0.869954407467807,0.9620550436894733,0.9119077409020785,-0.19582981175625178,0.8227851579214723,0.29128411998321835,0.4374169588823431,-0.6684976048442199,0.8294833160577513,0.8461773253085337,0.8781123378827628,0.16364860304935583,0.6357388223674656,-0.14675350594123238,0.9522605629116404,-0.01968610421076613,0.5983426112900099,0.06965925484316776,0.9517161123610858,0.7482068169407737,0.6822462135887971,-0.8874086725931876,0.01330900288064818,0.5002542549529075,0.5876128037718449,-0.6219223014002968,0.27562159006579856,1.2393968219737441,0.625486999708868,-1.5217761994834524,0.06499693276782294,1.108774481630204,0.595978999903128,-1.3309031694264037,0.5564913187837339,1.2779908765544723,0.587136156089958,-1.5595975487853981,0.13951242197930877,1.0930436697786021,0.6394301119629401,-1.3503399954249498,0.39153874552495255,1.2054006028698132,0.7112889532399189,-1.4678902294924225,0.1814383642502831,1.072861919861711,0.7450817932316006,-1.2671488392625463,0.4629978269750755
82,-0.6674226717172167,0.5839355847619985,0.863651180899128,0.9971751007094742,-0.6881617304609612,0.5481544691516897,0.8391740285525393,0.9918049380308516,-0.660133476337102,0.5620490433806473,0.8270659257989998,0.9849614673272764,-0.615209298577666,0.600204717218102,0.7792531214726538,0.994528466415009,-0.6888323043751067,0.5734024661824477,0.9051442733446624,0.9558292783189692,-0.6927556186181677,0.5319170687864795,0.8430644228266272,1.0015600630129504,-0.6972700767807245,0.5254464561243117,0.8419070701555411,1.035642172520247,-0.560094051311566,0.5444569065413141,0.7370380873972793,0.9868404001371494,-0.7323171361958377,0.482554952245378,0.9004853407865123,0.981468246737249,-0.637104332211762,0.5828588558415408,0.7974414123580998,1.0343216988369097,-0.6686142999792717,0.5627973025655025,0.8399247682394662,0.9587990654094157,-0.3489138329847401,0.5228634018875475,0.516503813072423,0.9708357915201652,-0.6788954773394997,0.4820866981751457,0.8515931228054922,0.9819210853657949,-0.17846244331655664,0.5673186665927678,0.2431414756826875,0.41101404998772717,-0.7037230100772212,0.6849989974570767,0.7915971033414899,0.9680133521655588,-0.14474046486435835,0.749068248648298,0.29900496930540144,0.5009110716432006,-0.7070593483566798,0.8540361140771646,0.8833857903943658,0.9797137029065888,-0.2374512523394227,0.7789089046632135,0.33385848418894093,0.5184241783811765,-0.7976068409272797,0.8760275287247535,0.9522035495715002,0.9096835232988187,-0.24994950863678198,0.824060476199456,0.30564526963066324,0.4964823077702335,-0.7945998031028938,0.8699561360025054,0.9529702345005485,0.9181699240914705,-0.21284947289409795,0.8196159789587648,0.3119017020353747,0.4745585501928442,-0.659532918750025,0.8294235922036863,0.8352937519306017,0.8872637370183524,0.15932108615867882,0.6240839685466648,-0.14149574887567862,0.9528022499233593,-0.015348120713104171,0.5850703258285841,0.06439365529785161,0.9519460670806295,0.6972974214373816,0.6663281971550813,-0.8254913527194314,0.012865000431135774,0.4768475784775608,0.5707986911085758,-0.5934415750914096,0.2715504438160274,1.1605150223743816,0.6053786575381527,-1.4257917967225489,0.06366076799531234,1.0173724974477207,0.5839661605858062,-1.219879806746159,0.5524849329805113,1.19771320799273,0.566377288826164,-1.4619297820079322,0.13843640912950098,1.0082129165660472,0.6261586609665412,-1.2472626787301249,0.3918795946861006,1.1466414504833313,0.6913009528470051,-1.3964534805912163,0.181395150882821,1.0117057986758264,0.7314704169460476,-1.1927151708146781,0.4622017771417778
83,-0.5586597316430992,0.579542782046697,0.7316300855963488,0.9973427089705826,-0.5762950398837706,0.5421536523296377,0.7034184326452022,0.9920737549787886,-0.5483461616925662,0.556119692527681,0.6913946895515644,0.9853083067552244,-0.5033913914021024,0.594226728974999,0.6435372537957539,0.9947443544383854,-0.573734455923956,0.5678151863858474,0.7654577373532441,0.95596446165332,-0.5776545372205535,0.5266666148375049,0.7033719081169933,1.0017359563196826,-0.5821702686630708,0.5204982573289931,0.7022216068895356,1.0357864157606034,-0.4470805587737033,0.5392171218237543,0.599796327666549,0.9874605268613925,-0.6189585513744272,0.4794878164345259,0.762844839710364,0.9822003109843802,-0.5313708124850024,0.5813320828656192,0.6690459125024819,1.0346669289394488,-0.558863804197825,0.5612929409360164,0.7066510983582142,0.9591676605327067,-0.2888508686084795,0.5264836986042375,0.4437088154501182,0.9708896741190423,-0.5584126718212398,0.4793358246094719,0.7053406279443847,0.9822209563336601,-0.1633345310481229,0.5739575511371403,0.22484911170374527,0.45201790307038403,-0.5904047468212814,0.6774914944243924,0.6543233252675333,0.9741045296290904,-0.12900162642017285,0.7493303898760202,0.27989850061224486,0.5453232077210816,-0.6161211674224327,0.8518376563592691,0.772905299102775,0.9843116052045624,-0.22145452760080853,0.7793475352441156,0.3145417433529215,0.561390663404675,-0.7022051542807094,0.8758467478371498,0.8361960358691198,0.9148845649972746,-0.2294263617973329,0.8242691520608146,0.2807740516109188,0.5371600936436466,-0.7010925123335915,0.8694681527757293,0.8393570143616543,0.9237282360307101,-0.19533167332397827,0.8196389267470033,0.2906321012972835,0.5147529423971289,-0.5704425694851317,0.8290644742189146,0.7270460347437561,0.8955658295705374,0.15417854319622734,0.6248348082569004,-0.13521997365531468,0.9509331674724925,-0.009900736745344382,0.5846869487533888,0.05780210766944048,0.9516628258086566,0.6208326528971452,0.6592941934204927,-0.7324391480819465,0.011413984958723575,0.4180421512923995,0.5760323365477238,-0.5221681333176837,0.27033915822490195,1.0392868625769303,0.5890635549609432,-1.2780580426161403,0.060094853066399244,0.8912791795898918,0.5799999483131622,-1.0668637887286518,0.5411245857095457,1.0717490717053344,0.5479464597780073,-1.3084679348632535,0.13722463180005617,0.8788064765433923,0.6210902992073554,-1.0903204371974053,0.38923708236462845,1.051733595416005,0.6830917839360249,-1.2798478604985395,0.1746287123986291,0.8923058346520142,0.7253980149456204,-1.0478222062427625,0.4521884352380912
