frame,NOSE.x,NOSE.y,NOSE.z,NOSE.v,LEFT_EYE_INNER.x,LEFT_EYE_INNER.y,LEFT_EYE_INNER.z,LEFT_EYE_INNER.v,LEFT_EYE.x,LEFT_EYE.y,LEFT_EYE.z,LEFT_EYE.v,LEFT_EYE_OUTER.x,LEFT_EYE_OUTER.y,LEFT_EYE_OUTER.z,LEFT_EYE_OUTER.v,RIGHT_EYE_INNER.x,RIGHT_EYE_INNER.y,RIGHT_EYE_INNER.z,RIGHT_EYE_INNER.v,RIGHT_EYE.x,RIGHT_EYE.y,RIGHT_EYE.z,RIGHT_EYE.v,RIGHT_EYE_OUTER.x,RIGHT_EYE_OUTER.y,RIGHT_EYE_OUTER.z,RIGHT_EYE_OUTER.v,LEFT_EAR.x,LEFT_EAR.y,LEFT_EAR.z,LEFT_EAR.v,RIGHT_EAR.x,RIGHT_EAR.y,RIGHT_EAR.z,RIGHT_EAR.v,MOUTH_LEFT.x,MOUTH_LEFT.y,MOUTH_LEFT.z,MOUTH_LEFT.v,MOUTH_RIGHT.x,MOUTH_RIGHT.y,MOUTH_RIGHT.z,MOUTH_RIGHT.v,LEFT_SHOULDER.x,LEFT_SHOULDER.y,LEFT_SHOULDER.z,LEFT_SHOULDER.v,RIGHT_SHOULDER.x,RIGHT_SHOULDER.y,RIGHT_SHOULDER.z,RIGHT_SHOULDER.v,LEFT_ELBOW.x,LEFT_ELBOW.y,LEFT_ELBOW.z,LEFT_ELBOW.v,RIGHT_ELBOW.x,RIGHT_ELBOW.y,RIGHT_ELBOW.z,RIGHT_ELBOW.v,LEFT_WRIST.x,LEFT_WRIST.y,LEFT_WRIST.z,LEFT_WRIST.v,RIGHT_WRIST.x,RIGHT_WRIST.y,RIGHT_WRIST.z,RIGHT_WRIST.v,LEFT_PINKY.x,LEFT_PINKY.y,LEFT_PINKY.z,LEFT_PINKY.v,RIGHT_PINKY.x,RIGHT_PINKY.y,RIGHT_PINKY.z,RIGHT_PINKY.v,LEFT_INDEX.x,LEFT_INDEX.y,LEFT_INDEX.z,LEFT_INDEX.v,RIGHT_INDEX.x,RIGHT_INDEX.y,RIGHT_INDEX.z,RIGHT_INDEX.v,LEFT_THUMB.x,LEFT_THUMB.y,LEFT_THUMB.z,LEFT_THUMB.v,RIGHT_THUMB.x,RIGHT_THUMB.y,RIGHT_THUMB.z,RIGHT_THUMB.v,LEFT_HIP.x,LEFT_HIP.y,LEFT_HIP.z,LEFT_HIP.v,RIGHT_HIP.x,RIGHT_HIP.y,RIGHT_HIP.z,RIGHT_HIP.v,LEFT_KNEE.x,LEFT_KNEE.y,LEFT_KNEE.z,LEFT_KNEE.v,RIGHT_KNEE.x,RIGHT_KNEE.y,RIGHT_KNEE.z,RIGHT_KNEE.v,LEFT_ANKLE.x,LEFT_ANKLE.y,LEFT_ANKLE.z,LEFT_ANKLE.v,RIGHT_ANKLE.x,RIGHT_ANKLE.y,RIGHT_ANKLE.z,RIGHT_ANKLE.v,LEFT_HEEL.x,LEFT_HEEL.y,LEFT_HEEL.z,LEFT_HEEL.v,RIGHT_HEEL.x,RIGHT_HEEL.y,RIGHT_HEEL.z,RIGHT_HEEL.v,LEFT_FOOT_INDEX.x,LEFT_FOOT_INDEX.y,LEFT_FOOT_INDEX.z,LEFT_FOOT_INDEX.v,RIGHT_FOOT_INDEX.x,RIGHT_FOOT_INDEX.y,RIGHT_FOOT_INDEX.z,RIGHT_FOOT_INDEX.v
0,0.7148668849906529,0.585119711452913,0.4332407440997862,0.974240950743388,0.7772363077045268,0.6357871614268488,0.5037919585256045,1.015478384345645,0.7353065209711996,0.5399988786670994,0.45031061615729606,0.9917584947473408,0.6924247862155912,0.534889285988706,0.5017436515058982,1.0015932957973221,0.7758327773789605,0.582944287052632,0.47878828240134963,1.0460223159364386,0.7841047695618222,0.5962026688203155,0.5421560454500718,0.9763034215989821,0.7925904975480987,0.5639314239553899,0.4965754359871576,0.9560395221079805,0.6621334678405785,0.5432059435288944,0.4466436596176809,1.0390390726900636,0.6719451646283559,0.5445403158197006,0.49444865669594434,0.961725862297218,0.6462932212019215,0.6065886639216451,0.4573689499032748,0.9598444071514025,0.7340027970741071,0.576048585001966,0.4137231079587349,1.000761195414689,0.43360823499833673,0.5094993045842307,0.26490055030137233,1.0139176260613187,0.5647438086296759,0.4960540675014926,0.39268305859195596,1.0091447923722554,0.3347557145407091,0.6447163880273846,0.14860033878385615,0.8944052805648897,0.47348078007377575,0.5341520558411476,0.33457826362877824,0.9944889144390486,0.40231622408488277,0.811502723803259,0.29497380622146946,0.992802551261435,0.7043062245516952,0.7339463262698995,0.478647291907493,0.9596149128414283,0.5551231258175057,0.8420645763223167,0.34092462501346293,1.014155388589433,0.8120889326594423,0.8351244444751107,0.5475272891933425,0.956700008532365,0.5503365609532888,0.7893962460735411,0.32542203939939635,0.9931621096966802,0.7703077172076621,0.8576689192634307,0.5624736173581475,0.9551223873795078,0.5192424233672227,0.826507890236145,0.27710630420410415,0.961535594430206,0.7124516229874844,0.8040082186971956,0.49820631608737775,0.9708282389797686,-0.16876805014734528,0.439999340607462,-0.19046473521941315,1.0096026441519623,-0.08267949130026411,0.417523028696305,-0.06793125692435949,0.9682072841704903,-0.6089101793158725,0.569643009205004,-0.38634721416293294,0.3365814197074957,-0.47052440252521205,0.5167050997987974,-0.3245772824161273,0.45933317229125264,-1.046722570601516,0.5385910708806945,-0.7599172123905619,0.5479617041332552,-1.049946531789407,0.5375797534575192,-0.7220343126386873,0.794390829933245,-1.1039397833560407,0.49798563838034593,-0.8818923157767056,0.6282894357619132,-1.0687638348900679,0.516612189960721,-0.8243265786267348,0.7075602207742762,-1.1323922872212102,0.687749611614813,-0.7706808991771616,0.18581991544047255,-1.0519323877336693,0.6140387588513144,-0.7680858247134917,0.3252390475380377
1,0.69661624959942,0.5987162461819169,0.42014657111075915,0.974234871069621,0.7557827574281357,0.6466350875666803,0.488578608280569,1.0154729603229704,0.713791132669435,0.5502612487766575,0.43503472138313654,0.9917517594224812,0.6712110933768444,0.5458173207711157,0.4867424335823826,1.001588825448964,0.7551363302970218,0.5933152568249709,0.46407024342207054,1.0460197529367132,0.7633327855532448,0.6061415049180328,0.527378588486871,0.9762999645295851,0.771788369565952,0.5736544912390202,0.48177451743530664,0.9560374359454136,0.639415337299066,0.5530786780755558,0.43057859702869733,1.0390303704119264,0.6531143470661684,0.551334768486937,0.48102282402868946,0.9617206766931227,0.6302383360605854,0.6184161923983602,0.4459391042964492,0.9598385658962145,0.7187705891698136,0.5878379665060248,0.402813503143122,1.00075833439174,0.41276954994486253,0.5360496571576254,0.2510140964024675,1.013907552876352,0.5469177399441776,0.4969957910866214,0.37960180666381393,1.0091265533509544,0.2997455668011689,0.6776916444704083,0.12398254020506069,0.8967774262176607,0.45670795685649473,0.5345069418961402,0.322783905674866,0.9941781358211899,0.3451140986350337,0.8206933427951109,0.25475259458712973,0.9918815998950107,0.6756252921481979,0.7338168053768026,0.4583284784677687,0.9596516889072547,0.49087829254069726,0.856734173471212,0.29578227866146173,1.0142067081885848,0.7806470023707479,0.8372593040370309,0.5257077188304932,0.9569256717174847,0.48961854777368674,0.810165484545526,0.2827126413741088,0.9934422515271246,0.7386991857556864,0.8576741048675262,0.5406521342362016,0.9552699088753268,0.46499120577359726,0.8512639045832214,0.2395686065982516,0.9620682811405636,0.6838228424220553,0.8023329705511385,0.47816088038672705,0.9702085890926835,-0.16928457634720256,0.44450682265931135,-0.19083287238170013,1.009597398943222,-0.08311935023915468,0.4188399933226173,-0.06846023375808967,0.9682043635428963,-0.5396645210723133,0.5869091038896048,-0.3377013815732347,0.35454837560768804,-0.4148140718333754,0.5298717062250364,-0.285725599692761,0.4738869576153493,-0.9557529781056372,0.5387347776792479,-0.696047980702334,0.5458803695423433,-0.9622752814479938,0.5374480867972103,-0.6607411464363302,0.7899354423409293,-1.0116394358065415,0.49911961674719774,-0.8171729814739563,0.6235489591536368,-0.9769070444681897,0.5157596647264986,-0.7600212652242647,0.6982148681245874,-1.0482483287912756,0.676303374050726,-0.7115410430830577,0.19028707495013145,-0.9654979575957552,0.6058506303799399,-0.7081811381209123,0.3285620064842657
2,0.6571702519505485,0.6050146093906876,0.39253101097440984,0.974233798186015,0.7202690368414273,0.6548240505030817,0.46369313937401324,1.015471231788272,0.6782861706937517,0.5591919915172886,0.41016282926097836,0.9917494348413348,0.6357184445669516,0.5557016782235082,0.46189970154036397,1.0015874545421342,0.7217181795746896,0.6000688207058913,0.44063151652135746,1.046019097285621,0.7300315630973697,0.6114827367410003,0.5040486056077716,0.9762990704599135,0.7382495320533894,0.5800042932562322,0.45820708547978073,0.9560370187129001,0.6229244009844448,0.5602582363526859,0.41907048542698444,1.0390264365053712,0.6452131805545493,0.5571611821183762,0.4754511242274228,0.9617189481584241,0.5972379135409842,0.6258130096056966,0.42282359946380793,0.9598368969661607,0.68847553354168,0.5938780627889838,0.38157370230357107,1.000757499926713,0.4146794821958819,0.5429611733472006,0.2525903787711548,1.0139028441094144,0.547526589948395,0.495839013943143,0.38002553561632474,1.0091201160493184,0.2994021435455903,0.6778118670389203,0.1237722944138602,0.8961119999633883,0.4617278436893934,0.5347728382164832,0.32644160647765813,0.9933209018200302,0.35375199143645075,0.8269782949588071,0.26086627398895545,0.9907489328303438,0.6799518713117707,0.7273805766246664,0.46086021505646724,0.9595566791034826,0.5029076695486776,0.8556986023728843,0.3044114804043338,1.0141341097312482,0.7889874685004943,0.834575843324598,0.5315638313963807,0.9570272976368267,0.5022021107874192,0.8101575571277708,0.29160744291427476,0.9935678385136664,0.7466741779787488,0.8532196113448821,0.5462849418085898,0.955323433846335,0.4741326579872517,0.8519800543901977,0.24593371534245212,0.9624826526310419,0.6899741730390921,0.7920010418211275,0.48246027559410526,0.9697580375828263,-0.16985033220877085,0.4607509361045934,-0.19092320089050163,1.0095925709669953,-0.08129220546547514,0.4188596032507484,-0.06714692510181075,0.9682029926360665,-0.5647683078229788,0.5857438330842459,-0.3553533962746174,0.35832406163330754,-0.4298976594579694,0.5308800976053465,-0.2962340859823741,0.4805127887425161,-0.9886443280790292,0.5323493916891051,-0.7192358971725755,0.5414588373882601,-0.9733998491920315,0.5188266420950619,-0.6674095770255652,0.7844354833489249,-1.0461553912447568,0.49261818051367723,-0.841544052707849,0.6147218688902701,-0.9890501663055001,0.49323182101273816,-0.7673650098324912,0.6851923857294153,-1.0827648085305244,0.6557010285841123,-0.735802787778089,0.19024983694830797,-0.9906241286581614,0.5852404171002158,-0.7254616613418422,0.325466379653211
3,0.6278005567874816,0.6202288141788956,0.371761744820696,0.9742294470469464,0.6938832706188806,0.6697484575083917,0.4450671939728438,1.0154669402538479,0.6519698531207668,0.5736423627827,0.3916058144039139,0.9917438916093708,0.6095971452529024,0.568798308796781,0.44352947690903344,1.0015842954959613,0.695721926761648,0.6156736147313124,0.4222485785749449,1.0460171303323431,0.7041720368979258,0.6264445158585845,0.48579176146195646,0.9762962690416093,0.7122642458163775,0.5954444592527837,0.43981606833914694,0.9560352305735569,0.6063497968819146,0.5659223465364017,0.4071159136652099,1.0390183302736815,0.631082270304855,0.5678702890405258,0.4654557457271049,0.9617137625543288,0.5710433119124941,0.640306892261794,0.40426433256116184,0.9598330226642503,0.6619819963847685,0.6098906121893134,0.3626873508415311,1.0007554733687907,0.4157211932784984,0.5388808777844565,0.25272015734874237,1.0138960491799103,0.549367587885657,0.5005058192104771,0.3813504758838868,1.0091139767709068,0.3053371752317435,0.6780225694582013,0.12783531732757933,0.8910225977645967,0.47336859194429187,0.5346859346444007,0.33469237141364166,0.9900225595920942,0.3603634727536278,0.8336799431941282,0.26551419208269755,0.9857702164569002,0.680695925463093,0.7196510462901937,0.4608076966329684,0.9582241576648839,0.5107613800218874,0.8687156011407371,0.30991321381759396,1.0114294297652753,0.7930842766815123,0.8293814177417123,0.5341897770081703,0.9557601028889019,0.5066989473072072,0.8231393891552061,0.29470063588670836,0.9908834837315618,0.7495360066778819,0.8473759719711028,0.5481021170976133,0.9537526130379246,0.4793144722810659,0.8552602768061218,0.2495422160378239,0.958037219014404,0.6900374877699349,0.7828343838964754,0.48205773304841754,0.9669538774647233,-0.16967198361478664,0.4765994833248235,-0.19072417376470296,1.0095880410139924,-0.08079503850523705,0.42844268902612376,-0.06669975893786216,0.9682025754035531,-0.603900633630848,0.5870659833146536,-0.3828659729791922,0.35573239207382873,-0.4792468645189003,0.5239571969286192,-0.32884289501984887,0.4937622456249929,-1.0163619417096943,0.5294179160497618,-0.7388287940510295,0.5389538329822847,-1.034505710616061,0.46285132414004476,-0.70675059749231,0.7939624513512442,-1.0754864508082553,0.4870310795310112,-0.8622342774493448,0.6076806529936637,-1.0509519274544548,0.43149371738457964,-0.8066805968406477,0.6926721129976343,-1.124683518162432,0.6515216701017514,-0.7652773718907449,0.18418236723223586,-1.042834003028119,0.5193658405316123,-0.7558298299678627,0.3281268329727606
4,0.542659739747822,0.6237166395725724,0.31186890777810616,0.9742106119791973,0.6094366109735442,0.6730282030871576,0.38566023198694027,1.015449178069705,0.5674496992933121,0.5784838692638706,0.3321233802071727,0.991723387611568,0.5251593479590567,0.5735724620293554,0.3841358879798379,1.0015726129855853,0.6138144816946172,0.617646766891957,0.364639102796484,1.046007891612403,0.6222079364676918,0.6290611597642242,0.4281318820980178,0.9762835732522719,0.6303664390620959,0.5965503042273015,0.38222355866640717,0.9560261110629062,0.5369090302411608,0.5792423753182926,0.3584047274302666,1.0389921042299803,0.5725687144747527,0.5704478322991928,0.4242879477120188,0.961690039905708,0.4911571005223492,0.6414710305789022,0.3480955450512006,0.9598147836429489,0.5855631296404405,0.609237643305799,0.308971517437223,1.0007428371840983,0.3653855059416181,0.5449593594586508,0.21708696490663718,1.0138828765534147,0.5116988624915839,0.5007499002308323,0.35483037876010803,1.009081015402346,0.24144835793339187,0.6750719607278851,0.08283613049491226,0.8740820040451143,0.43388115417054035,0.5324327002579566,0.3069290211704124,0.9859253363102338,0.2973626406884874,0.8345455814502012,0.22107721044421536,0.9777504115023714,0.6313493873788166,0.7099767356059896,0.4252948082841468,0.9548733037449011,0.44675869555842374,0.8658025433366294,0.2646866050796974,1.0053569681602033,0.7380367540247599,0.8161186690234505,0.4946553788133119,0.9523066693752604,0.442029915684838,0.8188135820606322,0.24922083031573317,0.9849482916234076,0.6990204300223524,0.8338743278365813,0.5115718163324684,0.9501383065880342,0.41697922333599113,0.8552659392473755,0.20569827512568556,0.9503483390476679,0.6422146864525382,0.7710887522016817,0.4474700108529344,0.9615436830677505,-0.17235356599017693,0.481665669514475,-0.19246141687246457,1.0095759412711032,-0.07730694234293664,0.43117258175683665,-0.06419387979632749,0.9681986414969979,-0.6142787978138362,0.5891101246072257,-0.3901775687611595,0.3306253063690253,-0.4571887687340039,0.5244955460802305,-0.3137008691055499,0.47817992255065206,-1.032668453639772,0.5291470725439025,-0.7507799567147263,0.5061821860058138,-0.9869654203690805,0.4825793290724484,-0.6748005573413303,0.7765038336640189,-1.0915681372552912,0.4854415428641411,-0.8740138226204774,0.5724188431677665,-1.0030827118996,0.45235435957932757,-0.7749018117583365,0.6759366784654688,-1.1535375320334476,0.6495104901777402,-0.7862803455770199,0.17130064120570085,-1.0148894621038809,0.5469360881817588,-0.738307900005116,0.3131406159508184
5,0.40447231431540775,0.6518827548565385,0.21442347990590163,0.9741594711939802,0.4772303381947225,0.7011776886752313,0.2923205225039061,1.0154079316555202,0.43538519079322274,0.6063232914898228,0.2389149548293732,0.9916839889413716,0.39323176302541063,0.6021044306229528,0.29105782094287996,1.0015483538951615,0.48414287264973077,0.6441082489399916,0.27305830537602405,1.0459829768708868,0.49270519261779105,0.6533508273705779,0.3367164176136178,0.9762513271394484,0.5007431341983308,0.6208110039762944,0.29069831545552344,0.955999110158823,0.44615717717291437,0.6037420896928348,0.2944644957403561,1.0389491292810975,0.4911094107337624,0.5880678593644699,0.3667814106456904,0.9616235211221389,0.36760197912406833,0.6678317211726217,0.26103757655939064,0.9597640004856005,0.46459733608541987,0.6342735610647406,0.22369086989585021,1.0007024252349408,0.3130775925374657,0.5636305144345419,0.18074355184846896,1.013860524811624,0.4532224115342866,0.506407930740781,0.3130228114779882,1.0089951847138692,0.16432236388545426,0.6593660176202801,0.028464891352915224,0.8429211129890535,0.36799987895722924,0.5254935871178504,0.2608818834484536,0.9763997988193892,0.1791605350131305,0.831191091646887,0.1375962508852388,0.9588623552241426,0.5458751981207811,0.7022063760898458,0.36465906422167893,0.9490149420238623,0.32075810561337936,0.8637206126992698,0.17493215450585758,0.9928596622901471,0.6442137421997083,0.807834219446119,0.42794930476337856,0.9472654277294474,0.316336891384961,0.8158462840297789,0.16068707463056175,0.9730209849713386,0.6053013330060124,0.8246382305007659,0.4447387397807389,0.9449112772644566,0.29665796021990937,0.8544755816576538,0.12069238563770356,0.9349206900265192,0.5552768268155539,0.7632874578748995,0.3855930321894602,0.9542800226368425,-0.17184723594851314,0.48122939331704145,-0.19201665714263189,1.0095634242957003,-0.0780224460725593,0.4356745801813667,-0.0648203987983481,0.9681920253814279,-0.6201078164635839,0.582706916828295,-0.39462112395258253,0.3023825991165228,-0.5006561982113162,0.5175971429125059,-0.3456278077929865,0.4430392591652608,-1.051168562138404,0.509440286865039,-0.7651650567603923,0.47307901799510205,-1.005274196242984,0.4867970729460446,-0.6903503805996313,0.7529148782616446,-1.110990085199048,0.4639142525199028,-0.8892238287531982,0.5421403988776053,-1.0155801303080092,0.45784984822297375,-0.7867147897097938,0.6623898540102076,-1.1660379366769547,0.6429248325811521,-0.7967444304443023,0.15714823355952165,-1.0297735669410515,0.5509992772114524,-0.7514974442351159,0.2939379663574651
6,,,,,,,,,,,,,,,,,,,,,,,,,,,,,,,,,,,,,,,,,,,,,,,,,,,,,,,,,,,,,,,,,,,,,,,,,,,,,,,,,,,,,,,,,,,,,,,,,,,,,,,,,,,,,,,,,,,,,,,,,,,,,,,,,,,,
7,0.5065030298568404,0.7222364416660783,0.285995211902853,0.9741653720538128,0.5695878404278815,0.7701929531863397,0.35688329850037137,1.0154118655620756,0.5274417364360555,0.675453235337479,0.3032100011788939,0.9916893533594011,0.48529447493717204,0.6707498483132299,0.35537132557374435,1.0015499036159257,0.56682428919153,0.7165380251317031,0.33090204475953044,1.0459844669870062,0.5754721126676241,0.7276259037598907,0.39462612598004787,0.9762550822320692,0.58388744765408,0.696014661126563,0.3489716595598938,0.9560016135539036,0.480422372003129,0.6733376054208317,0.31809403708110795,1.038956937489563,0.4827260657916577,0.6675527393350205,0.3608047571845178,0.9616320445863417,0.45099208651176614,0.744402351246169,0.3194266061939173,0.9597684112293137,0.5351600191823105,0.7129313669843879,0.27326554587961843,1.0007051670486002,0.2954215775733622,0.617695443919863,0.1679034612568763,1.0138602267884,0.4295059638115328,0.5719394229740574,0.29823805171149526,1.0090133641305257,0.06357172886719839,0.5849071801111249,-0.0440699363683898,0.8027581920372102,0.2774068797885914,0.5163029085213539,0.19808208153064907,0.9781224326580428,-0.09268033391705091,0.6636494685313474,-0.05324922887316577,0.891185155383597,0.3096322978837089,0.6999164848468649,0.19807269731631694,0.9501495760418067,0.006158496325707849,0.672908203775167,-0.04569853212179618,0.939954162354997,0.37046453516415534,0.8037210817241036,0.23479741432475745,0.9487848693340617,-0.01868166846117497,0.6113990741947264,-0.07426889279555238,0.9161110065815985,0.3259544912541691,0.8198799321037017,0.24751481099260145,0.946553742855887,0.013087016420560219,0.6495883107302246,-0.07762715307584765,0.8713183617260432,0.31101780346507407,0.7567528218542391,0.2130977740060111,0.9568481483616349,-0.17724598673850844,0.4832770214813329,-0.19769733519509192,1.0095550200407868,-0.08266404555890024,0.458446713531739,-0.06885810625131716,0.9681899988235055,-0.6507981142887763,0.5340818052484,-0.41702940505772335,0.27315906763191894,-0.5193359166597572,0.4848097901121366,-0.3591899282303427,0.4200713543591237,-1.0660925076219498,0.46188761185626515,-0.7775845974889762,0.44521405517886364,-1.0328730394739665,0.4654398048510281,-0.7112444737741213,0.7539456213837454,-1.1277319949922406,0.41008044004469835,-0.9031020546404953,0.5271411880431022,-1.0549467680031026,0.43283872599625867,-0.8163824536701861,0.672234455164535,-1.2203743902346025,0.6044049136625425,-0.8359367832514287,0.14223042776862047,-1.086710183226002,0.5370551877987632,-0.7921056656403568,0.2738164515602544
8,0.4580226666517062,0.7505163422169205,0.2516752121969664,0.9741572062174786,0.5261489795099523,0.7931180916598505,0.3261566329295655,1.0154053090511503,0.48416494515418634,0.6973103181812595,0.2726289176998582,0.9916848234063984,0.44178130480259503,0.6927403263520178,0.3245438182898656,1.0015437047328692,0.524963761165879,0.7392263543515212,0.3014260726536222,1.0459804138711617,0.5336392256458629,0.7511418434724151,0.3651801035633959,0.9762540689531081,0.542044489309874,0.7336482589773625,0.31951709983535337,0.956000183042429,0.46178302713727143,0.6941859988610782,0.3046650850092162,1.0389552685595091,0.46871857968779024,0.6859792768487534,0.3509194023463203,0.9616294219819717,0.4109606983383802,0.7728791855433492,0.2910022106345201,0.9597428408367051,0.4968746219486624,0.7508587561292853,0.24627986122689213,1.0006893718177348,0.29485295488475405,0.6401473811185019,0.16762742144231543,1.0138311397217499,0.4253814525740562,0.589049532303281,0.29515116904005145,1.009009012991457,0.04305336819151593,0.6903000533983258,-0.058013662793097165,0.7486452212082002,0.27218474138520304,0.5176460395867225,0.19430873400688523,0.9760419921368026,-0.10902645883306589,0.7864420701167356,-0.06428269457638014,0.838844588271628,0.31968359910814187,0.7002800731799947,0.20514865765222956,0.9505084556079992,-0.0034211225648430738,0.8132158090417381,-0.05211673345727102,0.9112165577369244,0.38708021009359384,0.8037135119342171,0.24651136100799706,0.949730556628068,-0.02027526355758119,0.7581745582798094,-0.07533964959893912,0.8848664306042731,0.34516989906135065,0.8198767730575286,0.26109163963822835,0.9475542664230868,-0.00030485362539590943,0.7903118372080383,-0.08693821416344459,0.8307311749126887,0.32319253671990306,0.7569375962530428,0.22177696741342573,0.9584062137760637,-0.17204876944622258,0.4993837462204076,-0.19312325403186684,1.0095493575995331,-0.08430919008374103,0.4763147555239265,-0.07000965110463848,0.9681883894980965,-0.6516196812668748,0.4745134298993552,-0.41683860703763564,0.24520258188362792,-0.5587023771826451,0.476238224960922,-0.38760924105043426,0.3806685118374562,-1.0750151409974427,0.39180786799411305,-0.7839072447028321,0.41344135224650586,-1.0860851405809018,0.4323445940603939,-0.7508599782427843,0.7349268521195242,-1.139235785061684,0.34592155337363206,-0.9114820452739103,0.5086598738608207,-1.1088706395148162,0.39685346479440015,-0.856637498124433,0.6730938349329065,-1.2284770045462512,0.521210270403494,-0.8421403073290756,0.12792407622614765,-1.1479514404758127,0.49328791437270714,-0.8379377468754589,0.24871326995968376
9,0.39556346838087475,0.7669151297153947,0.20809610435103987,0.9741022507349958,0.46911152479325996,0.8158287726214594,0.2864112403475204,1.0153619764743986,0.42729747305649873,0.7207160489055943,0.2330459708360474,0.9916484645730852,0.38521092349492414,0.7166981749009069,0.28524406307796796,1.0015126507129413,0.46926051996849444,0.7582775485425002,0.26258826063165397,1.0459547242692633,0.4777861513226644,0.7851902815446197,0.3261980519990709,0.9762355915132277,0.48614230125667546,0.7549087589315862,0.28048830366412564,0.9559836725558262,0.4300827904732486,0.720547941152338,0.2824682069980097,1.0389284464693604,0.4432321536423509,0.7077182828912338,0.3329929614932306,0.9615887120095901,0.35699541317792416,0.7858830116847066,0.25333879360232925,0.9596422878009689,0.4442409370102274,0.7709811053915229,0.20941098029647104,1.0006181442672284,0.2858121750674125,0.6700271895444052,0.1613269185512122,1.0137447725914703,0.4062051683639591,0.6041091822475865,0.2814001572811034,1.0089656208100608,0.0013327470752976583,0.7237867772981671,-0.08695803451035941,0.686492120240793,0.2502869195053652,0.5223245273644325,0.17887609203524482,0.9706044988125226,-0.17755364722232625,0.8144743729731809,-0.11155693264879427,0.7746595053591829,0.30638361917576346,0.700483265414034,0.19582572781582552,0.9496902030445227,-0.07503252639425378,0.8413098623101707,-0.1015629478773952,0.8644382960753949,0.37503020287274025,0.8036136741542184,0.23810331294681467,0.9497894460171062,-0.08558437900883911,0.7879288989284605,-0.12064355639969955,0.8375685952542364,0.3362086457878278,0.8198397585731231,0.2549023895056838,0.947655057877402,-0.06869457648554078,0.8199045896647034,-0.13438340770766258,0.7785875415470576,0.31146645311605753,0.7570267648016268,0.21364606411491682,0.9585061707653519,-0.16897026935008438,0.5150971399086095,-0.19041071394117473,1.009520449346817,-0.08536425143159186,0.47965455278230357,-0.07076176615455755,0.9681809389174995,-0.6359965916096507,0.4691002552701438,-0.40485282542483647,0.21967474699135503,-0.5558928845964074,0.4674671630636442,-0.3863627650063015,0.3427985219654775,-1.0569616746344075,0.3797251422307922,-0.7710581124856638,0.3805511218292543,-1.0781864360199094,0.40940485244891317,-0.7468701787293199,0.7071578825836966,-1.1215816555564797,0.33180493831664043,-0.8990528220676077,0.48537555779789343,-1.1010288364191583,0.37381045813584607,-0.8528681450323367,0.6654873881898951,-1.209117961739051,0.5025732092844144,-0.8285011884263513,0.11488073220530415,-1.1387199822993401,0.4600019687187918,-0.833012438819073,0.22540916515469106
10,0.2958388065830577,0.7873593440594193,0.13841592142262826,0.9740548054377546,0.3832068517027135,0.8425985894969171,0.22629358615725126,1.015325438827151,0.34157273195892474,0.7479191915485691,0.1730984520666663,0.9916162780649066,0.29955969043734626,0.74403048080911,0.22538156149063984,1.0014852921809891,0.38119610703191303,0.7861659061818129,0.20081967913641208,1.0459298095277472,0.3897204956750137,0.7989507290467559,0.2644283601014509,0.9762134185853713,0.39793460319732155,0.7676455562643498,0.21857305780538153,0.9559637049998264,0.4047314386456526,0.7495643762986698,0.2647539465740909,1.038901743588501,0.4123387181620278,0.7328603565225205,0.31145705083925396,0.9615561678735425,0.27743087517322484,0.8067913077929525,0.19768185815836598,0.9595771995288743,0.36311961502307644,0.775983305995008,0.15272153831573704,1.000564559691575,0.2826059224576697,0.6836368372952597,0.15909373033430593,1.0137276660584196,0.39548476333758525,0.6314209841579869,0.27365944997308395,1.0089653823914815,-0.0015835504311236754,0.741915291588023,-0.0890773969494868,0.62904289862977,0.22126825242213188,0.5259753714615699,0.15815902106758786,0.9652241663425826,-0.17312246471859405,0.8349983979365598,-0.10816405456908218,0.7237377076068026,0.265886070636797,0.7008122234485494,0.16736187475407716,0.9478751820064673,-0.0645936285760134,0.8618678619210716,-0.09369056055712421,0.8309663541274579,0.3328706929214259,0.8035462016963326,0.20845576453938763,0.9489444905727702,-0.07333609503153576,0.8099870878437132,-0.11161651363681725,0.8035780332921088,0.29920980153665444,0.8196537324767791,0.22889082409316014,0.9466594218910738,-0.06229901036027269,0.8410312771914062,-0.12957193254512112,0.7395646190311884,0.2729236705091686,0.7570790380750948,0.18655423637993548,0.9573563971676345,-0.16742646961145657,0.5266702459591008,-0.18890389580254419,1.0095017930930024,-0.08393500148972995,0.4909416757471626,-0.06939237553429753,0.9681772434295235,-0.6701522966594394,0.5029834096623862,-0.42910354247138816,0.19703127026673034,-0.587566295042607,0.4855963032022703,-0.4084471217220576,0.3097818700966573,-1.1136842844087005,0.40048934411029347,-0.810975103621249,0.35443180024455273,-1.124869080107394,0.4283574307551113,-0.7788311430652317,0.6821102227097342,-1.1794152331248777,0.3439717960360618,-0.9397919021835579,0.4737693413672293,-1.1471788306150008,0.39818136687302874,-0.8843809172639264,0.6593709979616236,-1.2643703693315,0.5125014059530393,-0.8675002968931775,0.10409133782664205,-1.1811861740581542,0.48831605253341276,-0.8616156687944257,0.20618070675015007
11,0.26455345114336837,0.8207001557888505,0.1182901902477978,0.9740194598834025,0.34852087642893653,0.8801642380526727,0.20381962798649067,1.0152927754818144,0.30687715921041175,0.785856832692368,0.15061584469511818,0.9915898136026263,0.2649664750421057,0.7826568536232885,0.2030007083722791,1.001456920370076,0.34420429103817834,0.8236589562802321,0.17641600835948798,1.0459116897157357,0.35210630206952126,0.835506794129306,0.23941846290869803,0.9762020340982192,0.35999183248382993,0.8030775373510808,0.19323756765154743,0.9559514264430025,0.36337477449672023,0.77300712150741,0.23772846608056514,1.038877842125946,0.36101330413821425,0.7699202000627121,0.2765626920403379,0.9615437701074293,0.24556504976761312,0.8336660884478597,0.17749184072793142,0.9595280256969345,0.32705536243995437,0.8026423178358283,0.12898718368952486,1.0005289161139994,0.257044507832105,0.6841766169583456,0.1420641735938297,1.0136708032273039,0.351295632476929,0.6533106111378147,0.24327141170324662,1.0089680049958516,-0.026451805874911215,0.7033962071344403,-0.10658921711987415,0.5825377454506013,0.16290785506515754,0.5342633377129432,0.11716348741979446,0.965168853232231,-0.21900798962464416,0.7933443475863706,-0.1406985119984008,0.66568200873519,0.17863957533378605,0.7041075258396017,0.10610721403943119,0.9463249248005041,-0.12007159520334885,0.8107490112130638,-0.1335343165014263,0.7814003832297833,0.231161712901137,0.8049222941302621,0.13698519779989637,0.9482536727398234,-0.13955316695956116,0.7624225813129515,-0.15911052783925964,0.754220440232569,0.19445540255486005,0.8204766938071929,0.1552797393587785,0.945949232548575,-0.11560616694247629,0.7979088068125305,-0.16785536471378232,0.6881665205624079,0.18188944206624777,0.7599197358404451,0.12254737867395947,0.9561769404568193,-0.16333417504999687,0.5345819876926519,-0.18493883229921346,1.0094830176298983,-0.07944432727804725,0.5285027347452704,-0.06505909236199259,0.96817420359264,-0.6380393773195873,0.4673089866830314,-0.405838815729445,0.17644163549061492,-0.5688709922271571,0.4914683441892851,-0.3952227904791823,0.2819649188217855,-1.0381503908392038,0.37682025026301874,-0.7578188441985688,0.33009003817866533,-1.090097814228072,0.4288602853407589,-0.7545108725065449,0.6695210660820792,-1.1005842959416727,0.32546047091513597,-0.8843339344418286,0.4640014215884055,-1.1047767049749277,0.39451147909188555,-0.8547678725460454,0.660085002001388,-1.1963553678094265,0.5072241597162381,-0.8196596476959724,0.09388409456292056,-1.1793431786417163,0.47797121939780784,-0.8607356712361188,0.18817317498802696
12,0.2954079786346633,0.829243885570955,0.1412316006216741,0.9740121881167402,0.3770938696248979,0.8889056764414972,0.2252045245302826,1.0152849076687038,0.3352439738819856,0.7964786188099217,0.1718103579116968,0.9915870717889668,0.29305210826285466,0.7935513905953344,0.22392869009814015,1.0014499466266373,0.37679217293408157,0.8294808399586684,0.2006031075810275,1.0459074577859564,0.3846493278398618,0.8399068686112701,0.26356876424190223,0.9762009612146132,0.3962659964469025,0.8133338873915166,0.2210041664130531,0.9559474925364473,0.37861158213870244,0.7843582896630802,0.24979665958475183,1.038874444661194,0.39192828493594467,0.7694014608392319,0.29947574620918316,0.9615426972238232,0.2704493065261042,0.846316757068923,0.19616257198884432,0.9595022764903917,0.35704645413933234,0.8098537645979133,0.151271658278044,1.000505968325761,0.2646574825108129,0.6894472172772543,0.14797138299803436,1.0136106621407255,0.37216504048124527,0.6648425601810887,0.25837789403501815,1.008934984022646,-0.011488020069329634,0.7002874076768902,-0.0961099808606714,0.5648175229774568,0.18406849010616644,0.5330969344193336,0.13266331460637723,0.9647595481365584,-0.19106815310149824,0.8089622546336424,-0.1218690148219051,0.6230823306956392,0.1848365080463892,0.705822530283724,0.1105587353228815,0.9425270360447059,-0.08837953538563095,0.827349977666616,-0.11125947621642321,0.7500347502189191,0.2325659288350371,0.8053552622699105,0.13798408183992486,0.945619445463975,-0.11225092805055939,0.7843638855197996,-0.14048338934020363,0.7232233427403509,0.19314532907958917,0.8212942907195769,0.15442345674798857,0.9431066870392366,-0.08819714356528578,0.8201357960817871,-0.14941669753092413,0.6528983330395197,0.1856949710576664,0.7623501748358065,0.12524161735389572,0.9521389641918657,-0.16249220038801812,0.5423490987556554,-0.18399147895738552,1.0094386717741852,-0.07797703007225322,0.5333875738031928,-0.06375027309979946,0.9681635343612252,-0.6358661401907205,0.458861428995272,-0.4041050229262415,0.15909839749451354,-0.5612550428423544,0.4865126352087248,-0.3897141252878199,0.2619205920395589,-1.0404374279218687,0.36362586807231434,-0.7594292412035994,0.3147710782272645,-1.0708399210076722,0.41096562987467916,-0.7414604568321009,0.6664195979958365,-1.1034506439612142,0.31771168828040086,-0.8863382516601073,0.4623747810301627,-1.0882846243519715,0.37366904611611645,-0.8437747427172224,0.6679349933229517,-1.2038503864456522,0.5023890309320583,-0.8249047441935213,0.08520502498427296,-1.1818549590143441,0.4568675094616659,-0.8633632558067891,0.17360493553757217
13,0.35455127265214853,0.8456625810207841,0.18297329335882484,0.9739154497782696,0.4278244567919411,0.9010953627398676,0.2607309386782625,1.015189838260287,0.3844706426949405,0.8035728828403782,0.20587837860759717,0.9915135792619586,0.34208083472055134,0.7991471938561376,0.25779680150919954,1.0013714473094681,0.4259813107897072,0.8426967990307814,0.235118303527226,1.0458603105119393,0.43428489730600045,0.8530442091569244,0.2985092127487094,0.976171814543318,0.44332343140031927,0.821062940888831,0.25344851864442774,0.9559178690279941,0.39801085071966014,0.7913484243791141,0.26310546617840336,1.038805958924347,0.40616280550929756,0.7759524285325607,0.30948696858721186,0.9614962056008984,0.319426627266289,0.8599072717288045,0.23073560607140253,0.9593220320445909,0.40433019529958014,0.8233085594816413,0.18477969163424357,1.000387057059434,0.272044730800553,0.6974017551457541,0.15347841020916117,1.013493240990518,0.37497307072943936,0.6746117018551304,0.2602989755987234,1.0089184735360432,-0.005779266330499183,0.6990277827188519,-0.09188196632069301,0.5277102937446687,0.18907184432490598,0.5320199380928871,0.13630167753015573,0.9639973239391706,-0.19993849292279217,0.8133482028147947,-0.127427908381645,0.5744147210040194,0.2030405883749487,0.7062278418681966,0.1234077070565226,0.9407501023746618,-0.10100138364102339,0.833297448331594,-0.12006815508705654,0.7063833482223065,0.25629593015029034,0.8052794451617562,0.1547307277162285,0.9445255214184123,-0.1250491406325298,0.7897691327312559,-0.14945715680467647,0.6798486851094305,0.21394048606256044,0.8214527198653899,0.16914212715588436,0.9419064283073946,-0.09750150926602978,0.8248433113215027,-0.1552556479898801,0.6091026878025507,0.20373789107226037,0.7637561291967684,0.13798828425742954,0.9498071112789629,-0.1619557839063167,0.5512636290329076,-0.18360977674791748,1.009380378431595,-0.07860766501488425,0.537154170120484,-0.0642177315808592,0.9681533419669687,-0.6287472827050589,0.4638956372930015,-0.39909844502993674,0.1417790311586447,-0.5569507864980661,0.4877975921407926,-0.3863056112569472,0.23775871679160362,-1.0466095363851338,0.36927853416423334,-0.7637710282579796,0.2899863344414064,-1.0723290886210584,0.41688109284541286,-0.7423782986707783,0.6533835853463004,-1.1103626736388825,0.32217843055754625,-0.8911918458923063,0.4414449080405081,-1.097129135882651,0.36419417257333087,-0.8511081315665198,0.6659776959978174,-1.2051696765201731,0.5073798768507137,-0.8254453026985056,0.07637970050850776,-1.1573205869322947,0.46542289195182396,-0.8458035188262194,0.15843583656429797
14,0.3436123954340682,0.836150394970369,0.17591420546647682,0.9738749186198223,0.42226254673159114,0.894864352779693,0.2575178636792924,1.0151580093799772,0.38010986267193164,0.8005920545551609,0.20383501150583694,0.9914894989854693,0.33818506648917124,0.7978321365784582,0.25620984790922685,1.0013407509174088,0.4203870430472659,0.8337950241475112,0.2319836984328672,1.0458452901414557,0.4306533556803341,0.8504533740624725,0.29727838393311123,0.9761622181955092,0.4391374283481327,0.8185901825956792,0.2516776884222156,0.9559041599596958,0.40736371121120335,0.7909010915200748,0.27064297073928373,1.0387790176249083,0.4132513395970554,0.774270445061644,0.31553381418007703,0.9614782049981765,0.3142968291794739,0.8496806048014669,0.22811661841354725,0.9592212405902757,0.3985244135283911,0.8128269634885993,0.1817434038793253,1.0003207170897992,0.27594080292155854,0.7020104458844321,0.1571467630601264,1.0134485375069364,0.3808296539654938,0.6777110241741612,0.2650763831540698,1.0088955257478047,-0.004547638453066266,0.707856899540141,-0.09106376600455662,0.5088822593437288,0.1872721807160092,0.5291524778420326,0.1351895194731962,0.9639238314121626,-0.18681534587990303,0.8310565043589841,-0.1185024137857861,0.5466105847277742,0.19133271428438847,0.7061893968723165,0.11517222604859839,0.9372976225353369,-0.07783714652094606,0.8529600073640342,-0.10381748768941165,0.6884048588233502,0.23979730910239902,0.8040719742678963,0.1431371695319172,0.9419699722736674,-0.10238061328666336,0.8044079738834471,-0.13349335094370982,0.6618983291028082,0.19909380740324015,0.8212103673797332,0.15871001228642984,0.9390645384491488,-0.08383482568536789,0.8393749833223877,-0.1457321860323682,0.5863093351986384,0.1914159923062651,0.7636415690695101,0.1293517457582542,0.9456650653042313,-0.15872911867939626,0.5563125596778966,-0.18074505177303088,1.009372152990616,-0.07523453581657763,0.531214388454682,-0.06070067669198555,0.9681488716186103,-0.6284366344484733,0.4636403804017508,-0.39868311363670283,0.1281407135736532,-0.5599399873276714,0.5010582248941648,-0.3872775265361075,0.21772508904311424,-1.0497765747538643,0.36396609138469227,-0.765989702357898,0.278753302691681,-1.0811362899381358,0.4183754408945767,-0.7482862059991242,0.640167983902056,-1.1136160703333102,0.3239864182475181,-0.8934711435646248,0.44064170564983735,-1.1062323121380215,0.3678496956350832,-0.8570048467439092,0.6653517280183863,-1.2062074408349965,0.5027035646425382,-0.826154712749054,0.06950838020125295,-1.1588650345380977,0.47453685937049467,-0.8465842266754265,0.14503420902370956
15,0.4234312657838636,0.8358232250751969,0.23193765869905794,0.973849288622569,0.499192221813038,0.8928018532565302,0.3113165084346925,1.015144538730258,0.4570955845338614,0.8005920545551609,0.2576920604461006,0.9914810351259111,0.4146274737353447,0.7949376158188757,0.30953914820067724,1.0013219158496598,0.49392156288801975,0.835541738262654,0.28351595667752744,1.0458390912583992,0.5028004393942151,0.8464283916100799,0.34746861844932164,0.9761603108468764,0.5129354057595737,0.823730725579688,0.3034653907644947,0.9558981398905733,0.4654009527920303,0.7909297613542118,0.3112827407169689,1.0387664410448607,0.45509799708057946,0.7794777452478012,0.3448991433023837,0.961478324207466,0.38581470551445896,0.8515446208575277,0.2781596178441815,0.9591202107173813,0.4649571080358284,0.8163966260595527,0.22822813565490582,1.000262840979722,0.32451016141582445,0.704385273746218,0.19192088255076403,1.0134337555550323,0.408312448837368,0.6864684366077854,0.28455324617022243,1.0088886116090108,0.05384490242053128,0.7105338633462933,-0.050195916368199284,0.5085304727302644,0.2000989484239366,0.52796032534188,0.14418743169602638,0.964425285288658,-0.13239552451197112,0.8336666513583433,-0.0802697083799991,0.5348112492480379,0.1920643002152704,0.7030229001186239,0.1156533076114705,0.9342794221378454,-0.02865138297832806,0.8553071190659995,-0.06899057934789893,0.6877744801002057,0.236485598528175,0.7999823207759225,0.14071247952706542,0.93971894325908,-0.05230831710785258,0.81003173172265,-0.09781087773377953,0.6598931096432745,0.1950117989616948,0.8175970742088042,0.15582210581504344,0.9360654115379854,-0.02589034130788763,0.8520282149431763,-0.10412258201330422,0.5764140104916071,0.19109243725556116,0.7604273289953524,0.1291219007434124,0.9414860048450945,-0.15500164540423142,0.5604095445411779,-0.17779850855161208,1.0093778750365143,-0.07616346722600643,0.5355350695498053,-0.060953134997549716,0.9681480967582283,-0.6519089868137309,0.4676403885079825,-0.415280925554426,0.11729546964283662,-0.5818742810345748,0.5002262036577452,-0.40280227396822443,0.20249398633811233,-1.0861108609111854,0.358290179481311,-0.7915322240918216,0.2809761387092897,-1.127112287848355,0.4225137317766873,-0.7804189530339682,0.6416667426949332,-1.1517521525236136,0.30898524045973735,-0.9202506251458626,0.45681724395130524,-1.1547165503958348,0.37708629961037915,-0.8905965625694422,0.6739679966531824,-1.2505849037203056,0.4905680291639462,-0.857356492389687,0.06357134034911055,-1.2089887863752309,0.47432967362525535,-0.8818879587916658,0.13316598547577407
16,0.45343554353026577,0.8410163989605424,0.2531657814462526,0.9738753358523358,0.5393349101680349,0.8981405220797724,0.3399102277717077,1.0151701687275114,0.49721390161644446,0.8038904563877415,0.2862674439315771,0.991503386867702,0.4546630679210336,0.7990421108673986,0.3380441824883558,1.0013395588245133,0.5336373064850145,0.8404125702290541,0.3118362062013096,1.0458533367685003,0.5420564836624062,0.8520711037263213,0.3753446145099223,0.9761723509851212,0.5519709724887211,0.8369094913534612,0.33112038689952866,0.9559084514941196,0.5277879326867503,0.7969377903382816,0.3549749425931943,1.038785752949768,0.5202226829531656,0.8025334178933701,0.3915077684602681,0.9615002587167433,0.42110622282525045,0.8533592842677145,0.30291594005562933,0.9591338601810349,0.5010524954792271,0.8197831235571112,0.25376536139579525,1.0002801263267072,0.39348172197529857,0.7165533235585348,0.24069022665295067,1.0134517561577543,0.4787007172616727,0.69459153641171,0.3343282552736989,1.008883306795626,0.13091242070643455,0.7171639264032391,0.003407462617571584,0.5523475756393526,0.22425942180967606,0.5280752430970069,0.16102839120564436,0.964890439936485,-0.038904067978499914,0.8393491793772947,-0.015476829579191942,0.5688134937205416,0.169376936315207,0.7033067374370443,0.09911625651172122,0.9282198351360449,0.07180531217253135,0.8661997486894126,0.0012097381161715465,0.7150443203406842,0.20633257824432708,0.7998522038363778,0.11873527088137469,0.9350043350666363,0.04827030696066964,0.8165714937427611,-0.027587340879663472,0.6866094611523688,0.16790816373892697,0.817329628167697,0.1360959444165916,0.9294956087769076,0.06632384100867923,0.8509268403170166,-0.04075301206115861,0.6022215103771662,0.16601044373221222,0.7596955627714449,0.11073866367662956,0.9332917370953081,-0.1520384598212146,0.5612168298500158,-0.17595086643624228,1.0093926569884186,-0.07936868849705282,0.5558187685854499,-0.06304383269050445,0.9681445204795419,-0.7161009733943938,0.4607828741265738,-0.4605690979002728,0.1295695859205313,-0.6339081403592277,0.5075124542490232,-0.4388435883798816,0.19569214269492394,-1.184423147164816,0.32990719269732965,-0.8606885585765526,0.32620485842059344,-1.2299296485921998,0.4345718706240383,-0.8516519768964697,0.6509843195801566,-1.2549648489944358,0.27225346088438945,-0.9928880234959634,0.49923947896335974,-1.2609520458811745,0.39542757267976086,-0.9633324079031421,0.6881884728036951,-1.356501341732174,0.4584635667787686,-0.9321880984780685,0.06016325851956276,-1.3313014830515053,0.48406862554671837,-0.967813728669645,0.12105038775085958
17,0.3598188579562849,0.8450154533924576,0.18826981784545024,0.973836235205363,0.4590504864849252,0.9053652606776422,0.284424875715839,1.0151495455204191,0.4171069859885779,0.8115706936809849,0.23093907499189242,0.991493075264156,0.37509999681078343,0.8082266501854833,0.2832337981118616,1.0013085048045853,0.45754183731910003,0.8451570403485305,0.2592229492428978,1.0458442172578497,0.4658135936316328,0.8562521311387359,0.3225788699940865,0.9761689535203688,0.475931647013016,0.8430269544653386,0.2785420649344512,0.9558976034487705,0.495293170110747,0.8138141302506962,0.33274373011038394,1.0387654873705443,0.5028032188163757,0.808300465298613,0.37997577644230757,0.9615014508096389,0.34843465008209434,0.8618303559878377,0.2526456886974696,0.9589855638248337,0.433897200107593,0.8262158952398505,0.207321253441009,1.0001947128707438,0.38046104502554134,0.7356419494664328,0.23188680288066887,1.013447881855844,0.48875529142330654,0.6928135298580601,0.3416916856551364,1.0088438485207845,0.09750427447588489,0.721437221805766,-0.02022166244114374,0.5837573160873506,0.22843849096068847,0.5230738769585487,0.16396499135807524,0.9636889295071028,-0.0750910335011141,0.8387593914172422,-0.040974688713172586,0.579540720454703,0.15842043485147028,0.703419867052828,0.09116766537829593,0.9218863647915014,0.036435798532102645,0.8616255094354148,-0.023872079361843893,0.7263942964034589,0.20388493379270115,0.7996760721110665,0.11681518774768791,0.930165868422349,0.01941651069280767,0.8109236556270689,-0.0480312340623128,0.6970644138691962,0.16402186587067608,0.8166798779350005,0.13302340905245175,0.9235200047195956,0.031944550312196215,0.8460099339602051,-0.06528827199458391,0.6080793952610468,0.155171573693269,0.7590078443800264,0.10275622645825712,0.9260600843586441,-0.15226185597930864,0.5593450055854894,-0.1761139284910544,1.0094054123824008,-0.07949670458534268,0.5486897550470893,-0.06322825258483479,0.9681398713172493,-0.7393902203875609,0.4641260092450583,-0.4770325315367252,0.1310739028465338,-0.6399631766057954,0.5085526149049986,-0.44269781367547134,0.18323729023310903,-1.2265319234452228,0.32955919097880854,-0.8903169151883048,0.33448415219615185,-1.253396014026003,0.45359746462008627,-0.867698161580589,0.6296006168251822,-1.2986737582578831,0.27381292700797044,-1.0236495268763985,0.5178577646193351,-1.2846720810436898,0.42040382618928235,-0.9794269786464985,0.6809231434427332,-1.39663163242456,0.4467575423704282,-0.9609224721162744,0.05481202056685356,-1.3512203037736592,0.49486535129668785,-0.9813528071403794,0.10861405743240868
18,0.389032394670225,0.8525270691456315,0.20826911535379786,0.9738454739253034,0.4963635904872309,0.9112405501177973,0.310162599038004,1.015148770660037,0.4545938196060896,0.8176090018246006,0.2568603036555546,0.9914943865663409,0.41243472001406073,0.8138294271897253,0.3090276027942039,1.0013058822002152,0.4985934753821266,0.8519458305745131,0.2875416759356346,1.0458448133042977,0.5067506963006265,0.863424536858493,0.3507935987023506,0.9761687151017897,0.5160563526308246,0.8342401569418401,0.305976097425878,0.9558956961001377,0.5345007541232327,0.8259791998307743,0.35999113862914517,1.038761374650055,0.561334588972282,0.8113051354417404,0.4204352448629478,0.9614984705774,0.37995902203973597,0.8699460648158102,0.27442171756449446,0.9589566555721177,0.47109050003851116,0.8328984103841987,0.23292086397364128,1.0001770698958903,0.41694636617229164,0.7493919661557333,0.25789407192818353,1.0134174238823639,0.5551642010098108,0.6902013563007786,0.38827187205706337,1.0087835882249168,0.11503320602644693,0.7203095615312604,-0.007860396662812609,0.6114185800300691,0.32256034464313127,0.523145700555503,0.22957156924876837,0.9649736480205916,-0.06924742661689506,0.8281143594882261,-0.03661614771612977,0.5716199784197908,0.2993192745709518,0.7026528148792135,0.19005202323943332,0.9175253909565099,0.04656586564783431,0.857612805539846,-0.01640204890992867,0.7189900882201703,0.370213854384791,0.7956788058184945,0.23355851087318516,0.9262409621685342,0.0351856358018971,0.7986079651096434,-0.03642502072442477,0.6871783874867499,0.3274810510388034,0.8140534588676177,0.24773021042350918,0.9187813758553074,0.04221391053453928,0.8334759712336121,-0.05743695786198253,0.5959788179066157,0.2984081340300991,0.7588664621626192,0.2032955497672005,0.9189769663967605,-0.1542914959826882,0.5750014768379308,-0.1777652624755117,1.0093616029684906,-0.07957825031643309,0.5430639110453193,-0.06360317597510409,0.9681062542975959,-0.8410937482311291,0.4782595520211661,-0.5487733982810032,0.1332471925031729,-0.6802090935308027,0.5031539242044676,-0.4707212493595361,0.19192866072032214,-1.3959967303901366,0.34026752304057606,-1.0099384233909048,0.3484597128612825,-1.3306472597657542,0.44130579477450527,-0.920100101282862,0.6373932088738272,-1.475254482441271,0.28422931551962816,-1.1481972708382548,0.5377524241385306,-1.3668696246223275,0.41347523326897906,-1.0351066226432228,0.690626720007522,-1.5644515173188822,0.4449745886312619,-1.0804444260675325,0.052883616593274056,-1.4051670105127045,0.46658294735076505,-1.0161356114756586,0.10301639152645617
19,0.5770622342990397,0.8507411351742264,0.3405346013541692,0.9737914721171368,0.6548465244630683,0.905784877376861,0.42165841390442976,1.0151168225704374,0.613025152435206,0.8114949957821201,0.36829447282326666,0.991478710544765,0.5709561043781545,0.8094243459176,0.42053797608233606,1.0012627880420426,0.6509676442923779,0.8488627207188613,0.3946926484226946,1.045829316096656,0.6592495628017463,0.8578047129258453,0.45806061477131266,0.9761615029397719,0.6679147451970114,0.828290838532874,0.41262198113476095,0.9558780531252842,0.6030895971777289,0.8201666740815677,0.40852273907423575,1.038725790677124,0.6056543228471327,0.8006201684007248,0.45136798322972604,0.9614880397645644,0.531370662788365,0.8726905010798482,0.38101962310818294,0.9586655464870347,0.6143910384446128,0.8351062856359687,0.3337816556553736,0.999993249171403,0.4321369327903559,0.7540298631703513,0.2683763425902557,1.0133311163567291,0.5435552926317877,0.6961003087849095,0.3809184309424366,1.0085762236657432,0.15529675835160653,0.7228446662828473,0.02041629023797103,0.6432629575477693,0.29469718819831486,0.5186990152413246,0.20967830795454692,0.9605803684681318,-0.014063500222868237,0.8298059989115965,0.0017327568977276511,0.5920572190203768,0.25856193622977247,0.701592269434725,0.16119908328899285,0.9001793664432655,0.0976042315538088,0.8512117435281272,0.019060548654726915,0.7369892008262189,0.32216861041880807,0.7931318397425973,0.19966468292351972,0.9132923895328838,0.07506527320196926,0.8031956750133604,-0.009043302345495986,0.7040441773770392,0.28590037508164373,0.8139772841315948,0.21848239183030568,0.9017969131172702,0.09184093532411237,0.8330545067904053,-0.023064534658813276,0.6067537879612421,0.2592711234574602,0.7595120400701815,0.1757783216119393,0.8966923990406509,-0.15509764058328918,0.6037569032447911,-0.178452156428345,1.0093334695761567,-0.07976567978340018,0.5565628133661811,-0.06387519065430902,0.9680747234405099,-0.796524508158949,0.4977399294568503,-0.5177245012694325,0.1322790044557638,-0.6604686498760322,0.5023256580606688,-0.4579718447457751,0.19283348903033493,-1.3345556952264284,0.35181240629176624,-0.9668204676295581,0.37318678915332043,-1.2846243408856983,0.42319104915759237,-0.890113395163332,0.6524886812096427,-1.4105867211930414,0.29780266404181444,-1.1028040673233066,0.5639083727774467,-1.3175554535489253,0.38854526276612567,-1.0030222836947496,0.7031011972986292,-1.4959689428304668,0.4608833067403928,-1.0320319978175643,0.04998170113244916,-1.3441159942460694,0.44977366266372276,-0.9758082554318743,0.09625812632917907
20,0.5647814501382148,0.85297726302762,0.3318551120000181,0.9738013664881694,0.6442525102113152,0.907282622890777,0.41422956083505014,1.0151224254070463,0.6022093927025801,0.8121324078533482,0.3606506451097078,0.9914771608240007,0.5597617815295483,0.8078111462067541,0.4125312058282837,1.0012628476466874,0.6416262692247314,0.8489764463810927,0.38822588050402573,1.0458311042359991,0.6499493137905579,0.8610007735833465,0.45164594155197146,0.9761591783586256,0.6583282809098264,0.8275523965887517,0.4059384477843391,0.9558776358927705,0.6015727889148356,0.8239395288865604,0.40754939354780356,1.0387075516558228,0.6082244167564834,0.8000094592103562,0.45320481352930597,0.9614819600907972,0.5218195373831361,0.8719090245821981,0.37430703538214366,0.9586650696498765,0.6067979289402671,0.8355576716108527,0.32851615578623217,1.0000101768905192,0.4301724969898105,0.7604171565091269,0.2669653995510631,1.0133344542168363,0.539871264256657,0.7008674286694004,0.3783222695679554,1.0085480306687644,0.16159691910740026,0.723795837204173,0.024856226434838972,0.6676430454002473,0.3206048537003781,0.522383297544181,0.22735475153159881,0.9534512953251266,0.0026134054635782097,0.8405229736468565,0.013545069399951905,0.6067506580271822,0.3342626191087342,0.7014724640987264,0.21430205698739688,0.8842367332912573,0.12117659977318519,0.8487994243447776,0.035644703253602854,0.7456266887145551,0.40270392742447936,0.7918123121165597,0.25611414214172357,0.8996429258793193,0.10353080018753585,0.8026781874874205,0.0111108662749155,0.7105922840474188,0.3614866547561819,0.8140383788924895,0.2716286570514668,0.8847651838959262,0.11126115162869744,0.837838137161499,-0.009324539987773727,0.6083438014652705,0.33515055440044667,0.7607283324514681,0.22918175171567293,0.8746643700756547,-0.15473300761004805,0.5894628749626256,-0.1782471619087156,1.0093411585753327,-0.08074724659341424,0.5586504064447944,-0.06467118397014028,0.9680811607421455,-0.8249848844719873,0.4965678339196647,-0.5378679508488952,0.14246151924248412,-0.6351719352443032,0.5037221948877562,-0.4362981246265202,0.21746211335036522,-1.4058164938865594,0.3547544915578796,-1.0170912873149707,0.39859803736041277,-1.208016429345038,0.4250021064867703,-0.8286829726151337,0.6754271711235831,-1.4880918211544558,0.2982597422602745,-1.1576980590320027,0.5832805379805411,-1.2351716681685827,0.39034535284066485,-0.9370992848802399,0.7185392771326136,-1.569637643722767,0.4420364074693814,-1.0853732436498962,0.050778842475804366,-1.2255506618270267,0.44514414010169584,-0.8837357108236719,0.10075478268742118
21,0.5095387398425615,0.8534331193508622,0.2928551796785409,0.9737918297450053,0.5840240719744836,0.9087717257312006,0.37165687132115527,1.0151162861286342,0.5419725767297708,0.8135276929828953,0.31807348816507136,0.9914652398950458,0.49964528801887875,0.8086640290688452,0.3700627456428657,1.001252595647786,0.5835953734850498,0.8508157265095717,0.34719663307614923,1.0458244881204293,0.592034786700744,0.8637770983323394,0.4107089654777809,0.9761483899179213,0.6011434314829337,0.8327298944525212,0.36571118364330213,0.9558691124285676,0.5548412122770977,0.8283212451379337,0.37447625440785176,1.0386880013323363,0.5606013750624905,0.8037001192102036,0.41958511438945917,0.9614662840692213,0.4671508232147641,0.8713010572054891,0.3356989702087844,0.9586329427463425,0.5537572507420291,0.8362490258856025,0.29101685047977716,0.9999986135894326,0.4087084324544664,0.7628799012219565,0.251630437863383,1.0133386265419706,0.5120074873241154,0.7076639078945591,0.35849271221033985,1.008530030066042,0.15928865212591942,0.7246866882249859,0.023105054840409027,0.6949099054084871,0.2981353273306304,0.5258601556832191,0.21121986983923993,0.9490505651920699,-0.007980648911567752,0.8356778908869993,0.005786232376953707,0.619774272910605,0.3163090405056945,0.7016578941486227,0.20160442591007938,0.8685534995533118,0.10628372121688688,0.8478760291879173,0.02411301308623768,0.7520763881164105,0.38197683955052325,0.7921770329379403,0.24158438687250403,0.8856856042354898,0.08594524478749027,0.8029518920162291,-0.0019628215969822345,0.715282931172663,0.339868121231003,0.8143771120887481,0.2564132786495793,0.8680505513847873,0.09775849471622951,0.8395517110941467,-0.019490526849434194,0.6087904190685725,0.31747370310237083,0.7624072164808565,0.21674427023041945,0.8543723263897416,-0.15422228260240922,0.6036124811905004,-0.17826173021641545,1.009345569319046,-0.08407497997290617,0.5611302576906745,-0.06737556444327013,0.9680839621604499,-0.7831735129457821,0.4966166799260581,-0.5086445828042507,0.1495728898059912,-0.6057251583544906,0.5035597722307432,-0.41596009207150875,0.23411487624022723,-1.30804633175239,0.35538841675738825,-0.9483430669893756,0.42152722894976824,-1.1423741652150368,0.4259562576403347,-0.7827138588658779,0.6924210513954947,-1.3846928506095009,0.30094058036833726,-1.0849625761280521,0.6011198505339469,-1.1667901665313343,0.39148287768388074,-0.8892434097178271,0.7315145526491236,-1.4794439056277764,0.4416178040491238,-1.0222884124224085,0.05030632665434736,-1.1806048533783986,0.44372337398650724,-0.8521736445403757,0.10031892372250108
22,0.30591742019243395,0.8495606055798051,0.1495529884488561,0.9737983862559307,0.4064047267933968,0.9069404922297662,0.24665041907537963,1.0151249884067715,0.3643729751039289,0.8117045061085056,0.1930822500623947,0.9914700082666278,0.3219915679020019,0.8068013243149694,0.24502646048733345,1.0012553970660905,0.4025176901794378,0.8495022189526564,0.2197474251760546,1.0458280047944708,0.41087448640005025,0.8628054830178558,0.2832022499453496,0.976148985964369,0.42021557227153605,0.8305382912687749,0.23841970581198743,0.9558695296610813,0.4663430341637498,0.8284320501725712,0.3121646463139794,1.0386938425875245,0.46632821214762615,0.8057124316224655,0.35322880061318235,0.9614694431153945,0.2978594126644182,0.8674425505259542,0.2165120612512063,0.9586464133960617,0.3807400074858556,0.8331601939840522,0.16922769174098876,1.0000080311233073,0.37148631937947885,0.7571321657216208,0.22590617676356003,1.0133646141670927,0.47889757230021807,0.70768226612515,0.3351152278918452,1.0085648391785909,0.15273992507421008,0.7229312718317059,0.018476246167089157,0.7214112033592317,0.2572904911504888,0.5313299547249671,0.18267311251134458,0.9497724966495894,-0.025010551730596943,0.8334275771281492,-0.006404655530780151,0.6340718178668123,0.2576644837888575,0.7016938357494222,0.16035627180833517,0.8657763999439367,0.07464642691168479,0.8451847602670188,0.0015781786552113639,0.7582635886626752,0.3302362632239583,0.7925040240191781,0.20515870904379,0.8819550687282879,0.0549534616849468,0.8032012182453245,-0.023949459950897676,0.7208442233441412,0.29063720031978946,0.8147125074248992,0.2217119867389645,0.864451682537894,0.07621318878160137,0.8376986026880798,-0.034979049236162164,0.612791261639831,0.2594552883864178,0.7629082531248385,0.17588847410586922,0.8501025476612565,-0.15682674087577045,0.5972868786590673,-0.18007628307439766,1.0093639275496369,-0.08131437421719882,0.559245201195008,-0.06543093534883769,0.9680918895782051,-0.8053324119752799,0.4844288115693534,-0.5242152130201216,0.16120159208889684,-0.5908359837450856,0.517895940996765,-0.4060701291207308,0.23726924344870812,-1.332308141974877,0.35688064884166254,-0.9653732840622541,0.42483549535105913,-1.169897819272963,0.4452166045298306,-0.8039299811560006,0.6724260176544974,-1.4106853276134848,0.30062986135512315,-1.1032142738511412,0.6046194180426444,-1.200133606141244,0.40614880914712237,-0.9147475678285956,0.7195691261850428,-1.5298462476753512,0.4314900212274686,-1.0573172034331493,0.04858807748237516,-1.2618081908831902,0.47574585018279625,-0.9113429167928088,0.09258352233051807
23,0.37592333810054057,0.8476134410442826,0.19870451168801587,0.9738067309061994,0.46166186350995586,0.9057743273547357,0.2854353149770091,1.0151287434993923,0.4196791390262307,0.810524572560532,0.23190188864309497,0.991468339336574,0.37737066840087985,0.8055970720719274,0.28389702836324265,1.00125551627538,0.4585346408394642,0.8489388954548842,0.2590657346071257,1.045831223445289,0.46697628471653413,0.8622939559563934,0.3225853013244438,0.9761483303132765,0.4763828114584532,0.8298620169691533,0.2778660186761196,0.9558692912425022,0.5347346327336827,0.8241984514634647,0.3603858257986297,1.0386872264719544,0.5378004283919466,0.8079677521714768,0.4034701349764502,0.9614587738839797,0.35053553141442195,0.86529416070967,0.25346357258556695,0.9586234656078233,0.43361428471472785,0.8314197979612555,0.2063290259540635,0.9999976003104715,0.43928438116952684,0.7599139144932883,0.27359482770527793,1.0133349310539947,0.5361437378750913,0.707352652439542,0.3753021017527224,1.008541474157839,0.16572299523452336,0.7219369471475628,0.027608676148959045,0.7455963840232942,0.32247965247197025,0.5344579468781349,0.22863155407748506,0.9531326488941574,-0.008013107461743281,0.825007705797888,0.005613439475822532,0.6517149119296175,0.3452904755895134,0.7033647923610555,0.22201230339014297,0.8690548938251623,0.1105618811417843,0.8417793084924217,0.02706212075890884,0.7696000344710858,0.423303006180226,0.7931394691371285,0.27066241875106767,0.8832723313778239,0.09480747223736039,0.7989360886791319,0.004256305819853114,0.7314459823010504,0.38116383725398206,0.8147411772590362,0.28537041250642564,0.8660118937195346,0.09952623153664218,0.8349657297251282,-0.018325777676519685,0.6236179089214777,0.3472955594774626,0.7630533308302218,0.23762785656253999,0.8518151679195878,-0.15308379601290614,0.5924220667617894,-0.1775236588831871,1.0093353769247895,-0.08568932888579782,0.5567102752573554,-0.06859413904550321,0.9680660807670175,-0.8552612466048641,0.4962460582448447,-0.5593523950960915,0.18303587615605071,-0.7013119114653928,0.5156788270250547,-0.484552207632176,0.2474899797138906,-1.4299150929767745,0.35953299592952265,-1.0339995671922122,0.44035785615275586,-1.3685269041890442,0.4533817554106442,-0.9445696442449025,0.668952676189501,-1.513185622513418,0.30667076230078655,-1.1752593926070363,0.6172167405066337,-1.4062340158084325,0.42196698780083935,-1.0603172979987103,0.7199987564645838,-1.6193296410112,0.4423353545652524,-1.1203815707013192,0.04961188038864996,-1.457327082579067,0.47927441535117704,-1.049693409992625,0.08824843926310097
24,0.43720052913702423,0.8437052836956498,0.2415262216415097,0.9738473812739362,0.5421936806792544,0.9032169900706476,0.3418586937114544,1.0151609300075712,0.5000643105952368,0.80811022681926,0.28821226380730514,0.991495161426723,0.45767981674033675,0.8053522161911901,0.3401603304983109,1.0012862126674393,0.5421121246002044,0.8477006685643202,0.3176637481413057,1.0458492240480108,0.5503274308504591,0.8615217777833282,0.38097932983120986,0.9761631122651808,0.5591197315904392,0.829107124143073,0.33568232413121163,0.955885265287302,0.5851461225066715,0.8208588032166996,0.3957906935523781,1.038719472584778,0.600198049624341,0.8051309287080368,0.44713527528132596,0.9614827349511793,0.4151977044740687,0.8596020959475545,0.2985335168468211,0.9587237802249803,0.503738593831167,0.8285751066847052,0.25531164707363996,1.000061436885026,0.4821643450330894,0.7568987539326804,0.3035959966574632,1.0133553754471527,0.5731129960649104,0.7037030600399449,0.40124405249870776,1.008578846270113,0.19292994867200228,0.7210914552614239,0.046212447898543334,0.7698706736312959,0.3485909597791114,0.5371623288208839,0.2470372742965676,0.9573464588611982,0.028957813958663363,0.8442139912745725,0.031183298512474825,0.680973699561606,0.3766488472662512,0.7050039200923788,0.24411424353376449,0.8757768672443519,0.15484828824064567,0.862119572335958,0.058093233747021626,0.7906661636786969,0.4512861569645567,0.7957720274829232,0.2903854852905847,0.8885658198803262,0.13888959381865507,0.8162208992221922,0.03494309233646044,0.7530158899663031,0.40712088274291325,0.8170464465003692,0.303653507334469,0.8721768021286532,0.13604574704770495,0.8538878798601685,0.006694232080544998,0.6505086636211848,0.3763205062425142,0.7643104523931795,0.25806839679999233,0.8595562019505021,-0.1499096402236465,0.5885295258300878,-0.17531339677165841,1.0093403837149506,-0.0902206962002248,0.5702979288942878,-0.07212785064547475,0.9680566632331429,-0.8417839908216181,0.48254128148092873,-0.5495568802470365,0.2171397763502188,-0.7408193935663956,0.514273885943054,-0.5131830971765177,0.2504662482437825,-1.4169050468237308,0.35342921208362116,-1.0243478059055335,0.46603732526133745,-1.433936696700439,0.4670454943766323,-0.9917450175086366,0.6650620426064322,-1.4993175242029337,0.30113101720839464,-1.1646384633085203,0.6373543485579337,-1.4739009684941127,0.4325088142874269,-1.1088312991580351,0.721891859587295,-1.6157452520015327,0.4467579596029416,-1.117603179293772,0.04887694766798876,-1.5496920824253146,0.5168301397335776,-1.1169987838812654,0.08142849070906197
25,0.36567871160361193,0.838833557659578,0.19114934837950756,0.9738817135493266,0.4669228725605451,0.8993338666728204,0.28886261330696905,1.015187513679141,0.42471105406135773,0.8039578096363377,0.23512994002305948,0.991517453563869,0.3821492583134004,0.799915080494779,0.286898328927962,1.001311783060048,0.4652777491523081,0.8442074191479689,0.26359363788634116,1.04586406560456,0.47344256398017764,0.8580217334374725,0.32686386397286404,0.9761752716127152,0.48195314153161783,0.8245157783560246,0.28127864195901797,0.9558981994952183,0.5159720212196756,0.8175213603417911,0.3471001134663501,1.0387466523027955,0.5280297335663102,0.8049620091447434,0.39630696508286906,0.9615011527864149,0.3487042095435593,0.8543223165133504,0.2515245597565347,0.9588026371700181,0.4353768863764974,0.8256103120489325,0.20703718887863715,1.0001090609962016,0.4404431380147912,0.7413809826886313,0.2741819819551083,1.0133826147698148,0.530068520016943,0.7015680812687352,0.37095888295928625,1.0086162183823872,0.164136096453283,0.7204622686311749,0.025469838722801598,0.7912991394744966,0.32386244831777117,0.5388666044289466,0.23022496123457195,0.9608022765606307,0.01154921655806556,0.8414680052897703,0.01872765903167742,0.7032640485682589,0.3652327419588796,0.7062224774501669,0.23628272525191232,0.8805261057354101,0.13089130015927142,0.8632927109544273,0.04110340803086419,0.8063058264213117,0.43236393433156806,0.7986461634539925,0.2771788345996171,0.8920518571346598,0.11327578359443194,0.8167504268863768,0.016729695071796193,0.768617286526972,0.38489808071341675,0.8181605765205108,0.288051475978868,0.8761844992340609,0.11768345824202876,0.8552404284594116,-0.006466598375417754,0.6681435322430109,0.36322651184728116,0.7646183103834444,0.24888137021200668,0.8635125198521134,-0.14789978021598318,0.5846625552909948,-0.17386568944615058,1.0093530198996432,-0.09203262161668772,0.5721288047678534,-0.0733937682697875,0.9680531465591011,-0.7765475575320714,0.4763369445992911,-0.5034518808393109,0.23776353478546813,-0.6928972620836741,0.5138740579859007,-0.4797453813118713,0.24325778171393633,-1.283091642750602,0.34894879054049976,-0.9300017616020937,0.4886153262836763,-1.3182023898278596,0.4694478893866268,-0.9106065392395732,0.6575972164994071,-1.3561285739385651,0.2950375747683616,-1.0635767434955443,0.6559101089415397,-1.3484332457372985,0.43647079463029187,-1.0206284047995562,0.7223022375665735,-1.4568835960881001,0.4424255363927976,-1.004633239749023,0.04758389568010236,-1.4174422067534187,0.5266163283360251,-1.025416738724821,0.07454337192654167
26,0.3440880307713573,0.8090787997784135,0.17581820921916708,0.9739125887553204,0.4289840398348236,0.8700022421649164,0.2620122794344724,1.015213203281039,0.3865794920517735,0.7744721071216892,0.20808495036271002,0.9915398649103045,0.3440461759174292,0.7698022775124487,0.25988265565555757,1.0013365785922745,0.4218578354830807,0.815204275837422,0.23304469975752343,1.0458772978357,0.4300729152061823,0.8277249905213653,0.2963633460153372,0.9761868945184464,0.43849777893476694,0.7956516926817387,0.25070497400133057,0.9559101204241733,0.42058789092977467,0.7761991290490665,0.2800251750327903,1.038774070439392,0.40095067778171134,0.7657533585557541,0.30699320397554347,0.9615201666680983,0.3131685898401661,0.8225234769442586,0.2262890691330028,0.9588729110462083,0.39156440813706406,0.7927631459875312,0.17615217636154226,1.0001488768989115,0.3184479133905671,0.6943374803578513,0.18815929422012628,1.0133968602799162,0.3903952410828141,0.6545907996983006,0.2723620790595484,1.0086135957780171,0.09539801962769343,0.7159286201402691,-0.023163525381144724,0.810859476541147,0.22696391491354262,0.5383765946442481,0.16281595357742143,0.9628671602695846,-0.03411658909195137,0.8396211553714048,-0.013433860261540607,0.7288871316828829,0.25273233171313625,0.7081322102687704,0.15761006671602992,0.8828396600223669,0.06918520383185615,0.8605492879693504,-0.002423530671507232,0.8262044794517072,0.2987041070581237,0.8054655904673897,0.18360610018692916,0.8946414405315715,0.04187667408533305,0.8159122067669005,-0.03337374279504596,0.7896386526463568,0.24865480995369899,0.8212510773521148,0.19241533330670846,0.8790758013428256,0.06608916771850216,0.8529794454691467,-0.0426670696975147,0.6933884834911799,0.2472090557234301,0.7655656666075045,0.1673612798166364,0.867400292412233,-0.14804415171109794,0.5417520986335851,-0.17404967876365957,1.0093627354567416,-0.09413897946092915,0.540087851131684,-0.07539190663400479,0.9680501067222175,-0.6602575376187609,0.4618086700631583,-0.4215186085707755,0.22038185179348663,-0.5855943938734043,0.47779298231756573,-0.4051318734085802,0.22750680729720354,-1.0433814198519882,0.35050196837405695,-0.7611519075351406,0.48461871564219683,-1.0880786566522103,0.4308119500269619,-0.751964477119481,0.6492017830735037,-1.1031764955515273,0.29604778409033733,-0.8855456039154852,0.6610426649031486,-1.1090088168624896,0.3914722382547884,-0.8565021847773172,0.7317308579050135,-1.2184784869722356,0.4844614737020627,-0.8352128898301238,0.04253866424837966,-1.1867977414719157,0.5022904807102927,-0.8656787183147278,0.06632243854879886
27,0.32896969211178695,0.8004034033360001,0.16514681404541082,0.9739428679148662,0.4127293855126507,0.8643747888377374,0.2505011721332463,1.0152378199993315,0.3704578271882693,0.7706879274341892,0.19669764586051652,0.9915609649545551,0.32792310980939654,0.7671670965622839,0.2484936922117747,1.0013603012408951,0.4066329535902814,0.8070956599621779,0.22229317883723418,1.0458902916482613,0.4148446190719916,0.8192927214249908,0.28561095606441395,0.9761979213777296,0.42318767252487277,0.7879530971579045,0.23987314486684608,0.9559216837252598,0.40644256632552944,0.7740344075601139,0.2699857743744959,1.0387994620180665,0.39299226920976954,0.7569513618478378,0.3013771157033522,0.9615383460847549,0.2983937540457617,0.8129350565531759,0.2158171653958833,0.9589474764568223,0.378067625991258,0.7831241808576789,0.1665230460757849,1.0001936399871378,0.31168203376435516,0.6713405182873862,0.18297775785501244,1.0134108673714384,0.3831726812010956,0.6403609656185582,0.2671616911932445,1.0086251590791036,0.09156473026926171,0.6939653814241437,-0.02577827689976573,0.8288196673141572,0.2219815285729851,0.5369571100289222,0.15973569201695134,0.965039093920555,-0.046855935193880906,0.838268785586096,-0.022508826445042582,0.7544757633128267,0.253927074559138,0.7082766919277059,0.15864846446998282,0.8863103192783482,0.05633037763871633,0.858081178838491,-0.01174918281347298,0.8451403386550458,0.303128821771413,0.8064085955523812,0.18679648819984238,0.8975975924938518,0.03131454780142709,0.8141093450763792,-0.040932187777576456,0.809804096066767,0.2513104360796658,0.8211468288284026,0.19455973324272358,0.882468199700217,0.054245263592050716,0.8515648484346924,-0.05108863402148311,0.719151399102447,0.24845903524805796,0.7651464075361544,0.1685321980510558,0.872002367035341,-0.1489388291027267,0.526184974743662,-0.17477579342855704,1.0093631526892548,-0.09405650175329996,0.5223974309809272,-0.07544465126851727,0.9680430733741341,-0.6557981620492921,0.4542775933934653,-0.41820332753245204,0.2104800301801748,-0.573653314977408,0.4682630936876524,-0.39661428811159616,0.21987565442893273,-1.0467076901355854,0.3514731366537048,-0.7632819105941001,0.4817581695301363,-1.0740232728912587,0.42275608426234396,-0.7413931596129977,0.6479382242089102,-1.107701666429003,0.29717386484175645,-0.8885663635337713,0.662975762742504,-1.094335799101943,0.38412510151887225,-0.8454837317837902,0.7395795975290369,-1.2291146669615511,0.4964418284879819,-0.8429808660550344,0.03820192342677976,-1.169629582894114,0.49259131488921715,-0.8524392148158974,0.05956297380804568
28,0.3531340608491307,0.78370635419507,0.18188871464475423,0.973969988028239,0.43857068288777146,0.842758627968139,0.2684621048899054,1.0152597545086088,0.39640248757798097,0.7487185494396519,0.21476226299135626,0.9915799788362384,0.3540970046881226,0.7450740985344824,0.266780935777716,1.0013816397037247,0.4339127730783747,0.785640193214894,0.24119538932087062,1.0459018549493477,0.4423105196233396,0.7955869409188567,0.3046918320020645,0.9762078753534071,0.4507578762697747,0.7626924102835149,0.25905627317737834,0.9559321741427402,0.4296667362475979,0.7509778408448734,0.2862301903051745,1.038822409806305,0.4235055459987886,0.7264139949807724,0.32281873902147246,0.9615542605249097,0.32138071503890253,0.7943274997332601,0.23179843854035195,0.9590144124729051,0.403315579389922,0.7617990694685187,0.18413232612726757,1.0002342307502299,0.32759486711905533,0.6479700735127585,0.19407662324417935,1.0134349476479276,0.40626552183226466,0.6176393770069554,0.28340169366766227,1.0086426828446675,0.1014155124902314,0.6880110562250165,-0.018780540821142576,0.8450254549728486,0.24830688519989202,0.5306703697258827,0.17856742649339963,0.9679087595432663,-0.02767660352247659,0.8374124456546079,-0.009055317738381377,0.7777424960055452,0.29484515532914785,0.7081350712917196,0.18749904316922575,0.8917657536007055,0.07795120311818228,0.8572704364602561,0.003598577745999608,0.8622725613074811,0.3449962924732482,0.806198489179548,0.2162587648732793,0.9021925741642315,0.05340947523105702,0.8127078014591307,-0.025362264051484857,0.8279888175366461,0.28285255115110086,0.819111866651126,0.2168448661147696,0.8878826260269685,0.07494179595113935,0.8499352574465332,-0.0365238044280034,0.7425319766666865,0.2874227716032006,0.7633141607557589,0.19606447195409404,0.8790648021854874,-0.14878203890904423,0.506101875140009,-0.17478212062898055,1.009374775594986,-0.09447713069233821,0.5037260077841346,-0.07570028541542173,0.9680442058623847,-0.6589443444789984,0.4351059084130729,-0.4203735903445327,0.2020895439397879,-0.5843778800529514,0.4546263556257475,-0.4040440199727179,0.21128659531447655,-1.065204791392206,0.34295619915942677,-0.77622609728886,0.48097621619532793,-1.0981102267741154,0.40417910462519796,-0.7582792188522071,0.6468211735611746,-1.127916981928171,0.28902409195929485,-0.9027664318641742,0.6670233949599113,-1.1197581064456597,0.36410035486245435,-0.8633182267122804,0.7476243172250818,-1.2460068447123005,0.4882261030660764,-0.8546985101739085,0.03436896851340196,-1.1945160001330042,0.47333078918578697,-0.869982445058172,0.053549312185044565
29,0.34086344607136093,0.7533926239552018,0.17321759898439015,0.9739939490954388,0.4230878821531041,0.8097778282931513,0.25758284006919613,1.0152784107624235,0.380939866241047,0.7192887560818028,0.203898755357513,0.9915963105089067,0.3388003765713282,0.7177085332344946,0.2560687042971412,1.0013999979343156,0.4183966789655983,0.7479949724583632,0.23022014512075195,1.0459119281343146,0.4267306712137274,0.7553164931878387,0.29365313288989114,0.9762166372361891,0.4350994539115434,0.7211960142187566,0.24794176584238858,0.9559414724673252,0.4054319451185525,0.7068468598763981,0.26856021133059405,1.0388427945948182,0.4008286502154107,0.6867956220635971,0.30686908560838866,0.9615685060350111,0.30728121813852827,0.7704637669184713,0.22190816691016726,0.9590769377452745,0.3888028275288419,0.7315180621786322,0.1738596139263758,1.0002741658622294,0.2926049098545811,0.6364407470738547,0.16909348931771098,1.0134497892044767,0.3820983659230196,0.5873254679531529,0.266405917595172,1.0086574647965718,0.06619245111110295,0.6910957754060773,-0.043465783594250754,0.8583898892150972,0.24463993816971125,0.5244927059227821,0.17614677031274253,0.9706311420887375,-0.07105065270974384,0.8368118096492063,-0.039488261754625276,0.7932755260386568,0.3059785415153535,0.7080537109516012,0.19541161605038376,0.8983112972713598,0.03369696785180136,0.8594770600144859,-0.027455283778728398,0.8748277432876141,0.3628939706801872,0.8058742995166146,0.22884076905780057,0.9078727179973919,0.010700076905415329,0.812251825926599,-0.05534033784250115,0.840796663605982,0.3022910753030334,0.819095952210971,0.23050392965343738,0.8947864532173678,0.032336262747457226,0.8498810768244324,-0.06638045042121667,0.7572745895054316,0.2996548244489146,0.7633034915243441,0.20466050151094115,0.8885707297482011,-0.1507146827879939,0.49477425081902515,-0.17658475740761068,1.009394385523117,-0.09413401029223167,0.46846533044648814,-0.07543374493322574,0.9680550539077339,-0.6151835600544694,0.4024695639802421,-0.38960893153514586,0.19948023140545562,-0.5465537216357651,0.4638545553461302,-0.3773910970710722,0.20204108044478652,-0.9880295575987693,0.33610246967296137,-0.7216694874668402,0.4856594723446199,-1.0095074462606328,0.4177973056425778,-0.6924084377818215,0.6512663091545889,-1.0475157463705294,0.28681958436995464,-0.8459651007212448,0.6762782081541862,-1.0253600835579584,0.3815579294683962,-0.7930634418223285,0.7565084491334986,-1.1552697854582425,0.4550515584932462,-0.7911214963432752,0.030900034066828758,-1.090381227523971,0.49523075757148344,-0.7931238295062469,0.04844298226713688
30,0.3989332402180522,0.7058266869129655,0.2134432782183078,0.9740161220232953,0.4731906594075055,0.7623160205653375,0.2922514364709712,1.0152962921558562,0.43130998840315127,0.6680056945774387,0.2388239855206854,0.9916114500886798,0.38919789033605834,0.6636651210259374,0.29101152710691564,1.0014174620952347,0.46653752138247734,0.7054558527379042,0.2634738471544942,1.0459215244821234,0.4750110669513629,0.7174012037858306,0.32704213794588866,0.976224683863234,0.4850539395506873,0.6880419438414067,0.2829632549580412,0.9559502343501072,0.4329237762682309,0.6699337033669986,0.2878103044386318,1.0388610336161195,0.4289558493340823,0.6529434620866379,0.32649416591956965,0.961581261428993,0.3558480876947865,0.724733652935317,0.25542656171510664,0.9591379729015245,0.4368760868053544,0.7052322946233954,0.20743861026800914,1.000312014811662,0.31279822370068006,0.6084757974660056,0.18300527038635503,1.013463259854196,0.39932374389807196,0.559116854557462,0.278566232743016,1.0086622331681538,0.07490605659475191,0.6779203474924115,-0.036995996216795744,0.8710393657432649,0.2502585204905404,0.5166901002938148,0.1800105490230535,0.9732662038296126,-0.027731525991492013,0.8355672646662962,-0.008901636657614218,0.813245108596335,0.34666054398170393,0.7066821484706747,0.22399110768707686,0.9046355288959631,0.079226559951817,0.8588505555932517,0.004632605397952891,0.8896026022391827,0.4096018429902986,0.8056180591487252,0.2616009665421209,0.913359981200059,0.056661119473439686,0.8104919391849608,-0.023008013054562463,0.8567122958539068,0.3525369260245395,0.8187033364158355,0.2657386637498494,0.9014590143860386,0.07661254852144851,0.8455382824060974,-0.035185313472475215,0.7785703754093622,0.34194839656271897,0.762640866688376,0.23436572809043021,0.8978495040096757,-0.1486409541129199,0.47934225065880787,-0.17524653220296327,1.0094088098471528,-0.09661793304608912,0.46901795491052317,-0.07718734789001577,0.9680611931861459,-0.5964391647017699,0.4204045121861899,-0.37636691934726774,0.18637676119919494,-0.5216747411557046,0.4571940641180265,-0.3599123002841965,0.18817332968089343,-0.9773292279981028,0.33854116391162403,-0.7141313133831285,0.46347223937342846,-1.0131148287353253,0.418259390651199,-0.6977727509723524,0.6253030623322318,-1.0367324107908604,0.28860620379477464,-0.8382635723207632,0.6560991748747672,-1.0330383257120577,0.38391824359917925,-0.8016573595477721,0.745117047842605,-1.1451325025089103,0.4631202690588132,-0.7834857887837968,0.02714041894355676,-1.1068621724148706,0.48251431522491056,-0.8076169418152209,0.042369783054585775
31,0.5776167159366514,0.6253127327503678,0.3387616427900677,0.9740370432536114,0.6437484906054662,0.6729530416300958,0.41161282302701363,1.0153129218517483,0.6018610342093035,0.578091551491959,0.3581948034492146,0.9916242650873064,0.5601760032490986,0.5742151193093237,0.4107836440497177,1.0014340917911273,0.639361934429776,0.6168199312596327,0.384467748303602,1.0459302267602606,0.6478704608346788,0.6283563348397552,0.4480700151046191,0.9762308827462904,0.6568754268497141,0.5951716487936467,0.40299527250801215,0.9559582213725069,0.5535921047235248,0.5826202301423588,0.37252478045747434,1.038877067265564,0.553283901016444,0.5695219337472519,0.41329651436560805,0.9615940168229749,0.5183268920518534,0.6429357551196127,0.3694273268139571,0.9592069354755297,0.6026955580226023,0.61348727566435,0.32370197988411636,1.0003551685744791,0.3828112159792274,0.5676758816754477,0.23228306752155894,1.0135075461052643,0.4670193893366062,0.4896616779655887,0.3259782660970881,1.0087156985345176,0.31164153767568575,0.6628943145677594,0.1318052839908557,0.8801067223297212,0.42418838932096636,0.5163247834259864,0.3019229175303418,0.9758960799663924,0.35909983042526955,0.8087588835856687,0.26369718629099975,0.8302364854731661,0.6367176614173241,0.7038627891681539,0.4272238057389788,0.9105257194973119,0.5115561981125576,0.8393823673074241,0.30931353283685165,0.9004414684730084,0.7401425031824785,0.8050053234004342,0.4933052120666047,0.918417912146409,0.4807232770346668,0.7972199517467589,0.27543789240641875,0.8681103728650152,0.689392730457946,0.8159445950370513,0.5020583972385193,0.9076190948189302,0.4673175424530927,0.8323301911470947,0.2396252614717638,0.7938131308224177,0.6419472983340113,0.7590093941007906,0.44482673314656246,0.9063375034489152,-0.14592237021093904,0.42297908528023725,-0.17357328632903393,1.0094234725897675,-0.10014833291781707,0.39059159382653874,-0.07962287352148442,0.9680748426497995,-0.6149310469108502,0.4477521662904227,-0.39104785169525846,0.17027607143040374,-0.45531351319576857,0.40693116591131573,-0.30984522835997386,0.19393836542937523,-1.0537752122957809,0.41378091167430414,-0.7704937592417221,0.42611347853968823,-1.0344689136062852,0.3947931910147396,-0.7075168247488214,0.5976668323403189,-1.1170374741844373,0.37124211311369854,-0.8974536624512686,0.6097700342116202,-1.0624840484260725,0.37234492893243115,-0.8168167379501691,0.7194750104509424,-1.2023766128682816,0.5447950832830563,-0.8264579076057972,0.02562251960912606,-1.1052937031061913,0.44162222085120756,-0.800383938814161,0.04231835169672517
32,0.6789005877237217,0.5699292293133256,0.40982736993935465,0.974057606856059,0.7405281691326959,0.6194171033671564,0.47962608403783996,1.0153288958965483,0.6987032585539261,0.5253576533291172,0.42628851709107285,0.9916369608766435,0.6566562629017463,0.5217182688187536,0.4785454536939902,1.0014496486034137,0.7355256113820205,0.5636921059994704,0.4520634389065089,1.0459388694337532,0.7440161788647888,0.5757955285653411,0.5156515178922925,0.9762374988618605,0.7529155749128869,0.5429504697851628,0.4704817198778795,0.9559660295809727,0.6260001972738909,0.5361456541459598,0.4234698137909129,1.0388918492174684,0.6233790636633161,0.5163156091699204,0.46264300910527156,0.961606712612312,0.610532353118384,0.5940051697352438,0.43417360879817873,0.9592698183757677,0.6945985877266383,0.5660615287466254,0.3882091755172998,1.00039474605861,0.4266895643104146,0.5380988648450034,0.26315503271935076,1.0135362755440458,0.5197498512303307,0.4632429920525028,0.36301823781724313,1.0087609980645467,0.36066148607506027,0.6487686694070843,0.1674312279588133,0.8860647430168245,0.45848744222698984,0.5173660169655677,0.3248404120828028,0.9782733516186141,0.4095616482311965,0.7831625033519041,0.29937181366545834,0.8427572755732637,0.6393788013306533,0.7020903258464681,0.4273488002344832,0.9157679480053075,0.5632148487103584,0.8218866755311485,0.34610480856513076,0.9066411263900311,0.7379835863663223,0.8022426481150948,0.49012984669018755,0.9228941017597514,0.5364374543700954,0.784763951895532,0.31494239154925663,0.8747441910145819,0.6890867605265873,0.8147044011932097,0.4998681499242198,0.913137829274039,0.5201063058224142,0.8151117205736694,0.27686385047440043,0.8035949086811518,0.6441349104996913,0.75621787016738,0.4444696280687606,0.9139198699154373,-0.1415100932775577,0.40011316402131086,-0.17040555396244447,1.0094121477072604,-0.10433363459817925,0.3784399352915351,-0.0825514058184025,0.9680771672309455,-0.5777586884178959,0.4667889361573661,-0.36564290868966265,0.1575365173828192,-0.44689246780668157,0.4091585020796049,-0.30496470605496573,0.19105028197142843,-1.0108644655292673,0.4454658169649078,-0.7404051647148594,0.3890932422859498,-1.013481597554768,0.41236216670176656,-0.694526432611816,0.5562728966599295,-1.070663231131344,0.40622291684180223,-0.8647711739277268,0.5588950857100333,-1.0389758630845707,0.40609710211777966,-0.8020794190346006,0.6656603012643885,-1.1352674897706245,0.5785167090879575,-0.7793983038247174,0.027268364038857462,-1.0611251760893072,0.46007552085044456,-0.771532391819928,0.044389329980607364
