frame,NOSE.x,NOSE.y,NOSE.z,NOSE.v,LEFT_EYE_INNER.x,LEFT_EYE_INNER.y,LEFT_EYE_INNER.z,LEFT_EYE_INNER.v,LEFT_EYE.x,LEFT_EYE.y,LEFT_EYE.z,LEFT_EYE.v,LEFT_EYE_OUTER.x,LEFT_EYE_OUTER.y,LEFT_EYE_OUTER.z,LEFT_EYE_OUTER.v,RIGHT_EYE_INNER.x,RIGHT_EYE_INNER.y,RIGHT_EYE_INNER.z,RIGHT_EYE_INNER.v,RIGHT_EYE.x,RIGHT_EYE.y,RIGHT_EYE.z,RIGHT_EYE.v,RIGHT_EYE_OUTER.x,RIGHT_EYE_OUTER.y,RIGHT_EYE_OUTER.z,RIGHT_EYE_OUTER.v,LEFT_EAR.x,LEFT_EAR.y,LEFT_EAR.z,LEFT_EAR.v,RIGHT_EAR.x,RIGHT_EAR.y,RIGHT_EAR.z,RIGHT_EAR.v,MOUTH_LEFT.x,MOUTH_LEFT.y,MOUTH_LEFT.z,MOUTH_LEFT.v,MOUTH_RIGHT.x,MOUTH_RIGHT.y,MOUTH_RIGHT.z,MOUTH_RIGHT.v,LEFT_SHOULDER.x,LEFT_SHOULDER.y,LEFT_SHOULDER.z,LEFT_SHOULDER.v,RIGHT_SHOULDER.x,RIGHT_SHOULDER.y,RIGHT_SHOULDER.z,RIGHT_SHOULDER.v,LEFT_ELBOW.x,LEFT_ELBOW.y,LEFT_ELBOW.z,LEFT_ELBOW.v,RIGHT_ELBOW.x,RIGHT_ELBOW.y,RIGHT_ELBOW.z,RIGHT_ELBOW.v,LEFT_WRIST.x,LEFT_WRIST.y,LEFT_WRIST.z,LEFT_WRIST.v,RIGHT_WRIST.x,RIGHT_WRIST.y,RIGHT_WRIST.z,RIGHT_WRIST.v,LEFT_PINKY.x,LEFT_PINKY.y,LEFT_PINKY.z,LEFT_PINKY.v,RIGHT_PINKY.x,RIGHT_PINKY.y,RIGHT_PINKY.z,RIGHT_PINKY.v,LEFT_INDEX.x,LEFT_INDEX.y,LEFT_INDEX.z,LEFT_INDEX.v,RIGHT_INDEX.x,RIGHT_INDEX.y,RIGHT_INDEX.z,RIGHT_INDEX.v,LEFT_THUMB.x,LEFT_THUMB.y,LEFT_THUMB.z,LEFT_THUMB.v,RIGHT_THUMB.x,RIGHT_THUMB.y,RIGHT_THUMB.z,RIGHT_THUMB.v,LEFT_HIP.x,LEFT_HIP.y,LEFT_HIP.z,LEFT_HIP.v,RIGHT_HIP.x,RIGHT_HIP.y,RIGHT_HIP.z,RIGHT_HIP.v,LEFT_KNEE.x,LEFT_KNEE.y,LEFT_KNEE.z,LEFT_KNEE.v,RIGHT_KNEE.x,RIGHT_KNEE.y,RIGHT_KNEE.z,RIGHT_KNEE.v,LEFT_ANKLE.x,LEFT_ANKLE.y,LEFT_ANKLE.z,LEFT_ANKLE.v,RIGHT_ANKLE.x,RIGHT_ANKLE.y,RIGHT_ANKLE.z,RIGHT_ANKLE.v,LEFT_HEEL.x,LEFT_HEEL.y,LEFT_HEEL.z,LEFT_HEEL.v,RIGHT_HEEL.x,RIGHT_HEEL.y,RIGHT_HEEL.z,RIGHT_HEEL.v,LEFT_FOOT_INDEX.x,LEFT_FOOT_INDEX.y,LEFT_FOOT_INDEX.z,LEFT_FOOT_INDEX.v,RIGHT_FOOT_INDEX.x,RIGHT_FOOT_INDEX.y,RIGHT_FOOT_INDEX.z,RIGHT_FOOT_INDEX.v
0,0.7678409149539924,0.6025095410544834,0.17853427777313527,1.004272363178749,0.8619114779661345,0.5606889135691262,0.1861989871310241,0.9817329742803949,0.8157898800984142,0.5153659058331428,0.19210898775122337,1.0182799825242803,0.8145572368201711,0.515497298924933,0.17795233211403128,0.9583779288409028,0.8156895325642599,0.5350440806156721,0.19103354764691882,1.0380535538555784,0.7838386478516504,0.572757736096132,0.1505487079713858,0.9501533461590436,0.7863652737570833,0.5275974592422538,0.2083553404121387,0.9904190267092016,0.766480951991961,0.5264971901100288,0.18465117827997207,1.0134455366720767,0.8418437661258517,0.5790163190711487,0.17658525556325572,1.0103863594892548,0.8163997888461485,0.5245435724408104,0.15152785378800737,1.0237765715850997,0.7452545545914073,0.5927041367297095,0.1697840764832741,0.9775584648402084,0.7478428970036027,0.45448420577484155,0.24539786560936785,0.9894601650125036,0.7309823380437117,0.5135941869986904,0.10729674396368469,1.0334744547795565,0.7777621611920845,0.5748851743745388,0.22811623764009786,0.8417303855310203,0.6767764896542561,0.6453645217723479,0.129257157711648,0.9324968347349332,0.8296474253332984,0.6543441810679248,0.2827818590053762,0.8506699449618,0.7443147884529293,0.717765452615384,0.1306311008079231,0.9243090119871072,0.9264044580607379,0.6877528090631884,0.32766680603796056,0.7037593542994952,0.7883020036184747,0.7343509521062311,0.0802617391358049,0.7219039639637954,0.966637166575496,0.6930738430002495,0.28170105188675804,0.7311212742858978,0.7522086502082668,0.8087666078496065,0.10629273226471564,0.801461731862323,0.8597930532833883,0.7022710714739705,0.25042800825895845,0.7801832515859064,0.7162051453230088,0.8009192440842433,0.13041174334338096,0.7717269765320034,0.34138764998341686,0.5784115447284797,0.22788055493980663,0.9735593164880588,0.3104825599041727,0.5482411095535583,0.19477935424802686,1.0429858015456779,0.07960023165793775,0.6356658503558708,0.3439595521615655,0.051831324440010984,0.040740873529196114,0.6925168412521882,0.23927317507520732,0.09725221150631254,-0.22577982426977453,0.6750004251008151,0.3538015276400279,0.04866740396235215,-0.27241930849358453,0.7359982057290341,0.3197957102899105,0.24880220655849772,-0.30144043245367214,0.717401917112655,0.3932156264005112,0.09192890665719985,-0.3295685993480521,0.7370360088660938,0.2798329711241268,0.1055117134926076,-0.28223472725797605,0.7207833288606023,0.3389088958548727,0.15161691949371084,-0.28588518947189256,0.712235496347357,0.2907736439187551,0.2802005621786048
1,,,,,,,,,,,,,,,,,,,,,,,,,,,,,,,,,,,,,,,,,,,,,,,,,,,,,,,,,,,,,,,,,,,,,,,,,,,,,,,,,,,,,,,,,,,,,,,,,,,,,,,,,,,,,,,,,,,,,,,,,,,,,,,,,,,,
2,0.7804878198978682,0.6298919148642979,0.18873356721884735,1.0043421602177809,0.8762309459217058,0.5874797112795449,0.19596344950673747,0.9819437363043206,0.829325994362013,0.5431577635525642,0.20134339749148694,1.0185887345842168,0.8311776730278342,0.5417410452056032,0.18949838908459454,0.9585089994547636,0.8304269184229087,0.5630634492642012,0.1988812859162073,1.0382174666287107,0.7988673175142618,0.5998764189574601,0.158607654839036,0.9504602504749919,0.8004426538797567,0.5549310168479972,0.2157089072304017,0.9906419480806615,0.7827929613373851,0.5571845222633491,0.19042273595514142,1.013833920537433,0.8704179762802466,0.6043355973113526,0.1798941235254719,1.0109851477506684,0.8334678113021913,0.5485759864003136,0.1638880985130411,1.023854236437242,0.7636683298378193,0.6171962813143652,0.17978654115932918,0.977646441295897,0.7655430433459628,0.47601650290924097,0.25234708773178854,0.9894683904534823,0.7615616048855129,0.5240447289718044,0.1140037893306439,1.0335668419789585,0.7447306350646147,0.5893806663560451,0.23458302808859455,0.8282658750901939,0.715548474855035,0.6145107734508147,0.12881916258245327,0.9344875106611417,0.7998531288499113,0.691475788600426,0.293359546972284,0.834207440098061,0.794243299895921,0.6778409502426423,0.12459580126290462,0.9288679328473978,0.9026497650166432,0.7121348042642992,0.34338548043371747,0.6886533319415545,0.8423301345919009,0.6881926979596552,0.0734968857488337,0.7312680324719436,0.9383928302386448,0.7173629145601556,0.2912804806962333,0.7159592235618683,0.8142986765952976,0.7910866781163302,0.10326665500239901,0.8082712645046874,0.8251066416480819,0.7356361422938252,0.25580842930462105,0.7682821709775385,0.7738469558938202,0.7888918612335963,0.12886999955888312,0.7789014088096828,0.3563450904521232,0.5883869184734443,0.23969010239624733,0.973600920530112,0.3252173734286092,0.5540557810699768,0.20480131389406792,1.043006663171349,0.10081824372793605,0.6334713861491752,0.3588764492443479,0.050306879770525885,0.015140204890314202,0.665548898537497,0.24625304588782237,0.10654469483608552,-0.1642313083924196,0.6990207989220737,0.39905748022238696,0.05122913708899245,-0.324897803622066,0.7441942616181637,0.33392757313504495,0.2768287277643998,-0.23714425072074174,0.7501959754355615,0.43995987997909286,0.09864849589059826,-0.38390799544702636,0.7586803627326709,0.29390495251472687,0.12633350836012308,-0.19615320469988592,0.7432161329682683,0.3922777221859111,0.15282135055068716,-0.32394936019136766,0.7075155237368834,0.2998165566615655,0.29632418483447326
3,0.8062453088995732,0.6472899146277866,0.18103130274935594,1.0007224297452162,0.9034471430408914,0.6068173057886697,0.1897649363650248,0.970304200877227,0.8566953833393349,0.563416965079206,0.19527164281210407,1.004719627814655,0.8568024307834431,0.5643052179503542,0.18212449061406133,0.9496240926859648,0.8571590584408992,0.5812903708225813,0.1922755455780884,1.0310331399799986,0.8255342523102378,0.6186051520202043,0.151958010582734,0.940605754949632,0.8276292891652589,0.5735144337867789,0.20941158170403573,0.9813007677561072,0.8056172375444475,0.5767890859764229,0.18735917917683964,0.9966386361708254,0.8901313215984099,0.6257722885955322,0.17578312588413808,0.9976770995023775,0.8533501418414405,0.5677805433422997,0.15503845237172736,1.0187580393089462,0.7858208528176851,0.6341090396647375,0.17280799764547922,0.9733354161532272,0.7657280163805587,0.48974860840278656,0.2519536698137495,0.9894028253442295,0.7677862048742864,0.5354583627951992,0.11476737233677667,1.03237486829274,0.7252647860487764,0.5860505548524441,0.238379629006929,0.8228519852052452,0.7062853754625722,0.6192135203189483,0.12782042569421695,0.9204498419561551,0.7397817573188661,0.6631259121966174,0.3097311401070736,0.838529253681435,0.7639070445741821,0.6852380058685579,0.1305872727177286,0.9190479484113626,0.8260994919550086,0.6896488924181383,0.3589469725246351,0.6959624707164264,0.7984984788430218,0.715574714141601,0.08158202998036004,0.7197587331936843,0.866855427393044,0.700285945413427,0.31336516796360653,0.7226900780731292,0.7705063448970549,0.7983394905018892,0.11280327317016986,0.7962206358425781,0.7705696081253193,0.7131311569613362,0.2794148186514959,0.7761531431340631,0.7407244770829741,0.7922710273598476,0.13570530289585397,0.764462302822134,0.35583951112296286,0.589087034630976,0.24140003196857945,0.9736185635049656,0.3355946667625051,0.5402561137115783,0.21031526178371618,1.0429458068290336,0.08811674060139188,0.656668500616796,0.33951105091835243,0.053853374761113085,0.02066303937653763,0.6706855076149506,0.24984404945789573,0.10105673127884214,-0.2492983630939932,0.6992740590577243,0.32534661842218604,0.051366808917262356,-0.3109418118304862,0.7425393982606198,0.3384922610210918,0.2660718328183014,-0.3273346951504688,0.7440011454947656,0.3615540331279342,0.09575428805540076,-0.3704270871671745,0.7487784219100696,0.2982245451933238,0.12131917821142618,-0.2856916493251887,0.7432335971291875,0.2955678914124002,0.15638536558154806,-0.3066163424129566,0.7147680380992186,0.3090870837124462,0.2911212357873847
4,0.8434418163792349,0.6534806914527378,0.19472509586628947,1.0009450530934523,0.9370896983714447,0.6119259602877236,0.20135578378227834,0.9710437157049554,0.8893353575463518,0.5691168976544319,0.2061542797946232,1.0055851468614385,0.8870155426343306,0.5713076312232118,0.19123412470364193,0.9500778032419952,0.8903861316493087,0.5860926574474897,0.20650043005550117,1.0315311367870972,0.8581825922274238,0.6237462910506608,0.16575887530845224,0.9413241697331095,0.859782862168187,0.5792382678245597,0.2228985507103074,0.9819441998964575,0.8343215516983561,0.5897901106994758,0.19286036418204644,0.9974124832739442,0.9131385246888021,0.6300387890685547,0.18992248518327465,0.9988740799787569,0.8889825238271994,0.5763921628148033,0.16567632128909793,1.0190135048164537,0.8209723485548975,0.6420790151362341,0.18714770619654741,0.9736162732394088,0.8121949800057657,0.5050992482228854,0.25263167570535666,0.9894035405999667,0.7869500032006901,0.5573902494681728,0.12742493392268353,1.0324717258405,0.8621841103701356,0.5939900723504604,0.22417004863855572,0.8281759316812278,0.7186270929333005,0.625571070939981,0.12993659352135342,0.9207804689207242,0.9711920697185017,0.6840206780504993,0.274820532574081,0.8497274167139668,0.7875514896491702,0.6854497215668001,0.1291435326010569,0.9231944051298074,1.0861427900051213,0.7055014629518908,0.3248026889974791,0.7159594118060565,0.806678482791467,0.7174911226804194,0.08576156537234977,0.7313833078549392,1.1167218645370502,0.714003477571325,0.27600067442131704,0.7392847860389801,0.7993186267238588,0.8025236769604769,0.11129843740613249,0.8062757009976074,0.998711322443258,0.7302175436419392,0.24045516579258294,0.7947241027020868,0.7700689691661163,0.79691834190834,0.13478009614537312,0.775962661403677,0.3785410540490318,0.5890937103511908,0.2530996255202775,0.9736732805688694,0.3562303288503171,0.5417747804558105,0.23032250111892905,1.0429659531989675,0.09474236691222601,0.6520889565494132,0.3435232395191244,0.052186530869969286,0.04900302418573754,0.6723949688271088,0.2610386625189826,0.09882055872196503,-0.20956516498754899,0.7001573402886508,0.346138621646035,0.05059692552302105,-0.2507972833156028,0.7442722244935299,0.34699337682226133,0.26813288692882853,-0.2844211850419235,0.7441630913146203,0.3841167187370539,0.10317961118410107,-0.30647449469117755,0.7493341160133106,0.30616376924517635,0.1267297749397511,-0.2387762777133444,0.7437094806130742,0.3244063509926079,0.16577594325546013,-0.23287105669408958,0.7158813932589781,0.3191590045893261,0.29546012610148686
5,,,,,,,,,,,,,,,,,,,,,,,,,,,,,,,,,,,,,,,,,,,,,,,,,,,,,,,,,,,,,,,,,,,,,,,,,,,,,,,,,,,,,,,,,,,,,,,,,,,,,,,,,,,,,,,,,,,,,,,,,,,,,,,,,,,,
6,,,,,,,,,,,,,,,,,,,,,,,,,,,,,,,,,,,,,,,,,,,,,,,,,,,,,,,,,,,,,,,,,,,,,,,,,,,,,,,,,,,,,,,,,,,,,,,,,,,,,,,,,,,,,,,,,,,,,,,,,,,,,,,,,,,,
7,,,,,,,,,,,,,,,,,,,,,,,,,,,,,,,,,,,,,,,,,,,,,,,,,,,,,,,,,,,,,,,,,,,,,,,,,,,,,,,,,,,,,,,,,,,,,,,,,,,,,,,,,,,,,,,,,,,,,,,,,,,,,,,,,,,,
8,,,,,,,,,,,,,,,,,,,,,,,,,,,,,,,,,,,,,,,,,,,,,,,,,,,,,,,,,,,,,,,,,,,,,,,,,,,,,,,,,,,,,,,,,,,,,,,,,,,,,,,,,,,,,,,,,,,,,,,,,,,,,,,,,,,,
9,,,,,,,,,,,,,,,,,,,,,,,,,,,,,,,,,,,,,,,,,,,,,,,,,,,,,,,,,,,,,,,,,,,,,,,,,,,,,,,,,,,,,,,,,,,,,,,,,,,,,,,,,,,,,,,,,,,,,,,,,,,,,,,,,,,,
10,0.7339068060025441,0.656838101883646,0.25315515508018155,1.000948629372139,0.8199524532469831,0.6313519484850503,0.2594873684841584,0.9720172979727166,0.7692733420733696,0.59196311957826,0.2621755166930814,1.0069257149270818,0.7641910577290402,0.5975517947363954,0.24526678828427612,0.9507946683047088,0.7507888254458621,0.6000385349995222,0.27664000490445706,1.0314894135357542,0.721674579544431,0.6376746448371293,0.23820061996966763,0.9412540150662091,0.7263277846572261,0.5930849632476859,0.29761378835206037,0.9818755353456762,0.710889963982839,0.6465917278450142,0.24164120122424826,0.999106447278461,0.6818430240198823,0.6710943491805542,0.28680295288192004,0.9990673778417635,0.7859297555429016,0.5884905347973778,0.21868373752797304,1.0194027827514816,0.6853487978566702,0.6488914088015478,0.2532162415337071,0.9735452245028368,0.6777001744712029,0.6342927926107028,0.255047053332704,0.9894213027841099,0.5632619279405836,0.6443966991675747,0.2550959361822403,1.0326035117100987,0.6647318808748012,0.6325437871026577,0.15283807997913756,0.8376091415773155,0.40708211552517976,0.6367822277850738,0.31788002635307805,0.8467689046659634,0.6412054709512893,0.5544497766566089,0.16863105542904394,0.8616388089258809,0.34897211770876596,0.5534338972488679,0.36728828728994667,0.8811712232145242,0.7007649328273374,0.5521098036920946,0.1996308005468383,0.7390458404483294,0.3355074700753659,0.5436908330495295,0.3409972666239968,0.7106347521946914,0.7415432693542122,0.5409124832132622,0.16575438090217642,0.7566811168724151,0.29497766499778183,0.636271838753232,0.3665018690291197,0.785298799943225,0.6660446630979954,0.5596079502505208,0.13904266899322118,0.8085880238675531,0.3162030565813441,0.6340277884339137,0.3726188970012817,0.758786569732687,0.44087735244518994,0.6358747734310248,0.2226786745445256,0.9737530911882236,0.3115675603709052,0.566574306193573,0.2735986021652991,1.0429948614516835,0.4219461732864848,0.5569843217876029,0.2342576652337645,0.14725481797433748,0.17638211745896393,0.5216860550240082,0.32053964240307964,0.16401008420700375,0.36608357321979457,0.6697050888543247,0.194865777183927,0.14259019782755597,0.04478381470508566,0.5435906573014523,0.37338970981250663,0.3190508848851044,0.3178949381155465,0.7415235592253869,0.23155816805635682,0.19153811774442667,-0.0001286898229872352,0.5573318791702014,0.3271360603528973,0.1910731379863972,0.29556495186282017,0.7143819688256596,0.16175683607817823,0.24786723003391015,-0.003088517967794399,0.4291982510737669,0.3558914856226397,0.3337512525911261
11,0.6837615129066245,0.6768075652320347,0.26190916864517866,0.9980551814961622,0.7705768733503273,0.6508164412829018,0.2686149123485268,0.9712328412428278,0.7200242752071392,0.6114981842755256,0.2713939842045687,1.0055601725152776,0.7150516936211403,0.6171607095885377,0.2545686884445455,0.949551613437918,0.7060294361554174,0.6187120145565596,0.2846876012009604,1.0294108803631468,0.6769154269430526,0.6558178814742448,0.24622347772670744,0.9376689148922587,0.6815617449458312,0.6107164940094046,0.3055994713516706,0.9785513843065528,0.6604954972978545,0.662481074444593,0.25144636866774217,0.9979747338881105,0.6507910535633787,0.6845140965331543,0.2926402785575518,0.9920611498716401,0.7344819133311125,0.6074733624607994,0.22832919289398812,1.017518799139421,0.6396426225759339,0.6667056277995032,0.26164347624318407,0.9693408320696701,0.6190610202764191,0.6470646970792392,0.2754149215623128,0.9894224948770055,0.5443396965821302,0.6460479266417873,0.25628670306798357,1.0327109192799837,0.5563826999972943,0.6479648200082363,0.1986694055346304,0.8289787466417076,0.42758548980641436,0.6353073704547515,0.30747564999605376,0.7859012374677823,0.5117808258920491,0.5952973165583423,0.25359239484083307,0.8557550556261677,0.4521746459755566,0.5485414287964143,0.33923028000952216,0.8539988961728983,0.5657886655491102,0.590975310341112,0.29578161421014476,0.7433432161273456,0.4516324195888934,0.536636623340362,0.3083704402505486,0.7017983636067398,0.6001694276188747,0.5941161851862237,0.26403108870095915,0.7557385886245819,0.4155301621823917,0.6304795189786043,0.3349686853193526,0.7761590237133666,0.5369881170400446,0.6137036953371907,0.23030039302022423,0.8006162006520685,0.42378629622032205,0.631433973107223,0.3450375358510394,0.7494217859688015,0.44260166740117024,0.6430103434803107,0.2279096681560761,0.9738241399247958,0.3166198113218082,0.5742186614906616,0.27339300705774605,1.0430139349380119,0.4057300806367223,0.5569384858157707,0.24552280175807084,0.23284760941244026,0.17652560829198366,0.5412206428841156,0.3210441065315106,0.20614214890713045,0.3598221695070274,0.6624699194436191,0.1973690352080863,0.22634657016012896,0.0689226118293452,0.5526183171944882,0.3742361088099523,0.35635132257393193,0.3140479354410497,0.7377347899802392,0.2344334087573456,0.27157502613256457,0.025925123900218075,0.5663585257842761,0.3276980066388196,0.23796728597853137,0.3005894950438187,0.7006883977349614,0.1659606634483923,0.3225873594045996,0.026703825317778276,0.44235767514031055,0.3557974716422073,0.3562543603773047
12,0.5826110158356662,0.6535429187018833,0.3098198883092614,0.9983452773022841,0.6886297372800023,0.6225973970743752,0.327422124647539,0.9722861745252984,0.6390855933472281,0.5830573511837898,0.3308995680323505,1.0068982371858404,0.6352818146539183,0.5908281523871523,0.3149429421583459,0.9503087116358551,0.614019031782031,0.5927858418232527,0.34358117236972535,1.029994111812274,0.5843361174454869,0.6316877755019548,0.3047780843428988,0.938444311716142,0.5883666275670677,0.5885409435485892,0.36372377313553483,0.9790910447603491,0.6003183683462264,0.6457946349304329,0.30968969908217764,0.9998614593138307,0.546456710698008,0.672701767240857,0.3535316622251428,0.9939708826902436,0.6536458395035724,0.5958511123806908,0.2838022436924338,1.0181663440002608,0.5461973398641758,0.6561109617953222,0.31823060974410017,0.9700553725512375,0.5770928897971402,0.6681249850316623,0.3147910186660185,0.9894392437821873,0.4291144424526169,0.6362988121283901,0.29284280084147535,1.0328704809140477,0.6517374340402745,0.7202857581185879,0.21185792734855297,0.8339419062028648,0.33071391380940224,0.6261538851565948,0.33365307312512293,0.7249228248396085,0.7342923430917067,0.6617953577112964,0.2386298273107093,0.8605318910677571,0.3895593937749082,0.5429475328842439,0.35249674241119955,0.8060538139852457,0.8144386113927646,0.6601984162485521,0.27599228197460485,0.7615617930354571,0.3865899367704653,0.531464549499267,0.3198399908983762,0.6751617035077102,0.834994627069141,0.6591741185167596,0.24615769844010366,0.7688105428749176,0.3501560649624839,0.6270927234578219,0.3461868451729817,0.7488229031078979,0.7573621668316104,0.6757299576205159,0.21441889857894905,0.8075779635571894,0.36034921783841894,0.6283354852532191,0.3568736945557598,0.7233795629921169,0.4628859088818544,0.6493814243557074,0.23872133279511398,0.9738890493829562,0.3213351227711959,0.5683862873947448,0.280981640550413,1.0430379556098563,0.45228332118280085,0.5510188505199027,0.23474019478053415,0.30977883268571754,0.250132475572957,0.499190666039328,0.30377124692975344,0.27116652482265774,0.3734901317143306,0.6556117494111179,0.19786936373367608,0.2999737887642167,0.13677798165428637,0.5516214295106198,0.35882312927535465,0.3799469536965211,0.33281528732929516,0.7296786857970422,0.2419669417975556,0.34171905360410687,0.0937991792342437,0.5671885204627735,0.3137494125562306,0.28717458592627004,0.3028175565793135,0.6960558055337285,0.16511021885433272,0.38790427491668455,0.0775887216137013,0.441032157247473,0.33529220381702146,0.37979593008708257
13,0.5947504756079279,0.6486561126906834,0.32406846223273894,0.9987064814496228,0.6898315016583827,0.6183252341600991,0.33258317839857343,0.97324241184143,0.6400659224675339,0.5792307925938545,0.3359015032421108,1.0081238874963567,0.6355598906874627,0.5864982921767335,0.3194407274788592,0.9510575843928132,0.6140412579798115,0.5883727735287275,0.3493293925379856,1.030526142871539,0.5843698133780924,0.6276489051673295,0.3105410173936935,0.9391910983105327,0.5884117238078296,0.5849549493049674,0.3695010947126958,0.9797320331102636,0.6090555743680077,0.6404247928779732,0.3133550609926694,1.0014700098623843,0.5471784283689325,0.6711951406348694,0.3570602405088641,0.9952399847868012,0.6563740075316951,0.5910377392918541,0.28804876342672114,1.018751423193376,0.5463623609356345,0.6529377893214148,0.3223427268713496,0.9706887911112656,0.5919839733097753,0.6685850136800388,0.3149922971202947,0.9894548005944735,0.43533865940108124,0.6364426977408779,0.29669928035611337,1.0330146049451145,0.6402922693374454,0.7110739794778408,0.21105666687198443,0.8427537972818138,0.33592211491986007,0.6271169770068755,0.3351567142734336,0.6787314305105374,0.7145214962116127,0.6591231622767261,0.23685481518031026,0.8713075763781208,0.3922155313776257,0.5359767100731172,0.349296558618305,0.7755845752271585,0.7993816116094863,0.6588740606462877,0.27214101881353026,0.7832248627604937,0.394608412285016,0.5223072495038447,0.31496669304008923,0.6575986584828384,0.8151499263844206,0.6585863571146294,0.24348194056071643,0.7858516896301361,0.3617858244607713,0.6160219355511751,0.340121919758278,0.7309633845799133,0.7367508507029541,0.6748848233622456,0.21244630623525942,0.822510715212768,0.3656138395843038,0.6182029936646266,0.3521495873476939,0.7068792091789455,0.4694750453912014,0.6507658614399054,0.24118978442079136,0.9739471043069674,0.32247056978592686,0.5671922275459594,0.2841673674827745,1.0430560754218678,0.4482671417017024,0.5486730501201225,0.23762501871312125,0.37909563709474464,0.25169838814216305,0.5016749280289214,0.30134429076700897,0.32849144094700167,0.35269551795633747,0.6511920650010227,0.2036072566802307,0.36673236181948404,0.12302921180550883,0.5763989611344601,0.3610825415739917,0.38458079759529423,0.3133354942111805,0.7160215331443017,0.2511654571265005,0.40473704776952746,0.07999597757444561,0.5995716643645984,0.3180528079489408,0.3193492923853154,0.2654878073259005,0.6793382523949956,0.17253231123416268,0.44736852095130675,0.048509818985942435,0.48352883846085193,0.33893159077765206,0.38971137136172546
14,0.5508913920386296,0.6431410737235508,0.3329289538536396,0.9991935706067274,0.6464924052859129,0.6136028773638345,0.3423865364735856,0.9742759563818354,0.5969286994377853,0.5745053959607063,0.3458489511539831,1.009439779239063,0.5928088623712011,0.5808393675971132,0.32968645724559886,0.9518850756762298,0.5696245938085063,0.583684868217143,0.35906570517350245,1.0313123877407715,0.5399630116843922,0.6229937824103715,0.32027565326121427,0.9404135299702311,0.544016173155879,0.5803324302887015,0.37925176156132623,0.9808542693620947,0.5716327725879371,0.6345061708610664,0.3222201746161517,1.0031146808256717,0.50575129251406,0.66580133751521,0.36624120238567515,0.9971399424436617,0.6140265928532554,0.5825515279919579,0.2953527327451123,1.019286732508104,0.5029288612913716,0.6448679760699194,0.32963754651191535,0.9713859270365586,0.5744331380806653,0.6607459896131137,0.3188388131878525,0.9894682712441929,0.393955421043206,0.6302388078940762,0.3036401470343302,1.0331467484425816,0.64687913105313,0.6951131073045315,0.21637417159218686,0.8454304630647422,0.3022374133932316,0.6176390636272063,0.3411876467882502,0.6253996381559537,0.7168402067837714,0.6500894227099231,0.24627408831513692,0.873025799473061,0.3500450942074031,0.5202075860420503,0.34940046797695334,0.7224877443822794,0.7984144981229142,0.651546325222246,0.28290700150422615,0.7935341417254901,0.3617985859796553,0.5049743976170954,0.3113406839074142,0.6148633798764236,0.8172111928420458,0.6517601351717278,0.25401524441637896,0.7910376513534637,0.3441437308392133,0.5994721694874849,0.3331763256915378,0.6877686733715698,0.7408171936040271,0.6682814631861592,0.2219029282255546,0.8215391595029291,0.323838119667733,0.6025309655998988,0.350330176210219,0.666055332321188,0.474647351572287,0.6487211241008857,0.2373297931529597,0.9739996159990146,0.3136320382270385,0.5667386958038635,0.2852882877052881,1.0430750893035514,0.4507725073298557,0.5463811323192191,0.23776086339007146,0.44159983922220125,0.295061043716766,0.5404736774757904,0.30787055189983925,0.3702368056129867,0.3601422741247414,0.6522825915818332,0.20285463101632095,0.427135410811641,0.2622029967332269,0.5916457100587155,0.3363959967087859,0.4264727002804597,0.31858785514745663,0.7218175484069055,0.2468335656344047,0.4625826700706291,0.2290367114603326,0.6094490480735523,0.28929893847984045,0.3684746657488103,0.27904093903782284,0.6704384444650029,0.16984594629801128,0.5008514706850409,0.228000376237671,0.49537740737717273,0.3050026876051363,0.4320739421243598
15,0.5543355461959548,0.6425682134826145,0.3194295635945953,0.9996178960728834,0.643774611764693,0.6157221801134682,0.3280118275433778,0.9751708009138482,0.593802616016166,0.5766673756359992,0.33118153477085976,1.010610593276386,0.5893543662988644,0.5828431565451723,0.31474710568490694,0.9526006294367584,0.571987187158868,0.58493823468748,0.34433181788860345,1.0319253619076414,0.5424565365094933,0.6233871730658891,0.30562594577797947,0.9414195371647504,0.5466650842014221,0.5796620568489127,0.36473262994142297,0.9817705715662267,0.5515756437645961,0.6342883754890571,0.30932267001507846,1.004614750920734,0.5101454221938554,0.6604424031127442,0.35190710428141536,0.9988011238935518,0.6134443952379534,0.5780267009884789,0.28409550468267797,1.0197568939460921,0.509420654134982,0.6384324625735205,0.31776472606496853,0.972005457714354,0.5553322950941654,0.6523770206494907,0.3177329476151061,0.9894792981034763,0.4173778679536212,0.611514843202914,0.2994085605433609,1.0332506393384249,0.5863224299279641,0.6892424074220241,0.227106028209337,0.8521757419000389,0.3364768352300963,0.6029010403461089,0.3360819246730743,0.5843232760229276,0.6124108291371041,0.6525623002123645,0.2743015689904126,0.874469960411324,0.39318972031751515,0.5182171485344209,0.3408343570163358,0.6871502962621622,0.6834519908333095,0.6566161770975512,0.3160666175841955,0.7984517633380389,0.3961455321767493,0.5053738083417353,0.30433681566559734,0.5879587968991287,0.7079224042742804,0.658132944581823,0.2849687804187021,0.7907923186355682,0.3607316141966525,0.5998722358632174,0.32890096487619935,0.6613381857388183,0.6379606631600815,0.6741128240031148,0.25131273951445676,0.8194690901898798,0.3635099180737763,0.6023193095063014,0.3417498876755836,0.6416363822403164,0.47220080825671396,0.636269594598017,0.23760566772383868,0.9740464652498082,0.31570744977231646,0.5543765732681579,0.2847269128317212,1.0430877850928886,0.45133151804742316,0.545797900870092,0.2402834734020922,0.49788879681802645,0.297586673693957,0.5669115560844941,0.2947765350002436,0.38841348045582125,0.34832149396828277,0.6501492221360324,0.20572488944768014,0.48164460351679544,0.24096531589976558,0.6266294046120907,0.33645594373091137,0.4535627133076508,0.3050864663241796,0.7142614079840844,0.250801431899097,0.5145864411372948,0.20630167004079492,0.6434983802154285,0.29176035035267983,0.40530389891836593,0.26425220531615273,0.6544683335717534,0.17329994974423304,0.5488857214212775,0.20670244508096042,0.5418966272525084,0.30634015852159413,0.46058370798777837
16,,,,,,,,,,,,,,,,,,,,,,,,,,,,,,,,,,,,,,,,,,,,,,,,,,,,,,,,,,,,,,,,,,,,,,,,,,,,,,,,,,,,,,,,,,,,,,,,,,,,,,,,,,,,,,,,,,,,,,,,,,,,,,,,,,,,
17,0.6153121276236045,0.5993067450721226,0.29507984980991403,0.9998702025342177,0.6966394136107139,0.571070790991459,0.3040001175553138,0.9760339357748407,0.6464971627647127,0.5310973001240669,0.3070168980347205,1.0117715129426763,0.6419259739000829,0.5361320693183046,0.29045490504156407,0.9533273888705048,0.63280823064259,0.5405657953030195,0.3194503917720156,1.0322804863812132,0.6035929236832942,0.5782100113723161,0.28096778802924055,0.9421383691807416,0.6081569512110043,0.5336436351989798,0.3403118413268855,0.9824273551470067,0.5852184291224781,0.5794149089973579,0.28949915688956906,1.0060603423704715,0.5843451364700858,0.6072074087012757,0.3272344621778553,1.0001558778646518,0.6678703902148848,0.5301925430447533,0.2619426039184838,1.0201923058761764,0.5758636671627597,0.5917829469447058,0.2943470392622323,0.9725135277064194,0.5794284707845602,0.5620294325872043,0.3057923306502699,0.9894886560327061,0.4943848863572896,0.5710982448829067,0.28268454616385363,1.0329207276295933,0.5486231795888633,0.56266854677673,0.19766306532556507,0.8605351145158531,0.4024488880666133,0.5867407310313811,0.3286423113749066,0.5506876597204373,0.5304949642703043,0.5165566601824573,0.20389154799171255,0.8863402850229878,0.4195956590935117,0.5143748543182649,0.3693874823088982,0.652262922814744,0.5814489661566731,0.5210844535982531,0.23614409475420153,0.8179365217151141,0.419815365546605,0.5114805426175532,0.34030386370694843,0.559517665784169,0.619323049762128,0.5143912773111626,0.19869324370481392,0.8072792017990204,0.3784897917737724,0.5942083044934359,0.3698252760593059,0.633850430917041,0.5512010892403234,0.5292421851557637,0.17124798061557606,0.8375064689778742,0.39350937260374363,0.591923007759933,0.3777559742421149,0.6114683257522793,0.4419141799324691,0.5558449877979377,0.25279207067119996,0.9740630949457004,0.3556864206443359,0.5003827521240539,0.2766235761503228,1.0430935667434318,0.4466494963123636,0.5227098629024101,0.29699427306746595,0.5427924924013701,0.4210500311861597,0.5824223535851044,0.2170245801705911,0.44335000866169283,0.3013943289164061,0.4874690730576633,0.2889413095123621,0.5043205647728227,0.4217841014748718,0.7026026769356991,0.24660384332219734,0.5084441966240723,0.2482582471910998,0.5315484954245752,0.3295263586720358,0.5341133399982262,0.39593648809960336,0.7222420168235523,0.20217908653131983,0.4582916532633061,0.26580412354235244,0.45611659273465627,0.2714686177466212,0.5571901385546087,0.45524956311681386,0.6582696297816527,0.2089498162457297,0.5104319962854316
18,,,,,,,,,,,,,,,,,,,,,,,,,,,,,,,,,,,,,,,,,,,,,,,,,,,,,,,,,,,,,,,,,,,,,,,,,,,,,,,,,,,,,,,,,,,,,,,,,,,,,,,,,,,,,,,,,,,,,,,,,,,,,,,,,,,,
19,,,,,,,,,,,,,,,,,,,,,,,,,,,,,,,,,,,,,,,,,,,,,,,,,,,,,,,,,,,,,,,,,,,,,,,,,,,,,,,,,,,,,,,,,,,,,,,,,,,,,,,,,,,,,,,,,,,,,,,,,,,,,,,,,,,,
20,,,,,,,,,,,,,,,,,,,,,,,,,,,,,,,,,,,,,,,,,,,,,,,,,,,,,,,,,,,,,,,,,,,,,,,,,,,,,,,,,,,,,,,,,,,,,,,,,,,,,,,,,,,,,,,,,,,,,,,,,,,,,,,,,,,,
21,,,,,,,,,,,,,,,,,,,,,,,,,,,,,,,,,,,,,,,,,,,,,,,,,,,,,,,,,,,,,,,,,,,,,,,,,,,,,,,,,,,,,,,,,,,,,,,,,,,,,,,,,,,,,,,,,,,,,,,,,,,,,,,,,,,,
22,,,,,,,,,,,,,,,,,,,,,,,,,,,,,,,,,,,,,,,,,,,,,,,,,,,,,,,,,,,,,,,,,,,,,,,,,,,,,,,,,,,,,,,,,,,,,,,,,,,,,,,,,,,,,,,,,,,,,,,,,,,,,,,,,,,,
23,,,,,,,,,,,,,,,,,,,,,,,,,,,,,,,,,,,,,,,,,,,,,,,,,,,,,,,,,,,,,,,,,,,,,,,,,,,,,,,,,,,,,,,,,,,,,,,,,,,,,,,,,,,,,,,,,,,,,,,,,,,,,,,,,,,,
24,,,,,,,,,,,,,,,,,,,,,,,,,,,,,,,,,,,,,,,,,,,,,,,,,,,,,,,,,,,,,,,,,,,,,,,,,,,,,,,,,,,,,,,,,,,,,,,,,,,,,,,,,,,,,,,,,,,,,,,,,,,,,,,,,,,,
25,,,,,,,,,,,,,,,,,,,,,,,,,,,,,,,,,,,,,,,,,,,,,,,,,,,,,,,,,,,,,,,,,,,,,,,,,,,,,,,,,,,,,,,,,,,,,,,,,,,,,,,,,,,,,,,,,,,,,,,,,,,,,,,,,,,,
26,,,,,,,,,,,,,,,,,,,,,,,,,,,,,,,,,,,,,,,,,,,,,,,,,,,,,,,,,,,,,,,,,,,,,,,,,,,,,,,,,,,,,,,,,,,,,,,,,,,,,,,,,,,,,,,,,,,,,,,,,,,,,,,,,,,,
27,,,,,,,,,,,,,,,,,,,,,,,,,,,,,,,,,,,,,,,,,,,,,,,,,,,,,,,,,,,,,,,,,,,,,,,,,,,,,,,,,,,,,,,,,,,,,,,,,,,,,,,,,,,,,,,,,,,,,,,,,,,,,,,,,,,,
28,,,,,,,,,,,,,,,,,,,,,,,,,,,,,,,,,,,,,,,,,,,,,,,,,,,,,,,,,,,,,,,,,,,,,,,,,,,,,,,,,,,,,,,,,,,,,,,,,,,,,,,,,,,,,,,,,,,,,,,,,,,,,,,,,,,,
29,,,,,,,,,,,,,,,,,,,,,,,,,,,,,,,,,,,,,,,,,,,,,,,,,,,,,,,,,,,,,,,,,,,,,,,,,,,,,,,,,,,,,,,,,,,,,,,,,,,,,,,,,,,,,,,,,,,,,,,,,,,,,,,,,,,,
30,,,,,,,,,,,,,,,,,,,,,,,,,,,,,,,,,,,,,,,,,,,,,,,,,,,,,,,,,,,,,,,,,,,,,,,,,,,,,,,,,,,,,,,,,,,,,,,,,,,,,,,,,,,,,,,,,,,,,,,,,,,,,,,,,,,,
31,,,,,,,,,,,,,,,,,,,,,,,,,,,,,,,,,,,,,,,,,,,,,,,,,,,,,,,,,,,,,,,,,,,,,,,,,,,,,,,,,,,,,,,,,,,,,,,,,,,,,,,,,,,,,,,,,,,,,,,,,,,,,,,,,,,,
32,,,,,,,,,,,,,,,,,,,,,,,,,,,,,,,,,,,,,,,,,,,,,,,,,,,,,,,,,,,,,,,,,,,,,,,,,,,,,,,,,,,,,,,,,,,,,,,,,,,,,,,,,,,,,,,,,,,,,,,,,,,,,,,,,,,,
33,,,,,,,,,,,,,,,,,,,,,,,,,,,,,,,,,,,,,,,,,,,,,,,,,,,,,,,,,,,,,,,,,,,,,,,,,,,,,,,,,,,,,,,,,,,,,,,,,,,,,,,,,,,,,,,,,,,,,,,,,,,,,,,,,,,,
34,,,,,,,,,,,,,,,,,,,,,,,,,,,,,,,,,,,,,,,,,,,,,,,,,,,,,,,,,,,,,,,,,,,,,,,,,,,,,,,,,,,,,,,,,,,,,,,,,,,,,,,,,,,,,,,,,,,,,,,,,,,,,,,,,,,,
35,,,,,,,,,,,,,,,,,,,,,,,,,,,,,,,,,,,,,,,,,,,,,,,,,,,,,,,,,,,,,,,,,,,,,,,,,,,,,,,,,,,,,,,,,,,,,,,,,,,,,,,,,,,,,,,,,,,,,,,,,,,,,,,,,,,,
36,,,,,,,,,,,,,,,,,,,,,,,,,,,,,,,,,,,,,,,,,,,,,,,,,,,,,,,,,,,,,,,,,,,,,,,,,,,,,,,,,,,,,,,,,,,,,,,,,,,,,,,,,,,,,,,,,,,,,,,,,,,,,,,,,,,,
37,,,,,,,,,,,,,,,,,,,,,,,,,,,,,,,,,,,,,,,,,,,,,,,,,,,,,,,,,,,,,,,,,,,,,,,,,,,,,,,,,,,,,,,,,,,,,,,,,,,,,,,,,,,,,,,,,,,,,,,,,,,,,,,,,,,,
38,,,,,,,,,,,,,,,,,,,,,,,,,,,,,,,,,,,,,,,,,,,,,,,,,,,,,,,,,,,,,,,,,,,,,,,,,,,,,,,,,,,,,,,,,,,,,,,,,,,,,,,,,,,,,,,,,,,,,,,,,,,,,,,,,,,,
39,,,,,,,,,,,,,,,,,,,,,,,,,,,,,,,,,,,,,,,,,,,,,,,,,,,,,,,,,,,,,,,,,,,,,,,,,,,,,,,,,,,,,,,,,,,,,,,,,,,,,,,,,,,,,,,,,,,,,,,,,,,,,,,,,,,,
40,,,,,,,,,,,,,,,,,,,,,,,,,,,,,,,,,,,,,,,,,,,,,,,,,,,,,,,,,,,,,,,,,,,,,,,,,,,,,,,,,,,,,,,,,,,,,,,,,,,,,,,,,,,,,,,,,,,,,,,,,,,,,,,,,,,,
41,,,,,,,,,,,,,,,,,,,,,,,,,,,,,,,,,,,,,,,,,,,,,,,,,,,,,,,,,,,,,,,,,,,,,,,,,,,,,,,,,,,,,,,,,,,,,,,,,,,,,,,,,,,,,,,,,,,,,,,,,,,,,,,,,,,,
42,,,,,,,,,,,,,,,,,,,,,,,,,,,,,,,,,,,,,,,,,,,,,,,,,,,,,,,,,,,,,,,,,,,,,,,,,,,,,,,,,,,,,,,,,,,,,,,,,,,,,,,,,,,,,,,,,,,,,,,,,,,,,,,,,,,,
43,,,,,,,,,,,,,,,,,,,,,,,,,,,,,,,,,,,,,,,,,,,,,,,,,,,,,,,,,,,,,,,,,,,,,,,,,,,,,,,,,,,,,,,,,,,,,,,,,,,,,,,,,,,,,,,,,,,,,,,,,,,,,,,,,,,,
44,,,,,,,,,,,,,,,,,,,,,,,,,,,,,,,,,,,,,,,,,,,,,,,,,,,,,,,,,,,,,,,,,,,,,,,,,,,,,,,,,,,,,,,,,,,,,,,,,,,,,,,,,,,,,,,,,,,,,,,,,,,,,,,,,,,,
45,,,,,,,,,,,,,,,,,,,,,,,,,,,,,,,,,,,,,,,,,,,,,,,,,,,,,,,,,,,,,,,,,,,,,,,,,,,,,,,,,,,,,,,,,,,,,,,,,,,,,,,,,,,,,,,,,,,,,,,,,,,,,,,,,,,,
46,,,,,,,,,,,,,,,,,,,,,,,,,,,,,,,,,,,,,,,,,,,,,,,,,,,,,,,,,,,,,,,,,,,,,,,,,,,,,,,,,,,,,,,,,,,,,,,,,,,,,,,,,,,,,,,,,,,,,,,,,,,,,,,,,,,,
47,,,,,,,,,,,,,,,,,,,,,,,,,,,,,,,,,,,,,,,,,,,,,,,,,,,,,,,,,,,,,,,,,,,,,,,,,,,,,,,,,,,,,,,,,,,,,,,,,,,,,,,,,,,,,,,,,,,,,,,,,,,,,,,,,,,,
48,,,,,,,,,,,,,,,,,,,,,,,,,,,,,,,,,,,,,,,,,,,,,,,,,,,,,,,,,,,,,,,,,,,,,,,,,,,,,,,,,,,,,,,,,,,,,,,,,,,,,,,,,,,,,,,,,,,,,,,,,,,,,,,,,,,,
49,,,,,,,,,,,,,,,,,,,,,,,,,,,,,,,,,,,,,,,,,,,,,,,,,,,,,,,,,,,,,,,,,,,,,,,,,,,,,,,,,,,,,,,,,,,,,,,,,,,,,,,,,,,,,,,,,,,,,,,,,,,,,,,,,,,,
50,,,,,,,,,,,,,,,,,,,,,,,,,,,,,,,,,,,,,,,,,,,,,,,,,,,,,,,,,,,,,,,,,,,,,,,,,,,,,,,,,,,,,,,,,,,,,,,,,,,,,,,,,,,,,,,,,,,,,,,,,,,,,,,,,,,,
51,,,,,,,,,,,,,,,,,,,,,,,,,,,,,,,,,,,,,,,,,,,,,,,,,,,,,,,,,,,,,,,,,,,,,,,,,,,,,,,,,,,,,,,,,,,,,,,,,,,,,,,,,,,,,,,,,,,,,,,,,,,,,,,,,,,,
52,,,,,,,,,,,,,,,,,,,,,,,,,,,,,,,,,,,,,,,,,,,,,,,,,,,,,,,,,,,,,,,,,,,,,,,,,,,,,,,,,,,,,,,,,,,,,,,,,,,,,,,,,,,,,,,,,,,,,,,,,,,,,,,,,,,,
53,,,,,,,,,,,,,,,,,,,,,,,,,,,,,,,,,,,,,,,,,,,,,,,,,,,,,,,,,,,,,,,,,,,,,,,,,,,,,,,,,,,,,,,,,,,,,,,,,,,,,,,,,,,,,,,,,,,,,,,,,,,,,,,,,,,,
54,,,,,,,,,,,,,,,,,,,,,,,,,,,,,,,,,,,,,,,,,,,,,,,,,,,,,,,,,,,,,,,,,,,,,,,,,,,,,,,,,,,,,,,,,,,,,,,,,,,,,,,,,,,,,,,,,,,,,,,,,,,,,,,,,,,,
55,,,,,,,,,,,,,,,,,,,,,,,,,,,,,,,,,,,,,,,,,,,,,,,,,,,,,,,,,,,,,,,,,,,,,,,,,,,,,,,,,,,,,,,,,,,,,,,,,,,,,,,,,,,,,,,,,,,,,,,,,,,,,,,,,,,,
56,0.7213168884835948,0.7264298029143772,0.1999196076604238,1.000379345409889,0.8552120127459455,0.6858521110865212,0.19989180863726894,0.9768818118467706,0.8087384847868404,0.6458603811978278,0.20571093723582473,1.0128613242677496,0.8116596636277295,0.6465647537398439,0.19475532490668623,0.9540155840990814,0.7886575595797276,0.6618039673573103,0.20387033310465041,1.0330386574627564,0.7546194220051099,0.6992975028846147,0.16181163581143576,0.9432966662426615,0.7541707697895911,0.6544214209770255,0.2175524108124548,0.9834792579180027,0.8579047063292377,0.6625990916412483,0.18340912572357487,1.007377247392139,0.8495630650517325,0.7022259743560303,0.1741212942170265,1.001835357940488,0.7952400589056899,0.6355622897297813,0.1697080486262243,1.020624439550798,0.7064302435578311,0.698176463008396,0.19240902788209735,0.9731042097361435,0.831009229936429,0.6140075438542941,0.2486704221335396,0.9894923515206822,0.7484282063525419,0.6131413943541897,0.11636881153134834,1.0330768917989048,0.6516967393840666,0.5732269731568874,0.24344506085419854,0.8699073488603355,0.540627145052018,0.5761087525195708,0.17314837556772036,0.5993505606451199,0.5171212805192058,0.5855334796976855,0.31241696591469637,0.888918841560616,0.49955653288529933,0.5864548704544343,0.20754607012163923,0.6899191704305582,0.6094623764960792,0.5941956896936815,0.3579559243339381,0.8292860209407306,0.542661295756331,0.60010442395758,0.16188272226669204,0.5998183330700881,0.6347796653312021,0.5980393629053399,0.3123621969180318,0.811674090676889,0.5011211141595528,0.6964778347897616,0.19342470503067025,0.6722389811985656,0.5329522817088536,0.609495905439272,0.278311689473936,0.841077860083526,0.4727733837996738,0.6870349738930507,0.21529491468696574,0.6504993544998379,0.42564326443736167,0.5252843751194098,0.27716696634228816,0.9740492070634678,0.3657156219896752,0.4900078484451599,0.24760915529113137,1.0431026862540824,-0.10895667577262272,0.5224520132091117,0.4599265186794062,0.4941870205519285,-0.12033352896531158,0.5461384433105988,0.3197998552678139,0.43979390614742586,-0.6044123494694718,0.4642442424302219,0.528580166023139,0.49369120886538254,-0.5721752073956475,0.5024918838219906,0.4439176031835383,0.5387991136734803,-0.7068487844686565,0.4934867872126763,0.5777085515903053,0.5450571700115013,-0.6510895787806279,0.49229722145345034,0.41222181023878834,0.4973461364385839,-0.7875135242140354,0.47728154644330495,0.5363680807291257,0.5057715956926703,-0.703273749761212,0.4341137567214262,0.43730518421288816,0.469985476433747
57,0.709315017783937,0.7078737445075474,0.2109279609563435,1.0008341288495253,0.8228520182874017,0.6664651639315224,0.21674995949182993,0.9776559569731134,0.7773845925814779,0.6233002019642768,0.22324115629183516,1.013849688487415,0.7776382861715111,0.6248281318831544,0.21026675728301664,0.9546441746828827,0.7523506282731474,0.639842278361949,0.2195386677902494,1.033723872459094,0.7181413170117641,0.6770611556861283,0.17729866269813538,0.9443417144795085,0.7176690689477945,0.6319549998497062,0.23287804278283153,0.9844294751650121,0.7672102376551783,0.6391495515030037,0.2088054957936321,1.0085754795660586,0.7508761504648835,0.6786328466285217,0.20005684263229584,1.0033632038000155,0.7742015085067113,0.6243543515355064,0.1846636171005815,1.0210304067863631,0.6777461747333883,0.6892665222887915,0.20394147338804208,0.9736478040964952,0.7350258492673903,0.5675224774404147,0.27749740536964423,0.9895009345895299,0.664277078330635,0.5912994510901821,0.13988865324815555,1.033218810458115,0.6519296242354199,0.5195098367738308,0.2620065092989987,0.8781928713212731,0.5107713200919473,0.5479240405864348,0.18389332912378978,0.6427510270872281,0.5662826475839877,0.4819739260744861,0.3309260179645718,0.8911434061129231,0.5152340145995805,0.4974187633911409,0.22134843719258024,0.7194709148916177,0.6507708955041502,0.4719380099928301,0.3787031472385838,0.8389644443454242,0.5473231664922252,0.48864963908743225,0.1789412544785616,0.6306943735287673,0.6751332457624587,0.4767195920923516,0.33351164565247765,0.815540524774179,0.5168392267628121,0.5873729034352388,0.20915702846272058,0.7005864138119384,0.58410778528257,0.49813315014065757,0.29780404823173473,0.8398928601407465,0.4936806402997805,0.5879224036072536,0.23069028030012584,0.6785859571876736,0.4265726394315001,0.5259011639835456,0.27818215646490735,0.9740803206880406,0.3721719777240272,0.4714189180767364,0.25210915426815045,1.043115203229485,0.05442489712331481,0.5389860436465812,0.39916934886711136,0.4491714172480192,0.08056001557685011,0.5430148619011445,0.2886582693070101,0.43031491988415066,-0.3151337994221177,0.47080540251780734,0.4033931993618162,0.4887009291908525,-0.2414580569654126,0.4867315216737057,0.39275221910706837,0.5633440083687623,-0.39820884743864665,0.49356784952957083,0.4453255758342075,0.5559264346141625,-0.30995549510313214,0.47987206700589485,0.35290553221592164,0.5252881382581944,-0.44764522883690566,0.4999907968934392,0.3828072835272002,0.45989846036437737,-0.32377810938366536,0.4342559436015379,0.3660977651769827,0.43190061181735295
58,0.7983274924641105,0.6639761753280125,0.21795045191932924,1.0012583351063917,0.9026252532418113,0.6246524460169411,0.22288454600069926,0.978361437548675,0.8559299470482516,0.5805497837780891,0.2285256709652223,1.0147467383912847,0.8547226679718108,0.5816400963950258,0.21444619594237196,0.9552235914347442,0.8288250573804805,0.5998951262241926,0.22869689329883364,1.0343481119038267,0.7953149435783541,0.6380037220809343,0.18691528127162726,0.9452872825642253,0.7954536633988533,0.5938706716751151,0.2429623384661851,0.9852898682123448,0.8345787212695149,0.5977775503318916,0.2098587375580066,1.0096567078222842,0.8131012248866016,0.6452017934669007,0.21130250871860262,1.0047405479314853,0.8599022744274821,0.5794305691868736,0.1904865604503323,1.021399299932878,0.758605481697827,0.6467265084986609,0.21257349034653678,0.9741390059740892,0.7778236701385575,0.5280052536054233,0.27725832281415125,0.9895033187753207,0.704434328927704,0.5806906587851894,0.14947161598817651,1.0333458279561314,0.6850934385438844,0.48003677998061783,0.25746284490523147,0.8829316789994955,0.5355749662862611,0.5456463682956328,0.20330703897095123,0.6817830095091031,0.5799826186107182,0.4478794434141925,0.323882254709254,0.8876907474596638,0.4869034217546848,0.4767265341202058,0.241059824552102,0.7481775846990518,0.6703076972810986,0.44354882432579207,0.3821792564248784,0.8421491801204181,0.5063942569838559,0.4703407015378412,0.19865190513292366,0.661596818845082,0.7041148087940343,0.4554820101240441,0.33717520906020526,0.8136310899787994,0.4688928543749483,0.5671027942586031,0.22852531534321355,0.7304174656384155,0.6136574482001178,0.474752185146227,0.30109135053657077,0.8358850438260492,0.4581616850803193,0.5648105237816615,0.24755735521335903,0.7087268935623379,0.44308744005488004,0.49869116680642156,0.286221816373058,0.973914858194144,0.38304403855040575,0.4521735617554015,0.2641287224535898,1.042952303735314,0.17276254396552623,0.5663025543239188,0.3940816815674132,0.4103875689623441,0.15068271265604846,0.5953365939453644,0.30653904801354925,0.39676811450237576,-0.1323771363868144,0.5935968120103,0.3962105706413622,0.4526730804703019,-0.13233371464566288,0.6513600273804928,0.4124082186350364,0.5229479438488801,-0.20932399288357412,0.6274518920310205,0.43599715635952674,0.5162366553325463,-0.19282928240486175,0.653252203495763,0.3745684449241277,0.48336890684339956,-0.22982964530567954,0.6524703262742375,0.38177621910040155,0.4205955748319983,-0.1894816538818464,0.6399043658427489,0.4026573936448153,0.3933014783258368
59,1.0198037032994607,0.6592361159522495,0.16761385771673384,1.0016363477635573,1.1210568432498098,0.6152231104227639,0.17683272191923557,0.9789936044111626,1.0758421318861977,0.5728156638859687,0.18352680382958703,1.0155498513749883,1.076264948605116,0.575360329835425,0.17061623513648788,0.9557422114489348,1.0559364177701147,0.586149639487895,0.17923982516718173,1.0349086935879392,1.0220338861288865,0.6228115710112931,0.13726853422044222,0.9461352778454447,1.021788559664317,0.5771634301399283,0.1931087618224635,0.9860623444086339,0.9835404713597872,0.5923126388710152,0.18614551668859286,1.0106191440214725,0.9863078097426875,0.6252027662147034,0.1750022675224635,1.0059718010786105,1.050818403295437,0.5789486060292198,0.14761553234607816,1.021712462736528,0.9594292001769348,0.6422844723467749,0.16571274971056082,0.9745658348353256,0.8382824760329821,0.5523303859754184,0.27802615254419205,0.9894903845674046,0.7968532210158611,0.5562178857100857,0.12704156490305288,1.0334327911328585,0.7123671564139468,0.6287250963258327,0.24662865019130104,0.8877873713861227,0.6550738904132437,0.6067737329311004,0.1744801332527832,0.7172543296613858,0.6800421570245587,0.6879535117220691,0.261497791958143,0.8942308075029988,0.7457458750106818,0.6132333896080293,0.175532369205627,0.7772811618360452,0.7858078965703036,0.7062300105249804,0.3043973235684399,0.8563912331523394,0.8030251177617637,0.6234130587155756,0.11843563022512141,0.6936756214306838,0.8346830049458792,0.7044311504343316,0.2529722757840844,0.8258744204574676,0.773392619818054,0.7203279181408968,0.1520660451325206,0.7617577070706054,0.7092581225859608,0.7130275640887166,0.22468422269684793,0.8486108142995294,0.7268748815687207,0.711963245663528,0.1841039197627663,0.7407126532974453,0.4582401286820076,0.4952374948742011,0.2894987360449623,0.973857280107291,0.37206076439293345,0.4384347507393188,0.2641099202214139,1.04286849960476,0.12646917929265053,0.5545744463946891,0.41022730192195395,0.3790612750170316,0.04790989048769029,0.5770461338356537,0.32147450109202264,0.35761388295406643,-0.31775406160276287,0.5285579521660922,0.44167262945122227,0.42530069043848734,-0.3445038604686753,0.5853585525231625,0.4506839055993488,0.4862029618447144,-0.40716848115696525,0.558558459413833,0.48467287353189276,0.4876892789382744,-0.4153084598423403,0.5821392131164295,0.41481045059942223,0.4526900087473149,-0.4069081738328962,0.5664006827767705,0.42649666949155346,0.38271774694923155,-0.38638990192027145,0.5517105916194213,0.4374929621988429,0.35634570449542297
60,,,,,,,,,,,,,,,,,,,,,,,,,,,,,,,,,,,,,,,,,,,,,,,,,,,,,,,,,,,,,,,,,,,,,,,,,,,,,,,,,,,,,,,,,,,,,,,,,,,,,,,,,,,,,,,,,,,,,,,,,,,,,,,,,,,,
61,,,,,,,,,,,,,,,,,,,,,,,,,,,,,,,,,,,,,,,,,,,,,,,,,,,,,,,,,,,,,,,,,,,,,,,,,,,,,,,,,,,,,,,,,,,,,,,,,,,,,,,,,,,,,,,,,,,,,,,,,,,,,,,,,,,,
62,,,,,,,,,,,,,,,,,,,,,,,,,,,,,,,,,,,,,,,,,,,,,,,,,,,,,,,,,,,,,,,,,,,,,,,,,,,,,,,,,,,,,,,,,,,,,,,,,,,,,,,,,,,,,,,,,,,,,,,,,,,,,,,,,,,,
63,,,,,,,,,,,,,,,,,,,,,,,,,,,,,,,,,,,,,,,,,,,,,,,,,,,,,,,,,,,,,,,,,,,,,,,,,,,,,,,,,,,,,,,,,,,,,,,,,,,,,,,,,,,,,,,,,,,,,,,,,,,,,,,,,,,,
64,,,,,,,,,,,,,,,,,,,,,,,,,,,,,,,,,,,,,,,,,,,,,,,,,,,,,,,,,,,,,,,,,,,,,,,,,,,,,,,,,,,,,,,,,,,,,,,,,,,,,,,,,,,,,,,,,,,,,,,,,,,,,,,,,,,,
65,,,,,,,,,,,,,,,,,,,,,,,,,,,,,,,,,,,,,,,,,,,,,,,,,,,,,,,,,,,,,,,,,,,,,,,,,,,,,,,,,,,,,,,,,,,,,,,,,,,,,,,,,,,,,,,,,,,,,,,,,,,,,,,,,,,,
66,,,,,,,,,,,,,,,,,,,,,,,,,,,,,,,,,,,,,,,,,,,,,,,,,,,,,,,,,,,,,,,,,,,,,,,,,,,,,,,,,,,,,,,,,,,,,,,,,,,,,,,,,,,,,,,,,,,,,,,,,,,,,,,,,,,,
67,,,,,,,,,,,,,,,,,,,,,,,,,,,,,,,,,,,,,,,,,,,,,,,,,,,,,,,,,,,,,,,,,,,,,,,,,,,,,,,,,,,,,,,,,,,,,,,,,,,,,,,,,,,,,,,,,,,,,,,,,,,,,,,,,,,,
68,,,,,,,,,,,,,,,,,,,,,,,,,,,,,,,,,,,,,,,,,,,,,,,,,,,,,,,,,,,,,,,,,,,,,,,,,,,,,,,,,,,,,,,,,,,,,,,,,,,,,,,,,,,,,,,,,,,,,,,,,,,,,,,,,,,,
69,,,,,,,,,,,,,,,,,,,,,,,,,,,,,,,,,,,,,,,,,,,,,,,,,,,,,,,,,,,,,,,,,,,,,,,,,,,,,,,,,,,,,,,,,,,,,,,,,,,,,,,,,,,,,,,,,,,,,,,,,,,,,,,,,,,,
70,,,,,,,,,,,,,,,,,,,,,,,,,,,,,,,,,,,,,,,,,,,,,,,,,,,,,,,,,,,,,,,,,,,,,,,,,,,,,,,,,,,,,,,,,,,,,,,,,,,,,,,,,,,,,,,,,,,,,,,,,,,,,,,,,,,,
71,0.5327401732804546,0.5882798857886753,0.3322326248449217,1.0017142510342787,0.6178081631018341,0.5494088537546731,0.34250699503704707,0.9793160059347528,0.5692733987182723,0.5090855432270942,0.3466994436874216,1.0159956345132635,0.5662479052734277,0.513853343217383,0.33130765987752325,0.9560246182558808,0.5693670513711679,0.5148077076679792,0.3513874705231014,1.0351478274227783,0.53910670039758,0.5495762976500871,0.3120712858176037,0.9465295029659891,0.5426728561400528,0.5022082051490836,0.3705778399690591,0.9864962662225988,0.5000649593080001,0.5444363404434334,0.3350229329575562,1.0112023754705997,0.5705822173843684,0.5568926246512879,0.3465686253069977,1.0065515754583407,0.5787025173522319,0.5194432029873802,0.30184031243594256,1.021869818998735,0.5072889179951677,0.5749708012347143,0.3266472103612815,0.9747646759302964,0.4775336998505615,0.5598159544988254,0.36334869118327767,0.9894980139619359,0.5210849582830522,0.4965982801688563,0.2807790793430814,1.0335195158910069,0.5000463594209349,0.6653274146127285,0.26077514435042365,0.8495580251107933,0.44345861205144826,0.5128877151317228,0.29738800281066735,0.6890915522375272,0.6487191861837223,0.6508710184168628,0.2741025702971383,0.8766172177393574,0.46601609701880153,0.44271999811327833,0.30829238653933244,0.7376647558721475,0.7276797279995073,0.659005608097307,0.3107801995763763,0.8402730047168231,0.47750127509233875,0.43417030830931025,0.26735046926933087,0.6591827115223892,0.7613199379828925,0.6528091769197747,0.27582299606076677,0.8096306646400543,0.4426217321339407,0.5250198288846102,0.29359804901446357,0.7275008315556213,0.676089750478462,0.664824274579897,0.24521114858886087,0.8332658369206842,0.4356559523496422,0.5275686178540034,0.31019894106955137,0.7082755075874538,0.3944833764493388,0.589839900899134,0.2671854742984176,0.9739136064966039,0.3989370926292799,0.4813551613724059,0.2590867784536568,1.042903487531243,0.5484196447058937,0.6345330640819145,0.2938668104903886,0.3985781304953184,0.6067443798689235,0.5667041319206757,0.18705291564137866,0.39517130606884304,0.42523622860587845,0.6228869516854404,0.1974488559626351,0.4492454259655259,0.5220678985654171,0.6009097023682858,0.18388961322515107,0.5199812418644745,0.3709265803536131,0.6543520046599572,0.22665244076589616,0.4966469033736992,0.48772684192067856,0.6078654718711597,0.13675692022503189,0.45361090050909475,0.41539270848628407,0.6417312978204106,0.14233549133598164,0.4161190275907873,0.5489895541238021,0.5468112686328185,0.12389310875371382,0.4011602613325049
72,0.7260868258719764,0.5390983052451572,0.29393736275106624,1.0015968894887162,0.8129320531550095,0.5070664889666177,0.3048859883000653,0.9794692494764702,0.7644176071352266,0.4709414315937935,0.30914142964299735,1.016192627864246,0.7615720966569043,0.4798267204451661,0.29382834417427606,0.9560954881785186,0.74633822159566,0.4652639991051282,0.31724735130096987,1.0350426252247495,0.7160877778257666,0.499068156132448,0.27793469748254185,0.9464675141354227,0.7195920416816174,0.45067450611343907,0.3364573902313927,0.9865767920976903,0.6791766511331385,0.5322709132354866,0.30291083085286324,1.0116984053244205,0.6629141759583274,0.5206968696464049,0.33066897190735467,1.0064537642362643,0.7655258827567956,0.48495357133454814,0.26550779551597997,1.0219285295738387,0.6685678573536897,0.5334963396792334,0.2947069507394864,0.9747357080729355,0.6141965545571036,0.5832140558286288,0.341225711500255,0.9895070142632969,0.5476576454187867,0.4800849027408015,0.281213380908156,1.033600160975388,0.5491595170118432,0.6654974070596279,0.25127197346550545,0.8305064732919456,0.4424220602928546,0.48592173937030936,0.29701789622754343,0.6635002980032132,0.5551694526070158,0.5863296189379504,0.28368335370190334,0.8478984481890339,0.49863272052664687,0.40603926991618056,0.2906276723552702,0.7159283724340372,0.6121274462902082,0.5769681592142504,0.3231897056246279,0.8072919070186114,0.5063038841913142,0.37931126614164673,0.252830177596885,0.6379283508465774,0.639770852033686,0.5747300724962517,0.29163068143817716,0.7747574770980926,0.48236009269591723,0.47089362582446004,0.27634195867542927,0.706396018933551,0.5751728129748881,0.5920404467982198,0.25783623830750485,0.7958588559293207,0.47504188036022993,0.481309244427566,0.29266845503469696,0.6880597578468532,0.4403250697865408,0.6071489109279731,0.25883140254748793,0.9739693964441134,0.35694978747675604,0.4820404955780334,0.2701490013504246,1.0429368065276723,0.6525667929055554,0.6493167445209098,0.27305998732048875,0.44739391733384987,0.49579459840721907,0.5514380114868683,0.24362628834877179,0.38506441467518154,0.5179862001169283,0.6585456092362522,0.18467862962540088,0.4910538821480058,0.31602108484634106,0.6182640119271542,0.2874547166554384,0.4995655483429749,0.46596428253506356,0.6958019091017907,0.21729136447843164,0.5270236655254174,0.26898917156561664,0.6358030033424121,0.24323589464123982,0.44246307359907583,0.5010518681410165,0.6849061606820439,0.12582255921727567,0.46573923871520745,0.2991497152056767,0.5511290887049926,0.24377425208930495,0.40914376705836547
73,,,,,,,,,,,,,,,,,,,,,,,,,,,,,,,,,,,,,,,,,,,,,,,,,,,,,,,,,,,,,,,,,,,,,,,,,,,,,,,,,,,,,,,,,,,,,,,,,,,,,,,,,,,,,,,,,,,,,,,,,,,,,,,,,,,,
74,,,,,,,,,,,,,,,,,,,,,,,,,,,,,,,,,,,,,,,,,,,,,,,,,,,,,,,,,,,,,,,,,,,,,,,,,,,,,,,,,,,,,,,,,,,,,,,,,,,,,,,,,,,,,,,,,,,,,,,,,,,,,,,,,,,,
75,,,,,,,,,,,,,,,,,,,,,,,,,,,,,,,,,,,,,,,,,,,,,,,,,,,,,,,,,,,,,,,,,,,,,,,,,,,,,,,,,,,,,,,,,,,,,,,,,,,,,,,,,,,,,,,,,,,,,,,,,,,,,,,,,,,,
76,,,,,,,,,,,,,,,,,,,,,,,,,,,,,,,,,,,,,,,,,,,,,,,,,,,,,,,,,,,,,,,,,,,,,,,,,,,,,,,,,,,,,,,,,,,,,,,,,,,,,,,,,,,,,,,,,,,,,,,,,,,,,,,,,,,,
77,0.7662012190756141,0.5494508571822605,0.15663723710184904,1.0019302582669447,0.8391994755591499,0.5178768045755959,0.16184701490720713,0.9799828030958551,0.7881512465804079,0.47555357940186843,0.16424822366849207,1.0168386230043218,0.7827290406689699,0.47814622709036875,0.14706976075746186,0.956520767318991,0.8006028998707941,0.49566680848661326,0.17508142532754906,1.0355257804752989,0.7726574914470483,0.5374896081778886,0.13743073315405918,0.9471844388027811,0.7784268710811056,0.49705133049240635,0.19761516760532244,0.9872067535883216,0.6741263625926074,0.53076667081529,0.1582857629599158,1.0124480529417605,0.782278627643267,0.5886716158736695,0.18426560874412523,1.0075107334020663,0.803607482867207,0.47651784516877665,0.13589523383487684,1.0221973465217757,0.7432704457771679,0.5482965306048315,0.16513475559719115,0.9751019786150804,0.5967990492005082,0.5106589906735995,0.21953347622634775,0.9895101733094699,0.7245035538607026,0.5942939884436977,0.17898653236243603,1.0336076711606297,0.5475467626184066,0.45485325131888993,0.1737233599251472,0.8189653451333763,0.6541427210460676,0.6265614021129241,0.2798831109346977,0.6797969231405423,0.5503865913337447,0.3484495678019336,0.21935364175434272,0.8401367909510273,0.6091211165752035,0.532270612470273,0.3373617537772867,0.682476100018876,0.6079938246691888,0.3368327875292223,0.2601252486205215,0.796572905725429,0.62542231137032,0.5212969507749018,0.31004785283338354,0.5991029581234939,0.6524163424560697,0.3412962000349328,0.2215053441294235,0.7669069493347259,0.5763479131563154,0.6066957159924593,0.3303799335325431,0.6654362434857055,0.5815319479821675,0.3642183814448262,0.1915980202453192,0.7881454784535822,0.5739868911426049,0.6074838135575099,0.34023685142787863,0.6485822307052822,0.44177008455231775,0.5154211475135901,0.2886906796137282,0.9736790622194126,0.45146273541123,0.501066059771759,0.31103656360069803,1.0426319883742912,0.23055807171510193,0.45533715338969943,0.42441434026132113,0.45810671974397554,0.27875432613625406,0.5068569260433715,0.38070431532003834,0.41618921511883084,0.0417581909548719,0.4290988702778933,0.4534093151340286,0.5107709198257707,0.11324037554125163,0.4851886852460171,0.4950267111317125,0.5182967549984772,-0.014021437205321164,0.4719290090926354,0.49948596981035304,0.5303538366336632,0.07216125155962523,0.49016811373975105,0.4592956868096237,0.4380780492899175,0.013392664423012034,0.39930767402013295,0.43573543033470463,0.4947411303282141,0.1455789264625918,0.366782889669348,0.4715848705269958,0.4297657820577552
78,0.8629630105127369,0.5758452840049229,0.15165289132893525,1.0022283410954664,0.934445627820788,0.5438738472315408,0.1518857967335515,0.9804366924658197,0.8826282892996024,0.4997395945309578,0.15375075344189088,1.0174135098031805,0.8764664711924831,0.5005933959174257,0.1360027488042263,0.9568926406977448,0.8900120072698481,0.5252226060635176,0.16764561748406726,1.0359559471966429,0.8621538093730002,0.5670982750747087,0.13006607092963035,0.9478278113384867,0.8680579909135453,0.5267280062889151,0.19033112424877086,0.9877691830164219,0.7659099134150279,0.5425207067649971,0.1435490835187655,1.0131141944517703,0.8441234015602023,0.6113853366721619,0.17901305441650034,1.008461904323392,0.8946047101953613,0.5010596404225304,0.12707039254029512,1.0224180029167345,0.8259334756064814,0.5757641986613196,0.1592137637230106,0.9754094193728318,0.6503996212106998,0.5106276386304477,0.20831929130352958,0.9894937224275119,0.7745224453739242,0.6131557590735806,0.1762539283259865,1.0335602854680332,0.5332228613210069,0.4552322176503718,0.17711911418298482,0.8134342129121543,0.7166358777433879,0.6339685309238067,0.28538949431522803,0.6989455709257291,0.42381490102110136,0.35819307947872187,0.24793596806019064,0.8320971972544331,0.6828311478670939,0.5340014717499055,0.35487847617484813,0.6751782861265115,0.45735544416879564,0.3421072919523638,0.2892419311752248,0.7857331454219317,0.7000829195410685,0.5259623255307612,0.3303715031209645,0.5807662448094375,0.4985809687217526,0.3464434485414788,0.2516522887273118,0.7605408752494903,0.6541093032038633,0.607084576694974,0.35227851272715155,0.6465024108402893,0.44518094242397477,0.3750908348959828,0.21848385658590677,0.7832485396527704,0.6515042285239033,0.6072794292305751,0.36040464407900336,0.6325180636825771,0.440643529967522,0.5219783140899756,0.28882938580280315,0.973650809617789,0.4535720901302471,0.5189695665275879,0.31159344560266183,1.0425105737128835,0.20233125197288745,0.45494528265262363,0.4298946728833954,0.47717749406076326,0.24978288716539954,0.5195066707924407,0.38658669396453615,0.42717160933727566,-0.024592654826274964,0.4343783814911959,0.4647636734275547,0.5233852892181657,0.04339310620866019,0.49466713506748927,0.5018908826023463,0.5202327734654267,-0.08587304342321721,0.48018845452148373,0.5107481376102111,0.5303468032855797,-0.004742074516249958,0.49914245727803536,0.4649895629949091,0.4198396538374181,-0.05825630440018085,0.40379080757459157,0.44954271827857206,0.5194162313700079,0.06403508485986927,0.3785492637805235,0.48216695419767075,0.437946251332276
79,,,,,,,,,,,,,,,,,,,,,,,,,,,,,,,,,,,,,,,,,,,,,,,,,,,,,,,,,,,,,,,,,,,,,,,,,,,,,,,,,,,,,,,,,,,,,,,,,,,,,,,,,,,,,,,,,,,,,,,,,,,,,,,,,,,,
80,,,,,,,,,,,,,,,,,,,,,,,,,,,,,,,,,,,,,,,,,,,,,,,,,,,,,,,,,,,,,,,,,,,,,,,,,,,,,,,,,,,,,,,,,,,,,,,,,,,,,,,,,,,,,,,,,,,,,,,,,,,,,,,,,,,,
81,,,,,,,,,,,,,,,,,,,,,,,,,,,,,,,,,,,,,,,,,,,,,,,,,,,,,,,,,,,,,,,,,,,,,,,,,,,,,,,,,,,,,,,,,,,,,,,,,,,,,,,,,,,,,,,,,,,,,,,,,,,,,,,,,,,,
82,,,,,,,,,,,,,,,,,,,,,,,,,,,,,,,,,,,,,,,,,,,,,,,,,,,,,,,,,,,,,,,,,,,,,,,,,,,,,,,,,,,,,,,,,,,,,,,,,,,,,,,,,,,,,,,,,,,,,,,,,,,,,,,,,,,,
83,,,,,,,,,,,,,,,,,,,,,,,,,,,,,,,,,,,,,,,,,,,,,,,,,,,,,,,,,,,,,,,,,,,,,,,,,,,,,,,,,,,,,,,,,,,,,,,,,,,,,,,,,,,,,,,,,,,,,,,,,,,,,,,,,,,,
84,,,,,,,,,,,,,,,,,,,,,,,,,,,,,,,,,,,,,,,,,,,,,,,,,,,,,,,,,,,,,,,,,,,,,,,,,,,,,,,,,,,,,,,,,,,,,,,,,,,,,,,,,,,,,,,,,,,,,,,,,,,,,,,,,,,,
85,,,,,,,,,,,,,,,,,,,,,,,,,,,,,,,,,,,,,,,,,,,,,,,,,,,,,,,,,,,,,,,,,,,,,,,,,,,,,,,,,,,,,,,,,,,,,,,,,,,,,,,,,,,,,,,,,,,,,,,,,,,,,,,,,,,,
86,,,,,,,,,,,,,,,,,,,,,,,,,,,,,,,,,,,,,,,,,,,,,,,,,,,,,,,,,,,,,,,,,,,,,,,,,,,,,,,,,,,,,,,,,,,,,,,,,,,,,,,,,,,,,,,,,,,,,,,,,,,,,,,,,,,,
87,,,,,,,,,,,,,,,,,,,,,,,,,,,,,,,,,,,,,,,,,,,,,,,,,,,,,,,,,,,,,,,,,,,,,,,,,,,,,,,,,,,,,,,,,,,,,,,,,,,,,,,,,,,,,,,,,,,,,,,,,,,,,,,,,,,,
