frame,NOSE.x,NOSE.y,NOSE.z,NOSE.v,LEFT_EYE_INNER.x,LEFT_EYE_INNER.y,LEFT_EYE_INNER.z,LEFT_EYE_INNER.v,LEFT_EYE.x,LEFT_EYE.y,LEFT_EYE.z,LEFT_EYE.v,LEFT_EYE_OUTER.x,LEFT_EYE_OUTER.y,LEFT_EYE_OUTER.z,LEFT_EYE_OUTER.v,RIGHT_EYE_INNER.x,RIGHT_EYE_INNER.y,RIGHT_EYE_INNER.z,RIGHT_EYE_INNER.v,RIGHT_EYE.x,RIGHT_EYE.y,RIGHT_EYE.z,RIGHT_EYE.v,RIGHT_EYE_OUTER.x,RIGHT_EYE_OUTER.y,RIGHT_EYE_OUTER.z,RIGHT_EYE_OUTER.v,LEFT_EAR.x,LEFT_EAR.y,LEFT_EAR.z,LEFT_EAR.v,RIGHT_EAR.x,RIGHT_EAR.y,RIGHT_EAR.z,RIGHT_EAR.v,MOUTH_LEFT.x,MOUTH_LEFT.y,MOUTH_LEFT.z,MOUTH_LEFT.v,MOUTH_RIGHT.x,MOUTH_RIGHT.y,MOUTH_RIGHT.z,MOUTH_RIGHT.v,LEFT_SHOULDER.x,LEFT_SHOULDER.y,LEFT_SHOULDER.z,LEFT_SHOULDER.v,RIGHT_SHOULDER.x,RIGHT_SHOULDER.y,RIGHT_SHOULDER.z,RIGHT_SHOULDER.v,LEFT_ELBOW.x,LEFT_ELBOW.y,LEFT_ELBOW.z,LEFT_ELBOW.v,RIGHT_ELBOW.x,RIGHT_ELBOW.y,RIGHT_ELBOW.z,RIGHT_ELBOW.v,LEFT_WRIST.x,LEFT_WRIST.y,LEFT_WRIST.z,LEFT_WRIST.v,RIGHT_WRIST.x,RIGHT_WRIST.y,RIGHT_WRIST.z,RIGHT_WRIST.v,LEFT_PINKY.x,LEFT_PINKY.y,LEFT_PINKY.z,LEFT_PINKY.v,RIGHT_PINKY.x,RIGHT_PINKY.y,RIGHT_PINKY.z,RIGHT_PINKY.v,LEFT_INDEX.x,LEFT_INDEX.y,LEFT_INDEX.z,LEFT_INDEX.v,RIGHT_INDEX.x,RIGHT_INDEX.y,RIGHT_INDEX.z,RIGHT_INDEX.v,LEFT_THUMB.x,LEFT_THUMB.y,LEFT_THUMB.z,LEFT_THUMB.v,RIGHT_THUMB.x,RIGHT_THUMB.y,RIGHT_THUMB.z,RIGHT_THUMB.v,LEFT_HIP.x,LEFT_HIP.y,LEFT_HIP.z,LEFT_HIP.v,RIGHT_HIP.x,RIGHT_HIP.y,RIGHT_HIP.z,RIGHT_HIP.v,LEFT_KNEE.x,LEFT_KNEE.y,LEFT_KNEE.z,LEFT_KNEE.v,RIGHT_KNEE.x,RIGHT_KNEE.y,RIGHT_KNEE.z,RIGHT_KNEE.v,LEFT_ANKLE.x,LEFT_ANKLE.y,LEFT_ANKLE.z,LEFT_ANKLE.v,RIGHT_ANKLE.x,RIGHT_ANKLE.y,RIGHT_ANKLE.z,RIGHT_ANKLE.v,LEFT_HEEL.x,LEFT_HEEL.y,LEFT_HEEL.z,LEFT_HEEL.v,RIGHT_HEEL.x,RIGHT_HEEL.y,RIGHT_HEEL.z,RIGHT_HEEL.v,LEFT_FOOT_INDEX.x,LEFT_FOOT_INDEX.y,LEFT_FOOT_INDEX.z,LEFT_FOOT_INDEX.v,RIGHT_FOOT_INDEX.x,RIGHT_FOOT_INDEX.y,RIGHT_FOOT_INDEX.z,RIGHT_FOOT_INDEX.v
0,0.2533891499042511,0.6956194639205933,-0.12022962421178818,1.0,0.25698304176330566,0.7006314396858215,-0.13564355671405792,1.0,0.2595048248767853,0.7005003690719604,-0.13540701568126678,1.0,0.26190829277038574,0.7003459930419922,-0.1354229897260666,1.0,0.24959583580493927,0.7000287771224976,-0.13199207186698914,1.0,0.24682095646858215,0.6997252106666565,-0.13186413049697876,1.0,0.24414131045341492,0.6991441249847412,-0.13174889981746674,1.0,0.2653333842754364,0.6903141736984253,-0.17008386552333832,1.0,0.23938103020191193,0.687951922416687,-0.14949722588062286,1.0,0.2568037509918213,0.685648500919342,-0.12944790720939636,0.9999998807907104,0.24942460656166077,0.6852271556854248,-0.12302170693874359,0.9999998807907104,0.28811678290367126,0.6475892663002014,-0.13666562736034393,0.9998069405555725,0.21250204741954803,0.635823667049408,-0.09824445098638535,0.9999809265136719,0.3066781461238861,0.6741220951080322,0.0004190247564110905,0.9947591423988342,0.1875305026769638,0.6654016971588135,0.027171123772859573,0.9835207462310791,0.29648634791374207,0.7398116588592529,0.1684313863515854,0.9556612372398376,0.18973834812641144,0.7246816158294678,0.16446290910243988,0.7796284556388855,0.3011735677719116,0.7543428540229797,0.1682012528181076,0.9313600063323975,0.18422630429267883,0.7352093458175659,0.17996534705162048,0.7056776881217957,0.2939375042915344,0.7608054876327515,0.16421952843666077,0.9251992106437683,0.1904366910457611,0.7398861646652222,0.16636969149112701,0.6785392165184021,0.2898997366428375,0.7567489743232727,0.16973906755447388,0.928898274898529,0.1962842345237732,0.737944483757019,0.1626950353384018,0.7258383631706238,0.2960911691188812,0.5176346302032471,-0.017086489126086235,0.9999604225158691,0.2535523772239685,0.5056660771369934,0.017384884878993034,0.9999563694000244,0.30491602420806885,0.6462383270263672,-0.029855037108063698,0.9956942796707153,0.23160001635551453,0.6131873726844788,0.04047770798206329,0.9802680015563965,0.2939748167991638,0.7264310121536255,0.002805118216201663,0.9852875471115112,0.22405827045440674,0.716799795627594,0.11712281405925751,0.9419334530830383,0.29229235649108887,0.7304205298423767,0.0028764307498931885,0.9673160314559937,0.22918692231178284,0.7303880453109741,0.1191258579492569,0.9442607760429382,0.28152623772621155,0.7663872241973877,-0.07554272562265396,0.9847716689109802,0.2062869369983673,0.753804624080658,0.05023757740855217,0.9672324657440186
1
2
3,0.2634872794151306,0.6667723059654236,0.1563366800546646,1.0,0.26128295063972473,0.6737226843833923,0.16385701298713684,1.0,0.25977185368537903,0.6732938885688782,0.16398468613624573,0.9999994039535522,0.25810927152633667,0.6729030609130859,0.16401442885398865,1.0,0.2639809548854828,0.674666702747345,0.17755267024040222,1.0,0.2644807696342468,0.6752873063087463,0.17764556407928467,0.9999996423721313,0.2650577425956726,0.6756455898284912,0.17749032378196716,1.0,0.25355929136276245,0.6682876348495483,0.18613865971565247,0.9999992847442627,0.2618057131767273,0.6727762818336487,0.24925200641155243,0.9999998807907104,0.25987493991851807,0.6565902829170227,0.16166722774505615,0.9999977350234985,0.2637496292591095,0.65781569480896,0.1800219714641571,0.9999984502792358,0.24031352996826172,0.6206163167953491,0.12249670177698135,0.9997771382331848,0.2701270580291748,0.6295450925827026,0.25669699907302856,0.9999715089797974,0.27308207750320435,0.6606568098068237,0.04491133242845535,0.9826369881629944,0.2878766655921936,0.651884913444519,0.2891280949115753,0.8416550159454346,0.28926724195480347,0.7321441173553467,0.0799194946885109,0.9245767593383789,0.28454872965812683,0.7243786454200745,0.34213340282440186,0.40225982666015625,0.2936058044433594,0.7529932856559753,0.06455139815807343,0.8550150990486145,0.2796314060688019,0.7504308223724365,0.3399585783481598,0.28800490498542786,0.29084694385528564,0.7561689615249634,0.07086747884750366,0.8416929244995117,0.27760517597198486,0.7532563805580139,0.3431031405925751,0.2279035896062851,0.290675550699234,0.7488298416137695,0.08191999047994614,0.8073949813842773,0.27892136573791504,0.745335578918457,0.3430682420730591,0.24435096979141235,0.2647477090358734,0.5011754631996155,-0.04355868324637413,0.9971038699150085,0.2794817090034485,0.5063027143478394,0.04374681040644646,0.9988499879837036,0.27583181858062744,0.6197230815887451,-0.13493670523166656,0.9989660978317261,0.2693217396736145,0.6200925707817078,-0.03118666633963585,0.9743072390556335,0.2764599025249481,0.6952615976333618,-0.25277554988861084,0.98212069272995,0.25767266750335693,0.710647463798523,-0.12491880357265472,0.8508905172348022,0.2790221571922302,0.694142758846283,-0.26583635807037354,0.98570317029953,0.2565857470035553,0.7178134918212891,-0.1381375938653946,0.9355441331863403,0.27070990204811096,0.735162615776062,-0.33058279752731323,0.9928951859474182,0.2509025037288666,0.741957426071167,-0.19499239325523376,0.9533331394195557
4,0.25730639696121216,0.6916176676750183,0.06099648028612137,1.0,0.257902055978775,0.6983254551887512,0.07150278985500336,1.0,0.2567289471626282,0.6983940005302429,0.07159576565027237,1.0,0.2554321885108948,0.6985206007957458,0.07158951461315155,1.0,0.26148611307144165,0.6978262066841125,0.07175016403198242,1.0,0.2636028826236725,0.6979732513427734,0.07197768241167068,1.0,0.26449859142303467,0.697902500629425,0.07191461324691772,1.0,0.25608617067337036,0.693454384803772,0.11168034374713898,1.0,0.2671355605125427,0.692379355430603,0.12056612968444824,1.0,0.25548335909843445,0.6825689077377319,0.07533002644777298,1.0,0.2612031400203705,0.6823716759681702,0.078264519572258,0.9999998807907104,0.2561228275299072,0.655064582824707,0.09894920140504837,0.9999567270278931,0.2704192101955414,0.652161180973053,0.12164831161499023,0.9999611377716064,0.2758856415748596,0.6838646531105042,0.09147106856107712,0.9769794940948486,0.2715662121772766,0.6768147945404053,0.14062705636024475,0.9534632563591003,0.2873452603816986,0.7325218319892883,0.10135240852832794,0.85868239402771,0.2530708611011505,0.7367305755615234,0.19084809720516205,0.7579385638237,0.2934991419315338,0.7459546327590942,0.08318977057933807,0.8193415403366089,0.24628858268260956,0.752338707447052,0.18346349895000458,0.6907782554626465,0.2892392873764038,0.7561662793159485,0.07774677872657776,0.8129009008407593,0.245325967669487,0.7558121085166931,0.18391165137290955,0.6300342679023743,0.28729599714279175,0.7474099397659302,0.09735733270645142,0.8156638145446777,0.24742934107780457,0.7516967058181763,0.19069191813468933,0.684323787689209,0.27641135454177856,0.5141097903251648,-0.01873180828988552,0.9999837875366211,0.2805747091770172,0.5139337182044983,0.018731899559497833,0.9999872446060181,0.306282103061676,0.57500821352005,-0.05227480083703995,0.9981228709220886,0.27428895235061646,0.5834637880325317,-0.0096056517213583,0.9814361929893494,0.3000214397907257,0.6346840262413025,-0.03044290281832218,0.9734899997711182,0.258822500705719,0.6480243802070618,0.09050336480140686,0.8869579434394836,0.2957213819026947,0.6398507356643677,-0.029378196224570274,0.9349697232246399,0.2571043074131012,0.6561050415039062,0.09747873246669769,0.9221009612083435,0.305928498506546,0.6539639830589294,-0.08246343582868576,0.9900755286216736,0.2517368793487549,0.6616300344467163,0.05902324989438057,0.9621951580047607
5,0.2585274577140808,0.69769686460495,0.04693206399679184,1.0,0.25902020931243896,0.7033570408821106,0.060735542327165604,1.0,0.25782984495162964,0.7029432058334351,0.06074608117341995,1.0,0.2565441429615021,0.7025883793830872,0.060734786093235016,1.0,0.262761652469635,0.7040365934371948,0.058771200478076935,1.0,0.26448294520378113,0.7045897245407104,0.058915846049785614,1.0,0.2661476135253906,0.70489901304245,0.05882871150970459,1.0,0.2580016553401947,0.6964556574821472,0.10364637523889542,1.0,0.2696310579776764,0.6993404626846313,0.10202361643314362,1.0,0.25664541125297546,0.6869581937789917,0.06106936186552048,0.9999998807907104,0.2621167004108429,0.6880329847335815,0.060972947627305984,0.9999998807907104,0.24867992103099823,0.6499643325805664,0.0968775600194931,0.999893307685852,0.2804756760597229,0.6505361199378967,0.07653308659791946,0.9999544620513916,0.2619147002696991,0.6676633954048157,0.09447097778320312,0.9565629959106445,0.281217485666275,0.6618490815162659,0.049353066831827164,0.9596003890037537,0.26692885160446167,0.7233188152313232,0.10516113042831421,0.8785171508789062,0.261749804019928,0.7255019545555115,0.07311145961284637,0.9067935347557068,0.2723744511604309,0.7391005158424377,0.08928056061267853,0.8385503888130188,0.255047470331192,0.7419289350509644,0.06092945486307144,0.8775823712348938,0.26987743377685547,0.7449941635131836,0.0818091481924057,0.8344858288764954,0.2545699179172516,0.7464102506637573,0.05865069478750229,0.8498495221138,0.2686944901943207,0.7397792935371399,0.09990441054105759,0.8426849246025085,0.2562229037284851,0.7420680522918701,0.07191585004329681,0.878937840461731,0.2682183086872101,0.49981507658958435,-0.014038513414561749,0.999900221824646,0.28194910287857056,0.5008538365364075,0.014071275480091572,0.9999786615371704,0.29284828901290894,0.5782907605171204,-0.04989682510495186,0.9988402724266052,0.27512678503990173,0.5983337759971619,0.0024803290143609047,0.9849647879600525,0.28998351097106934,0.6221815943717957,-0.05956369638442993,0.9808472990989685,0.26658815145492554,0.6554555296897888,0.044190894812345505,0.952348530292511,0.2878982722759247,0.6223351359367371,-0.06293598562479019,0.9371212124824524,0.26510709524154663,0.6590871810913086,0.04513828083872795,0.9684297442436218,0.29392775893211365,0.6408260464668274,-0.11264009773731232,0.9915044903755188,0.26636454463005066,0.6725369691848755,0.012907813303172588,0.9868959784507751
6
7
8
9
10
11
12
13
14
15,0.409804105758667,0.35546761751174927,-0.22698178887367249,1.0,0.40278109908103943,0.3462904691696167,-0.20736174285411835,1.0,0.4038386940956116,0.3421950936317444,-0.20726411044597626,1.0,0.4048754572868347,0.3379819095134735,-0.20718970894813538,1.0,0.3996443748474121,0.35826873779296875,-0.22353728115558624,1.0,0.3980656862258911,0.36336326599121094,-0.22350749373435974,1.0,0.39656853675842285,0.36843863129615784,-0.22364301979541779,1.0,0.4097432494163513,0.3414435386657715,-0.08802251517772675,1.0,0.39840221405029297,0.3802337050437927,-0.16474027931690216,1.0,0.42090386152267456,0.35438790917396545,-0.18154467642307281,0.9999998807907104,0.4164399206638336,0.3705596625804901,-0.20308932662010193,1.0,0.44819268584251404,0.3876274526119232,0.06594743579626083,0.9999130964279175,0.4388508200645447,0.39952316880226135,-0.21509882807731628,0.9999743700027466,0.47567176818847656,0.35841313004493713,0.1348428577184677,0.1537744700908661,0.4767557978630066,0.3652282953262329,-0.25137650966644287,0.9544251561164856,0.4442039430141449,0.3361462354660034,0.05538488179445267,0.23822733759880066,0.45240235328674316,0.32459595799446106,-0.22302964329719543,0.8015716671943665,0.4371407628059387,0.3310246765613556,0.04559433460235596,0.29112014174461365,0.4459938108921051,0.31492912769317627,-0.25132083892822266,0.7083688974380493,0.4312926232814789,0.3326828181743622,0.02457718923687935,0.3055128753185272,0.43945884704589844,0.3161478042602539,-0.24524299800395966,0.7212167382240295,0.43496090173721313,0.3344174921512604,0.04267306998372078,0.294694721698761,0.4435473382472992,0.32161638140678406,-0.22018678486347198,0.7469962239265442,0.5604547262191772,0.4011560380458832,0.09559214860200882,0.9999433755874634,0.566245973110199,0.40895700454711914,-0.0955306813120842,0.9999158382415771,0.5634978413581848,0.313327431678772,0.12288258969783783,0.7593440413475037,0.5547741651535034,0.29194551706314087,-0.12971021234989166,0.9520038962364197,0.6362701654434204,0.2960195541381836,0.2613871097564697,0.7824331521987915,0.6251870393753052,0.27808862924575806,0.023431722074747086,0.8279861807823181,0.6512637734413147,0.30620506405830383,0.2739819288253784,0.8045029640197754,0.6408260464668274,0.2898883819580078,0.04013936221599579,0.7083016037940979,0.6545149087905884,0.2553272247314453,0.2517464756965637,0.7499229311943054,0.6383351683616638,0.2335820347070694,0.01805279590189457,0.8247169256210327
16
17,0.2829141914844513,0.3686522841453552,-0.1564801186323166,1.0,0.2859596908092499,0.35718414187431335,-0.14960506558418274,1.0,0.2888532280921936,0.3560168445110321,-0.14963911473751068,0.9999992847442627,0.29182589054107666,0.35484546422958374,-0.14966322481632233,1.0,0.27847883105278015,0.3602883517742157,-0.14145112037658691,1.0,0.27570879459381104,0.3612114191055298,-0.14140202105045319,0.9999971389770508,0.27295365929603577,0.36226686835289,-0.14147959649562836,1.0,0.29861825704574585,0.35911795496940613,-0.08390051126480103,0.9999984502792358,0.2727231979370117,0.3684904873371124,-0.04801451787352562,0.9999842643737793,0.29111239314079285,0.3769022822380066,-0.13127997517585754,0.9999823570251465,0.28051450848579407,0.3808041214942932,-0.12076661735773087,0.9999645948410034,0.3180462419986725,0.4066320061683655,-0.11215139925479889,0.9997556805610657,0.2717948853969574,0.4177553951740265,0.02679368294775486,0.9962400197982788,0.30096834897994995,0.45421329140663147,-0.22726190090179443,0.9379391670227051,0.25083017349243164,0.4687618911266327,-0.046084411442279816,0.46274447441101074,0.2452988177537918,0.47440239787101746,-0.3082585036754608,0.7411306500434875,0.22812137007713318,0.47478485107421875,-0.19724544882774353,0.27792054414749146,0.23417596518993378,0.4816075563430786,-0.34400802850723267,0.5257575511932373,0.21883849799633026,0.4775412678718567,-0.22708973288536072,0.33333146572113037,0.22788730263710022,0.47823283076286316,-0.3305276036262512,0.5582273602485657,0.2230934202671051,0.4712528586387634,-0.23901665210723877,0.3540215492248535,0.23343007266521454,0.47785666584968567,-0.30561763048171997,0.5360119342803955,0.22775724530220032,0.4718503952026367,-0.2068505734205246,0.3378153145313263,0.32714778184890747,0.549855649471283,-0.038108859211206436,0.9994181394577026,0.29486802220344543,0.5487949252128601,0.03836715593934059,0.9984678626060486,0.3162939250469208,0.6120283603668213,-0.1337032914161682,0.36328020691871643,0.2784039378166199,0.6148315668106079,-0.09610697627067566,0.4027301073074341,0.3167756497859955,0.6958847045898438,0.024866024032235146,0.09511511027812958,0.29172903299331665,0.7064751386642456,0.03511768579483032,0.14803199470043182,0.3184128999710083,0.7070963382720947,0.03685961291193962,0.1253110021352768,0.29904571175575256,0.7191144227981567,0.04396577179431915,0.14698268473148346,0.3110744059085846,0.7308672666549683,-0.039609041064977646,0.20388169586658478,0.2806471586227417,0.74301677942276,-0.03274592384696007,0.2491200715303421
18
19
20
21
22
23
24
25
26
27
28
29
30
31
32
33
34
35
36
37
38
39
40
41
42
43
44
45
46
47
48
49
50
51,0.28703248500823975,0.3692995011806488,-0.435403436422348,1.0,0.28581592440605164,0.3563765287399292,-0.4234740138053894,1.0,0.28797417879104614,0.3552020192146301,-0.4235133230686188,1.0,0.2901788055896759,0.35387659072875977,-0.42358389496803284,1.0,0.27836212515830994,0.35927051305770874,-0.4339171350002289,1.0,0.275288850069046,0.35986316204071045,-0.4339069426059723,1.0,0.2722713351249695,0.36060863733291626,-0.4338310658931732,1.0,0.2882295548915863,0.354350209236145,-0.29381272196769714,1.0,0.26421695947647095,0.3634834885597229,-0.3344242572784424,1.0,0.29035040736198425,0.37603265047073364,-0.3818787932395935,0.9999998807907104,0.2816730737686157,0.37902772426605225,-0.3933970034122467,0.9999994039535522,0.30946552753448486,0.3886024057865143,-0.16687583923339844,0.9999485015869141,0.25422483682632446,0.41623175144195557,-0.2928125262260437,0.9999198913574219,0.36204761266708374,0.38656777143478394,-0.20817652344703674,0.9896592497825623,0.26885825395584106,0.4227876663208008,-0.43443694710731506,0.999445378780365,0.371108740568161,0.36249974370002747,-0.36575376987457275,0.9101834297180176,0.3124253749847412,0.394504576921463,-0.5348824262619019,0.9780874252319336,0.3744719326496124,0.3520627021789551,-0.39027878642082214,0.7592200040817261,0.3247417211532593,0.38833147287368774,-0.5702735185623169,0.8816512823104858,0.3668959438800812,0.35229241847991943,-0.40596920251846313,0.789496123790741,0.32656922936439514,0.3841801881790161,-0.5623311996459961,0.8885098695755005,0.3646499812602997,0.3569996953010559,-0.3760142922401428,0.7037915587425232,0.32215479016304016,0.3889577090740204,-0.5329334735870361,0.8512564301490784,0.350372314453125,0.5441938042640686,0.018426794558763504,0.9999967813491821,0.3163316547870636,0.575056254863739,-0.01857767254114151,0.9999955892562866,0.423982709646225,0.5983489751815796,0.003335843561217189,0.9999399185180664,0.3451235294342041,0.6787635087966919,0.002073147566989064,0.9997243285179138,0.5043044686317444,0.6501468420028687,0.06609264761209488,0.9986357092857361,0.37824222445487976,0.776669442653656,0.11420629918575287,0.9918768405914307,0.5130553245544434,0.6654150485992432,0.06701989471912384,0.9175892472267151,0.3883097767829895,0.791136622428894,0.11888937652111053,0.790559709072113,0.5279064178466797,0.6489684581756592,-0.046115852892398834,0.9929070472717285,0.3753034472465515,0.8056196570396423,0.0006747409934177995,0.9561095833778381
52,0.292808473110199,0.35828420519828796,-0.34073492884635925,1.0,0.29151955246925354,0.34602466225624084,-0.3284154236316681,1.0,0.29341214895248413,0.34530940651893616,-0.32837504148483276,0.9999983310699463,0.295369416475296,0.3444552421569824,-0.3283548057079315,1.0,0.2846096158027649,0.3483358919620514,-0.33819228410720825,1.0,0.28154778480529785,0.348949134349823,-0.3381507992744446,0.9999958276748657,0.2785196900367737,0.34964364767074585,-0.3381763994693756,1.0,0.2925880551338196,0.34853315353393555,-0.20933735370635986,0.9999996423721313,0.2696574926376343,0.3556149899959564,-0.25399085879325867,0.9999946355819702,0.295170396566391,0.3672253489494324,-0.29176685214042664,0.999994158744812,0.2864658832550049,0.36979594826698303,-0.30438312888145447,0.9999884366989136,0.3099328279495239,0.3886963427066803,-0.1015782505273819,0.9999393224716187,0.25746357440948486,0.4120729863643646,-0.21449032425880432,0.9997081160545349,0.36030644178390503,0.3985495865345001,-0.0903625339269638,0.49736565351486206,0.27255502343177795,0.4448460340499878,-0.3107878863811493,0.8949598073959351,0.39880186319351196,0.4001213312149048,-0.2160428762435913,0.4419892728328705,0.3001839518547058,0.4579494595527649,-0.4300871789455414,0.744025468826294,0.4104716181755066,0.3980555236339569,-0.24286124110221863,0.39362919330596924,0.3224495053291321,0.4652308225631714,-0.4809596538543701,0.5699177384376526,0.4070368707180023,0.3984212279319763,-0.2716062664985657,0.45319536328315735,0.3110958933830261,0.4599439203739166,-0.4867151379585266,0.5874891877174377,0.4032360017299652,0.4016437828540802,-0.23129110038280487,0.3533076047897339,0.30922892689704895,0.4590323865413666,-0.43615230917930603,0.5213801264762878,0.346049964427948,0.5400513410568237,0.02224300429224968,0.9993525147438049,0.3152053952217102,0.5653399229049683,-0.02225497178733349,0.9996896982192993,0.4098436236381531,0.5962697863578796,0.013663316145539284,0.656290590763092,0.34378117322921753,0.6737752556800842,-0.055216796696186066,0.7907599806785583,0.45817628502845764,0.6644298434257507,0.14608298242092133,0.5740440487861633,0.37437164783477783,0.7770898938179016,0.07406652718782425,0.7953475117683411,0.46098846197128296,0.6800503134727478,0.15313838422298431,0.3300515413284302,0.382996529340744,0.7925174236297607,0.0761735588312149,0.15953677892684937,0.4806312024593353,0.6770375967025757,0.046133775264024734,0.5025150775909424,0.3733191192150116,0.8101999163627625,-0.05797725170850754,0.5538530349731445
53
54,0.2970879375934601,0.3651666045188904,-0.1854981780052185,1.0,0.30123162269592285,0.35557347536087036,-0.1759115606546402,1.0,0.3041055500507355,0.35526853799819946,-0.17594389617443085,0.9999717473983765,0.30701878666877747,0.35491710901260376,-0.17593716084957123,1.0,0.29352426528930664,0.3564249277114868,-0.17215700447559357,1.0,0.2908291518688202,0.3565312325954437,-0.17216405272483826,0.9999245405197144,0.28812432289123535,0.35671377182006836,-0.17228253185749054,1.0,0.3126166760921478,0.3592042922973633,-0.10194046795368195,0.999962329864502,0.2864841818809509,0.36155855655670166,-0.08665104955434799,0.9998194575309753,0.30364125967025757,0.37404665350914,-0.15775389969348907,0.9996297359466553,0.29328006505966187,0.37505775690078735,-0.15340940654277802,0.9996168613433838,0.33096346259117126,0.40285032987594604,-0.0682651549577713,0.9984662532806396,0.2728550136089325,0.40729254484176636,-0.03417179360985756,0.9987140893936157,0.3514890968799591,0.43018287420272827,-0.18692883849143982,0.5314151048660278,0.2392268180847168,0.4443569481372833,-0.09092392027378082,0.42426860332489014,0.32459867000579834,0.3912199139595032,-0.34916776418685913,0.7511297464370728,0.2285415232181549,0.4405454695224762,-0.21728387475013733,0.38625824451446533,0.31955114006996155,0.3786616325378418,-0.38805344700813293,0.6072421073913574,0.22351522743701935,0.43933308124542236,-0.25035735964775085,0.33733853697776794,0.31551820039749146,0.37621134519577026,-0.3798185884952545,0.609342098236084,0.2289166897535324,0.43603891134262085,-0.2556842267513275,0.35187390446662903,0.3157303035259247,0.38299137353897095,-0.3510900139808655,0.5471672415733337,0.23242047429084778,0.4380013644695282,-0.22386948764324188,0.33762261271476746,0.33090507984161377,0.5449992418289185,-0.006499353796243668,0.988851010799408,0.2966395914554596,0.5480142831802368,0.006731781177222729,0.9910139441490173,0.3485691547393799,0.6384720206260681,-0.01999388262629509,0.1490059345960617,0.31147265434265137,0.6411463618278503,-0.005436375737190247,0.22522208094596863,0.35418426990509033,0.728455662727356,0.09064425528049469,0.10832200944423676,0.3351217210292816,0.731711745262146,0.10119571536779404,0.1614743322134018,0.3529718518257141,0.7388806939125061,0.09582443535327911,0.038632363080978394,0.3410734534263611,0.7435129880905151,0.10503651201725006,0.054809894412755966,0.3560015559196472,0.7659022808074951,0.00831685122102499,0.09301143139600754,0.3330085873603821,0.7650598287582397,0.017727967351675034,0.11435060948133469
55
56
57,0.33834895491600037,0.3735363781452179,-0.05046345666050911,1.0,0.3330807387828827,0.36523520946502686,-0.04115956276655197,1.0,0.3323330879211426,0.36497122049331665,-0.04112997278571129,1.0,0.331701397895813,0.36465346813201904,-0.04108992964029312,1.0,0.33283039927482605,0.36667996644973755,-0.06656942516565323,1.0,0.3316129744052887,0.36714836955070496,-0.0665164366364479,1.0,0.330400288105011,0.36764633655548096,-0.06647199392318726,1.0,0.32378947734832764,0.3698689639568329,0.014396900311112404,1.0,0.3228146433830261,0.3739924430847168,-0.099008709192276,0.9999990463256836,0.3365054726600647,0.38282930850982666,-0.026057923212647438,0.9999986886978149,0.3352653980255127,0.38444453477859497,-0.058457423001527786,0.9999973773956299,0.30934077501296997,0.4169132113456726,0.10922650247812271,0.9997069239616394,0.32296478748321533,0.4224598705768585,-0.16566506028175354,0.9994144439697266,0.3234875798225403,0.4765901267528534,0.15213054418563843,0.08679988980293274,0.3367999196052551,0.4867469370365143,-0.2052144557237625,0.982557475566864,0.3457854986190796,0.5067673921585083,0.07489491999149323,0.09343196451663971,0.3570886254310608,0.5117859244346619,-0.18849177658557892,0.8906975984573364,0.3514799475669861,0.5128169059753418,0.06687716394662857,0.11381569504737854,0.35988980531692505,0.5181339383125305,-0.2149248868227005,0.7694637179374695,0.35295888781547546,0.5118644833564758,0.039912112057209015,0.12439020723104477,0.3614429235458374,0.5146664977073669,-0.2105536162853241,0.7541565895080566,0.35163530707359314,0.5111274719238281,0.05999011546373367,0.11108142882585526,0.3589954078197479,0.513553261756897,-0.18622516095638275,0.6980522274971008,0.3113330900669098,0.5555180907249451,0.08929050713777542,0.9999608993530273,0.31592100858688354,0.5622838735580444,-0.08888603746891022,0.9999898672103882,0.3429179787635803,0.6550724506378174,0.10952524840831757,0.4330853223800659,0.34272056818008423,0.6532749533653259,-0.09838602691888809,0.9911370277404785,0.3510432243347168,0.752636194229126,0.2077673375606537,0.6803568601608276,0.34865763783454895,0.7694567441940308,-0.05107555538415909,0.9873356223106384,0.3459763526916504,0.7686460614204407,0.2130609005689621,0.6162418127059937,0.34253063797950745,0.7913370728492737,-0.0508793368935585,0.9342941045761108,0.3741019666194916,0.7703680396080017,0.15767662227153778,0.7276405096054077,0.3732971251010895,0.786185622215271,-0.12488596141338348,0.9660317301750183
58,0.3404763340950012,0.3748171031475067,0.02196536213159561,1.0,0.33491435647010803,0.3645998537540436,0.030194249004125595,1.0,0.33348289132118225,0.36399492621421814,0.030172184109687805,1.0,0.3321073055267334,0.3633567988872528,0.030165482312440872,1.0,0.33622464537620544,0.36649036407470703,0.0002904633875004947,1.0,0.33529677987098694,0.3669036030769348,0.00031407992355525494,1.0,0.3343814015388489,0.3673643469810486,0.0003222640953026712,1.0,0.32335522770881653,0.3679400682449341,0.06457265466451645,1.0,0.32762616872787476,0.37297239899635315,-0.06919275224208832,1.0,0.33786001801490784,0.3843897879123688,0.037110425531864166,1.0,0.33803704380989075,0.38632577657699585,-0.0012724869884550571,0.9999998807907104,0.30168166756629944,0.4246446192264557,0.1390952169895172,0.9999113082885742,0.32383882999420166,0.42436420917510986,-0.17060400545597076,0.999774158000946,0.2873542904853821,0.49166202545166016,0.1860710233449936,0.14493663609027863,0.3134094178676605,0.49713507294654846,-0.24866393208503723,0.9865402579307556,0.29463455080986023,0.5319945216178894,0.15326035022735596,0.03139694407582283,0.32170015573501587,0.5463057160377502,-0.25389331579208374,0.8587049841880798,0.29601985216140747,0.5449416637420654,0.15433461964130402,0.02984381653368473,0.3204905092716217,0.5611986517906189,-0.27435535192489624,0.7679453492164612,0.29840201139450073,0.5428799390792847,0.1346592754125595,0.031786926090717316,0.32626432180404663,0.5581110119819641,-0.2713744044303894,0.7450399398803711,0.2987794578075409,0.5382856726646423,0.14209875464439392,0.029084311798214912,0.3250032365322113,0.5535248517990112,-0.2513779103755951,0.6373772025108337,0.3145429193973541,0.5701674818992615,0.10151886940002441,0.9999901056289673,0.3234820067882538,0.5718768835067749,-0.10096476227045059,0.999998927116394,0.34940412640571594,0.666946291923523,0.1180540919303894,0.6351416707038879,0.354782372713089,0.6762208342552185,-0.11177913099527359,0.9992062449455261,0.35010433197021484,0.7743956446647644,0.19973191618919373,0.7044089436531067,0.34491583704948425,0.7917536497116089,-0.081596240401268,0.9959153532981873,0.341835081577301,0.7943877577781677,0.20353035628795624,0.6984496712684631,0.3333512246608734,0.8144233226776123,-0.08164463192224503,0.9870338439941406,0.3814255893230438,0.7912742495536804,0.16972263157367706,0.7626351118087769,0.37667736411094666,0.8104184865951538,-0.13460056483745575,0.9890931844711304
59,0.3473195731639862,0.3763625919818878,-0.023442290723323822,1.0,0.34335464239120483,0.366140216588974,-0.01226109080016613,1.0,0.34224045276641846,0.3657672107219696,-0.012267624959349632,1.0,0.3411991000175476,0.3653199374675751,-0.012279500253498554,1.0,0.34353387355804443,0.3666723966598511,-0.042058415710926056,1.0,0.34223493933677673,0.3663393557071686,-0.04201246425509453,1.0,0.3409419655799866,0.36607322096824646,-0.04202292859554291,1.0,0.33097583055496216,0.36743080615997314,0.04078122600913048,1.0,0.3310648202896118,0.3681272566318512,-0.09154582768678665,0.9999998807907104,0.34200865030288696,0.3849382698535919,-0.0005163413588888943,0.9999994039535522,0.3411842882633209,0.38494551181793213,-0.038709856569767,0.9999992847442627,0.30620822310447693,0.41894063353538513,0.1311308890581131,0.999760091304779,0.3128882646560669,0.4131879508495331,-0.17936395108699799,0.9998866319656372,0.311908483505249,0.48806360363960266,0.1891016960144043,0.0843982845544815,0.32151898741722107,0.48269593715667725,-0.23414166271686554,0.9960779547691345,0.33115655183792114,0.530939519405365,0.14256532490253448,0.04663419350981712,0.3600453734397888,0.5223744511604309,-0.17606833577156067,0.9544501304626465,0.33622440695762634,0.5439586639404297,0.14025148749351501,0.05129421129822731,0.3642481565475464,0.5364207625389099,-0.1911769062280655,0.9021016359329224,0.33863404393196106,0.5424366593360901,0.11617887020111084,0.057706523686647415,0.36529672145843506,0.5304096937179565,-0.1857786476612091,0.8906725645065308,0.3374064266681671,0.5375815033912659,0.12959685921669006,0.05346249043941498,0.36417898535728455,0.5267698168754578,-0.17014600336551666,0.84843909740448,0.31620633602142334,0.5726322531700134,0.09998394548892975,0.9999880790710449,0.31780022382736206,0.5746830701828003,-0.09957103431224823,0.9999955892562866,0.34194839000701904,0.6760790944099426,0.11970700323581696,0.7418979406356812,0.35439279675483704,0.6774775385856628,-0.10154706239700317,0.9986201524734497,0.34149134159088135,0.7838361859321594,0.1835853010416031,0.6798686385154724,0.3463001847267151,0.790842592716217,-0.05635697394609451,0.9909721612930298,0.33330661058425903,0.802875816822052,0.18617579340934753,0.6623672246932983,0.334695965051651,0.8132837414741516,-0.05353906750679016,0.9691406488418579,0.3708153963088989,0.8007078766822815,0.1534813940525055,0.7792481780052185,0.3759845495223999,0.8071182370185852,-0.10031388700008392,0.9813451766967773
60,0.3479599356651306,0.3714408278465271,-0.015185123309493065,1.0,0.34243065118789673,0.3619946837425232,-0.003164666937664151,1.0,0.34073880314826965,0.3616690933704376,-0.0030856498051434755,1.0,0.3390868306159973,0.3612658679485321,-0.0031387624330818653,1.0,0.34366708993911743,0.36279013752937317,-0.035158175975084305,1.0,0.3424791693687439,0.3626822829246521,-0.03512997180223465,1.0,0.34126731753349304,0.36266520619392395,-0.03514667972922325,1.0,0.32705774903297424,0.36408451199531555,0.05030339956283569,1.0,0.32992222905158997,0.36595138907432556,-0.09230776876211166,1.0,0.3421241044998169,0.38040176033973694,0.008332161232829094,0.9999990463256836,0.34262436628341675,0.38085585832595825,-0.03238780051469803,0.9999991655349731,0.30207139253616333,0.41680291295051575,0.1449127048254013,0.999312162399292,0.32055968046188354,0.40725913643836975,-0.17507155239582062,0.9998500347137451,0.33782878518104553,0.46653997898101807,0.2335616797208786,0.04509173333644867,0.36163195967674255,0.4513632357120514,-0.2001214325428009,0.9943662881851196,0.37177690863609314,0.4729207158088684,0.24540698528289795,0.04261481761932373,0.3914757966995239,0.4652729630470276,-0.11888756603002548,0.9605731964111328,0.3797144591808319,0.47072258591651917,0.2556680738925934,0.05483415350317955,0.36778774857521057,0.46949833631515503,-0.13326185941696167,0.9335452318191528,0.38179701566696167,0.470342755317688,0.23564615845680237,0.06170067936182022,0.37117093801498413,0.4647088646888733,-0.13040989637374878,0.9254814982414246,0.3798217177391052,0.4727827310562134,0.23555204272270203,0.05617518350481987,0.38278311491012573,0.46634218096733093,-0.11425542831420898,0.9061630964279175,0.3147584795951843,0.5670919418334961,0.09796556085348129,0.9999366998672485,0.32118576765060425,0.5659982562065125,-0.09765100479125977,0.999962568283081,0.34173932671546936,0.6653853058815002,0.12484069913625717,0.1834748536348343,0.3524411618709564,0.667100191116333,-0.09031005203723907,0.9795412421226501,0.3369305431842804,0.7748432159423828,0.19801130890846252,0.1880244016647339,0.341584712266922,0.7775341868400574,-0.03636986017227173,0.9210416674613953,0.3292836546897888,0.7935973405838013,0.20196035504341125,0.25478169322013855,0.33144062757492065,0.7993268966674805,-0.03302296623587608,0.901837944984436,0.3573043942451477,0.7892926931381226,0.16477110981941223,0.32677584886550903,0.36304205656051636,0.7907248735427856,-0.07942532002925873,0.88143390417099
61,0.3393813967704773,0.37842047214508057,0.15891246497631073,1.0,0.3358577489852905,0.36716407537460327,0.13307800889015198,1.0,0.33327624201774597,0.36626479029655457,0.13305994868278503,1.0,0.3307892680168152,0.36531180143356323,0.13298949599266052,1.0,0.341813325881958,0.36973777413368225,0.12522439658641815,1.0,0.3431498110294342,0.37036317586898804,0.12533876299858093,1.0,0.3443758189678192,0.3710745573043823,0.1253889948129654,1.0,0.3215867877006531,0.36920392513275146,0.059317611157894135,1.0,0.34001749753952026,0.3766598105430603,0.024831630289554596,1.0,0.3319658637046814,0.38600167632102966,0.13826213777065277,0.9999995231628418,0.337433397769928,0.38816535472869873,0.12885801494121552,0.9999982118606567,0.27357468008995056,0.41980674862861633,0.03932923823595047,0.9999972581863403,0.3471028208732605,0.42443913221359253,-0.008021662943065166,0.9998854398727417,0.2521527409553528,0.49371814727783203,0.14427801966667175,0.8226525783538818,0.3780164122581482,0.4750632345676422,0.024256866425275803,0.9853993654251099,0.27115315198898315,0.5323237776756287,0.21491555869579315,0.09771033376455307,0.3714926540851593,0.45849519968032837,0.11503710597753525,0.33623597025871277,0.27416425943374634,0.5403881669044495,0.2233368158340454,0.08948997408151627,0.3697272837162018,0.4569651484489441,0.12607257068157196,0.2988086938858032,0.279072105884552,0.5418702960014343,0.2133009433746338,0.08919163793325424,0.3653741776943207,0.4524828791618347,0.12951526045799255,0.2929374873638153,0.2800981402397156,0.5403458476066589,0.21179959177970886,0.09345757216215134,0.3642086386680603,0.45299097895622253,0.11903010308742523,0.2544218599796295,0.2813439667224884,0.586215615272522,0.014395689591765404,0.9999991655349731,0.32806506752967834,0.5822677612304688,-0.013970647938549519,0.9999985694885254,0.2508775293827057,0.7022073864936829,0.08590414375066757,0.9995765089988708,0.34618788957595825,0.680242121219635,0.07279389351606369,0.9995043277740479,0.2369045913219452,0.8143510222434998,0.03016350045800209,0.9984592199325562,0.35597747564315796,0.7967806458473206,0.03216906636953354,0.998729407787323,0.23967799544334412,0.8358392715454102,0.026683500036597252,0.9972802400588989,0.353840172290802,0.8190136551856995,0.027026165276765823,0.9988002777099609,0.21993596851825714,0.8231417536735535,0.039144366979599,0.9400888085365295,0.367988646030426,0.8108797073364258,0.0434504970908165,0.941780149936676
62,0.3330659866333008,0.38695576786994934,0.12051598727703094,1.0,0.3290729820728302,0.37517547607421875,0.10185142606496811,1.0,0.32647454738616943,0.37438055872917175,0.10196211189031601,0.9999998807907104,0.3239264190196991,0.37360435724258423,0.10199084132909775,1.0,0.3351494073867798,0.3770495355129242,0.08695365488529205,1.0,0.3365735411643982,0.37730225920677185,0.08701072633266449,0.9999997615814209,0.33791667222976685,0.37761637568473816,0.08699887990951538,1.0,0.3157847225666046,0.376508891582489,0.05084117129445076,0.9999997615814209,0.33521875739097595,0.3819129168987274,-0.014232737943530083,0.9999988079071045,0.327505886554718,0.3943663537502289,0.10820714384317398,0.9999942779541016,0.3330311179161072,0.3958304226398468,0.08961297571659088,0.9999842643737793,0.27076876163482666,0.42238834500312805,0.06889548152685165,0.9998600482940674,0.3439101278781891,0.42866790294647217,-0.09042136371135712,0.9998986721038818,0.25085824728012085,0.48190927505493164,0.14995470643043518,0.04287121817469597,0.37844276428222656,0.46929842233657837,-0.10181720554828644,0.9935967922210693,0.27131062746047974,0.4875321090221405,0.18252702057361603,0.040953680872917175,0.41249579191207886,0.4551628530025482,-0.08472178876399994,0.9356403350830078,0.27491921186447144,0.4878307580947876,0.18781279027462006,0.06832695752382278,0.4246184229850769,0.4576572775840759,-0.10053855180740356,0.9093133211135864,0.2803439795970917,0.4853585958480835,0.17225468158721924,0.07271847873926163,0.42313703894615173,0.44871994853019714,-0.09412895143032074,0.9030886292457581,0.281380832195282,0.48641330003738403,0.17562168836593628,0.07737711817026138,0.4155673384666443,0.44779172539711,-0.08007528632879257,0.8211523294448853,0.2762000560760498,0.588713526725769,0.037506505846977234,0.9999974966049194,0.3209635317325592,0.5866671800613403,-0.03734763711690903,0.9999979734420776,0.25489234924316406,0.7011229395866394,0.07302381098270416,0.9781621694564819,0.3432197570800781,0.6919914484024048,0.02382333017885685,0.9937682151794434,0.23503632843494415,0.8089815974235535,0.0900123119354248,0.944469690322876,0.35878896713256836,0.8052722811698914,0.06729914993047714,0.985096275806427,0.2351427525281906,0.8268786668777466,0.09194357693195343,0.9239771366119385,0.35800209641456604,0.8270050883293152,0.0688282921910286,0.9734032154083252,0.2270859181880951,0.8199079632759094,0.08361202478408813,0.5263167023658752,0.3724399209022522,0.8176996111869812,0.0577862374484539,0.7162060141563416
63,0.3278605341911316,0.3840833306312561,-0.007223197259008884,1.0,0.32390230894088745,0.3742228150367737,-0.009327070787549019,1.0,0.3214295506477356,0.37427952885627747,-0.009271668270230293,0.999354898929596,0.3190574049949646,0.37432798743247986,-0.009219465777277946,1.0,0.3299981653690338,0.37417131662368774,-0.03396152704954147,1.0,0.3316498398780823,0.37396496534347534,-0.033824432641267776,0.9995959401130676,0.33327609300613403,0.3737865686416626,-0.03374619781970978,1.0,0.31185677647590637,0.3807401657104492,-0.05879078060388565,0.9997199177742004,0.3319801986217499,0.3798474669456482,-0.09723760187625885,0.9994627833366394,0.3232117295265198,0.3935900628566742,0.016062390059232712,0.9961977601051331,0.32840633392333984,0.39272648096084595,-0.024717682972550392,0.9967239499092102,0.2714097499847412,0.4289903938770294,-0.03288920968770981,0.9956306219100952,0.3499528765678406,0.4302176535129547,-0.14064130187034607,0.9998026490211487,0.24984677135944366,0.48911812901496887,-0.0035853020381182432,0.34343457221984863,0.40139999985694885,0.4581734240055084,-0.15548841655254364,0.9957322478294373,0.2544947564601898,0.5110889673233032,-0.03206672519445419,0.17241530120372772,0.4462265372276306,0.46622249484062195,-0.17839030921459198,0.99241042137146,0.2532942593097687,0.5180817246437073,-0.03960840404033661,0.19890287518501282,0.45959967374801636,0.47440069913864136,-0.21113097667694092,0.9850478172302246,0.2576276957988739,0.5137470960617065,-0.052908629179000854,0.20636416971683502,0.4588305354118347,0.46634989976882935,-0.2096061259508133,0.9842697381973267,0.26179152727127075,0.510792076587677,-0.03652692586183548,0.18001191318035126,0.450472354888916,0.4629526734352112,-0.17741820216178894,0.9610402584075928,0.2792655825614929,0.5765931606292725,0.038464970886707306,0.9999852180480957,0.32429277896881104,0.580464780330658,-0.03811602666974068,0.9999872446060181,0.27510568499565125,0.6914758086204529,0.0618765763938427,0.7594149112701416,0.34534385800361633,0.6870135068893433,-0.005453791934996843,0.9664889574050903,0.27519625425338745,0.8011177182197571,0.1361798346042633,0.7548815608024597,0.3611123263835907,0.806341826915741,0.04873239994049072,0.9696734547615051,0.2768431603908539,0.8184124827384949,0.14051511883735657,0.6250261664390564,0.3591088354587555,0.8289377689361572,0.04931528866291046,0.9619751572608948,0.2739836573600769,0.8153412938117981,0.09229699522256851,0.37666046619415283,0.37610387802124023,0.8189178109169006,-0.004914082586765289,0.7554550766944885
64,0.3306339681148529,0.3851712644100189,0.11834043264389038,1.0,0.3272864520549774,0.37383610010147095,0.09377425163984299,1.0,0.3249031603336334,0.3732786178588867,0.09389052540063858,0.9985632300376892,0.3225701153278351,0.37269920110702515,0.09385000914335251,1.0,0.3333703279495239,0.3751222789287567,0.08904491364955902,1.0,0.3350934088230133,0.3752111792564392,0.08911397308111191,0.9994074106216431,0.3367123305797577,0.37536826729774475,0.08900755643844604,1.0,0.3157639503479004,0.3769986927509308,0.0249323733150959,0.9990394711494446,0.3345743417739868,0.3803052008152008,-0.001547670573927462,0.999309778213501,0.32499757409095764,0.39334022998809814,0.09855528175830841,0.9824432134628296,0.3305031657218933,0.39431315660476685,0.09112528711557388,0.9760093688964844,0.27558714151382446,0.42370182275772095,0.02407000958919525,0.9995249509811401,0.3477553725242615,0.4244827628135681,-0.028120139613747597,0.9998111128807068,0.2506471276283264,0.4791092872619629,0.12195742130279541,0.016097329556941986,0.39777716994285583,0.44288918375968933,0.006852774415165186,0.7989487051963806,0.265072226524353,0.47297903895378113,0.16498222947120667,0.008569593541324139,0.42404454946517944,0.4092365503311157,0.0647682398557663,0.3480765223503113,0.26629769802093506,0.4671211540699005,0.1775760054588318,0.012372697703540325,0.43488484621047974,0.39993807673454285,0.06444983184337616,0.32364436984062195,0.2731301188468933,0.465888649225235,0.1846582442522049,0.013750866986811161,0.4132578372955322,0.3970282971858978,0.05796186253428459,0.32412558794021606,0.2749110758304596,0.4688843786716461,0.17543022334575653,0.014537723734974861,0.4042137563228607,0.40102559328079224,0.06400739401578903,0.2633618712425232,0.2783118486404419,0.5863891839981079,0.006318899802863598,0.9999715089797974,0.32281234860420227,0.5871478915214539,-0.006077439524233341,0.9999732971191406,0.2508067190647125,0.7063440680503845,0.02731848880648613,0.783268928527832,0.34320008754730225,0.6921119093894958,0.028990130871534348,0.525016188621521,0.23228004574775696,0.8178873062133789,-0.014215247705578804,0.613335907459259,0.36055365204811096,0.8076239824295044,0.022794004529714584,0.3929915130138397,0.23557314276695251,0.8369887471199036,-0.019866006448864937,0.7516477704048157,0.3595940172672272,0.8277662992477417,0.019086044281721115,0.6560004949569702,0.21488428115844727,0.8331915736198425,-0.04074946418404579,0.14310911297798157,0.3733619451522827,0.8271084427833557,0.00812644511461258,0.06438607722520828
65,0.32831981778144836,0.3772774040699005,0.015214827843010426,1.0,0.32461637258529663,0.3673567771911621,0.011052994057536125,1.0,0.321904718875885,0.36712896823883057,0.011700423434376717,0.9999955892562866,0.3192758858203888,0.36689478158950806,0.011832145974040031,1.0,0.331379234790802,0.36818090081214905,-0.00914787594228983,1.0,0.33342376351356506,0.3682379424571991,-0.009057257324457169,0.9999971389770508,0.33537647128105164,0.3683772385120392,-0.009100067429244518,1.0,0.31352725625038147,0.37341082096099854,-0.06902004778385162,0.9999982118606567,0.33473843336105347,0.375333696603775,-0.05152202770113945,0.9999978542327881,0.3235700726509094,0.38606613874435425,0.028282776474952698,0.9999446868896484,0.3298584222793579,0.38621464371681213,-0.005509914830327034,0.9999064207077026,0.2773594856262207,0.4232794940471649,-0.05575849860906601,0.9960097074508667,0.3481473922729492,0.42280006408691406,-0.13510723412036896,0.9993932247161865,0.2371097356081009,0.45625028014183044,-0.030934792011976242,0.9538162350654602,0.39000973105430603,0.44110965728759766,-0.211522176861763,0.9960230588912964,0.23203924298286438,0.4399474263191223,-0.06781865656375885,0.387065589427948,0.38655394315719604,0.40854933857917786,-0.28707101941108704,0.7537379264831543,0.22928431630134583,0.4362190067768097,-0.08256438374519348,0.3024153709411621,0.388868123292923,0.3996930718421936,-0.3130212724208832,0.6264644861221313,0.23620650172233582,0.4300766885280609,-0.09144677221775055,0.3374883234500885,0.3778364062309265,0.3939492106437683,-0.3170780539512634,0.6374766826629639,0.24070195853710175,0.4310764670372009,-0.07364928722381592,0.32317155599594116,0.37536871433258057,0.3968784511089325,-0.29158341884613037,0.5457022190093994,0.2853100597858429,0.5734766721725464,0.02982085384428501,0.9999845027923584,0.32669389247894287,0.5738728046417236,-0.0295838825404644,0.9999887943267822,0.2775668501853943,0.6924458742141724,0.05662031099200249,0.9876393675804138,0.3464391529560089,0.6856870055198669,0.002958558266982436,0.9925146698951721,0.27375322580337524,0.7991541028022766,0.09426551312208176,0.9506493806838989,0.3629869818687439,0.8015866875648499,0.05306237190961838,0.965817928314209,0.27565354108810425,0.8130066990852356,0.09572659432888031,0.9180034399032593,0.36174607276916504,0.8194084763526917,0.05451713874936104,0.921732485294342,0.26827704906463623,0.8186431527137756,0.059096693992614746,0.5433891415596008,0.37589508295059204,0.8213762044906616,0.016003873199224472,0.61346036195755
66,0.33225226402282715,0.3723035752773285,0.0029037068597972393,1.0,0.32798871397972107,0.36154040694236755,-0.01850884035229683,1.0,0.3251306712627411,0.3610502779483795,-0.018450815230607986,0.9994522929191589,0.3223436176776886,0.3605731725692749,-0.0183783620595932,1.0,0.33500024676322937,0.3626604676246643,-0.022962283343076706,1.0,0.3368968963623047,0.3627399206161499,-0.022868718951940536,0.9994571805000305,0.33873385190963745,0.36287298798561096,-0.0228943582624197,1.0,0.31404635310173035,0.36548444628715515,-0.07347868382930756,0.999527096748352,0.3362405598163605,0.36843252182006836,-0.08138898760080338,0.9995444416999817,0.3253169655799866,0.3805488646030426,-0.0030119032599031925,0.9961366057395935,0.33176925778388977,0.38119831681251526,-0.013824032619595528,0.9889328479766846,0.2735980749130249,0.4146415889263153,-0.07540193945169449,0.9997323155403137,0.3498525023460388,0.41792818903923035,-0.07767758518457413,0.9974496960639954,0.2532691955566406,0.4799554944038391,-0.031469281762838364,0.37807318568229675,0.3575211465358734,0.4697872996330261,-0.0662926733493805,0.1508638560771942,0.27495938539505005,0.5006005764007568,-0.020804831758141518,0.02184312604367733,0.34078019857406616,0.4788312613964081,-0.040524184703826904,0.015757456421852112,0.27949339151382446,0.5009117126464844,-0.025515511631965637,0.02065637893974781,0.335427463054657,0.48203882575035095,-0.03903763368725777,0.025033939629793167,0.28506430983543396,0.499432235956192,-0.03841196745634079,0.024381643161177635,0.33251017332077026,0.47982871532440186,-0.045069772750139236,0.026979701593518257,0.2864038944244385,0.5008807182312012,-0.028060222044587135,0.02789180725812912,0.33252155780792236,0.4796992242336273,-0.04273106902837753,0.0255225021392107,0.28392288088798523,0.5800826549530029,-0.015730557963252068,0.9999732971191406,0.33020585775375366,0.577315092086792,0.01620221510529518,0.99994957447052,0.25671857595443726,0.6975338459014893,0.0139682712033391,0.9835442900657654,0.3451163172721863,0.6782945990562439,0.10144484043121338,0.7393003106117249,0.23704743385314941,0.8146642446517944,0.007056351751089096,0.9700573682785034,0.3649384081363678,0.7924270033836365,0.15329356491565704,0.8230293393135071,0.24049976468086243,0.8337959051132202,0.004863574635237455,0.9284194707870483,0.36668717861175537,0.8104599118232727,0.15601947903633118,0.8680307865142822,0.21376100182533264,0.8279964923858643,-0.020187849178910255,0.6671037673950195,0.364998996257782,0.8156068921089172,0.1518184095621109,0.307859867811203
67,0.33082324266433716,0.36975857615470886,0.09919743984937668,1.0,0.3275555372238159,0.35891613364219666,0.07588955014944077,1.0,0.32480907440185547,0.3583592176437378,0.07596389949321747,0.9999936819076538,0.3221210837364197,0.35780149698257446,0.07595530897378922,1.0,0.3343896269798279,0.360432893037796,0.06929358839988708,1.0,0.33627161383628845,0.3606365919113159,0.06938053667545319,0.9999954700469971,0.3380712568759918,0.36089086532592773,0.06935165822505951,1.0,0.3143545985221863,0.36280810832977295,0.01211288757622242,0.9999922513961792,0.33580657839775085,0.3667965829372406,-0.015659291297197342,0.9999865293502808,0.32413822412490845,0.3782128095626831,0.08281125128269196,0.9997290968894958,0.3304859697818756,0.3791691064834595,0.07414667308330536,0.9994051456451416,0.27334731817245483,0.4119207561016083,-0.010184051468968391,0.9996545314788818,0.34732839465141296,0.41486552357673645,-0.04561370983719826,0.9998052716255188,0.2550123631954193,0.47951728105545044,0.024222582578659058,0.035369984805583954,0.3754594624042511,0.43777287006378174,-0.0902404934167862,0.8457381129264832,0.2761549949645996,0.5104070901870728,0.01597294956445694,0.012012867256999016,0.3654952943325043,0.4049786329269409,-0.10761106014251709,0.47241729497909546,0.2802586555480957,0.5150375962257385,0.011101690120995045,0.01646077074110508,0.377815306186676,0.39605027437210083,-0.11984660476446152,0.4562254250049591,0.2856886088848114,0.5137383937835693,-0.0006992386770434678,0.01897006668150425,0.37153199315071106,0.3928612470626831,-0.11843957006931305,0.4562542140483856,0.28698045015335083,0.5133271813392639,0.009428366087377071,0.02093723602592945,0.3659777343273163,0.39674803614616394,-0.10720846801996231,0.37898319959640503,0.2842271029949188,0.5770576000213623,-0.0073259868659079075,0.999988317489624,0.32950302958488464,0.5770166516304016,0.007699691690504551,0.9999939203262329,0.25660839676856995,0.6939860582351685,0.016779251396656036,0.9293915033340454,0.34743887186050415,0.6807379126548767,0.056374628096818924,0.786279022693634,0.23701611161231995,0.8103883266448975,-0.017344195395708084,0.8559645414352417,0.3664441704750061,0.7979997396469116,0.09555282443761826,0.7545214295387268,0.24073036015033722,0.8293559551239014,-0.022035295143723488,0.870291531085968,0.36783567070961,0.8182758092880249,0.0863700658082962,0.8464649319648743,0.21435546875,0.8270097374916077,-0.04506337642669678,0.3339630365371704,0.3711269795894623,0.8190382719039917,0.05525071173906326,0.24740853905677795
68,0.3342265188694,0.3676534593105316,-0.10843248665332794,1.0,0.33088022470474243,0.35730552673339844,-0.1311456859111786,1.0,0.328271746635437,0.35705265402793884,-0.1311492919921875,0.9999804496765137,0.32573437690734863,0.3567698895931244,-0.13108739256858826,1.0,0.3371735215187073,0.3582212030887604,-0.1349867880344391,1.0,0.33892562985420227,0.35837334394454956,-0.1348106563091278,0.9999758005142212,0.3406427800655365,0.35856395959854126,-0.1347249299287796,1.0,0.3175637722015381,0.36224377155303955,-0.16502158343791962,0.9999756813049316,0.338273823261261,0.36618316173553467,-0.180033341050148,0.9999741315841675,0.32741278409957886,0.3775483965873718,-0.11204715818166733,0.9995543360710144,0.333085298538208,0.37781447172164917,-0.11694453656673431,0.9990092515945435,0.2720290422439575,0.41085225343704224,-0.1469535529613495,0.9999324083328247,0.3549179434776306,0.4159495532512665,-0.13660375773906708,0.9991436004638672,0.2526097297668457,0.484013170003891,-0.11234857141971588,0.8617432713508606,0.36497896909713745,0.48047271370887756,-0.11487674713134766,0.33181649446487427,0.2717897891998291,0.5391819477081299,-0.13021525740623474,0.10672418773174286,0.33667927980422974,0.5232702493667603,-0.09997620433568954,0.021203329786658287,0.2759823799133301,0.5529556274414062,-0.14582358300685883,0.07870553433895111,0.32981646060943604,0.5361601114273071,-0.09542695432901382,0.02147667296230793,0.2805941104888916,0.5542176961898804,-0.1598743051290512,0.08888613432645798,0.3275377154350281,0.5371509790420532,-0.11566495895385742,0.023356180638074875,0.28248950839042664,0.5498248934745789,-0.13813574612140656,0.09113090485334396,0.32691365480422974,0.5320608019828796,-0.09674720466136932,0.0208490751683712,0.28170666098594666,0.5726800560951233,-0.0015692708548158407,0.999992847442627,0.3333943784236908,0.5722289681434631,0.002081414684653282,0.9999798536300659,0.25595778226852417,0.6903817057609558,0.039518412202596664,0.9888160228729248,0.3508909046649933,0.6748586297035217,0.06950439512729645,0.9039026498794556,0.23551495373249054,0.8079102039337158,0.04888482764363289,0.9875515103340149,0.3741276264190674,0.7910140752792358,0.11878639459609985,0.96200031042099,0.2379813939332962,0.8265940546989441,0.04900049790740013,0.972421407699585,0.3760329782962799,0.8108022809028625,0.11904218047857285,0.96617591381073,0.21611881256103516,0.8234360218048096,0.025697272270917892,0.7765747904777527,0.3771999180316925,0.8113051652908325,0.0968051552772522,0.6021033525466919
69,0.33478742837905884,0.35976555943489075,-0.15329058468341827,1.0,0.3315885365009308,0.3492472767829895,-0.1752607226371765,1.0,0.3291482925415039,0.349220335483551,-0.1752600520849228,0.9999768733978271,0.32679012417793274,0.3491961658000946,-0.17519953846931458,1.0,0.33779194951057434,0.3495434820652008,-0.17672650516033173,1.0,0.33957639336586,0.3494788408279419,-0.17656779289245605,0.9999713897705078,0.34135302901268005,0.34945836663246155,-0.17650169134140015,1.0,0.3190006613731384,0.3561871647834778,-0.19998937845230103,0.9999555349349976,0.33986371755599976,0.3568774461746216,-0.20463557541370392,0.9999747276306152,0.32840123772621155,0.3702920377254486,-0.1529853492975235,0.9993817806243896,0.3338220715522766,0.37002480030059814,-0.15497137606143951,0.9981447458267212,0.2738393247127533,0.40981048345565796,-0.15950442850589752,0.9998941421508789,0.3595293462276459,0.4119317829608917,-0.15141624212265015,0.9993021488189697,0.25305795669555664,0.48309949040412903,-0.13071730732917786,0.4696143865585327,0.3610483407974243,0.471187025308609,-0.13178662955760956,0.2536074221134186,0.27165457606315613,0.5315883159637451,-0.16691116988658905,0.046640753746032715,0.33266347646713257,0.5066987872123718,-0.1324303150177002,0.015444804914295673,0.2747815251350403,0.5426127910614014,-0.181497722864151,0.041641511023044586,0.32452163100242615,0.5175725817680359,-0.13735809922218323,0.019875418394804,0.2813169062137604,0.5419667363166809,-0.19676755368709564,0.04863950237631798,0.3211519122123718,0.5184792876243591,-0.14532800018787384,0.022174708545207977,0.28333601355552673,0.5378595590591431,-0.1753590852022171,0.050823651254177094,0.32127493619918823,0.5146204829216003,-0.13385537266731262,0.022691713646054268,0.28496649861335754,0.5677791237831116,-0.010701069608330727,0.9999864101409912,0.3366611897945404,0.5676162242889404,0.011371990665793419,0.9999709129333496,0.254511296749115,0.6886436939239502,0.04066966101527214,0.9646585583686829,0.3512710630893707,0.6738799810409546,0.06473715603351593,0.7312600612640381,0.23421216011047363,0.8083005547523499,0.053213197737932205,0.9666385054588318,0.37521928548812866,0.7939746975898743,0.12090184539556503,0.8522813320159912,0.23803608119487762,0.8282678723335266,0.051286548376083374,0.9126300811767578,0.3782828748226166,0.8136101365089417,0.12239410728216171,0.876966118812561,0.21148636937141418,0.819232165813446,0.008949079550802708,0.5588374137878418,0.37440431118011475,0.81391441822052,0.09555558115243912,0.2977452278137207
70,0.33695513010025024,0.35229963064193726,-0.24577133357524872,1.0,0.3340603709220886,0.3410632014274597,-0.26430070400238037,1.0,0.33180001378059387,0.3413539528846741,-0.2642424404621124,0.9998327493667603,0.32960668206214905,0.34166738390922546,-0.2641844153404236,1.0,0.33981603384017944,0.3401585817337036,-0.26576846837997437,1.0,0.34141281247138977,0.3395427167415619,-0.265645295381546,0.9998995065689087,0.3430040776729584,0.33897897601127625,-0.2655099928379059,1.0,0.32189467549324036,0.3485751152038574,-0.26893723011016846,0.9998279809951782,0.341521680355072,0.34497982263565063,-0.27488118410110474,0.9999227523803711,0.33071717619895935,0.3634136915206909,-0.23801283538341522,0.9968507885932922,0.3355620503425598,0.3617284595966339,-0.24026012420654297,0.9905567169189453,0.27860912680625916,0.40439191460609436,-0.19058671593666077,0.9994931221008301,0.36026960611343384,0.40169551968574524,-0.18818087875843048,0.9997194409370422,0.2550017237663269,0.4738418161869049,-0.1285107284784317,0.07332651317119598,0.3828943371772766,0.4515942335128784,-0.15681828558444977,0.7299565672874451,0.2723010182380676,0.5209159851074219,-0.1463860720396042,0.0453508161008358,0.3777310848236084,0.4681411683559418,-0.15824703872203827,0.24336427450180054,0.2736116945743561,0.5286146402359009,-0.15633943676948547,0.0419621504843235,0.3788506090641022,0.4704485833644867,-0.1664007306098938,0.1813385784626007,0.2807117700576782,0.528967559337616,-0.17279966175556183,0.04728041961789131,0.37114855647087097,0.47046852111816406,-0.17365556955337524,0.19160008430480957,0.2830786108970642,0.525902509689331,-0.15326662361621857,0.04860144853591919,0.36790376901626587,0.47013598680496216,-0.1593601405620575,0.1782575100660324,0.2853493392467499,0.560718834400177,-0.022866252809762955,0.9999871253967285,0.3367730975151062,0.5615305304527283,0.023579243570566177,0.9999785423278809,0.2558368444442749,0.6834701299667358,0.004326385445892811,0.8152664303779602,0.34936925768852234,0.6776483654975891,0.05282813310623169,0.2578437328338623,0.2361040860414505,0.8064124584197998,0.05628746747970581,0.8491049408912659,0.3752038776874542,0.8001497983932495,0.14242181181907654,0.45267346501350403,0.23971407115459442,0.8269987106323242,0.0549100860953331,0.6347653269767761,0.3793224096298218,0.8194859623908997,0.14524124562740326,0.4660615921020508,0.2073982208967209,0.8143409490585327,-0.016666889190673828,0.3836960792541504,0.36585450172424316,0.8197833895683289,0.08042944967746735,0.16252149641513824
71,0.33688822388648987,0.3488422632217407,-0.3032781779766083,1.0,0.3342543840408325,0.339847594499588,-0.3258008360862732,1.0,0.3318259119987488,0.3402039706707001,-0.3256881833076477,0.9999821186065674,0.32948026061058044,0.3405461609363556,-0.3256116211414337,1.0,0.34074538946151733,0.3389526605606079,-0.3242657780647278,1.0,0.34300482273101807,0.33842167258262634,-0.3241303861141205,0.9999938011169434,0.3452339172363281,0.3380388021469116,-0.3240731656551361,1.0,0.3240545392036438,0.34887030720710754,-0.3404747545719147,0.9999802112579346,0.34525415301322937,0.3452742397785187,-0.3330964148044586,0.9999945163726807,0.3312240242958069,0.3602443039417267,-0.2995242476463318,0.9981219172477722,0.3372790515422821,0.3589855432510376,-0.2975481450557709,0.9965333938598633,0.28916671872138977,0.4035973846912384,-0.24632628262043,0.9979979395866394,0.3655490279197693,0.394704133272171,-0.21272572875022888,0.9996452331542969,0.278827965259552,0.4612499177455902,-0.08676238358020782,0.1617622971534729,0.3952496647834778,0.4074991047382355,-0.1112169474363327,0.9594791531562805,0.30883416533470154,0.4681820273399353,0.05512489750981331,0.2551088333129883,0.3665052652359009,0.38769498467445374,0.004254960920661688,0.8245282769203186,0.31104129552841187,0.4663998782634735,0.08191733807325363,0.3076792061328888,0.36214274168014526,0.37999847531318665,0.025212254375219345,0.7989674210548401,0.3207850456237793,0.4664546251296997,0.06992217153310776,0.3443583548069,0.3525616228580475,0.38392576575279236,0.013976847752928734,0.8137087225914001,0.32219308614730835,0.46563729643821716,0.05569958686828613,0.3687840402126312,0.3517534136772156,0.38758817315101624,0.005324305035173893,0.8189252018928528,0.2990258038043976,0.5567519068717957,-0.03501465544104576,0.9999991655349731,0.34441468119621277,0.5564966797828674,0.035619668662548065,0.9999980926513672,0.26899954676628113,0.677272379398346,-0.021961305290460587,0.9994128942489624,0.3554154932498932,0.6800557971000671,0.04467902332544327,0.9843005537986755,0.24068424105644226,0.7989776134490967,0.031110968440771103,0.9965763688087463,0.3827422857284546,0.8020362257957458,0.13145703077316284,0.9598153829574585,0.24354486167430878,0.8180798292160034,0.028893759474158287,0.9390581250190735,0.388164222240448,0.8194588422775269,0.1339305192232132,0.8995817303657532,0.20546698570251465,0.807280421257019,-0.07214494049549103,0.9523195624351501,0.3703542649745941,0.8231289982795715,0.06317267566919327,0.8228915929794312
72,0.34053486585617065,0.35370105504989624,-0.341271311044693,1.0,0.33748000860214233,0.3437921106815338,-0.36265280842781067,1.0,0.33498188853263855,0.34405115246772766,-0.3625701367855072,0.9999922513961792,0.3325715661048889,0.34429943561553955,-0.3624446988105774,1.0,0.3438863158226013,0.342911034822464,-0.3618782162666321,1.0,0.3459097445011139,0.3422949016094208,-0.36174631118774414,0.9999964237213135,0.3479076623916626,0.34179455041885376,-0.36164742708206177,1.0,0.32595425844192505,0.3512353301048279,-0.3680344521999359,0.9999933242797852,0.34706440567970276,0.34780216217041016,-0.36122819781303406,0.9999967813491821,0.3341311812400818,0.36456114053726196,-0.33272868394851685,0.9998103976249695,0.34009531140327454,0.36306509375572205,-0.3312624394893646,0.9995661377906799,0.29029136896133423,0.40314266085624695,-0.26606154441833496,0.9999194145202637,0.3663257956504822,0.4024085998535156,-0.24009855091571808,0.9999324083328247,0.2822071611881256,0.4696073830127716,-0.14786866307258606,0.4048498868942261,0.3918973207473755,0.4547348618507385,-0.15909996628761292,0.7533561587333679,0.30405348539352417,0.500993549823761,-0.09648939967155457,0.2299899160861969,0.3702860474586487,0.46240317821502686,-0.09326612949371338,0.27973753213882446,0.30750516057014465,0.506633996963501,-0.09422660619020462,0.2080647200345993,0.36611324548721313,0.4490392804145813,-0.08615821599960327,0.22226952016353607,0.31520169973373413,0.5065616369247437,-0.11334278434515,0.23483794927597046,0.35930758714675903,0.43299198150634766,-0.10312394052743912,0.2350190430879593,0.31664368510246277,0.5048245787620544,-0.1022396832704544,0.21669317781925201,0.3575114905834198,0.4478270709514618,-0.09574658423662186,0.2313522845506668,0.29929018020629883,0.5624359250068665,-0.03250916302204132,0.9999980926513672,0.34458616375923157,0.5637354254722595,0.03311087563633919,0.9999966621398926,0.27009648084640503,0.6800655126571655,-0.02524556592106819,0.9945868253707886,0.35580652952194214,0.6853469014167786,0.049906954169273376,0.8076620101928711,0.2411516159772873,0.8011805415153503,0.054162003099918365,0.9912228584289551,0.3825971186161041,0.8038235306739807,0.14305076003074646,0.8986985683441162,0.24365825951099396,0.8202173709869385,0.05470860004425049,0.9426145553588867,0.3880617320537567,0.8213322162628174,0.14858879148960114,0.8345979452133179,0.2093898355960846,0.8134786486625671,-0.054049063473939896,0.9068302512168884,0.37052178382873535,0.8272597193717957,0.08663769066333771,0.6925041675567627
73,0.34481167793273926,0.35050106048583984,-0.28910204768180847,1.0,0.34173211455345154,0.3412790298461914,-0.3090905547142029,1.0,0.3391374945640564,0.34161487221717834,-0.30906206369400024,0.9997571110725403,0.3366379141807556,0.3419446051120758,-0.3089869022369385,1.0,0.3483879864215851,0.3406393229961395,-0.31229034066200256,1.0,0.3504585325717926,0.34026750922203064,-0.312091588973999,0.9998500347137451,0.3525037169456482,0.33998778462409973,-0.3120618462562561,1.0,0.3293263614177704,0.3495267927646637,-0.3087095618247986,0.9998119473457336,0.3516528010368347,0.34661880135536194,-0.32140690088272095,0.999876856803894,0.3381560742855072,0.3607841432094574,-0.2784927487373352,0.9932524561882019,0.34433192014694214,0.35942384600639343,-0.28254109621047974,0.9897027611732483,0.28717705607414246,0.3998858630657196,-0.20935814082622528,0.9993865489959717,0.37073177099227905,0.39942073822021484,-0.22041413187980652,0.9993245601654053,0.2716282904148102,0.46712732315063477,-0.0967961773276329,0.2842865586280823,0.3782735764980316,0.4510992169380188,-0.12911444902420044,0.22427576780319214,0.29637807607650757,0.4940560758113861,-0.05187968537211418,0.12221509963274002,0.3458406329154968,0.46356943249702454,-0.031164605170488358,0.08028946816921234,0.30017903447151184,0.49838903546333313,-0.04622897133231163,0.15186269581317902,0.3399187922477722,0.46524572372436523,-0.021683691069483757,0.0989343598484993,0.308910071849823,0.498824805021286,-0.06684964150190353,0.1700512319803238,0.33443573117256165,0.46663105487823486,-0.033695824444293976,0.10743316262960434,0.3104082942008972,0.4978410601615906,-0.05824402719736099,0.16960062086582184,0.33330368995666504,0.46717569231987,-0.031608179211616516,0.09930859506130219,0.29959768056869507,0.5556682348251343,-0.030540620908141136,0.9999746084213257,0.3484134078025818,0.5595133304595947,0.030118772760033607,0.9999532699584961,0.2719525992870331,0.6708754301071167,-0.001483680447563529,0.9661843776702881,0.3618440330028534,0.6830234527587891,0.0334787555038929,0.8088481426239014,0.24041862785816193,0.7901933193206787,0.07980816066265106,0.9533564448356628,0.3865548074245453,0.8024289608001709,0.11096848547458649,0.8942253589630127,0.24272529780864716,0.8090788722038269,0.08150414377450943,0.7897292971611023,0.39031869173049927,0.8207921385765076,0.11305183172225952,0.8395416736602783,0.211568683385849,0.8003196120262146,-0.001704985974356532,0.691015899181366,0.3774860203266144,0.8262064456939697,0.054912321269512177,0.5372593998908997
74,0.34615930914878845,0.3544636070728302,-0.17835944890975952,1.0,0.34278368949890137,0.34420809149742126,-0.20118924975395203,1.0,0.3399905562400818,0.3441157639026642,-0.2012164145708084,0.9997618794441223,0.33728522062301636,0.3440287709236145,-0.2011338174343109,1.0,0.34974920749664307,0.34423625469207764,-0.20448008179664612,1.0,0.3518199920654297,0.34391453862190247,-0.20427891612052917,0.9998565912246704,0.35385268926620483,0.3436386287212372,-0.2042667418718338,1.0,0.32958030700683594,0.3497150242328644,-0.22957172989845276,0.9995836615562439,0.35254475474357605,0.34880152344703674,-0.24100784957408905,0.999891996383667,0.3390137851238251,0.3633236587047577,-0.17891541123390198,0.9942964911460876,0.34561124444007874,0.3626740574836731,-0.18274202942848206,0.9906337261199951,0.28747451305389404,0.3998161852359772,-0.18337120115756989,0.9996882677078247,0.3701667785644531,0.40149036049842834,-0.2007182389497757,0.9996347427368164,0.2757893204689026,0.4764575958251953,-0.10661804676055908,0.07616861909627914,0.3670788109302521,0.4775727689266205,-0.08508679270744324,0.013591556809842587,0.2949284613132477,0.5079241991043091,-0.1026182770729065,0.02526295930147171,0.3413947522640228,0.5175763964653015,-0.021670136600732803,0.006623240653425455,0.2979523539543152,0.5157374739646912,-0.11285761743783951,0.02947334386408329,0.33383578062057495,0.5290814638137817,-0.017427343875169754,0.01016505528241396,0.3051963448524475,0.5146654844284058,-0.12865956127643585,0.03481501340866089,0.3315751850605011,0.5302833914756775,-0.03201622888445854,0.010980503633618355,0.3074651062488556,0.5115622282028198,-0.11030721664428711,0.031916823238134384,0.33137646317481995,0.5257188677787781,-0.02554677054286003,0.009978227317333221,0.3008698523044586,0.5596663951873779,-0.023352138698101044,0.9998888969421387,0.3487406373023987,0.5599907636642456,0.023766066879034042,0.9998822212219238,0.271405965089798,0.6766330003738403,0.0220213420689106,0.8298010230064392,0.3626786172389984,0.6803656220436096,0.05107966810464859,0.49964475631713867,0.2399807870388031,0.7928898334503174,0.07604504376649857,0.8768222332000732,0.38835930824279785,0.7997216582298279,0.11449111998081207,0.8046144843101501,0.2423992156982422,0.811163067817688,0.07690629363059998,0.6286077499389648,0.3915432393550873,0.818551778793335,0.11884729564189911,0.7944452166557312,0.20995299518108368,0.8028274774551392,0.0045112925581634045,0.42264601588249207,0.3778519034385681,0.8193556666374207,0.0784706324338913,0.33280083537101746
75,0.3503784239292145,0.35393914580345154,-0.29840588569641113,1.0,0.3470974862575531,0.34408318996429443,-0.31610697507858276,1.0,0.34439390897750854,0.34421902894973755,-0.31604844331741333,0.9999940395355225,0.34179624915122986,0.34432971477508545,-0.3159458041191101,1.0,0.35384899377822876,0.34372884035110474,-0.320667564868927,1.0,0.35579320788383484,0.34338313341140747,-0.3205077052116394,0.9999957084655762,0.3577375113964081,0.3430904448032379,-0.32043081521987915,1.0,0.3341853618621826,0.35086262226104736,-0.3152259886264801,0.9999945163726807,0.3564871549606323,0.3494745194911957,-0.3322121798992157,0.9999963045120239,0.34347251057624817,0.3639044463634491,-0.28757891058921814,0.999795138835907,0.3495551645755768,0.3628678023815155,-0.2931551933288574,0.9995711445808411,0.2918474078178406,0.4028136432170868,-0.2174534797668457,0.999841570854187,0.3750762343406677,0.402908593416214,-0.23208697140216827,0.9998095631599426,0.28047487139701843,0.4792742133140564,-0.11626587808132172,0.18781264126300812,0.36970484256744385,0.4826571047306061,-0.08877543359994888,0.27951300144195557,0.2986643314361572,0.5182315707206726,-0.10475894063711166,0.08164194226264954,0.3480280637741089,0.5344429016113281,-0.059901632368564606,0.102562814950943,0.30054983496665955,0.5275140404701233,-0.10930852591991425,0.09125224500894547,0.3434351682662964,0.5471634268760681,-0.05963988974690437,0.09306906908750534,0.3086322844028473,0.5255882740020752,-0.13130973279476166,0.10477211326360703,0.34027284383773804,0.5506667494773865,-0.07363633066415787,0.09627916663885117,0.31105467677116394,0.5210791230201721,-0.11298628151416779,0.09991034120321274,0.3380654454231262,0.5456092357635498,-0.06238000467419624,0.08923236280679703,0.305086225271225,0.5607406497001648,-0.014582643285393715,0.9999904632568359,0.35508689284324646,0.5622580051422119,0.01502342987805605,0.9999772310256958,0.2732793688774109,0.675661027431488,0.023231418803334236,0.9482712745666504,0.3677019774913788,0.6810007691383362,0.03745243325829506,0.7634403705596924,0.23959234356880188,0.791359007358551,0.09786180406808853,0.9517144560813904,0.3904086947441101,0.8002286553382874,0.1376654952764511,0.88036048412323,0.2402300387620926,0.8092072606086731,0.10061486065387726,0.8543148636817932,0.39322832226753235,0.8192228674888611,0.1422671228647232,0.8668718338012695,0.21220970153808594,0.8034397959709167,0.013615846633911133,0.6935744881629944,0.38172033429145813,0.8198814392089844,0.07628307491540909,0.5626314282417297
76,0.36386919021606445,0.34818580746650696,-0.3204878568649292,1.0,0.3600709140300751,0.3390348553657532,-0.33742010593414307,1.0,0.3569165766239166,0.33926597237586975,-0.3373156189918518,0.9999833106994629,0.35386374592781067,0.33948051929473877,-0.337197482585907,1.0,0.3674640953540802,0.33921879529953003,-0.3463010787963867,1.0,0.36945369839668274,0.33927425742149353,-0.34615856409072876,0.9999817609786987,0.371440589427948,0.33940738439559937,-0.346133291721344,1.0,0.34413450956344604,0.3485126793384552,-0.32598036527633667,0.9999853372573853,0.36866670846939087,0.34820711612701416,-0.3630918562412262,0.999983549118042,0.3554724454879761,0.3589659631252289,-0.3054042160511017,0.9995201826095581,0.3621426224708557,0.358387291431427,-0.3168727159500122,0.9990929365158081,0.29590344429016113,0.4012412130832672,-0.2125377655029297,0.9994057416915894,0.38207265734672546,0.40919655561447144,-0.26442116498947144,0.9995330572128296,0.28289926052093506,0.4747258126735687,-0.09108544886112213,0.151339590549469,0.37679970264434814,0.48258695006370544,-0.11859271675348282,0.5444814562797546,0.3096165060997009,0.505503237247467,-0.05017852783203125,0.10537847876548767,0.35775992274284363,0.527600109577179,-0.009891262277960777,0.23539294302463531,0.3134714961051941,0.51320481300354,-0.04692411795258522,0.1284787654876709,0.3535846471786499,0.5399643182754517,-0.0017969377804547548,0.20872995257377625,0.32264572381973267,0.5127331018447876,-0.0731392651796341,0.15088114142417908,0.3528521656990051,0.5427306294441223,-0.014738054946064949,0.2209000289440155,0.32454267144203186,0.5114969611167908,-0.05860245227813721,0.13714365661144257,0.34934496879577637,0.5383646488189697,-0.00894358940422535,0.20034480094909668,0.31654390692710876,0.5559473037719727,0.002340302336961031,0.9999560117721558,0.3653137981891632,0.562734067440033,-0.0019136430928483605,0.9999167919158936,0.3026910722255707,0.6683334112167358,0.04304097592830658,0.8640177845954895,0.376816064119339,0.682148277759552,0.029396777972579002,0.8071315884590149,0.2822127938270569,0.7862484455108643,0.13875092566013336,0.8580985069274902,0.3934301733970642,0.8021833300590515,0.13683536648750305,0.8325971961021423,0.2815607786178589,0.8058428168296814,0.14312268793582916,0.6349653005599976,0.39379432797431946,0.823689877986908,0.1412840038537979,0.8208329081535339,0.2705729305744171,0.7945007681846619,0.05931537225842476,0.5394226908683777,0.3900570273399353,0.8152129650115967,0.07367672026157379,0.5258502960205078
77,0.3654519021511078,0.3476148247718811,-0.1711725890636444,1.0,0.36076444387435913,0.3381332457065582,-0.19511592388153076,1.0,0.3575374484062195,0.33832624554634094,-0.1950332522392273,0.9998496770858765,0.3544473648071289,0.33850064873695374,-0.1949499249458313,1.0,0.3687637746334076,0.33842092752456665,-0.20121872425079346,1.0,0.37091028690338135,0.33853915333747864,-0.20105722546577454,0.9998315572738647,0.37303391098976135,0.3387554883956909,-0.20108886063098907,1.0,0.3453124165534973,0.34755346179008484,-0.22932353615760803,0.9998650550842285,0.3708634674549103,0.3479900062084198,-0.2535390555858612,0.9998290538787842,0.35741227865219116,0.35847365856170654,-0.17349284887313843,0.997154951095581,0.3645915687084198,0.3582321107387543,-0.18104524910449982,0.9920476078987122,0.29867151379585266,0.40085265040397644,-0.18139192461967468,0.9999254941940308,0.38787055015563965,0.40889886021614075,-0.1841350495815277,0.9987795948982239,0.28307044506073,0.47879698872566223,-0.07820869982242584,0.0745660737156868,0.3816736340522766,0.48902449011802673,-0.0701373964548111,0.06602997332811356,0.30855506658554077,0.5167936682701111,0.0011675248388200998,0.01700505055487156,0.36729612946510315,0.5484146475791931,0.07741648703813553,0.02305258996784687,0.3124966025352478,0.5276059508323669,0.009486593306064606,0.01902046985924244,0.3623625338077545,0.5664684772491455,0.09829392284154892,0.026691872626543045,0.3195439577102661,0.5274449586868286,-0.007323186844587326,0.021625151857733727,0.362587034702301,0.5694519281387329,0.08902572095394135,0.027267735451459885,0.3228103816509247,0.5249006748199463,-0.003147156210616231,0.021941155195236206,0.360035240650177,0.5630337595939636,0.08038505911827087,0.026907769963145256,0.31990522146224976,0.5655957460403442,-0.0129029406234622,0.999992847442627,0.3718516230583191,0.571601152420044,0.013432741165161133,0.9999696016311646,0.2867462933063507,0.6726610064506531,0.048122141510248184,0.8947647213935852,0.3811127245426178,0.6837641596794128,0.09223704040050507,0.35289791226387024,0.2590204179286957,0.7911908030509949,0.09595432132482529,0.911349356174469,0.3958960771560669,0.8019867539405823,0.19141808152198792,0.656398355960846,0.26279109716415405,0.8124694228172302,0.09750179201364517,0.8175074458122253,0.3974553942680359,0.8229604363441467,0.19587743282318115,0.8200139999389648,0.2310759574174881,0.7969181537628174,0.04705408960580826,0.4901212751865387,0.3885504901409149,0.8176891207695007,0.1643771082162857,0.22388644516468048
78,0.36809366941452026,0.3445889353752136,-0.19739142060279846,1.0,0.364178866147995,0.33562713861465454,-0.21870890259742737,1.0,0.3610779345035553,0.3358392119407654,-0.21860745549201965,0.9999845027923584,0.3581034541130066,0.33600836992263794,-0.21852156519889832,1.0,0.3720322847366333,0.3360568583011627,-0.2236344814300537,1.0,0.37421897053718567,0.33629554510116577,-0.22344335913658142,0.9999761581420898,0.37639373540878296,0.3366449177265167,-0.2234472781419754,1.0,0.3500903844833374,0.34618690609931946,-0.2415885627269745,0.9999897480010986,0.37515828013420105,0.347355455160141,-0.25963839888572693,0.9999589920043945,0.36067599058151245,0.3557697534561157,-0.19529558718204498,0.9995126724243164,0.3675265312194824,0.3555830419063568,-0.20111915469169617,0.9985565543174744,0.30551832914352417,0.40090054273605347,-0.17815682291984558,0.9998959302902222,0.39290058612823486,0.407289057970047,-0.17877916991710663,0.9990782737731934,0.289395272731781,0.48315462470054626,-0.0509893074631691,0.09546401351690292,0.3823374807834625,0.4864562451839447,-0.04025479033589363,0.0742078647017479,0.3056820333003998,0.5224055051803589,0.03521590679883957,0.029450172558426857,0.3673693537712097,0.5356225371360779,0.13246476650238037,0.024589180946350098,0.30845463275909424,0.5345146059989929,0.04484698176383972,0.03845415636897087,0.36245155334472656,0.5510551929473877,0.1549278348684311,0.02963324636220932,0.31700822710990906,0.53459233045578,0.02754158154129982,0.04311833530664444,0.36284303665161133,0.552979052066803,0.14430853724479675,0.02930779941380024,0.3187773525714874,0.5314239859580994,0.031072314828634262,0.037881284952163696,0.3604607582092285,0.5474032759666443,0.13466893136501312,0.02813694439828396,0.3249357044696808,0.5643312335014343,-0.010698596015572548,0.999993085861206,0.3759147524833679,0.5688789486885071,0.011178317479789257,0.9999794960021973,0.29108867049217224,0.6697975397109985,0.03349967673420906,0.9089370965957642,0.3849239647388458,0.6838089823722839,0.08062410354614258,0.7599400281906128,0.25532710552215576,0.7867946624755859,0.09896162152290344,0.8960369825363159,0.4011247158050537,0.8018215298652649,0.1476755440235138,0.8565998077392578,0.2560175657272339,0.8078531622886658,0.10303054004907608,0.7851027846336365,0.4027872681617737,0.8224706649780273,0.15240350365638733,0.8931241631507874,0.23152856528759003,0.7928987145423889,0.054318808019161224,0.4746575653553009,0.3929874002933502,0.8179417848587036,0.11918614059686661,0.45449379086494446
79,0.3671984374523163,0.3391841948032379,-0.19735926389694214,1.0,0.3645164370536804,0.33061516284942627,-0.2220269739627838,1.0,0.3616202473640442,0.33063825964927673,-0.2219274938106537,0.9999692440032959,0.35885757207870483,0.3306230306625366,-0.22179071605205536,1.0,0.37204641103744507,0.33135393261909485,-0.22052101790905,1.0,0.37439751625061035,0.331609845161438,-0.22035391628742218,0.9999774694442749,0.3767322897911072,0.3319658637046814,-0.22041229903697968,1.0,0.35316112637519836,0.340201735496521,-0.24857640266418457,0.9999709129333496,0.3773496448993683,0.34205788373947144,-0.23824849724769592,0.9999673366546631,0.36061954498291016,0.34985730051994324,-0.1964075267314911,0.9992077946662903,0.3674582540988922,0.3501005470752716,-0.19398082792758942,0.9982526898384094,0.3117215037345886,0.39676257967948914,-0.17610812187194824,0.9997742772102356,0.3975617587566376,0.4011148512363434,-0.13952097296714783,0.9996150732040405,0.2941637337207794,0.4735647737979889,-0.05243424326181412,0.11018232256174088,0.3910934329032898,0.479211688041687,-0.007264431565999985,0.051466427743434906,0.30769580602645874,0.5038901567459106,0.020648790523409843,0.06436751782894135,0.3713425099849701,0.5130859017372131,0.1290028989315033,0.01927064172923565,0.30897802114486694,0.5150881409645081,0.02100786752998829,0.08087517321109772,0.3657459616661072,0.5238714218139648,0.14850714802742004,0.023358512669801712,0.3172079026699066,0.5136576294898987,0.004864582326263189,0.09272010624408722,0.3641992509365082,0.5271911025047302,0.13341012597084045,0.02411670982837677,0.3199048638343811,0.5116201639175415,0.015231454744935036,0.07984762638807297,0.3629205822944641,0.522974967956543,0.12818223237991333,0.024352889508008957,0.3290652930736542,0.5604309439659119,-0.02061043679714203,0.9999912977218628,0.37780895829200745,0.5624963045120239,0.021098775789141655,0.9999920129776001,0.2940478026866913,0.6666143536567688,-0.014977862127125263,0.9358776211738586,0.3834514021873474,0.682020366191864,0.07998283952474594,0.7898896932601929,0.2580883204936981,0.7815725803375244,0.053501009941101074,0.9047589898109436,0.4018782079219818,0.8029258847236633,0.14379306137561798,0.8382152318954468,0.25786858797073364,0.7999948859214783,0.055321741849184036,0.6897295713424683,0.4050218462944031,0.8210988640785217,0.1451200246810913,0.7529972791671753,0.23089227080345154,0.7928714752197266,-0.024750832468271255,0.5167184472084045,0.39061540365219116,0.8243584036827087,0.08580096811056137,0.41746821999549866
80,0.3720283806324005,0.339974582195282,-0.05222524330019951,1.0,0.3686944246292114,0.33086755871772766,-0.08244922757148743,1.0,0.36585792899131775,0.33076804876327515,-0.08243826776742935,0.9996284246444702,0.36314627528190613,0.3306436240673065,-0.08233778178691864,1.0,0.37622758746147156,0.3317616581916809,-0.08047305047512054,1.0,0.3786271810531616,0.3319779336452484,-0.08026919513940811,0.9997478127479553,0.38099437952041626,0.3322770893573761,-0.08028809726238251,1.0,0.3578271269798279,0.33916008472442627,-0.14472661912441254,0.999592125415802,0.3814385235309601,0.340908408164978,-0.13197460770606995,0.9995527863502502,0.36603081226348877,0.35013240575790405,-0.06489598751068115,0.9966268539428711,0.3731541037559509,0.3505500257015228,-0.06174036115407944,0.9919494390487671,0.32029014825820923,0.3929766118526459,-0.13551999628543854,0.9991872906684875,0.40133920311927795,0.39562463760375977,-0.06744472682476044,0.9992011189460754,0.3035479784011841,0.47133252024650574,-0.07916294038295746,0.22191967070102692,0.39853665232658386,0.47380754351615906,0.019193807616829872,0.024306198582053185,0.30642563104629517,0.5160403251647949,-0.07830913364887238,0.09645433723926544,0.3792441785335541,0.5067345499992371,0.1076752170920372,0.012644043192267418,0.30584830045700073,0.5292431116104126,-0.08956173062324524,0.08834017813205719,0.37337708473205566,0.5152551531791687,0.11811838299036026,0.016791487112641335,0.31079739332199097,0.5283169746398926,-0.10531462728977203,0.10667337477207184,0.3696829080581665,0.5166155099868774,0.10285147279500961,0.017831167206168175,0.31460633873939514,0.5240873098373413,-0.08549272269010544,0.08765596896409988,0.36976778507232666,0.5127559900283813,0.10374393314123154,0.01611476205289364,0.33335810899734497,0.556894838809967,-0.01980959065258503,0.9999830722808838,0.38143637776374817,0.5559582114219666,0.02036922611296177,0.9999910593032837,0.3023380637168884,0.6618483662605286,0.0065238140523433685,0.9053301215171814,0.38618817925453186,0.6765831112861633,0.06329087167978287,0.8864959478378296,0.2769424021244049,0.7728431820869446,0.06800422817468643,0.8790250420570374,0.4028381407260895,0.7963387966156006,0.11363089084625244,0.909368097782135,0.2776760160923004,0.7910029888153076,0.07065971940755844,0.71094810962677,0.4061952531337738,0.8146083950996399,0.11430773884057999,0.8222058415412903,0.25347673892974854,0.7827082872390747,0.005464915186166763,0.48624780774116516,0.39124247431755066,0.8188993334770203,0.06092759221792221,0.4323630630970001
81,0.38502806425094604,0.33686646819114685,-0.057068049907684326,1.0,0.3820682168006897,0.3270706832408905,-0.08436720073223114,1.0,0.3790823221206665,0.32674604654312134,-0.08428756147623062,0.9939671754837036,0.37621214985847473,0.32640427350997925,-0.08420749753713608,1.0,0.39009889960289,0.3280140161514282,-0.08558858186006546,1.0,0.39255326986312866,0.3280540108680725,-0.08546499907970428,0.997811496257782,0.3949206471443176,0.32816678285598755,-0.08556327223777771,1.0,0.3697971701622009,0.33323052525520325,-0.13167405128479004,0.997062623500824,0.39452075958251953,0.3353917896747589,-0.13676023483276367,0.998257577419281,0.37798744440078735,0.3454881012439728,-0.06528134644031525,0.9785181283950806,0.38520878553390503,0.3458842933177948,-0.06667540222406387,0.9646031856536865,0.32766351103782654,0.38476449251174927,-0.10783231258392334,0.9987359642982483,0.408355712890625,0.3868752717971802,-0.08082021027803421,0.9979116320610046,0.3111001253128052,0.4552702307701111,-0.0382513701915741,0.04783652722835541,0.41299986839294434,0.4486471712589264,-0.0068977875635027885,0.07198160886764526,0.3286198377609253,0.4731074571609497,-0.007565354462713003,0.023503005504608154,0.38833826780319214,0.4498625695705414,0.0548962764441967,0.023496899753808975,0.3322863280773163,0.47672849893569946,-0.01427356619387865,0.0317307747900486,0.38287681341171265,0.4491109549999237,0.0612524040043354,0.038210127502679825,0.33705347776412964,0.47713708877563477,-0.021983912214636803,0.03784256801009178,0.3766575753688812,0.44952306151390076,0.04518492519855499,0.039168305695056915,0.3394771218299866,0.47623541951179504,-0.01207483559846878,0.038499873131513596,0.37722116708755493,0.4497045576572418,0.0505199208855629,0.036583077162504196,0.3363027572631836,0.5538157820701599,-0.01621394231915474,0.9999814033508301,0.38353854417800903,0.5541600584983826,0.016797732561826706,0.9999758005142212,0.3021777868270874,0.6649209856987,0.004394258838146925,0.9331790804862976,0.389366090297699,0.6779953837394714,0.06022972613573074,0.8703773617744446,0.2700119614601135,0.7768174409866333,0.027531445026397705,0.9128128886222839,0.4039125442504883,0.7997260689735413,0.08876950293779373,0.8654659390449524,0.2691226601600647,0.7936224341392517,0.02663232758641243,0.821688175201416,0.4066249430179596,0.8166220188140869,0.08981843292713165,0.7809483408927917,0.24588504433631897,0.7922136783599854,-0.03468703106045723,0.5520689487457275,0.3943749964237213,0.8251422643661499,0.04435843601822853,0.38275009393692017
82,0.38489335775375366,0.3327048122882843,-0.027759352698922157,1.0,0.381992369890213,0.322700560092926,-0.05981127545237541,1.0,0.3787704408168793,0.32256507873535156,-0.05973253771662712,0.9918783903121948,0.3756643831729889,0.32239800691604614,-0.059651464223861694,1.0,0.39123088121414185,0.32331690192222595,-0.055907417088747025,1.0,0.3942568898200989,0.32324525713920593,-0.05572391673922539,0.9937206506729126,0.39717015624046326,0.32327693700790405,-0.05579017847776413,1.0,0.3710404336452484,0.33092671632766724,-0.12999311089515686,0.9969679713249207,0.3991228938102722,0.3315867483615875,-0.11169644445180893,0.9944131970405579,0.3788399398326874,0.34234195947647095,-0.04440857097506523,0.9863465428352356,0.3871930241584778,0.34222131967544556,-0.03903888911008835,0.9449877142906189,0.3300512135028839,0.38455599546432495,-0.1189810037612915,0.9981314539909363,0.41876381635665894,0.387082576751709,-0.04853567108511925,0.9947468638420105,0.3132976293563843,0.4609238803386688,-0.02743920125067234,0.1250263899564743,0.43246692419052124,0.4464244842529297,0.08829475939273834,0.14105938374996185,0.3242981731891632,0.48242154717445374,0.04822303354740143,0.04126427322626114,0.40809211134910583,0.43280941247940063,0.24758005142211914,0.08608942478895187,0.3246048092842102,0.4857574701309204,0.055084921419620514,0.04788710176944733,0.405148446559906,0.4279278814792633,0.27170300483703613,0.11608924716711044,0.33100175857543945,0.48560425639152527,0.04592480510473251,0.056310780346393585,0.3899913728237152,0.42651551961898804,0.2594371438026428,0.1167045459151268,0.3341676890850067,0.48461297154426575,0.046769365668296814,0.05041494965553284,0.3943045735359192,0.42863723635673523,0.24771153926849365,0.11463969200849533,0.34093624353408813,0.5530052185058594,-0.030419761314988136,0.9999381303787231,0.39049214124679565,0.556796669960022,0.03092271462082863,0.9999034404754639,0.31014448404312134,0.6561341881752014,0.007170914672315121,0.9337297081947327,0.39214426279067993,0.6786189675331116,0.07218188047409058,0.8215380311012268,0.2883926331996918,0.7608194947242737,0.05254494026303291,0.8748044371604919,0.4029669761657715,0.7977861762046814,0.12598146498203278,0.8434174656867981,0.2906774878501892,0.7776530385017395,0.0539875254034996,0.7436607480049133,0.4071570336818695,0.8148865103721619,0.13049885630607605,0.8002659678459167,0.2631201148033142,0.7730748057365417,-0.0007482031360268593,0.47813019156455994,0.3885325491428375,0.8224130272865295,0.09735807776451111,0.3486994206905365
83,0.38614422082901,0.32895469665527344,-0.11563196033239365,1.0,0.383043110370636,0.31909146904945374,-0.14393575489521027,1.0,0.3796877861022949,0.3190520405769348,-0.14386340975761414,0.9707212448120117,0.3764353096485138,0.31900790333747864,-0.14376959204673767,1.0,0.3924914002418518,0.31960970163345337,-0.1450624167919159,1.0,0.39566129446029663,0.31959670782089233,-0.1448802351951599,0.9584201574325562,0.3987584114074707,0.3196679651737213,-0.14490686357021332,1.0,0.3708037734031677,0.3283579647541046,-0.16275528073310852,0.9794643521308899,0.40055856108665466,0.3288990557193756,-0.19508352875709534,0.9703369736671448,0.3795657753944397,0.33948013186454773,-0.1237754374742508,0.9278139472007751,0.3881801664829254,0.33911770582199097,-0.12467346340417862,0.7892647981643677,0.3282104432582855,0.382402241230011,-0.16331586241722107,0.9985377788543701,0.42276254296302795,0.38618823885917664,-0.12344960868358612,0.9966457486152649,0.3059554696083069,0.4569259285926819,-0.14140121638774872,0.050168104469776154,0.43011894822120667,0.44301050901412964,0.012289244681596756,0.03028090111911297,0.3227054178714752,0.4833013117313385,-0.1678914874792099,0.01983366534113884,0.40571895241737366,0.4477541744709015,-0.015198789536952972,0.01897292770445347,0.3246610760688782,0.48642393946647644,-0.1835070550441742,0.02397027797996998,0.4015269875526428,0.4485444128513336,-0.015379813499748707,0.029439562931656837,0.33269697427749634,0.4862395226955414,-0.19892458617687225,0.030804533511400223,0.3933347761631012,0.44856908917427063,-0.02950269542634487,0.03337361291050911,0.3358251452445984,0.4857136905193329,-0.1756252944469452,0.029806025326251984,0.3930490016937256,0.4486432671546936,-0.019697368144989014,0.0319150872528553,0.33777737617492676,0.5505279302597046,-0.026555299758911133,0.9999170303344727,0.3920627236366272,0.5556016564369202,0.027071986347436905,0.9998818635940552,0.30906620621681213,0.6545335054397583,0.018583206459879875,0.5107975602149963,0.39342162013053894,0.6784597039222717,0.07072415947914124,0.4338237941265106,0.2908645272254944,0.7611730694770813,0.07055644690990448,0.675843358039856,0.40288394689559937,0.7970933318138123,0.14171242713928223,0.6865372061729431,0.2936840057373047,0.7792909145355225,0.07159329950809479,0.5478246808052063,0.40657371282577515,0.8148310780525208,0.1433299481868744,0.634541392326355,0.2678329050540924,0.7709134221076965,0.01110224612057209,0.20479798316955566,0.38932278752326965,0.8198312520980835,0.09545016288757324,0.1620728075504303
