frame,NOSE.x,NOSE.y,NOSE.z,NOSE.v,LEFT_EYE_INNER.x,LEFT_EYE_INNER.y,LEFT_EYE_INNER.z,LEFT_EYE_INNER.v,LEFT_EYE.x,LEFT_EYE.y,LEFT_EYE.z,LEFT_EYE.v,LEFT_EYE_OUTER.x,LEFT_EYE_OUTER.y,LEFT_EYE_OUTER.z,LEFT_EYE_OUTER.v,RIGHT_EYE_INNER.x,RIGHT_EYE_INNER.y,RIGHT_EYE_INNER.z,RIGHT_EYE_INNER.v,RIGHT_EYE.x,RIGHT_EYE.y,RIGHT_EYE.z,RIGHT_EYE.v,RIGHT_EYE_OUTER.x,RIGHT_EYE_OUTER.y,RIGHT_EYE_OUTER.z,RIGHT_EYE_OUTER.v,LEFT_EAR.x,LEFT_EAR.y,LEFT_EAR.z,LEFT_EAR.v,RIGHT_EAR.x,RIGHT_EAR.y,RIGHT_EAR.z,RIGHT_EAR.v,MOUTH_LEFT.x,MOUTH_LEFT.y,MOUTH_LEFT.z,MOUTH_LEFT.v,MOUTH_RIGHT.x,MOUTH_RIGHT.y,MOUTH_RIGHT.z,MOUTH_RIGHT.v,LEFT_SHOULDER.x,LEFT_SHOULDER.y,LEFT_SHOULDER.z,LEFT_SHOULDER.v,RIGHT_SHOULDER.x,RIGHT_SHOULDER.y,RIGHT_SHOULDER.z,RIGHT_SHOULDER.v,LEFT_ELBOW.x,LEFT_ELBOW.y,LEFT_ELBOW.z,LEFT_ELBOW.v,RIGHT_ELBOW.x,RIGHT_ELBOW.y,RIGHT_ELBOW.z,RIGHT_ELBOW.v,LEFT_WRIST.x,LEFT_WRIST.y,LEFT_WRIST.z,LEFT_WRIST.v,RIGHT_WRIST.x,RIGHT_WRIST.y,RIGHT_WRIST.z,RIGHT_WRIST.v,LEFT_PINKY.x,LEFT_PINKY.y,LEFT_PINKY.z,LEFT_PINKY.v,RIGHT_PINKY.x,RIGHT_PINKY.y,RIGHT_PINKY.z,RIGHT_PINKY.v,LEFT_INDEX.x,LEFT_INDEX.y,LEFT_INDEX.z,LEFT_INDEX.v,RIGHT_INDEX.x,RIGHT_INDEX.y,RIGHT_INDEX.z,RIGHT_INDEX.v,LEFT_THUMB.x,LEFT_THUMB.y,LEFT_THUMB.z,LEFT_THUMB.v,RIGHT_THUMB.x,RIGHT_THUMB.y,RIGHT_THUMB.z,RIGHT_THUMB.v,LEFT_HIP.x,LEFT_HIP.y,LEFT_HIP.z,LEFT_HIP.v,RIGHT_HIP.x,RIGHT_HIP.y,RIGHT_HIP.z,RIGHT_HIP.v,LEFT_KNEE.x,LEFT_KNEE.y,LEFT_KNEE.z,LEFT_KNEE.v,RIGHT_KNEE.x,RIGHT_KNEE.y,RIGHT_KNEE.z,RIGHT_KNEE.v,LEFT_ANKLE.x,LEFT_ANKLE.y,LEFT_ANKLE.z,LEFT_ANKLE.v,RIGHT_ANKLE.x,RIGHT_ANKLE.y,RIGHT_ANKLE.z,RIGHT_ANKLE.v,LEFT_HEEL.x,LEFT_HEEL.y,LEFT_HEEL.z,LEFT_HEEL.v,RIGHT_HEEL.x,RIGHT_HEEL.y,RIGHT_HEEL.z,RIGHT_HEEL.v,LEFT_FOOT_INDEX.x,LEFT_FOOT_INDEX.y,LEFT_FOOT_INDEX.z,LEFT_FOOT_INDEX.v,RIGHT_FOOT_INDEX.x,RIGHT_FOOT_INDEX.y,RIGHT_FOOT_INDEX.z,RIGHT_FOOT_INDEX.v
0,0.3230830132961273,0.29606544971466064,-0.2307138890028,1.0,0.3293164372444153,0.2888249158859253,-0.2234164923429489,1.0,0.3320592939853668,0.28931233286857605,-0.22343483567237854,0.9999998807907104,0.3348575234413147,0.28978416323661804,-0.22344017028808594,1.0,0.32260018587112427,0.2878381311893463,-0.21340899169445038,1.0,0.3204638659954071,0.28736239671707153,-0.21331524848937988,0.9999983310699463,0.31829768419265747,0.28698453307151794,-0.21336905658245087,1.0,0.34068286418914795,0.2970958948135376,-0.15198789536952972,0.9999998807907104,0.3185795843601227,0.29289013147354126,-0.09859662503004074,0.999996542930603,0.328588604927063,0.30770811438560486,-0.20284418761730194,0.9999955892562866,0.3196275532245636,0.3059588074684143,-0.18772201240062714,0.9999791383743286,0.3583081364631653,0.3520973324775696,-0.12000521272420883,0.9999978542327881,0.30824488401412964,0.3482089042663574,-0.011154339648783207,0.9999474287033081,0.3875390291213989,0.4103700518608093,-0.2485729157924652,0.9814981818199158,0.3155531585216522,0.40465396642684937,-0.06204736977815628,0.11547476798295975,0.3685031235218048,0.3847549557685852,-0.4349523186683655,0.8952428102493286,0.32721415162086487,0.408359169960022,-0.20631372928619385,0.06948832422494888,0.3637300431728363,0.3780931234359741,-0.48476752638816833,0.7173622846603394,0.3315266966819763,0.41252437233924866,-0.24080613255500793,0.05178104341030121,0.36070626974105835,0.3690481185913086,-0.4806651473045349,0.71184241771698,0.3303832709789276,0.4069215953350067,-0.251340389251709,0.051584430038928986,0.3612683415412903,0.3724779784679413,-0.4368356764316559,0.5978856682777405,0.3304474949836731,0.4049689471721649,-0.21455411612987518,0.04282764717936516,0.3465377688407898,0.4865522086620331,-0.05339895561337471,0.9999914169311523,0.31709539890289307,0.48599928617477417,0.05353882908821106,0.9999868869781494,0.33824291825294495,0.5895742177963257,-0.028610248118638992,0.9539287686347961,0.3196095824241638,0.5949259996414185,0.10026290267705917,0.8592894673347473,0.34388789534568787,0.6870951056480408,0.12538716197013855,0.8142121434211731,0.33624356985092163,0.6871562600135803,0.2535788118839264,0.815523087978363,0.3500367999076843,0.7014896273612976,0.13480065762996674,0.16678529977798462,0.3443608283996582,0.7009527087211609,0.26205188035964966,0.5717524886131287,0.32496339082717896,0.715652585029602,0.028909403830766678,0.6442055106163025,0.3209821283817291,0.7178295254707336,0.1767784059047699,0.784318208694458
1,0.32365262508392334,0.30028119683265686,-0.19447433948516846,1.0,0.3300481140613556,0.2937987148761749,-0.18187086284160614,1.0,0.3328273892402649,0.2944658696651459,-0.1819058656692505,1.0,0.3356335461139679,0.29510098695755005,-0.18191491067409515,1.0,0.3233329653739929,0.2923157811164856,-0.17595073580741882,1.0,0.3211939334869385,0.2916751801967621,-0.1759009063243866,0.9999998807907104,0.319020539522171,0.2911534011363983,-0.17596060037612915,1.0,0.3411771059036255,0.3026978671550751,-0.09788002073764801,1.0,0.3190029561519623,0.2970587909221649,-0.06674697250127792,0.9999998807907104,0.329346626996994,0.31197187304496765,-0.1634415239095688,0.9999997615814209,0.3203485608100891,0.3097411096096039,-0.1546667516231537,0.9999991655349731,0.3591674268245697,0.3598440885543823,-0.05685758590698242,0.9999943971633911,0.3041364550590515,0.34925803542137146,-0.00862996093928814,0.9999830722808838,0.38850122690200806,0.415650337934494,-0.18041618168354034,0.9838495254516602,0.3110048174858093,0.392043799161911,-0.11024212837219238,0.6638082265853882,0.3602961003780365,0.37770193815231323,-0.3369026780128479,0.9352864027023315,0.3325763940811157,0.3506915867328644,-0.24955037236213684,0.41820579767227173,0.35291609168052673,0.3655964136123657,-0.37708550691604614,0.7592017650604248,0.3396027982234955,0.3407694101333618,-0.281566858291626,0.1890222132205963,0.3497956693172455,0.36015355587005615,-0.36548057198524475,0.7252396941184998,0.33794671297073364,0.33696475625038147,-0.2781970500946045,0.16720885038375854,0.3497445583343506,0.36488136649131775,-0.3349868357181549,0.6231932044029236,0.33720216155052185,0.34118586778640747,-0.2511255145072937,0.1377922147512436,0.3438414931297302,0.487469345331192,-0.03476222977042198,0.9999910593032837,0.3118519186973572,0.48621243238449097,0.034971144050359726,0.9999924898147583,0.33022966980934143,0.5897282361984253,-0.04207385703921318,0.9755187630653381,0.3252214789390564,0.5938295125961304,0.03772129490971565,0.9225215315818787,0.3270418047904968,0.6887447834014893,0.08489550650119781,0.803677499294281,0.3535608649253845,0.6831988096237183,0.17068913578987122,0.7183986902236938,0.32981806993484497,0.7030468583106995,0.09115332365036011,0.23036418855190277,0.36161112785339355,0.6967783570289612,0.17721056938171387,0.46046844124794006,0.3153596818447113,0.7175474762916565,-0.01795186474919319,0.6230750679969788,0.34433311223983765,0.7117242813110352,0.08346569538116455,0.6579944491386414
2,0.3229266107082367,0.2990036904811859,-0.18777887523174286,1.0,0.3294738531112671,0.292711079120636,-0.1794571429491043,1.0,0.3321736454963684,0.2934380769729614,-0.17950963973999023,0.9999996423721313,0.3349117636680603,0.29412928223609924,-0.17952676117420197,1.0,0.32291296124458313,0.2912658154964447,-0.16781851649284363,1.0,0.3208605945110321,0.2907458245754242,-0.16777735948562622,0.9999988079071045,0.3187817931175232,0.2903481423854828,-0.16782382130622864,1.0,0.3407971262931824,0.302692711353302,-0.11439985036849976,0.9999997615814209,0.3195132613182068,0.2967168688774109,-0.05813302844762802,0.9999969005584717,0.3284434378147125,0.3110699951648712,-0.16362418234348297,0.9999970197677612,0.3197396695613861,0.30899807810783386,-0.14770837128162384,0.9999910593032837,0.3598429560661316,0.3591923415660858,-0.09914883971214294,0.9999895095825195,0.3056027889251709,0.3501065969467163,0.01970849558711052,0.9999222755432129,0.3888451159000397,0.415034681558609,-0.22364799678325653,0.9980379939079285,0.30872541666030884,0.4006480872631073,-0.047579482197761536,0.35405808687210083,0.34964269399642944,0.370085209608078,-0.35005077719688416,0.9923821091651917,0.32139328122138977,0.38205310702323914,-0.18787428736686707,0.19964246451854706,0.3373851180076599,0.3580609858036041,-0.38772207498550415,0.9604223370552063,0.3260578215122223,0.3788852393627167,-0.21661476790905,0.12562179565429688,0.3367747366428375,0.349971204996109,-0.37572741508483887,0.9535846710205078,0.3247399628162384,0.37262874841690063,-0.22028657793998718,0.12552116811275482,0.33895397186279297,0.3562069535255432,-0.3466988503932953,0.928821325302124,0.3248462378978729,0.37367376685142517,-0.19264785945415497,0.12116340547800064,0.34574204683303833,0.4877452552318573,-0.045906584709882736,0.9999865293502808,0.31494754552841187,0.48672783374786377,0.04607049748301506,0.9999895095825195,0.3358025848865509,0.5943692922592163,-0.03520592302083969,0.9753583073616028,0.32551759481430054,0.5951830744743347,0.06989364326000214,0.8743805885314941,0.33901673555374146,0.6899363398551941,0.10154098272323608,0.7527865767478943,0.34673061966896057,0.6880198121070862,0.19742506742477417,0.6950423717498779,0.3438359797000885,0.7038923501968384,0.10929833352565765,0.2549239695072174,0.35443443059921265,0.7018100023269653,0.20373661816120148,0.47578439116477966,0.32273387908935547,0.7191953063011169,0.013449452817440033,0.5998354554176331,0.3344431519508362,0.7165954113006592,0.12054288387298584,0.6614291071891785
3,0.32307374477386475,0.29814422130584717,-0.11196986585855484,1.0,0.3295292258262634,0.2922116219997406,-0.10112713277339935,1.0,0.33213919401168823,0.2928489148616791,-0.10113855451345444,0.9999998807907104,0.3347620368003845,0.29346197843551636,-0.10115271806716919,1.0,0.32303422689437866,0.2908991575241089,-0.09231732785701752,1.0,0.32125478982925415,0.2903680205345154,-0.09225614368915558,0.9999996423721313,0.3195112943649292,0.2899767756462097,-0.09226594865322113,1.0,0.34086373448371887,0.30168822407722473,-0.031483784317970276,0.9999998807907104,0.3211285471916199,0.2963882088661194,0.013925498351454735,0.9999991655349731,0.32855167984962463,0.3105570077896118,-0.08537890762090683,0.9999991655349731,0.3201029300689697,0.3085678219795227,-0.07287535816431046,0.9999970197677612,0.36031660437583923,0.35515308380126953,-0.014311134815216064,0.9999916553497314,0.3058238923549652,0.34876832365989685,0.058061230927705765,0.999974250793457,0.39033958315849304,0.4052827060222626,-0.1611713021993637,0.9982105493545532,0.31749850511550903,0.39248421788215637,-0.022702839225530624,0.8459115624427795,0.34333813190460205,0.3742981255054474,-0.3016194999217987,0.9963099360466003,0.3593742251396179,0.39316481351852417,-0.12379495799541473,0.5195088386535645,0.3282996714115143,0.3676954507827759,-0.33294564485549927,0.9849165081977844,0.3680005967617035,0.3974857032299042,-0.15269862115383148,0.21064434945583344,0.3268618881702423,0.35993245244026184,-0.32228291034698486,0.9827784895896912,0.3720436692237854,0.3921922445297241,-0.14785444736480713,0.195767343044281,0.3312145173549652,0.3642718493938446,-0.29730817675590515,0.9630296230316162,0.3682168126106262,0.39145565032958984,-0.12386305630207062,0.18430489301681519,0.34767216444015503,0.48070743680000305,-0.03749271109700203,0.9998457431793213,0.3151301443576813,0.48256656527519226,0.03768482059240341,0.9998052716255188,0.3355600833892822,0.5862709283828735,-0.054737359285354614,0.9213820695877075,0.32688039541244507,0.5926728844642639,0.004666708875447512,0.8042028546333313,0.3323671817779541,0.6895000338554382,0.039528872817754745,0.39835548400878906,0.3558626174926758,0.6887440085411072,0.12017812579870224,0.4756782054901123,0.33492332696914673,0.7039919495582581,0.0428382083773613,0.07144331932067871,0.3639811873435974,0.7033141851425171,0.12494580447673798,0.34529632329940796,0.32303574681282043,0.7169512510299683,-0.059461869299411774,0.3438510596752167,0.34771257638931274,0.7172583341598511,0.033256493508815765,0.4581746459007263
4,0.3206627070903778,0.2990339994430542,-0.13606873154640198,1.0,0.3256661295890808,0.292362242937088,-0.13496240973472595,1.0,0.3279273509979248,0.2924495339393616,-0.1350259631872177,0.9999997615814209,0.33027511835098267,0.29241323471069336,-0.13506397604942322,1.0,0.3210207223892212,0.29170453548431396,-0.11606241762638092,1.0,0.3197981119155884,0.29040616750717163,-0.11597337573766708,0.9999994039535522,0.31854915618896484,0.291296124458313,-0.1159907802939415,1.0,0.3383479714393616,0.3007815182209015,-0.09636865556240082,0.9999998807907104,0.32231053709983826,0.30018287897109985,-0.005967655219137669,0.999997615814209,0.32731908559799194,0.3110913932323456,-0.12148936092853546,0.999996542930603,0.3206150233745575,0.30933043360710144,-0.0952933132648468,0.9999814033508301,0.3619981110095978,0.3532279431819916,-0.09313128888607025,0.9999911785125732,0.3079802393913269,0.3584800362586975,0.08008317649364471,0.9992775321006775,0.39086049795150757,0.41131314635276794,-0.2178126573562622,0.9993016719818115,0.30457204580307007,0.4073584973812103,-0.008287048898637295,0.3510589599609375,0.33551347255706787,0.3827013075351715,-0.3376128077507019,0.9981315732002258,0.303519606590271,0.3758273720741272,-0.1814514547586441,0.4800443947315216,0.31838259100914,0.37745440006256104,-0.3703891634941101,0.9914503693580627,0.30327320098876953,0.36436137557029724,-0.204941064119339,0.3180968165397644,0.3164735436439514,0.3670603632926941,-0.36396899819374084,0.9915215969085693,0.30331939458847046,0.3567885756492615,-0.22781483829021454,0.30061110854148865,0.3225749135017395,0.3714127838611603,-0.3337556719779968,0.9809815883636475,0.305747926235199,0.3615841269493103,-0.18970602750778198,0.2907480001449585,0.34968301653862,0.48276853561401367,-0.06278087198734283,0.9999878406524658,0.3190637230873108,0.4863583445549011,0.06300700455904007,0.9999698400497437,0.3378029763698578,0.589591383934021,-0.0570962056517601,0.9474384784698486,0.33090275526046753,0.5963649153709412,0.06942784041166306,0.6050376892089844,0.34073156118392944,0.6907111406326294,0.05679556727409363,0.5231813192367554,0.3530215322971344,0.6911149621009827,0.19133086502552032,0.336741179227829,0.3460814654827118,0.7071360945701599,0.06220800802111626,0.15055528283119202,0.3613054156303406,0.7074782848358154,0.19610288739204407,0.3176560699939728,0.323870986700058,0.7187139391899109,-0.03658818081021309,0.425770103931427,0.34053876996040344,0.7176815271377563,0.11195631325244904,0.3977508246898651
5,0.3197364807128906,0.30258989334106445,-0.10404177010059357,1.0,0.3246803283691406,0.29470568895339966,-0.10551667213439941,1.0,0.3270361125469208,0.2944975793361664,-0.10559666156768799,0.9999996423721313,0.32948338985443115,0.2941778302192688,-0.10561536252498627,1.0,0.3200351595878601,0.29499682784080505,-0.08664678782224655,1.0,0.3188585937023163,0.2943706214427948,-0.08655177056789398,0.9999990463256836,0.31765833497047424,0.2947112023830414,-0.08659078180789948,1.0,0.33866891264915466,0.3009451925754547,-0.07521510124206543,0.9999997615814209,0.3225557506084442,0.3023499548435211,0.015254983678460121,0.9999974966049194,0.32698118686676025,0.31410378217697144,-0.09094788134098053,0.9999970197677612,0.32070934772491455,0.31360986828804016,-0.06521996110677719,0.9999758005142212,0.36813777685165405,0.35134077072143555,-0.07708777487277985,0.9999957084655762,0.3129851520061493,0.3594910800457001,0.10287950187921524,0.9997466206550598,0.3950289189815521,0.41498103737831116,-0.17643719911575317,0.999206006526947,0.29542073607444763,0.4131164252758026,0.051752977073192596,0.3982170522212982,0.33946600556373596,0.3907172381877899,-0.2892950177192688,0.9989985823631287,0.31000855565071106,0.39258092641830444,-0.11821591854095459,0.3486091196537018,0.3215620517730713,0.3973516523838043,-0.3162073493003845,0.9965859651565552,0.31573396921157837,0.390635222196579,-0.15022937953472137,0.20620286464691162,0.3201403021812439,0.3720400035381317,-0.3133102357387543,0.9966738224029541,0.31685274839401245,0.3793891668319702,-0.15253296494483948,0.20355837047100067,0.3261571526527405,0.37478214502334595,-0.2857653796672821,0.9917003512382507,0.3163301944732666,0.3810628056526184,-0.12307707965373993,0.18591544032096863,0.35603514313697815,0.48608794808387756,-0.06542450189590454,0.9999526739120483,0.32506483793258667,0.4903278648853302,0.06558831036090851,0.999829888343811,0.33941832184791565,0.5951345562934875,-0.08553746342658997,0.9385166168212891,0.33206707239151,0.5989486575126648,0.06835351884365082,0.48746252059936523,0.3294826149940491,0.6996579766273499,-0.021707287058234215,0.5962178111076355,0.35282063484191895,0.6931372284889221,0.16785785555839539,0.27382734417915344,0.33375468850135803,0.7178318500518799,-0.02167419344186783,0.1571822464466095,0.36120903491973877,0.7106621861457825,0.17103223502635956,0.30943962931632996,0.30879300832748413,0.7245523929595947,-0.12346615642309189,0.41102027893066406,0.3392793536186218,0.7171128988265991,0.09349347651004791,0.28603678941726685
6,0.3202611804008484,0.3090966045856476,-0.12817540764808655,1.0,0.3253806531429291,0.30127713084220886,-0.12842079997062683,1.0,0.3277789056301117,0.3008381128311157,-0.12844815850257874,0.9999979734420776,0.3302539587020874,0.30031394958496094,-0.1284736692905426,1.0,0.3203604817390442,0.30278608202934265,-0.11021951586008072,1.0,0.3189992606639862,0.30313825607299805,-0.1101580485701561,0.999994158744812,0.3177073299884796,0.30380627512931824,-0.11022228002548218,1.0,0.3388305604457855,0.3068438768386841,-0.09498773515224457,0.9999988079071045,0.32272934913635254,0.3107870817184448,-0.0075178868137300014,0.999984622001648,0.3269955515861511,0.3194640874862671,-0.1145407110452652,0.9999910593032837,0.32124319672584534,0.3208812177181244,-0.0895470380783081,0.9999430179595947,0.3665459156036377,0.35193631052970886,-0.09951497614383698,0.9999921321868896,0.3165934979915619,0.3653216063976288,0.0700945109128952,0.9993833303451538,0.38715022802352905,0.40988263487815857,-0.21301503479480743,0.9984601736068726,0.3001251816749573,0.4178116023540497,0.012591841630637646,0.12997500598430634,0.32176342606544495,0.39817556738853455,-0.2908876836299896,0.9955270886421204,0.3280279040336609,0.39768776297569275,-0.1473349779844284,0.17787151038646698,0.3048694133758545,0.4050622284412384,-0.3178125023841858,0.9803415536880493,0.3349878787994385,0.3978794813156128,-0.17805126309394836,0.14423711597919464,0.30227139592170715,0.3905726373195648,-0.3107796609401703,0.9816138744354248,0.3363250195980072,0.38857704401016235,-0.1844794899225235,0.14565777778625488,0.30950355529785156,0.39157766103744507,-0.28703755140304565,0.9647467732429504,0.33504778146743774,0.3890419602394104,-0.15430232882499695,0.1364908069372177,0.3599070906639099,0.4905911982059479,-0.06179878115653992,0.9998219609260559,0.3294728398323059,0.49551114439964294,0.06189052015542984,0.9994600415229797,0.34569379687309265,0.6021730303764343,-0.06671547889709473,0.9093968272209167,0.3348047137260437,0.6035279631614685,0.07181203365325928,0.4901984930038452,0.33544379472732544,0.7027900815010071,0.01567828841507435,0.589065670967102,0.349684476852417,0.6973191499710083,0.1680143028497696,0.3351497948169708,0.33436307311058044,0.7193068861961365,0.01783415861427784,0.12778674066066742,0.3571687638759613,0.7143964767456055,0.17128129303455353,0.2556406259536743,0.3230668902397156,0.730124294757843,-0.08122919499874115,0.5236024260520935,0.3341377079486847,0.7205502986907959,0.09235620498657227,0.4177016615867615
7,0.32321494817733765,0.3140386939048767,-0.1622672826051712,1.0,0.3280676007270813,0.30609121918678284,-0.16208547353744507,1.0,0.3303612172603607,0.3058006167411804,-0.16209961473941803,0.9999996423721313,0.3327522873878479,0.3054376244544983,-0.16216370463371277,1.0,0.32323628664016724,0.30728039145469666,-0.14649821817874908,1.0,0.32182711362838745,0.3076186180114746,-0.14643652737140656,0.9999980926513672,0.3204014003276825,0.308120459318161,-0.14643990993499756,1.0,0.34094560146331787,0.3124663233757019,-0.12696129083633423,0.9999997615814209,0.3240206837654114,0.31503233313560486,-0.04564927518367767,0.9999951124191284,0.33010169863700867,0.32472294569015503,-0.1466245949268341,0.9999935626983643,0.3231094479560852,0.3259490430355072,-0.12535959482192993,0.9999685287475586,0.36946791410446167,0.35916364192962646,-0.12971146404743195,0.999976634979248,0.31510433554649353,0.37124931812286377,0.04331560805439949,0.9986757636070251,0.3997424244880676,0.39870497584342957,-0.23802010715007782,0.9987353682518005,0.28644415736198425,0.399053692817688,0.08429495990276337,0.6502890586853027,0.36657077074050903,0.40374699234962463,-0.3821643590927124,0.9966122508049011,0.27200478315353394,0.3948349356651306,-0.017483575269579887,0.6290057301521301,0.358940452337265,0.410444438457489,-0.4185483455657959,0.9882297515869141,0.26923736929893494,0.39096835255622864,-0.04454468935728073,0.4964509904384613,0.3534697890281677,0.400564968585968,-0.42814645171165466,0.9885629415512085,0.2736542820930481,0.3849579691886902,-0.060468874871730804,0.5072872638702393,0.35514724254608154,0.3963683843612671,-0.3860264718532562,0.9836486577987671,0.27648279070854187,0.38605645298957825,-0.02763764001429081,0.49293777346611023,0.3646504282951355,0.4899538457393646,-0.058785390108823776,0.9999551773071289,0.3337498605251312,0.4967227578163147,0.05895674228668213,0.999915361404419,0.3529697060585022,0.5945339798927307,-0.0729210376739502,0.9778713583946228,0.339233934879303,0.5981985926628113,0.06983126699924469,0.6818451285362244,0.34714818000793457,0.6967486143112183,0.003928605932742357,0.9650008678436279,0.35128337144851685,0.6934810280799866,0.17026829719543457,0.6450451016426086,0.34821709990501404,0.7123066186904907,0.005731632467359304,0.644382655620575,0.357980340719223,0.7101841568946838,0.17469719052314758,0.6143708825111389,0.3340740501880646,0.7258630394935608,-0.09201816469430923,0.9132075905799866,0.33411461114883423,0.7172649502754211,0.09416699409484863,0.7218380570411682
8,0.3180190324783325,0.31500452756881714,-0.15574727952480316,1.0,0.3248681426048279,0.3081311285495758,-0.16194039583206177,1.0,0.3272777199745178,0.309113085269928,-0.16193585097789764,1.0,0.32979995012283325,0.3098796606063843,-0.1619177907705307,1.0,0.3212762475013733,0.3086748719215393,-0.13865190744400024,1.0,0.3207917809486389,0.3099311292171478,-0.13858681917190552,1.0,0.32021579146385193,0.31121405959129333,-0.13862447440624237,1.0,0.3414935767650604,0.3189133107662201,-0.15207485854625702,1.0,0.3279583752155304,0.3165845572948456,-0.043724920600652695,1.0,0.325684130191803,0.32855454087257385,-0.1513151377439499,0.9999996423721313,0.32016387581825256,0.3270484507083893,-0.11982659250497818,0.9999991655349731,0.36561477184295654,0.36880961060523987,-0.18951165676116943,0.9999936819076538,0.32042670249938965,0.3779238760471344,0.052318282425403595,0.9996166229248047,0.37483400106430054,0.3872469365596771,-0.31681960821151733,0.9994522929191589,0.2798217535018921,0.39981284737586975,0.14097896218299866,0.0325050987303257,0.3167414963245392,0.4038272500038147,-0.41711097955703735,0.9895625710487366,0.242038756608963,0.392829030752182,0.1329171508550644,0.03339773043990135,0.3038709759712219,0.41433805227279663,-0.45254579186439514,0.952278196811676,0.2328370362520218,0.3908849358558655,0.12879280745983124,0.03048274666070938,0.29857319593429565,0.40642648935317993,-0.45178136229515076,0.9477143287658691,0.23546051979064941,0.38663801550865173,0.11005961894989014,0.03719807043671608,0.30495041608810425,0.40382635593414307,-0.4174257218837738,0.9242855906486511,0.23914583027362823,0.3877241909503937,0.12305653095245361,0.045478206127882004,0.3651999533176422,0.5059229731559753,-0.07330013811588287,0.9999517202377319,0.3372268080711365,0.511695921421051,0.07342785596847534,0.9999390840530396,0.34643107652664185,0.602654218673706,-0.0834004357457161,0.9730802774429321,0.3377577066421509,0.6104609370231628,0.1318294107913971,0.01930338144302368,0.3453878164291382,0.7037243247032166,0.0006035742699168622,0.9368352890014648,0.353893518447876,0.6998178958892822,0.24733176827430725,0.054221514612436295,0.3496100604534149,0.7203945517539978,0.0027462311554700136,0.4831909239292145,0.36107271909713745,0.7148138880729675,0.2545240819454193,0.11245693266391754,0.32286664843559265,0.7328498959541321,-0.0790240615606308,0.8501763343811035,0.3355623483657837,0.7260602712631226,0.19934113323688507,0.1282459795475006
9,0.31897634267807007,0.3231479823589325,-0.12638504803180695,1.0,0.32502397894859314,0.3133073151111603,-0.13263589143753052,1.0,0.327152818441391,0.312764048576355,-0.1326485425233841,1.0,0.32938650250434875,0.31193965673446655,-0.13265620172023773,1.0,0.3224462866783142,0.3155510127544403,-0.1223047524690628,1.0,0.3223656713962555,0.3165455758571625,-0.12218876928091049,1.0,0.3222210705280304,0.3175528943538666,-0.12214509397745132,1.0,0.34062084555625916,0.321589857339859,-0.1298670470714569,1.0,0.3306322693824768,0.3211190104484558,-0.016972340643405914,1.0,0.3259221911430359,0.3332509398460388,-0.12019400298595428,0.9999997615814209,0.3217609226703644,0.3347375690937042,-0.11020778119564056,0.9999995231628418,0.3629295825958252,0.3691510260105133,-0.1893215924501419,0.9999945163726807,0.3270334005355835,0.3804907500743866,0.08402959257364273,0.9998775720596313,0.3552658259868622,0.39630475640296936,-0.29278117418289185,0.9998708963394165,0.2887345254421234,0.4056865870952606,0.15107527375221252,0.16595472395420074,0.29558923840522766,0.40008941292762756,-0.37419718503952026,0.9964565634727478,0.24494561553001404,0.3931335210800171,0.10977552831172943,0.16699932515621185,0.2806958556175232,0.40810486674308777,-0.41029325127601624,0.9821363091468811,0.23421743512153625,0.3904438614845276,0.1081535592675209,0.14558085799217224,0.277189701795578,0.40018853545188904,-0.4052073061466217,0.9791077971458435,0.2358005940914154,0.3839358687400818,0.08488143235445023,0.17455284297466278,0.28320175409317017,0.3987577259540558,-0.372927188873291,0.9696553945541382,0.23963558673858643,0.3851621448993683,0.097500279545784,0.21958394348621368,0.3676028549671173,0.5076813697814941,-0.08602070808410645,0.999988317489624,0.3396069407463074,0.5133150219917297,0.0861835777759552,0.9999905824661255,0.34420472383499146,0.6086003184318542,-0.11069568246603012,0.9970672726631165,0.34537726640701294,0.6141565442085266,0.1288345754146576,0.05970420688390732,0.34418314695358276,0.7098550796508789,-0.06424932181835175,0.9840506911277771,0.3611990511417389,0.7066401243209839,0.21314696967601776,0.08049099892377853,0.35020047426223755,0.728132426738739,-0.06600261479616165,0.8140634298324585,0.3681205213069916,0.7235257625579834,0.21723122894763947,0.22499358654022217,0.3164045512676239,0.7342004179954529,-0.14553973078727722,0.9546346068382263,0.339835524559021,0.7287397980690002,0.1577719748020172,0.19473901391029358
10,0.3310052752494812,0.3250631093978882,-0.18237237632274628,1.0,0.3364492952823639,0.31335052847862244,-0.17765116691589355,1.0,0.3390873968601227,0.31356045603752136,-0.17767362296581268,1.0,0.3418218493461609,0.31357094645500183,-0.17767438292503357,1.0,0.33041083812713623,0.3183331787586212,-0.16499915719032288,1.0,0.32852864265441895,0.3200014531612396,-0.16490943729877472,1.0,0.3265991806983948,0.32142162322998047,-0.16482803225517273,1.0,0.34859028458595276,0.32565227150917053,-0.12882307171821594,1.0,0.3278144896030426,0.3281227946281433,-0.055781133472919464,1.0,0.33704516291618347,0.3364983797073364,-0.1616632044315338,0.9999998807907104,0.3286322057247162,0.33971959352493286,-0.14413097500801086,0.9999998807907104,0.36048564314842224,0.37112700939178467,-0.19328847527503967,0.9999936819076538,0.3208409249782562,0.38388484716415405,0.07665254920721054,0.9999808073043823,0.3466119170188904,0.3882140517234802,-0.33963826298713684,0.9997124075889587,0.2754599153995514,0.40295398235321045,0.13042804598808289,0.7694363594055176,0.29527848958969116,0.3907882571220398,-0.46366292238235474,0.9959860444068909,0.22854085266590118,0.3982154428958893,0.053478140383958817,0.858813464641571,0.28413742780685425,0.39677801728248596,-0.5104842782020569,0.9775034189224243,0.21532396972179413,0.3951816260814667,0.04312710836529732,0.7773212194442749,0.28033509850502014,0.3917626142501831,-0.508052408695221,0.9764400124549866,0.21580123901367188,0.38810327649116516,0.016265150159597397,0.8075011968612671,0.2851361632347107,0.39255982637405396,-0.4669836461544037,0.9722862839698792,0.2192659080028534,0.39124637842178345,0.038480937480926514,0.8175754547119141,0.3685835599899292,0.5061153173446655,-0.08623667061328888,0.9999797344207764,0.343919962644577,0.51361083984375,0.08631253987550735,0.9999935626983643,0.34317490458488464,0.6062685251235962,-0.15536771714687347,0.9992861151695251,0.34085777401924133,0.6125757098197937,0.10888920724391937,0.1635318249464035,0.3492482304573059,0.7135708928108215,-0.14931350946426392,0.9943016767501831,0.36311104893684387,0.7062644362449646,0.1790161281824112,0.27898138761520386,0.3553794026374817,0.7331100106239319,-0.15658295154571533,0.8920863270759583,0.37038132548332214,0.7230480313301086,0.17914798855781555,0.3910144865512848,0.325918585062027,0.738240659236908,-0.25701195001602173,0.9853945970535278,0.34830352663993835,0.7291154265403748,0.10395535081624985,0.4635750353336334
11,0.33433201909065247,0.32565364241600037,-0.12432362139225006,1.0,0.3359489440917969,0.3173341453075409,-0.12828652560710907,1.0,0.3370296061038971,0.3171069324016571,-0.12831269204616547,0.9999995231628418,0.3381759524345398,0.3168397843837738,-0.1283542513847351,1.0,0.3340196907520294,0.3185822069644928,-0.11275468021631241,1.0,0.33349764347076416,0.3190242052078247,-0.11267397552728653,0.9999985694885254,0.3329918682575226,0.3195034861564636,-0.1126723438501358,1.0,0.34169238805770874,0.32305365800857544,-0.10936836898326874,0.9999994039535522,0.3348270356655121,0.3256627917289734,-0.03268642723560333,0.9999967813491821,0.33752351999282837,0.33529534935951233,-0.11443191766738892,0.9999861717224121,0.3343241810798645,0.3366541862487793,-0.0926666110754013,0.9999538660049438,0.3501787483692169,0.36643603444099426,-0.1364947110414505,0.9999672174453735,0.34258541464805603,0.37786009907722473,0.046598389744758606,0.9997518658638,0.36799055337905884,0.4042116403579712,-0.2682926654815674,0.9703435301780701,0.34140902757644653,0.41889145970344543,-0.010583494789898396,0.3155421018600464,0.3590743839740753,0.40076085925102234,-0.42074307799339294,0.9500033259391785,0.35536807775497437,0.40694722533226013,-0.17771092057228088,0.4089271128177643,0.3597072660923004,0.39901262521743774,-0.46706104278564453,0.8660726547241211,0.361274778842926,0.40707987546920776,-0.21075782179832458,0.4423711597919464,0.35761967301368713,0.3940284550189972,-0.46654635667800903,0.8729239702224731,0.36057835817337036,0.4007877707481384,-0.22665667533874512,0.44932666420936584,0.35899627208709717,0.39653241634368896,-0.4245760440826416,0.8331298828125,0.3580835163593292,0.4008632302284241,-0.18951177597045898,0.42064833641052246,0.3688479959964752,0.5081554651260376,-0.07908520847558975,0.9999918937683105,0.364606112241745,0.5114015340805054,0.07916802167892456,0.9999943971633911,0.3446752429008484,0.6092101335525513,-0.1127140149474144,0.9955400824546814,0.35511139035224915,0.6080871224403381,0.0913209617137909,0.4422067105770111,0.34963661432266235,0.7136343717575073,-0.08148809522390366,0.9860785603523254,0.36498522758483887,0.7064693570137024,0.16347572207450867,0.43199622631073,0.3561706244945526,0.7311145067214966,-0.084633007645607,0.7449737191200256,0.3714398741722107,0.7254302501678467,0.16451098024845123,0.4960498511791229,0.32173484563827515,0.7357791066169739,-0.1745770126581192,0.9488175511360168,0.3408772051334381,0.7244592308998108,0.09572534263134003,0.5067220330238342
12
13
14
15
16
17
18
19
20
21
22
23,0.5648295283317566,0.4688487648963928,0.09388981014490128,1.0,0.5734490156173706,0.4701182246208191,0.0763450339436531,1.0,0.5739544034004211,0.47192952036857605,0.0765082910656929,1.0,0.5745342373847961,0.4738784730434418,0.07642042636871338,1.0,0.5729678273200989,0.46909528970718384,0.10677951574325562,1.0,0.5732110142707825,0.4695902168750763,0.10684081166982651,0.9999998807907104,0.5733526945114136,0.4700765013694763,0.10683349519968033,1.0,0.5747693777084351,0.48578765988349915,0.028817957267165184,0.9999998807907104,0.5736579298973083,0.48015281558036804,0.16574963927268982,0.9999998807907104,0.5596491098403931,0.4774341881275177,0.07742156833410263,0.9999926090240479,0.5586556792259216,0.4747716188430786,0.11719419807195663,0.9999871253967285,0.5547189116477966,0.4924514889717102,-0.05386119335889816,0.9997895359992981,0.5549637675285339,0.5260290503501892,0.2398643046617508,0.9998692274093628,0.5456415414810181,0.45135048031806946,-0.14398185908794403,0.5752164721488953,0.5677040219306946,0.5340356230735779,0.3325718641281128,0.01435725949704647,0.5704917907714844,0.45313528180122375,-0.08351382613182068,0.12017999589443207,0.6014849543571472,0.5226442813873291,0.4050292372703552,0.07955552637577057,0.5795761346817017,0.45574629306793213,-0.09801098704338074,0.10658856481313705,0.612598717212677,0.5201939344406128,0.41415634751319885,0.18416355550289154,0.5788798928260803,0.45768555998802185,-0.08382322639226913,0.10930351912975311,0.6124281287193298,0.5215150117874146,0.40832608938217163,0.17212077975273132,0.5745736360549927,0.45812204480171204,-0.07852600514888763,0.102084681391716,0.6069135665893555,0.5218361020088196,0.402261346578598,0.17310579121112823,0.4525870680809021,0.5124180912971497,-0.09823638200759888,0.999982476234436,0.4508878290653229,0.5318962931632996,0.0980212613940239,0.9999836683273315,0.3810962438583374,0.5204620957374573,-0.16105669736862183,0.9909303784370422,0.37441080808639526,0.5829118490219116,0.05737590044736862,0.34367093443870544,0.3144284784793854,0.5931903123855591,-0.21880659461021423,0.989954948425293,0.3195195496082306,0.6522728204727173,0.025837931782007217,0.5391860604286194,0.30954763293266296,0.6105069518089294,-0.22202983498573303,0.9880411624908447,0.3157535195350647,0.6670575737953186,0.01960918679833412,0.6739043593406677,0.2722933888435364,0.589154839515686,-0.2807496190071106,0.981700599193573,0.2834409177303314,0.6602233648300171,-0.035982344299554825,0.7547141313552856
24
25
26,0.31427377462387085,0.2947986423969269,-0.03237343952059746,1.0,0.3118062913417816,0.2878492772579193,-0.059647899121046066,1.0,0.3089389204978943,0.28759506344795227,-0.05959170311689377,0.9998020529747009,0.3061511516571045,0.28739070892333984,-0.05954921990633011,1.0,0.32003700733184814,0.28879886865615845,-0.05779661983251572,1.0,0.32288265228271484,0.2889785170555115,-0.05769161507487297,0.9998763799667358,0.3256604075431824,0.2892446219921112,-0.057686228305101395,1.0,0.3022867441177368,0.2936367988586426,-0.11201878637075424,0.9997643828392029,0.32840976119041443,0.29602184891700745,-0.09966939687728882,0.9999220371246338,0.30913233757019043,0.3015044331550598,-0.04384823143482208,0.99946528673172,0.3171829283237457,0.3018593192100525,-0.04048220068216324,0.9989742040634155,0.27600598335266113,0.341094434261322,-0.09439252316951752,0.998604953289032,0.3386361598968506,0.34176692366600037,-0.0850725919008255,0.9998051524162292,0.27100297808647156,0.3932081460952759,-0.11983810365200043,0.0257714930921793,0.3437095880508423,0.3959030508995056,-0.1249166950583458,0.3337804973125458,0.2953203022480011,0.3817000091075897,-0.20961865782737732,0.03919875994324684,0.3343968391418457,0.3674001395702362,-0.20523829758167267,0.10783428698778152,0.30032408237457275,0.38013771176338196,-0.2333924025297165,0.07114040851593018,0.3332362473011017,0.3608342707157135,-0.2177276909351349,0.22078900039196014,0.3053971230983734,0.37613555788993835,-0.2396649420261383,0.09288622438907623,0.3268846273422241,0.3577394485473633,-0.22572879493236542,0.23772257566452026,0.30640584230422974,0.3763447403907776,-0.21756216883659363,0.08279251307249069,0.3270629644393921,0.35893118381500244,-0.21070237457752228,0.1957245171070099,0.2791205048561096,0.4719370901584625,-0.0154728339985013,0.9999980926513672,0.31614458560943604,0.46896103024482727,0.015868207439780235,0.9999986886978149,0.25910070538520813,0.5663048028945923,0.020133763551712036,0.9909163117408752,0.3101682662963867,0.5730525851249695,0.0317726731300354,0.9958374500274658,0.2556694447994232,0.6614524126052856,0.02534967102110386,0.990246057510376,0.311175137758255,0.6716944575309753,0.06966137886047363,0.9884974956512451,0.2583127021789551,0.6739107370376587,0.023308977484703064,0.9603797793388367,0.3129478693008423,0.6835441589355469,0.07082229852676392,0.9281081557273865,0.24154424667358398,0.6807461380958557,-0.012841728515923023,0.8003624081611633,0.30053621530532837,0.6973134279251099,0.040461283177137375,0.7226770520210266
27,0.3106502890586853,0.2997890114784241,-0.26887816190719604,1.0,0.31165310740470886,0.29218074679374695,-0.27104809880256653,1.0,0.31212252378463745,0.2921064794063568,-0.27108311653137207,0.99985671043396,0.31268310546875,0.2920902967453003,-0.27111393213272095,1.0,0.3105010688304901,0.292294442653656,-0.2672683298587799,1.0,0.31028470396995544,0.29219064116477966,-0.267164409160614,0.9999085664749146,0.31007736921310425,0.29216399788856506,-0.26719433069229126,1.0,0.31249019503593445,0.2963930070400238,-0.22300884127616882,0.9999558925628662,0.309402197599411,0.29635411500930786,-0.2004302740097046,0.9999746084213257,0.3109568953514099,0.30763447284698486,-0.24699251353740692,0.9996188879013062,0.3091364800930023,0.3074358403682709,-0.24021117389202118,0.999352753162384,0.3110608458518982,0.33781030774116516,-0.20381657779216766,0.9999183416366577,0.30688220262527466,0.34096449613571167,-0.15727782249450684,0.9998730421066284,0.3133252263069153,0.368637353181839,-0.3138297498226166,0.5078620314598083,0.30130162835121155,0.3845251500606537,-0.3124394118785858,0.675828218460083,0.3156433701515198,0.36007553339004517,-0.5090218782424927,0.2705351412296295,0.2944908142089844,0.35511788725852966,-0.519112229347229,0.2343616634607315,0.3148658275604248,0.3598245680332184,-0.5586569905281067,0.15779180824756622,0.30652809143066406,0.3460039794445038,-0.5612043738365173,0.2107938975095749,0.31494179368019104,0.35361894965171814,-0.568442702293396,0.21998031437397003,0.2880139946937561,0.34204429388046265,-0.5691267848014832,0.23371131718158722,0.3167979121208191,0.35566338896751404,-0.5198051333427429,0.16459748148918152,0.2887805104255676,0.34552085399627686,-0.5280917882919312,0.21062950789928436,0.29959970712661743,0.4729946255683899,-0.03528813645243645,0.9999892711639404,0.29548829793930054,0.4715639650821686,0.03529046103358269,0.9999884366989136,0.2796982228755951,0.5719280242919922,-0.03530096635222435,0.9943931102752686,0.2871028780937195,0.57129967212677,0.05999552085995674,0.9272281527519226,0.2772502601146698,0.6598363518714905,0.03760708123445511,0.8981028199195862,0.2939997613430023,0.6649565100669861,0.1516115367412567,0.7361213564872742,0.2784275412559509,0.6722908616065979,0.039161305874586105,0.35108059644699097,0.2992886006832123,0.6789865493774414,0.15538154542446136,0.2839614748954773,0.2699560821056366,0.6842476725578308,-0.0361730121076107,0.7029917240142822,0.2801987826824188,0.6928178071975708,0.08980756253004074,0.4428851008415222
28
29
30
31
32
33,0.32314223051071167,0.293073832988739,-0.03942146524786949,1.0,0.32069382071495056,0.28488123416900635,-0.06633288413286209,1.0,0.3184809386730194,0.28409063816070557,-0.06621351838111877,0.9980714917182922,0.31638798117637634,0.28329992294311523,-0.06612885743379593,1.0,0.32631605863571167,0.2872924506664276,-0.06731294840574265,1.0,0.3280804455280304,0.28798627853393555,-0.06723989546298981,0.9993212223052979,0.32975804805755615,0.28880369663238525,-0.06720566004514694,1.0,0.31138449907302856,0.2877346873283386,-0.11506899446249008,0.9987601041793823,0.32898417115211487,0.29544904828071594,-0.11863930523395538,0.9995793700218201,0.3183899223804474,0.29894188046455383,-0.05032621696591377,0.9933110475540161,0.3237817585468292,0.30093175172805786,-0.05121774226427078,0.9940704703330994,0.2770741283893585,0.32062703371047974,-0.10601155459880829,0.997843861579895,0.3400368094444275,0.3319973051548004,-0.09420441836118698,0.9995686411857605,0.2440171241760254,0.33868610858917236,-0.10108248144388199,0.6689820885658264,0.37334445118904114,0.3655255138874054,-0.09414470195770264,0.9062384366989136,0.23346558213233948,0.3351687490940094,-0.1745794415473938,0.590194582939148,0.3638920783996582,0.3520970344543457,-0.09293460845947266,0.6839699149131775,0.22836489975452423,0.334079772233963,-0.20320072770118713,0.5342696309089661,0.3630713224411011,0.34890586137771606,-0.09137506783008575,0.6291174292564392,0.2332148253917694,0.33311355113983154,-0.20354385673999786,0.5814939141273499,0.35430532693862915,0.34591156244277954,-0.10744595527648926,0.6375826001167297,0.23811788856983185,0.3348921239376068,-0.1787310689687729,0.4646425247192383,0.3540477454662323,0.346720427274704,-0.09859196841716766,0.5679289698600769,0.2733911871910095,0.4559047818183899,0.007065230049192905,0.9999946355819702,0.3096437156200409,0.4570183753967285,-0.0067220525816082954,0.9999973773956299,0.25706028938293457,0.5624803900718689,0.036679744720458984,0.970051109790802,0.30747297406196594,0.5697079300880432,0.0028919430915266275,0.9964154958724976,0.2516394853591919,0.6586606502532959,0.07119963318109512,0.913648784160614,0.3064934015274048,0.6722947955131531,0.03608226031064987,0.9810262322425842,0.2530704736709595,0.6693962216377258,0.07144799083471298,0.8580110669136047,0.30492040514945984,0.6845928430557251,0.035805556923151016,0.9297534227371216,0.2446267157793045,0.6905049085617065,0.022478284314274788,0.7327521443367004,0.3061015009880066,0.7056504487991333,-0.016234060749411583,0.8625476360321045
34,0.3178079128265381,0.28836899995803833,0.07029113918542862,1.0,0.31454962491989136,0.28120675683021545,0.04256344959139824,1.0,0.31216198205947876,0.28042587637901306,0.042655203491449356,0.996736466884613,0.3099116086959839,0.27958402037620544,0.04274555668234825,1.0,0.3210400342941284,0.28375911712646484,0.04211137816309929,1.0,0.32326263189315796,0.2845647931098938,0.0421484149992466,0.9987265467643738,0.32536646723747253,0.28550004959106445,0.04209369421005249,1.0,0.3071121573448181,0.2855618894100189,-0.03664898872375488,0.9948360919952393,0.32694098353385925,0.29372575879096985,-0.03700942546129227,0.9985308647155762,0.31424903869628906,0.2955333888530731,0.0462685264647007,0.9907107949256897,0.32052096724510193,0.2979227900505066,0.046489421278238297,0.991614818572998,0.28034207224845886,0.32076719403266907,-0.07883407175540924,0.9987314343452454,0.3427298963069916,0.33167368173599243,-0.05194852501153946,0.999675989151001,0.23209580779075623,0.3205893337726593,-0.11511514335870743,0.9909377098083496,0.38023248314857483,0.35422882437705994,-0.026421647518873215,0.9812825918197632,0.20078758895397186,0.32519420981407166,-0.2103308141231537,0.9571781754493713,0.3791305124759674,0.3496222198009491,0.012456657364964485,0.7810928821563721,0.19165560603141785,0.32969459891319275,-0.2362748384475708,0.9339708685874939,0.38142257928848267,0.3495157063007355,0.019457055255770683,0.689853310585022,0.19359907507896423,0.32664161920547485,-0.2337685376405716,0.9407262206077576,0.37405604124069214,0.34636449813842773,0.004629184491932392,0.683785617351532,0.19922210276126862,0.3271010220050812,-0.21236395835876465,0.8722172379493713,0.37194758653640747,0.3461146056652069,0.008592210710048676,0.6004554033279419,0.2736127972602844,0.4558902382850647,0.00717745628207922,0.9999545812606812,0.3098631501197815,0.4576915204524994,-0.006766723934561014,0.9999842643737793,0.25612595677375793,0.5633630752563477,0.032188836485147476,0.9867956638336182,0.30873751640319824,0.5709874033927917,0.025798222050070763,0.9958979487419128,0.25321266055107117,0.6568824648857117,0.048901889473199844,0.970212996006012,0.30105310678482056,0.6664870977401733,0.037310339510440826,0.9850625991821289,0.2541918456554413,0.6672016978263855,0.04783075302839279,0.9593771696090698,0.2975546717643738,0.6761570572853088,0.03716009482741356,0.9527137875556946,0.2501765191555023,0.6912269592285156,0.015946241095662117,0.9144147038459778,0.3052937984466553,0.7049124240875244,-0.0020797797478735447,0.9345262050628662
35,0.32068750262260437,0.29458746314048767,-0.01193574070930481,1.0,0.3174002468585968,0.28772932291030884,-0.03983001410961151,1.0,0.3149724304676056,0.2868281900882721,-0.03975300490856171,0.9994214773178101,0.312671422958374,0.2858608365058899,-0.039688266813755035,1.0,0.3236057162284851,0.29064178466796875,-0.041833218187093735,1.0,0.3256664276123047,0.2915418744087219,-0.04173795133829117,0.9998083710670471,0.32762423157691956,0.2925836443901062,-0.04171881824731827,1.0,0.30895325541496277,0.29118919372558594,-0.1030987948179245,0.9992913007736206,0.32797688245773315,0.30035659670829773,-0.10731437057256699,0.9997757077217102,0.31654244661331177,0.300969660282135,-0.028749236837029457,0.9965375661849976,0.3226945698261261,0.30369454622268677,-0.030323391780257225,0.9971169233322144,0.2785942256450653,0.3224376142024994,-0.11431429535150528,0.9984428286552429,0.3435881733894348,0.3360151946544647,-0.09440866857767105,0.9993347525596619,0.2323264181613922,0.3237066864967346,-0.12469567358493805,0.9937315583229065,0.37803569436073303,0.3593558669090271,-0.03113521635532379,0.9927830696105957,0.200078085064888,0.3246818780899048,-0.1964389830827713,0.9666740298271179,0.37827783823013306,0.3502682149410248,0.06443540006875992,0.9314790964126587,0.19011390209197998,0.32782402634620667,-0.21431276202201843,0.9472447037696838,0.3808673322200775,0.34945401549339294,0.07752427458763123,0.8792684674263,0.1934226006269455,0.32526570558547974,-0.21377673745155334,0.9538540840148926,0.3734872043132782,0.3454311490058899,0.06004134938120842,0.8758959770202637,0.19975928962230682,0.3261975049972534,-0.1951543688774109,0.9018195271492004,0.3709773123264313,0.34525972604751587,0.06117389723658562,0.835740327835083,0.2706255316734314,0.4539162516593933,0.011011889204382896,0.9999802112579346,0.30746620893478394,0.4572863280773163,-0.010993868112564087,0.9999872446060181,0.2578975558280945,0.5637480616569519,0.03526049479842186,0.9953303337097168,0.3038894534111023,0.5678367614746094,0.022491227835416794,0.998782217502594,0.2523042857646942,0.6575473546981812,0.06578156352043152,0.985584020614624,0.29861846566200256,0.6677894592285156,0.056566398590803146,0.9940979480743408,0.25231099128723145,0.6683218479156494,0.06538877636194229,0.970645546913147,0.2947327494621277,0.6796299815177917,0.05708939582109451,0.9788357615470886,0.2498948574066162,0.6891912221908569,0.03345455601811409,0.9508121609687805,0.30413442850112915,0.7019752264022827,0.013648602180182934,0.9661761522293091
36,0.3215350806713104,0.2958005964756012,-0.3922082483768463,1.0,0.31900545954704285,0.2905399203300476,-0.4098631739616394,1.0,0.31695932149887085,0.2902778089046478,-0.40978002548217773,0.908441424369812,0.31502169370651245,0.28996744751930237,-0.4097469449043274,1.0,0.32380956411361694,0.29122859239578247,-0.40794792771339417,1.0,0.32561296224594116,0.29175838828086853,-0.40783196687698364,0.9689695835113525,0.3273925185203552,0.2931782901287079,-0.4077144265174866,1.0,0.30987414717674255,0.2928541898727417,-0.3999382257461548,0.9546741247177124,0.3269335627555847,0.30029213428497314,-0.38431495428085327,0.9915449619293213,0.3167382478713989,0.3022967278957367,-0.3799179792404175,0.8289632201194763,0.32217612862586975,0.3047650456428528,-0.37596461176872253,0.9519511461257935,0.2795746922492981,0.32429081201553345,-0.3434590697288513,0.9940119385719299,0.34124159812927246,0.33707284927368164,-0.2704834043979645,0.9996036887168884,0.23961594700813293,0.3223659098148346,-0.3135814070701599,0.9592792987823486,0.37544888257980347,0.35399284958839417,-0.22665154933929443,0.9918659329414368,0.2097787857055664,0.31823718547821045,-0.3021247982978821,0.9080476760864258,0.37754935026168823,0.3533557057380676,-0.22996766865253448,0.9463337659835815,0.19928735494613647,0.31916528940200806,-0.31764447689056396,0.8275145888328552,0.37911543250083923,0.3516366183757782,-0.22498604655265808,0.8896148204803467,0.20113325119018555,0.31824004650115967,-0.319007933139801,0.8324788212776184,0.3729535937309265,0.3474847376346588,-0.24057146906852722,0.8919798135757446,0.2086917906999588,0.31783899664878845,-0.3021080791950226,0.7402428388595581,0.3702718913555145,0.34902018308639526,-0.23241838812828064,0.8375682830810547,0.2717788517475128,0.4545377790927887,-0.02035706304013729,0.9998929500579834,0.30414989590644836,0.4607490301132202,0.020427251234650612,0.9999465942382812,0.27582740783691406,0.5656731128692627,0.03559448570013046,0.9952254295349121,0.2773166298866272,0.5645977854728699,0.07449488341808319,0.9725202918052673,0.27919405698776245,0.662427544593811,0.16273029148578644,0.9868883490562439,0.26450711488723755,0.6636433005332947,0.19975750148296356,0.9671634435653687,0.28034427762031555,0.6747957468032837,0.16851289570331573,0.866693913936615,0.2652387320995331,0.6766716837882996,0.2060876339673996,0.6689816117286682,0.2730436325073242,0.6883446574211121,0.08440415561199188,0.9420958757400513,0.24656829237937927,0.6875032186508179,0.1243048682808876,0.8808460831642151
37,0.3250454068183899,0.29981985688209534,-0.37490925192832947,1.0,0.32181060314178467,0.29391226172447205,-0.39278072118759155,1.0,0.31938636302948,0.29353567957878113,-0.39271876215934753,0.990620493888855,0.3170764148235321,0.29313310980796814,-0.3926801085472107,1.0,0.327448308467865,0.2950021028518677,-0.3960646092891693,1.0,0.32926902174949646,0.2952512502670288,-0.3959106504917145,0.9956333041191101,0.33105701208114624,0.29585519433021545,-0.3957570791244507,1.0,0.3097955584526062,0.2965109944343567,-0.3798334002494812,0.9954244494438171,0.3295661509037018,0.30145740509033203,-0.38994455337524414,0.997490406036377,0.31898432970046997,0.30574142932891846,-0.361036092042923,0.9748289585113525,0.3250375986099243,0.3065279722213745,-0.3643883168697357,0.9879763722419739,0.27826932072639465,0.3275112807750702,-0.3000694513320923,0.9939435124397278,0.3405625820159912,0.34005287289619446,-0.29561904072761536,0.9976758360862732,0.2316194772720337,0.32201990485191345,-0.23739008605480194,0.9902074933052063,0.37520211935043335,0.3539743721485138,-0.2412738800048828,0.9983193278312683,0.19982168078422546,0.3177146911621094,-0.220887690782547,0.9668907523155212,0.3823610544204712,0.3535657525062561,-0.2164095640182495,0.9769082069396973,0.1885470151901245,0.31832176446914673,-0.26740482449531555,0.9317565560340881,0.38229605555534363,0.35519662499427795,-0.21632035076618195,0.9465499520301819,0.19282174110412598,0.31857675313949585,-0.26181596517562866,0.9323521256446838,0.37672656774520874,0.35126206278800964,-0.22583651542663574,0.9471703171730042,0.20018859207630157,0.3183472454547882,-0.2242981642484665,0.8880500793457031,0.3734310269355774,0.34986159205436707,-0.21654705703258514,0.9168140888214111,0.2739694118499756,0.4588826596736908,-0.00795415323227644,0.999929666519165,0.3009977638721466,0.4657224118709564,0.008580033667385578,0.9999299049377441,0.2781798243522644,0.5673111081123352,0.06837932765483856,0.9934349060058594,0.27366071939468384,0.5626448392868042,0.06351432204246521,0.9950850605964661,0.2823251187801361,0.667579710483551,0.210408017039299,0.9847075939178467,0.25717693567276,0.6619394421577454,0.2032601535320282,0.9893402457237244,0.2820681929588318,0.6821432113647461,0.2187049835920334,0.8860175609588623,0.25478774309158325,0.6770222187042236,0.21172872185707092,0.891332745552063,0.28062373399734497,0.6886876225471497,0.14365603029727936,0.9323519468307495,0.24707086384296417,0.6816915273666382,0.1330403834581375,0.9532146453857422
38,0.3255998492240906,0.3023996949195862,-0.36362224817276,1.0,0.3239910900592804,0.2962775230407715,-0.38636448979377747,1.0,0.3216830790042877,0.29584571719169617,-0.38620662689208984,0.9935877323150635,0.31944388151168823,0.2953687012195587,-0.3861158490180969,1.0,0.32965078949928284,0.29807183146476746,-0.38652166724205017,1.0,0.3316221833229065,0.2986816465854645,-0.3864170014858246,0.9956313371658325,0.33350759744644165,0.29949745535850525,-0.38629284501075745,1.0,0.3130040466785431,0.30102238059043884,-0.3884865641593933,0.9945600628852844,0.33257636427879333,0.30727633833885193,-0.3880682587623596,0.997860848903656,0.31945979595184326,0.3094250559806824,-0.35530152916908264,0.9571303129196167,0.3252466917037964,0.31054580211639404,-0.35559672117233276,0.9718835949897766,0.27550771832466125,0.3293934762477875,-0.2910501956939697,0.9886026382446289,0.3435889482498169,0.34980836510658264,-0.27584749460220337,0.9982258677482605,0.2324124276638031,0.3268227279186249,-0.1858561933040619,0.6788650155067444,0.3740848898887634,0.3689941465854645,-0.19623351097106934,0.9726472496986389,0.21644237637519836,0.32333239912986755,-0.09753572195768356,0.49498558044433594,0.3673110604286194,0.3623593747615814,-0.13098649680614471,0.8195915222167969,0.21240171790122986,0.3205704987049103,-0.08664239197969437,0.4368084669113159,0.36675018072128296,0.36126765608787537,-0.1252938061952591,0.7250372171401978,0.22101859748363495,0.3233736753463745,-0.09349514544010162,0.4859749376773834,0.3590889275074005,0.3586540222167969,-0.1405300348997116,0.7479788064956665,0.22554795444011688,0.3250207304954529,-0.09688645601272583,0.4115051031112671,0.3578605651855469,0.358396053314209,-0.13301795721054077,0.6804843544960022,0.27109065651893616,0.45316264033317566,-0.0026140876580029726,0.9999229907989502,0.3018839955329895,0.4601377546787262,0.0030297492630779743,0.999935507774353,0.26351648569107056,0.5590166449546814,0.03952538222074509,0.9418917894363403,0.2846912145614624,0.5651512742042542,0.026338275521993637,0.9303837418556213,0.2613280415534973,0.6608313918113708,0.1205870658159256,0.9233186841011047,0.2784646451473236,0.6688472032546997,0.11105626821517944,0.9126619100570679,0.2624748945236206,0.6747987866401672,0.12236938625574112,0.6085051894187927,0.2768402099609375,0.6822568774223328,0.11354117095470428,0.5382409691810608,0.2563275694847107,0.6820098161697388,0.09809225052595139,0.6583377718925476,0.2750781178474426,0.6920540928840637,0.03483838587999344,0.6551465392112732
39
40
41
42
43
44
45
46
47
48
49
50
51
52
53
54
55
56
57,0.37807542085647583,0.34032365679740906,-0.31141045689582825,1.0,0.38295042514801025,0.3347497284412384,-0.2970731258392334,1.0,0.38476306200027466,0.33580246567726135,-0.29702648520469666,1.0,0.3866199553012848,0.3367888629436493,-0.29699206352233887,1.0,0.376987099647522,0.3318704068660736,-0.30216601490974426,1.0,0.37516504526138306,0.3306424021720886,-0.3021015226840973,1.0,0.37333211302757263,0.329569935798645,-0.30207738280296326,1.0,0.3883099853992462,0.3402804434299469,-0.1821776032447815,1.0,0.3708108067512512,0.3308190703392029,-0.2113153040409088,1.0,0.3798923194408417,0.349197119474411,-0.2671033442020416,1.0,0.3736335337162018,0.34546005725860596,-0.27593088150024414,1.0,0.39241665601730347,0.3801197111606598,-0.08708006143569946,0.9999980926513672,0.3470764756202698,0.35893118381500244,-0.17046751081943512,0.9999988079071045,0.4141235947608948,0.3998847007751465,-0.11683832108974457,0.9461626410484314,0.3012152314186096,0.36959296464920044,-0.28164318203926086,0.9988837838172913,0.4017561078071594,0.38039928674697876,-0.26496651768684387,0.6904084086418152,0.2854025959968567,0.3708881139755249,-0.43635302782058716,0.8672553300857544,0.40141186118125916,0.3735230267047882,-0.3077475428581238,0.3436259925365448,0.27820515632629395,0.3683018982410431,-0.47959184646606445,0.5542779564857483,0.394204318523407,0.3705102801322937,-0.31433990597724915,0.37096449732780457,0.2856005132198334,0.37083864212036133,-0.48916229605674744,0.58184415102005,0.3947044610977173,0.374663770198822,-0.2733229696750641,0.3118746280670166,0.28788915276527405,0.3732111155986786,-0.4427299499511719,0.47853371500968933,0.36839109659194946,0.4973450303077698,0.041237302124500275,1.0,0.3355250060558319,0.48455265164375305,-0.04114751145243645,1.0,0.40172356367111206,0.5584512948989868,-0.09473652392625809,0.9999678134918213,0.29080867767333984,0.5614660978317261,-0.11849062144756317,0.9999978542327881,0.4051138758659363,0.6420141458511353,0.001275578630156815,0.9994593262672424,0.2349470555782318,0.6368772387504578,-0.1041964441537857,0.9999510049819946,0.39740121364593506,0.6597043871879578,0.005301917903125286,0.9911484718322754,0.22771331667900085,0.6519297361373901,-0.11008690297603607,0.9695417284965515,0.4273587763309479,0.656806230545044,-0.10236233472824097,0.9982933402061462,0.22841937839984894,0.654784083366394,-0.24143031239509583,0.9993138313293457
58
59
60
61
62
63
64
65,0.390969455242157,0.34900015592575073,-0.16688628494739532,1.0,0.3908034861087799,0.34109267592430115,-0.17329497635364532,1.0,0.3921188414096832,0.3397296965122223,-0.17329125106334686,1.0,0.3935006260871887,0.3382555842399597,-0.17329303920269012,1.0,0.38828927278518677,0.34428054094314575,-0.15309065580368042,1.0,0.38760101795196533,0.3452869951725006,-0.15293225646018982,1.0,0.38693758845329285,0.346357136964798,-0.15285122394561768,1.0,0.3993171453475952,0.3385334610939026,-0.1679299771785736,1.0,0.39038586616516113,0.34915775060653687,-0.07237179577350616,1.0,0.397793173789978,0.3532065451145172,-0.1625823676586151,0.9999998807907104,0.3939560055732727,0.35769063234329224,-0.13469301164150238,0.9999996423721313,0.42465710639953613,0.36394569277763367,-0.1894022524356842,0.9999998807907104,0.411520391702652,0.3819042444229126,0.02596006728708744,0.9999865293502808,0.46701106429100037,0.3860098123550415,-0.20292142033576965,0.9998456239700317,0.4340835511684418,0.4054058790206909,0.10334900766611099,0.7998093366622925,0.48657211661338806,0.4423584043979645,-0.2184925377368927,0.9970619082450867,0.4315265715122223,0.4163115322589874,0.06573731452226639,0.5928038358688354,0.49332594871520996,0.45392271876335144,-0.24441055953502655,0.9863806366920471,0.4326896071434021,0.41954129934310913,0.05766110494732857,0.4350253939628601,0.4880920946598053,0.4546023905277252,-0.2502442002296448,0.9862422943115234,0.4294203817844391,0.418453574180603,0.03336552903056145,0.4698787331581116,0.4867561459541321,0.45021671056747437,-0.2182086706161499,0.9818968772888184,0.42861613631248474,0.4171488881111145,0.05525932461023331,0.4585424065589905,0.4656010568141937,0.47347354888916016,-0.08189230412244797,0.9999969005584717,0.4559318423271179,0.48112761974334717,0.08223164826631546,0.9999972581863403,0.4527253210544586,0.5775513052940369,-0.09845686703920364,0.9999315738677979,0.4463982582092285,0.5829323530197144,0.10601280629634857,0.958111047744751,0.4606563448905945,0.6664421558380127,-0.026017118245363235,0.9988009929656982,0.4631083905696869,0.6653465628623962,0.21819427609443665,0.8970754146575928,0.4680648446083069,0.6791131496429443,-0.023359013721346855,0.9745925068855286,0.4716258645057678,0.6787280440330505,0.22355541586875916,0.9046644568443298,0.4418101906776428,0.6997557878494263,-0.09604114294052124,0.9939737915992737,0.4478534758090973,0.6986821889877319,0.17064926028251648,0.9059248566627502
66
67,0.454195111989975,0.2997238337993622,-0.2522300183773041,1.0,0.45302295684814453,0.29092156887054443,-0.2408202588558197,1.0,0.4548393189907074,0.2891804873943329,-0.2408113032579422,0.9999998807907104,0.45671501755714417,0.2873436212539673,-0.2407732903957367,1.0,0.44743528962135315,0.29573890566825867,-0.24372318387031555,1.0,0.44529813528060913,0.29734161496162415,-0.24367162585258484,0.9999998807907104,0.4431942403316498,0.2990357577800751,-0.24380061030387878,1.0,0.45998257398605347,0.2893170118331909,-0.15652476251125336,1.0,0.4416159689426422,0.3052860498428345,-0.16812238097190857,0.9999996423721313,0.46093660593032837,0.30429935455322266,-0.22018878161907196,0.9999991655349731,0.45377475023269653,0.310472697019577,-0.22271351516246796,0.9999979734420776,0.49486833810806274,0.3193093538284302,-0.07301796227693558,0.9999480247497559,0.4415584206581116,0.35415661334991455,-0.16520632803440094,0.9993482232093811,0.5427179932594299,0.3229803442955017,-0.04338858649134636,0.9858148097991943,0.42178207635879517,0.3687659502029419,-0.30798590183258057,0.9953632354736328,0.5654208064079285,0.3447457551956177,-0.11758937686681747,0.936456024646759,0.42825594544410706,0.32822561264038086,-0.4257459044456482,0.9217995405197144,0.5711790919303894,0.34848663210868835,-0.1407913863658905,0.7387261986732483,0.4275307059288025,0.3149671256542206,-0.46635952591896057,0.7166032791137695,0.5668975710868835,0.350636750459671,-0.16117410361766815,0.7880608439445496,0.4295388162136078,0.3159138858318329,-0.45632052421569824,0.7065723538398743,0.5638850927352905,0.3522769510746002,-0.1289166510105133,0.7743517160415649,0.4325363039970398,0.32128944993019104,-0.4272366166114807,0.6996063590049744,0.5269051790237427,0.4522974193096161,0.020189611241221428,0.9999371767044067,0.49622926115989685,0.47177860140800476,-0.020055675879120827,0.9999363422393799,0.5519197583198547,0.5521572232246399,0.019881589338183403,0.9648690223693848,0.5162661075592041,0.5581316351890564,-0.015370046719908714,0.9864633083343506,0.5527222156524658,0.6408642530441284,0.13432087004184723,0.850877583026886,0.5395782589912415,0.6366512775421143,0.10740228742361069,0.8419215083122253,0.5467628240585327,0.6545442938804626,0.14037276804447174,0.41877537965774536,0.5424626469612122,0.6475301384925842,0.11285229027271271,0.22849085927009583,0.5687838792800903,0.668785035610199,0.04968791827559471,0.7019567489624023,0.5529797077178955,0.6636549830436707,0.01762927509844303,0.6201372146606445
68,0.47766321897506714,0.28913581371307373,-0.23357653617858887,1.0,0.4747684597969055,0.28162896633148193,-0.21696600317955017,1.0,0.4761626720428467,0.28053781390190125,-0.21691596508026123,0.9999997615814209,0.4776214063167572,0.27940091490745544,-0.21694716811180115,1.0,0.46978697180747986,0.28548628091812134,-0.23731383681297302,1.0,0.46740156412124634,0.2869950830936432,-0.23749831318855286,0.9999997615814209,0.4650117754936218,0.2885936498641968,-0.2373095005750656,1.0,0.4762847423553467,0.28555378317832947,-0.11241649091243744,0.9999998807907104,0.4596499800682068,0.29701101779937744,-0.17427703738212585,0.9999995231628418,0.48184067010879517,0.2956584095954895,-0.19255265593528748,0.9999979734420776,0.4748508334159851,0.3004199266433716,-0.2153129279613495,0.9999966621398926,0.49866169691085815,0.33370131254196167,-0.013799972832202911,0.9999940395355225,0.4554760456085205,0.35184532403945923,-0.162056103348732,0.9997599720954895,0.5399457812309265,0.37216466665267944,-0.0477430522441864,0.8351745009422302,0.45564866065979004,0.41774141788482666,-0.22849014401435852,0.9670578837394714,0.5486564636230469,0.374636709690094,-0.23492805659770966,0.928357720375061,0.46018505096435547,0.4220457375049591,-0.33350786566734314,0.829940915107727,0.5509063601493835,0.3750336766242981,-0.2752361297607422,0.8966307044029236,0.4589863419532776,0.42293718457221985,-0.36776071786880493,0.7299056053161621,0.5466916561126709,0.3723403811454773,-0.29016101360321045,0.91204434633255,0.4601260721683502,0.4193888306617737,-0.37304380536079407,0.7553364634513855,0.5443170666694641,0.3739529848098755,-0.24760118126869202,0.8716068267822266,0.461575448513031,0.4185723662376404,-0.33773621916770935,0.7032899260520935,0.5271987915039062,0.47147512435913086,0.05359675735235214,0.9999960660934448,0.5048238039016724,0.4812750220298767,-0.0533028244972229,0.9999657869338989,0.550666868686676,0.566846489906311,0.06331714242696762,0.9674902558326721,0.5347715020179749,0.5622807145118713,-0.09165815263986588,0.9989683628082275,0.5437275767326355,0.6541829705238342,0.19326262176036835,0.979328989982605,0.5331677794456482,0.6302738189697266,0.07960162311792374,0.9743666648864746,0.5370040535926819,0.6674298048019409,0.20146214962005615,0.9377111196517944,0.5283404588699341,0.636721670627594,0.09287752211093903,0.7378025054931641,0.5641449689865112,0.6816385388374329,0.12405649572610855,0.9785716533660889,0.5469268560409546,0.6687899231910706,0.026970718055963516,0.965641975402832
69,0.4859975278377533,0.28236958384513855,-0.07853303104639053,1.0,0.48031654953956604,0.2745763957500458,-0.06503509730100632,1.0,0.48004215955734253,0.2743944823741913,-0.06499037891626358,1.0,0.47984904050827026,0.274186909198761,-0.06505729258060455,1.0,0.47811833024024963,0.2758656144142151,-0.08887985348701477,1.0,0.4761849343776703,0.27641740441322327,-0.08882339298725128,0.9999998807907104,0.4742470681667328,0.277071475982666,-0.08886684477329254,1.0,0.4725862443447113,0.28279608488082886,0.010972846299409866,1.0,0.46514177322387695,0.2843867838382721,-0.09484826028347015,0.9999995231628418,0.4851725101470947,0.29175668954849243,-0.048292096704244614,0.9999991655349731,0.48201507329940796,0.2931469976902008,-0.07857560366392136,0.9999988079071045,0.48558348417282104,0.32857704162597656,0.0956268459558487,0.99992835521698,0.45516878366470337,0.34139734506607056,-0.13421806693077087,0.9998953342437744,0.5090066194534302,0.3842611014842987,0.10014146566390991,0.02405235916376114,0.47108083963394165,0.4005698263645172,-0.22112314403057098,0.9933660626411438,0.5288882851600647,0.39148157835006714,-0.04273553565144539,0.0968552902340889,0.4956003725528717,0.3639354407787323,-0.26291513442993164,0.9671422839164734,0.5341476202011108,0.39440736174583435,-0.06394068896770477,0.11615999042987823,0.5022832155227661,0.35557591915130615,-0.28578394651412964,0.9336822032928467,0.5343310236930847,0.38835859298706055,-0.08459692448377609,0.1427093744277954,0.4986584186553955,0.3490044176578522,-0.2820616066455841,0.92937833070755,0.5315587520599365,0.38739845156669617,-0.05717359855771065,0.1232663169503212,0.4960576593875885,0.3520359992980957,-0.2600117325782776,0.8910783529281616,0.5181517004966736,0.4616975486278534,0.07431346923112869,0.9999860525131226,0.5002281069755554,0.4697355031967163,-0.07421794533729553,0.9999947547912598,0.5453397035598755,0.5642451643943787,0.07464616000652313,0.7798954844474792,0.524211585521698,0.5644199252128601,-0.06146092340350151,0.9989916682243347,0.544040322303772,0.6571418642997742,0.18210403621196747,0.7637866735458374,0.5352157354354858,0.6531890630722046,0.03647641837596893,0.9910258650779724,0.53619784116745,0.6738107204437256,0.18794658780097961,0.6892403960227966,0.5309349298477173,0.6692768335342407,0.04199865087866783,0.8902965188026428,0.5704971551895142,0.6766878962516785,0.12268377840518951,0.8183209300041199,0.5622431039810181,0.6728813648223877,-0.03493797034025192,0.980323314666748
70
71,0.462110698223114,0.6260316371917725,-0.16283313930034637,1.0,0.46143144369125366,0.6323696970939636,-0.147798553109169,1.0,0.46015220880508423,0.6321161985397339,-0.1476735919713974,0.9999992847442627,0.4587603211402893,0.6319271326065063,-0.14766013622283936,1.0,0.4666000008583069,0.6328908205032349,-0.15889474749565125,1.0,0.46878641843795776,0.6332330703735352,-0.15887384116649628,0.9999996423721313,0.47100478410720825,0.6334637403488159,-0.15899232029914856,1.0,0.4607439935207367,0.6277914047241211,-0.054050855338573456,0.9999995231628418,0.4768088459968567,0.6293953061103821,-0.10386023670434952,0.9999971389770508,0.46116524934768677,0.6167749762535095,-0.12722548842430115,0.9999983310699463,0.4670422077178955,0.6177252531051636,-0.14119265973567963,0.9999948740005493,0.4489225745201111,0.5867539048194885,0.013896319083869457,0.9999375343322754,0.4931245446205139,0.597463071346283,-0.10355410724878311,0.9998140931129456,0.42814987897872925,0.5468470454216003,-0.02750878408551216,0.4990723133087158,0.4930031895637512,0.5971412062644958,-0.257350355386734,0.9005360007286072,0.42893391847610474,0.5400618314743042,-0.17856280505657196,0.5225001573562622,0.47842851281166077,0.6462528109550476,-0.3535117506980896,0.8027827143669128,0.4259769320487976,0.5353891849517822,-0.21270862221717834,0.3673661947250366,0.47611337900161743,0.6606427431106567,-0.3834662139415741,0.5540683269500732,0.43228816986083984,0.5391642451286316,-0.223486065864563,0.3765745460987091,0.47567930817604065,0.6593371629714966,-0.37677156925201416,0.48637375235557556,0.4344452917575836,0.5400575995445251,-0.18862760066986084,0.2801262140274048,0.47447189688682556,0.6514734029769897,-0.3527686297893524,0.42467960715293884,0.44921332597732544,0.4785102903842926,0.029104936867952347,0.9999977350234985,0.48246684670448303,0.4802687466144562,-0.028972838073968887,0.9999983310699463,0.4223763346672058,0.39933571219444275,-0.10663191229104996,0.9867581725120544,0.4901362359523773,0.4004383087158203,-0.13679876923561096,0.982992947101593,0.43364447355270386,0.3056822717189789,-0.0031667265575379133,0.9628171324729919,0.5074487328529358,0.3113747239112854,-0.061916254460811615,0.9319028258323669,0.44256505370140076,0.2902005910873413,0.0013619905803352594,0.7827326655387878,0.508310079574585,0.29662805795669556,-0.06016506999731064,0.4472610354423523,0.41697731614112854,0.27537986636161804,-0.10301350057125092,0.9221264123916626,0.512478232383728,0.279500275850296,-0.16181710362434387,0.8824115991592407
72,0.4525788724422455,0.6286356449127197,-0.1622445285320282,1.0,0.4488834738731384,0.6337521076202393,-0.146503284573555,1.0,0.44698652625083923,0.632958710193634,-0.1463606357574463,0.9999997615814209,0.4449857771396637,0.6322183012962341,-0.14633303880691528,1.0,0.4546756148338318,0.6357152462005615,-0.15255826711654663,1.0,0.4567672312259674,0.6365676522254944,-0.15251849591732025,0.9999995231628418,0.45889490842819214,0.6372622847557068,-0.15257275104522705,1.0,0.4439024031162262,0.626283586025238,-0.04928872361779213,0.9999997615814209,0.4627513885498047,0.6329548358917236,-0.07611355930566788,0.9999966621398926,0.4506785273551941,0.618066132068634,-0.12590155005455017,0.9999990463256836,0.4578112065792084,0.6208608746528625,-0.13345226645469666,0.9999963045120239,0.4339921474456787,0.5876128077507019,0.0034917015582323074,0.9999740123748779,0.484483003616333,0.5976114273071289,-0.0785798579454422,0.9998633861541748,0.4130529463291168,0.5558286309242249,-0.16059160232543945,0.9494686722755432,0.49899691343307495,0.6058347821235657,-0.2622174024581909,0.9846915602684021,0.41878288984298706,0.5967637896537781,-0.3925115764141083,0.9649059772491455,0.488135427236557,0.6588854193687439,-0.37946265935897827,0.9745511412620544,0.4159794747829437,0.606557309627533,-0.44069838523864746,0.8975273966789246,0.4851859509944916,0.6636930108070374,-0.4115888178348541,0.8589645028114319,0.42176753282546997,0.610315203666687,-0.43168216943740845,0.8932973742485046,0.48532524704933167,0.6717036366462708,-0.3971267640590668,0.8152198195457458,0.4252663552761078,0.605528712272644,-0.3966914117336273,0.8227896094322205,0.4841315746307373,0.6646860241889954,-0.3759829103946686,0.7596219182014465,0.44039469957351685,0.47738757729530334,0.021400773897767067,0.9999978542327881,0.47524309158325195,0.4785328209400177,-0.02131156250834465,0.999995231628418,0.4307648539543152,0.3905906677246094,-0.07174786180257797,0.9975970387458801,0.4872308671474457,0.3942469358444214,-0.10068903863430023,0.9984948635101318,0.44230398535728455,0.29816293716430664,0.05556444451212883,0.9773129224777222,0.4942701458930969,0.30403465032577515,0.00422045961022377,0.9761965274810791,0.4506284296512604,0.2837359607219696,0.06251260638237,0.7693799734115601,0.4930046498775482,0.2894425690174103,0.00894019566476345,0.5980274677276611,0.4315417408943176,0.26851511001586914,-0.04532726854085922,0.9487987756729126,0.49888062477111816,0.2729487121105194,-0.09947694838047028,0.9538608193397522
73,0.5040595531463623,0.6322066783905029,-0.13433067500591278,1.0,0.5020833015441895,0.6382895112037659,-0.1362558901309967,1.0,0.5008910894393921,0.6375485062599182,-0.1361411064863205,0.9999755620956421,0.4995633661746979,0.6366358995437622,-0.13615228235721588,1.0,0.5038135051727295,0.6391592025756836,-0.12129981815814972,1.0,0.5038865208625793,0.6394500732421875,-0.12115401029586792,0.9999322891235352,0.503968358039856,0.6395062208175659,-0.12118588387966156,1.0,0.4928019940853119,0.6310214996337891,-0.11615361273288727,0.9998637437820435,0.49794435501098633,0.6352987885475159,-0.05262909084558487,0.9997758269309998,0.4989224970340729,0.6188052296638489,-0.1259511411190033,0.9992542862892151,0.501165509223938,0.6241247653961182,-0.10762244462966919,0.9993104934692383,0.4734618663787842,0.6038044095039368,-0.15380911529064178,0.9985066056251526,0.49463409185409546,0.602512001991272,-0.004470816347748041,0.9977937936782837,0.4856100082397461,0.640591561794281,-0.30551332235336304,0.9969568252563477,0.5086343288421631,0.6529709696769714,0.008697963319718838,0.9027727842330933,0.503849446773529,0.6920656561851501,-0.4168911874294281,0.994797945022583,0.5196728706359863,0.6946527361869812,-0.015204074792563915,0.8832119703292847,0.5050488114356995,0.7037445902824402,-0.4556913375854492,0.9722293615341187,0.521753191947937,0.7045336961746216,-0.03223276138305664,0.7255053520202637,0.5094276666641235,0.7032580971717834,-0.4476553797721863,0.9691283106803894,0.5184025168418884,0.7053750157356262,-0.03797696530818939,0.7240920662879944,0.5099102854728699,0.6983007788658142,-0.4181888997554779,0.9646036624908447,0.5176436901092529,0.701711118221283,-0.020496072247624397,0.7121579647064209,0.4613036513328552,0.49348029494285583,-0.03235828876495361,0.999930739402771,0.48104149103164673,0.483307421207428,0.032573360949754715,0.9999463558197021,0.4624241292476654,0.41176560521125793,-0.04569631069898605,0.9964698553085327,0.47674378752708435,0.39956778287887573,0.02307463064789772,0.9763251543045044,0.45886579155921936,0.314716637134552,0.02885262668132782,0.9678648114204407,0.4671729505062103,0.3086780309677124,0.051681626588106155,0.8909217119216919,0.4604650139808655,0.30084168910980225,0.0320664718747139,0.8372740149497986,0.4635823667049408,0.295169472694397,0.04855886846780777,0.5882056355476379,0.45026031136512756,0.28389066457748413,-0.054968249052762985,0.8969848155975342,0.4659770131111145,0.27834251523017883,-0.043305300176143646,0.7998588681221008
74,0.49592453241348267,0.6485522389411926,-0.2307339608669281,1.0,0.4940613806247711,0.6565214395523071,-0.22199873626232147,1.0,0.49244827032089233,0.657805860042572,-0.22198131680488586,0.9999983310699463,0.4907285273075104,0.6588819026947021,-0.2220320701599121,1.0,0.4983426630496979,0.6514891982078552,-0.21685965359210968,1.0,0.49971088767051697,0.6490535140037537,-0.2167896032333374,0.9999958276748657,0.5010372400283813,0.6452969312667847,-0.21690146625041962,1.0,0.4879019260406494,0.6547808051109314,-0.1571078598499298,0.9999982118606567,0.49858611822128296,0.6355777382850647,-0.13166825473308563,0.9999938011169434,0.4914053976535797,0.6424340605735779,-0.20710358023643494,0.9999914169311523,0.4965067505836487,0.6385616660118103,-0.1991933286190033,0.9999756813049316,0.46732282638549805,0.6248799562454224,-0.15778975188732147,0.9993756413459778,0.5021872520446777,0.6126561760902405,-0.13121768832206726,0.9977368116378784,0.4634482264518738,0.6373413801193237,-0.31696799397468567,0.9935826659202576,0.5107978582382202,0.6705026030540466,-0.2600429654121399,0.9910019040107727,0.4752984642982483,0.6783458590507507,-0.4661848545074463,0.9583094716072083,0.5136595964431763,0.7141825556755066,-0.3699442744255066,0.9388107061386108,0.47665661573410034,0.691775918006897,-0.5105901956558228,0.7930856347084045,0.5135583281517029,0.7261112332344055,-0.41725754737854004,0.7452818751335144,0.4798337519168854,0.6921334862709045,-0.5062271356582642,0.8260321617126465,0.5110217332839966,0.7246871590614319,-0.4138270318508148,0.7481305599212646,0.4807423949241638,0.6867425441741943,-0.4704977869987488,0.7831555604934692,0.5100104212760925,0.7193624377250671,-0.3790767788887024,0.7458562254905701,0.4550882875919342,0.5033320188522339,-0.009081078693270683,0.99997878074646,0.48156842589378357,0.4920734167098999,0.008972903713583946,0.9999765157699585,0.4523316025733948,0.4253615736961365,-0.05193529278039932,0.9999265670776367,0.4703502058982849,0.4083888828754425,0.01087883673608303,0.9996711015701294,0.43974393606185913,0.3410409092903137,0.08105815947055817,0.9957846999168396,0.4510037899017334,0.3327176868915558,0.15009805560112,0.9845405220985413,0.44216734170913696,0.3315642178058624,0.09089763462543488,0.8944542407989502,0.4465486407279968,0.3267750144004822,0.15953852236270905,0.7823448181152344,0.43378981947898865,0.3077436685562134,-0.011906081810593605,0.9831181764602661,0.446493536233902,0.2987242043018341,0.06527532637119293,0.9541518092155457
75
76,0.36779090762138367,0.5114311575889587,-0.14515189826488495,1.0,0.3604115843772888,0.5062914490699768,-0.14338265359401703,1.0,0.3601399064064026,0.5023964643478394,-0.1434020847082138,1.0,0.35981374979019165,0.4983885586261749,-0.1434093713760376,1.0,0.3606979548931122,0.516287088394165,-0.12745045125484467,1.0,0.3605738580226898,0.5198423862457275,-0.12745891511440277,1.0,0.36054137349128723,0.5234007239341736,-0.1273982971906662,1.0,0.3613271713256836,0.48983919620513916,-0.09724997729063034,1.0,0.3622003197669983,0.5231446027755737,-0.02135905623435974,1.0,0.3745369017124176,0.5023941397666931,-0.1267121434211731,0.9999996423721313,0.37488311529159546,0.5150997638702393,-0.10452882945537567,0.9999979734420776,0.3934907913208008,0.4509534537792206,-0.10790588706731796,0.9999991655349731,0.39182981848716736,0.5263286232948303,0.08078642189502716,0.9999867677688599,0.43897658586502075,0.3900095224380493,-0.1883394420146942,0.9956735968589783,0.4347759187221527,0.5398262143135071,0.14244993031024933,0.024735230952501297,0.4286840558052063,0.36793628334999084,-0.2783881723880768,0.9623658061027527,0.45786237716674805,0.549530029296875,0.12976086139678955,0.06888654828071594,0.4228292405605316,0.3569566607475281,-0.3165223300457001,0.9063310027122498,0.46778321266174316,0.5551497340202332,0.12149174511432648,0.0830468013882637,0.4176429808139801,0.3652052581310272,-0.3166121244430542,0.9141262769699097,0.46422648429870605,0.5500651597976685,0.10443232953548431,0.08854615688323975,0.42157068848609924,0.37257832288742065,-0.28335240483283997,0.9060357213020325,0.4612807631492615,0.5471490025520325,0.12170685827732086,0.0857679471373558,0.4884796142578125,0.49426141381263733,-0.0824129730463028,0.9999954700469971,0.4796002507209778,0.5288370251655579,0.08257929980754852,0.9999977350234985,0.46433550119400024,0.5914052128791809,-0.16826322674751282,0.9968155026435852,0.4635915756225586,0.6078602075576782,-0.024988334625959396,0.6778455972671509,0.517175555229187,0.6861177086830139,-0.1387864649295807,0.9288960099220276,0.5167420506477356,0.6858416795730591,-0.0013741047587245703,0.5684874653816223,0.5355850458145142,0.6895235776901245,-0.13543955981731415,0.9514278173446655,0.5351980924606323,0.6907317042350769,-0.004154244903475046,0.6966987252235413,0.5164791345596313,0.739557683467865,-0.1872350424528122,0.9357328414916992,0.5198452472686768,0.7326406240463257,-0.06694671511650085,0.6819959878921509
77
78,0.4204408526420593,0.3477783203125,-0.21982383728027344,1.0,0.4221479296684265,0.34036388993263245,-0.21553464233875275,1.0,0.42423200607299805,0.3391547203063965,-0.21558316051959991,0.999967098236084,0.42638421058654785,0.3378697633743286,-0.21558871865272522,1.0,0.416545569896698,0.3442170023918152,-0.20195916295051575,1.0,0.4147779941558838,0.3455624580383301,-0.20189158618450165,0.9999310970306396,0.4130215048789978,0.3469479978084564,-0.2019311934709549,1.0,0.4328603148460388,0.34168747067451477,-0.16160528361797333,0.9999898672103882,0.4145128130912781,0.3533221483230591,-0.09394571185112,0.999954104423523,0.4281236529350281,0.3541068732738495,-0.19869118928909302,0.999889612197876,0.42068395018577576,0.35873544216156006,-0.17920519411563873,0.9996083378791809,0.4643699526786804,0.3754119277000427,-0.13349001109600067,0.999966025352478,0.41775912046432495,0.40470024943351746,-0.0014064869610592723,0.9997764229774475,0.5113598108291626,0.40425586700439453,-0.1641433835029602,0.9820729494094849,0.40734702348709106,0.456348717212677,-0.006151128560304642,0.6490808129310608,0.5065826177597046,0.42519813776016235,-0.2424941509962082,0.7226418852806091,0.4164126515388489,0.4589747190475464,-0.15270774066448212,0.5205334424972534,0.5075876712799072,0.4297167658805847,-0.273942232131958,0.5240316987037659,0.41887539625167847,0.4619692265987396,-0.18771877884864807,0.46633845567703247,0.5006001591682434,0.427021861076355,-0.2812116742134094,0.5714771747589111,0.42262354493141174,0.454986572265625,-0.20207111537456512,0.5115281939506531,0.5013015866279602,0.4265265464782715,-0.24712863564491272,0.5065518021583557,0.4229121804237366,0.4528217315673828,-0.16335353255271912,0.4732585847377777,0.4771919846534729,0.5039823055267334,-0.057207562029361725,0.9990887641906738,0.45220595598220825,0.5167080163955688,0.05720977112650871,0.9990791082382202,0.4814627766609192,0.6027673482894897,-0.08043814450502396,0.9597865343093872,0.4784495234489441,0.6109287142753601,0.050025712698698044,0.7489866614341736,0.49498552083969116,0.6950360536575317,0.0018663931405171752,0.9204285144805908,0.5152243971824646,0.6959450840950012,0.14043228328227997,0.8083481788635254,0.5010755658149719,0.706322968006134,0.005026059225201607,0.4900626838207245,0.527159571647644,0.709754228591919,0.14408263564109802,0.7709819078445435,0.4843977391719818,0.7299296855926514,-0.09448841959238052,0.8648611307144165,0.4990617632865906,0.726697564125061,0.06350050866603851,0.7932596206665039
79,0.4234481453895569,0.3474753201007843,-0.22808179259300232,1.0,0.42415910959243774,0.33851203322410583,-0.2257498800754547,1.0,0.42622876167297363,0.33677980303764343,-0.22583115100860596,0.9999712705612183,0.42834997177124023,0.33495309948921204,-0.22588038444519043,1.0,0.41840481758117676,0.34315550327301025,-0.209249809384346,1.0,0.4165197014808655,0.3446085751056671,-0.20910000801086426,0.9999183416366577,0.4146551489830017,0.34610602259635925,-0.20908693969249725,1.0,0.4342440664768219,0.3354063928127289,-0.1753244251012802,0.9999936819076538,0.41557520627975464,0.35006842017173767,-0.09465926885604858,0.9999226331710815,0.4312458038330078,0.3513736426830292,-0.20661208033561707,0.9999079704284668,0.42373761534690857,0.35714805126190186,-0.18263432383537292,0.9991517066955566,0.467276394367218,0.36289671063423157,-0.14798493683338165,0.9999964237213135,0.421502023935318,0.39271000027656555,0.03404740244150162,0.9999274015426636,0.5184200406074524,0.3913435935974121,-0.12585891783237457,0.9916321635246277,0.42585572600364685,0.4401860237121582,0.13629646599292755,0.11773310601711273,0.5121434926986694,0.42800194025039673,-0.1528731882572174,0.8188304305076599,0.4306793212890625,0.4603879749774933,0.07775072753429413,0.1100909411907196,0.5121509432792664,0.43545955419540405,-0.18192678689956665,0.6031219959259033,0.4329755902290344,0.46827229857444763,0.06355403363704681,0.11854571849107742,0.5043753385543823,0.43241146206855774,-0.18825893104076385,0.6384052038192749,0.4346463084220886,0.4608748257160187,0.03642639145255089,0.13710463047027588,0.5050551891326904,0.43021705746650696,-0.15524761378765106,0.5755255818367004,0.43354931473731995,0.45789065957069397,0.06546959280967712,0.14128142595291138,0.4810258746147156,0.4904179275035858,-0.07838426530361176,0.9995940327644348,0.4561029374599457,0.5018007755279541,0.07847966998815536,0.9994914531707764,0.47623133659362793,0.602212131023407,-0.11262259632349014,0.8646111488342285,0.4796772003173828,0.6006729006767273,0.054623525589704514,0.19891822338104248,0.5080747604370117,0.6937894821166992,-0.0432114452123642,0.6686058640480042,0.5229543447494507,0.6839303970336914,0.13707304000854492,0.2809457778930664,0.5217280387878418,0.7038692831993103,-0.04198328033089638,0.19460469484329224,0.5341330170631409,0.6966583728790283,0.13921865820884705,0.37775468826293945,0.4977683424949646,0.7341305613517761,-0.14961212873458862,0.6059556603431702,0.5061631202697754,0.7201289534568787,0.054889123886823654,0.33997929096221924
80,0.43723422288894653,0.3269699513912201,-0.3520967364311218,1.0,0.4361976087093353,0.31788545846939087,-0.344971626996994,1.0,0.4383274018764496,0.3164445459842682,-0.3450595438480377,0.9999536275863647,0.44050368666648865,0.31489765644073486,-0.3450883626937866,1.0,0.4292660653591156,0.3223183751106262,-0.336544930934906,1.0,0.426331102848053,0.3240622580051422,-0.3364216685295105,0.9999371767044067,0.4233127534389496,0.32586321234703064,-0.33634889125823975,1.0,0.43975430727005005,0.31954607367515564,-0.27542102336883545,0.9999964237213135,0.42009440064430237,0.3343140482902527,-0.23052112758159637,0.999925971031189,0.44317904114723206,0.3342732787132263,-0.32323622703552246,0.9999746084213257,0.4336787164211273,0.3401243984699249,-0.31015443801879883,0.9998301267623901,0.47159504890441895,0.3610989451408386,-0.23555004596710205,0.9999964237213135,0.4239075779914856,0.3870590627193451,-0.09428639709949493,0.9998680353164673,0.5259393453598022,0.39836952090263367,-0.2201889455318451,0.9963347911834717,0.4250262379646301,0.4465964436531067,-0.003569310065358877,0.17957232892513275,0.5286714434623718,0.46206241846084595,-0.2510632872581482,0.8738134503364563,0.42520660161972046,0.4792167544364929,-0.048832181841135025,0.08415860682725906,0.5315627455711365,0.47659263014793396,-0.2858473062515259,0.6148034334182739,0.4253562390804291,0.4916604161262512,-0.05743378400802612,0.07129489630460739,0.520339846611023,0.4782198965549469,-0.2904732823371887,0.6384016275405884,0.426175057888031,0.4873998761177063,-0.0806540846824646,0.08217953890562057,0.5189851522445679,0.47431784868240356,-0.2541406750679016,0.5798290371894836,0.4260168671607971,0.4832209050655365,-0.058701496571302414,0.09169609844684601,0.4847565293312073,0.49724671244621277,-0.0675356462597847,0.9997901320457458,0.4595322608947754,0.5070562362670898,0.0676380842924118,0.9996192455291748,0.4852214455604553,0.6064008474349976,-0.06538312137126923,0.93218594789505,0.4836907982826233,0.6056448221206665,0.07300890237092972,0.430931031703949,0.518377959728241,0.686326801776886,0.07015033066272736,0.6910550594329834,0.5251756906509399,0.6834797263145447,0.19447460770606995,0.5098416805267334,0.528771698474884,0.6937159299850464,0.07851017266511917,0.34689903259277344,0.5370222926139832,0.6949690580368042,0.2014274299144745,0.5515364408493042,0.5166614055633545,0.7264657616615295,-0.007664674427360296,0.5931158065795898,0.5090797543525696,0.7209729552268982,0.12587571144104004,0.5344147086143494
81,0.4436091482639313,0.3065406382083893,-0.34923669695854187,1.0,0.4436422288417816,0.2968291640281677,-0.3393980860710144,1.0,0.44588178396224976,0.2956715226173401,-0.3393852412700653,0.9999796152114868,0.44817548990249634,0.29439735412597656,-0.3393804132938385,1.0,0.4363984167575836,0.3005460798740387,-0.3398037254810333,1.0,0.4335506558418274,0.3018172085285187,-0.33969733119010925,0.9999854564666748,0.4307306408882141,0.30318504571914673,-0.33969438076019287,1.0,0.45011505484580994,0.2982092797756195,-0.25345054268836975,0.999996542930603,0.4260494112968445,0.3101392388343811,-0.2557392418384552,0.9999289512634277,0.44938015937805176,0.31396493315696716,-0.3151034712791443,0.9999076128005981,0.4397664964199066,0.31852295994758606,-0.31530964374542236,0.9998806715011597,0.4799679219722748,0.33994489908218384,-0.20270855724811554,0.9998900890350342,0.4156053066253662,0.36282527446746826,-0.1691938042640686,0.9974651336669922,0.5336006879806519,0.355795681476593,-0.19700464606285095,0.996705949306488,0.38048094511032104,0.403352290391922,-0.16642875969409943,0.9603864550590515,0.5822463631629944,0.3795968294143677,-0.24579541385173798,0.940814733505249,0.34366828203201294,0.4108213186264038,-0.22661001980304718,0.7646968960762024,0.5966386795043945,0.38283631205558777,-0.25496625900268555,0.8144788146018982,0.33151480555534363,0.412666380405426,-0.19542935490608215,0.6023687720298767,0.5956159830093384,0.3810391128063202,-0.2799188196659088,0.8805137872695923,0.33278948068618774,0.4067263603210449,-0.1834646761417389,0.6620934009552002,0.591044008731842,0.3819598853588104,-0.25702109932899475,0.8926849961280823,0.3379283845424652,0.40631088614463806,-0.23659436404705048,0.6755350828170776,0.48686179518699646,0.48133283853530884,-0.003935803659260273,0.9707863926887512,0.45007839798927307,0.49041593074798584,0.004147925414144993,0.9590920209884644,0.5035961866378784,0.5740411281585693,-0.00856068730354309,0.3224259614944458,0.4613417685031891,0.5798215866088867,-0.007282591424882412,0.4563836455345154,0.5096244812011719,0.6595726609230042,0.13653725385665894,0.10000476241111755,0.47991839051246643,0.6641537547111511,0.12460041046142578,0.2723747789859772,0.5090520977973938,0.6717472076416016,0.14516378939151764,0.06656733900308609,0.48493513464927673,0.676862359046936,0.13008862733840942,0.08369157463312149,0.5157707333564758,0.692935049533844,0.04934929683804512,0.136665940284729,0.480036199092865,0.6948528289794922,0.03035104274749756,0.20029249787330627
82,0.44944438338279724,0.29045233130455017,-0.22311639785766602,1.0,0.4485427439212799,0.2821716070175171,-0.20697245001792908,1.0,0.4504411220550537,0.28112900257110596,-0.20695562660694122,0.9999986886978149,0.45242494344711304,0.27998748421669006,-0.2069464474916458,1.0,0.4419979155063629,0.28554534912109375,-0.2138650119304657,1.0,0.4393030107021332,0.28671079874038696,-0.21379394829273224,0.9999985694885254,0.43663614988327026,0.28795325756073,-0.2139037400484085,1.0,0.4525843560695648,0.2845500409603119,-0.11157594621181488,0.9999998807907104,0.4313491880893707,0.29559728503227234,-0.18514692783355713,0.9999873638153076,0.4542808532714844,0.2981085479259491,-0.18785732984542847,0.999984622001648,0.44541388750076294,0.3024441599845886,-0.19763801991939545,0.9999711513519287,0.4807451665401459,0.33028385043144226,-0.04747716337442398,0.9999696016311646,0.4193476736545563,0.3481687307357788,-0.09872626513242722,0.999642014503479,0.5304062962532043,0.3526354730129242,-0.04274991899728775,0.9583450555801392,0.3863148093223572,0.37718409299850464,-0.18449726700782776,0.557762622833252,0.5794094204902649,0.3578266501426697,-0.11963225901126862,0.9072204232215881,0.35404881834983826,0.38992106914520264,-0.3416194021701813,0.2650916278362274,0.5938782095909119,0.35439687967300415,-0.12877245247364044,0.8072211146354675,0.34275490045547485,0.39394739270210266,-0.37756189703941345,0.2369966357946396,0.5945353507995605,0.3511684238910675,-0.15726694464683533,0.8662523031234741,0.34589239954948425,0.3885757327079773,-0.38704830408096313,0.28728222846984863,0.5893465280532837,0.35526880621910095,-0.13398629426956177,0.8622727394104004,0.3508622944355011,0.38844504952430725,-0.35273364186286926,0.314443975687027,0.4933165907859802,0.4684511125087738,0.012092290446162224,0.9936967492103577,0.460735946893692,0.4829280972480774,-0.011836642399430275,0.9972420930862427,0.5038204789161682,0.559363603591919,0.02609877660870552,0.2918849587440491,0.4902602732181549,0.576728880405426,-0.01744063012301922,0.27601760625839233,0.5112881064414978,0.6351053714752197,0.14962519705295563,0.12915892899036407,0.5203078985214233,0.6598140001296997,0.08982130885124207,0.3606507480144501,0.5111917853355408,0.6456705927848816,0.15566572546958923,0.04773074388504028,0.5262949466705322,0.6710608005523682,0.09314490854740143,0.07898043096065521,0.516525387763977,0.6674513220787048,0.06400500237941742,0.16559109091758728,0.524313747882843,0.6913519501686096,-0.006912303157150745,0.21536269783973694
83,0.45783209800720215,0.28617504239082336,-0.22235195338726044,1.0,0.45574241876602173,0.27995744347572327,-0.2043646275997162,1.0,0.45719558000564575,0.27907779812812805,-0.20436163246631622,0.9999951124191284,0.45874840021133423,0.278075248003006,-0.20434847474098206,1.0,0.4499252438545227,0.28327715396881104,-0.21429142355918884,1.0,0.4474019408226013,0.2846030294895172,-0.21424834430217743,0.9999978542327881,0.44491147994995117,0.2860086262226105,-0.21437379717826843,1.0,0.45765095949172974,0.28334271907806396,-0.10341610014438629,0.9999997615814209,0.438978374004364,0.29455041885375977,-0.15642592310905457,0.9999938011169434,0.46174588799476624,0.29399144649505615,-0.18525025248527527,0.9999864101409912,0.45415177941322327,0.29821696877479553,-0.19853948056697845,0.9999879598617554,0.4880499839782715,0.32687050104141235,-0.0472928062081337,0.9999680519104004,0.4263681471347809,0.346531480550766,-0.12115301936864853,0.9999130964279175,0.5362987518310547,0.34551092982292175,-0.037458933889865875,0.9927518367767334,0.38708212971687317,0.37297067046165466,-0.21592065691947937,0.9947432279586792,0.5727410316467285,0.3527108132839203,-0.10804963111877441,0.8833013772964478,0.35179024934768677,0.3906976878643036,-0.360440194606781,0.9322826862335205,0.5837521553039551,0.3514222502708435,-0.12243711948394775,0.7246567606925964,0.3392910659313202,0.3957766890525818,-0.39247363805770874,0.8709076642990112,0.584297776222229,0.3493631184101105,-0.14828580617904663,0.7970348000526428,0.3414539098739624,0.39150941371917725,-0.40550318360328674,0.9001743793487549,0.5801867246627808,0.35211193561553955,-0.12199906259775162,0.8077040910720825,0.3471212685108185,0.3913193643093109,-0.37155473232269287,0.9019734859466553,0.5028330087661743,0.4552895724773407,0.027127543464303017,0.9989349246025085,0.47008904814720154,0.4721924066543579,-0.026929223909974098,0.9997830986976624,0.5194880366325378,0.5275524854660034,-0.02894880250096321,0.9004448056221008,0.4916301369667053,0.5647572875022888,-0.0603177472949028,0.9789406657218933,0.5155014395713806,0.6132848858833313,0.10293928533792496,0.6223658323287964,0.5186882615089417,0.6541381478309631,0.029892470687627792,0.9512364268302917,0.5124926567077637,0.6267442107200623,0.11078149080276489,0.4287683665752411,0.5238515734672546,0.6681444644927979,0.03246545046567917,0.38458386063575745,0.5247508883476257,0.6421520709991455,0.019520971924066544,0.7265971302986145,0.5258607268333435,0.6818380355834961,-0.0719541534781456,0.826452910900116
